Query Sequence	Frame	Subject Sequence	Percent Identical	Alignment Length	Mismatches	Gap Openings	Query Start	Query End	Subject Start	Subject End	E Value	Coverage	Description	Species	Taxonomic Lineage	Origin Database	Contaminant	Informative	Seed Ortholog	Seed E-Value	Seed Score	Predicted Gene	Tax Scope	Tax Scope Max	Member OGs	KEGG Terms	GO Biological	GO Cellular	GO Molecular	
PC3J_TRINITY_DN45138_c1_g1_i6.p1PC3J_TRINITY_DN45138_c1_g1~~PC3J_TRINITY_DN45138_c1_g1_i6.p1ORFtype:5prime_partiallen:354(+),score=30.04,Stress-antifung|PF01657.17|1.2e-18,Stress-antifung|PF01657.17|3.3e-13PC3J_TRINITY_DN45138_c1_g1_i6:1-1062(+)		AT5G48540.1	31.0	242	154	5	12	250	10	241	1.90e-23	67.50	AT5G48540.1 | receptor-like protein kinase-related family protein | Chr5:19669096-19669887 REVERSE LENGTH=263 | 201606			Pine_Down/similarity_search/DIAMOND/blastp_Pine_DOWN_final_araport_11.out	No	Yes	3847.GLYMA11G00510.1	7.20e-28	130.2		Viridiplantae	virNOG[6]	0J8YN@euNOG,1BQ5F@strNOG,1E1ZG@virNOG,COG0515@NOG		GO:0006793-phosphorus metabolic process(L=3),GO:0019538-protein metabolic process(L=3),GO:0043170-macromolecule metabolic process(L=3),GO:0044260-cellular macromolecule metabolic process(L=3),		GO:0000166-nucleotide binding(L=3),GO:0001882-nucleoside binding(L=3),GO:0003676-nucleic acid binding(L=3),GO:0016741-transferase activity, transferring one-carbon groups(L=3),GO:0016772-transferase activity, transferring phosphorus-containing groups(L=3),GO:0032553-ribonucleotide binding(L=3),GO:0043168-anion binding(L=3),GO:1901265-nucleoside phosphate binding(L=3),	
PC2J_TRINITY_DN43381_c0_g5_i1.p1PC2J_TRINITY_DN43381_c0_g5~~PC2J_TRINITY_DN43381_c0_g5_i1.p1ORFtype:5prime_partiallen:172(-),score=13.33PC2J_TRINITY_DN43381_c0_g5_i1:173-688(-)		AT4G14690.1	51.3	154	70	1	22	170	40	193	9.70e-37	86.60	AT4G14690.1 | Chlorophyll A-B binding family protein | Chr4:8418373-8419129 FORWARD LENGTH=193 | 201606			Pine_Down/similarity_search/DIAMOND/blastp_Pine_DOWN_final_araport_11.out	No	Yes	29760.VIT_05s0020g04110.t01	5.20e-40	169.5	ELIP1	Viridiplantae	virNOG[6]	0IX81@euNOG,0Y0RG@NOG,1BRW8@strNOG,1E3R7@virNOG		GO:0009266-response to temperature stimulus(L=3),GO:0009314-response to radiation(L=3),GO:0009409-response to cold(L=3),GO:0019222-regulation of metabolic process(L=3),GO:0050794-regulation of cellular process(L=3),GO:0080167-response to karrikin(L=3),			
PC1J_TRINITY_DN38570_c1_g3_i3.p1PC1J_TRINITY_DN38570_c1_g3~~PC1J_TRINITY_DN38570_c1_g3_i3.p1ORFtype:5prime_partiallen:104(+),score=9.32PC1J_TRINITY_DN38570_c1_g3_i3:2-313(+)		AT4G33720.1	63.9	83	29	1	2	84	49	130	1.50e-24	79.80	AT4G33720.1 | CAP (Cysteine-rich secretory proteins%2C Antigen 5%2C and Pathogenesis-related 1 protein) superfamily protein | Chr4:16182813-16183304 FORWARD LENGTH=163 | 201606			Pine_Down/similarity_search/DIAMOND/blastp_Pine_DOWN_final_araport_11.out	No	Yes	4641.GSMUA_Achr2P13240_001	7.30e-29	131.7	PR1	Viridiplantae	virNOG[6]	0TZ23@lilNOG,1BRW7@strNOG,1E3JI@virNOG,COG2340@NOG,KOG3017@euNOG	4075,4626				
PC1J_TRINITY_DN33627_c1_g5_i1.p1PC1J_TRINITY_DN33627_c1_g5~~PC1J_TRINITY_DN33627_c1_g5_i1.p1ORFtype:5prime_partiallen:175(-),score=33.81PC1J_TRINITY_DN33627_c1_g5_i1:134-658(-)		AT3G10520.1	57.5	127	54	0	3	129	30	156	2.00e-37	72.60	AT3G10520.1 | hemoglobin 2 | Chr3:3276516-3277765 REVERSE LENGTH=158 | 201606			Pine_Down/similarity_search/DIAMOND/blastp_Pine_DOWN_final_araport_11.out	No	Yes	4113.PGSC0003DMT400043557	3.80e-38	163.3		Viridiplantae	virNOG[6]	1BS1U@strNOG,1E3WW@virNOG,COG1018@NOG,KOG3378@euNOG		GO:0006082-organic acid metabolic process(L=3),GO:0006629-lipid metabolic process(L=3),GO:0006810-transport(L=3),GO:0044249-cellular biosynthetic process(L=3),GO:0044255-cellular lipid metabolic process(L=3),GO:0044281-small molecule metabolic process(L=3),GO:0044765-single-organism transport(L=3),GO:1901576-organic substance biosynthetic process(L=3),		GO:0005344-oxygen transporter activity(L=3),GO:0043169-cation binding(L=3),GO:0046906-tetrapyrrole binding(L=3),	
PC3A_TRINITY_DN44146_c1_g1_i1.p1PC3A_TRINITY_DN44146_c1_g1~~PC3A_TRINITY_DN44146_c1_g1_i1.p1ORFtype:internallen:234(-),score=27.58,LRR_8|PF13855.6|7.2e-07,LRR_8|PF13855.6|0.00064,LRR_8|PF13855.6|0.65,LRR_8|PF13855.6|0.72,LRR_8|PF13855.6|1.9e-10,LRR_8|PF13855.6|4.3e-13,LRR_4|PF12799.7|9.1,LRR_4|PF12799.7|4.5e-05,LRR_4|PF12799.7|3.1e-06,LRR_4|PF12799.7|0.0059,LRR_4|PF12799.7|17,LRR_4|PF12799.7|0.0022,LRR_4|PF12799.7|9.3e-07,LRR_4|PF12799.7|1.5e-05,LRR_1|PF00560.33|38,LRR_1|PF00560.33|8.4,LRR_1|PF00560.33|61,LRR_1|PF00560.33|5.1e+03,LRR_1|PF00560.33|19,LRR_1|PF00560.33|10,LRR_1|PF00560.33|6e+02,LRR_6|PF13516.6|4.3e+02,LRR_6|PF13516.6|1,LRR_6|PF13516.6|71,LRR_6|PF13516.6|8.5e+02,LRR_6|PF13516.6|3.5e+03,LRR_6|PF13516.6|6.6,LRR_6|PF13516.6|2.7,LRR_6|PF13516.6|12PC3A_TRINITY_DN44146_c1_g1_i1:1-699(-)																														
PC3A_TRINITY_DN44132_c1_g6_i1.p1PC3A_TRINITY_DN44132_c1_g6~~PC3A_TRINITY_DN44132_c1_g6_i1.p1ORFtype:internallen:121(-),score=9.49,Pkinase_Tyr|PF07714.17|7.5e-18,Pkinase|PF00069.25|7.4e-17,ABC1|PF03109.16|0.017PC3A_TRINITY_DN44132_c1_g6_i1:1-360(-)																			3847.GLYMA09G31333.1	6.60e-34	148.7		Viridiplantae	virNOG[6]	1BF5P@strNOG,1DT3R@virNOG,COG0515@NOG,KOG1187@euNOG		GO:0006793-phosphorus metabolic process(L=3),GO:0019538-protein metabolic process(L=3),GO:0043170-macromolecule metabolic process(L=3),GO:0044260-cellular macromolecule metabolic process(L=3),	GO:0005886-plasma membrane(L=3),GO:0071944-cell periphery(L=3),	GO:0000166-nucleotide binding(L=3),GO:0001882-nucleoside binding(L=3),GO:0016772-transferase activity, transferring phosphorus-containing groups(L=3),GO:0030247-polysaccharide binding(L=3),GO:0032553-ribonucleotide binding(L=3),GO:0043168-anion binding(L=3),GO:1901265-nucleoside phosphate binding(L=3),	
PC3A_TRINITY_DN44008_c1_g1_i1.p1PC3A_TRINITY_DN44008_c1_g1~~PC3A_TRINITY_DN44008_c1_g1_i1.p1ORFtype:internallen:191(-),score=-3.50,Stress-antifung|PF01657.17|6.5e-13,Stress-antifung|PF01657.17|2.5e-11PC3A_TRINITY_DN44008_c1_g1_i1:3-572(-)		AT3G22060.1	31.9	185	109	5	4	186	82	251	3.80e-18	96.30	AT3G22060.1 | Receptor-like protein kinase-related family protein | Chr3:7771065-7772137 FORWARD LENGTH=252 | 201606			Pine_Down/similarity_search/DIAMOND/blastp_Pine_DOWN_final_araport_11.out	No	Yes	29760.VIT_12s0059g02590.t01	1.60e-21	108.2		Viridiplantae	virNOG[6]	0IH26@euNOG,0YIB0@NOG,1BN82@strNOG,1E02Y@virNOG		GO:0006793-phosphorus metabolic process(L=3),GO:0009725-response to hormone(L=3),GO:0010033-response to organic substance(L=3),GO:0019538-protein metabolic process(L=3),GO:0043170-macromolecule metabolic process(L=3),GO:0044260-cellular macromolecule metabolic process(L=3),GO:1901700-response to oxygen-containing compound(L=3),	GO:0005622-intracellular(L=3),GO:0030312-external encapsulating structure(L=3),GO:0043229-intracellular organelle(L=3),GO:0044424-intracellular part(L=3),GO:0071944-cell periphery(L=3),	GO:0000166-nucleotide binding(L=3),GO:0001882-nucleoside binding(L=3),GO:0016772-transferase activity, transferring phosphorus-containing groups(L=3),GO:0032553-ribonucleotide binding(L=3),GO:0043168-anion binding(L=3),GO:1901265-nucleoside phosphate binding(L=3),	
PC3A_TRINITY_DN43051_c1_g1_i2.p1PC3A_TRINITY_DN43051_c1_g1~~PC3A_TRINITY_DN43051_c1_g1_i2.p1ORFtype:internallen:120(-),score=10.27,K-box|PF01486.17|1.2e-18,YkyA|PF10368.9|0.00071,DUF1192|PF06698.11|0.021,DUF1192|PF06698.11|2.6e+02,Wtap|PF17098.5|0.049,DUF2756|PF10956.8|0.039,DUF2756|PF10956.8|3e+03,HAUS6_N|PF14661.6|0.054,ING|PF12998.7|0.16,DUF29|PF01724.16|1.2,XhlA|PF10779.9|8.7,XhlA|PF10779.9|30PC3A_TRINITY_DN43051_c1_g1_i2:3-359(-)		AT5G60910.2	37.5	96	59	1	22	117	35	129	1.90e-07	80.70	AT5G60910.2 | AGAMOUS-like 8 | Chr5:24502736-24504934 REVERSE LENGTH=180 | 201606			Pine_Down/similarity_search/DIAMOND/blastp_Pine_DOWN_final_araport_11.out	No	Yes	29760.VIT_17s0000g01230.t01	5.60e-09	65.9		Viridiplantae	virNOG[6]	1BUNF@strNOG,1E6K9@virNOG,COG5068@NOG,KOG0014@euNOG		GO:0006139-nucleobase-containing compound metabolic process(L=3),GO:0006725-cellular aromatic compound metabolic process(L=3),GO:0019222-regulation of metabolic process(L=3),GO:0034641-cellular nitrogen compound metabolic process(L=3),GO:0043170-macromolecule metabolic process(L=3),GO:0044249-cellular biosynthetic process(L=3),GO:0044260-cellular macromolecule metabolic process(L=3),GO:0046483-heterocycle metabolic process(L=3),GO:0050794-regulation of cellular process(L=3),GO:1901360-organic cyclic compound metabolic process(L=3),GO:1901576-organic substance biosynthetic process(L=3),	GO:0005622-intracellular(L=3),GO:0043229-intracellular organelle(L=3),GO:0044424-intracellular part(L=3),	GO:0003676-nucleic acid binding(L=3),	
PC3A_TRINITY_DN41991_c0_g2_i1.p1PC3A_TRINITY_DN41991_c0_g2~~PC3A_TRINITY_DN41991_c0_g2_i1.p1ORFtype:internallen:155(-),score=35.81,GlutR_N|PF05201.15|4.8e-31,GlutR_N|PF05201.15|16,PH_9|PF15410.6|2.7,PH_9|PF15410.6|32PC3A_TRINITY_DN41991_c0_g2_i1:3-464(-)																			88036.EFJ05616	3.60e-56	223.0	GTR1	Viridiplantae	virNOG[6]	0IGX5@euNOG,1BIIK@strNOG,1DWFQ@virNOG,COG0373@NOG	860,1100,1110	GO:0006725-cellular aromatic compound metabolic process(L=3),GO:0006979-response to oxidative stress(L=3),GO:0009314-response to radiation(L=3),GO:0034641-cellular nitrogen compound metabolic process(L=3),GO:0042168-heme metabolic process(L=3),GO:0042440-pigment metabolic process(L=3),GO:0044249-cellular biosynthetic process(L=3),GO:0046483-heterocycle metabolic process(L=3),GO:0051186-cofactor metabolic process(L=3),GO:0055114-oxidation-reduction process(L=3),GO:1901360-organic cyclic compound metabolic process(L=3),GO:1901564-organonitrogen compound metabolic process(L=3),GO:1901576-organic substance biosynthetic process(L=3),	GO:0005622-intracellular(L=3),GO:0043229-intracellular organelle(L=3),GO:0044424-intracellular part(L=3),	GO:0000166-nucleotide binding(L=3),GO:0016903-oxidoreductase activity, acting on the aldehyde or oxo group of donors(L=3),GO:0050662-coenzyme binding(L=3),GO:1901265-nucleoside phosphate binding(L=3),	
PC3A_TRINITY_DN41359_c1_g2_i3.p1PC3A_TRINITY_DN41359_c1_g2~~PC3A_TRINITY_DN41359_c1_g2_i3.p1ORFtype:internallen:201(+),score=20.26,Pkinase_Tyr|PF07714.17|9.1e-16,Pkinase|PF00069.25|8.3e+02,Pkinase|PF00069.25|5.9e-15,ABC1|PF03109.16|0.0062PC3A_TRINITY_DN41359_c1_g2_i3:2-601(+)																			4081.Solyc02g072470.2.1	1.30e-39	168.3		Viridiplantae	virNOG[6]	0IHKA@euNOG,1BFZ4@strNOG,1DTWR@virNOG,COG0515@NOG,COG4886@NOG		GO:0006793-phosphorus metabolic process(L=3),GO:0019538-protein metabolic process(L=3),GO:0043170-macromolecule metabolic process(L=3),GO:0044260-cellular macromolecule metabolic process(L=3),GO:0055114-oxidation-reduction process(L=3),	GO:0031224-intrinsic component of membrane(L=3),	GO:0000166-nucleotide binding(L=3),GO:0001882-nucleoside binding(L=3),GO:0003676-nucleic acid binding(L=3),GO:0016746-transferase activity, transferring acyl groups(L=3),GO:0016772-transferase activity, transferring phosphorus-containing groups(L=3),GO:0032553-ribonucleotide binding(L=3),GO:0043168-anion binding(L=3),GO:1901265-nucleoside phosphate binding(L=3),	
PC3A_TRINITY_DN38957_c0_g3_i9.p1PC3A_TRINITY_DN38957_c0_g3~~PC3A_TRINITY_DN38957_c0_g3_i9.p1ORFtype:internallen:312(-),score=37.77,Senescence|PF06911.12|0.00014,Staph_haemo|PF05480.11|0.022PC3A_TRINITY_DN38957_c0_g3_i9:3-935(-)		AT4G35985.2	37.9	232	123	7	71	294	66	284	6.70e-36	72.00	AT4G35985.2 | Senescence/dehydration-associated protein-like protein | Chr4:17032903-17033862 REVERSE LENGTH=319 | 201606			Pine_Down/similarity_search/DIAMOND/blastp_Pine_DOWN_final_araport_11.out	No	Yes	29760.VIT_11s0016g03140.t01	2.00e-37	161.8		Viridiplantae	virNOG[6]	0IFVE@euNOG,0YG0V@NOG,1BBX6@strNOG,1DPVZ@virNOG					
PC3A_TRINITY_DN35942_c2_g1_i4.p1PC3A_TRINITY_DN35942_c2_g1~~PC3A_TRINITY_DN35942_c2_g1_i4.p1ORFtype:internallen:508(+),score=16.90,Lectin_legB|PF00139.19|3.9e-72,Pkinase|PF00069.25|3.3e-35,Pkinase_Tyr|PF07714.17|2.7e-32,Bact_lectin|PF18483.1|0.00048,ABC1|PF03109.16|0.0056,Dabb|PF07876.12|0.34PC3A_TRINITY_DN35942_c2_g1_i4:3-1523(+)		AT3G53810.1	45.7	484	253	6	32	507	27	508	2.00e-122	93.90	AT3G53810.1 | Concanavalin A-like lectin protein kinase family protein | Chr3:19933153-19935186 REVERSE LENGTH=677 | 201606			Pine_Down/similarity_search/DIAMOND/blastp_Pine_DOWN_final_araport_11.out	No	Yes	3694.POPTR_0010s20820.1	2.80e-126	457.6		Viridiplantae	virNOG[6]	0IHUB@euNOG,1BJ8X@strNOG,1DX6B@virNOG,COG0515@NOG		GO:0006793-phosphorus metabolic process(L=3),GO:0019538-protein metabolic process(L=3),GO:0043170-macromolecule metabolic process(L=3),GO:0044260-cellular macromolecule metabolic process(L=3),	GO:0005886-plasma membrane(L=3),GO:0031224-intrinsic component of membrane(L=3),GO:0071944-cell periphery(L=3),	GO:0000166-nucleotide binding(L=3),GO:0001882-nucleoside binding(L=3),GO:0016772-transferase activity, transferring phosphorus-containing groups(L=3),GO:0032553-ribonucleotide binding(L=3),GO:0043168-anion binding(L=3),GO:1901265-nucleoside phosphate binding(L=3),	
PC3A_TRINITY_DN32186_c0_g1_i1.p1PC3A_TRINITY_DN32186_c0_g1~~PC3A_TRINITY_DN32186_c0_g1_i1.p1ORFtype:internallen:132(-),score=7.20,Prenyltransf|PF01255.19|7.6e-29PC3A_TRINITY_DN32186_c0_g1_i1:3-395(-)																			88036.EFJ23785	3.00e-24	116.7		Viridiplantae	virNOG[6]	1BEP5@strNOG,1DSM1@virNOG,COG0020@NOG,KOG1602@euNOG	900,1110	GO:0005975-carbohydrate metabolic process(L=3),GO:0019538-protein metabolic process(L=3),GO:0043170-macromolecule metabolic process(L=3),GO:0044249-cellular biosynthetic process(L=3),GO:0044260-cellular macromolecule metabolic process(L=3),GO:0044723-single-organism carbohydrate metabolic process(L=3),GO:0070085-glycosylation(L=3),GO:1901135-carbohydrate derivative metabolic process(L=3),GO:1901576-organic substance biosynthetic process(L=3),		GO:0016765-transferase activity, transferring alkyl or aryl (other than methyl) groups(L=3),	
PC3A_TRINITY_DN31158_c0_g1_i1.p1PC3A_TRINITY_DN31158_c0_g1~~PC3A_TRINITY_DN31158_c0_g1_i1.p1ORFtype:internallen:147(+),score=31.60,Myb_DNA-binding|PF00249.31|2.3e-13,Myb_DNA-bind_6|PF13921.6|5.8e-08,Myb_DNA-bind_4|PF13837.6|0.2,Bunya_G1|PF03557.15|0.12,SANT_DAMP1_like|PF16282.5|0.21PC3A_TRINITY_DN31158_c0_g1_i1:2-439(+)																			29760.VIT_18s0001g02160.t01	6.20e-34	149.1	OSI_37666	Viridiplantae	virNOG[6]	1BF7J@strNOG,1DT5T@virNOG,COG5259@NOG,KOG1279@euNOG		GO:0006139-nucleobase-containing compound metabolic process(L=3),GO:0006725-cellular aromatic compound metabolic process(L=3),GO:0006996-organelle organization(L=3),GO:0007275-multicellular organism development(L=3),GO:0019222-regulation of metabolic process(L=3),GO:0034641-cellular nitrogen compound metabolic process(L=3),GO:0043170-macromolecule metabolic process(L=3),GO:0044249-cellular biosynthetic process(L=3),GO:0044260-cellular macromolecule metabolic process(L=3),GO:0046483-heterocycle metabolic process(L=3),GO:0050794-regulation of cellular process(L=3),GO:0055114-oxidation-reduction process(L=3),GO:1901360-organic cyclic compound metabolic process(L=3),GO:1901576-organic substance biosynthetic process(L=3),	GO:0005622-intracellular(L=3),GO:0043229-intracellular organelle(L=3),GO:0044424-intracellular part(L=3),GO:0044446-intracellular organelle part(L=3),	GO:0003676-nucleic acid binding(L=3),GO:0003682-chromatin binding(L=3),GO:0016667-oxidoreductase activity, acting on a sulfur group of donors(L=3),GO:0043169-cation binding(L=3),	
PC3A_TRINITY_DN3071_c0_g1_i1.p1PC3A_TRINITY_DN3071_c0_g1~~PC3A_TRINITY_DN3071_c0_g1_i1.p1ORFtype:internallen:128(-),score=13.43,NPR1_interact|PF15699.5|7.2e-05PC3A_TRINITY_DN3071_c0_g1_i1:1-381(-)																														
PC3A_TRINITY_DN24135_c0_g1_i1.p1PC3A_TRINITY_DN24135_c0_g1~~PC3A_TRINITY_DN24135_c0_g1_i1.p1ORFtype:internallen:282(-),score=73.53,Myb_DNA-binding|PF00249.31|1.4e-08,Myb_DNA-bind_7|PF15963.5|8.2e-06PC3A_TRINITY_DN24135_c0_g1_i1:3-845(-)																			3694.POPTR_0008s04150.1	6.50e-24	116.7		Viridiplantae	virNOG[6]	0YDXP@NOG,1BDHY@strNOG,1DRFD@virNOG,KOG1878@euNOG			GO:0005622-intracellular(L=3),GO:0043229-intracellular organelle(L=3),GO:0044424-intracellular part(L=3),	GO:0003676-nucleic acid binding(L=3),GO:0003682-chromatin binding(L=3),	
PC3A_TRINITY_DN23991_c0_g1_i1.p2PC3A_TRINITY_DN23991_c0_g1~~PC3A_TRINITY_DN23991_c0_g1_i1.p2ORFtype:internallen:102(-),score=15.16,IRK_C|PF17655.1|3.8e-09,MsyB|PF13984.6|0.0053PC3A_TRINITY_DN23991_c0_g1_i1:3-305(-)																			3218.PP1S6_153V6.1	3.00e-35	152.9		Viridiplantae	virNOG[6]	0JAS6@euNOG,0ZJJX@NOG,1C13D@strNOG,1EBH5@virNOG		GO:0006810-transport(L=3),GO:0032879-regulation of localization(L=3),GO:0044765-single-organism transport(L=3),GO:0050794-regulation of cellular process(L=3),GO:0071804-cellular potassium ion transport(L=3),	GO:0031224-intrinsic component of membrane(L=3),	GO:0022803-passive transmembrane transporter activity(L=3),GO:0022891-substrate-specific transmembrane transporter activity(L=3),	
PC1A_TRINITY_DN43262_c0_g1_i9.p1PC1A_TRINITY_DN43262_c0_g1~~PC1A_TRINITY_DN43262_c0_g1_i9.p1ORFtype:internallen:485(-),score=35.45,LRR_8|PF13855.6|0.82,LRR_8|PF13855.6|0.0017,LRR_8|PF13855.6|5.6e-05,LRR_8|PF13855.6|5.4e-10,LRR_8|PF13855.6|0.39,LRR_8|PF13855.6|0.00065,LRR_8|PF13855.6|9.5e-07,LRR_8|PF13855.6|0.17,LRR_8|PF13855.6|0.011,LRR_4|PF12799.7|3.7,LRR_4|PF12799.7|5.5e-05,LRR_4|PF12799.7|0.0063,LRR_4|PF12799.7|5,LRR_4|PF12799.7|0.042,LRR_4|PF12799.7|6.2,LRR_4|PF12799.7|2.2,LRR_4|PF12799.7|0.007,LRR_4|PF12799.7|0.0011,LRR_4|PF12799.7|0.00033,LRR_4|PF12799.7|0.94,LRR_4|PF12799.7|1.1,LRR_4|PF12799.7|0.79,LRR_1|PF00560.33|1.2e+04,LRR_1|PF00560.33|1.4e+02,LRR_1|PF00560.33|20,LRR_1|PF00560.33|9.8,LRR_1|PF00560.33|35,LRR_1|PF00560.33|4.1e+03,LRR_1|PF00560.33|27,LRR_1|PF00560.33|0.68,LRR_1|PF00560.33|21,LRR_1|PF00560.33|5,LRR_1|PF00560.33|31,LRR_1|PF00560.33|1e+02,LRR_1|PF00560.33|5.6e+02,LRR_1|PF00560.33|2.5e+02,LRR_1|PF00560.33|2.7e+03,Suppressor_P21|PF11479.8|1.4e+02,Suppressor_P21|PF11479.8|1.4e+02,Suppressor_P21|PF11479.8|6,Suppressor_P21|PF11479.8|6.8,Suppressor_P21|PF11479.8|8,Suppressor_P21|PF11479.8|3.4e+03,LRRNT_2|PF08263.12|2.1e-05,DUF5612|PF18462.1|0.12PC1A_TRINITY_DN43262_c0_g1_i9:2-1453(-)																			4513.MLOC_45882.1	5.20e-13	81.3		Viridiplantae	virNOG[6]	0JU3N@euNOG,0U2SQ@lilNOG,1604J@poaNOG,1BYG1@strNOG,1EDSA@virNOG,COG4886@NOG					
PC1A_TRINITY_DN42575_c0_g2_i5.p1PC1A_TRINITY_DN42575_c0_g2~~PC1A_TRINITY_DN42575_c0_g2_i5.p1ORFtype:3prime_partiallen:227(-),score=23.20PC1A_TRINITY_DN42575_c0_g2_i5:3-680(-)		AT3G01170.1	48.0	175	83	3	54	226	43	211	8.90e-38	76.50	AT3G01170.1 | Ribosomal protein L34e superfamily protein | Chr3:58043-58690 FORWARD LENGTH=215 | 201606			Pine_Down/similarity_search/DIAMOND/blastp_Pine_DOWN_final_araport_11.out	No	Yes	29760.VIT_06s0004g00160.t01	2.20e-70	270.8		Viridiplantae	virNOG[6]	0IWGC@euNOG,11QF9@NOG,1BR98@strNOG,1E33F@virNOG		GO:0019538-protein metabolic process(L=3),GO:0043170-macromolecule metabolic process(L=3),GO:0044249-cellular biosynthetic process(L=3),GO:0044260-cellular macromolecule metabolic process(L=3),GO:1901576-organic substance biosynthetic process(L=3),	GO:0005622-intracellular(L=3),GO:0043229-intracellular organelle(L=3),GO:0043232-intracellular non-membrane-bounded organelle(L=3),GO:0044424-intracellular part(L=3),		
PC3A_TRINITY_DN41251_c3_g1_i3.p1PC3A_TRINITY_DN41251_c3_g1~~PC3A_TRINITY_DN41251_c3_g1_i3.p1ORFtype:5prime_partiallen:357(-),score=44.81,PTR2|PF00854.21|9.4e-74,DUF3021|PF11457.8|0.08,DUF3021|PF11457.8|1.4e+03,DUF3021|PF11457.8|2.8e+02,DUF4212|PF13937.6|1.8,DUF4212|PF13937.6|3.5e+02,DUF4212|PF13937.6|1.7e+02PC3A_TRINITY_DN41251_c3_g1_i3:34-1104(-)		AT5G46050.1	57.8	329	138	1	1	328	115	443	7.30e-111	91.90	AT5G46050.1 | peptide transporter 3 | Chr5:18675062-18679071 REVERSE LENGTH=582 | 201606			Pine_Down/similarity_search/DIAMOND/blastp_Pine_DOWN_final_araport_11.out	No	Yes	3694.POPTR_0002s26060.1	1.10e-113	415.2		Viridiplantae	virNOG[6]	1BQKM@strNOG,1E2ET@virNOG,COG3104@NOG,KOG1237@euNOG		GO:0006810-transport(L=3),			
PC1A_TRINITY_DN41775_c2_g1_i3.p1PC1A_TRINITY_DN41775_c2_g1~~PC1A_TRINITY_DN41775_c2_g1_i3.p1ORFtype:5prime_partiallen:109(-),score=3.52PC1A_TRINITY_DN41775_c2_g1_i3:29-355(-)																														
PC3A_TRINITY_DN36337_c3_g1_i5.p1PC3A_TRINITY_DN36337_c3_g1~~PC3A_TRINITY_DN36337_c3_g1_i5.p1ORFtype:internallen:316(-),score=5.36,PUNUT|PF16913.5|1.4e-98,EamA|PF00892.20|1.4e-05,EamA|PF00892.20|8.2e+03,HlyIII|PF03006.20|0.029,HlyIII|PF03006.20|3.2e+02,DUF3099|PF11298.8|4.8e+02,DUF3099|PF11298.8|9.2,DUF3099|PF11298.8|3.4e+03PC3A_TRINITY_DN36337_c3_g1_i5:1-945(-)		AT1G28230.1	48.1	295	138	3	30	309	5	299	1.00e-76	88.90	AT1G28230.1 | purine permease 1 | Chr1:9862200-9864554 REVERSE LENGTH=356 | 201606			Pine_Down/similarity_search/DIAMOND/blastp_Pine_DOWN_final_araport_11.out	No	Yes	4641.GSMUA_Achr10P24980_001	1.10e-88	332.0		Viridiplantae	virNOG[6]	0IGQV@euNOG,0TSEB@lilNOG,0Y9BB@NOG,1BJQG@strNOG,1DXN2@virNOG		GO:0006810-transport(L=3),GO:0010817-regulation of hormone levels(L=3),GO:0044765-single-organism transport(L=3),	GO:0005886-plasma membrane(L=3),GO:0031224-intrinsic component of membrane(L=3),GO:0031226-intrinsic component of plasma membrane(L=3),GO:0044459-plasma membrane part(L=3),GO:0071944-cell periphery(L=3),	GO:0005337-nucleoside transmembrane transporter activity(L=3),GO:0022891-substrate-specific transmembrane transporter activity(L=3),	
PC1A_TRINITY_DN38979_c0_g1_i4.p1PC1A_TRINITY_DN38979_c0_g1~~PC1A_TRINITY_DN38979_c0_g1_i4.p1ORFtype:5prime_partiallen:177(-),score=16.46,CAP|PF00188.26|5.2e-22PC1A_TRINITY_DN38979_c0_g1_i4:390-920(-)		AT4G33720.1	59.0	161	62	2	16	176	7	163	7.90e-50	91.00	AT4G33720.1 | CAP (Cysteine-rich secretory proteins%2C Antigen 5%2C and Pathogenesis-related 1 protein) superfamily protein | Chr4:16182813-16183304 FORWARD LENGTH=163 | 201606			Pine_Down/similarity_search/DIAMOND/blastp_Pine_DOWN_final_araport_11.out	No	Yes	3711.Bra036986.1-P	1.30e-49	201.4	PR1	Viridiplantae	virNOG[6]	1BRW7@strNOG,1E3JI@virNOG,COG2340@NOG,KOG3017@euNOG	4075,4626				
PC3A_TRINITY_DN43628_c1_g1_i3.p1PC3A_TRINITY_DN43628_c1_g1~~PC3A_TRINITY_DN43628_c1_g1_i3.p1ORFtype:internallen:221(+),score=19.53,PEPCK_ATP|PF01293.20|2.6e-106,AAA_24|PF13479.6|0.12,AAA_24|PF13479.6|6.1e+03PC3A_TRINITY_DN43628_c1_g1_i3:3-662(+)																			39946.BGIOSGA011083-PA	8.20e-107	391.7	PCK2	Viridiplantae	virNOG[6]	0IE0Y@euNOG,0TM5Y@lilNOG,15HZX@poaNOG,1BE33@strNOG,1DS0V@virNOG,COG1866@NOG	10,20,620,710,1100,1110,1120	GO:0005975-carbohydrate metabolic process(L=3),GO:0006793-phosphorus metabolic process(L=3),GO:0006952-defense response(L=3),GO:0009991-response to extracellular stimulus(L=3),GO:0010035-response to inorganic substance(L=3),GO:0031668-cellular response to extracellular stimulus(L=3),GO:0033554-cellular response to stress(L=3),GO:0042594-response to starvation(L=3),GO:0044723-single-organism carbohydrate metabolic process(L=3),GO:0045087-innate immune response(L=3),GO:0071496-cellular response to external stimulus(L=3),GO:1901576-organic substance biosynthetic process(L=3),	GO:0005622-intracellular(L=3),GO:0043229-intracellular organelle(L=3),GO:0043232-intracellular non-membrane-bounded organelle(L=3),GO:0044424-intracellular part(L=3),GO:0044446-intracellular organelle part(L=3),GO:0070013-intracellular organelle lumen(L=3),	GO:0000166-nucleotide binding(L=3),GO:0001882-nucleoside binding(L=3),GO:0016772-transferase activity, transferring phosphorus-containing groups(L=3),GO:0016830-carbon-carbon lyase activity(L=3),GO:0032553-ribonucleotide binding(L=3),GO:0043168-anion binding(L=3),GO:1901265-nucleoside phosphate binding(L=3),	
PC1A_TRINITY_DN41738_c2_g3_i6.p1PC1A_TRINITY_DN41738_c2_g3~~PC1A_TRINITY_DN41738_c2_g3_i6.p1ORFtype:internallen:222(-),score=3.75PC1A_TRINITY_DN41738_c2_g3_i6:2-664(-)																			4113.PGSC0003DMT400015538	4.70e-17	93.6		Viridiplantae	virNOG[6]	0IHKA@euNOG,1BFZ4@strNOG,1DTWR@virNOG,COG0515@NOG,COG4886@NOG		GO:0006793-phosphorus metabolic process(L=3),GO:0019538-protein metabolic process(L=3),GO:0043170-macromolecule metabolic process(L=3),GO:0044260-cellular macromolecule metabolic process(L=3),GO:0055114-oxidation-reduction process(L=3),	GO:0031224-intrinsic component of membrane(L=3),	GO:0000166-nucleotide binding(L=3),GO:0001882-nucleoside binding(L=3),GO:0003676-nucleic acid binding(L=3),GO:0016746-transferase activity, transferring acyl groups(L=3),GO:0016772-transferase activity, transferring phosphorus-containing groups(L=3),GO:0032553-ribonucleotide binding(L=3),GO:0043168-anion binding(L=3),GO:1901265-nucleoside phosphate binding(L=3),	
PC1A_TRINITY_DN42134_c0_g4_i2.p1PC1A_TRINITY_DN42134_c0_g4~~PC1A_TRINITY_DN42134_c0_g4_i2.p1ORFtype:5prime_partiallen:337(-),score=45.67PC1A_TRINITY_DN42134_c0_g4_i2:42-1052(-)		AT3G19000.1	57.5	339	132	5	1	328	13	350	2.00e-110	97.30	AT3G19000.1 | 2-oxoglutarate (2OG) and Fe(II)-dependent oxygenase superfamily protein | Chr3:6553668-6554987 REVERSE LENGTH=352 | 201606			Pine_Down/similarity_search/DIAMOND/blastp_Pine_DOWN_final_araport_11.out	No	Yes	4081.Solyc01g108880.2.1	4.10e-113	413.3		Viridiplantae	virNOG[6]	1BIRX@strNOG,1DWNU@virNOG,COG3491@NOG,KOG0143@euNOG		GO:0055114-oxidation-reduction process(L=3),		GO:0016701-oxidoreductase activity, acting on single donors with incorporation of molecular oxygen(L=3),GO:0016705-oxidoreductase activity, acting on paired donors, with incorporation or reduction of molecular oxygen(L=3),GO:0043169-cation binding(L=3),GO:0051213-dioxygenase activity(L=3),	
PC3A_TRINITY_DN41349_c0_g1_i11.p1PC3A_TRINITY_DN41349_c0_g1~~PC3A_TRINITY_DN41349_c0_g1_i11.p1ORFtype:completelen:261(-),score=33.92,DUF3700|PF12481.8|2e-09,DUF3700|PF12481.8|2e-74,GATase_7|PF13537.6|7.2e-07,GATase_6|PF13522.6|0.01,DUF1521|PF07481.11|0.35PC3A_TRINITY_DN41349_c0_g1_i11:108-890(-)		AT3G22850.1	63.4	164	59	1	96	259	85	247	2.50e-60	62.80	AT3G22850.1 | aluminum induced protein with YGL and LRDR motifs | Chr3:8089067-8090275 FORWARD LENGTH=248 | 201606			Pine_Down/similarity_search/DIAMOND/blastp_Pine_DOWN_final_araport_11.out	No	Yes	29760.VIT_05s0020g04160.t01	1.30e-66	258.5		Viridiplantae	virNOG[6]	0II6U@euNOG,11HPV@NOG,1BE8A@strNOG,1DS60@virNOG		GO:0009725-response to hormone(L=3),GO:0010033-response to organic substance(L=3),GO:1901700-response to oxygen-containing compound(L=3),	GO:0005622-intracellular(L=3),GO:0005886-plasma membrane(L=3),GO:0043229-intracellular organelle(L=3),GO:0044424-intracellular part(L=3),GO:0071944-cell periphery(L=3),		
PC1A_TRINITY_DN41075_c2_g1_i1.p1PC1A_TRINITY_DN41075_c2_g1~~PC1A_TRINITY_DN41075_c2_g1_i1.p1ORFtype:completelen:154(-),score=25.22PC1A_TRINITY_DN41075_c2_g1_i1:554-1015(-)																			29760.VIT_00s2576g00010.t01	1.10e-38	164.9		Viridiplantae	virNOG[6]	0JVMD@euNOG,1C1FN@strNOG,1EEF0@virNOG,COG1866@NOG	10,20,620,710,1100,1110,1120	GO:0005975-carbohydrate metabolic process(L=3),GO:0044723-single-organism carbohydrate metabolic process(L=3),GO:1901576-organic substance biosynthetic process(L=3),		GO:0000166-nucleotide binding(L=3),GO:0001882-nucleoside binding(L=3),GO:0016830-carbon-carbon lyase activity(L=3),GO:0032553-ribonucleotide binding(L=3),GO:0043168-anion binding(L=3),GO:1901265-nucleoside phosphate binding(L=3),	
PC1A_TRINITY_DN43582_c2_g2_i1.p1PC1A_TRINITY_DN43582_c2_g2~~PC1A_TRINITY_DN43582_c2_g2_i1.p1ORFtype:5prime_partiallen:119(+),score=-4.52,Thaumatin|PF00314.17|2.6e-35PC1A_TRINITY_DN43582_c2_g2_i1:3-359(+)																			29760.VIT_18s0001g11930.t01	6.60e-34	148.7		Viridiplantae	virNOG[6]	0IKKV@euNOG,0YBYT@NOG,1BGU9@strNOG,1DUQV@virNOG		GO:0006952-defense response(L=3),GO:0009314-response to radiation(L=3),GO:0010035-response to inorganic substance(L=3),GO:0019222-regulation of metabolic process(L=3),GO:0045087-innate immune response(L=3),	GO:0005622-intracellular(L=3),GO:0030312-external encapsulating structure(L=3),GO:0043229-intracellular organelle(L=3),GO:0044424-intracellular part(L=3),GO:0071944-cell periphery(L=3),		
PC1A_TRINITY_DN40428_c6_g1_i2.p1PC1A_TRINITY_DN40428_c6_g1~~PC1A_TRINITY_DN40428_c6_g1_i2.p1ORFtype:completelen:176(-),score=6.24PC1A_TRINITY_DN40428_c6_g1_i2:31-558(-)																			29760.VIT_12s0028g03200.t01	2.20e-22	110.9	OSNAAT1	Viridiplantae	virNOG[6]	1BD01@strNOG,1DVX7@virNOG,COG0436@NOG,KOG0259@euNOG	130,270,350,360,400,401,950,960,1100,1110,1230,380,966,1110,1210	GO:0006082-organic acid metabolic process(L=3),GO:0006520-cellular amino acid metabolic process(L=3),GO:0006725-cellular aromatic compound metabolic process(L=3),GO:0006790-sulfur compound metabolic process(L=3),GO:0006810-transport(L=3),GO:0007275-multicellular organism development(L=3),GO:0009850-auxin metabolic process(L=3),GO:0009991-response to extracellular stimulus(L=3),GO:0010817-regulation of hormone levels(L=3),GO:0016143-S-glycoside metabolic process(L=3),GO:0019748-secondary metabolic process(L=3),GO:0031668-cellular response to extracellular stimulus(L=3),GO:0034641-cellular nitrogen compound metabolic process(L=3),GO:0034754-cellular hormone metabolic process(L=3),GO:0040008-regulation of growth(L=3),GO:0042360-vitamin E metabolic process(L=3),GO:0042446-hormone biosynthetic process(L=3),GO:0044248-cellular catabolic process(L=3),GO:0044249-cellular biosynthetic process(L=3),GO:0044281-small molecule metabolic process(L=3),GO:0044711-single-organism biosynthetic process(L=3),GO:0044712-single-organism catabolic process(L=3),GO:0044765-single-organism transport(L=3),GO:0046483-heterocycle metabolic process(L=3),GO:0050794-regulation of cellular process(L=3),GO:0071496-cellular response to external stimulus(L=3),GO:1901135-carbohydrate derivative metabolic process(L=3),GO:1901360-organic cyclic compound metabolic process(L=3),GO:1901564-organonitrogen compound metabolic process(L=3),GO:1901575-organic substance catabolic process(L=3),GO:1901576-organic substance biosynthetic process(L=3),GO:1901657-glycosyl compound metabolic process(L=3),	GO:0005622-intracellular(L=3),GO:0043229-intracellular organelle(L=3),GO:0044424-intracellular part(L=3),	GO:0016769-transferase activity, transferring nitrogenous groups(L=3),GO:0016846-carbon-sulfur lyase activity(L=3),GO:0030170-pyridoxal phosphate binding(L=3),GO:0043168-anion binding(L=3),	
PC1A_TRINITY_DN43579_c0_g1_i4.p1PC1A_TRINITY_DN43579_c0_g1~~PC1A_TRINITY_DN43579_c0_g1_i4.p1ORFtype:internallen:349(-),score=23.24,LRR_8|PF13855.6|6.5e-05,LRR_8|PF13855.6|28,LRR_8|PF13855.6|1.2e-06,LRR_8|PF13855.6|9.5e-09,LRR_8|PF13855.6|1.6e-13,LRR_8|PF13855.6|4.2e-09,LRR_8|PF13855.6|2.3e-07,LRR_8|PF13855.6|0.00011,LRR_8|PF13855.6|0.034,LRR_4|PF12799.7|0.016,LRR_4|PF12799.7|0.0088,LRR_4|PF12799.7|35,LRR_4|PF12799.7|0.021,LRR_4|PF12799.7|5.9e-05,LRR_4|PF12799.7|3.8e-05,LRR_4|PF12799.7|0.01,LRR_4|PF12799.7|9.9e-05,LRR_4|PF12799.7|0.16,LRR_4|PF12799.7|0.12,LRR_4|PF12799.7|0.017,LRR_4|PF12799.7|0.0022,LRR_1|PF00560.33|3.2,LRR_1|PF00560.33|3.2e+03,LRR_1|PF00560.33|3.4,LRR_1|PF00560.33|0.12,LRR_1|PF00560.33|0.12,LRR_1|PF00560.33|0.088,LRR_1|PF00560.33|27,LRR_1|PF00560.33|4.2,LRR_1|PF00560.33|3.2,LRR_1|PF00560.33|1.1e+03,LRR_1|PF00560.33|0.82,LRR_1|PF00560.33|1.1e+03,LRR_9|PF14580.6|5.7e+03,LRR_9|PF14580.6|0.031,LRR_9|PF14580.6|0.27,LRR_6|PF13516.6|7.6,LRR_6|PF13516.6|7.7e+02,LRR_6|PF13516.6|1e+02,LRR_6|PF13516.6|8.1e+03,LRR_6|PF13516.6|1.7e+03,LRR_6|PF13516.6|0.71,LRR_6|PF13516.6|3e+02,LRR_6|PF13516.6|52,LRR_6|PF13516.6|18,LRR_6|PF13516.6|2e+03,LRR_6|PF13516.6|23,LRR_6|PF13516.6|2.7,LRR_6|PF13516.6|1.7e+02PC1A_TRINITY_DN43579_c0_g1_i4:2-1045(-)																														
PC1A_TRINITY_DN44501_c6_g1_i1.p1PC1A_TRINITY_DN44501_c6_g1~~PC1A_TRINITY_DN44501_c6_g1_i1.p1ORFtype:3prime_partiallen:182(+),score=8.08,PsbN|PF02468.15|4.2,PsbN|PF02468.15|2.7e+02,DUF4389|PF14333.6|4e+03,DUF4389|PF14333.6|0.14PC1A_TRINITY_DN44501_c6_g1_i1:35-577(+)																			3847.GLYMA14G26700.1	4.80e-04	50.1		Viridiplantae	virNOG[6]	0IKFJ@euNOG,0YFUQ@NOG,1BGI9@strNOG,1DUFM@virNOG					
PC1A_TRINITY_DN43534_c0_g1_i6.p1PC1A_TRINITY_DN43534_c0_g1~~PC1A_TRINITY_DN43534_c0_g1_i6.p1ORFtype:5prime_partiallen:158(-),score=4.77,LRR_8|PF13855.6|4.7e-07,LRR_8|PF13855.6|2.1e-09,LRR_8|PF13855.6|1.7e+03,LRR_4|PF12799.7|9.9,LRR_4|PF12799.7|0.0011,LRR_4|PF12799.7|8e-05,LRR_4|PF12799.7|1.6e-06,LRR_1|PF00560.33|6e+03,LRR_1|PF00560.33|1.8,LRR_1|PF00560.33|82,LRR_1|PF00560.33|0.27,LRR_1|PF00560.33|5.4,LRR_1|PF00560.33|5.1e+03,LRR_6|PF13516.6|2.8e+02,LRR_6|PF13516.6|0.8,LRR_6|PF13516.6|1.3e+03,LRR_6|PF13516.6|0.53,LRR_6|PF13516.6|2.7,LRR_6|PF13516.6|1.2e+02,LRR_9|PF14580.6|13,LRR_9|PF14580.6|11,TOBE_2|PF08402.10|0.58,TOBE_2|PF08402.10|1.6e+03PC1A_TRINITY_DN43534_c0_g1_i6:331-804(-)																			3847.GLYMA16G28690.2	6.50e-13	79.3		Eukaryotes	euNOG[57]	COG4886@NOG,KOG0619@euNOG					
PC1A_TRINITY_DN43445_c1_g5_i2.p1PC1A_TRINITY_DN43445_c1_g5~~PC1A_TRINITY_DN43445_c1_g5_i2.p1ORFtype:5prime_partiallen:158(-),score=21.84,Pkinase_Tyr|PF07714.17|3.5e-07,Pkinase|PF00069.25|0.00076PC1A_TRINITY_DN43445_c1_g5_i2:381-854(-)																			4081.Solyc02g086590.2.1	1.70e-24	117.9		Viridiplantae	virNOG[6]	0IHAJ@euNOG,1BIUJ@strNOG,1DWRQ@virNOG,COG0515@NOG		GO:0006793-phosphorus metabolic process(L=3),GO:0019538-protein metabolic process(L=3),GO:0043170-macromolecule metabolic process(L=3),GO:0044260-cellular macromolecule metabolic process(L=3),	GO:0031224-intrinsic component of membrane(L=3),	GO:0000166-nucleotide binding(L=3),GO:0001882-nucleoside binding(L=3),GO:0016772-transferase activity, transferring phosphorus-containing groups(L=3),GO:0032553-ribonucleotide binding(L=3),GO:0043168-anion binding(L=3),GO:1901265-nucleoside phosphate binding(L=3),	
PC3J_TRINITY_DN40072_c2_g1_i1.p1PC3J_TRINITY_DN40072_c2_g1~~PC3J_TRINITY_DN40072_c2_g1_i1.p1ORFtype:5prime_partiallen:127(+),score=22.16,Oxysterol_BP|PF01237.18|1.1e-11PC3J_TRINITY_DN40072_c2_g1_i1:2-382(+)																			3847.GLYMA15G04210.1	8.30e-35	151.8		Viridiplantae	virNOG[6]	0XP9E@NOG,1BDYA@strNOG,1DRVZ@virNOG,KOG1737@euNOG		GO:0006810-transport(L=3),GO:0009566-fertilization(L=3),GO:0010876-lipid localization(L=3),GO:0044702-single organism reproductive process(L=3),GO:0044765-single-organism transport(L=3),	GO:0005622-intracellular(L=3),GO:0043229-intracellular organelle(L=3),GO:0044424-intracellular part(L=3),	GO:0005496-steroid binding(L=3),GO:0043178-alcohol binding(L=3),	
PC1J_TRINITY_DN39347_c4_g6_i1.p1PC1J_TRINITY_DN39347_c4_g6~~PC1J_TRINITY_DN39347_c4_g6_i1.p1ORFtype:internallen:150(+),score=24.85PC1J_TRINITY_DN39347_c4_g6_i1:2-448(+)																			3218.PP1S48_46V6.1	6.10e-45	185.7		Viridiplantae	virNOG[6]	1BEWY@strNOG,1DSUM@virNOG,COG0534@NOG,KOG1347@euNOG		GO:0006810-transport(L=3),GO:0042493-response to drug(L=3),GO:0044765-single-organism transport(L=3),		GO:0015238-drug transmembrane transporter activity(L=3),GO:0022804-active transmembrane transporter activity(L=3),	
PC2A_TRINITY_DN33519_c0_g1_i22.p1PC2A_TRINITY_DN33519_c0_g1~~PC2A_TRINITY_DN33519_c0_g1_i22.p1ORFtype:3prime_partiallen:442(-),score=100.29,GAT|PF03127.14|2.7e-16,GAT|PF03127.14|1.5e+04,CRIM|PF16978.5|0.046,PRIMA1|PF16101.5|21,PRIMA1|PF16101.5|14,SMN|PF06003.12|3.6PC2A_TRINITY_DN33519_c0_g1_i22:2-1324(-)		AT1G21380.1	48.5	293	131	5	1	289	89	365	2.60e-62	65.50	AT1G21380.1 | Target of Myb protein 1 | Chr1:7485806-7488032 REVERSE LENGTH=506 | 201606			Pine_Down/similarity_search/DIAMOND/blastp_Pine_DOWN_final_araport_11.out	No	Yes	4641.GSMUA_Achr6P17680_001	2.30e-79	301.6		Viridiplantae	virNOG[6]	0TQFT@lilNOG,0Y26G@NOG,1BGU6@strNOG,1DUQR@virNOG,KOG1087@euNOG		GO:0006810-transport(L=3),GO:0008104-protein localization(L=3),GO:0046907-intracellular transport(L=3),GO:0051649-establishment of localization in cell(L=3),GO:0070727-cellular macromolecule localization(L=3),	GO:0005622-intracellular(L=3),		
PC1A_TRINITY_DN38651_c0_g1_i1.p1PC1A_TRINITY_DN38651_c0_g1~~PC1A_TRINITY_DN38651_c0_g1_i1.p1ORFtype:5prime_partiallen:229(+),score=43.70PC1A_TRINITY_DN38651_c0_g1_i1:2-688(+)																			29760.VIT_11s0052g00030.t01	5.10e-59	233.0		Viridiplantae	virNOG[6]	0XNN8@NOG,1BFN1@strNOG,1DTJZ@virNOG,KOG2190@euNOG		GO:0007275-multicellular organism development(L=3),		GO:0003676-nucleic acid binding(L=3),	
PC1A_TRINITY_DN36894_c0_g2_i1.p1PC1A_TRINITY_DN36894_c0_g2~~PC1A_TRINITY_DN36894_c0_g2_i1.p1ORFtype:3prime_partiallen:131(-),score=14.87,DUF4408|PF14364.6|0.00035PC1A_TRINITY_DN36894_c0_g2_i1:3-392(-)																														
PC1A_TRINITY_DN43078_c0_g5_i1.p1PC1A_TRINITY_DN43078_c0_g5~~PC1A_TRINITY_DN43078_c0_g5_i1.p1ORFtype:internallen:263(-),score=-18.31,GUB_WAK_bind|PF13947.6|2.2e-07,WAK_assoc|PF14380.6|1.1e+04,WAK_assoc|PF14380.6|5.3e-05PC1A_TRINITY_DN43078_c0_g5_i1:3-788(-)																			3847.GLYMA20G25490.2	9.80e-06	56.2	OSI_00291	Viridiplantae	virNOG[6]	1BSQ0@strNOG,1E3S6@virNOG,COG0515@NOG,KOG1187@euNOG				GO:0030247-polysaccharide binding(L=3),	
PC3A_TRINITY_DN34876_c1_g3_i1.p1PC3A_TRINITY_DN34876_c1_g3~~PC3A_TRINITY_DN34876_c1_g3_i1.p1ORFtype:internallen:190(-),score=33.60,ATHILA|PF03078.15|0.074PC3A_TRINITY_DN34876_c1_g3_i1:1-567(-)																			29760.VIT_00s0125g00180.t01	1.70e-31	141.4		Viridiplantae	virNOG[6]	0IGY0@euNOG,1BCV9@strNOG,1DWFG@virNOG,COG2304@NOG		GO:0006793-phosphorus metabolic process(L=3),GO:0019538-protein metabolic process(L=3),GO:0043170-macromolecule metabolic process(L=3),GO:0044260-cellular macromolecule metabolic process(L=3),GO:0055114-oxidation-reduction process(L=3),	GO:0005886-plasma membrane(L=3),GO:0071944-cell periphery(L=3),	GO:0000166-nucleotide binding(L=3),GO:0001882-nucleoside binding(L=3),GO:0016772-transferase activity, transferring phosphorus-containing groups(L=3),GO:0032553-ribonucleotide binding(L=3),GO:0043168-anion binding(L=3),GO:0043169-cation binding(L=3),GO:1901265-nucleoside phosphate binding(L=3),	
PC1A_TRINITY_DN30964_c0_g1_i1.p1PC1A_TRINITY_DN30964_c0_g1~~PC1A_TRINITY_DN30964_c0_g1_i1.p1ORFtype:internallen:215(-),score=16.37,TCP|PF03634.13|5.3e-19,DUF4141|PF13605.6|0.14,Abi_HHR|PF07815.14|0.26PC1A_TRINITY_DN30964_c0_g1_i1:1-642(-)																			3218.PP1S207_110V6.1	4.50e-09	67.0		Viridiplantae	virNOG[6]	0IVJN@euNOG,0YEYG@NOG,1BKJ1@strNOG,1DYEY@virNOG					
PC3A_TRINITY_DN20070_c0_g1_i1.p1PC3A_TRINITY_DN20070_c0_g1~~PC3A_TRINITY_DN20070_c0_g1_i1.p1ORFtype:5prime_partiallen:107(-),score=12.58,Med20|PF08612.11|1.2e-09PC3A_TRINITY_DN20070_c0_g1_i1:3-323(-)		AT2G28230.2	48.2	85	42	1	1	83	53	137	4.40e-19	77.60	AT2G28230.2 | TATA-binding related factor (TRF) of subunit 20 of Mediator complex | Chr2:12037855-12038762 REVERSE LENGTH=170 | 201606			Pine_Down/similarity_search/DIAMOND/blastp_Pine_DOWN_final_araport_11.out	No	Yes	3694.POPTR_0006s14580.1	1.80e-19	100.5		Viridiplantae	virNOG[6]	1BE51@strNOG,1DZVR@virNOG,COG0076@NOG,KOG1383@euNOG		GO:0006139-nucleobase-containing compound metabolic process(L=3),GO:0006725-cellular aromatic compound metabolic process(L=3),GO:0019222-regulation of metabolic process(L=3),GO:0034641-cellular nitrogen compound metabolic process(L=3),GO:0043170-macromolecule metabolic process(L=3),GO:0044249-cellular biosynthetic process(L=3),GO:0044260-cellular macromolecule metabolic process(L=3),GO:0046483-heterocycle metabolic process(L=3),GO:0050794-regulation of cellular process(L=3),GO:1901360-organic cyclic compound metabolic process(L=3),GO:1901576-organic substance biosynthetic process(L=3),	GO:0005622-intracellular(L=3),GO:0043229-intracellular organelle(L=3),GO:0044424-intracellular part(L=3),GO:0044446-intracellular organelle part(L=3),GO:0070013-intracellular organelle lumen(L=3),	GO:0001076-transcription factor activity, RNA polymerase II transcription factor binding(L=3),GO:0003712-transcription cofactor activity(L=3),	
PC2J_TRINITY_DN42726_c1_g1_i3.p1PC2J_TRINITY_DN42726_c1_g1~~PC2J_TRINITY_DN42726_c1_g1_i3.p1ORFtype:completelen:204(+),score=11.71PC2J_TRINITY_DN42726_c1_g1_i3:206-817(+)		AT4G25570.1	35.8	212	92	2	12	181	5	214	4.40e-36	83.30	AT4G25570.1 | Cytochrome b561/ferric reductase transmembrane protein family | Chr4:13053887-13055518 REVERSE LENGTH=239 | 201606			Pine_Down/similarity_search/DIAMOND/blastp_Pine_DOWN_final_araport_11.out	No	Yes	15368.BRADI3G50010.1	7.30e-41	172.6		Viridiplantae	virNOG[6]	0TNQ3@lilNOG,11FKI@NOG,15QSC@poaNOG,1BCID@strNOG,1DTAX@virNOG,KOG1619@euNOG		GO:0006091-generation of precursor metabolites and energy(L=3),GO:0022900-electron transport chain(L=3),GO:0055114-oxidation-reduction process(L=3),	GO:0005622-intracellular(L=3),GO:0031090-organelle membrane(L=3),GO:0031224-intrinsic component of membrane(L=3),GO:0043229-intracellular organelle(L=3),GO:0044424-intracellular part(L=3),GO:0044446-intracellular organelle part(L=3),	GO:0043169-cation binding(L=3),	
PC1A_TRINITY_DN38792_c0_g1_i1.p1PC1A_TRINITY_DN38792_c0_g1~~PC1A_TRINITY_DN38792_c0_g1_i1.p1ORFtype:completelen:318(-),score=64.67,SKI|PF01202.22|4.1e-42,AAA_18|PF13238.6|3.5e-09,Cytidylate_kin2|PF13189.6|1.6e-05,AAA_33|PF13671.6|0.00035,AAA|PF00004.29|0.012,dNK|PF01712.19|0.021,AAA_17|PF13207.6|0.03,tRNA_lig_kinase|PF08303.11|0.035,CoaE|PF01121.20|0.07,CoaE|PF01121.20|1.9e+03,TsaE|PF02367.17|0.056,Rad17|PF03215.15|0.065,AAA_16|PF13191.6|0.18,PduV-EutP|PF10662.9|0.15,ABC_tran|PF00005.27|0.14,AAA_5|PF07728.14|0.24,NB-ARC|PF00931.22|0.33PC1A_TRINITY_DN38792_c0_g1_i1:21-974(-)		AT2G21940.4	47.5	240	126	0	55	294	52	291	2.30e-55	75.50	AT2G21940.4 | shikimate kinase 1 | Chr2:9351106-9352881 FORWARD LENGTH=304 | 201606			Pine_Down/similarity_search/DIAMOND/blastp_Pine_DOWN_final_araport_11.out	No	Yes	39946.BGIOSGA021621-PA	1.10e-64	252.3		Viridiplantae	virNOG[6]	0IHYX@euNOG,0TRHF@lilNOG,1BD8Q@strNOG,1DVW9@virNOG,COG0703@NOG	400,1100,1110,1230	GO:0006082-organic acid metabolic process(L=3),GO:0006520-cellular amino acid metabolic process(L=3),GO:0006725-cellular aromatic compound metabolic process(L=3),GO:0006793-phosphorus metabolic process(L=3),GO:0044249-cellular biosynthetic process(L=3),GO:0044281-small molecule metabolic process(L=3),GO:0044711-single-organism biosynthetic process(L=3),GO:1901360-organic cyclic compound metabolic process(L=3),GO:1901564-organonitrogen compound metabolic process(L=3),GO:1901576-organic substance biosynthetic process(L=3),GO:1901615-organic hydroxy compound metabolic process(L=3),	GO:0005622-intracellular(L=3),GO:0043229-intracellular organelle(L=3),GO:0044424-intracellular part(L=3),	GO:0000166-nucleotide binding(L=3),GO:0001882-nucleoside binding(L=3),GO:0016772-transferase activity, transferring phosphorus-containing groups(L=3),GO:0032553-ribonucleotide binding(L=3),GO:0043168-anion binding(L=3),GO:0043169-cation binding(L=3),GO:1901265-nucleoside phosphate binding(L=3),	
PC2A_TRINITY_DN28953_c1_g2_i2.p1PC2A_TRINITY_DN28953_c1_g2~~PC2A_TRINITY_DN28953_c1_g2_i2.p1ORFtype:internallen:141(-),score=14.31,Aldolase_II|PF00596.21|1.3e-08PC2A_TRINITY_DN28953_c1_g2_i2:3-422(-)																			3694.POPTR_0001s40980.1	2.60e-45	186.8		Viridiplantae	virNOG[6]	1BEVT@strNOG,1DSTD@virNOG,COG0235@NOG,COG4229@NOG,KOG2630@euNOG,KOG2631@euNOG	270,1100	GO:0006082-organic acid metabolic process(L=3),GO:0006139-nucleobase-containing compound metabolic process(L=3),GO:0006520-cellular amino acid metabolic process(L=3),GO:0006575-cellular modified amino acid metabolic process(L=3),GO:0006725-cellular aromatic compound metabolic process(L=3),GO:0006790-sulfur compound metabolic process(L=3),GO:0006793-phosphorus metabolic process(L=3),GO:0034641-cellular nitrogen compound metabolic process(L=3),GO:0044249-cellular biosynthetic process(L=3),GO:0044281-small molecule metabolic process(L=3),GO:0044711-single-organism biosynthetic process(L=3),GO:0046483-heterocycle metabolic process(L=3),GO:0046500-S-adenosylmethionine metabolic process(L=3),GO:0051186-cofactor metabolic process(L=3),GO:0055086-nucleobase-containing small molecule metabolic process(L=3),GO:1901135-carbohydrate derivative metabolic process(L=3),GO:1901360-organic cyclic compound metabolic process(L=3),GO:1901564-organonitrogen compound metabolic process(L=3),GO:1901576-organic substance biosynthetic process(L=3),GO:1901657-glycosyl compound metabolic process(L=3),	GO:0005622-intracellular(L=3),GO:0043229-intracellular organelle(L=3),GO:0044424-intracellular part(L=3),GO:0044446-intracellular organelle part(L=3),	GO:0016788-hydrolase activity, acting on ester bonds(L=3),GO:0016835-carbon-oxygen lyase activity(L=3),GO:0016860-intramolecular oxidoreductase activity(L=3),GO:0043169-cation binding(L=3),	
PC2A_TRINITY_DN34808_c2_g1_i5.p1PC2A_TRINITY_DN34808_c2_g1~~PC2A_TRINITY_DN34808_c2_g1_i5.p1ORFtype:internallen:131(+),score=13.76,EF-hand_1|PF00036.32|5.5e-08,EF-hand_1|PF00036.32|3.1e-06,EF-hand_5|PF13202.6|1.2e-08,EF-hand_5|PF13202.6|0.002,EF-hand_7|PF13499.6|2.4e-13,EF-hand_6|PF13405.6|2.8e-06,EF-hand_6|PF13405.6|0.033,EF-hand_8|PF13833.6|0.00026,EF-hand_8|PF13833.6|4e-05,SPARC_Ca_bdg|PF10591.9|3.8e-05,Dockerin_1|PF00404.18|1.2,Dockerin_1|PF00404.18|0.34,EF-hand_4|PF12763.7|0.058,Caleosin|PF05042.13|0.45,Caleosin|PF05042.13|6.6e+02,EF-hand_9|PF14658.6|0.22PC2A_TRINITY_DN34808_c2_g1_i5:1-390(+)																			4113.PGSC0003DMT400075801	2.70e-04	50.4		Viridiplantae	virNOG[6]	1BSC2@strNOG,1E290@virNOG,COG5126@NOG,KOG0027@euNOG	4626	GO:0007275-multicellular organism development(L=3),GO:0009266-response to temperature stimulus(L=3),GO:0009409-response to cold(L=3),GO:0009653-anatomical structure morphogenesis(L=3),GO:0009888-tissue development(L=3),GO:0021700-developmental maturation(L=3),GO:0048869-cellular developmental process(L=3),GO:0060560-developmental growth involved in morphogenesis(L=3),	GO:0005622-intracellular(L=3),GO:0043229-intracellular organelle(L=3),GO:0044424-intracellular part(L=3),	GO:0043169-cation binding(L=3),	
PC2J_TRINITY_DN44596_c0_g1_i21.p1PC2J_TRINITY_DN44596_c0_g1~~PC2J_TRINITY_DN44596_c0_g1_i21.p1ORFtype:internallen:133(-),score=21.10PC2J_TRINITY_DN44596_c0_g1_i21:3-398(-)																			3218.PP1S80_148V6.1	1.10e-18	98.2		Viridiplantae	virNOG[6]	0ITZ2@euNOG,1245W@NOG,1C7NN@strNOG,1EMKI@virNOG					
PC3A_TRINITY_DN32450_c0_g1_i1.p1PC3A_TRINITY_DN32450_c0_g1~~PC3A_TRINITY_DN32450_c0_g1_i1.p1ORFtype:internallen:253(-),score=35.28,LRRNT_2|PF08263.12|1.6e-05,LRRNT_2|PF08263.12|9.4e-07,LRR_4|PF12799.7|8.9e-05,LRR_4|PF12799.7|0.035,LRR_4|PF12799.7|60,LRR_8|PF13855.6|4.4e+03,LRR_8|PF13855.6|1.1e-05,LRR_8|PF13855.6|1.4,LRR_1|PF00560.33|0.38,LRR_1|PF00560.33|57,LRR_1|PF00560.33|1.5e+02,LRR_6|PF13516.6|1.2e+04,LRR_6|PF13516.6|1.2,LRR_6|PF13516.6|1.5e+02,LRR_6|PF13516.6|93PC3A_TRINITY_DN32450_c0_g1_i1:2-757(-)																			3694.POPTR_0001s27000.1	1.30e-15	89.0		Viridiplantae	virNOG[6]	1BCX3@strNOG,1DQUX@virNOG,COG4886@NOG,KOG0619@euNOG					
PC1A_TRINITY_DN42361_c3_g1_i2.p1PC1A_TRINITY_DN42361_c3_g1~~PC1A_TRINITY_DN42361_c3_g1_i2.p1ORFtype:internallen:570(-),score=74.30PC1A_TRINITY_DN42361_c3_g1_i2:3-1709(-)		AT4G19450.1	39.3	483	260	13	105	569	6	473	3.30e-81	81.70	AT4G19450.1 | Major facilitator superfamily protein | Chr4:10606538-10609218 FORWARD LENGTH=572 | 201606			Pine_Down/similarity_search/DIAMOND/blastp_Pine_DOWN_final_araport_11.out	No	Yes	59689.fgenesh2_kg.7__2349__AT4G19450.1	1.20e-80	306.2		Viridiplantae	virNOG[6]	0BXB9@braNOG,0IJMI@euNOG,0YBHK@NOG,1BEG0@strNOG,1DSDR@virNOG		GO:0006810-transport(L=3),GO:0006970-response to osmotic stress(L=3),GO:0042493-response to drug(L=3),GO:0044765-single-organism transport(L=3),	GO:0031224-intrinsic component of membrane(L=3),	GO:0015238-drug transmembrane transporter activity(L=3),GO:0022804-active transmembrane transporter activity(L=3),	
PC2A_TRINITY_DN29047_c2_g4_i1.p1PC2A_TRINITY_DN29047_c2_g4~~PC2A_TRINITY_DN29047_c2_g4_i1.p1ORFtype:internallen:101(+),score=14.61,RT_RNaseH|PF17917.1|1.2e-06,RT_RNaseH_2|PF17919.1|0.034PC2A_TRINITY_DN29047_c2_g4_i1:2-301(+)																			39947.LOC_Os10g17400.1	3.50e-04	49.7		Viridiplantae	virNOG[6]	0U2PD@lilNOG,1600V@poaNOG,1BXV4@strNOG,1EAAF@virNOG,COG2801@NOG,KOG0017@euNOG					
PC3A_TRINITY_DN20948_c0_g1_i1.p1PC3A_TRINITY_DN20948_c0_g1~~PC3A_TRINITY_DN20948_c0_g1_i1.p1ORFtype:internallen:110(-),score=-0.13,Stress-antifung|PF01657.17|9.9e-08PC3A_TRINITY_DN20948_c0_g1_i1:1-327(-)																			3702.AT1G70520.1	2.20e-04	50.4		Viridiplantae	virNOG[6]	0C41P@braNOG,0IHAJ@euNOG,1BIUJ@strNOG,1DWRQ@virNOG,COG0515@NOG		GO:0006793-phosphorus metabolic process(L=3),GO:0006979-response to oxidative stress(L=3),GO:0010035-response to inorganic substance(L=3),GO:0019538-protein metabolic process(L=3),GO:0043170-macromolecule metabolic process(L=3),GO:0044260-cellular macromolecule metabolic process(L=3),GO:1901700-response to oxygen-containing compound(L=3),	GO:0005886-plasma membrane(L=3),GO:0009506-plasmodesma(L=3),GO:0031224-intrinsic component of membrane(L=3),GO:0071944-cell periphery(L=3),	GO:0000166-nucleotide binding(L=3),GO:0001882-nucleoside binding(L=3),GO:0016772-transferase activity, transferring phosphorus-containing groups(L=3),GO:0032553-ribonucleotide binding(L=3),GO:0043168-anion binding(L=3),GO:1901265-nucleoside phosphate binding(L=3),	
PC1A_TRINITY_DN39599_c5_g2_i2.p1PC1A_TRINITY_DN39599_c5_g2~~PC1A_TRINITY_DN39599_c5_g2_i2.p1ORFtype:5prime_partiallen:105(-),score=13.83PC1A_TRINITY_DN39599_c5_g2_i2:7-321(-)																			3694.POPTR_0001s04580.1	7.90e-15	85.1		Viridiplantae	virNOG[6]	0IZMG@euNOG,0YP31@NOG,1BQRR@strNOG,1E2JU@virNOG			GO:0005622-intracellular(L=3),GO:0043229-intracellular organelle(L=3),GO:0044424-intracellular part(L=3),		
PC3A_TRINITY_DN41581_c1_g1_i1.p1PC3A_TRINITY_DN41581_c1_g1~~PC3A_TRINITY_DN41581_c1_g1_i1.p1ORFtype:5prime_partiallen:505(+),score=56.59,DUF247|PF03140.15|3.4e-80PC3A_TRINITY_DN41581_c1_g1_i1:3-1517(+)		AT3G02645.1	36.5	498	254	8	2	488	74	520	4.20e-80	96.40	AT3G02645.1 | transmembrane protein%2C putative (DUF247) | Chr3:566271-567860 FORWARD LENGTH=529 | 201606			Pine_Down/similarity_search/DIAMOND/blastp_Pine_DOWN_final_araport_11.out	No	No	3847.GLYMA08G23001.1	1.40e-101	375.6		Viridiplantae	virNOG[6]	0IKCC@euNOG,0YDVR@NOG,1BM3V@strNOG,1DYYX@virNOG			GO:0031224-intrinsic component of membrane(L=3),		
PC2A_TRINITY_DN25007_c0_g1_i1.p1PC2A_TRINITY_DN25007_c0_g1~~PC2A_TRINITY_DN25007_c0_g1_i1.p1ORFtype:5prime_partiallen:121(-),score=25.42,RRM_1|PF00076.22|1.7e-20,RRM_5|PF13893.6|0.0059,Nup35_RRM_2|PF14605.6|0.011,Limkain-b1|PF11608.8|0.011PC2A_TRINITY_DN25007_c0_g1_i1:27-389(-)																			3711.Bra024276.1-P	7.10e-44	181.8		Viridiplantae	virNOG[6]	0C4GF@braNOG,11NJ8@NOG,1BRW0@strNOG,1E3QY@virNOG,KOG4207@euNOG	3040,5168	GO:0006139-nucleobase-containing compound metabolic process(L=3),GO:0006725-cellular aromatic compound metabolic process(L=3),GO:0034641-cellular nitrogen compound metabolic process(L=3),GO:0043170-macromolecule metabolic process(L=3),GO:0044260-cellular macromolecule metabolic process(L=3),GO:0046483-heterocycle metabolic process(L=3),GO:1901360-organic cyclic compound metabolic process(L=3),	GO:0005622-intracellular(L=3),GO:0043229-intracellular organelle(L=3),GO:0044424-intracellular part(L=3),GO:0044446-intracellular organelle part(L=3),GO:0070013-intracellular organelle lumen(L=3),	GO:0000166-nucleotide binding(L=3),GO:0003676-nucleic acid binding(L=3),GO:0043169-cation binding(L=3),GO:1901265-nucleoside phosphate binding(L=3),	
PC3A_TRINITY_DN39680_c0_g1_i8.p1PC3A_TRINITY_DN39680_c0_g1~~PC3A_TRINITY_DN39680_c0_g1_i8.p1ORFtype:5prime_partiallen:286(+),score=9.55,FMO-like|PF00743.19|1.9e-22,Pyr_redox_3|PF13738.6|3.4e-14,Pyr_redox_3|PF13738.6|5.8,K_oxygenase|PF13434.6|5.4e-10,K_oxygenase|PF13434.6|30,Pyr_redox_2|PF07992.14|5.3e-07,Pyr_redox_2|PF07992.14|6.8,Pyr_redox|PF00070.27|0.032,Pyr_redox|PF00070.27|6.8e+03,NAD_binding_9|PF13454.6|3.3e+03,NAD_binding_9|PF13454.6|1.4,NAD_binding_9|PF13454.6|1.4e+02,Lycopene_cycl|PF05834.12|5.3e+02,Lycopene_cycl|PF05834.12|0.19,NAD_binding_7|PF13241.6|0.28,NAD_binding_7|PF13241.6|4.2e+03,GIDA|PF01134.22|48,GIDA|PF01134.22|33,GIDA|PF01134.22|1.5e+02,ThiF|PF00899.21|0.37PC3A_TRINITY_DN39680_c0_g1_i8:3-860(+)		AT4G32540.1	45.6	272	142	4	7	277	122	388	2.00e-63	94.80	AT4G32540.1 | Flavin-binding monooxygenase family protein | Chr4:15700904-15702870 FORWARD LENGTH=414 | 201606			Pine_Down/similarity_search/DIAMOND/blastp_Pine_DOWN_final_araport_11.out	No	Yes	88036.EFJ31581	3.00e-69	267.3	YUC2	Eukaryotes	euNOG[57]	COG2072@NOG,KOG1399@euNOG	380,1100	GO:0006082-organic acid metabolic process(L=3),GO:0006725-cellular aromatic compound metabolic process(L=3),GO:0006793-phosphorus metabolic process(L=3),GO:0007165-signal transduction(L=3),GO:0007275-multicellular organism development(L=3),GO:0009414-response to water deprivation(L=3),GO:0009415-response to water(L=3),GO:0009725-response to hormone(L=3),GO:0009850-auxin metabolic process(L=3),GO:0010033-response to organic substance(L=3),GO:0010035-response to inorganic substance(L=3),GO:0010817-regulation of hormone levels(L=3),GO:0019538-protein metabolic process(L=3),GO:0034641-cellular nitrogen compound metabolic process(L=3),GO:0034754-cellular hormone metabolic process(L=3),GO:0042446-hormone biosynthetic process(L=3),GO:0043170-macromolecule metabolic process(L=3),GO:0044249-cellular biosynthetic process(L=3),GO:0044260-cellular macromolecule metabolic process(L=3),GO:0044281-small molecule metabolic process(L=3),GO:0044711-single-organism biosynthetic process(L=3),GO:0046483-heterocycle metabolic process(L=3),GO:0048518-positive regulation of biological process(L=3),GO:0050793-regulation of developmental process(L=3),GO:0050794-regulation of cellular process(L=3),GO:0051239-regulation of multicellular organismal process(L=3),GO:0055114-oxidation-reduction process(L=3),GO:0070887-cellular response to chemical stimulus(L=3),GO:0071495-cellular response to endogenous stimulus(L=3),GO:1901360-organic cyclic compound metabolic process(L=3),GO:1901564-organonitrogen compound metabolic process(L=3),GO:1901576-organic substance biosynthetic process(L=3),GO:1901700-response to oxygen-containing compound(L=3),GO:2000241-regulation of reproductive process(L=3),	GO:0005622-intracellular(L=3),GO:0005789-endoplasmic reticulum membrane(L=3),GO:0012505-endomembrane system(L=3),GO:0031090-organelle membrane(L=3),GO:0042175-nuclear outer membrane-endoplasmic reticulum membrane network(L=3),GO:0043229-intracellular organelle(L=3),GO:0044424-intracellular part(L=3),GO:0044446-intracellular organelle part(L=3),	GO:0000166-nucleotide binding(L=3),GO:0001882-nucleoside binding(L=3),GO:0004497-monooxygenase activity(L=3),GO:0016705-oxidoreductase activity, acting on paired donors, with incorporation or reduction of molecular oxygen(L=3),GO:0016772-transferase activity, transferring phosphorus-containing groups(L=3),GO:0016830-carbon-carbon lyase activity(L=3),GO:0032553-ribonucleotide binding(L=3),GO:0043168-anion binding(L=3),GO:0050662-coenzyme binding(L=3),GO:1901265-nucleoside phosphate binding(L=3),	
PC1A_TRINITY_DN40347_c0_g1_i16.p1PC1A_TRINITY_DN40347_c0_g1~~PC1A_TRINITY_DN40347_c0_g1_i16.p1ORFtype:internallen:191(-),score=21.99PC1A_TRINITY_DN40347_c0_g1_i16:1-570(-)																			15368.BRADI2G42890.1	1.20e-05	55.5	OSI_02750	Viridiplantae	virNOG[6]	0TPRY@lilNOG,15V2X@poaNOG,1BPH8@strNOG,1DVTJ@virNOG,COG4886@NOG,KOG0619@euNOG					
PC1A_TRINITY_DN44580_c0_g1_i6.p1PC1A_TRINITY_DN44580_c0_g1~~PC1A_TRINITY_DN44580_c0_g1_i6.p1ORFtype:5prime_partiallen:325(-),score=72.48,GDC-P|PF02347.16|6.5,GDC-P|PF02347.16|0.11PC1A_TRINITY_DN44580_c0_g1_i6:61-1035(-)																			4641.GSMUA_Achr1P14430_001	2.40e-110	404.1		Viridiplantae	virNOG[6]	0TW9T@lilNOG,1BGUX@strNOG,1DT8S@virNOG,COG0403@NOG,COG1003@NOG,KOG2040@euNOG	260,1100	GO:0006082-organic acid metabolic process(L=3),GO:0006520-cellular amino acid metabolic process(L=3),GO:0010035-response to inorganic substance(L=3),GO:0044248-cellular catabolic process(L=3),GO:0044281-small molecule metabolic process(L=3),GO:0044712-single-organism catabolic process(L=3),GO:0055114-oxidation-reduction process(L=3),GO:1901564-organonitrogen compound metabolic process(L=3),GO:1901575-organic substance catabolic process(L=3),	GO:0005622-intracellular(L=3),GO:0031967-organelle envelope(L=3),GO:0031975-envelope(L=3),GO:0031984-organelle subcompartment(L=3),GO:0043229-intracellular organelle(L=3),GO:0044424-intracellular part(L=3),GO:0044446-intracellular organelle part(L=3),	GO:0000166-nucleotide binding(L=3),GO:0001882-nucleoside binding(L=3),GO:0016638-oxidoreductase activity, acting on the CH-NH2 group of donors(L=3),GO:0030170-pyridoxal phosphate binding(L=3),GO:0032553-ribonucleotide binding(L=3),GO:0043168-anion binding(L=3),GO:1901265-nucleoside phosphate binding(L=3),	
PC2A_TRINITY_DN30662_c1_g8_i1.p1PC2A_TRINITY_DN30662_c1_g8~~PC2A_TRINITY_DN30662_c1_g8_i1.p1ORFtype:completelen:274(+),score=57.15,DUF4228|PF14009.6|5.8e-11,DUF4228|PF14009.6|0.013PC2A_TRINITY_DN30662_c1_g8_i1:67-888(+)																			3847.GLYMA04G40780.1	3.30e-04	51.2		Viridiplantae	virNOG[6]	0JWFW@euNOG,104YW@NOG,1C3CF@strNOG,1EGQ8@virNOG					
PC2J_TRINITY_DN37352_c5_g1_i2.p1PC2J_TRINITY_DN37352_c5_g1~~PC2J_TRINITY_DN37352_c5_g1_i2.p1ORFtype:3prime_partiallen:134(-),score=30.15PC2J_TRINITY_DN37352_c5_g1_i2:1-399(-)																			29760.VIT_05s0020g03280.t01	4.50e-23	112.8		Viridiplantae	virNOG[6]	1BK8A@strNOG,1DY54@virNOG,COG3733@NOG,KOG1186@euNOG	330,340,380	GO:0055114-oxidation-reduction process(L=3),GO:1901564-organonitrogen compound metabolic process(L=3),	GO:0030312-external encapsulating structure(L=3),GO:0071944-cell periphery(L=3),	GO:0016638-oxidoreductase activity, acting on the CH-NH2 group of donors(L=3),GO:0043169-cation binding(L=3),GO:0048038-quinone binding(L=3),	
PC1A_TRINITY_DN5495_c0_g1_i1.p1PC1A_TRINITY_DN5495_c0_g1~~PC1A_TRINITY_DN5495_c0_g1_i1.p1ORFtype:internallen:125(+),score=2.40PC1A_TRINITY_DN5495_c0_g1_i1:1-372(+)																			3702.AT4G29420.1	9.00e-18	95.1		Viridiplantae	virNOG[6]	0BSKP@braNOG,0IIIF@euNOG,0YATG@NOG,1BPWN@strNOG,1E1QM@virNOG					
PC2A_TRINITY_DN29687_c0_g1_i1.p1PC2A_TRINITY_DN29687_c0_g1~~PC2A_TRINITY_DN29687_c0_g1_i1.p1ORFtype:5prime_partiallen:117(-),score=21.59PC2A_TRINITY_DN29687_c0_g1_i1:58-408(-)		AT1G78890.1	48.0	98	47	3	21	115	59	155	3.30e-20	81.20	AT1G78890.1 | hypothetical protein | Chr1:29656623-29657537 FORWARD LENGTH=155 | 201606			Pine_Down/similarity_search/DIAMOND/blastp_Pine_DOWN_final_araport_11.out	No	No	4641.GSMUA_Achr3P00500_001	1.90e-25	120.6		Viridiplantae	virNOG[6]	0J29H@euNOG,0TZN8@lilNOG,0YXUS@NOG,1BSYA@strNOG,1E4U1@virNOG					
PC2A_TRINITY_DN29924_c1_g3_i3.p1PC2A_TRINITY_DN29924_c1_g3~~PC2A_TRINITY_DN29924_c1_g3_i3.p1ORFtype:internallen:181(-),score=42.15,Lycopene_cycl|PF05834.12|3.4e-22,Pyr_redox_2|PF07992.14|0.0032,FAD_binding_2|PF00890.24|0.0052,Thi4|PF01946.17|0.026,GIDA|PF01134.22|1.9e+03,GIDA|PF01134.22|0.07,HI0933_like|PF03486.14|0.061,FAD_oxidored|PF12831.7|0.22PC2A_TRINITY_DN29924_c1_g3_i3:3-542(-)																			15368.BRADI2G41890.1	3.50e-31	140.2	LCYE	Viridiplantae	virNOG[6]	0II56@euNOG,0TKB4@lilNOG,0XPIY@NOG,15UIA@poaNOG,1BMRZ@strNOG,1DXSQ@virNOG	906,1100,1110	GO:0006629-lipid metabolic process(L=3),GO:0042440-pigment metabolic process(L=3),GO:0044249-cellular biosynthetic process(L=3),GO:0044255-cellular lipid metabolic process(L=3),GO:0055114-oxidation-reduction process(L=3),GO:1901576-organic substance biosynthetic process(L=3),	GO:0005622-intracellular(L=3),GO:0031090-organelle membrane(L=3),GO:0031224-intrinsic component of membrane(L=3),GO:0031967-organelle envelope(L=3),GO:0031975-envelope(L=3),GO:0043229-intracellular organelle(L=3),GO:0044424-intracellular part(L=3),GO:0044446-intracellular organelle part(L=3),	GO:0016705-oxidoreductase activity, acting on paired donors, with incorporation or reduction of molecular oxygen(L=3),GO:0016860-intramolecular oxidoreductase activity(L=3),GO:0045435-lycopene epsilon cyclase activity(L=3),	
PC1A_TRINITY_DN43587_c0_g2_i1.p1PC1A_TRINITY_DN43587_c0_g2~~PC1A_TRINITY_DN43587_c0_g2_i1.p1ORFtype:completelen:250(-),score=36.71,DUF3700|PF12481.8|1.6e-100,GATase_7|PF13537.6|1.5e-09,GATase_6|PF13522.6|5.5e-05PC1A_TRINITY_DN43587_c0_g2_i1:89-838(-)		AT5G43830.1	56.2	249	105	3	1	246	1	248	3.30e-78	98.40	AT5G43830.1 | aluminum induced protein with YGL and LRDR motifs | Chr5:17622593-17624239 REVERSE LENGTH=251 | 201606			Pine_Down/similarity_search/DIAMOND/blastp_Pine_DOWN_final_araport_11.out	No	Yes	4113.PGSC0003DMT400077577	1.40e-86	324.7		Viridiplantae	virNOG[6]	0II6U@euNOG,11HPV@NOG,1BE8A@strNOG,1DS60@virNOG		GO:0009725-response to hormone(L=3),GO:0010033-response to organic substance(L=3),GO:1901700-response to oxygen-containing compound(L=3),	GO:0005622-intracellular(L=3),GO:0005886-plasma membrane(L=3),GO:0043229-intracellular organelle(L=3),GO:0044424-intracellular part(L=3),GO:0071944-cell periphery(L=3),		
PC2A_TRINITY_DN30146_c0_g1_i16.p1PC2A_TRINITY_DN30146_c0_g1~~PC2A_TRINITY_DN30146_c0_g1_i16.p1ORFtype:5prime_partiallen:193(+),score=14.01,Alpha-amylase|PF00128.24|2.9e-07,Glyco_hydro_70|PF02324.16|0.0015PC2A_TRINITY_DN30146_c0_g1_i16:3-581(+)																			39946.BGIOSGA028835-PA	4.20e-30	136.7	AMY1	Eukaryotes	euNOG[57]	COG0366@NOG,KOG0471@euNOG	500,1100,4973	GO:0005975-carbohydrate metabolic process(L=3),GO:0005984-disaccharide metabolic process(L=3),GO:0006810-transport(L=3),GO:0007275-multicellular organism development(L=3),GO:0009725-response to hormone(L=3),GO:0010033-response to organic substance(L=3),GO:0032940-secretion by cell(L=3),GO:0042546-cell wall biogenesis(L=3),GO:0043170-macromolecule metabolic process(L=3),GO:0044260-cellular macromolecule metabolic process(L=3),GO:0044262-cellular carbohydrate metabolic process(L=3),GO:0044723-single-organism carbohydrate metabolic process(L=3),GO:0044765-single-organism transport(L=3),GO:0050793-regulation of developmental process(L=3),GO:0050794-regulation of cellular process(L=3),GO:0051649-establishment of localization in cell(L=3),GO:0055114-oxidation-reduction process(L=3),GO:0071852-fungal-type cell wall organization or biogenesis(L=3),GO:1901575-organic substance catabolic process(L=3),GO:1901700-response to oxygen-containing compound(L=3),	GO:0005615-extracellular space(L=3),GO:0005622-intracellular(L=3),GO:0005886-plasma membrane(L=3),GO:0009897-external side of plasma membrane(L=3),GO:0009986-cell surface(L=3),GO:0030312-external encapsulating structure(L=3),GO:0030427-site of polarized growth(L=3),GO:0030428-cell septum(L=3),GO:0031224-intrinsic component of membrane(L=3),GO:0031982-vesicle(L=3),GO:0042597-periplasmic space(L=3),GO:0043229-intracellular organelle(L=3),GO:0043232-intracellular non-membrane-bounded organelle(L=3),GO:0044424-intracellular part(L=3),GO:0044446-intracellular organelle part(L=3),GO:0044459-plasma membrane part(L=3),GO:0071944-cell periphery(L=3),	GO:0016798-hydrolase activity, acting on glycosyl bonds(L=3),GO:0030247-polysaccharide binding(L=3),GO:0043169-cation binding(L=3),	
PC3A_TRINITY_DN34522_c0_g1_i2.p1PC3A_TRINITY_DN34522_c0_g1~~PC3A_TRINITY_DN34522_c0_g1_i2.p1ORFtype:3prime_partiallen:207(-),score=23.11,PQ-loop|PF04193.14|1.5e-18PC3A_TRINITY_DN34522_c0_g1_i2:2-619(-)																			3218.PP1S9_402V6.2	5.50e-36	156.4		Viridiplantae	virNOG[6]	11FM2@NOG,1BE7I@strNOG,1DS5G@virNOG,KOG2913@euNOG			GO:0031224-intrinsic component of membrane(L=3),	GO:0050662-coenzyme binding(L=3),	
PC1A_TRINITY_DN40015_c3_g7_i2.p1PC1A_TRINITY_DN40015_c3_g7~~PC1A_TRINITY_DN40015_c3_g7_i2.p1ORFtype:5prime_partiallen:186(+),score=7.81PC1A_TRINITY_DN40015_c3_g7_i2:1-558(+)		AT4G13260.2	47.5	179	92	1	1	179	51	227	1.80e-44	96.20	AT4G13260.2 | Flavin-binding monooxygenase family protein | Chr4:7722384-7723616 REVERSE LENGTH=311 | 201606			Pine_Down/similarity_search/DIAMOND/blastp_Pine_DOWN_final_araport_11.out	No	Yes	29760.VIT_18s0001g15100.t01	6.90e-46	189.1	OSI_06707	Viridiplantae	virNOG[6]	1BFAV@strNOG,1DT9B@virNOG,COG2072@NOG,KOG1399@euNOG	380,1100	GO:0009850-auxin metabolic process(L=3),GO:0010817-regulation of hormone levels(L=3),GO:0042446-hormone biosynthetic process(L=3),GO:0044249-cellular biosynthetic process(L=3),GO:0050793-regulation of developmental process(L=3),GO:0055114-oxidation-reduction process(L=3),		GO:0000166-nucleotide binding(L=3),GO:0004497-monooxygenase activity(L=3),GO:0016705-oxidoreductase activity, acting on paired donors, with incorporation or reduction of molecular oxygen(L=3),GO:0043168-anion binding(L=3),GO:0050662-coenzyme binding(L=3),GO:1901265-nucleoside phosphate binding(L=3),	
PC2A_TRINITY_DN32060_c0_g2_i1.p1PC2A_TRINITY_DN32060_c0_g2~~PC2A_TRINITY_DN32060_c0_g2_i1.p1ORFtype:internallen:133(-),score=23.19,2OG-FeII_Oxy|PF03171.20|0.00014,2OG-FeII_Oxy|PF03171.20|16,PORR|PF11955.8|0.15PC2A_TRINITY_DN32060_c0_g2_i1:2-397(-)																			59689.fgenesh2_kg.3__2118__AT3G19000.1	1.70e-38	164.1		Viridiplantae	virNOG[6]	0BY4Q@braNOG,1BIRX@strNOG,1DWNU@virNOG,COG3491@NOG,KOG0143@euNOG		GO:0055114-oxidation-reduction process(L=3),		GO:0016701-oxidoreductase activity, acting on single donors with incorporation of molecular oxygen(L=3),GO:0016705-oxidoreductase activity, acting on paired donors, with incorporation or reduction of molecular oxygen(L=3),GO:0043169-cation binding(L=3),GO:0051213-dioxygenase activity(L=3),	
PC2A_TRINITY_DN34016_c0_g2_i9.p1PC2A_TRINITY_DN34016_c0_g2~~PC2A_TRINITY_DN34016_c0_g2_i9.p1ORFtype:5prime_partiallen:559(-),score=78.97,Glyco_hydro_32N|PF00251.20|5.4e-100,Glyco_hydro_32C|PF08244.12|5.7e-25,Corona_NS4|PF03905.13|0.019,Rho_GDI|PF02115.17|0.35PC2A_TRINITY_DN34016_c0_g2_i9:6-1682(-)		AT3G13790.1	53.0	545	235	14	16	553	26	556	4.00e-156	96.20	AT3G13790.1 | Glycosyl hydrolases family 32 protein | Chr3:4533084-4535831 REVERSE LENGTH=584 | 201606			Pine_Down/similarity_search/DIAMOND/blastp_Pine_DOWN_final_araport_11.out	No	Yes	29760.VIT_09s0002g02320.t01	4.60e-154	550.1	CWINV	Viridiplantae	virNOG[6]	1BM9C@strNOG,1DZ3B@virNOG,COG1621@NOG,KOG0228@euNOG	52,500,1100	GO:0005975-carbohydrate metabolic process(L=3),GO:0005984-disaccharide metabolic process(L=3),GO:0006810-transport(L=3),GO:0009611-response to wounding(L=3),GO:0043170-macromolecule metabolic process(L=3),GO:0044249-cellular biosynthetic process(L=3),GO:0044260-cellular macromolecule metabolic process(L=3),GO:0044262-cellular carbohydrate metabolic process(L=3),GO:0044723-single-organism carbohydrate metabolic process(L=3),GO:0044765-single-organism transport(L=3),GO:0080167-response to karrikin(L=3),GO:1901576-organic substance biosynthetic process(L=3),	GO:0005622-intracellular(L=3),GO:0005886-plasma membrane(L=3),GO:0030312-external encapsulating structure(L=3),GO:0043229-intracellular organelle(L=3),GO:0044424-intracellular part(L=3),GO:0071944-cell periphery(L=3),	GO:0016798-hydrolase activity, acting on glycosyl bonds(L=3),	
PC3A_TRINITY_DN12192_c0_g1_i1.p1PC3A_TRINITY_DN12192_c0_g1~~PC3A_TRINITY_DN12192_c0_g1_i1.p1ORFtype:5prime_partiallen:115(-),score=11.31,Hpt|PF01627.23|1.1e-09,Sas6_CC|PF18594.1|16,Sas6_CC|PF18594.1|0.37,DUF3399|PF11879.8|0.017,TSNAXIP1_N|PF15739.5|8.7e+03,TSNAXIP1_N|PF15739.5|0.026PC3A_TRINITY_DN12192_c0_g1_i1:24-368(-)		AT3G21510.1	50.0	108	54	0	6	113	43	150	1.70e-24	93.90	AT3G21510.1 | histidine-containing phosphotransmitter 1 | Chr3:7578432-7579537 REVERSE LENGTH=154 | 201606			Pine_Down/similarity_search/DIAMOND/blastp_Pine_DOWN_final_araport_11.out	No	Yes	4641.GSMUA_Achr11P25200_001	4.90e-26	122.5		Viridiplantae	virNOG[6]	1BS2E@strNOG,1E3XI@virNOG,COG2198@NOG,KOG4747@euNOG	4075	GO:0007165-signal transduction(L=3),GO:0050794-regulation of cellular process(L=3),			
PC2A_TRINITY_DN33169_c5_g1_i2.p1PC2A_TRINITY_DN33169_c5_g1~~PC2A_TRINITY_DN33169_c5_g1_i2.p1ORFtype:internallen:208(+),score=42.78,CRAL_TRIO_2|PF13716.6|2.4e-24,CRAL_TRIO|PF00650.20|0.0066,BRE|PF06113.12|0.15PC2A_TRINITY_DN33169_c5_g1_i2:3-623(+)																			29760.VIT_01s0011g00870.t01	2.90e-85	320.1		Viridiplantae	virNOG[6]	1BHD1@strNOG,1DV98@virNOG,COG2110@NOG,KOG2633@euNOG					
PC3A_TRINITY_DN44008_c2_g4_i2.p1PC3A_TRINITY_DN44008_c2_g4~~PC3A_TRINITY_DN44008_c2_g4_i2.p1ORFtype:5prime_partiallen:108(+),score=1.04PC3A_TRINITY_DN44008_c2_g4_i2:1-324(+)																														
PC1A_TRINITY_DN29584_c0_g1_i2.p1PC1A_TRINITY_DN29584_c0_g1~~PC1A_TRINITY_DN29584_c0_g1_i2.p1ORFtype:internallen:122(+),score=22.27,DUF5033|PF16436.5|0.041,Importin_rep_3|PF18806.1|1.3e+02,Importin_rep_3|PF18806.1|1.1PC1A_TRINITY_DN29584_c0_g1_i2:1-363(+)																			4641.GSMUA_Achr11P16410_001	5.70e-25	119.0		Viridiplantae	virNOG[6]	0TSF4@lilNOG,0XRKT@NOG,1BC50@strNOG,1DQ3H@virNOG,KOG2081@euNOG		GO:0006810-transport(L=3),GO:0008104-protein localization(L=3),GO:0019222-regulation of metabolic process(L=3),GO:0044765-single-organism transport(L=3),GO:0046907-intracellular transport(L=3),GO:0050794-regulation of cellular process(L=3),GO:0051649-establishment of localization in cell(L=3),GO:0070727-cellular macromolecule localization(L=3),	GO:0005622-intracellular(L=3),GO:0012505-endomembrane system(L=3),GO:0031224-intrinsic component of membrane(L=3),GO:0031967-organelle envelope(L=3),GO:0031975-envelope(L=3),GO:0043229-intracellular organelle(L=3),GO:0044424-intracellular part(L=3),GO:0044446-intracellular organelle part(L=3),	GO:0008565-protein transporter activity(L=3),	
PC2A_TRINITY_DN33376_c0_g3_i4.p1PC2A_TRINITY_DN33376_c0_g3~~PC2A_TRINITY_DN33376_c0_g3_i4.p1ORFtype:internallen:114(-),score=10.17,LRR_8|PF13855.6|58,LRR_8|PF13855.6|7.9e-06,LRR_1|PF00560.33|2.5e+03,LRR_1|PF00560.33|3.5,LRR_1|PF00560.33|0.29,LRR_1|PF00560.33|88,LRR_4|PF12799.7|12,LRR_4|PF12799.7|0.0022,LRR_6|PF13516.6|7.3e+03,LRR_6|PF13516.6|8.1,LRR_6|PF13516.6|0.11,LRR_6|PF13516.6|2.1e+02PC2A_TRINITY_DN33376_c0_g3_i4:2-340(-)																														
PC1A_TRINITY_DN39147_c0_g5_i3.p1PC1A_TRINITY_DN39147_c0_g5~~PC1A_TRINITY_DN39147_c0_g5_i3.p1ORFtype:5prime_partiallen:138(-),score=19.92PC1A_TRINITY_DN39147_c0_g5_i3:199-612(-)																			4533.OB04G32290.1	6.30e-20	102.4		Ancestor	NOG[107]	COG0515@NOG					
PC2A_TRINITY_DN35158_c1_g1_i7.p1PC2A_TRINITY_DN35158_c1_g1~~PC2A_TRINITY_DN35158_c1_g1_i7.p1ORFtype:5prime_partiallen:136(-),score=29.60,PHD|PF00628.29|1.4e-10,ATP-synt_B|PF00430.18|0.00035,C1_2|PF03107.16|0.0027,C1_2|PF03107.16|2.2e+02,TF_Zn_Ribbon|PF08271.12|0.18,TF_Zn_Ribbon|PF08271.12|26,C1_1|PF00130.22|0.084,C1_1|PF00130.22|2.2e+03,zf-HIT|PF04438.16|65,zf-HIT|PF04438.16|9.9e+02,zf-HIT|PF04438.16|2.2PC2A_TRINITY_DN35158_c1_g1_i7:182-589(-)																			29760.VIT_11s0016g01500.t01	1.40e-27	127.9		Viridiplantae	virNOG[6]	0IUJG@euNOG,0XP9I@NOG,1C7SK@strNOG,1EMQP@virNOG				GO:0043169-cation binding(L=3),	
PC1J_TRINITY_DN40830_c2_g1_i4.p1PC1J_TRINITY_DN40830_c2_g1~~PC1J_TRINITY_DN40830_c2_g1_i4.p1ORFtype:5prime_partiallen:696(-),score=97.83PC1J_TRINITY_DN40830_c2_g1_i4:10-2097(-)		AT1G55020.1	45.8	696	325	12	8	692	31	685	3.40e-173	98.40	AT1G55020.1 | lipoxygenase 1 | Chr1:20525798-20530143 FORWARD LENGTH=859 | 201606			Pine_Down/similarity_search/DIAMOND/blastp_Pine_DOWN_final_araport_11.out	No	Yes	29760.VIT_14s0128g00780.t01	4.60e-188	663.3	LOX	Viridiplantae	virNOG[6]	0IH0D@euNOG,0YN4N@NOG,1BFIF@strNOG,1DT0Y@virNOG	591,591,592,1100	GO:0006082-organic acid metabolic process(L=3),GO:0006629-lipid metabolic process(L=3),GO:0006952-defense response(L=3),GO:0007275-multicellular organism development(L=3),GO:0009611-response to wounding(L=3),GO:0009653-anatomical structure morphogenesis(L=3),GO:0009725-response to hormone(L=3),GO:0010033-response to organic substance(L=3),GO:0043900-regulation of multi-organism process(L=3),GO:0044249-cellular biosynthetic process(L=3),GO:0044255-cellular lipid metabolic process(L=3),GO:0044281-small molecule metabolic process(L=3),GO:0044711-single-organism biosynthetic process(L=3),GO:0045087-innate immune response(L=3),GO:0048519-negative regulation of biological process(L=3),GO:0048583-regulation of response to stimulus(L=3),GO:0048646-anatomical structure formation involved in morphogenesis(L=3),GO:0055114-oxidation-reduction process(L=3),GO:1901576-organic substance biosynthetic process(L=3),GO:1901700-response to oxygen-containing compound(L=3),	GO:0005622-intracellular(L=3),GO:0043229-intracellular organelle(L=3),GO:0044424-intracellular part(L=3),	GO:0004096-catalase activity(L=3),GO:0016684-oxidoreductase activity, acting on peroxide as acceptor(L=3),GO:0016701-oxidoreductase activity, acting on single donors with incorporation of molecular oxygen(L=3),GO:0043169-cation binding(L=3),GO:0046906-tetrapyrrole binding(L=3),GO:0051213-dioxygenase activity(L=3),	
PC2A_TRINITY_DN35422_c1_g2_i4.p1PC2A_TRINITY_DN35422_c1_g2~~PC2A_TRINITY_DN35422_c1_g2_i4.p1ORFtype:5prime_partiallen:216(-),score=30.95,PLAT|PF01477.23|8.6e-10,Lipoxygenase|PF00305.19|5.9e-08PC2A_TRINITY_DN35422_c1_g2_i4:6-653(-)																			3694.POPTR_0005s03560.1	2.20e-40	171.0	LOX	Viridiplantae	virNOG[6]	0IH0D@euNOG,0YN4N@NOG,1BFIF@strNOG,1DT0Y@virNOG	591,591,592,1100	GO:0006082-organic acid metabolic process(L=3),GO:0006629-lipid metabolic process(L=3),GO:0006952-defense response(L=3),GO:0007275-multicellular organism development(L=3),GO:0009611-response to wounding(L=3),GO:0009653-anatomical structure morphogenesis(L=3),GO:0009725-response to hormone(L=3),GO:0010033-response to organic substance(L=3),GO:0043900-regulation of multi-organism process(L=3),GO:0044249-cellular biosynthetic process(L=3),GO:0044255-cellular lipid metabolic process(L=3),GO:0044281-small molecule metabolic process(L=3),GO:0044711-single-organism biosynthetic process(L=3),GO:0045087-innate immune response(L=3),GO:0048519-negative regulation of biological process(L=3),GO:0048583-regulation of response to stimulus(L=3),GO:0048646-anatomical structure formation involved in morphogenesis(L=3),GO:0055114-oxidation-reduction process(L=3),GO:1901576-organic substance biosynthetic process(L=3),GO:1901700-response to oxygen-containing compound(L=3),	GO:0005622-intracellular(L=3),GO:0043229-intracellular organelle(L=3),GO:0044424-intracellular part(L=3),	GO:0004096-catalase activity(L=3),GO:0016684-oxidoreductase activity, acting on peroxide as acceptor(L=3),GO:0016701-oxidoreductase activity, acting on single donors with incorporation of molecular oxygen(L=3),GO:0043169-cation binding(L=3),GO:0046906-tetrapyrrole binding(L=3),GO:0051213-dioxygenase activity(L=3),	
PC3J_TRINITY_DN49148_c0_g1_i14.p1PC3J_TRINITY_DN49148_c0_g1~~PC3J_TRINITY_DN49148_c0_g1_i14.p1ORFtype:5prime_partiallen:887(-),score=135.46,Lipoxygenase|PF00305.19|5e-285,PLAT|PF01477.23|33,PLAT|PF01477.23|1.2e-08,DUF4375|PF14300.6|9.3e+03,DUF4375|PF14300.6|0.34PC3J_TRINITY_DN49148_c0_g1_i14:320-2980(-)		AT1G55020.1	45.4	883	418	14	14	886	31	859	3.20e-216	98.40	AT1G55020.1 | lipoxygenase 1 | Chr1:20525798-20530143 FORWARD LENGTH=859 | 201606			Pine_Down/similarity_search/DIAMOND/blastp_Pine_DOWN_final_araport_11.out	No	Yes	29760.VIT_14s0128g00780.t01	1.10e-231	808.5	LOX	Viridiplantae	virNOG[6]	0IH0D@euNOG,0YN4N@NOG,1BFIF@strNOG,1DT0Y@virNOG	591,591,592,1100	GO:0006082-organic acid metabolic process(L=3),GO:0006629-lipid metabolic process(L=3),GO:0006952-defense response(L=3),GO:0007275-multicellular organism development(L=3),GO:0009611-response to wounding(L=3),GO:0009653-anatomical structure morphogenesis(L=3),GO:0009725-response to hormone(L=3),GO:0010033-response to organic substance(L=3),GO:0043900-regulation of multi-organism process(L=3),GO:0044249-cellular biosynthetic process(L=3),GO:0044255-cellular lipid metabolic process(L=3),GO:0044281-small molecule metabolic process(L=3),GO:0044711-single-organism biosynthetic process(L=3),GO:0045087-innate immune response(L=3),GO:0048519-negative regulation of biological process(L=3),GO:0048583-regulation of response to stimulus(L=3),GO:0048646-anatomical structure formation involved in morphogenesis(L=3),GO:0055114-oxidation-reduction process(L=3),GO:1901576-organic substance biosynthetic process(L=3),GO:1901700-response to oxygen-containing compound(L=3),	GO:0005622-intracellular(L=3),GO:0043229-intracellular organelle(L=3),GO:0044424-intracellular part(L=3),	GO:0004096-catalase activity(L=3),GO:0016684-oxidoreductase activity, acting on peroxide as acceptor(L=3),GO:0016701-oxidoreductase activity, acting on single donors with incorporation of molecular oxygen(L=3),GO:0043169-cation binding(L=3),GO:0046906-tetrapyrrole binding(L=3),GO:0051213-dioxygenase activity(L=3),	
PC2A_TRINITY_DN29943_c1_g1_i4.p1PC2A_TRINITY_DN29943_c1_g1~~PC2A_TRINITY_DN29943_c1_g1_i4.p1ORFtype:completelen:350(-),score=33.78,Lipase_GDSL|PF00657.22|3.3e-13PC2A_TRINITY_DN29943_c1_g1_i4:100-1149(-)		AT2G04570.1	45.9	318	171	1	18	335	26	342	1.20e-81	90.90	AT2G04570.1 | GDSL-like Lipase/Acylhydrolase superfamily protein | Chr2:1594747-1596129 FORWARD LENGTH=350 | 201606			Pine_Down/similarity_search/DIAMOND/blastp_Pine_DOWN_final_araport_11.out	No	Yes	3847.GLYMA14G05560.1	2.30e-82	311.2	OSI_06163	Viridiplantae	virNOG[6]	0IG92@euNOG,1BFX2@strNOG,1DTUI@virNOG,COG3240@NOG		GO:0006629-lipid metabolic process(L=3),GO:1901575-organic substance catabolic process(L=3),		GO:0016788-hydrolase activity, acting on ester bonds(L=3),	
PC2A_TRINITY_DN4945_c0_g1_i1.p1PC2A_TRINITY_DN4945_c0_g1~~PC2A_TRINITY_DN4945_c0_g1_i1.p1ORFtype:internallen:115(+),score=9.27PC2A_TRINITY_DN4945_c0_g1_i1:1-342(+)																														
