
[build] loading fasta file /labs/Wegrzyn/Juniper_Pine/VSEARCH/New/Juniper.fasta
[build] k-mer length: 31
[build] warning: clipped off poly-A tail (longer than 10)
        from 6 target sequences
[build] counting k-mers ... done.
[build] building target de Bruijn graph ...  done 
[build] creating equivalence classes ...  done
[build] target de Bruijn graph has 254735 contigs and contains 24072472 k-mers 


[build] loading fasta file /labs/Wegrzyn/Juniper_Pine/VSEARCH/New/Pine.fasta
[build] k-mer length: 31
[build] warning: clipped off poly-A tail (longer than 10)
        from 2 target sequences
[build] counting k-mers ... done.
[build] building target de Bruijn graph ...  done 
[build] creating equivalence classes ...  done
[build] target de Bruijn graph has 249449 contigs and contains 20229192 k-mers 

