Pine:
avg=491.217 
2052	2
4101	1
2058	1
2061	1
2064	2
2070	1
2076	2
2079	2
2082	1
2085	3
2088	3
2094	2
2097	1
2100	1
2103	1
2112	2
2115	1
2118	3
2124	1
2130	1
2142	1
2145	2
2148	1
2151	3
2160	1
2187	2
2199	3
2202	2
2208	1
2214	1
2220	1
2223	1
2226	2
2232	1
2238	2
2241	1
2250	1
2253	1
2256	2
2271	4
2277	1
2280	2
2298	1
2307	3
4356	1
2313	1
2319	1
2322	1
2331	1
300	1552
303	1677
306	1529
309	1478
2358	1
312	1441
315	1307
318	1269
321	1207
324	1171
327	1145
2376	1
330	1153
333	1106
2382	1
336	992
339	1039
2388	1
342	988
345	878
348	921
2397	1
351	832
354	829
357	768
2406	1
360	775
363	767
366	748
369	724
372	690
375	627
378	643
2427	1
381	643
2430	2
384	599
387	560
390	571
2439	1
393	565
2442	1
396	557
2445	1
399	517
402	473
405	496
408	485
2457	1
411	491
414	510
2463	1
417	474
420	459
423	449
2472	1
426	416
429	402
2478	1
432	417
435	383
438	397
2487	1
441	403
444	392
447	354
450	314
2499	1
453	330
2502	1
456	346
459	353
2508	1
462	339
465	327
468	312
471	292
474	320
2523	1
477	307
480	280
2529	1
483	287
486	254
489	259
2538	1
492	274
495	279
498	255
501	265
504	266
507	229
2556	1
510	238
513	253
516	244
519	198
522	242
525	215
528	209
531	227
4629	1
534	213
537	189
540	192
543	203
2592	1
546	204
549	205
552	185
2601	3
555	185
558	181
2607	1
561	164
564	178
2613	1
567	167
570	184
2619	3
573	178
576	174
579	164
582	159
585	178
588	150
591	162
594	163
597	151
600	151
603	146
606	146
609	155
612	142
2661	1
615	112
618	167
621	137
2670	1
624	140
2673	1
627	127
630	149
2679	1
633	127
636	131
2685	1
639	116
642	132
645	151
648	147
651	111
654	122
657	117
2706	1
660	109
663	102
666	120
669	121
672	119
675	105
678	87
2727	1
681	86
684	125
2733	1
687	116
690	75
2739	3
693	99
696	98
699	91
702	92
705	88
708	96
711	83
714	97
717	75
720	72
723	86
726	103
729	92
732	82
2781	1
735	61
2784	2
738	67
741	84
744	88
747	82
750	77
753	66
756	72
759	72
762	78
765	75
768	72
771	57
774	66
777	75
6615	1
780	58
783	77
786	80
789	67
792	56
795	70
798	69
801	68
804	69
807	54
810	63
813	69
816	52
819	51
822	61
825	59
828	62
831	68
834	51
837	54
840	57
843	59
2892	2
846	50
849	52
852	49
855	44
2904	1
858	60
861	44
864	43
867	44
870	57
873	62
876	40
879	35
882	50
885	53
2934	1
888	40
891	40
894	38
897	35
900	41
903	39
906	36
909	50
912	39
2961	1
915	43
2964	1
918	35
921	36
924	41
927	35
930	34
933	45
936	50
939	39
942	29
945	30
948	34
951	35
954	38
957	35
3006	2
960	18
3009	1
963	31
966	34
969	26
972	47
975	41
978	24
981	31
984	29
987	28
990	31
993	36
996	34
999	30
1002	34
1005	26
1008	35
1011	33
1014	32
1017	26
1020	41
3069	1
1023	28
1026	34
1029	20
1032	27
1035	34
1038	34
1041	17
1044	28
3093	1
1047	26
1050	32
1053	25
1056	21
1059	27
1062	30
1065	27
1068	21
1071	32
1074	28
1077	28
1080	32
1083	31
1086	21
3135	1
1089	18
1092	33
1095	19
1098	18
1101	22
1104	22
1107	20
1110	22
1113	19
1116	21
1119	23
1122	24
1125	22
1128	23
1131	16
1134	12
1137	17
1140	17
1143	18
1146	22
1149	21
1152	18
1155	16
1158	14
1161	16
1164	22
1167	26
1170	11
1173	9
1176	23
1179	10
1182	16
1185	12
1188	13
1191	15
1194	21
1197	17
1200	18
1203	18
1206	12
1209	19
1212	10
1215	11
1218	16
1221	16
1224	12
1227	14
1230	14
1233	11
1236	14
1239	13
1242	13
1245	21
1248	13
1251	8
1254	14
1257	20
1260	10
1263	11
1266	12
1269	14
1272	13
1275	12
1278	13
1281	9
1284	5
1287	10
1290	11
3339	2
1293	8
1296	13
1299	9
1302	18
1305	6
3354	1
1308	9
1311	15
1314	12
1317	11
1320	11
1323	14
1326	9
1329	9
1332	7
1335	13
1338	8
1341	9
1344	7
1347	14
1350	8
1353	5
1356	14
1359	5
1362	7
1365	11
1368	13
1371	11
1374	7
1377	10
1380	9
1383	9
1386	8
1389	4
1392	11
1395	11
1398	9
3447	2
1401	6
1404	8
1407	8
1410	5
3459	1
1413	12
1416	7
3465	1
1419	9
1422	11
3471	1
1425	12
1428	6
1431	5
1434	7
1437	6
1440	7
1443	10
1446	10
1449	5
1452	7
1455	3
1458	6
1461	5
1464	7
1467	5
1470	8
1473	4
1476	9
3525	1
1479	3
1482	9
1485	8
1488	9
1491	5
1494	9
1497	5
1500	5
1503	4
1506	7
1509	4
1512	1
1515	5
1518	6
1521	9
1524	7
1527	13
1530	4
1533	10
1536	3
1539	6
1542	7
1545	5
1548	8
1551	5
1554	5
1557	6
1560	3
1563	3
1566	4
1569	5
1572	3
1575	6
3624	1
1578	4
1581	1
1584	3
1587	4
1590	5
1593	8
1596	7
1599	3
1602	3
1605	5
1608	6
1611	5
1614	7
1617	6
1620	3
1626	2
1629	7
1632	3
1635	5
1638	1
1644	4
1647	5
1650	2
1653	4
1656	7
1662	3
1665	5
1668	3
1671	4
1674	3
1677	4
1680	4
1683	2
1686	1
1689	6
1692	2
1695	5
1698	2
1701	4
1704	2
1707	5
1710	2
1713	4
1716	4
1719	4
3768	1
1725	4
1728	4
1731	1
1734	1
1737	5
1740	2
1743	2
1746	3
1749	1
1755	4
1758	2
1761	3
1767	4
1770	3
1773	3
1776	1
1779	3
1788	1
1791	3
1794	5
1797	5
1800	2
1803	2
1806	1
1809	1
1815	1
1818	1
1821	3
1824	3
1827	3
1830	3
3879	1
1833	4
1836	3
1839	1
1842	1
1845	1
1851	1
1854	3
1857	1
1860	4
1863	1
1869	1
1872	3
1875	1
1878	4
1884	1
1887	5
1890	1
1893	1
1896	2
1899	3
1905	1
1908	1
1911	4
1917	1
1923	2
1929	3
1932	2
1935	3
1941	2
1944	1
1947	2
1950	1
1953	1
1956	2
1959	2
1962	2
1965	3
1968	1
1971	1
1974	2
1977	2
1980	1
1983	4
1986	2
1989	1
1992	1
1995	1
1998	2
2004	4
2010	2
2013	1
2019	1
4068	1
2022	2
2025	1
2034	1
2037	1
2040	1
2043	1
2046	1


