#                                                                                                                   --- full sequence --- -------------- this domain -------------   hmm coord   ali coord   env coord
# target name                                               accession   tlen query name           accession   qlen   E-value  score  bias   #  of  c-Evalue  i-Evalue  score  bias  from    to  from    to  from    to  acc description of target
#                                       ------------------- ---------- ----- -------------------- ---------- ----- --------- ------ ----- --- --- --------- --------- ------ ----- ----- ----- ----- ----- ----- ----- ---- ---------------------
PC1J_TRINITY_DN40081_c4_g1_i1.p1PC1J_TRINITY_DN40081_c4_g1  -            261 103929at3193         -            297  7.5e-122  407.9   0.3   1   1  8.1e-125  9.6e-122  407.5   0.3     2   218    28   261    27   261 0.95 -
PC2A_TRINITY_DN32571_c1_g2_i6.p1PC2A_TRINITY_DN32571_c1_g2  -            404 103929at3193         -            297   2.3e-64  219.1   0.0   1   1   2.5e-67   2.9e-64  218.8   0.0     3   280    68   373    66   386 0.84 -
PC2A_TRINITY_DN26958_c0_g1_i3.p1PC2A_TRINITY_DN26958_c0_g1  -            130 103929at3193         -            297   1.2e-40  141.2   0.2   1   1   1.3e-43   1.5e-40  140.9   0.2     2    75    31   104    30   109 0.98 -
PC1A_TRINITY_DN42658_c1_g3_i3.p1PC1A_TRINITY_DN42658_c1_g3  -            268 103929at3193         -            297   8.6e-38  131.9   0.7   1   2   5.2e-28   6.1e-25   89.7   0.3     6   145     6   156     1   159 0.85 -
PC1A_TRINITY_DN42658_c1_g3_i3.p1PC1A_TRINITY_DN42658_c1_g3  -            268 103929at3193         -            297   8.6e-38  131.9   0.7   2   2   6.6e-14   7.8e-11   43.4   0.0   202   280   155   246   154   260 0.78 -
PC2A_TRINITY_DN32571_c1_g2_i5.p1PC2A_TRINITY_DN32571_c1_g2  -            154 103929at3193         -            297   9.5e-26   92.3   0.0   1   1     1e-28   1.2e-25   92.0   0.0   105   226    19   138    13   148 0.85 -
PC2J_TRINITY_DN42969_c7_g1_i3.p1PC2J_TRINITY_DN42969_c7_g1  -            141 103929at3193         -            297   1.6e-23   85.1   0.0   1   1   1.6e-26   1.9e-23   84.8   0.0    94   206    13   125     4   130 0.88 -
PC2J_TRINITY_DN42969_c7_g1_i6.p1PC2J_TRINITY_DN42969_c7_g1  -            160 103929at3193         -            297   1.1e-21   79.0   0.0   1   1   1.1e-24   1.3e-21   78.8   0.0   177   280    22   138     7   152 0.80 -
PC2A_TRINITY_DN26958_c0_g1_i2.p1PC2A_TRINITY_DN26958_c0_g1  -            120 103929at3193         -            297   1.4e-20   75.4   0.1   1   1   1.3e-23   1.6e-20   75.2   0.1     2    46    31    75    30    93 0.91 -
PC1A_TRINITY_DN43395_c6_g3_i1.p1PC1A_TRINITY_DN43395_c6_g3  -            337 103929at3193         -            297   1.4e-15   58.9   0.1   1   1   5.7e-18   6.7e-15   56.7   0.1     7   215    40   282    34   327 0.70 -
PC1A_TRINITY_DN40178_c2_g7_i1.p1PC1A_TRINITY_DN40178_c2_g7  -            246 103929at3193         -            297   3.3e-15   57.7   0.0   1   1   4.6e-18   5.4e-15   57.0   0.0    94   286    12   218     6   224 0.79 -
PC1A_TRINITY_DN32364_c0_g1_i1.p1PC1A_TRINITY_DN32364_c0_g1  -            181 103929at3193         -            297   9.8e-14   52.9   0.0   1   1   9.2e-17   1.1e-13   52.8   0.0    44   207    11   179     1   181 0.83 -
PC3A_TRINITY_DN42359_c0_g1_i9.p1PC3A_TRINITY_DN42359_c0_g1  -            275 103929at3193         -            297   7.2e-13   50.1   0.0   1   1     8e-16   9.4e-13   49.7   0.0    32   250    38   270     9   274 0.70 -
PC3A_TRINITY_DN36247_c2_g4_i2.p1PC3A_TRINITY_DN36247_c2_g4  -            264 103929at3193         -            297   1.7e-12   48.8   0.0   1   1   2.1e-15   2.5e-12   48.3   0.0    39   255    27   258    14   264 0.72 -
PC1A_TRINITY_DN42143_c3_g1_i3.p1PC1A_TRINITY_DN42143_c3_g1  -            401 103929at3193         -            297   3.1e-12   48.0   0.0   1   1     5e-15   5.9e-12   47.1   0.0    43   211   104   275    81   342 0.81 -
PC2J_TRINITY_DN43159_c0_g2_i5.p1PC2J_TRINITY_DN43159_c0_g2  -            232 103929at3193         -            297   3.2e-12   47.9   0.0   1   1   3.9e-15   4.6e-12   47.4   0.0   134   281    35   195    27   204 0.76 -
PC2A_TRINITY_DN33815_c1_g1_i5.p1PC2A_TRINITY_DN33815_c1_g1  -            270 103929at3193         -            297   8.4e-12   46.6   0.0   1   1   9.1e-15   1.1e-11   46.2   0.0    30   228    43   244    16   264 0.76 -
PC2A_TRINITY_DN24040_c0_g1_i1.p1PC2A_TRINITY_DN24040_c0_g1  -            149 103929at3193         -            297   9.7e-11   43.1   0.0   1   1   1.3e-13   1.5e-10   42.5   0.0    72   199    20   146     4   148 0.83 -
PC1J_TRINITY_DN36117_c0_g3_i3.p1PC1J_TRINITY_DN36117_c0_g3  -            303 103929at3193         -            297   1.1e-10   42.9   0.1   1   1     1e-11   1.2e-08   36.2   0.1    35   285    31   294    22   301 0.73 -
PC1A_TRINITY_DN42143_c3_g1_i1.p1PC1A_TRINITY_DN42143_c3_g1  -            384 103929at3193         -            297   6.5e-10   40.4   0.1   1   1   1.2e-12   1.4e-09   39.2   0.1    98   211   150   258   139   326 0.86 -
PC3A_TRINITY_DN44691_c0_g1_i1.p1PC3A_TRINITY_DN44691_c0_g1  -            167 103929at3193         -            297   6.6e-09   37.1   0.0   1   1   4.9e-11   5.8e-08   34.0   0.0   139   285     8   140     2   147 0.82 -
PC3J_TRINITY_DN37913_c1_g1_i1.p1PC3J_TRINITY_DN37913_c1_g1  -            321 103929at3193         -            297     3e-08   34.9   0.0   1   1   3.6e-11   4.3e-08   34.4   0.0     6   270    13   283     9   290 0.68 -
PC3J_TRINITY_DN48136_c2_g8_i1.p1PC3J_TRINITY_DN48136_c2_g8  -            227 103929at3193         -            297   4.8e-08   34.2   0.0   1   1   4.7e-11   5.5e-08   34.0   0.0     7   196    38   226    30   227 0.73 -
PC1J_TRINITY_DN40197_c0_g1_i8.p1PC1J_TRINITY_DN40197_c0_g1  -            187 103929at3193         -            297     6e-08   33.9   0.0   1   1   6.3e-11   7.4e-08   33.6   0.0    66   212     8   159     4   182 0.78 -
PC1A_TRINITY_DN44990_c0_g1_i1.p1PC1A_TRINITY_DN44990_c0_g1  -            240 103929at3193         -            297   6.2e-08   33.9   0.0   1   1   1.8e-10   2.1e-07   32.1   0.0    98   271    17   210     5   231 0.72 -
PC1J_TRINITY_DN36117_c0_g3_i1.p1PC1J_TRINITY_DN36117_c0_g3  -            182 103929at3193         -            297     2e-07   32.2   0.0   1   1   5.5e-10   6.4e-07   30.5   0.0   135   285    32   173    17   180 0.79 -
PC2A_TRINITY_DN26688_c0_g1_i2.p1PC2A_TRINITY_DN26688_c0_g1  -            233 103929at3193         -            297     3e-07   31.6   0.0   1   1   4.8e-10   5.6e-07   30.7   0.0    33   194    60   232    50   233 0.79 -
PC1J_TRINITY_DN36229_c3_g1_i1.p1PC1J_TRINITY_DN36229_c3_g1  -            252 103929at3193         -            297   3.7e-06   28.0   0.0   1   1   1.4e-08   1.7e-05   25.9   0.0     7   167    34   223    28   248 0.63 -
PC2A_TRINITY_DN33815_c1_g1_i10.p1PC2A_TRINITY_DN33815_c1_g1 -            181 103929at3193         -            297   4.7e-06   27.7   0.0   1   1     5e-09   5.9e-06   27.4   0.0    94   213    26   141    22   174 0.78 -
PC3A_TRINITY_DN38572_c0_g5_i1.p1PC3A_TRINITY_DN38572_c0_g5  -            105 103929at3193         -            297   1.2e-05   26.3   0.0   1   1   1.1e-08   1.3e-05   26.2   0.0   232   278    32    83    10    91 0.85 -
PC2J_TRINITY_DN44298_c0_g1_i11.p1PC2J_TRINITY_DN44298_c0_g1 -            227 103929at3193         -            297   2.2e-05   25.5   0.0   1   2   4.1e-07   0.00048   21.1   0.0     7    86    16    96    10   117 0.79 -
PC2J_TRINITY_DN44298_c0_g1_i11.p1PC2J_TRINITY_DN44298_c0_g1 -            227 103929at3193         -            297   2.2e-05   25.5   0.0   2   2      0.21   2.5e+02    2.3   0.0     6    22   164   180   158   196 0.84 -
PC2J_TRINITY_DN43159_c0_g2_i18.p1PC2J_TRINITY_DN43159_c0_g2 -            359 103929at3193         -            297   3.5e-05   24.8   0.0   1   1   4.2e-08     5e-05   24.3   0.0   122   213    39   126    21   159 0.81 -
PC1J_TRINITY_DN32776_c0_g2_i2.p1PC1J_TRINITY_DN32776_c0_g2  -            210 103929at3193         -            297   5.2e-05   24.3   0.0   1   1   6.9e-08   8.1e-05   23.6   0.0    40   162    81   202    74   207 0.75 -
PC1J_TRINITY_DN38632_c0_g4_i1.p1PC1J_TRINITY_DN38632_c0_g4  -            102 103929at3193         -            297   8.2e-05   23.6   0.0   1   1   7.6e-08     9e-05   23.5   0.0   168   216     7    59     2    97 0.73 -
PC1J_TRINITY_DN32776_c0_g2_i3.p1PC1J_TRINITY_DN32776_c0_g2  -            139 103929at3193         -            297   0.00017   22.6   0.0   1   1   1.8e-07   0.00022   22.2   0.0    97   162    71   131    47   136 0.88 -
PC2J_TRINITY_DN5841_c0_g1_i1.p1PC2J_TRINITY_DN5841_c0_g1    -            139 103929at3193         -            297   0.00025   22.0   0.0   1   1   2.6e-07    0.0003   21.8   0.0    38   145     8   121     2   129 0.67 -
PC2J_TRINITY_DN36088_c2_g2_i1.p1PC2J_TRINITY_DN36088_c2_g2  -            167 103929at3193         -            297   0.00033   21.6   0.0   1   1   3.4e-07    0.0004   21.3   0.0    25   156    18   155     3   163 0.67 -
PC2J_TRINITY_DN44298_c0_g1_i9.p1PC2J_TRINITY_DN44298_c0_g1  -            164 103929at3193         -            297   0.00041   21.3   0.0   1   2   9.9e-06     0.012   16.5   0.0     7    70    16    75     9    96 0.76 -
PC2J_TRINITY_DN44298_c0_g1_i9.p1PC2J_TRINITY_DN44298_c0_g1  -            164 103929at3193         -            297   0.00041   21.3   0.0   2   2      0.12   1.5e+02    3.1   0.0     6    22   106   122    99   141 0.84 -
PC2J_TRINITY_DN39760_c2_g2_i1.p1PC2J_TRINITY_DN39760_c2_g2  -            117 103929at3193         -            297   0.00069   20.6   0.0   1   1   6.5e-07   0.00077   20.4   0.0   228   282    35    93    11   101 0.83 -
PC2J_TRINITY_DN43159_c0_g2_i7.p1PC2J_TRINITY_DN43159_c0_g2  -            140 103929at3193         -            297    0.0007   20.6   0.0   1   1   8.2e-07   0.00097   20.1   0.0   134   209     8    79     3    89 0.81 -
PC1J_TRINITY_DN33957_c4_g1_i1.p1PC1J_TRINITY_DN33957_c4_g1  -            130 103929at3193         -            297   0.00074   20.5   0.0   1   1   7.6e-07   0.00089   20.2   0.0    38   111    11    93     2   107 0.69 -
PC3A_TRINITY_DN42252_c1_g1_i1.p1PC3A_TRINITY_DN42252_c1_g1  -            126 103929at3193         -            297   0.00077   20.4   0.0   1   1   7.1e-07   0.00084   20.3   0.0   231   279    37    90     9   105 0.77 -
PC1A_TRINITY_DN38647_c0_g1_i1.p1PC1A_TRINITY_DN38647_c0_g1  -            130 103929at3193         -            297    0.0015   19.4   0.0   1   1   1.7e-05      0.02   15.8   0.0   182   264     3    72     1    98 0.73 -
PC2J_TRINITY_DN39215_c3_g1_i2.p1PC2J_TRINITY_DN39215_c3_g1  -            102 103929at3193         -            297    0.0036   18.2   0.0   1   1   4.5e-06    0.0053   17.7   0.0   125   161    54    90    44   100 0.86 -
PC2J_TRINITY_DN40762_c3_g2_i3.p1PC2J_TRINITY_DN40762_c3_g2  -            150 103929at3193         -            297    0.0049   17.8   0.0   1   2     2e-05     0.024   15.5   0.0   228   280    58   113    50   124 0.83 -
PC2J_TRINITY_DN40762_c3_g2_i3.p1PC2J_TRINITY_DN40762_c3_g2  -            150 103929at3193         -            297    0.0049   17.8   0.0   2   2     0.048        57    4.4   0.0    78   131    97   147    86   149 0.79 -
PC2J_TRINITY_DN39270_c3_g1_i1.p1PC2J_TRINITY_DN39270_c3_g1  -            119 103929at3193         -            297    0.0056   17.6   0.0   1   1   7.2e-06    0.0085   17.0   0.0   228   278    27    80     1    96 0.84 -
PC3J_TRINITY_DN24510_c0_g1_i2.p1PC3J_TRINITY_DN24510_c0_g1  -            103 103929at3193         -            297    0.0063   17.4   0.0   1   1   6.9e-06    0.0081   17.1   0.0   126   163    54    91    47   100 0.83 -
PC1J_TRINITY_DN34102_c0_g2_i5.p1PC1J_TRINITY_DN34102_c0_g2  -            131 103929at3193         -            297    0.0079   17.1   0.0   1   1   1.1e-05     0.013   16.4   0.0   126   160    88   122    81   129 0.88 -
PC3A_TRINITY_DN37694_c2_g3_i6.p1PC3A_TRINITY_DN37694_c2_g3  -            112 103929at3193         -            297    0.0086   17.0   0.0   1   1   9.1e-06     0.011   16.7   0.0   243   282     1    45     1    56 0.84 -
PC1J_TRINITY_DN34102_c0_g2_i3.p1PC1J_TRINITY_DN34102_c0_g2  -            194 103929at3193         -            297      0.01   16.8   0.0   1   2       3.2   3.8e+03   -1.6   0.0    41    64    42    65    21   125 0.55 -
PC1J_TRINITY_DN34102_c0_g2_i3.p1PC1J_TRINITY_DN34102_c0_g2  -            194 103929at3193         -            297      0.01   16.8   0.0   2   2   2.2e-05     0.026   15.4   0.0   126   160   151   185   144   192 0.88 -
PC3A_TRINITY_DN36247_c2_g4_i1.p1PC3A_TRINITY_DN36247_c2_g4  -            198 103929at3193         -            297      0.01   16.8   0.0   1   1   1.1e-05     0.013   16.4   0.0    39   115    27   112    14   158 0.71 -
PC1A_TRINITY_DN30954_c0_g1_i1.p1PC1A_TRINITY_DN30954_c0_g1  -            115 103929at3193         -            297     0.012   16.6   0.0   1   1   1.4e-05     0.016   16.1   0.0   182   275     4   114     2   115 0.70 -
PC1A_TRINITY_DN42290_c3_g5_i1.p1PC1A_TRINITY_DN42290_c3_g5  -            100 103929at3193         -            297     0.033   15.1   0.0   1   1   4.4e-05     0.052   14.4   0.0   189   265     8    99     3   100 0.66 -
PC1A_TRINITY_DN36802_c0_g1_i1.p1PC1A_TRINITY_DN36802_c0_g1  -            113 103929at3193         -            297      0.65   10.8   0.0   1   2       1.5   1.7e+03   -0.4   0.0   103   125    42    64    18    73 0.58 -
PC1A_TRINITY_DN36802_c0_g1_i1.p1PC1A_TRINITY_DN36802_c0_g1  -            113 103929at3193         -            297      0.65   10.8   0.0   2   2     0.001       1.2    9.9   0.0    37    58    69    90    34   105 0.74 -
PC1A_TRINITY_DN36802_c0_g1_i2.p1PC1A_TRINITY_DN36802_c0_g1  -            145 103929at3193         -            297      0.69   10.7   0.0   1   1   0.00075      0.88   10.4   0.0     8    58    75   122    66   137 0.66 -
#
# Program:         hmmsearch
# Version:         3.2.1 (June 2018)
# Pipeline mode:   SEARCH
# Query file:      /isg/shared/databases/BUSCO/odb10/embryophyta_odb10/hmms/103929at3193.hmm
# Target file:     Pine_final_annotations_no_contam_lvl0.faa
# Option settings: /usr/local/bin/hmmsearch --domtblout /labs/Wegrzyn/Juniper_Pine/BUSCO/NEW/busco_pine/run_embryophyta_odb10/hmmer_output/103929at3193.out --cpu 1 /isg/shared/databases/BUSCO/odb10/embryophyta_odb10/hmms/103929at3193.hmm Pine_final_annotations_no_contam_lvl0.faa 
# Current dir:     /labs/Wegrzyn/Juniper_Pine/BUSCO/NEW
# Date:            Thu Aug  6 14:37:49 2020
# [ok]
