#                                                                                                                   --- full sequence --- -------------- this domain -------------   hmm coord   ali coord   env coord
# target name                                               accession   tlen query name           accession   qlen   E-value  score  bias   #  of  c-Evalue  i-Evalue  score  bias  from    to  from    to  from    to  acc description of target
#                                       ------------------- ---------- ----- -------------------- ---------- ----- --------- ------ ----- --- --- --------- --------- ------ ----- ----- ----- ----- ----- ----- ----- ---- ---------------------
PC2J_TRINITY_DN37065_c1_g3_i4.p1PC2J_TRINITY_DN37065_c1_g3  -            271 104863at3193         -            314  1.4e-101  341.7  13.2   1   1  5.7e-105  2.4e-101  341.0  13.2     3   167   107   271   105   271 0.99 -
PC3A_TRINITY_DN40289_c3_g1_i1.p1PC3A_TRINITY_DN40289_c3_g1  -            431 104863at3193         -            314   3.9e-63  215.5  22.1   1   2       1.1   4.9e+03   -1.7   0.0   102   128    57    83    54    86 0.90 -
PC3A_TRINITY_DN40289_c3_g1_i1.p1PC3A_TRINITY_DN40289_c3_g1  -            431 104863at3193         -            314   3.9e-63  215.5  22.1   2   2   1.9e-66   8.2e-63  214.4  21.6     7   304   101   402    96   410 0.93 -
PC1J_TRINITY_DN40627_c0_g2_i17.p1PC1J_TRINITY_DN40627_c0_g2 -            498 104863at3193         -            314   1.1e-62  214.0  23.9   1   3       1.4   5.8e+03   -1.9   0.0   102   128    62    88    59    91 0.90 -
PC1J_TRINITY_DN40627_c0_g2_i17.p1PC1J_TRINITY_DN40627_c0_g2 -            498 104863at3193         -            314   1.1e-62  214.0  23.9   2   3      0.12   5.3e+02    1.5   0.0     7    45   106   144   101   154 0.84 -
PC1J_TRINITY_DN40627_c0_g2_i17.p1PC1J_TRINITY_DN40627_c0_g2 -            498 104863at3193         -            314   1.1e-62  214.0  23.9   3   3   1.1e-65   4.8e-62  211.9  21.3     7   304   168   469   163   477 0.93 -
PC1J_TRINITY_DN16421_c0_g1_i2.p1PC1J_TRINITY_DN16421_c0_g1  -            103 104863at3193         -            314   5.7e-42  145.9   0.5   1   1   1.4e-45   6.1e-42  145.8   0.5   188   269    19   101     7   103 0.94 -
PC1J_TRINITY_DN40627_c0_g2_i20.p1PC1J_TRINITY_DN40627_c0_g2 -            256 104863at3193         -            314   8.1e-40  138.9  16.8   1   1   2.5e-43   1.1e-39  138.5  16.8    93   305    12   228     3   235 0.89 -
PC3A_TRINITY_DN1508_c0_g1_i1.p1PC3A_TRINITY_DN1508_c0_g1    -            139 104863at3193         -            314   8.5e-37  128.9   7.8   1   1   2.4e-40     1e-36  128.7   7.8   158   291     1   136     1   138 0.97 -
PC1J_TRINITY_DN40627_c0_g2_i18.p1PC1J_TRINITY_DN40627_c0_g2 -            197 104863at3193         -            314     7e-32  112.8   7.3   1   1     2e-35   8.6e-32  112.5   7.3    10   158    34   182    31   195 0.93 -
PC3A_TRINITY_DN40289_c3_g1_i5.p1PC3A_TRINITY_DN40289_c3_g1  -            122 104863at3193         -            314   3.5e-20   74.3   0.6   1   1   9.5e-24     4e-20   74.1   0.6    38   130     4    96     1   102 0.95 -
PC1J_TRINITY_DN40627_c0_g2_i11.p1PC1J_TRINITY_DN40627_c0_g2 -            113 104863at3193         -            314     5e-18   67.3   0.6   1   1   1.4e-21   5.8e-18   67.1   0.6    48   130     1    83     1    89 0.97 -
PC2J_TRINITY_DN43400_c0_g1_i2.p1PC2J_TRINITY_DN43400_c0_g1  -            119 104863at3193         -            314   1.7e-14   55.7  11.1   1   1   4.3e-18   1.8e-14   55.6  11.1   124   223    16   117     6   118 0.89 -
PC2J_TRINITY_DN43400_c0_g1_i4.p1PC2J_TRINITY_DN43400_c0_g1  -            123 104863at3193         -            314   1.2e-12   49.6  11.1   1   1   3.3e-16   1.4e-12   49.4  11.1   124   205    16    98     6   114 0.88 -
PC2J_TRINITY_DN43400_c0_g1_i1.p1PC2J_TRINITY_DN43400_c0_g1  -            122 104863at3193         -            314   2.4e-07   32.2   0.1   1   1   6.4e-11   2.7e-07   32.0   0.1   245   305    35    94    16   102 0.83 -
PC3J_TRINITY_DN39262_c0_g2_i1.p1PC3J_TRINITY_DN39262_c0_g2  -            104 104863at3193         -            314    0.0078   17.4   3.0   1   1   2.4e-06      0.01   17.0   3.0    22   111    11    96     2   101 0.84 -
PC2J_TRINITY_DN37818_c5_g1_i2.p1PC2J_TRINITY_DN37818_c5_g1  -            284 104863at3193         -            314     0.029   15.5   3.3   1   1   1.1e-05     0.046   14.8   3.3   126   212   177   260   170   267 0.80 -
PC2J_TRINITY_DN43400_c0_g1_i9.p3PC2J_TRINITY_DN43400_c0_g1  -            111 104863at3193         -            314       0.2   12.8   0.2   1   1   5.8e-05      0.25   12.4   0.2   246   274    10    38     3    43 0.87 -
#
# Program:         hmmsearch
# Version:         3.2.1 (June 2018)
# Pipeline mode:   SEARCH
# Query file:      /isg/shared/databases/BUSCO/odb10/embryophyta_odb10/hmms/104863at3193.hmm
# Target file:     Pine_final_annotations_no_contam_lvl0.faa
# Option settings: /usr/local/bin/hmmsearch --domtblout /labs/Wegrzyn/Juniper_Pine/BUSCO/NEW/busco_pine/run_embryophyta_odb10/hmmer_output/104863at3193.out --cpu 1 /isg/shared/databases/BUSCO/odb10/embryophyta_odb10/hmms/104863at3193.hmm Pine_final_annotations_no_contam_lvl0.faa 
# Current dir:     /labs/Wegrzyn/Juniper_Pine/BUSCO/NEW
# Date:            Thu Aug  6 14:37:56 2020
# [ok]
