#                                                                                                                   --- full sequence --- -------------- this domain -------------   hmm coord   ali coord   env coord
# target name                                               accession   tlen query name           accession   qlen   E-value  score  bias   #  of  c-Evalue  i-Evalue  score  bias  from    to  from    to  from    to  acc description of target
#                                       ------------------- ---------- ----- -------------------- ---------- ----- --------- ------ ----- --- --- --------- --------- ------ ----- ----- ----- ----- ----- ----- ----- ---- ---------------------
PC1A_TRINITY_DN43793_c2_g1_i2.p1PC1A_TRINITY_DN43793_c2_g1  -            350 106163at3193         -            287  6.2e-110  368.9   2.2   1   2   6.8e-17   5.7e-14   54.0   0.6     1    46   103   148   103   162 0.89 -
PC1A_TRINITY_DN43793_c2_g1_i2.p1PC1A_TRINITY_DN43793_c2_g1  -            350 106163at3193         -            287  6.2e-110  368.9   2.2   2   2   2.6e-96   2.1e-93  314.7   0.1    41   207   173   349   155   350 0.91 -
PC2J_TRINITY_DN41206_c1_g2_i2.p1PC2J_TRINITY_DN41206_c1_g2  -            196 106163at3193         -            287   8.4e-73  247.1   0.9   1   2   4.6e-05     0.039   15.2   0.1   159   178     1    20     1    28 0.91 -
PC2J_TRINITY_DN41206_c1_g2_i2.p1PC2J_TRINITY_DN41206_c1_g2  -            196 106163at3193         -            287   8.4e-73  247.1   0.9   2   2   7.3e-71   6.1e-68  231.1   0.1    42   165    31   164    20   170 0.91 -
PC3J_TRINITY_DN42537_c0_g4_i1.p1PC3J_TRINITY_DN42537_c0_g4  -            116 106163at3193         -            287   1.2e-50  174.3   0.6   1   2    0.0077       6.4    7.9   0.0   221   236     1    17     1    18 0.88 -
PC3J_TRINITY_DN42537_c0_g4_i1.p1PC3J_TRINITY_DN42537_c0_g4  -            116 106163at3193         -            287   1.2e-50  174.3   0.6   2   2   2.8e-52   2.4e-49  170.1   0.5   168   268    13   116     9   116 0.96 -
PC3A_TRINITY_DN36804_c1_g1_i2.p1PC3A_TRINITY_DN36804_c1_g1  -            119 106163at3193         -            287   8.5e-50  171.6   0.0   1   1   1.3e-52   1.1e-49  171.3   0.0   104   201    14   112     8   116 0.93 -
PC2A_TRINITY_DN34568_c0_g1_i3.p1PC2A_TRINITY_DN34568_c0_g1  -            367 106163at3193         -            287   2.6e-13   51.8   0.0   1   1   1.3e-14   1.1e-11   46.5   0.0     1   236    43   301    43   309 0.76 -
PC3J_TRINITY_DN46444_c4_g1_i11.p1PC3J_TRINITY_DN46444_c4_g1 -            445 106163at3193         -            287   2.1e-12   48.9   0.0   1   1     1e-13   8.6e-11   43.6   0.0     1   217   131   369   131   387 0.77 -
PC2A_TRINITY_DN34568_c0_g1_i16.p1PC2A_TRINITY_DN34568_c0_g1 -            324 106163at3193         -            287   2.1e-12   48.9   0.0   1   2   0.00028      0.23   12.6   0.0     1    32    43    74    43    92 0.92 -
PC2A_TRINITY_DN34568_c0_g1_i16.p1PC2A_TRINITY_DN34568_c0_g1 -            324 106163at3193         -            287   2.1e-12   48.9   0.0   2   2   7.1e-11     6e-08   34.3   0.0    72   220   101   251    86   266 0.85 -
PC2J_TRINITY_DN45692_c2_g1_i14.p1PC2J_TRINITY_DN45692_c2_g1 -            256 106163at3193         -            287   1.7e-09   39.3   0.0   1   2   0.00027      0.23   12.7   0.0     1    32    19    50    19    53 0.93 -
PC2J_TRINITY_DN45692_c2_g1_i14.p1PC2J_TRINITY_DN45692_c2_g1 -            256 106163at3193         -            287   1.7e-09   39.3   0.0   2   2   5.5e-08   4.6e-05   24.8   0.0    95   217    54   174    50   194 0.87 -
PC1J_TRINITY_DN37719_c1_g1_i5.p1PC1J_TRINITY_DN37719_c1_g1  -            171 106163at3193         -            287   4.6e-08   34.6   0.8   1   2   4.8e-06     0.004   18.4   0.1     1    31    52    82    52   102 0.91 -
PC1J_TRINITY_DN37719_c1_g1_i5.p1PC1J_TRINITY_DN37719_c1_g1  -            171 106163at3193         -            287   4.6e-08   34.6   0.8   2   2     7e-05     0.059   14.6   0.1     1    23   148   170   148   171 0.91 -
PC2J_TRINITY_DN37908_c0_g2_i3.p1PC2J_TRINITY_DN37908_c0_g2  -            402 106163at3193         -            287   6.1e-08   34.2   0.0   1   2    0.0011      0.96   10.6   0.0     3    27    73    97    71   105 0.89 -
PC2J_TRINITY_DN37908_c0_g2_i3.p1PC2J_TRINITY_DN37908_c0_g2  -            402 106163at3193         -            287   6.1e-08   34.2   0.0   2   2     6e-07   0.00051   21.4   0.0    30   214   126   319   120   335 0.77 -
PC1A_TRINITY_DN42806_c4_g1_i5.p1PC1A_TRINITY_DN42806_c4_g1  -            228 106163at3193         -            287   1.3e-07   33.1   0.9   1   2   1.1e-05    0.0089   17.3   0.1     1    30    52    81    52    87 0.92 -
PC1A_TRINITY_DN42806_c4_g1_i5.p1PC1A_TRINITY_DN42806_c4_g1  -            228 106163at3193         -            287   1.3e-07   33.1   0.9   2   2    0.0001     0.087   14.0   0.1     1    23   205   227   205   228 0.91 -
PC1J_TRINITY_DN36528_c2_g2_i6.p1PC1J_TRINITY_DN36528_c2_g2  -            386 106163at3193         -            287   2.3e-06   29.1   0.1   1   2    0.0015       1.3   10.2   0.1     1    32   103   134   103   150 0.86 -
PC1J_TRINITY_DN36528_c2_g2_i6.p1PC1J_TRINITY_DN36528_c2_g2  -            386 106163at3193         -            287   2.3e-06   29.1   0.1   2   2   1.3e-05     0.011   17.0   0.0    45    92   188   241   164   331 0.77 -
PC2A_TRINITY_DN34591_c0_g1_i16.p1PC2A_TRINITY_DN34591_c0_g1 -            344 106163at3193         -            287   4.3e-05   24.9   0.0   1   2   5.6e-05     0.047   14.9   0.0     1    34    43    76    43   119 0.92 -
PC2A_TRINITY_DN34591_c0_g1_i16.p1PC2A_TRINITY_DN34591_c0_g1 -            344 106163at3193         -            287   4.3e-05   24.9   0.0   2   2    0.0077       6.5    7.9   0.0    99   206   169   280   153   297 0.73 -
PC1A_TRINITY_DN40783_c2_g3_i2.p1PC1A_TRINITY_DN40783_c2_g3  -            276 106163at3193         -            287   0.00012   23.4   0.0   1   2   0.00089      0.75   11.0   0.0     1    34     7    40     7    47 0.92 -
PC1A_TRINITY_DN40783_c2_g3_i2.p1PC1A_TRINITY_DN40783_c2_g3  -            276 106163at3193         -            287   0.00012   23.4   0.0   2   2    0.0014       1.2   10.3   0.0   108   205   146   245   132   255 0.77 -
PC2A_TRINITY_DN34591_c0_g3_i1.p1PC2A_TRINITY_DN34591_c0_g3  -            279 106163at3193         -            287   0.00031   22.1   0.0   1   2   0.00089      0.74   11.0   0.0     1    31     7    37     7    44 0.85 -
PC2A_TRINITY_DN34591_c0_g3_i1.p1PC2A_TRINITY_DN34591_c0_g3  -            279 106163at3193         -            287   0.00031   22.1   0.0   2   2    0.0033       2.7    9.1   0.0   136   207   176   246   120   258 0.85 -
PC3J_TRINITY_DN46444_c4_g1_i12.p1PC3J_TRINITY_DN46444_c4_g1 -            121 106163at3193         -            287   0.00062   21.1   0.0   1   2   5.9e-05     0.049   14.8   0.0     1    32    11    42    11    58 0.92 -
PC3J_TRINITY_DN46444_c4_g1_i12.p1PC3J_TRINITY_DN46444_c4_g1 -            121 106163at3193         -            287   0.00062   21.1   0.0   2   2     0.082        69    4.5   0.0     6    32    86   112    80   117 0.90 -
PC2J_TRINITY_DN41746_c3_g1_i4.p1PC2J_TRINITY_DN41746_c3_g1  -            146 106163at3193         -            287   0.00082   20.7   0.0   1   1   1.3e-06    0.0011   20.3   0.0     1    31    25    55    25    63 0.90 -
PC2A_TRINITY_DN34236_c2_g2_i4.p1PC2A_TRINITY_DN34236_c2_g2  -            126 106163at3193         -            287   0.00084   20.6   0.0   1   1   1.1e-06   0.00093   20.5   0.0    45   108    34   101    15   114 0.71 -
PC2A_TRINITY_DN34236_c2_g2_i1.p1PC2A_TRINITY_DN34236_c2_g2  -            141 106163at3193         -            287   0.00096   20.4   0.0   1   1   1.3e-06    0.0011   20.3   0.0    45   107    49   115    25   129 0.71 -
PC1A_TRINITY_DN42005_c1_g2_i16.p1PC1A_TRINITY_DN42005_c1_g2 -            181 106163at3193         -            287     0.001   20.3   0.0   1   1   1.4e-06    0.0012   20.1   0.0    43   177    32   170    20   175 0.71 -
PC3A_TRINITY_DN41625_c2_g2_i1.p1PC3A_TRINITY_DN41625_c2_g2  -            213 106163at3193         -            287    0.0016   19.7   0.1   1   2     6e-06     0.005   18.1   0.0     1    31    27    57    27    65 0.90 -
PC3A_TRINITY_DN41625_c2_g2_i1.p1PC3A_TRINITY_DN41625_c2_g2  -            213 106163at3193         -            287    0.0016   19.7   0.1   2   2       4.9   4.1e+03   -1.3   0.0   145   170   147   170   131   179 0.78 -
PC1A_TRINITY_DN42420_c1_g7_i3.p1PC1A_TRINITY_DN42420_c1_g7  -            245 106163at3193         -            287    0.0016   19.7   0.0   1   1     3e-06    0.0025   19.1   0.0     1    31    54    84    54    91 0.91 -
PC1J_TRINITY_DN37719_c1_g1_i7.p1PC1J_TRINITY_DN37719_c1_g1  -            118 106163at3193         -            287    0.0017   19.6   0.0   1   1   2.7e-06    0.0022   19.3   0.0     1    31    52    82    52    94 0.91 -
PC1A_TRINITY_DN44113_c0_g2_i13.p1PC1A_TRINITY_DN44113_c0_g2 -            607 106163at3193         -            287    0.0022   19.2   0.1   1   3   6.4e-05     0.053   14.7   0.2     1    33   142   174   142   238 0.78 -
PC1A_TRINITY_DN44113_c0_g2_i13.p1PC1A_TRINITY_DN44113_c0_g2 -            607 106163at3193         -            287    0.0022   19.2   0.1   2   3         1   8.4e+02    1.0   0.0    98   135   468   505   427   537 0.76 -
PC1A_TRINITY_DN44113_c0_g2_i13.p1PC1A_TRINITY_DN44113_c0_g2 -            607 106163at3193         -            287    0.0022   19.2   0.1   3   3       5.4   4.5e+03   -1.4   0.0   106   131   558   583   545   593 0.84 -
PC1J_TRINITY_DN39894_c4_g1_i5.p1PC1J_TRINITY_DN39894_c4_g1  -            121 106163at3193         -            287    0.0033   18.7   2.5   1   1   1.4e-05     0.011   16.9   2.5     1    33    14    46    14   121 0.69 -
PC3A_TRINITY_DN40592_c1_g3_i3.p1PC3A_TRINITY_DN40592_c1_g3  -            355 106163at3193         -            287    0.0037   18.5   0.0   1   1   1.3e-05     0.011   17.0   0.0     1    31    52    82    52   110 0.91 -
PC3J_TRINITY_DN46444_c4_g1_i9.p1PC3J_TRINITY_DN46444_c4_g1  -            156 106163at3193         -            287    0.0042   18.4   0.0   1   1   5.3e-06    0.0045   18.3   0.0    44   129    12   102     6   139 0.76 -
PC2A_TRINITY_DN33300_c1_g1_i4.p1PC2A_TRINITY_DN33300_c1_g1  -            362 106163at3193         -            287    0.0054   18.0   0.0   1   1   1.2e-05      0.01   17.1   0.0     1    31    34    64    34    72 0.90 -
PC1A_TRINITY_DN41848_c1_g1_i7.p1PC1A_TRINITY_DN41848_c1_g1  -            148 106163at3193         -            287    0.0057   17.9   0.0   1   1   9.4e-06    0.0079   17.5   0.0     1    31    19    49    19    58 0.89 -
PC2A_TRINITY_DN34591_c0_g1_i18.p1PC2A_TRINITY_DN34591_c0_g1 -            285 106163at3193         -            287    0.0069   17.6   0.0   1   2    0.0018       1.5    9.9   0.0     1    34    48    81    48    88 0.92 -
PC2A_TRINITY_DN34591_c0_g1_i18.p1PC2A_TRINITY_DN34591_c0_g1 -            285 106163at3193         -            287    0.0069   17.6   0.0   2   2     0.033        28    5.8   0.0   134   198   214   277   168   285 0.75 -
PC3J_TRINITY_DN47278_c3_g1_i8.p1PC3J_TRINITY_DN47278_c3_g1  -            158 106163at3193         -            287    0.0084   17.4   0.0   1   1   2.2e-05     0.018   16.2   0.0     1    34     6    39     6    47 0.92 -
PC1J_TRINITY_DN33938_c0_g7_i3.p1PC1J_TRINITY_DN33938_c0_g7  -            310 106163at3193         -            287    0.0091   17.2   0.2   1   1   8.5e-05     0.071   14.3   0.2     1    48    80   128    80   204 0.85 -
PC3A_TRINITY_DN3988_c0_g1_i2.p1PC3A_TRINITY_DN3988_c0_g1    -            154 106163at3193         -            287     0.011   17.0   0.1   1   1   1.7e-05     0.015   16.6   0.1     1   113    30   143    30   149 0.74 -
PC3A_TRINITY_DN42782_c0_g1_i2.p1PC3A_TRINITY_DN42782_c0_g1  -            103 106163at3193         -            287     0.013   16.8   0.0   1   1   1.9e-05     0.016   16.5   0.0     1    27     7    33     7    45 0.88 -
PC1A_TRINITY_DN42821_c1_g1_i2.p1PC1A_TRINITY_DN42821_c1_g1  -            352 106163at3193         -            287     0.013   16.8   0.0   1   2   0.00016      0.13   13.4   0.0     1    34    35    68    35   127 0.80 -
PC1A_TRINITY_DN42821_c1_g1_i2.p1PC1A_TRINITY_DN42821_c1_g1  -            352 106163at3193         -            287     0.013   16.8   0.0   2   2      0.96   8.1e+02    1.0   0.0   137   203   207   272   199   284 0.77 -
PC1A_TRINITY_DN41465_c1_g3_i8.p1PC1A_TRINITY_DN41465_c1_g3  -            107 106163at3193         -            287     0.014   16.7   0.0   1   1     2e-05     0.017   16.4   0.0     1    33    42    74    42    84 0.91 -
PC3A_TRINITY_DN41055_c0_g2_i7.p1PC3A_TRINITY_DN41055_c0_g2  -            104 106163at3193         -            287     0.014   16.6   0.2   1   1   2.1e-05     0.018   16.3   0.2     1    32    25    56    25    68 0.89 -
PC3J_TRINITY_DN41408_c1_g1_i5.p1PC3J_TRINITY_DN41408_c1_g1  -            121 106163at3193         -            287     0.016   16.4   0.0   1   1   2.5e-05     0.021   16.0   0.0     1    27     7    33     7    45 0.88 -
PC1A_TRINITY_DN41848_c1_g1_i5.p1PC1A_TRINITY_DN41848_c1_g1  -            332 106163at3193         -            287     0.017   16.4   0.0   1   1   3.2e-05     0.027   15.7   0.0     1    30    19    48    19    57 0.89 -
PC2A_TRINITY_DN28532_c2_g1_i3.p1PC2A_TRINITY_DN28532_c2_g1  -            107 106163at3193         -            287     0.017   16.4   0.0   1   1   2.6e-05     0.022   16.0   0.0     1    26     7    32     7    45 0.89 -
PC1A_TRINITY_DN42079_c1_g2_i3.p1PC1A_TRINITY_DN42079_c1_g2  -            140 106163at3193         -            287     0.021   16.1   0.0   1   1   3.3e-05     0.027   15.7   0.0     1    27    45    71    45    83 0.88 -
PC3J_TRINITY_DN47278_c3_g3_i3.p1PC3J_TRINITY_DN47278_c3_g3  -            181 106163at3193         -            287     0.023   15.9   0.1   1   1   4.6e-05     0.038   15.2   0.1     1   116    29   143    29   158 0.77 -
PC2A_TRINITY_DN35247_c0_g4_i3.p1PC2A_TRINITY_DN35247_c0_g4  -            366 106163at3193         -            287     0.027   15.7   0.1   1   2   0.00047       0.4   11.9   0.1     1    32   100   131   100   143 0.90 -
PC2A_TRINITY_DN35247_c0_g4_i3.p1PC2A_TRINITY_DN35247_c0_g4  -            366 106163at3193         -            287     0.027   15.7   0.1   2   2       0.7   5.8e+02    1.5   0.0    81   217   211   238   154   269 0.61 -
PC1A_TRINITY_DN42420_c1_g1_i7.p1PC1A_TRINITY_DN42420_c1_g1  -            280 106163at3193         -            287     0.034   15.3   0.0   1   1   6.9e-05     0.058   14.6   0.0     1    30    16    45    16    53 0.88 -
PC2A_TRINITY_DN28532_c2_g1_i8.p1PC2A_TRINITY_DN28532_c2_g1  -            116 106163at3193         -            287     0.035   15.3   0.0   1   1   4.9e-05     0.041   15.1   0.0     1    27    29    55    29    71 0.87 -
PC2A_TRINITY_DN29434_c5_g2_i1.p1PC2A_TRINITY_DN29434_c5_g2  -            291 106163at3193         -            287     0.035   15.3   0.0   1   1   7.9e-05     0.066   14.4   0.0     1    31    11    41    11    52 0.89 -
PC2A_TRINITY_DN29866_c0_g1_i5.p1PC2A_TRINITY_DN29866_c0_g1  -            151 106163at3193         -            287     0.036   15.3   0.0   1   2   0.00016      0.14   13.4   0.0     1    32    13    44    13    56 0.87 -
PC2A_TRINITY_DN29866_c0_g1_i5.p1PC2A_TRINITY_DN29866_c0_g1  -            151 106163at3193         -            287     0.036   15.3   0.0   2   2       1.4   1.2e+03    0.5   0.0   191   220    51    80    39    90 0.77 -
PC3J_TRINITY_DN46444_c4_g1_i13.p1PC3J_TRINITY_DN46444_c4_g1 -            126 106163at3193         -            287      0.04   15.1   0.0   1   1   6.2e-05     0.052   14.8   0.0     1    32    41    72    41    89 0.92 -
PC1J_TRINITY_DN36442_c3_g3_i7.p1PC1J_TRINITY_DN36442_c3_g3  -            128 106163at3193         -            287     0.044   15.0   0.0   1   1   6.7e-05     0.056   14.6   0.0     1    32    82   113    82   123 0.90 -
PC1J_TRINITY_DN38762_c3_g1_i4.p1PC1J_TRINITY_DN38762_c3_g1  -            106 106163at3193         -            287     0.045   15.0   0.0   1   1   5.7e-05     0.048   14.9   0.0   153   219     7    72     4   100 0.84 -
PC3J_TRINITY_DN47446_c2_g4_i1.p1PC3J_TRINITY_DN47446_c2_g4  -            111 106163at3193         -            287     0.047   14.9   0.1   1   1   5.6e-05     0.047   14.9   0.1     1    33     9    41     9   109 0.76 -
PC3A_TRINITY_DN36369_c0_g1_i1.p1PC3A_TRINITY_DN36369_c0_g1  -            340 106163at3193         -            287     0.057   14.6   0.0   1   1   0.00012       0.1   13.8   0.0     1    32    13    44    13    52 0.89 -
PC1A_TRINITY_DN42079_c1_g2_i4.p1PC1A_TRINITY_DN42079_c1_g2  -            323 106163at3193         -            287     0.063   14.5   0.0   1   1   0.00011     0.096   13.9   0.0     1    26     7    32     7    44 0.88 -
PC3A_TRINITY_DN42782_c0_g1_i8.p1PC3A_TRINITY_DN42782_c0_g1  -            193 106163at3193         -            287     0.076   14.2   0.1   1   1   0.00013      0.11   13.7   0.1     1    27    12    38    12    49 0.88 -
PC2A_TRINITY_DN32898_c0_g1_i2.p1PC2A_TRINITY_DN32898_c0_g1  -            378 106163at3193         -            287     0.085   14.1   0.0   1   1   0.00015      0.13   13.5   0.0     1    32    79   110    79   120 0.91 -
PC2A_TRINITY_DN32898_c0_g1_i1.p1PC2A_TRINITY_DN32898_c0_g1  -            403 106163at3193         -            287     0.092   13.9   0.0   1   1   0.00017      0.14   13.3   0.0     1    32    79   110    79   120 0.91 -
PC2A_TRINITY_DN34568_c0_g1_i13.p1PC2A_TRINITY_DN34568_c0_g1 -            212 106163at3193         -            287     0.097   13.9   0.0   1   1   0.00016      0.13   13.4   0.0     1    32    43    74    43    88 0.93 -
PC3A_TRINITY_DN43901_c0_g2_i4.p1PC3A_TRINITY_DN43901_c0_g2  -            135 106163at3193         -            287      0.11   13.7   0.0   1   1   0.00016      0.14   13.4   0.0     1    32    18    49    18    59 0.90 -
PC2J_TRINITY_DN39695_c0_g1_i11.p1PC2J_TRINITY_DN39695_c0_g1 -            123 106163at3193         -            287      0.11   13.6   0.0   1   1   0.00019      0.16   13.1   0.0     1    34    18    51    18    58 0.88 -
PC1J_TRINITY_DN33884_c3_g1_i3.p1PC1J_TRINITY_DN33884_c3_g1  -            325 106163at3193         -            287      0.14   13.3   0.0   1   2   0.00053      0.45   11.7   0.0     1    32    13    44    13    55 0.87 -
PC1J_TRINITY_DN33884_c3_g1_i3.p1PC1J_TRINITY_DN33884_c3_g1  -            325 106163at3193         -            287      0.14   13.3   0.0   2   2       5.7   4.8e+03   -1.5   0.0   191   219    51    79    39    87 0.78 -
PC3J_TRINITY_DN47687_c1_g1_i9.p1PC3J_TRINITY_DN47687_c1_g1  -            145 106163at3193         -            287      0.15   13.2   0.0   1   1   0.00025      0.21   12.8   0.0     1    45     6    50     6    64 0.91 -
PC3J_TRINITY_DN38712_c0_g2_i3.p1PC3J_TRINITY_DN38712_c0_g2  -            172 106163at3193         -            287      0.17   13.1   0.0   1   1   0.00035      0.29   12.3   0.0     1    34    18    51    18    58 0.88 -
PC2J_TRINITY_DN37908_c0_g2_i6.p1PC2J_TRINITY_DN37908_c0_g2  -            232 106163at3193         -            287      0.18   13.0   0.1   1   1   0.00054      0.45   11.7   0.0     3    27    73    97    71   106 0.89 -
PC1A_TRINITY_DN42581_c4_g1_i1.p1PC1A_TRINITY_DN42581_c4_g1  -            103 106163at3193         -            287      0.21   12.8   0.0   1   1   0.00027      0.23   12.7   0.0     1    38     3    40     3    69 0.83 -
PC2J_TRINITY_DN39695_c0_g1_i2.p1PC2J_TRINITY_DN39695_c0_g1  -            201 106163at3193         -            287      0.21   12.8   0.0   1   1   0.00045      0.38   11.9   0.0     1    34    18    51    18    58 0.88 -
PC3A_TRINITY_DN35819_c0_g6_i3.p1PC3A_TRINITY_DN35819_c0_g6  -            166 106163at3193         -            287      0.21   12.7   0.0   1   1    0.0004      0.34   12.1   0.0     1    34    27    60    27    68 0.92 -
PC2A_TRINITY_DN29526_c0_g1_i14.p1PC2A_TRINITY_DN29526_c0_g1 -            235 106163at3193         -            287      0.24   12.6   0.0   1   1   0.00055      0.46   11.6   0.0     3    27    73    97    71   106 0.89 -
PC1A_TRINITY_DN41066_c1_g1_i5.p1PC1A_TRINITY_DN41066_c1_g1  -            275 106163at3193         -            287      0.27   12.4   0.3   1   2    0.0011      0.92   10.7   0.1     3    26    70    93    68    99 0.92 -
PC1A_TRINITY_DN41066_c1_g1_i5.p1PC1A_TRINITY_DN41066_c1_g1  -            275 106163at3193         -            287      0.27   12.4   0.3   2   2       4.2   3.5e+03   -1.1   0.0    32    88   125   183   121   222 0.48 -
PC1A_TRINITY_DN41066_c1_g1_i3.p1PC1A_TRINITY_DN41066_c1_g1  -            198 106163at3193         -            287       0.3   12.3   0.3   1   1    0.0007      0.59   11.3   0.1     3    26    70    93    68    99 0.92 -
PC1J_TRINITY_DN40615_c1_g2_i3.p1PC1J_TRINITY_DN40615_c1_g2  -            111 106163at3193         -            287      0.32   12.2   0.0   1   1   0.00052      0.43   11.7   0.0     1    32    15    46    15    75 0.91 -
PC3A_TRINITY_DN42611_c4_g5_i3.p1PC3A_TRINITY_DN42611_c4_g5  -            157 106163at3193         -            287      0.34   12.1   0.2   1   1   0.00052      0.44   11.7   0.2     1    30    97   126    97   150 0.87 -
PC2A_TRINITY_DN33619_c3_g1_i2.p1PC2A_TRINITY_DN33619_c3_g1  -            140 106163at3193         -            287      0.35   12.0   0.1   1   1    0.0005      0.42   11.8   0.1     2    39    68   105    67   135 0.82 -
PC1J_TRINITY_DN34577_c0_g1_i9.p1PC1J_TRINITY_DN34577_c0_g1  -            317 106163at3193         -            287      0.36   12.0   0.0   1   1   0.00089      0.74   11.0   0.0     1    34    18    51    18    57 0.88 -
PC1J_TRINITY_DN40867_c1_g1_i10.p1PC1J_TRINITY_DN40867_c1_g1 -            237 106163at3193         -            287       0.4   11.9   0.1   1   1   0.00066      0.55   11.4   0.1     1    45   129   173   129   185 0.91 -
PC1J_TRINITY_DN40615_c1_g7_i1.p1PC1J_TRINITY_DN40615_c1_g7  -            135 106163at3193         -            287      0.51   11.5   0.3   1   2      0.13   1.1e+02    3.9   0.0     1    17    81    97    81   104 0.85 -
PC1J_TRINITY_DN40615_c1_g7_i1.p1PC1J_TRINITY_DN40615_c1_g7  -            135 106163at3193         -            287      0.51   11.5   0.3   2   2      0.03        25    6.0   0.0     1    23   107   129   107   134 0.86 -
PC1J_TRINITY_DN39385_c3_g1_i3.p1PC1J_TRINITY_DN39385_c3_g1  -            134 106163at3193         -            287      0.67   11.1   0.1   1   1     0.001      0.88   10.7   0.1     1    29    73   101    73   114 0.86 -
#
# Program:         hmmsearch
# Version:         3.2.1 (June 2018)
# Pipeline mode:   SEARCH
# Query file:      /isg/shared/databases/BUSCO/odb10/embryophyta_odb10/hmms/106163at3193.hmm
# Target file:     Pine_final_annotations_no_contam_lvl0.faa
# Option settings: /usr/local/bin/hmmsearch --domtblout /labs/Wegrzyn/Juniper_Pine/BUSCO/NEW/busco_pine/run_embryophyta_odb10/hmmer_output/106163at3193.out --cpu 1 /isg/shared/databases/BUSCO/odb10/embryophyta_odb10/hmms/106163at3193.hmm Pine_final_annotations_no_contam_lvl0.faa 
# Current dir:     /labs/Wegrzyn/Juniper_Pine/BUSCO/NEW
# Date:            Thu Aug  6 14:38:12 2020
# [ok]
