#                                                                                                                    --- full sequence --- -------------- this domain -------------   hmm coord   ali coord   env coord
# target name                                                accession   tlen query name           accession   qlen   E-value  score  bias   #  of  c-Evalue  i-Evalue  score  bias  from    to  from    to  from    to  acc description of target
#                                        ------------------- ---------- ----- -------------------- ---------- ----- --------- ------ ----- --- --- --------- --------- ------ ----- ----- ----- ----- ----- ----- ----- ---- ---------------------
PC1J_TRINITY_DN30097_c0_g1_i1.p1PC1J_TRINITY_DN30097_c0_g1   -            252 109434at3193         -            325   1.9e-26   94.6   0.4   1   2   4.5e-18   3.2e-14   54.3   0.1   124   225    46   152    10   156 0.88 -
PC1J_TRINITY_DN30097_c0_g1_i1.p1PC1J_TRINITY_DN30097_c0_g1   -            252 109434at3193         -            325   1.9e-26   94.6   0.4   2   2   2.6e-13   1.8e-09   38.7   0.0   224   287   186   252   181   252 0.95 -
PC3J_TRINITY_DN42127_c1_g1_i3.p1PC3J_TRINITY_DN42127_c1_g1   -            170 109434at3193         -            325   2.5e-08   35.0   0.1   1   1     4e-12   2.8e-08   34.8   0.1   159   237    52   136    36   168 0.80 -
PC2A_TRINITY_DN30655_c1_g1_i1.p1PC2A_TRINITY_DN30655_c1_g1   -            195 109434at3193         -            325   4.7e-08   34.1   0.5   1   1   8.6e-12   6.1e-08   33.7   0.5   160   253    77   172    62   194 0.78 -
PC1J_TRINITY_DN34177_c4_g2_i4.p1PC1J_TRINITY_DN34177_c4_g2   -            291 109434at3193         -            325   1.2e-07   32.8   0.1   1   1   2.1e-11   1.5e-07   32.5   0.1   160   251    88   181    74   222 0.82 -
PC2J_TRINITY_DN7425_c0_g1_i1.p1PC2J_TRINITY_DN7425_c0_g1     -            164 109434at3193         -            325     5e-06   27.4   0.0   1   1   7.5e-10   5.3e-06   27.3   0.0   160   251    21   114     6   158 0.75 -
PC1A_TRINITY_DN46094_c0_g1_i1.p1PC1A_TRINITY_DN46094_c0_g1   -            116 109434at3193         -            325   3.2e-05   24.8   0.0   1   1   5.3e-09   3.8e-05   24.5   0.0    30    66    66   104    49   108 0.85 -
PC1J_TRINITY_DN33121_c0_g1_i4.p1PC1J_TRINITY_DN33121_c0_g1   -            200 109434at3193         -            325    0.0062   17.3   0.0   1   1   1.1e-06    0.0075   17.0   0.0   162   297    44   186    25   197 0.70 -
PC2J_TRINITY_DN43324_c3_g3_i2.p1PC2J_TRINITY_DN43324_c3_g3   -            119 109434at3193         -            325     0.073   13.7   0.2   1   1   1.4e-05     0.097   13.3   0.2    80   109     3    42     2    67 0.84 -
PC2A_TRINITY_DN35983_c4_g11_i1.p1PC2A_TRINITY_DN35983_c4_g11 -            157 109434at3193         -            325       1.6    9.4   6.2   1   2    0.0021        15    6.2   0.7   104   131    19    46    11    54 0.81 -
PC2A_TRINITY_DN35983_c4_g11_i1.p1PC2A_TRINITY_DN35983_c4_g11 -            157 109434at3193         -            325       1.6    9.4   6.2   2   2    0.0019        14    6.3   0.6   102   131   114   143   104   149 0.82 -
#
# Program:         hmmsearch
# Version:         3.2.1 (June 2018)
# Pipeline mode:   SEARCH
# Query file:      /isg/shared/databases/BUSCO/odb10/embryophyta_odb10/hmms/109434at3193.hmm
# Target file:     Pine_final_annotations_no_contam_lvl0.faa
# Option settings: /usr/local/bin/hmmsearch --domtblout /labs/Wegrzyn/Juniper_Pine/BUSCO/NEW/busco_pine/run_embryophyta_odb10/hmmer_output/109434at3193.out --cpu 1 /isg/shared/databases/BUSCO/odb10/embryophyta_odb10/hmms/109434at3193.hmm Pine_final_annotations_no_contam_lvl0.faa 
# Current dir:     /labs/Wegrzyn/Juniper_Pine/BUSCO/NEW
# Date:            Thu Aug  6 14:38:32 2020
# [ok]
