#                                                                                                                  --- full sequence --- -------------- this domain -------------   hmm coord   ali coord   env coord
# target name                                              accession   tlen query name           accession   qlen   E-value  score  bias   #  of  c-Evalue  i-Evalue  score  bias  from    to  from    to  from    to  acc description of target
#                                      ------------------- ---------- ----- -------------------- ---------- ----- --------- ------ ----- --- --- --------- --------- ------ ----- ----- ----- ----- ----- ----- ----- ---- ---------------------
PC3A_TRINITY_DN13849_c0_g1_i1.p1PC3A_TRINITY_DN13849_c0_g1 -            205 109987at3193         -            304   2.8e-48  166.5   6.2   1   1   1.5e-49   1.9e-45  157.2   6.2   160   294     1   164     1   172 0.83 -
PC2J_TRINITY_DN41799_c1_g4_i1.p1PC2J_TRINITY_DN41799_c1_g4 -            140 109987at3193         -            304   1.9e-09   38.9   0.1   1   1   2.1e-13   2.7e-09   38.5   0.1     5   100     4   105     1   111 0.74 -
PC1J_TRINITY_DN15525_c0_g1_i1.p1PC1J_TRINITY_DN15525_c0_g1 -            127 109987at3193         -            304   5.2e-06   27.7   0.0   1   1   4.7e-10   5.9e-06   27.5   0.0   199   280     4    88     2   116 0.79 -
PC2A_TRINITY_DN32217_c1_g3_i1.p1PC2A_TRINITY_DN32217_c1_g3 -            113 109987at3193         -            304      0.23   12.4   0.2   1   1     2e-05      0.25   12.3   0.2    41    91    12    63     4    80 0.87 -
PC1A_TRINITY_DN44002_c5_g4_i3.p1PC1A_TRINITY_DN44002_c5_g4 -            130 109987at3193         -            304      0.35   11.8   0.2   1   1   3.1e-05       0.4   11.6   0.2    40   114    35   110    15   115 0.83 -
#
# Program:         hmmsearch
# Version:         3.2.1 (June 2018)
# Pipeline mode:   SEARCH
# Query file:      /isg/shared/databases/BUSCO/odb10/embryophyta_odb10/hmms/109987at3193.hmm
# Target file:     Pine_final_annotations_no_contam_lvl0.faa
# Option settings: /usr/local/bin/hmmsearch --domtblout /labs/Wegrzyn/Juniper_Pine/BUSCO/NEW/busco_pine/run_embryophyta_odb10/hmmer_output/109987at3193.out --cpu 1 /isg/shared/databases/BUSCO/odb10/embryophyta_odb10/hmms/109987at3193.hmm Pine_final_annotations_no_contam_lvl0.faa 
# Current dir:     /labs/Wegrzyn/Juniper_Pine/BUSCO/NEW
# Date:            Thu Aug  6 14:38:35 2020
# [ok]
