#                                                                                                                   --- full sequence --- -------------- this domain -------------   hmm coord   ali coord   env coord
# target name                                               accession   tlen query name           accession   qlen   E-value  score  bias   #  of  c-Evalue  i-Evalue  score  bias  from    to  from    to  from    to  acc description of target
#                                       ------------------- ---------- ----- -------------------- ---------- ----- --------- ------ ----- --- --- --------- --------- ------ ----- ----- ----- ----- ----- ----- ----- ---- ---------------------
PC1J_TRINITY_DN32102_c1_g1_i1.p1PC1J_TRINITY_DN32102_c1_g1  -            203 112507at3193         -            349   2.6e-57  196.3   1.1   1   1     6e-58   3.9e-55  189.1   1.1   206   337    39   190    29   199 0.86 -
PC1J_TRINITY_DN32102_c0_g1_i1.p1PC1J_TRINITY_DN32102_c0_g1  -            168 112507at3193         -            349   1.4e-28  101.8   0.1   1   2   5.5e-22   3.6e-19   70.8   0.0   113   165     1    54     1    63 0.90 -
PC1J_TRINITY_DN32102_c0_g1_i1.p1PC1J_TRINITY_DN32102_c0_g1  -            168 112507at3193         -            349   1.4e-28  101.8   0.1   2   2   2.6e-09   1.7e-06   29.2   0.0   168   204   124   168   109   168 0.80 -
PC2A_TRINITY_DN9697_c0_g1_i1.p1PC2A_TRINITY_DN9697_c0_g1    -            122 112507at3193         -            349   9.1e-27   95.8   0.1   1   1   1.8e-29   1.2e-26   95.4   0.1     1    78     4    88     4    91 0.85 -
PC2J_TRINITY_DN36352_c3_g2_i2.p2PC2J_TRINITY_DN36352_c3_g2  -            101 112507at3193         -            349   2.1e-26   94.6   0.8   1   1   3.9e-29   2.5e-26   94.3   0.8   258   310     3    55     1    60 0.96 -
PC2J_TRINITY_DN37565_c2_g2_i8.p1PC2J_TRINITY_DN37565_c2_g2  -            449 112507at3193         -            349   7.1e-14   53.4   0.1   1   1   1.6e-16     1e-13   52.9   0.1     3    61    93   154    91   160 0.93 -
PC1A_TRINITY_DN43478_c0_g1_i1.p1PC1A_TRINITY_DN43478_c0_g1  -            218 112507at3193         -            349   1.4e-13   52.4   0.1   1   1   2.9e-16   1.9e-13   52.0   0.1     2    62    76   143    75   162 0.86 -
PC1J_TRINITY_DN38443_c0_g4_i1.p1PC1J_TRINITY_DN38443_c0_g4  -            119 112507at3193         -            349     2e-13   51.9   0.0   1   1   3.8e-16   2.5e-13   51.6   0.0     1    63    16    85    16    95 0.87 -
PC2A_TRINITY_DN26116_c0_g1_i1.p1PC2A_TRINITY_DN26116_c0_g1  -            278 112507at3193         -            349     2e-13   51.9   0.1   1   1   4.5e-16     3e-13   51.4   0.1     3    61    35    96    33   102 0.92 -
PC1J_TRINITY_DN40830_c2_g2_i3.p1PC1J_TRINITY_DN40830_c2_g2  -            218 112507at3193         -            349   3.5e-13   51.1   0.0   1   1   7.4e-16   4.8e-13   50.7   0.0     3    63    87   153    85   160 0.88 -
PC2J_TRINITY_DN43849_c2_g1_i19.p2PC2J_TRINITY_DN43849_c2_g1 -            105 112507at3193         -            349   4.2e-13   50.9   0.0   1   1   7.3e-16   4.8e-13   50.7   0.0     3    61    16    74    14    87 0.96 -
PC3J_TRINITY_DN44029_c0_g1_i2.p1PC3J_TRINITY_DN44029_c0_g1  -            163 112507at3193         -            349   4.5e-13   50.7   0.0   1   1   9.4e-16   6.1e-13   50.3   0.0     1    65    56   126    56   130 0.90 -
PC3J_TRINITY_DN38384_c0_g1_i2.p1PC3J_TRINITY_DN38384_c0_g1  -            141 112507at3193         -            349   5.1e-13   50.6   0.0   1   1     9e-16   5.9e-13   50.4   0.0     1    66    32   104    32   125 0.85 -
PC2A_TRINITY_DN32230_c0_g3_i3.p1PC2A_TRINITY_DN32230_c0_g3  -            119 112507at3193         -            349   6.5e-13   50.2   0.0   1   1   1.2e-15     8e-13   49.9   0.0     3    61    16    74    14    80 0.97 -
PC3A_TRINITY_DN39579_c0_g2_i4.p1PC3A_TRINITY_DN39579_c0_g2  -            219 112507at3193         -            349   6.7e-13   50.2   0.5   1   1   1.4e-15   8.9e-13   49.8   0.5     3    61    95   157    93   165 0.90 -
PC1J_TRINITY_DN34157_c2_g3_i1.p1PC1J_TRINITY_DN34157_c2_g3  -            130 112507at3193         -            349   8.1e-13   49.9   0.0   1   1   1.5e-15     1e-12   49.6   0.0     3    61    16    74    14    80 0.97 -
PC3A_TRINITY_DN37193_c1_g1_i4.p1PC3A_TRINITY_DN37193_c1_g1  -            180 112507at3193         -            349   9.7e-13   49.7   0.0   1   1   1.9e-15   1.3e-12   49.3   0.0     1    66    71   143    71   154 0.85 -
PC2J_TRINITY_DN41254_c0_g5_i1.p1PC2J_TRINITY_DN41254_c0_g5  -            152 112507at3193         -            349   1.1e-12   49.4   0.0   1   1   2.2e-15   1.4e-12   49.1   0.0     1    69    49   124    49   132 0.86 -
PC2J_TRINITY_DN41254_c0_g2_i5.p1PC2J_TRINITY_DN41254_c0_g2  -            141 112507at3193         -            349   1.3e-12   49.2   0.0   1   1   2.5e-15   1.6e-12   48.9   0.0     1    63    34   103    34   116 0.86 -
PC3A_TRINITY_DN27032_c0_g1_i2.p1PC3A_TRINITY_DN27032_c0_g1  -            168 112507at3193         -            349   1.4e-12   49.2   0.0   1   1   2.8e-15   1.8e-12   48.7   0.0     1    63    62   131    62   140 0.87 -
PC2A_TRINITY_DN29686_c3_g2_i8.p2PC2A_TRINITY_DN29686_c3_g2  -            119 112507at3193         -            349   1.5e-12   49.1   0.1   1   1   3.1e-15     2e-12   48.6   0.1     3    61     6    69     4    75 0.87 -
PC3J_TRINITY_DN44029_c0_g1_i4.p1PC3J_TRINITY_DN44029_c0_g1  -            109 112507at3193         -            349   1.9e-12   48.7   0.1   1   1   3.7e-15   2.4e-12   48.3   0.1     1    60    32    97    32   102 0.89 -
PC3J_TRINITY_DN44029_c0_g5_i1.p1PC3J_TRINITY_DN44029_c0_g5  -            134 112507at3193         -            349   2.2e-12   48.5   0.1   1   1   4.6e-15     3e-12   48.1   0.1     1    63    52   121    52   125 0.88 -
PC3J_TRINITY_DN44029_c0_g1_i3.p1PC3J_TRINITY_DN44029_c0_g1  -            130 112507at3193         -            349   2.6e-12   48.2   0.0   1   1   5.1e-15   3.3e-12   47.9   0.0     1    65    22    93    22    97 0.87 -
PC2J_TRINITY_DN43849_c2_g1_i14.p1PC2J_TRINITY_DN43849_c2_g1 -            259 112507at3193         -            349   2.8e-12   48.2   0.0   1   1   6.3e-15   4.1e-12   47.6   0.0     3    61    16    74    14    80 0.97 -
PC2A_TRINITY_DN35220_c0_g5_i2.p1PC2A_TRINITY_DN35220_c0_g5  -            104 112507at3193         -            349   3.7e-12   47.8   0.1   1   1   6.8e-15   4.4e-12   47.5   0.1     3    61    15    73    13    80 0.97 -
PC1A_TRINITY_DN39176_c0_g1_i1.p1PC1A_TRINITY_DN39176_c0_g1  -            197 112507at3193         -            349   5.2e-12   47.3   0.0   1   1   1.1e-14   6.9e-12   46.9   0.0     1    63    89   158    89   170 0.86 -
PC1J_TRINITY_DN40322_c1_g5_i2.p1PC1J_TRINITY_DN40322_c1_g5  -            230 112507at3193         -            349   7.4e-12   46.8   0.0   1   1   1.5e-14     1e-11   46.3   0.0     3    65   126   194   124   204 0.86 -
PC3J_TRINITY_DN44029_c0_g1_i5.p1PC3J_TRINITY_DN44029_c0_g1  -            128 112507at3193         -            349   8.9e-12   46.5   0.0   1   1   1.5e-14     1e-11   46.3   0.0     1    67    22    95    22   113 0.84 -
PC3J_TRINITY_DN10384_c0_g1_i1.p1PC3J_TRINITY_DN10384_c0_g1  -            276 112507at3193         -            349   1.1e-11   46.2   0.2   1   1   2.3e-14   1.5e-11   45.7   0.2     3    63    11    74     9    80 0.88 -
PC1A_TRINITY_DN43991_c1_g4_i3.p1PC1A_TRINITY_DN43991_c1_g4  -            113 112507at3193         -            349   1.2e-11   46.0   0.1   1   1   2.3e-14   1.5e-11   45.8   0.1     3    61     6    69     4    74 0.87 -
PC3A_TRINITY_DN39579_c0_g2_i2.p1PC3A_TRINITY_DN39579_c0_g2  -            179 112507at3193         -            349   1.4e-11   45.9   0.1   1   1   2.7e-14   1.8e-11   45.5   0.1     3    61    55   117    53   125 0.90 -
PC1J_TRINITY_DN41214_c1_g2_i2.p1PC1J_TRINITY_DN41214_c1_g2  -            276 112507at3193         -            349   1.5e-11   45.7   0.2   1   1   3.6e-14   2.3e-11   45.1   0.2     2    61    77   139    76   158 0.84 -
PC2A_TRINITY_DN29750_c0_g1_i1.p1PC2A_TRINITY_DN29750_c0_g1  -            142 112507at3193         -            349   1.9e-11   45.4   0.0   1   1   3.6e-14   2.3e-11   45.1   0.0     1    61    46   110    46   120 0.90 -
PC1J_TRINITY_DN34954_c4_g1_i4.p1PC1J_TRINITY_DN34954_c4_g1  -            149 112507at3193         -            349   2.3e-11   45.1   0.0   1   1   4.6e-14     3e-11   44.8   0.0     3    61     9    72     7    77 0.87 -
PC2J_TRINITY_DN36003_c1_g1_i2.p1PC2J_TRINITY_DN36003_c1_g1  -            203 112507at3193         -            349   3.2e-11   44.7   0.0   1   1   6.6e-14   4.3e-11   44.3   0.0     3    60    99   160    97   163 0.91 -
PC3A_TRINITY_DN35906_c2_g2_i8.p1PC3A_TRINITY_DN35906_c2_g2  -            154 112507at3193         -            349   7.6e-11   43.4   0.1   1   1   1.6e-13     1e-10   43.0   0.1     3    61     8    70     6    85 0.86 -
PC3J_TRINITY_DN43534_c0_g2_i6.p1PC3J_TRINITY_DN43534_c0_g2  -            193 112507at3193         -            349   1.3e-10   42.7   0.0   1   2   7.9e-06    0.0051   17.7   0.0     3    35    48    80    46    86 0.92 -
PC3J_TRINITY_DN43534_c0_g2_i6.p1PC3J_TRINITY_DN43534_c0_g2  -            193 112507at3193         -            349   1.3e-10   42.7   0.0   2   2   1.7e-07   0.00011   23.2   0.0     3    57    95   152    93   178 0.77 -
PC3A_TRINITY_DN41840_c0_g3_i1.p1PC3A_TRINITY_DN41840_c0_g3  -            130 112507at3193         -            349   1.3e-10   42.6   0.2   1   1   2.4e-13   1.6e-10   42.4   0.2     2    68    21    90    20   105 0.88 -
PC1A_TRINITY_DN42390_c3_g1_i1.p1PC1A_TRINITY_DN42390_c3_g1  -            105 112507at3193         -            349   1.8e-10   42.2   0.1   1   1   3.2e-13   2.1e-10   42.0   0.1     1    60    28    91    28   100 0.88 -
PC2A_TRINITY_DN30467_c4_g1_i1.p1PC2A_TRINITY_DN30467_c4_g1  -            215 112507at3193         -            349   2.3e-10   41.8   0.0   1   1   5.7e-13   3.7e-10   41.2   0.0     3    61    91   151    89   164 0.93 -
PC2J_TRINITY_DN45607_c2_g1_i11.p1PC2J_TRINITY_DN45607_c2_g1 -            422 112507at3193         -            349   3.1e-10   41.4   0.1   1   1   7.2e-13   4.7e-10   40.8   0.1     3    61    15    73    13    79 0.97 -
PC1A_TRINITY_DN43903_c1_g3_i2.p1PC1A_TRINITY_DN43903_c1_g3  -            168 112507at3193         -            349   5.7e-10   40.6   0.0   1   1   1.1e-12   7.4e-10   40.2   0.0     3    67    79   149    77   153 0.88 -
PC2A_TRINITY_DN33928_c2_g1_i1.p1PC2A_TRINITY_DN33928_c2_g1  -            145 112507at3193         -            349   6.4e-10   40.4   0.1   1   1   1.2e-12   7.9e-10   40.1   0.1     3    60    45   108    43   118 0.87 -
PC2A_TRINITY_DN29294_c2_g1_i1.p1PC2A_TRINITY_DN29294_c2_g1  -            205 112507at3193         -            349   8.4e-10   40.0   0.0   1   1   1.8e-12   1.1e-09   39.6   0.0     3    67   111   181   109   185 0.88 -
PC1J_TRINITY_DN41207_c2_g1_i22.p1PC1J_TRINITY_DN41207_c2_g1 -            101 112507at3193         -            349     1e-09   39.7   0.1   1   1   1.8e-12   1.2e-09   39.5   0.1    17    60     1    48     1    64 0.88 -
PC3A_TRINITY_DN35780_c0_g1_i4.p1PC3A_TRINITY_DN35780_c0_g1  -            201 112507at3193         -            349     4e-09   37.8   0.2   1   1     3e-11   1.9e-08   35.5   0.2     3    61    10    83     8    89 0.77 -
PC2A_TRINITY_DN32966_c2_g3_i4.p1PC2A_TRINITY_DN32966_c2_g3  -            171 112507at3193         -            349   1.2e-08   36.2   0.3   1   2   5.7e-11   3.7e-08   34.6   0.1     3    62    15    84    13   103 0.84 -
PC2A_TRINITY_DN32966_c2_g3_i4.p1PC2A_TRINITY_DN32966_c2_g3  -            171 112507at3193         -            349   1.2e-08   36.2   0.3   2   2         3   1.9e+03   -0.7   0.0    46    62   104   120    88   138 0.79 -
PC1A_TRINITY_DN40593_c5_g2_i1.p1PC1A_TRINITY_DN40593_c5_g2  -            399 112507at3193         -            349   1.2e-08   36.2   0.0   1   1   3.2e-11   2.1e-08   35.4   0.0     3    61     8    70     6    86 0.85 -
PC1A_TRINITY_DN38985_c0_g1_i4.p1PC1A_TRINITY_DN38985_c0_g1  -            132 112507at3193         -            349   1.5e-08   35.9   0.1   1   1   3.2e-11   2.1e-08   35.4   0.1     3    62    12    81    10    93 0.83 -
PC3J_TRINITY_DN42151_c2_g1_i5.p1PC3J_TRINITY_DN42151_c2_g1  -            145 112507at3193         -            349   1.7e-08   35.7   0.1   1   1   3.1e-11     2e-08   35.5   0.1     3    62    12    81    10   127 0.84 -
PC2A_TRINITY_DN32966_c2_g3_i3.p1PC2A_TRINITY_DN32966_c2_g3  -            175 112507at3193         -            349   2.9e-08   34.9   0.1   1   1     7e-11   4.5e-08   34.3   0.1     3    62    15    84    13    90 0.83 -
PC3A_TRINITY_DN37193_c1_g1_i2.p1PC3A_TRINITY_DN37193_c1_g1  -            107 112507at3193         -            349   1.1e-07   33.1   0.0   1   1   1.9e-10   1.2e-07   32.9   0.0     1    65    35   103    35   107 0.76 -
PC2J_TRINITY_DN42299_c0_g1_i2.p1PC2J_TRINITY_DN42299_c0_g1  -            236 112507at3193         -            349   1.6e-07   32.5   0.0   1   1   3.8e-10   2.5e-07   31.9   0.0     3    60   110   170   108   190 0.87 -
PC2J_TRINITY_DN38653_c1_g1_i16.p1PC2J_TRINITY_DN38653_c1_g1 -            134 112507at3193         -            349   2.4e-07   31.9   0.0   1   1   5.2e-10   3.4e-07   31.4   0.0     3    61    48   110    46   129 0.89 -
PC1A_TRINITY_DN41546_c0_g1_i14.p1PC1A_TRINITY_DN41546_c0_g1 -            458 112507at3193         -            349   4.3e-07   31.1   0.0   1   1     1e-09   6.5e-07   30.5   0.0     3    60    53   112    51   125 0.92 -
PC2J_TRINITY_DN44251_c1_g2_i2.p1PC2J_TRINITY_DN44251_c1_g2  -            117 112507at3193         -            349   1.9e-06   29.0   0.0   1   1   3.1e-09     2e-06   28.9   0.0     3    62    27    89    25   115 0.75 -
PC1J_TRINITY_DN39032_c3_g1_i11.p1PC1J_TRINITY_DN39032_c3_g1 -            368 112507at3193         -            349   3.1e-06   28.3   0.0   1   1   7.2e-09   4.7e-06   27.7   0.0     3    61    91   153    89   164 0.84 -
PC2J_TRINITY_DN37875_c0_g2_i3.p1PC2J_TRINITY_DN37875_c0_g2  -            365 112507at3193         -            349   3.1e-06   28.3   0.0   1   1   7.2e-09   4.7e-06   27.7   0.0     3    61   104   166   102   177 0.84 -
PC2A_TRINITY_DN34988_c1_g1_i14.p1PC2A_TRINITY_DN34988_c1_g1 -            190 112507at3193         -            349   1.1e-05   26.5   0.0   1   1   2.4e-08   1.5e-05   26.0   0.0     3    90    91   179    89   185 0.83 -
PC1J_TRINITY_DN38770_c5_g3_i1.p1PC1J_TRINITY_DN38770_c5_g3  -            156 112507at3193         -            349   1.5e-05   26.1   0.0   1   1   2.8e-08   1.9e-05   25.7   0.0     3    61    68   129    66   141 0.88 -
PC2A_TRINITY_DN34988_c1_g1_i1.p2PC2A_TRINITY_DN34988_c1_g1  -            145 112507at3193         -            349   4.7e-05   24.4   0.0   1   1   8.6e-08   5.6e-05   24.1   0.0     3    57    47   104    45   130 0.77 -
PC2A_TRINITY_DN35358_c1_g1_i1.p1PC2A_TRINITY_DN35358_c1_g1  -            114 112507at3193         -            349   4.8e-05   24.4   0.0   1   1   9.5e-08   6.2e-05   24.0   0.0     1    35    64    98    64   102 0.93 -
PC2J_TRINITY_DN41254_c0_g2_i2.p1PC2J_TRINITY_DN41254_c0_g2  -            130 112507at3193         -            349   5.1e-05   24.3   0.0   1   1     1e-07   6.6e-05   23.9   0.0     1    35    73   107    73   112 0.92 -
PC3A_TRINITY_DN42486_c1_g3_i1.p1PC3A_TRINITY_DN42486_c1_g3  -            131 112507at3193         -            349   6.5e-05   23.9   0.0   1   1   1.2e-07     8e-05   23.6   0.0     3    56    55   111    53   122 0.81 -
PC1A_TRINITY_DN43817_c4_g1_i12.p1PC1A_TRINITY_DN43817_c4_g1 -            180 112507at3193         -            349   7.6e-05   23.7   0.0   1   1   1.4e-07   9.3e-05   23.4   0.0     3    57    82   139    80   165 0.77 -
PC1A_TRINITY_DN44067_c3_g1_i3.p1PC1A_TRINITY_DN44067_c3_g1  -            350 112507at3193         -            349   7.8e-05   23.7   0.0   1   1   1.7e-07   0.00011   23.1   0.0     3    61    45   107    43   113 0.85 -
PC2A_TRINITY_DN35358_c1_g2_i7.p1PC2A_TRINITY_DN35358_c1_g2  -            141 112507at3193         -            349   8.3e-05   23.6   0.0   1   1   1.8e-07   0.00011   23.1   0.0     1    35    75   109    75   138 0.89 -
PC2J_TRINITY_DN37432_c2_g3_i2.p1PC2J_TRINITY_DN37432_c2_g3  -            101 112507at3193         -            349     9e-05   23.5   0.0   1   1   1.6e-07   0.00011   23.2   0.0     3    35    22    54    20    67 0.89 -
PC3A_TRINITY_DN17678_c0_g1_i1.p1PC3A_TRINITY_DN17678_c0_g1  -            135 112507at3193         -            349   0.00012   23.0   0.0   1   1   2.6e-07   0.00017   22.6   0.0     3    62    68   131    66   133 0.81 -
PC1A_TRINITY_DN41546_c0_g1_i15.p1PC1A_TRINITY_DN41546_c0_g1 -            113 112507at3193         -            349   0.00016   22.6   0.0   1   1   3.3e-07   0.00021   22.2   0.0     3    35    53    85    51    92 0.92 -
PC1A_TRINITY_DN41546_c0_g1_i9.p2PC1A_TRINITY_DN41546_c0_g1  -            110 112507at3193         -            349   0.00017   22.5   0.0   1   1   3.4e-07   0.00022   22.2   0.0     3    34    53    84    51    91 0.93 -
PC2A_TRINITY_DN29884_c0_g1_i1.p2PC2A_TRINITY_DN29884_c0_g1  -            131 112507at3193         -            349   0.00017   22.5   0.0   1   1   2.9e-07   0.00019   22.4   0.0     3    57    46   104    44   128 0.82 -
PC2J_TRINITY_DN35159_c0_g1_i2.p1PC2J_TRINITY_DN35159_c0_g1  -            187 112507at3193         -            349   0.00019   22.4   0.1   1   1   4.1e-07   0.00027   21.9   0.1    12    60    15    65    10    80 0.88 -
PC2J_TRINITY_DN42253_c2_g2_i4.p1PC2J_TRINITY_DN42253_c2_g2  -            162 112507at3193         -            349   0.00029   21.8   0.0   1   1     6e-07   0.00039   21.4   0.0    33    63    77   107    65   115 0.80 -
PC1A_TRINITY_DN39490_c1_g2_i2.p1PC1A_TRINITY_DN39490_c1_g2  -            149 112507at3193         -            349   0.00037   21.5   0.0   1   1   6.7e-07   0.00044   21.2   0.0     3    59    48   107    46   119 0.84 -
PC3J_TRINITY_DN44029_c0_g2_i1.p1PC3J_TRINITY_DN44029_c0_g2  -            121 112507at3193         -            349   0.00039   21.4   0.0   1   1   7.3e-07   0.00047   21.1   0.0     1    32    73   104    73   118 0.84 -
PC2J_TRINITY_DN44251_c1_g1_i1.p1PC2J_TRINITY_DN44251_c1_g1  -            103 112507at3193         -            349   0.00046   21.1   0.0   1   1   7.4e-07   0.00048   21.1   0.0     3    49    13    62    11    93 0.77 -
PC2A_TRINITY_DN29294_c2_g1_i7.p1PC2A_TRINITY_DN29294_c2_g1  -            184 112507at3193         -            349   0.00071   20.5   0.0   1   1   1.5e-06   0.00095   20.1   0.0     3    33   111   141   109   157 0.94 -
PC3J_TRINITY_DN46019_c0_g4_i1.p1PC3J_TRINITY_DN46019_c0_g4  -            113 112507at3193         -            349   0.00073   20.5   0.0   1   1   1.4e-06   0.00091   20.2   0.0     3    48    62   110    60   112 0.88 -
PC2A_TRINITY_DN35358_c1_g3_i2.p1PC2A_TRINITY_DN35358_c1_g3  -            138 112507at3193         -            349    0.0012   19.8   0.0   1   1   2.2e-06    0.0014   19.5   0.0     2    38    77   113    76   131 0.89 -
PC1A_TRINITY_DN39490_c1_g1_i2.p1PC1A_TRINITY_DN39490_c1_g1  -            195 112507at3193         -            349    0.0012   19.8   0.0   1   1   2.2e-06    0.0014   19.5   0.0     3    62    91   157    89   181 0.72 -
PC1J_TRINITY_DN34867_c1_g1_i1.p1PC1J_TRINITY_DN34867_c1_g1  -            239 112507at3193         -            349     0.003   18.4   0.0   1   2      0.22   1.4e+02    3.1   0.0    14    33    20    39    14    44 0.85 -
PC1J_TRINITY_DN34867_c1_g1_i1.p1PC1J_TRINITY_DN34867_c1_g1  -            239 112507at3193         -            349     0.003   18.4   0.0   2   2   0.00018      0.12   13.2   0.0    14    50    63   100    57   106 0.86 -
PC2A_TRINITY_DN36946_c0_g1_i1.p1PC2A_TRINITY_DN36946_c0_g1  -            117 112507at3193         -            349     0.007   17.2   0.0   1   1   1.3e-05    0.0088   16.9   0.0     2    33    73   104    72   110 0.91 -
PC1J_TRINITY_DN22586_c0_g1_i1.p1PC1J_TRINITY_DN22586_c0_g1  -            203 112507at3193         -            349      0.01   16.7   0.1   1   1     2e-05     0.013   16.4   0.1     2    76    84   161    83   179 0.83 -
PC3J_TRINITY_DN1597_c0_g1_i1.p1PC3J_TRINITY_DN1597_c0_g1    -            155 112507at3193         -            349     0.012   16.4   0.0   1   1   2.6e-05     0.017   16.0   0.0     3    40    84   121    82   128 0.92 -
PC3J_TRINITY_DN44029_c0_g4_i1.p1PC3J_TRINITY_DN44029_c0_g4  -            114 112507at3193         -            349     0.027   15.3   0.0   1   1   4.5e-05     0.029   15.2   0.0    34    62    85   113    57   114 0.90 -
PC1J_TRINITY_DN35023_c2_g2_i4.p1PC1J_TRINITY_DN35023_c2_g2  -            114 112507at3193         -            349     0.032   15.1   0.0   1   1   5.9e-05     0.038   14.8   0.0    25    61     7    47     2    64 0.78 -
PC1A_TRINITY_DN42456_c3_g1_i1.p1PC1A_TRINITY_DN42456_c3_g1  -            110 112507at3193         -            349     0.039   14.8   0.0   1   1   7.4e-05     0.048   14.5   0.0     3    49    27    77    25    87 0.86 -
PC3J_TRINITY_DN45382_c0_g3_i1.p1PC3J_TRINITY_DN45382_c0_g3  -            100 112507at3193         -            349     0.051   14.4   0.0   1   1    0.0001     0.065   14.1   0.0     3    48    27    76    25    80 0.84 -
PC2J_TRINITY_DN41776_c0_g1_i16.p1PC2J_TRINITY_DN41776_c0_g1 -            107 112507at3193         -            349       0.1   13.4   0.0   1   1   0.00021      0.14   13.0   0.0     7    36    67    96    62   101 0.87 -
PC1J_TRINITY_DN35023_c2_g2_i1.p1PC1J_TRINITY_DN35023_c2_g2  -            406 112507at3193         -            349      0.18   12.6   0.2   1   1   0.00057      0.37   11.6   0.0    25    61     7    47     2    62 0.78 -
PC1A_TRINITY_DN44235_c3_g1_i6.p1PC1A_TRINITY_DN44235_c3_g1  -            663 112507at3193         -            349      0.24   12.2   0.0   1   1   0.00071      0.46   11.3   0.0    14    50   118   155   112   160 0.86 -
PC2J_TRINITY_DN3592_c0_g1_i1.p1PC2J_TRINITY_DN3592_c0_g1    -            114 112507at3193         -            349      0.25   12.2   0.0   1   1   0.00049      0.32   11.8   0.0     3    30    87   114    85   114 0.96 -
PC1A_TRINITY_DN43749_c2_g4_i1.p1PC1A_TRINITY_DN43749_c2_g4  -            215 112507at3193         -            349      0.27   12.0   0.0   1   1   0.00055      0.36   11.6   0.0   150   207   118   175   108   190 0.93 -
PC1J_TRINITY_DN34965_c1_g4_i1.p1PC1J_TRINITY_DN34965_c1_g4  -            162 112507at3193         -            349      0.31   11.8   0.0   1   1   0.00061       0.4   11.5   0.0     9    58    53   112    46   131 0.69 -
PC2J_TRINITY_DN38084_c0_g1_i10.p1PC2J_TRINITY_DN38084_c0_g1 -            228 112507at3193         -            349      0.42   11.4   0.1   1   1   0.00094      0.61   10.9   0.1    37    63   152   178   144   188 0.81 -
PC3A_TRINITY_DN37036_c5_g1_i9.p1PC3A_TRINITY_DN37036_c5_g1  -            153 112507at3193         -            349      0.46   11.2   0.0   1   1     0.001      0.68   10.7   0.0    15    52     5    46     2    52 0.84 -
PC2A_TRINITY_DN35391_c1_g2_i2.p1PC2A_TRINITY_DN35391_c1_g2  -            100 112507at3193         -            349      0.73   10.6   0.0   1   1    0.0014      0.92   10.3   0.0     1    32    67    98    67   100 0.94 -
#
# Program:         hmmsearch
# Version:         3.2.1 (June 2018)
# Pipeline mode:   SEARCH
# Query file:      /isg/shared/databases/BUSCO/odb10/embryophyta_odb10/hmms/112507at3193.hmm
# Target file:     Pine_final_annotations_no_contam_lvl0.faa
# Option settings: /usr/local/bin/hmmsearch --domtblout /labs/Wegrzyn/Juniper_Pine/BUSCO/NEW/busco_pine/run_embryophyta_odb10/hmmer_output/112507at3193.out --cpu 1 /isg/shared/databases/BUSCO/odb10/embryophyta_odb10/hmms/112507at3193.hmm Pine_final_annotations_no_contam_lvl0.faa 
# Current dir:     /labs/Wegrzyn/Juniper_Pine/BUSCO/NEW
# Date:            Thu Aug  6 14:38:58 2020
# [ok]
