#                                                                                                                  --- full sequence --- -------------- this domain -------------   hmm coord   ali coord   env coord
# target name                                              accession   tlen query name           accession   qlen   E-value  score  bias   #  of  c-Evalue  i-Evalue  score  bias  from    to  from    to  from    to  acc description of target
#                                      ------------------- ---------- ----- -------------------- ---------- ----- --------- ------ ----- --- --- --------- --------- ------ ----- ----- ----- ----- ----- ----- ----- ---- ---------------------
PC3J_TRINITY_DN42206_c0_g1_i2.p1PC3J_TRINITY_DN42206_c0_g1 -            167 113485at3193         -            268   7.7e-41  141.8   0.5   1   1   1.2e-44   9.7e-41  141.4   0.5   163   268    44   157    39   157 0.89 -
PC3J_TRINITY_DN48007_c1_g2_i1.p1PC3J_TRINITY_DN48007_c1_g2 -            259 113485at3193         -            268   3.6e-30  106.8   2.8   1   2   2.1e-14   1.7e-10   42.3   0.1     8    39    40    71    34    80 0.88 -
PC3J_TRINITY_DN48007_c1_g2_i1.p1PC3J_TRINITY_DN48007_c1_g2 -            259 113485at3193         -            268   3.6e-30  106.8   2.8   2   2   3.4e-21   2.7e-17   64.6   0.5    35    91   182   238   175   246 0.86 -
PC2J_TRINITY_DN40056_c1_g3_i4.p1PC2J_TRINITY_DN40056_c1_g3 -            181 113485at3193         -            268   2.5e-29  104.0   1.1   1   2     1e-14   8.1e-11   43.3   0.1     8    40    40    72    34    84 0.87 -
PC2J_TRINITY_DN40056_c1_g3_i4.p1PC2J_TRINITY_DN40056_c1_g3 -            181 113485at3193         -            268   2.5e-29  104.0   1.1   2   2     1e-19   8.2e-16   59.7   0.1    33    85   129   181   113   181 0.90 -
PC1A_TRINITY_DN43838_c4_g1_i2.p1PC1A_TRINITY_DN43838_c4_g1 -            170 113485at3193         -            268    0.0071   17.3   0.0   1   1   1.2e-06    0.0094   16.9   0.0   157   267    16   124    10   125 0.80 -
PC1J_TRINITY_DN42883_c0_g1_i1.p1PC1J_TRINITY_DN42883_c0_g1 -            102 113485at3193         -            268      0.08   13.8   0.4   1   1   1.1e-05     0.091   13.7   0.4    72   124    16    70     9    87 0.86 -
PC3J_TRINITY_DN44931_c1_g1_i1.p1PC3J_TRINITY_DN44931_c1_g1 -            131 113485at3193         -            268      0.57   11.1   0.0   1   1   9.3e-05      0.74   10.7   0.0   156   261    13   116     3   120 0.79 -
PC2A_TRINITY_DN34430_c1_g2_i9.p2PC2A_TRINITY_DN34430_c1_g2 -            136 113485at3193         -            268      0.88   10.4   7.2   1   1   0.00013         1   10.2   7.2    62   126     5    67     1    90 0.81 -
PC2A_TRINITY_DN29853_c3_g1_i5.p1PC2A_TRINITY_DN29853_c3_g1 -            124 113485at3193         -            268       1.5    9.7   8.0   1   2     0.069   5.5e+02    1.3   2.0    53    75     9    32     2    55 0.61 -
PC2A_TRINITY_DN29853_c3_g1_i5.p1PC2A_TRINITY_DN29853_c3_g1 -            124 113485at3193         -            268       1.5    9.7   8.0   2   2   3.6e-05      0.28   12.0   1.0    47   101    60   116    36   121 0.76 -
#
# Program:         hmmsearch
# Version:         3.2.1 (June 2018)
# Pipeline mode:   SEARCH
# Query file:      /isg/shared/databases/BUSCO/odb10/embryophyta_odb10/hmms/113485at3193.hmm
# Target file:     Pine_final_annotations_no_contam_lvl0.faa
# Option settings: /usr/local/bin/hmmsearch --domtblout /labs/Wegrzyn/Juniper_Pine/BUSCO/NEW/busco_pine/run_embryophyta_odb10/hmmer_output/113485at3193.out --cpu 1 /isg/shared/databases/BUSCO/odb10/embryophyta_odb10/hmms/113485at3193.hmm Pine_final_annotations_no_contam_lvl0.faa 
# Current dir:     /labs/Wegrzyn/Juniper_Pine/BUSCO/NEW
# Date:            Thu Aug  6 14:39:02 2020
# [ok]
