#                                                                                                                   --- full sequence --- -------------- this domain -------------   hmm coord   ali coord   env coord
# target name                                               accession   tlen query name           accession   qlen   E-value  score  bias   #  of  c-Evalue  i-Evalue  score  bias  from    to  from    to  from    to  acc description of target
#                                       ------------------- ---------- ----- -------------------- ---------- ----- --------- ------ ----- --- --- --------- --------- ------ ----- ----- ----- ----- ----- ----- ----- ---- ---------------------
PC3J_TRINITY_DN39227_c0_g1_i5.p1PC3J_TRINITY_DN39227_c0_g1  -            229 114122at3193         -            310   9.6e-94  315.8   0.4   1   1   2.8e-96   1.4e-93  315.2   0.4   105   309     1   221     1   222 0.92 -
PC3A_TRINITY_DN43191_c2_g1_i2.p1PC3A_TRINITY_DN43191_c2_g1  -            235 114122at3193         -            310     3e-85  287.9   0.0   1   1   7.2e-88   3.6e-85  287.6   0.0    10   186     8   191     2   215 0.92 -
PC3J_TRINITY_DN39227_c0_g1_i3.p1PC3J_TRINITY_DN39227_c0_g1  -            163 114122at3193         -            310   3.6e-59  202.2   0.1   1   1   9.1e-62   4.6e-59  201.9   0.1   161   287     9   139     5   143 0.94 -
PC1A_TRINITY_DN43280_c0_g2_i2.p1PC1A_TRINITY_DN43280_c0_g2  -            116 114122at3193         -            310   8.1e-47  161.6   0.2   1   1   1.8e-49   9.2e-47  161.5   0.2    91   185     6   100     2   110 0.95 -
PC2A_TRINITY_DN34245_c0_g1_i1.p1PC2A_TRINITY_DN34245_c0_g1  -            124 114122at3193         -            310   8.7e-41  141.8   1.1   1   2   2.6e-37   1.3e-34  121.6   0.1   139   217     1    82     1    88 0.92 -
PC2A_TRINITY_DN34245_c0_g1_i1.p1PC2A_TRINITY_DN34245_c0_g1  -            124 114122at3193         -            310   8.7e-41  141.8   1.1   2   2   1.6e-06   0.00083   20.4   0.0   167   187    87   107    82   114 0.85 -
PC1J_TRINITY_DN37002_c0_g8_i2.p1PC1J_TRINITY_DN37002_c0_g8  -            109 114122at3193         -            310     3e-39  136.8   2.1   1   2   1.1e-33   5.4e-31  109.7   0.1    41   123     1    86     1    88 0.95 -
PC1J_TRINITY_DN37002_c0_g8_i2.p1PC1J_TRINITY_DN37002_c0_g8  -            109 114122at3193         -            310     3e-39  136.8   2.1   2   2   2.5e-09   1.3e-06   29.6   0.2   160   181    86   107    84   108 0.93 -
PC1A_TRINITY_DN43823_c2_g1_i10.p1PC1A_TRINITY_DN43823_c2_g1 -            308 114122at3193         -            310   3.5e-35  123.4   3.9   1   2   4.3e-25   2.1e-22   81.4   0.4    14   181    66   230    59   232 0.82 -
PC1A_TRINITY_DN43823_c2_g1_i10.p1PC1A_TRINITY_DN43823_c2_g1 -            308 114122at3193         -            310   3.5e-35  123.4   3.9   2   2   5.5e-14   2.8e-11   44.9   0.2   203   283   227   304   226   307 0.89 -
PC1J_TRINITY_DN34862_c0_g1_i10.p1PC1J_TRINITY_DN34862_c0_g1 -            295 114122at3193         -            310   7.9e-34  119.0   6.1   1   2   2.5e-21   1.2e-18   69.0   3.7    13   181    32   200    26   202 0.85 -
PC1J_TRINITY_DN34862_c0_g1_i10.p1PC1J_TRINITY_DN34862_c0_g1 -            295 114122at3193         -            310   7.9e-34  119.0   6.1   2   2   4.4e-16   2.2e-13   51.8   0.0   206   283   200   286   197   292 0.82 -
PC1J_TRINITY_DN37581_c0_g1_i16.p1PC1J_TRINITY_DN37581_c0_g1 -            290 114122at3193         -            310   3.7e-31  110.2   2.3   1   2   2.5e-20   1.2e-17   65.8   0.1    32   183    72   216    63   219 0.87 -
PC1J_TRINITY_DN37581_c0_g1_i16.p1PC1J_TRINITY_DN37581_c0_g1 -            290 114122at3193         -            310   3.7e-31  110.2   2.3   2   2   7.5e-14   3.7e-11   44.5   0.3   211   281   219   286   214   289 0.89 -
PC1A_TRINITY_DN43280_c0_g3_i4.p1PC1A_TRINITY_DN43280_c0_g3  -            111 114122at3193         -            310   4.3e-31  110.0   1.1   1   2   6.6e-09   3.3e-06   28.2   0.1   217   242     5    30     1    30 0.91 -
PC1A_TRINITY_DN43280_c0_g3_i4.p1PC1A_TRINITY_DN43280_c0_g3  -            111 114122at3193         -            310   4.3e-31  110.0   1.1   2   2   1.7e-25   8.4e-23   82.8   0.2   157   216    29    91    28    97 0.92 -
PC2J_TRINITY_DN40912_c0_g1_i2.p1PC2J_TRINITY_DN40912_c0_g1  -            319 114122at3193         -            310   8.3e-31  109.0   3.9   1   2   1.7e-22   8.6e-20   72.9   0.2    12   180    69   234    64   236 0.82 -
PC2J_TRINITY_DN40912_c0_g1_i2.p1PC2J_TRINITY_DN40912_c0_g1  -            319 114122at3193         -            310   8.3e-31  109.0   3.9   2   2   5.1e-12   2.5e-09   38.5   0.5   203   285   232   311   231   318 0.86 -
PC2J_TRINITY_DN36820_c2_g1_i4.p1PC2J_TRINITY_DN36820_c2_g1  -            292 114122at3193         -            310   1.2e-30  108.5   2.1   1   2   1.7e-05    0.0084   17.1   0.0     8    57    31    87    28   111 0.75 -
PC2J_TRINITY_DN36820_c2_g1_i4.p1PC2J_TRINITY_DN36820_c2_g1  -            292 114122at3193         -            310   1.2e-30  108.5   2.1   2   2   5.7e-26   2.9e-23   84.3   0.7    97   239   170   292   167   292 0.90 -
PC1A_TRINITY_DN41468_c3_g3_i1.p1PC1A_TRINITY_DN41468_c3_g3  -            235 114122at3193         -            310   1.6e-30  108.1   0.1   1   1   2.8e-29   1.4e-26   95.1   0.1    71   281    11   198     2   203 0.89 -
PC2J_TRINITY_DN42308_c1_g1_i1.p1PC2J_TRINITY_DN42308_c1_g1  -            110 114122at3193         -            310   3.8e-30  106.9   0.1   1   1   9.3e-33   4.7e-30  106.6   0.1   148   224    11    91     6    97 0.91 -
PC2A_TRINITY_DN29169_c1_g1_i4.p1PC2A_TRINITY_DN29169_c1_g1  -            230 114122at3193         -            310   9.3e-30  105.6   1.5   1   2   9.3e-18   4.7e-15   57.3   0.9    30   181     3   147     1   147 0.87 -
PC2A_TRINITY_DN29169_c1_g1_i4.p1PC2A_TRINITY_DN29169_c1_g1  -            230 114122at3193         -            310   9.3e-30  105.6   1.5   2   2   5.5e-15   2.8e-12   48.2   0.0   206   280   147   230   144   230 0.80 -
PC2J_TRINITY_DN43368_c1_g1_i17.p1PC2J_TRINITY_DN43368_c1_g1 -            338 114122at3193         -            310   2.2e-29  104.4   0.2   1   2   1.7e-17   8.6e-15   56.4   0.0    16   182    99   262    90   267 0.81 -
PC2J_TRINITY_DN43368_c1_g1_i17.p1PC2J_TRINITY_DN43368_c1_g1 -            338 114122at3193         -            310   2.2e-29  104.4   0.2   2   2   2.2e-14   1.1e-11   46.2   0.2   210   282   265   334   261   337 0.89 -
PC1A_TRINITY_DN42026_c2_g3_i6.p1PC1A_TRINITY_DN42026_c2_g3  -            310 114122at3193         -            310   1.2e-28  101.9   1.0   1   2   1.5e-17   7.6e-15   56.6   1.8    29   181    68   213    40   214 0.80 -
PC1A_TRINITY_DN42026_c2_g3_i6.p1PC1A_TRINITY_DN42026_c2_g3  -            310 114122at3193         -            310   1.2e-28  101.9   1.0   2   2   1.3e-13   6.8e-11   43.6   0.0   206   283   213   299   210   304 0.81 -
PC1A_TRINITY_DN41540_c0_g5_i2.p1PC1A_TRINITY_DN41540_c0_g5  -            316 114122at3193         -            310   5.1e-28   99.9   3.5   1   2     6e-22     3e-19   71.1   0.1    12   179   103   267    95   270 0.82 -
PC1A_TRINITY_DN41540_c0_g5_i2.p1PC1A_TRINITY_DN41540_c0_g5  -            316 114122at3193         -            310   5.1e-28   99.9   3.5   2   2     1e-09   5.1e-07   30.9   0.4   203   245   266   309   264   313 0.88 -
PC2J_TRINITY_DN37876_c2_g1_i9.p1PC2J_TRINITY_DN37876_c2_g1  -            212 114122at3193         -            310   5.3e-28   99.8   1.5   1   2   2.8e-16   1.4e-13   52.5   0.0    61   179    10   127     3   130 0.83 -
PC2J_TRINITY_DN37876_c2_g1_i9.p1PC2J_TRINITY_DN37876_c2_g1  -            212 114122at3193         -            310   5.3e-28   99.8   1.5   2   2   6.9e-15   3.5e-12   47.9   0.4   203   289   126   209   125   211 0.88 -
PC1A_TRINITY_DN40538_c4_g7_i4.p1PC1A_TRINITY_DN40538_c4_g7  -            313 114122at3193         -            310   1.1e-27   98.8   0.2   1   4       1.4   6.9e+02    0.9   0.0    14    40     3    35     1    38 0.66 -
PC1A_TRINITY_DN40538_c4_g7_i4.p1PC1A_TRINITY_DN40538_c4_g7  -            313 114122at3193         -            310   1.1e-27   98.8   0.2   2   4   5.9e-05     0.029   15.3   0.0    28    87    44   102    40   114 0.89 -
PC1A_TRINITY_DN40538_c4_g7_i4.p1PC1A_TRINITY_DN40538_c4_g7  -            313 114122at3193         -            310   1.1e-27   98.8   0.2   3   4   4.9e-14   2.5e-11   45.1   0.1    96   180   131   213   128   216 0.89 -
PC1A_TRINITY_DN40538_c4_g7_i4.p1PC1A_TRINITY_DN40538_c4_g7  -            313 114122at3193         -            310   1.1e-27   98.8   0.2   4   4   1.2e-10   6.2e-08   33.9   0.0   203   284   211   304   210   311 0.77 -
PC3A_TRINITY_DN39109_c3_g2_i2.p1PC3A_TRINITY_DN39109_c3_g2  -            244 114122at3193         -            310   5.2e-27   96.6   2.9   1   2   3.6e-15   1.8e-12   48.8   0.3    14   130    40   155    33   158 0.80 -
PC3A_TRINITY_DN39109_c3_g2_i2.p1PC3A_TRINITY_DN39109_c3_g2  -            244 114122at3193         -            310   5.2e-27   96.6   2.9   2   2   3.7e-15   1.8e-12   48.8   0.2   197   283   157   240   154   243 0.90 -
PC1A_TRINITY_DN40012_c2_g1_i14.p1PC1A_TRINITY_DN40012_c2_g1 -            182 114122at3193         -            310     1e-26   95.6   1.7   1   2   1.7e-15   8.5e-13   49.9   0.1    78   181     2   106     1   110 0.88 -
PC1A_TRINITY_DN40012_c2_g1_i14.p1PC1A_TRINITY_DN40012_c2_g1 -            182 114122at3193         -            310     1e-26   95.6   1.7   2   2   3.3e-14   1.6e-11   45.7   0.2   211   282   111   179   107   181 0.90 -
PC3J_TRINITY_DN44958_c0_g1_i1.p1PC3J_TRINITY_DN44958_c0_g1  -            241 114122at3193         -            310   4.9e-26   93.4   3.1   1   2   7.4e-23   3.7e-20   74.1   0.2    12   179    45   209    37   212 0.82 -
PC3J_TRINITY_DN44958_c0_g1_i1.p1PC3J_TRINITY_DN44958_c0_g1  -            241 114122at3193         -            310   4.9e-26   93.4   3.1   2   2   1.1e-06   0.00053   21.0   0.2   203   235   208   241   207   241 0.86 -
PC1J_TRINITY_DN34862_c0_g1_i2.p1PC1J_TRINITY_DN34862_c0_g1  -            204 114122at3193         -            310   2.2e-25   91.2   0.7   1   2   6.7e-13   3.3e-10   41.4   0.8    90   181    15   105     7   106 0.87 -
PC1J_TRINITY_DN34862_c0_g1_i2.p1PC1J_TRINITY_DN34862_c0_g1  -            204 114122at3193         -            310   2.2e-25   91.2   0.7   2   2   2.9e-15   1.4e-12   49.1   0.0   206   283   105   191   102   199 0.81 -
PC2J_TRINITY_DN42800_c0_g1_i17.p1PC2J_TRINITY_DN42800_c0_g1 -            208 114122at3193         -            310   4.9e-25   90.1   1.9   1   2   1.6e-13   7.9e-11   43.4   0.2    97   181    20   102    14   105 0.91 -
PC2J_TRINITY_DN42800_c0_g1_i17.p1PC2J_TRINITY_DN42800_c0_g1 -            208 114122at3193         -            310   4.9e-25   90.1   1.9   2   2   2.6e-13   1.3e-10   42.7   0.1   208   284   104   198   101   203 0.79 -
PC3J_TRINITY_DN42503_c7_g1_i3.p1PC3J_TRINITY_DN42503_c7_g1  -            365 114122at3193         -            310   1.6e-24   88.4   0.0   1   1   3.9e-26     2e-23   84.8   0.0    10   283    74   352    71   357 0.77 -
PC1A_TRINITY_DN43823_c2_g2_i1.p1PC1A_TRINITY_DN43823_c2_g2  -            137 114122at3193         -            310     7e-23   83.0   1.3   1   2   5.6e-16   2.8e-13   51.5   0.1   103   181     2    77     1    78 0.85 -
PC1A_TRINITY_DN43823_c2_g2_i1.p1PC1A_TRINITY_DN43823_c2_g2  -            137 114122at3193         -            310     7e-23   83.0   1.3   2   2   3.3e-10   1.7e-07   32.5   0.1   203   247    74   119    73   135 0.88 -
PC3J_TRINITY_DN46889_c1_g1_i6.p1PC3J_TRINITY_DN46889_c1_g1  -            197 114122at3193         -            310   8.8e-23   82.7   0.3   1   2     6e-11     3e-08   34.9   0.0   102   183    11    86     3    99 0.90 -
PC3J_TRINITY_DN46889_c1_g1_i6.p1PC3J_TRINITY_DN46889_c1_g1  -            197 114122at3193         -            310   8.8e-23   82.7   0.3   2   2     2e-14   9.9e-12   46.4   0.1   211   282    95   167    88   171 0.91 -
PC1A_TRINITY_DN41346_c3_g1_i1.p1PC1A_TRINITY_DN41346_c3_g1  -            204 114122at3193         -            310   2.1e-22   81.5   1.4   1   2     1e-09   5.1e-07   30.9   0.3    93   179    30   116     1   120 0.78 -
PC1A_TRINITY_DN41346_c3_g1_i1.p1PC1A_TRINITY_DN41346_c3_g1  -            204 114122at3193         -            310   2.1e-22   81.5   1.4   2   2   1.3e-15   6.4e-13   50.3   0.0   208   281   120   191   114   198 0.91 -
PC2J_TRINITY_DN42749_c0_g1_i1.p1PC2J_TRINITY_DN42749_c0_g1  -            248 114122at3193         -            310   3.6e-22   80.7   0.1   1   1   1.5e-24   7.3e-22   79.7   0.1    30   186    66   219    31   225 0.88 -
PC3J_TRINITY_DN46889_c1_g1_i4.p1PC3J_TRINITY_DN46889_c1_g1  -            191 114122at3193         -            310   4.1e-22   80.5   0.3   1   2   3.4e-10   1.7e-07   32.5   0.0   110   182    15    82     7    88 0.90 -
PC3J_TRINITY_DN46889_c1_g1_i4.p1PC3J_TRINITY_DN46889_c1_g1  -            191 114122at3193         -            310   4.1e-22   80.5   0.3   2   2     2e-14   9.9e-12   46.4   0.1   211   281    92   163    86   168 0.91 -
PC3J_TRINITY_DN44065_c1_g1_i4.p1PC3J_TRINITY_DN44065_c1_g1  -            181 114122at3193         -            310   6.3e-22   79.9   1.9   1   2       1.1   5.4e+02    1.3   0.1   148   168    11    34     3    38 0.71 -
PC3J_TRINITY_DN44065_c1_g1_i4.p1PC3J_TRINITY_DN44065_c1_g1  -            181 114122at3193         -            310   6.3e-22   79.9   1.9   2   2   5.4e-24   2.7e-21   77.8   0.3    33   176    40   174    36   179 0.87 -
PC3J_TRINITY_DN40802_c1_g4_i2.p1PC3J_TRINITY_DN40802_c1_g4  -            424 114122at3193         -            310   5.4e-20   73.5   0.0   1   1     2e-22     1e-19   72.6   0.0    17   266   105   362    96   372 0.78 -
PC2J_TRINITY_DN36820_c2_g1_i10.p1PC2J_TRINITY_DN36820_c2_g1 -            147 114122at3193         -            310     8e-19   69.7   1.0   1   1   5.1e-19   2.6e-16   61.5   1.0   148   261    24   122    13   132 0.86 -
PC3A_TRINITY_DN35213_c0_g1_i1.p1PC3A_TRINITY_DN35213_c0_g1  -            131 114122at3193         -            310   9.8e-19   69.4   1.3   1   2   9.9e-13     5e-10   40.8   0.0   118   184    31    92    26    94 0.92 -
PC3A_TRINITY_DN35213_c0_g1_i1.p1PC3A_TRINITY_DN35213_c0_g1  -            131 114122at3193         -            310   9.8e-19   69.4   1.3   2   2   7.1e-09   3.5e-06   28.1   0.3   205   237    97   130    91   131 0.87 -
PC2A_TRINITY_DN33139_c0_g2_i3.p1PC2A_TRINITY_DN33139_c0_g2  -            231 114122at3193         -            310   3.3e-18   67.7   3.1   1   2   1.7e-11   8.4e-09   36.8   0.3    14   122    40   147    32   151 0.79 -
PC2A_TRINITY_DN33139_c0_g2_i3.p1PC2A_TRINITY_DN33139_c0_g2  -            231 114122at3193         -            310   3.3e-18   67.7   3.1   2   2   6.7e-10   3.3e-07   31.5   0.2    33   120   151   231   147   231 0.87 -
PC2J_TRINITY_DN43321_c0_g1_i8.p1PC2J_TRINITY_DN43321_c0_g1  -            189 114122at3193         -            310   7.8e-18   66.4   1.5   1   1   2.1e-20     1e-17   66.0   1.5    13   182     6   174     3   177 0.81 -
PC3J_TRINITY_DN45247_c1_g2_i3.p1PC3J_TRINITY_DN45247_c1_g2  -            266 114122at3193         -            310   9.2e-18   66.2   0.1   1   2   8.9e-16   4.5e-13   50.8   0.1    28   167    18   150    15   176 0.79 -
PC3J_TRINITY_DN45247_c1_g2_i3.p1PC3J_TRINITY_DN45247_c1_g2  -            266 114122at3193         -            310   9.2e-18   66.2   0.1   2   2   0.00017     0.084   13.8   0.0   206   272   176   243   167   254 0.79 -
PC1J_TRINITY_DN34858_c3_g1_i1.p1PC1J_TRINITY_DN34858_c3_g1  -            192 114122at3193         -            310   1.6e-17   65.4   0.1   1   3       1.4   7.1e+02    0.9   0.0   167   185     2    20     1    48 0.76 -
PC1J_TRINITY_DN34858_c3_g1_i1.p1PC1J_TRINITY_DN34858_c3_g1  -            192 114122at3193         -            310   1.6e-17   65.4   0.1   2   3   4.3e-10   2.2e-07   32.1   0.1   108   182    56   125    33   131 0.85 -
PC1J_TRINITY_DN34858_c3_g1_i1.p1PC1J_TRINITY_DN34858_c3_g1  -            192 114122at3193         -            310   1.6e-17   65.4   0.1   3   3   4.6e-09   2.3e-06   28.8   0.0   211   260   135   185   127   190 0.85 -
PC2J_TRINITY_DN44808_c1_g1_i2.p1PC2J_TRINITY_DN44808_c1_g1  -            196 114122at3193         -            310   5.6e-17   63.6   1.2   1   3       5.2   2.6e+03   -1.0   0.0    74   100    20    46    11    51 0.85 -
PC2J_TRINITY_DN44808_c1_g1_i2.p1PC2J_TRINITY_DN44808_c1_g1  -            196 114122at3193         -            310   5.6e-17   63.6   1.2   2   3   1.7e-13   8.6e-11   43.3   0.2    98   181    62   143    57   145 0.89 -
PC2J_TRINITY_DN44808_c1_g1_i2.p1PC2J_TRINITY_DN44808_c1_g1  -            196 114122at3193         -            310   5.6e-17   63.6   1.2   3   3   6.1e-06     0.003   18.5   0.0   209   244   146   182   140   186 0.82 -
PC2J_TRINITY_DN43368_c1_g1_i8.p1PC2J_TRINITY_DN43368_c1_g1  -            262 114122at3193         -            310   1.1e-16   62.7   1.1   1   3     0.023        12    6.7   0.0    16    57    62   109    53   146 0.68 -
PC2J_TRINITY_DN43368_c1_g1_i8.p1PC2J_TRINITY_DN43368_c1_g1  -            262 114122at3193         -            310   1.1e-16   62.7   1.1   2   3      0.02       9.8    7.0   0.0   151   182   150   186   142   190 0.74 -
PC2J_TRINITY_DN43368_c1_g1_i8.p1PC2J_TRINITY_DN43368_c1_g1  -            262 114122at3193         -            310   1.1e-16   62.7   1.1   3   3   1.2e-14   6.2e-12   47.0   0.2   209   282   188   258   184   261 0.89 -
PC2J_TRINITY_DN43321_c0_g3_i8.p1PC2J_TRINITY_DN43321_c0_g3  -            139 114122at3193         -            310   1.4e-14   55.7   0.2   1   1   3.4e-17   1.7e-14   55.5   0.2    30   139     6   110     2   131 0.90 -
PC2J_TRINITY_DN36820_c2_g1_i19.p1PC2J_TRINITY_DN36820_c2_g1 -            130 114122at3193         -            310   2.4e-14   55.0   0.4   1   2    0.0056       2.8    8.8   0.0   160   184    19    43    14    46 0.90 -
PC2J_TRINITY_DN36820_c2_g1_i19.p1PC2J_TRINITY_DN36820_c2_g1 -            130 114122at3193         -            310   2.4e-14   55.0   0.4   2   2   5.9e-14     3e-11   44.8   0.2   206   261    49   105    43   126 0.89 -
PC2J_TRINITY_DN43321_c0_g1_i11.p1PC2J_TRINITY_DN43321_c0_g1 -            174 114122at3193         -            310   4.9e-14   53.9   0.3   1   1   1.2e-16   5.8e-14   53.7   0.3    13   139    22   149    10   166 0.80 -
PC3A_TRINITY_DN40917_c1_g3_i2.p1PC3A_TRINITY_DN40917_c1_g3  -            181 114122at3193         -            310   9.8e-14   53.0   3.3   1   2   0.00026      0.13   13.1   0.1    31   113    15    92     8    95 0.77 -
PC3A_TRINITY_DN40917_c1_g3_i2.p1PC3A_TRINITY_DN40917_c1_g3  -            181 114122at3193         -            310   9.8e-14   53.0   3.3   2   2     9e-13   4.5e-10   40.9   0.5   202   284    94   173    90   179 0.86 -
PC1J_TRINITY_DN39346_c1_g3_i1.p1PC1J_TRINITY_DN39346_c1_g3  -            122 114122at3193         -            310   2.3e-13   51.8   0.3   1   2   6.4e-09   3.2e-06   28.3   0.0   117   181     9    71     7    73 0.89 -
PC1J_TRINITY_DN39346_c1_g3_i1.p1PC1J_TRINITY_DN39346_c1_g3  -            122 114122at3193         -            310   2.3e-13   51.8   0.3   2   2     4e-07    0.0002   22.4   0.0   208   242    73   108    69   113 0.83 -
PC3J_TRINITY_DN38855_c1_g2_i7.p1PC3J_TRINITY_DN38855_c1_g2  -            135 114122at3193         -            310   1.5e-12   49.1   0.1   1   1     9e-14   4.5e-11   44.2   0.1   208   284    28   122    23   127 0.79 -
PC2J_TRINITY_DN42800_c0_g1_i15.p1PC2J_TRINITY_DN42800_c0_g1 -            204 114122at3193         -            310   1.6e-12   49.0   0.1   1   2       3.1   1.6e+03   -0.3   0.0   162   181    79    98    73   101 0.85 -
PC2J_TRINITY_DN42800_c0_g1_i15.p1PC2J_TRINITY_DN42800_c0_g1 -            204 114122at3193         -            310   1.6e-12   49.0   0.1   2   2   1.8e-13   9.1e-11   43.2   0.1   208   284   100   194    88   199 0.79 -
PC3J_TRINITY_DN43517_c2_g1_i11.p1PC3J_TRINITY_DN43517_c2_g1 -            170 114122at3193         -            310   2.2e-12   48.5   0.1   1   1   5.4e-15   2.7e-12   48.2   0.1    36   187     1   145     1   151 0.84 -
PC3A_TRINITY_DN40333_c1_g2_i4.p1PC3A_TRINITY_DN40333_c1_g2  -            116 114122at3193         -            310   4.4e-12   47.5   0.2   1   2     0.038        19    6.0   0.0   167   183     1    17     1    22 0.90 -
PC3A_TRINITY_DN40333_c1_g2_i4.p1PC3A_TRINITY_DN40333_c1_g2  -            116 114122at3193         -            310   4.4e-12   47.5   0.2   2   2   1.6e-12   8.2e-10   40.1   0.1    66   140    25   100    18   110 0.91 -
PC3J_TRINITY_DN40534_c6_g2_i1.p1PC3J_TRINITY_DN40534_c6_g2  -            114 114122at3193         -            310   4.6e-12   47.5   0.0   1   1     1e-14   5.2e-12   47.3   0.0    29   132    11   111     5   114 0.87 -
PC2J_TRINITY_DN40912_c0_g1_i3.p1PC2J_TRINITY_DN40912_c0_g1  -            228 114122at3193         -            310   5.1e-12   47.3   0.5   1   1   1.8e-14   9.1e-12   46.5   0.5    12   132    69   188    63   191 0.82 -
PC3J_TRINITY_DN46634_c0_g2_i2.p2PC3J_TRINITY_DN46634_c0_g2  -            108 114122at3193         -            310   7.4e-12   46.8   2.8   1   4     0.051        26    5.6   0.0   164   181     5    22     2    28 0.88 -
PC3J_TRINITY_DN46634_c0_g2_i2.p2PC3J_TRINITY_DN46634_c0_g2  -            108 114122at3193         -            310   7.4e-12   46.8   2.8   2   4   5.1e-06    0.0026   18.7   0.1   211   241    27    58    23    60 0.85 -
PC3J_TRINITY_DN46634_c0_g2_i2.p2PC3J_TRINITY_DN46634_c0_g2  -            108 114122at3193         -            310   7.4e-12   46.8   2.8   3   4     0.054        27    5.5   0.0   164   181    61    78    58    83 0.88 -
PC3J_TRINITY_DN46634_c0_g2_i2.p2PC3J_TRINITY_DN46634_c0_g2  -            108 114122at3193         -            310   7.4e-12   46.8   2.8   4   4   4.2e-05     0.021   15.7   0.1   211   234    83   107    79   108 0.88 -
PC3A_TRINITY_DN40333_c1_g2_i3.p1PC3A_TRINITY_DN40333_c1_g2  -            136 114122at3193         -            310   9.1e-12   46.5   0.1   1   1   4.2e-14   2.1e-11   45.3   0.1    31   140    18   120     9   130 0.87 -
PC2A_TRINITY_DN29169_c1_g1_i1.p1PC2A_TRINITY_DN29169_c1_g1  -            140 114122at3193         -            310     1e-11   46.3   0.2   1   1   2.3e-14   1.1e-11   46.2   0.2    30   140     3   107     1   132 0.85 -
PC1A_TRINITY_DN38411_c0_g1_i1.p1PC1A_TRINITY_DN38411_c0_g1  -            148 114122at3193         -            310   2.9e-11   44.8   3.1   1   2    0.0031       1.6    9.6   0.1   148   181     6    42     3    44 0.84 -
PC1A_TRINITY_DN38411_c0_g1_i1.p1PC1A_TRINITY_DN38411_c0_g1  -            148 114122at3193         -            310   2.9e-11   44.8   3.1   2   2   3.6e-10   1.8e-07   32.4   0.4   209   285    45   139    39   145 0.73 -
PC2A_TRINITY_DN27012_c0_g1_i1.p1PC2A_TRINITY_DN27012_c0_g1  -            138 114122at3193         -            310   3.5e-11   44.6   0.0   1   1   9.5e-14   4.8e-11   44.1   0.0    96   176    40   118    36   123 0.90 -
PC1A_TRINITY_DN42026_c2_g3_i1.p1PC1A_TRINITY_DN42026_c2_g3  -            224 114122at3193         -            310   3.6e-11   44.5   0.2   1   1   9.7e-14   4.9e-11   44.1   0.2    13   131    99   218    91   222 0.83 -
PC3J_TRINITY_DN45453_c0_g1_i2.p1PC3J_TRINITY_DN45453_c0_g1  -            246 114122at3193         -            310   5.4e-11   44.0   0.0   1   1   1.6e-13   8.1e-11   43.4   0.0   110   268    10   174     3   206 0.72 -
PC2A_TRINITY_DN32117_c0_g1_i3.p1PC2A_TRINITY_DN32117_c0_g1  -            126 114122at3193         -            310   7.9e-11   43.4   0.0   1   1   2.1e-13   1.1e-10   43.0   0.0    97   167    49   114    45   121 0.90 -
PC1J_TRINITY_DN40420_c1_g4_i3.p1PC1J_TRINITY_DN40420_c1_g4  -            220 114122at3193         -            310     2e-10   42.1   0.2   1   2   1.3e-11   6.7e-09   37.1   0.1    31   140    16   123    11   140 0.77 -
PC1J_TRINITY_DN40420_c1_g4_i3.p1PC1J_TRINITY_DN40420_c1_g4  -            220 114122at3193         -            310     2e-10   42.1   0.2   2   2      0.31   1.6e+02    3.0   0.0   209   233   194   219   172   220 0.81 -
PC2J_TRINITY_DN42800_c0_g1_i1.p1PC2J_TRINITY_DN42800_c0_g1  -            116 114122at3193         -            310   3.2e-10   41.4   0.2   1   1   7.8e-13   3.9e-10   41.1   0.2    97   176    20    97    13   101 0.91 -
PC2A_TRINITY_DN34994_c4_g1_i4.p1PC2A_TRINITY_DN34994_c4_g1  -            118 114122at3193         -            310   3.6e-10   41.3   0.0   1   1   8.3e-13   4.2e-10   41.0   0.0   189   283    10   105     3   110 0.84 -
PC2A_TRINITY_DN28084_c3_g1_i6.p1PC2A_TRINITY_DN28084_c3_g1  -            106 114122at3193         -            310   8.9e-10   40.0   0.2   1   1   6.3e-11   3.1e-08   34.9   0.2   225   284    20    96    15   101 0.80 -
PC2J_TRINITY_DN39133_c0_g1_i2.p1PC2J_TRINITY_DN39133_c0_g1  -            145 114122at3193         -            310   1.2e-09   39.5   0.0   1   1     4e-12     2e-09   38.8   0.0   164   258    19   113    10   128 0.75 -
PC1J_TRINITY_DN37554_c1_g3_i2.p1PC1J_TRINITY_DN37554_c1_g3  -            144 114122at3193         -            310   2.5e-09   38.5   0.0   1   1     7e-12   3.5e-09   38.0   0.0    33   142     2   118     1   140 0.72 -
PC3J_TRINITY_DN46634_c0_g1_i9.p1PC3J_TRINITY_DN46634_c0_g1  -            218 114122at3193         -            310   2.9e-09   38.3   0.0   1   1     8e-12     4e-09   37.8   0.0    74   143   123   193    93   204 0.85 -
PC3A_TRINITY_DN40572_c0_g1_i2.p1PC3A_TRINITY_DN40572_c0_g1  -            104 114122at3193         -            310   4.6e-09   37.6   0.0   1   2   5.2e-05     0.026   15.5   0.0   116   140     4    28     2    40 0.86 -
PC3A_TRINITY_DN40572_c0_g1_i2.p1PC3A_TRINITY_DN40572_c0_g1  -            104 114122at3193         -            310   4.6e-09   37.6   0.0   2   2   1.4e-06   0.00071   20.6   0.0   110   140    52    82    47    94 0.85 -
PC2A_TRINITY_DN29578_c0_g2_i1.p1PC2A_TRINITY_DN29578_c0_g2  -            100 114122at3193         -            310     8e-09   36.8   0.2   1   2    0.0027       1.3    9.8   0.0   148   181    11    49     7    54 0.79 -
PC2A_TRINITY_DN29578_c0_g2_i1.p1PC2A_TRINITY_DN29578_c0_g2  -            100 114122at3193         -            310     8e-09   36.8   0.2   2   2     4e-08     2e-05   25.7   0.1   211   244    54    88    51    96 0.89 -
PC3A_TRINITY_DN34859_c0_g1_i1.p1PC3A_TRINITY_DN34859_c0_g1  -            240 114122at3193         -            310   1.4e-08   36.1   0.0   1   1   4.5e-11   2.3e-08   35.4   0.0   117   251     9   149     7   199 0.77 -
PC3A_TRINITY_DN40572_c0_g1_i1.p1PC3A_TRINITY_DN40572_c0_g1  -            195 114122at3193         -            310   1.7e-08   35.8   0.0   1   2   6.7e-05     0.034   15.1   0.0    10    66    12    74     8   120 0.80 -
PC3A_TRINITY_DN40572_c0_g1_i1.p1PC3A_TRINITY_DN40572_c0_g1  -            195 114122at3193         -            310   1.7e-08   35.8   0.0   2   2   4.3e-06    0.0022   19.0   0.0   110   140   143   173   136   185 0.86 -
PC2A_TRINITY_DN4848_c0_g1_i1.p1PC2A_TRINITY_DN4848_c0_g1    -            107 114122at3193         -            310   4.1e-08   34.5   0.2   1   1   1.1e-10   5.6e-08   34.1   0.2    96   146    52   102    49   106 0.91 -
PC1J_TRINITY_DN33925_c0_g4_i6.p1PC1J_TRINITY_DN33925_c0_g4  -            343 114122at3193         -            310     7e-08   33.8   0.1   1   3     0.048        24    5.7   0.0     5    53    56   112    52   140 0.79 -
PC1J_TRINITY_DN33925_c0_g4_i6.p1PC1J_TRINITY_DN33925_c0_g4  -            343 114122at3193         -            310     7e-08   33.8   0.1   2   3   2.4e-05     0.012   16.6   0.0    70   133   174   238   145   267 0.80 -
PC1J_TRINITY_DN33925_c0_g4_i6.p1PC1J_TRINITY_DN33925_c0_g4  -            343 114122at3193         -            310     7e-08   33.8   0.1   3   3    0.0095       4.8    8.0   0.0   208   233   302   328   286   331 0.84 -
PC3A_TRINITY_DN11404_c0_g1_i1.p1PC3A_TRINITY_DN11404_c0_g1  -            166 114122at3193         -            310   7.1e-08   33.7   0.1   1   1   1.7e-10   8.6e-08   33.5   0.1    33   129    19   110    14   143 0.78 -
PC2J_TRINITY_DN42749_c0_g1_i11.p1PC2J_TRINITY_DN42749_c0_g1 -            103 114122at3193         -            310   9.3e-08   33.3   0.2   1   1     2e-10     1e-07   33.2   0.2    29   109     2    85     1    98 0.86 -
PC2A_TRINITY_DN34872_c4_g4_i2.p1PC2A_TRINITY_DN34872_c4_g4  -            112 114122at3193         -            310   1.5e-07   32.7   0.1   1   1   3.4e-10   1.7e-07   32.5   0.1    41   130     2    93     1    99 0.88 -
PC3A_TRINITY_DN40333_c1_g2_i6.p1PC3A_TRINITY_DN40333_c1_g2  -            130 114122at3193         -            310   2.8e-07   31.7   0.0   1   1   7.9e-10     4e-07   31.3   0.0    80   140    53   114    35   124 0.89 -
PC2J_TRINITY_DN36351_c1_g1_i1.p1PC2J_TRINITY_DN36351_c1_g1  -            107 114122at3193         -            310   3.8e-07   31.3   0.5   1   1   4.3e-08   2.1e-05   25.6   0.5    71   176    15   100     4   105 0.87 -
PC3J_TRINITY_DN40971_c1_g1_i3.p1PC3J_TRINITY_DN40971_c1_g1  -            206 114122at3193         -            310   6.8e-07   30.5   0.0   1   1   1.9e-09   9.3e-07   30.1   0.0   164   266    50   149    24   182 0.80 -
PC2J_TRINITY_DN42800_c0_g1_i9.p1PC2J_TRINITY_DN42800_c0_g1  -            191 114122at3193         -            310   7.6e-07   30.3   0.4   1   2    0.0027       1.4    9.8   0.0   148   181     7    43     5    45 0.86 -
PC2J_TRINITY_DN42800_c0_g1_i9.p1PC2J_TRINITY_DN42800_c0_g1  -            191 114122at3193         -            310   7.6e-07   30.3   0.4   2   2   4.2e-06    0.0021   19.0   0.0   208   237    45    75    41    79 0.82 -
PC3J_TRINITY_DN49531_c0_g1_i1.p1PC3J_TRINITY_DN49531_c0_g1  -            132 114122at3193         -            310     1e-06   29.9   0.1   1   2   6.1e-05     0.031   15.2   0.0    98   160     4    66     1   102 0.83 -
PC3J_TRINITY_DN49531_c0_g1_i1.p1PC3J_TRINITY_DN49531_c0_g1  -            132 114122at3193         -            310     1e-06   29.9   0.1   2   2   0.00024      0.12   13.2   0.0   209   235   104   131    92   132 0.82 -
PC3J_TRINITY_DN40971_c1_g1_i2.p1PC3J_TRINITY_DN40971_c1_g1  -            202 114122at3193         -            310   1.2e-06   29.7   0.0   1   1   2.9e-09   1.5e-06   29.4   0.0    29   128    71   170    43   198 0.79 -
PC1J_TRINITY_DN33925_c0_g4_i1.p1PC1J_TRINITY_DN33925_c0_g4  -            141 114122at3193         -            310   1.4e-06   29.4   0.2   1   1   4.2e-09   2.1e-06   28.9   0.2   208   248    57    98    41   114 0.86 -
PC3A_TRINITY_DN43508_c1_g3_i1.p1PC3A_TRINITY_DN43508_c1_g3  -            142 114122at3193         -            310   1.5e-06   29.4   0.1   1   3       2.2   1.1e+03    0.3   0.0   112   127     2    17     1    35 0.85 -
PC3A_TRINITY_DN43508_c1_g3_i1.p1PC3A_TRINITY_DN43508_c1_g3  -            142 114122at3193         -            310   1.5e-06   29.4   0.1   2   3   9.5e-07   0.00048   21.1   0.0   131   181    59   108    51   111 0.83 -
PC3A_TRINITY_DN43508_c1_g3_i1.p1PC3A_TRINITY_DN43508_c1_g3  -            142 114122at3193         -            310   1.5e-06   29.4   0.1   3   3      0.11        54    4.5   0.0   209   237   112   142   109   142 0.85 -
PC1J_TRINITY_DN36305_c5_g3_i2.p1PC1J_TRINITY_DN36305_c5_g3  -            150 114122at3193         -            310   1.6e-06   29.3   0.0   1   1   5.9e-09   2.9e-06   28.4   0.0    31   121    66   149    48   150 0.87 -
PC2J_TRINITY_DN48165_c0_g1_i1.p1PC2J_TRINITY_DN48165_c0_g1  -            138 114122at3193         -            310     2e-06   29.0   0.0   1   1   5.5e-09   2.8e-06   28.5   0.0   205   247    19    62     7    81 0.85 -
PC1A_TRINITY_DN42333_c0_g6_i1.p1PC1A_TRINITY_DN42333_c0_g6  -            237 114122at3193         -            310   3.6e-06   28.1   0.1   1   1   1.3e-08   6.4e-06   27.3   0.1   209   248    13    53     5    70 0.87 -
PC2J_TRINITY_DN45335_c3_g2_i1.p1PC2J_TRINITY_DN45335_c3_g2  -            255 114122at3193         -            310   4.9e-06   27.7   0.0   1   1   1.5e-08   7.6e-06   27.1   0.0   208   248    41    82    26    99 0.85 -
PC3J_TRINITY_DN45247_c1_g2_i5.p1PC3J_TRINITY_DN45247_c1_g2  -            138 114122at3193         -            310   9.7e-06   26.7   0.0   1   1   2.4e-08   1.2e-05   26.4   0.0    28   119    18   107    15   115 0.84 -
PC3J_TRINITY_DN38752_c2_g1_i3.p1PC3J_TRINITY_DN38752_c2_g1  -            271 114122at3193         -            310   1.8e-05   25.8   0.0   1   2     0.042        21    5.9   0.0     6    52    67   121    62   166 0.74 -
PC3J_TRINITY_DN38752_c2_g1_i3.p1PC3J_TRINITY_DN38752_c2_g1  -            271 114122at3193         -            310   1.8e-05   25.8   0.0   2   2   7.8e-06    0.0039   18.1   0.0    70   134   178   243   173   265 0.83 -
PC1J_TRINITY_DN28897_c0_g1_i3.p1PC1J_TRINITY_DN28897_c0_g1  -            116 114122at3193         -            310     2e-05   25.7   0.0   1   1   4.3e-08   2.2e-05   25.6   0.0   205   247    26    69    12   112 0.86 -
PC3J_TRINITY_DN8841_c0_g1_i1.p1PC3J_TRINITY_DN8841_c0_g1    -            107 114122at3193         -            310   2.8e-05   25.2   0.0   1   1   1.5e-07   7.4e-05   23.8   0.0   160   246     4    86     3    97 0.77 -
PC2A_TRINITY_DN26108_c0_g1_i2.p1PC2A_TRINITY_DN26108_c0_g1  -            128 114122at3193         -            310   3.4e-05   24.9   0.0   1   1   7.7e-08   3.9e-05   24.7   0.0    69   138    36   103    17   116 0.86 -
PC2A_TRINITY_DN35193_c1_g3_i8.p1PC2A_TRINITY_DN35193_c1_g3  -            110 114122at3193         -            310   3.8e-05   24.7   0.0   1   1   9.4e-08   4.7e-05   24.4   0.0    28   100    13    93     7   101 0.79 -
PC2J_TRINITY_DN44962_c2_g4_i1.p1PC2J_TRINITY_DN44962_c2_g4  -            143 114122at3193         -            310   4.9e-05   24.4   0.0   1   1   1.3e-07   6.4e-05   24.0   0.0    97   139    86   133    75   139 0.80 -
PC3J_TRINITY_DN18677_c0_g1_i1.p1PC3J_TRINITY_DN18677_c0_g1  -            151 114122at3193         -            310   7.7e-05   23.8   0.1   1   3   3.8e-06    0.0019   19.2   0.0    91   127     9    45     2    66 0.89 -
PC3J_TRINITY_DN18677_c0_g1_i1.p1PC3J_TRINITY_DN18677_c0_g1  -            151 114122at3193         -            310   7.7e-05   23.8   0.1   2   3      0.91   4.6e+02    1.5   0.0   131   161    87   112    80   122 0.82 -
PC3J_TRINITY_DN18677_c0_g1_i1.p1PC3J_TRINITY_DN18677_c0_g1  -            151 114122at3193         -            310   7.7e-05   23.8   0.1   3   3       5.9   2.9e+03   -1.2   0.0   230   252   121   143   116   147 0.82 -
PC2J_TRINITY_DN26882_c0_g1_i1.p1PC2J_TRINITY_DN26882_c0_g1  -            113 114122at3193         -            310   8.5e-05   23.6   0.0   1   1   1.8e-07   9.3e-05   23.5   0.0    77   157    26   101     8   110 0.70 -
PC1A_TRINITY_DN42026_c2_g3_i10.p1PC1A_TRINITY_DN42026_c2_g3 -            152 114122at3193         -            310     9e-05   23.5   0.2   1   1   2.5e-07   0.00012   23.1   0.2    13   107    51   147    43   150 0.76 -
PC2J_TRINITY_DN43471_c0_g2_i7.p1PC2J_TRINITY_DN43471_c0_g2  -            134 114122at3193         -            310   0.00014   22.9   0.1   1   2     5e-06    0.0025   18.8   0.0    70   129    35    95     7   104 0.81 -
PC2J_TRINITY_DN43471_c0_g2_i7.p1PC2J_TRINITY_DN43471_c0_g2  -            134 114122at3193         -            310   0.00014   22.9   0.1   2   2       0.4     2e+02    2.7   0.0   109   133   105   129    97   133 0.76 -
PC2J_TRINITY_DN44808_c1_g1_i8.p1PC2J_TRINITY_DN44808_c1_g1  -            113 114122at3193         -            310   0.00016   22.7   0.0   1   2       2.5   1.2e+03    0.1   0.0   164   181    43    60    13    62 0.79 -
PC2J_TRINITY_DN44808_c1_g1_i8.p1PC2J_TRINITY_DN44808_c1_g1  -            113 114122at3193         -            310   0.00016   22.7   0.0   2   2     8e-07    0.0004   21.4   0.0   202   244    56    99    36   104 0.80 -
PC1A_TRINITY_DN46149_c0_g1_i1.p1PC1A_TRINITY_DN46149_c0_g1  -            107 114122at3193         -            310    0.0003   21.8   0.1   1   1   7.4e-07   0.00037   21.5   0.1     8    56    22    77    18   103 0.69 -
PC2A_TRINITY_DN33139_c0_g5_i3.p1PC2A_TRINITY_DN33139_c0_g5  -            109 114122at3193         -            310   0.00057   20.9   0.0   1   1   1.3e-06   0.00068   20.7   0.0   136   182    15    59     5    90 0.72 -
PC3J_TRINITY_DN41849_c1_g2_i4.p2PC3J_TRINITY_DN41849_c1_g2  -            125 114122at3193         -            310   0.00068   20.6   0.0   1   1   1.8e-06    0.0009   20.2   0.0    26    58    56    88    28    97 0.75 -
PC1A_TRINITY_DN41540_c0_g5_i4.p1PC1A_TRINITY_DN41540_c0_g5  -            106 114122at3193         -            310   0.00081   20.4   0.0   1   1   1.9e-06   0.00097   20.1   0.0    80   131     2    54     1    58 0.80 -
PC1A_TRINITY_DN43092_c1_g2_i11.p1PC1A_TRINITY_DN43092_c1_g2 -            245 114122at3193         -            310    0.0013   19.7   0.0   1   1   3.4e-06    0.0017   19.3   0.0    70   155   153   239   146   245 0.77 -
PC3J_TRINITY_DN41849_c1_g2_i3.p1PC3J_TRINITY_DN41849_c1_g2  -            131 114122at3193         -            310    0.0016   19.4   0.1   1   1   4.1e-06     0.002   19.1   0.1    12    58    42    94    34   103 0.77 -
PC1A_TRINITY_DN42026_c2_g1_i2.p1PC1A_TRINITY_DN42026_c2_g1  -            105 114122at3193         -            310    0.0016   19.4   0.2   1   1   3.9e-06     0.002   19.1   0.2    13    79    24    94    17   100 0.74 -
PC1A_TRINITY_DN41795_c2_g1_i3.p1PC1A_TRINITY_DN41795_c2_g1  -            254 114122at3193         -            310    0.0017   19.3   0.0   1   2         7   3.5e+03   -1.4   0.0   134   161     8    31     2    62 0.57 -
PC1A_TRINITY_DN41795_c2_g1_i3.p1PC1A_TRINITY_DN41795_c2_g1  -            254 114122at3193         -            310    0.0017   19.3   0.0   2   2   1.1e-05    0.0054   17.7   0.0   206   282    63   136    55   142 0.76 -
PC1J_TRINITY_DN23693_c0_g1_i1.p1PC1J_TRINITY_DN23693_c0_g1  -            208 114122at3193         -            310    0.0017   19.3   0.0   1   2      0.74   3.7e+02    1.8   0.0    27    41    31    45    20    72 0.78 -
PC1J_TRINITY_DN23693_c0_g1_i1.p1PC1J_TRINITY_DN23693_c0_g1  -            208 114122at3193         -            310    0.0017   19.3   0.0   2   2   4.5e-05     0.022   15.7   0.0    68   128   104   165    90   193 0.80 -
PC3A_TRINITY_DN37747_c6_g1_i9.p1PC3A_TRINITY_DN37747_c6_g1  -            159 114122at3193         -            310    0.0018   19.2   0.0   1   1   4.8e-06    0.0024   18.8   0.0     8    57    22    78    19   103 0.74 -
PC2J_TRINITY_DN43321_c0_g1_i16.p1PC2J_TRINITY_DN43321_c0_g1 -            152 114122at3193         -            310    0.0029   18.6   0.1   1   1   7.1e-06    0.0036   18.3   0.1    13    90    22   103    10   110 0.77 -
PC2A_TRINITY_DN30893_c4_g1_i2.p1PC2A_TRINITY_DN30893_c4_g1  -            165 114122at3193         -            310    0.0048   17.9   0.1   1   1   1.5e-05    0.0077   17.2   0.1    13    55    70   118    63   126 0.76 -
PC2J_TRINITY_DN45207_c1_g2_i9.p1PC2J_TRINITY_DN45207_c1_g2  -            107 114122at3193         -            310    0.0054   17.7   0.0   1   1   1.1e-05    0.0056   17.6   0.0   256   288    21    53     2    66 0.86 -
PC2J_TRINITY_DN42800_c0_g3_i2.p1PC2J_TRINITY_DN42800_c0_g3  -            137 114122at3193         -            310    0.0095   16.9   0.1   1   1   2.4e-05     0.012   16.5   0.1    29    65    41    77    37   110 0.68 -
PC2A_TRINITY_DN28084_c3_g2_i1.p1PC2A_TRINITY_DN28084_c3_g2  -            107 114122at3193         -            310     0.011   16.6   0.0   1   1   2.6e-05     0.013   16.4   0.0    97   160    29    87    21    98 0.84 -
PC3J_TRINITY_DN43408_c1_g2_i1.p1PC3J_TRINITY_DN43408_c1_g2  -            160 114122at3193         -            310     0.012   16.5   0.0   1   1   3.1e-05     0.016   16.2   0.0    96   124   132   160    80   160 0.79 -
PC1A_TRINITY_DN32309_c0_g1_i1.p1PC1A_TRINITY_DN32309_c0_g1  -            316 114122at3193         -            310     0.016   16.1   0.2   1   2   0.00083      0.42   11.5   0.0    70   140   164   238   154   249 0.78 -
PC1A_TRINITY_DN32309_c0_g1_i1.p1PC1A_TRINITY_DN32309_c0_g1  -            316 114122at3193         -            310     0.016   16.1   0.2   2   2      0.46   2.3e+02    2.5   0.1   220   239   264   283   254   292 0.78 -
PC1J_TRINITY_DN39888_c1_g7_i1.p1PC1J_TRINITY_DN39888_c1_g7  -            118 114122at3193         -            310     0.017   16.1   0.1   1   1   5.1e-05     0.025   15.5   0.1    29    62    65    98    61   109 0.85 -
PC2A_TRINITY_DN17398_c0_g1_i1.p1PC2A_TRINITY_DN17398_c0_g1  -            207 114122at3193         -            310     0.035   15.0   0.0   1   1   8.6e-05     0.043   14.7   0.0     6    63    65   123    60   139 0.79 -
PC3J_TRINITY_DN43408_c1_g2_i3.p1PC3J_TRINITY_DN43408_c1_g2  -            314 114122at3193         -            310     0.039   14.9   0.0   1   1    0.0001     0.052   14.4   0.0    97   124   287   314   237   314 0.82 -
PC1J_TRINITY_DN34858_c3_g3_i3.p1PC1J_TRINITY_DN34858_c3_g3  -            192 114122at3193         -            310      0.05   14.5   0.1   1   1   0.00024      0.12   13.2   0.1    30    88   132   182   100   188 0.77 -
PC3A_TRINITY_DN37993_c1_g1_i4.p1PC3A_TRINITY_DN37993_c1_g1  -            342 114122at3193         -            310     0.055   14.4   0.0   1   2      0.73   3.7e+02    1.8   0.0    11    29   270   288   264   300 0.85 -
PC3A_TRINITY_DN37993_c1_g1_i4.p1PC3A_TRINITY_DN37993_c1_g1  -            342 114122at3193         -            310     0.055   14.4   0.0   2   2     0.002         1   10.2   0.0    30    56   314   340   310   342 0.88 -
PC1A_TRINITY_DN40912_c7_g1_i2.p1PC1A_TRINITY_DN40912_c7_g1  -            110 114122at3193         -            310      0.15   12.9   0.0   1   1   0.00034      0.17   12.8   0.0   206   247    36    78    22    96 0.84 -
PC3J_TRINITY_DN36417_c0_g1_i3.p1PC3J_TRINITY_DN36417_c0_g1  -            113 114122at3193         -            310      0.17   12.7   0.0   1   1   0.00041      0.21   12.5   0.0   104   141     8    49     3    65 0.68 -
PC1J_TRINITY_DN36590_c1_g3_i11.p1PC1J_TRINITY_DN36590_c1_g3 -            407 114122at3193         -            310      0.23   12.4   0.1   1   2      0.42   2.1e+02    2.6   0.0    91   129   239   277   211   287 0.84 -
PC1J_TRINITY_DN36590_c1_g3_i11.p1PC1J_TRINITY_DN36590_c1_g3 -            407 114122at3193         -            310      0.23   12.4   0.1   2   2     0.013       6.5    7.6   0.0   223   274   317   367   301   398 0.83 -
PC3J_TRINITY_DN49111_c1_g2_i1.p1PC3J_TRINITY_DN49111_c1_g2  -            224 114122at3193         -            310       0.3   11.9   0.1   1   1   0.00076      0.38   11.6   0.1    73   127   114   168    84   204 0.69 -
PC3A_TRINITY_DN43320_c0_g1_i3.p1PC3A_TRINITY_DN43320_c0_g1  -            123 114122at3193         -            310      0.53   11.2   0.1   1   1    0.0013      0.67   10.8   0.1   195   235     8    48     3    60 0.90 -
#
# Program:         hmmsearch
# Version:         3.2.1 (June 2018)
# Pipeline mode:   SEARCH
# Query file:      /isg/shared/databases/BUSCO/odb10/embryophyta_odb10/hmms/114122at3193.hmm
# Target file:     Pine_final_annotations_no_contam_lvl0.faa
# Option settings: /usr/local/bin/hmmsearch --domtblout /labs/Wegrzyn/Juniper_Pine/BUSCO/NEW/busco_pine/run_embryophyta_odb10/hmmer_output/114122at3193.out --cpu 1 /isg/shared/databases/BUSCO/odb10/embryophyta_odb10/hmms/114122at3193.hmm Pine_final_annotations_no_contam_lvl0.faa 
# Current dir:     /labs/Wegrzyn/Juniper_Pine/BUSCO/NEW
# Date:            Thu Aug  6 14:39:09 2020
# [ok]
