#                                                                                                                   --- full sequence --- -------------- this domain -------------   hmm coord   ali coord   env coord
# target name                                               accession   tlen query name           accession   qlen   E-value  score  bias   #  of  c-Evalue  i-Evalue  score  bias  from    to  from    to  from    to  acc description of target
#                                       ------------------- ---------- ----- -------------------- ---------- ----- --------- ------ ----- --- --- --------- --------- ------ ----- ----- ----- ----- ----- ----- ----- ---- ---------------------
PC3J_TRINITY_DN45542_c0_g2_i8.p1PC3J_TRINITY_DN45542_c0_g2  -            552 114420at3193         -            316   3.7e-57  195.6  27.6   1   6   5.8e-17   2.4e-14   54.9   2.0    97   206    66   177    55   179 0.93 -
PC3J_TRINITY_DN45542_c0_g2_i8.p1PC3J_TRINITY_DN45542_c0_g2  -            552 114420at3193         -            316   3.7e-57  195.6  27.6   2   6    0.0011      0.44   11.4   0.1    85   261   158   190   154   195 0.56 -
PC3J_TRINITY_DN45542_c0_g2_i8.p1PC3J_TRINITY_DN45542_c0_g2  -            552 114420at3193         -            316   3.7e-57  195.6  27.6   3   6   8.2e-05     0.034   15.0   0.1   242   273   196   226   193   227 0.90 -
PC3J_TRINITY_DN45542_c0_g2_i8.p1PC3J_TRINITY_DN45542_c0_g2  -            552 114420at3193         -            316   3.7e-57  195.6  27.6   4   6   8.6e-09   3.6e-06   28.1   0.6    95   160   218   283   216   286 0.96 -
PC3J_TRINITY_DN45542_c0_g2_i8.p1PC3J_TRINITY_DN45542_c0_g2  -            552 114420at3193         -            316   3.7e-57  195.6  27.6   5   6   7.8e-17   3.2e-14   54.5   1.5    85   187   286   389   284   390 0.96 -
PC3J_TRINITY_DN45542_c0_g2_i8.p1PC3J_TRINITY_DN45542_c0_g2  -            552 114420at3193         -            316   3.7e-57  195.6  27.6   6   6   2.7e-19   1.1e-16   62.6   0.7    53   188   382   520   382   536 0.93 -
PC3J_TRINITY_DN45542_c0_g2_i4.p1PC3J_TRINITY_DN45542_c0_g2  -            366 114420at3193         -            316   2.9e-47  163.0  19.8   1   3   3.6e-23   1.5e-20   75.3   5.2    97   257    66   232    56   233 0.93 -
PC3J_TRINITY_DN45542_c0_g2_i4.p1PC3J_TRINITY_DN45542_c0_g2  -            366 114420at3193         -            316   2.9e-47  163.0  19.8   2   3     9e-14   3.7e-11   44.4   0.3    85   189   158   257   156   258 0.92 -
PC3J_TRINITY_DN45542_c0_g2_i4.p1PC3J_TRINITY_DN45542_c0_g2  -            366 114420at3193         -            316   2.9e-47  163.0  19.8   3   3   8.4e-21   3.5e-18   67.5   1.4    46   188   189   334   185   353 0.92 -
PC1A_TRINITY_DN41684_c1_g1_i16.p1PC1A_TRINITY_DN41684_c1_g1 -            698 114420at3193         -            316   2.1e-43  150.4  16.1   1   5   4.8e-11     2e-08   35.5   0.0    98   187   231   321   225   321 0.81 -
PC1A_TRINITY_DN41684_c1_g1_i16.p1PC1A_TRINITY_DN41684_c1_g1 -            698 114420at3193         -            316   2.1e-43  150.4  16.1   2   5   2.4e-11   9.9e-09   36.5   3.4    87   198   298   409   294   410 0.92 -
PC1A_TRINITY_DN41684_c1_g1_i16.p1PC1A_TRINITY_DN41684_c1_g1 -            698 114420at3193         -            316   2.1e-43  150.4  16.1   3   5   2.5e-10     1e-07   33.1   1.9    85   194   373   487   365   507 0.61 -
PC1A_TRINITY_DN41684_c1_g1_i16.p1PC1A_TRINITY_DN41684_c1_g1 -            698 114420at3193         -            316   2.1e-43  150.4  16.1   4   5   5.3e-15   2.2e-12   48.5   0.1    85   192   507   618   499   622 0.92 -
PC1A_TRINITY_DN41684_c1_g1_i16.p1PC1A_TRINITY_DN41684_c1_g1 -            698 114420at3193         -            316   2.1e-43  150.4  16.1   5   5   1.3e-07   5.2e-05   24.2   0.1   239   304   623   688   616   695 0.87 -
PC3A_TRINITY_DN39661_c0_g1_i3.p1PC3A_TRINITY_DN39661_c0_g1  -            217 114420at3193         -            316   1.5e-37  131.2  22.4   1   3   2.4e-10   9.7e-08   33.2   2.5    85   187    13   110     2   111 0.91 -
PC3A_TRINITY_DN39661_c0_g1_i3.p1PC3A_TRINITY_DN39661_c0_g1  -            217 114420at3193         -            316   1.5e-37  131.2  22.4   2   3   1.1e-17   4.5e-15   57.3   2.2    85   188    59   163    51   166 0.95 -
PC3A_TRINITY_DN39661_c0_g1_i3.p1PC3A_TRINITY_DN39661_c0_g1  -            217 114420at3193         -            316   1.5e-37  131.2  22.4   3   3   3.3e-20   1.4e-17   65.6   2.6    60   189    84   216    80   217 0.93 -
PC1A_TRINITY_DN44156_c0_g5_i3.p1PC1A_TRINITY_DN44156_c0_g5  -            290 114420at3193         -            316   1.4e-33  118.1  15.2   1   3   2.9e-10   1.2e-07   32.9   1.1    74   180     6   110     3   110 0.89 -
PC1A_TRINITY_DN44156_c0_g5_i3.p1PC1A_TRINITY_DN44156_c0_g5  -            290 114420at3193         -            316   1.4e-33  118.1  15.2   2   3   6.9e-15   2.9e-12   48.1   5.4    84   194    91   201    84   201 0.94 -
PC1A_TRINITY_DN44156_c0_g5_i3.p1PC1A_TRINITY_DN44156_c0_g5  -            290 114420at3193         -            316   1.4e-33  118.1  15.2   3   3   4.9e-19     2e-16   61.7   1.0    78   180   186   289   182   290 0.92 -
PC2J_TRINITY_DN43246_c2_g1_i3.p1PC2J_TRINITY_DN43246_c2_g1  -            489 114420at3193         -            316     1e-30  108.7  14.8   1   3   1.4e-12   5.7e-10   40.5   0.1    98   191   169   264   165   265 0.92 -
PC2J_TRINITY_DN43246_c2_g1_i3.p1PC2J_TRINITY_DN43246_c2_g1  -            489 114420at3193         -            316     1e-30  108.7  14.8   2   3     5e-17   2.1e-14   55.1   8.4    86   255   261   442   258   449 0.82 -
PC2J_TRINITY_DN43246_c2_g1_i3.p1PC2J_TRINITY_DN43246_c2_g1  -            489 114420at3193         -            316     1e-30  108.7  14.8   3   3     8e-06    0.0033   18.3   0.1   138   180   444   486   442   489 0.76 -
PC2J_TRINITY_DN43246_c2_g1_i16.p1PC2J_TRINITY_DN43246_c2_g1 -            389 114420at3193         -            316   1.5e-29  104.9  27.8   1   3   7.6e-13   3.2e-10   41.4   6.7    91   203     6   119     3   147 0.88 -
PC2J_TRINITY_DN43246_c2_g1_i16.p1PC2J_TRINITY_DN43246_c2_g1 -            389 114420at3193         -            316   1.5e-29  104.9  27.8   2   3   3.8e-16   1.6e-13   52.2   8.9    85   255   157   342   152   349 0.86 -
PC2J_TRINITY_DN43246_c2_g1_i16.p1PC2J_TRINITY_DN43246_c2_g1 -            389 114420at3193         -            316   1.5e-29  104.9  27.8   3   3   5.9e-06    0.0024   18.8   0.2   138   180   344   386   342   389 0.76 -
PC1A_TRINITY_DN41684_c1_g1_i7.p1PC1A_TRINITY_DN41684_c1_g1  -            523 114420at3193         -            316   5.7e-29  103.0   8.6   1   3     4e-10   1.6e-07   32.5   1.2    88   194   201   312   192   326 0.77 -
PC1A_TRINITY_DN41684_c1_g1_i7.p1PC1A_TRINITY_DN41684_c1_g1  -            523 114420at3193         -            316   5.7e-29  103.0   8.6   2   3   3.7e-15   1.5e-12   49.0   0.2    85   193   332   444   326   448 0.92 -
PC1A_TRINITY_DN41684_c1_g1_i7.p1PC1A_TRINITY_DN41684_c1_g1  -            523 114420at3193         -            316   5.7e-29  103.0   8.6   3   3   8.5e-08   3.5e-05   24.8   0.1   239   304   448   513   441   520 0.87 -
PC2A_TRINITY_DN34352_c1_g1_i9.p1PC2A_TRINITY_DN34352_c1_g1  -            388 114420at3193         -            316   6.6e-27   96.2  12.7   1   3   1.8e-11   7.5e-09   36.9   0.0    98   187    21   111    10   111 0.83 -
PC2A_TRINITY_DN34352_c1_g1_i9.p1PC2A_TRINITY_DN34352_c1_g1  -            388 114420at3193         -            316   6.6e-27   96.2  12.7   2   3     6e-12   2.5e-09   38.4   2.7    87   198    88   199    86   200 0.92 -
PC2A_TRINITY_DN34352_c1_g1_i9.p1PC2A_TRINITY_DN34352_c1_g1  -            388 114420at3193         -            316   6.6e-27   96.2  12.7   3   3   5.1e-13   2.1e-10   42.0   3.2    85   273   191   380   188   387 0.87 -
PC1J_TRINITY_DN40816_c1_g3_i2.p1PC1J_TRINITY_DN40816_c1_g3  -            589 114420at3193         -            316   2.8e-26   94.1  18.3   1   4     5e-08   2.1e-05   25.6   0.1    71   145   152   225   124   230 0.65 -
PC1J_TRINITY_DN40816_c1_g3_i2.p1PC1J_TRINITY_DN40816_c1_g3  -            589 114420at3193         -            316   2.8e-26   94.1  18.3   2   4   1.6e-10   6.6e-08   33.8   3.9    61   200   217   350   203   361 0.87 -
PC1J_TRINITY_DN40816_c1_g3_i2.p1PC1J_TRINITY_DN40816_c1_g3  -            589 114420at3193         -            316   2.8e-26   94.1  18.3   3   4   4.5e-10   1.9e-07   32.3   1.6    63   228   340   502   338   503 0.82 -
PC1J_TRINITY_DN40816_c1_g3_i2.p1PC1J_TRINITY_DN40816_c1_g3  -            589 114420at3193         -            316   2.8e-26   94.1  18.3   4   4   1.4e-05    0.0056   17.6   0.3   124   197   494   565   492   585 0.89 -
PC2J_TRINITY_DN35501_c0_g1_i1.p1PC2J_TRINITY_DN35501_c0_g1  -            195 114420at3193         -            316   1.8e-24   88.2  11.7   1   2   8.1e-21   3.4e-18   67.6   5.3    85   194    43   154    23   154 0.92 -
PC2J_TRINITY_DN35501_c0_g1_i1.p1PC2J_TRINITY_DN35501_c0_g1  -            195 114420at3193         -            316   1.8e-24   88.2  11.7   2   2     3e-09   1.3e-06   29.6   0.9   229   273   147   190   145   194 0.89 -
PC1J_TRINITY_DN39725_c3_g1_i16.p1PC1J_TRINITY_DN39725_c3_g1 -            360 114420at3193         -            316   9.4e-24   85.8  12.5   1   3   4.2e-11   1.8e-08   35.7   1.3    87   166   147   227   129   231 0.50 -
PC1J_TRINITY_DN39725_c3_g1_i16.p1PC1J_TRINITY_DN39725_c3_g1 -            360 114420at3193         -            316   9.4e-24   85.8  12.5   2   3   2.9e-05     0.012   16.5   0.3   241   273   234   265   221   266 0.82 -
PC1J_TRINITY_DN39725_c3_g1_i16.p1PC1J_TRINITY_DN39725_c3_g1 -            360 114420at3193         -            316   9.4e-24   85.8  12.5   3   3   1.3e-13   5.4e-11   43.9   1.7    95   194   257   357   254   358 0.95 -
PC3A_TRINITY_DN36903_c2_g1_i1.p1PC3A_TRINITY_DN36903_c2_g1  -            439 114420at3193         -            316   2.1e-23   84.7  20.4   1   4     3e-15   1.2e-12   49.3   8.4    63   194    86   223    82   223 0.85 -
PC3A_TRINITY_DN36903_c2_g1_i1.p1PC3A_TRINITY_DN36903_c2_g1  -            439 114420at3193         -            316   2.1e-23   84.7  20.4   2   4   1.6e-10   6.7e-08   33.7   2.4   209   265   191   252   190   253 0.86 -
PC3A_TRINITY_DN36903_c2_g1_i1.p1PC3A_TRINITY_DN36903_c2_g1  -            439 114420at3193         -            316   2.1e-23   84.7  20.4   3   4   5.3e-07   0.00022   22.2   0.1    87   135   244   292   242   296 0.92 -
PC3A_TRINITY_DN36903_c2_g1_i1.p1PC3A_TRINITY_DN36903_c2_g1  -            439 114420at3193         -            316   2.1e-23   84.7  20.4   4   4      0.68   2.8e+02    2.1   0.1   139   162   360   383   349   414 0.72 -
PC3J_TRINITY_DN45050_c1_g2_i17.p1PC3J_TRINITY_DN45050_c1_g2 -            318 114420at3193         -            316   1.1e-20   75.8   0.1   1   2   1.1e-12   4.6e-10   40.8   0.0    98   192   127   222   121   223 0.91 -
PC3J_TRINITY_DN45050_c1_g2_i17.p1PC3J_TRINITY_DN45050_c1_g2 -            318 114420at3193         -            316   1.1e-20   75.8   0.1   2   2   5.6e-11   2.3e-08   35.3   0.0    85   174   220   312   218   314 0.93 -
PC1J_TRINITY_DN40502_c1_g2_i2.p1PC1J_TRINITY_DN40502_c1_g2  -            198 114420at3193         -            316   2.4e-20   74.6   5.3   1   2   2.4e-06   0.00099   20.0   0.1   138   183     6    51     1    60 0.74 -
PC1J_TRINITY_DN40502_c1_g2_i2.p1PC1J_TRINITY_DN40502_c1_g2  -            198 114420at3193         -            316   2.4e-20   74.6   5.3   2   2   6.2e-17   2.6e-14   54.8   2.3    61   187    58   185    53   193 0.92 -
PC3J_TRINITY_DN26728_c0_g1_i2.p1PC3J_TRINITY_DN26728_c0_g1  -            226 114420at3193         -            316   1.5e-17   65.4  11.4   1   3   4.8e-06     0.002   19.0   0.5   210   261     2    57     1    64 0.70 -
PC3J_TRINITY_DN26728_c0_g1_i2.p1PC3J_TRINITY_DN26728_c0_g1  -            226 114420at3193         -            316   1.5e-17   65.4  11.4   2   3   7.2e-09     3e-06   28.3   0.4   108   180    74   147    66   153 0.90 -
PC3J_TRINITY_DN26728_c0_g1_i2.p1PC3J_TRINITY_DN26728_c0_g1  -            226 114420at3193         -            316   1.5e-17   65.4  11.4   3   3   1.1e-07   4.7e-05   24.4   0.3    86   151   153   217   150   223 0.83 -
PC2A_TRINITY_DN30673_c2_g3_i4.p1PC2A_TRINITY_DN30673_c2_g3  -            225 114420at3193         -            316   8.6e-17   63.0   9.9   1   1   5.5e-19   2.3e-16   61.6   9.9    63   227    38   208    33   215 0.86 -
PC2J_TRINITY_DN38010_c1_g5_i2.p1PC2J_TRINITY_DN38010_c1_g5  -            158 114420at3193         -            316     7e-16   60.0   1.3   1   2   7.8e-08   3.2e-05   24.9   0.2   138   195    27    86    16    90 0.62 -
PC2J_TRINITY_DN38010_c1_g5_i2.p1PC2J_TRINITY_DN38010_c1_g5  -            158 114420at3193         -            316     7e-16   60.0   1.3   2   2   2.2e-11     9e-09   36.6   0.2    89   158    82   150    79   157 0.89 -
PC2J_TRINITY_DN37394_c3_g2_i1.p1PC2J_TRINITY_DN37394_c3_g2  -            274 114420at3193         -            316   2.3e-15   58.2   6.3   1   2   7.9e-15   3.3e-12   47.9   3.6    56   262     4   222     1   227 0.80 -
PC2J_TRINITY_DN37394_c3_g2_i1.p1PC2J_TRINITY_DN37394_c3_g2  -            274 114420at3193         -            316   2.3e-15   58.2   6.3   2   2    0.0027       1.1   10.0   0.0   241   279   229   267   224   274 0.53 -
PC2A_TRINITY_DN36697_c0_g1_i1.p1PC2A_TRINITY_DN36697_c0_g1  -            180 114420at3193         -            316   3.5e-15   57.7   9.9   1   2   0.00029      0.12   13.2   0.1   231   261    10    40     1    43 0.83 -
PC2A_TRINITY_DN36697_c0_g1_i1.p1PC2A_TRINITY_DN36697_c0_g1  -            180 114420at3193         -            316   3.5e-15   57.7   9.9   2   2   2.1e-15   8.8e-13   49.8   7.1    85   204    34   158    33   162 0.92 -
PC2J_TRINITY_DN40789_c1_g1_i5.p1PC2J_TRINITY_DN40789_c1_g1  -            384 114420at3193         -            316   4.2e-15   57.4   6.4   1   2   1.1e-07   4.4e-05   24.5   0.0    59   144    87   176    75   186 0.79 -
PC2J_TRINITY_DN40789_c1_g1_i5.p1PC2J_TRINITY_DN40789_c1_g1  -            384 114420at3193         -            316   4.2e-15   57.4   6.4   2   2   2.4e-06     0.001   20.0   1.1    96   172   308   384   298   384 0.81 -
PC1A_TRINITY_DN43529_c0_g7_i2.p1PC1A_TRINITY_DN43529_c0_g7  -            308 114420at3193         -            316   1.5e-14   55.6   0.2   1   2     2e-15   8.4e-13   49.8   0.0    95   187   115   207    14   217 0.79 -
PC1A_TRINITY_DN43529_c0_g7_i2.p1PC1A_TRINITY_DN43529_c0_g7  -            308 114420at3193         -            316   1.5e-14   55.6   0.2   2   2      0.37   1.5e+02    3.0   0.1    56   136   229   308   225   308 0.51 -
PC3J_TRINITY_DN37589_c0_g1_i2.p1PC3J_TRINITY_DN37589_c0_g1  -            265 114420at3193         -            316   4.9e-14   53.9   2.1   1   2   1.9e-09   7.9e-07   30.2   0.1    81   212    35   174    24   177 0.85 -
PC3J_TRINITY_DN37589_c0_g1_i2.p1PC3J_TRINITY_DN37589_c0_g1  -            265 114420at3193         -            316   4.9e-14   53.9   2.1   2   2   1.9e-07     8e-05   23.6   0.3    86   154   177   244   175   262 0.87 -
PC2J_TRINITY_DN35916_c6_g1_i1.p1PC2J_TRINITY_DN35916_c6_g1  -            105 114420at3193         -            316     2e-13   51.9   0.2   1   1     8e-16   3.3e-13   51.2   0.2    73   160    16   104     1   105 0.89 -
PC3J_TRINITY_DN42278_c4_g1_i1.p1PC3J_TRINITY_DN42278_c4_g1  -            163 114420at3193         -            316   3.2e-13   51.2   1.9   1   2   1.7e-15   6.9e-13   50.1   1.5    96   181    22   109    19   143 0.85 -
PC3J_TRINITY_DN42278_c4_g1_i1.p1PC3J_TRINITY_DN42278_c4_g1  -            163 114420at3193         -            316   3.2e-13   51.2   1.9   2   2       8.5   3.5e+03   -1.5   0.0   111   126   140   155   127   158 0.82 -
PC1J_TRINITY_DN36097_c1_g1_i6.p1PC1J_TRINITY_DN36097_c1_g1  -            106 114420at3193         -            316   5.7e-13   50.4   3.8   1   2   1.1e-08   4.4e-06   27.8   0.9   231   262    14    45     1    47 0.80 -
PC1J_TRINITY_DN36097_c1_g1_i6.p1PC1J_TRINITY_DN36097_c1_g1  -            106 114420at3193         -            316   5.7e-13   50.4   3.8   2   2   2.2e-08   9.3e-06   26.7   0.1    87   136    40    89    38   104 0.87 -
PC1A_TRINITY_DN42223_c1_g2_i13.p1PC1A_TRINITY_DN42223_c1_g2 -            475 114420at3193         -            316   9.3e-13   49.7   4.0   1   5   7.4e-05     0.031   15.1   0.2    74   181    21   132     8   168 0.77 -
PC1A_TRINITY_DN42223_c1_g2_i13.p1PC1A_TRINITY_DN42223_c1_g2 -            475 114420at3193         -            316   9.3e-13   49.7   4.0   2   5   0.00041      0.17   12.7   0.2   210   279   196   274   190   276 0.75 -
PC1A_TRINITY_DN42223_c1_g2_i13.p1PC1A_TRINITY_DN42223_c1_g2 -            475 114420at3193         -            316   9.3e-13   49.7   4.0   3   5      0.16        67    4.2   0.0   240   260   260   280   257   283 0.86 -
PC1A_TRINITY_DN42223_c1_g2_i13.p1PC1A_TRINITY_DN42223_c1_g2 -            475 114420at3193         -            316   9.3e-13   49.7   4.0   4   5    0.0002     0.084   13.7   0.0    94   187   283   383   280   391 0.73 -
PC1A_TRINITY_DN42223_c1_g2_i13.p1PC1A_TRINITY_DN42223_c1_g2 -            475 114420at3193         -            316   9.3e-13   49.7   4.0   5   5     0.093        38    5.0   0.0    83   161   357   432   348   443 0.78 -
PC1J_TRINITY_DN36097_c1_g1_i1.p1PC1J_TRINITY_DN36097_c1_g1  -            219 114420at3193         -            316   9.7e-13   49.6   4.6   1   3     1e-07   4.2e-05   24.5   0.7   231   257    14    40     1    43 0.81 -
PC1J_TRINITY_DN36097_c1_g1_i1.p1PC1J_TRINITY_DN36097_c1_g1  -            219 114420at3193         -            316   9.7e-13   49.6   4.6   2   3   1.8e-07   7.5e-05   23.7   0.1    87   135    40    88    38    93 0.92 -
PC1J_TRINITY_DN36097_c1_g1_i1.p1PC1J_TRINITY_DN36097_c1_g1  -            219 114420at3193         -            316   9.7e-13   49.6   4.6   3   3      0.43   1.8e+02    2.8   0.0   139   162   156   179   142   185 0.74 -
PC3A_TRINITY_DN32876_c0_g1_i1.p1PC3A_TRINITY_DN32876_c0_g1  -            172 114420at3193         -            316   1.2e-12   49.3   3.0   1   1   1.3e-14   5.3e-12   47.2   3.0    74   196    32   156    21   167 0.88 -
PC1A_TRINITY_DN45825_c0_g1_i1.p1PC1A_TRINITY_DN45825_c0_g1  -            109 114420at3193         -            316   1.4e-12   49.1   3.1   1   1     4e-15   1.6e-12   48.9   3.1    84   188     5   105     1   108 0.93 -
PC1A_TRINITY_DN41560_c2_g1_i1.p1PC1A_TRINITY_DN41560_c2_g1  -            121 114420at3193         -            316   1.7e-12   48.9   3.7   1   2   9.1e-09   3.8e-06   28.0   1.6   231   265    28    62     9    63 0.85 -
PC1A_TRINITY_DN41560_c2_g1_i1.p1PC1A_TRINITY_DN41560_c2_g1  -            121 114420at3193         -            316   1.7e-12   48.9   3.7   2   2   5.8e-08   2.4e-05   25.4   0.1    87   135    54   102    52   106 0.92 -
PC3A_TRINITY_DN36528_c5_g1_i8.p1PC3A_TRINITY_DN36528_c5_g1  -            236 114420at3193         -            316   2.3e-12   48.4   3.1   1   2   2.2e-14     9e-12   46.5   1.3    51   188    56   199    11   208 0.78 -
PC3A_TRINITY_DN36528_c5_g1_i8.p1PC3A_TRINITY_DN36528_c5_g1  -            236 114420at3193         -            316   2.3e-12   48.4   3.1   2   2      0.95   3.9e+02    1.7   0.0   241   262   213   233   200   235 0.75 -
PC1J_TRINITY_DN38148_c0_g1_i10.p1PC1J_TRINITY_DN38148_c0_g1 -            183 114420at3193         -            316   2.4e-12   48.4  11.3   1   2   5.3e-10   2.2e-07   32.0   4.2    84   207    13   142     7   156 0.68 -
PC1J_TRINITY_DN38148_c0_g1_i10.p1PC1J_TRINITY_DN38148_c0_g1 -            183 114420at3193         -            316   2.4e-12   48.4  11.3   2   2   1.4e-08   5.6e-06   27.4   0.6    86   186    72   173    64   180 0.82 -
PC2J_TRINITY_DN44433_c2_g1_i35.p1PC2J_TRINITY_DN44433_c2_g1 -            160 114420at3193         -            316   3.6e-12   47.8   2.9   1   2   5.4e-08   2.3e-05   25.4   0.7   232   260    11    39     3    42 0.86 -
PC2J_TRINITY_DN44433_c2_g1_i35.p1PC2J_TRINITY_DN44433_c2_g1 -            160 114420at3193         -            316   3.6e-12   47.8   2.9   2   2     1e-07   4.2e-05   24.6   0.1    87   135    36    84    34    89 0.92 -
PC3A_TRINITY_DN12177_c0_g1_i2.p1PC3A_TRINITY_DN12177_c0_g1  -            219 114420at3193         -            316   4.7e-12   47.4   0.6   1   2   5.3e-10   2.2e-07   32.1   1.3    97   174    17    97     5   104 0.75 -
PC3A_TRINITY_DN12177_c0_g1_i2.p1PC3A_TRINITY_DN12177_c0_g1  -            219 114420at3193         -            316   4.7e-12   47.4   0.6   2   2    0.0004      0.17   12.7   0.0   108   162   125   178   114   186 0.64 -
PC3A_TRINITY_DN40483_c1_g6_i5.p1PC3A_TRINITY_DN40483_c1_g6  -            132 114420at3193         -            316   5.6e-12   47.1   0.2   1   1   3.3e-14   1.4e-11   45.9   0.2    98   193    31   128    27   130 0.92 -
PC3A_TRINITY_DN44041_c1_g1_i3.p1PC3A_TRINITY_DN44041_c1_g1  -            158 114420at3193         -            316   1.1e-11   46.2   0.1   1   1   4.8e-13     2e-10   42.1   0.1    98   192    21   117    10   119 0.88 -
PC2J_TRINITY_DN41503_c1_g1_i1.p1PC2J_TRINITY_DN41503_c1_g1  -            113 114420at3193         -            316   1.1e-11   46.1   0.2   1   1   3.9e-14   1.6e-11   45.6   0.2    89   182     5    99     2   110 0.93 -
PC3J_TRINITY_DN39197_c0_g4_i1.p2PC3J_TRINITY_DN39197_c0_g4  -            106 114420at3193         -            316   6.7e-11   43.6   3.6   1   1   4.4e-13   1.8e-10   42.2   3.4    84   172    17   106     4   106 0.87 -
PC2J_TRINITY_DN38711_c2_g1_i5.p1PC2J_TRINITY_DN38711_c2_g1  -            134 114420at3193         -            316   7.7e-11   43.4   2.6   1   2   7.5e-10   3.1e-07   31.6   0.3   109   188    16    95    10   103 0.91 -
PC2J_TRINITY_DN38711_c2_g1_i5.p1PC2J_TRINITY_DN38711_c2_g1  -            134 114420at3193         -            316   7.7e-11   43.4   2.6   2   2   0.00055      0.23   12.3   0.1   128   155   106   133    97   134 0.89 -
PC1J_TRINITY_DN39725_c3_g1_i21.p1PC1J_TRINITY_DN39725_c3_g1 -            126 114420at3193         -            316     1e-10   43.0   0.8   1   1     1e-12   4.2e-10   41.0   0.8    90   172    40   123    32   126 0.85 -
PC1A_TRINITY_DN40276_c0_g1_i1.p1PC1A_TRINITY_DN40276_c0_g1  -            115 114420at3193         -            316   1.9e-10   42.1   0.1   1   1   5.6e-13   2.3e-10   41.8   0.1   100   196    10   102     7   108 0.94 -
PC3J_TRINITY_DN38768_c0_g4_i1.p1PC3J_TRINITY_DN38768_c0_g4  -            215 114420at3193         -            316   2.6e-10   41.7   0.5   1   1   1.5e-12   6.4e-10   40.4   0.5    56   188    16   155    10   173 0.86 -
PC1A_TRINITY_DN44235_c3_g6_i1.p1PC1A_TRINITY_DN44235_c3_g6  -            157 114420at3193         -            316   3.1e-10   41.4   0.4   1   2    0.0036       1.5    9.6   0.0   240   262     7    29     2    43 0.88 -
PC1A_TRINITY_DN44235_c3_g6_i1.p1PC1A_TRINITY_DN44235_c3_g6  -            157 114420at3193         -            316   3.1e-10   41.4   0.4   2   2   2.6e-09   1.1e-06   29.8   0.1    66   158    59   150    44   156 0.62 -
PC3A_TRINITY_DN40802_c2_g2_i4.p1PC3A_TRINITY_DN40802_c2_g2  -            180 114420at3193         -            316   3.6e-10   41.2   7.0   1   4   0.00055      0.23   12.3   0.3   218   252    57    95    52    96 0.69 -
PC3A_TRINITY_DN40802_c2_g2_i4.p1PC3A_TRINITY_DN40802_c2_g2  -            180 114420at3193         -            316   3.6e-10   41.2   7.0   2   4    0.0075       3.1    8.6   0.1   238   262    94   118    90   121 0.80 -
PC3A_TRINITY_DN40802_c2_g2_i4.p1PC3A_TRINITY_DN40802_c2_g2  -            180 114420at3193         -            316   3.6e-10   41.2   7.0   3   4   0.00085      0.35   11.7   0.1   242   262   123   143   120   145 0.92 -
PC3A_TRINITY_DN40802_c2_g2_i4.p1PC3A_TRINITY_DN40802_c2_g2  -            180 114420at3193         -            316   3.6e-10   41.2   7.0   4   4   0.00042      0.17   12.7   0.2   239   273   145   179   143   180 0.85 -
PC1A_TRINITY_DN39759_c1_g1_i1.p1PC1A_TRINITY_DN39759_c1_g1  -            431 114420at3193         -            316   3.9e-10   41.1   5.3   1   4   0.00076      0.32   11.8   0.6    78   172    18   117     8   134 0.75 -
PC1A_TRINITY_DN39759_c1_g1_i1.p1PC1A_TRINITY_DN39759_c1_g1  -            431 114420at3193         -            316   3.9e-10   41.1   5.3   2   4    0.0084       3.5    8.4   0.0    41   117   164   239   146   243 0.65 -
PC1A_TRINITY_DN39759_c1_g1_i1.p1PC1A_TRINITY_DN39759_c1_g1  -            431 114420at3193         -            316   3.9e-10   41.1   5.3   3   4    0.0008      0.33   11.8   0.0    98   144   256   301   246   316 0.85 -
PC1A_TRINITY_DN39759_c1_g1_i1.p1PC1A_TRINITY_DN39759_c1_g1  -            431 114420at3193         -            316   3.9e-10   41.1   5.3   4   4     0.021       8.7    7.1   0.0   220   288   341   411   337   417 0.63 -
PC1A_TRINITY_DN46514_c0_g1_i1.p1PC1A_TRINITY_DN46514_c0_g1  -            100 114420at3193         -            316     5e-10   40.7   0.1   1   1   1.9e-12   7.7e-10   40.1   0.1    76   169     5   100     1   100 0.91 -
PC1J_TRINITY_DN38148_c0_g1_i11.p1PC1J_TRINITY_DN38148_c0_g1 -            266 114420at3193         -            316   5.7e-10   40.5   3.8   1   2   3.3e-12   1.4e-09   39.3   1.9    50   188    84   229    59   238 0.86 -
PC1J_TRINITY_DN38148_c0_g1_i11.p1PC1J_TRINITY_DN38148_c0_g1 -            266 114420at3193         -            316   5.7e-10   40.5   3.8   2   2       1.5   6.3e+02    1.0   0.0   240   262   242   263   232   265 0.75 -
PC1J_TRINITY_DN36866_c1_g1_i6.p1PC1J_TRINITY_DN36866_c1_g1  -            314 114420at3193         -            316   8.6e-10   40.0   0.1   1   2   2.7e-05     0.011   16.6   0.0   100   163    70   132    44   141 0.83 -
PC1J_TRINITY_DN36866_c1_g1_i6.p1PC1J_TRINITY_DN36866_c1_g1  -            314 114420at3193         -            316   8.6e-10   40.0   0.1   2   2   9.4e-07   0.00039   21.4   0.0    99   167   152   220   146   231 0.90 -
PC1A_TRINITY_DN36943_c0_g1_i1.p1PC1A_TRINITY_DN36943_c0_g1  -            271 114420at3193         -            316   1.1e-09   39.7   1.9   1   1     2e-11   8.1e-09   36.8   1.9    71   273    68   266    39   271 0.77 -
PC1J_TRINITY_DN28924_c0_g1_i1.p1PC1J_TRINITY_DN28924_c0_g1  -            346 114420at3193         -            316   1.5e-09   39.1   6.2   1   4       2.6   1.1e+03    0.2   0.0     9    67    56   118    49   145 0.61 -
PC1J_TRINITY_DN28924_c0_g1_i1.p1PC1J_TRINITY_DN28924_c0_g1  -            346 114420at3193         -            316   1.5e-09   39.1   6.2   2   4       1.6   6.8e+02    0.9   0.0   241   263   191   213   186   221 0.86 -
PC1J_TRINITY_DN28924_c0_g1_i1.p1PC1J_TRINITY_DN28924_c0_g1  -            346 114420at3193         -            316   1.5e-09   39.1   6.2   3   4   4.9e-10     2e-07   32.2   0.0    82   155   222   295   218   298 0.94 -
PC1J_TRINITY_DN28924_c0_g1_i1.p1PC1J_TRINITY_DN28924_c0_g1  -            346 114420at3193         -            316   1.5e-09   39.1   6.2   4   4      0.06        25    5.6   0.2   139   180   300   341   296   343 0.91 -
PC1A_TRINITY_DN41255_c4_g5_i1.p1PC1A_TRINITY_DN41255_c4_g5  -            136 114420at3193         -            316   1.6e-09   39.0   2.3   1   1   1.4e-11   5.8e-09   37.2   2.3    84   208    10   129     4   132 0.73 -
PC2J_TRINITY_DN36022_c2_g1_i6.p1PC2J_TRINITY_DN36022_c2_g1  -            334 114420at3193         -            316   2.4e-09   38.5  13.2   1   3    0.0064       2.6    8.8   0.5   125   169    95   136    92   142 0.56 -
PC2J_TRINITY_DN36022_c2_g1_i6.p1PC2J_TRINITY_DN36022_c2_g1  -            334 114420at3193         -            316   2.4e-09   38.5  13.2   2   3   3.3e-05     0.014   16.3   0.7    99   152   118   176   116   195 0.73 -
PC2J_TRINITY_DN36022_c2_g1_i6.p1PC2J_TRINITY_DN36022_c2_g1  -            334 114420at3193         -            316   2.4e-09   38.5  13.2   3   3   3.9e-07   0.00016   22.6   0.9    71   186   195   312   172   328 0.72 -
PC1A_TRINITY_DN40046_c1_g8_i4.p1PC1A_TRINITY_DN40046_c1_g8  -            436 114420at3193         -            316   2.9e-09   38.2   6.3   1   4      0.11        45    4.8   0.1    74   118    12    58     8   135 0.71 -
PC1A_TRINITY_DN40046_c1_g8_i4.p1PC1A_TRINITY_DN40046_c1_g8  -            436 114420at3193         -            316   2.9e-09   38.2   6.3   2   4   0.00065      0.27   12.0   0.1   227   263   204   241   184   248 0.85 -
PC1A_TRINITY_DN40046_c1_g8_i4.p1PC1A_TRINITY_DN40046_c1_g8  -            436 114420at3193         -            316   2.9e-09   38.2   6.3   3   4   0.00041      0.17   12.7   0.1    98   142   253   296   245   305 0.67 -
PC1A_TRINITY_DN40046_c1_g8_i4.p1PC1A_TRINITY_DN40046_c1_g8  -            436 114420at3193         -            316   2.9e-09   38.2   6.3   4   4   3.4e-05     0.014   16.3   0.0    94   192   274   380   272   400 0.75 -
PC2A_TRINITY_DN29753_c2_g4_i1.p1PC2A_TRINITY_DN29753_c2_g4  -            375 114420at3193         -            316   3.4e-09   38.0   7.0   1   4      0.31   1.3e+02    3.2   0.2    97   174     4    85     1   108 0.46 -
PC2A_TRINITY_DN29753_c2_g4_i1.p1PC2A_TRINITY_DN29753_c2_g4  -            375 114420at3193         -            316   3.4e-09   38.0   7.0   2   4     0.013       5.3    7.8   0.3   217   263   161   208   145   215 0.73 -
PC2A_TRINITY_DN29753_c2_g4_i1.p1PC2A_TRINITY_DN29753_c2_g4  -            375 114420at3193         -            316   3.4e-09   38.0   7.0   3   4     6e-06    0.0025   18.7   0.1    93   144   217   265   212   272 0.86 -
PC2A_TRINITY_DN29753_c2_g4_i1.p1PC2A_TRINITY_DN29753_c2_g4  -            375 114420at3193         -            316   3.4e-09   38.0   7.0   4   4     0.011       4.6    8.0   0.0   126   194   282   349   277   370 0.76 -
PC1J_TRINITY_DN40816_c1_g3_i8.p1PC1J_TRINITY_DN40816_c1_g3  -            189 114420at3193         -            316   3.6e-09   37.9   3.5   1   1   1.1e-11   4.4e-09   37.6   3.5    62   200    11   143     5   170 0.89 -
PC3A_TRINITY_DN42321_c0_g1_i7.p1PC3A_TRINITY_DN42321_c0_g1  -            109 114420at3193         -            316   7.3e-09   36.9   0.0   1   1   2.2e-11     9e-09   36.6   0.0    82   159     6    83     3    92 0.91 -
PC2J_TRINITY_DN37167_c4_g1_i1.p1PC2J_TRINITY_DN37167_c4_g1  -            219 114420at3193         -            316   7.7e-09   36.8   0.3   1   2      0.98     4e+02    1.6   0.0   241   263    90   112    87   120 0.87 -
PC2J_TRINITY_DN37167_c4_g1_i1.p1PC2J_TRINITY_DN37167_c4_g1  -            219 114420at3193         -            316   7.7e-09   36.8   0.3   2   2     3e-10   1.3e-07   32.8   0.1    81   153   120   192   115   210 0.92 -
PC3J_TRINITY_DN28359_c0_g1_i1.p1PC3J_TRINITY_DN28359_c0_g1  -            168 114420at3193         -            316   8.2e-09   36.7   0.4   1   1   6.3e-10   2.6e-07   31.8   0.4    66   180     4   137     1   155 0.48 -
PC3A_TRINITY_DN45058_c0_g1_i1.p1PC3A_TRINITY_DN45058_c0_g1  -            181 114420at3193         -            316   1.3e-08   36.1   0.4   1   2   0.00057      0.24   12.2   0.4    76   153    44   121     5   125 0.68 -
PC3A_TRINITY_DN45058_c0_g1_i1.p1PC3A_TRINITY_DN45058_c0_g1  -            181 114420at3193         -            316   1.3e-08   36.1   0.4   2   2   1.2e-10   5.1e-08   34.1   0.4    23   134    68   176    49   180 0.86 -
PC2J_TRINITY_DN45723_c1_g1_i51.p1PC2J_TRINITY_DN45723_c1_g1 -            287 114420at3193         -            316   1.4e-08   35.9   1.0   1   3       4.4   1.8e+03   -0.5   0.0   243   263    57    77    46   107 0.83 -
PC2J_TRINITY_DN45723_c1_g1_i51.p1PC2J_TRINITY_DN45723_c1_g1 -            287 114420at3193         -            316   1.4e-08   35.9   1.0   2   3   1.4e-09     6e-07   30.6   0.1    71   182    99   212    72   225 0.82 -
PC2J_TRINITY_DN45723_c1_g1_i51.p1PC2J_TRINITY_DN45723_c1_g1 -            287 114420at3193         -            316   1.4e-08   35.9   1.0   3   3      0.36   1.5e+02    3.0   0.1   163   194   254   286   239   287 0.77 -
PC1A_TRINITY_DN25813_c0_g2_i1.p1PC1A_TRINITY_DN25813_c0_g2  -            180 114420at3193         -            316     2e-08   35.5   2.8   1   2   0.00048       0.2   12.5   0.1   134   195     1    64     1    69 0.80 -
PC1A_TRINITY_DN25813_c0_g2_i1.p1PC1A_TRINITY_DN25813_c0_g2  -            180 114420at3193         -            316     2e-08   35.5   2.8   2   2   1.8e-07   7.3e-05   23.8   0.3   101   177    70   148    66   178 0.84 -
PC2A_TRINITY_DN33789_c1_g3_i1.p1PC2A_TRINITY_DN33789_c1_g3  -            109 114420at3193         -            316   2.1e-08   35.4   0.8   1   1   1.1e-10   4.5e-08   34.3   0.8    84   172     6    95     2    97 0.90 -
PC1J_TRINITY_DN32536_c0_g1_i4.p1PC1J_TRINITY_DN32536_c0_g1  -            222 114420at3193         -            316   3.3e-08   34.8   2.9   1   3   0.00023     0.094   13.5   0.1   226   263    53    91    33    98 0.84 -
PC1J_TRINITY_DN32536_c0_g1_i4.p1PC1J_TRINITY_DN32536_c0_g1  -            222 114420at3193         -            316   3.3e-08   34.8   2.9   2   3      0.09        37    5.0   0.1   219   260   102   142    98   150 0.89 -
PC1J_TRINITY_DN32536_c0_g1_i4.p1PC1J_TRINITY_DN32536_c0_g1  -            222 114420at3193         -            316   3.3e-08   34.8   2.9   3   3     7e-05     0.029   15.2   0.0    92   154   150   219   143   222 0.76 -
PC2J_TRINITY_DN45234_c1_g2_i3.p1PC2J_TRINITY_DN45234_c1_g2  -            506 114420at3193         -            316   3.4e-08   34.7   6.4   1   4    0.0082       3.4    8.4   1.4    74   172    40   146    18   158 0.61 -
PC2J_TRINITY_DN45234_c1_g2_i3.p1PC2J_TRINITY_DN45234_c1_g2  -            506 114420at3193         -            316   3.4e-08   34.7   6.4   2   4    0.0029       1.2    9.9   0.0    54   117   205   267   176   269 0.79 -
PC2J_TRINITY_DN45234_c1_g2_i3.p1PC2J_TRINITY_DN45234_c1_g2  -            506 114420at3193         -            316   3.4e-08   34.7   6.4   3   4     0.012       4.8    7.9   0.1   242   281   283   322   280   338 0.65 -
PC2J_TRINITY_DN45234_c1_g2_i3.p1PC2J_TRINITY_DN45234_c1_g2  -            506 114420at3193         -            316   3.4e-08   34.7   6.4   4   4     0.057        24    5.7   0.0   242   294   368   419   344   442 0.70 -
PC1A_TRINITY_DN43665_c4_g2_i3.p1PC1A_TRINITY_DN43665_c4_g2  -            620 114420at3193         -            316   6.4e-08   33.8   3.0   1   4    0.0026       1.1   10.1   0.1    38   154   127   249   119   258 0.81 -
PC1A_TRINITY_DN43665_c4_g2_i3.p1PC1A_TRINITY_DN43665_c4_g2  -            620 114420at3193         -            316   6.4e-08   33.8   3.0   2   4     0.027        11    6.7   0.0    59   117   307   364   288   367 0.70 -
PC1A_TRINITY_DN43665_c4_g2_i3.p1PC1A_TRINITY_DN43665_c4_g2  -            620 114420at3193         -            316   6.4e-08   33.8   3.0   3   4     0.028        12    6.7   0.1    98   142   381   424   378   442 0.62 -
PC1A_TRINITY_DN43665_c4_g2_i3.p1PC1A_TRINITY_DN43665_c4_g2  -            620 114420at3193         -            316   6.4e-08   33.8   3.0   4   4     0.042        17    6.1   0.0   220   265   466   514   452   539 0.68 -
PC1A_TRINITY_DN43121_c0_g2_i3.p1PC1A_TRINITY_DN43121_c0_g2  -            192 114420at3193         -            316   8.6e-08   33.4   6.6   1   2     0.021       8.5    7.1   0.4   242   287     5    54     3    66 0.85 -
PC1A_TRINITY_DN43121_c0_g2_i3.p1PC1A_TRINITY_DN43121_c0_g2  -            192 114420at3193         -            316   8.6e-08   33.4   6.6   2   2   9.7e-09     4e-06   27.9   1.1    86   194    79   189    70   191 0.85 -
PC3J_TRINITY_DN44980_c1_g2_i2.p1PC3J_TRINITY_DN44980_c1_g2  -            280 114420at3193         -            316   1.5e-07   32.6   1.8   1   4   0.00034      0.14   13.0   0.1    53   117    50   113    43   115 0.89 -
PC3J_TRINITY_DN44980_c1_g2_i2.p1PC3J_TRINITY_DN44980_c1_g2  -            280 114420at3193         -            316   1.5e-07   32.6   1.8   2   4    0.0073         3    8.6   0.1   242   274   128   159   125   173 0.56 -
PC3J_TRINITY_DN44980_c1_g2_i2.p1PC3J_TRINITY_DN44980_c1_g2  -            280 114420at3193         -            316   1.5e-07   32.6   1.8   3   4         1   4.2e+02    1.6   0.0   244   272   188   217   180   226 0.72 -
PC3J_TRINITY_DN44980_c1_g2_i2.p1PC3J_TRINITY_DN44980_c1_g2  -            280 114420at3193         -            316   1.5e-07   32.6   1.8   4   4      0.04        16    6.2   0.0   243   293   214   263   212   278 0.65 -
PC1J_TRINITY_DN27904_c0_g2_i2.p2PC1J_TRINITY_DN27904_c0_g2  -            110 114420at3193         -            316   1.5e-07   32.6   0.2   1   1     4e-10   1.7e-07   32.4   0.2    95   192     3    96     1   108 0.89 -
PC1A_TRINITY_DN22354_c0_g1_i2.p1PC1A_TRINITY_DN22354_c0_g1  -            219 114420at3193         -            316   2.7e-07   31.8   0.1   1   1   7.6e-10   3.1e-07   31.5   0.1    50   147    84   185    40   208 0.80 -
PC3J_TRINITY_DN28359_c0_g1_i2.p1PC3J_TRINITY_DN28359_c0_g1  -            102 114420at3193         -            316   3.4e-07   31.4   0.1   1   1   8.5e-10   3.5e-07   31.4   0.1    66   141     4    80     1    96 0.81 -
PC1A_TRINITY_DN42186_c5_g1_i1.p1PC1A_TRINITY_DN42186_c5_g1  -            155 114420at3193         -            316   3.8e-07   31.3   0.6   1   1   1.2e-09   4.8e-07   30.9   0.6   136   248    28   145    17   155 0.81 -
PC2J_TRINITY_DN41503_c1_g1_i11.p1PC2J_TRINITY_DN41503_c1_g1 -            125 114420at3193         -            316   4.6e-07   31.0   0.0   1   1   1.4e-09   5.7e-07   30.7   0.0    98   165    21    88     9    92 0.94 -
PC2J_TRINITY_DN36395_c1_g2_i9.p1PC2J_TRINITY_DN36395_c1_g2  -            415 114420at3193         -            316   5.9e-07   30.6  10.9   1   5    0.0035       1.4    9.6   0.5   138   194   150   202   145   209 0.81 -
PC2J_TRINITY_DN36395_c1_g2_i9.p1PC2J_TRINITY_DN36395_c1_g2  -            415 114420at3193         -            316   5.9e-07   30.6  10.9   2   5      0.19        77    4.0   1.1   142   182   177   216   173   233 0.59 -
PC2J_TRINITY_DN36395_c1_g2_i9.p1PC2J_TRINITY_DN36395_c1_g2  -            415 114420at3193         -            316   5.9e-07   30.6  10.9   3   5     0.032        13    6.5   0.8    85   151   195   266   186   292 0.57 -
PC2J_TRINITY_DN36395_c1_g2_i9.p1PC2J_TRINITY_DN36395_c1_g2  -            415 114420at3193         -            316   5.9e-07   30.6  10.9   4   5    0.0021      0.86   10.4   0.3    85   175   241   334   233   337 0.69 -
PC2J_TRINITY_DN36395_c1_g2_i9.p1PC2J_TRINITY_DN36395_c1_g2  -            415 114420at3193         -            316   5.9e-07   30.6  10.9   5   5   0.00048       0.2   12.5   0.1   133   193   340   396   332   405 0.81 -
PC3J_TRINITY_DN40727_c3_g1_i9.p1PC3J_TRINITY_DN40727_c3_g1  -            150 114420at3193         -            316     6e-07   30.6   1.4   1   2   8.9e-05     0.037   14.9   0.1   226   264    26    65     3    72 0.82 -
PC3J_TRINITY_DN40727_c3_g1_i9.p1PC3J_TRINITY_DN40727_c3_g1  -            150 114420at3193         -            316     6e-07   30.6   1.4   2   2   7.5e-05     0.031   15.1   0.1    98   142    76   119    71   128 0.66 -
PC2J_TRINITY_DN44433_c2_g1_i29.p1PC2J_TRINITY_DN44433_c2_g1 -            192 114420at3193         -            316   8.2e-07   30.2   1.4   1   3   9.6e-09     4e-06   27.9   0.2    88   183     2   108     1   111 0.76 -
PC2J_TRINITY_DN44433_c2_g1_i29.p1PC2J_TRINITY_DN44433_c2_g1 -            192 114420at3193         -            316   8.2e-07   30.2   1.4   2   3      0.11        46    4.7   0.1   138   162    88   112    54   142 0.70 -
PC2J_TRINITY_DN44433_c2_g1_i29.p1PC2J_TRINITY_DN44433_c2_g1 -            192 114420at3193         -            316   8.2e-07   30.2   1.4   3   3       4.6   1.9e+03   -0.6   0.1   135   152   117   134   112   152 0.74 -
PC2A_TRINITY_DN34211_c0_g2_i21.p1PC2A_TRINITY_DN34211_c0_g2 -            127 114420at3193         -            316   9.4e-07   30.0   0.6   1   2   5.2e-09   2.2e-06   28.8   0.2   119   188    21    90     7   103 0.91 -
PC2A_TRINITY_DN34211_c0_g2_i21.p1PC2A_TRINITY_DN34211_c0_g2 -            127 114420at3193         -            316   9.4e-07   30.0   0.6   2   2     0.011       4.4    8.1   0.0    85   141    64   121    58   123 0.81 -
PC3A_TRINITY_DN39356_c0_g1_i1.p1PC3A_TRINITY_DN39356_c0_g1  -            276 114420at3193         -            316   1.5e-06   29.3   5.7   1   4       2.8   1.2e+03    0.1   0.0   130   179     6    56     3    85 0.63 -
PC3A_TRINITY_DN39356_c0_g1_i1.p1PC3A_TRINITY_DN39356_c0_g1  -            276 114420at3193         -            316   1.5e-06   29.3   5.7   2   4       1.6   6.8e+02    0.9   0.1   241   262    88   109    39   116 0.54 -
PC3A_TRINITY_DN39356_c0_g1_i1.p1PC3A_TRINITY_DN39356_c0_g1  -            276 114420at3193         -            316   1.5e-06   29.3   5.7   3   4   2.6e-05     0.011   16.6   0.3    96   188   131   226    70   226 0.80 -
PC3A_TRINITY_DN39356_c0_g1_i1.p1PC3A_TRINITY_DN39356_c0_g1  -            276 114420at3193         -            316   1.5e-06   29.3   5.7   4   4   4.8e-07    0.0002   22.3   1.0   224   289   195   261   128   270 0.55 -
PC1A_TRINITY_DN19399_c0_g1_i1.p1PC1A_TRINITY_DN19399_c0_g1  -            183 114420at3193         -            316   1.5e-06   29.3   4.7   1   3      0.14        59    4.3   0.1   240   267    14    40     6    58 0.77 -
PC1A_TRINITY_DN19399_c0_g1_i1.p1PC1A_TRINITY_DN19399_c0_g1  -            183 114420at3193         -            316   1.5e-06   29.3   4.7   2   3     1e-06   0.00043   21.2   2.0    88   169    52   133    43   138 0.86 -
PC1A_TRINITY_DN19399_c0_g1_i1.p1PC1A_TRINITY_DN19399_c0_g1  -            183 114420at3193         -            316   1.5e-06   29.3   4.7   3   3     0.056        23    5.7   0.1    80   139   121   179   116   183 0.73 -
PC1A_TRINITY_DN40046_c1_g8_i2.p1PC1A_TRINITY_DN40046_c1_g8  -            307 114420at3193         -            316   1.8e-06   29.1   0.0   1   3      0.63   2.6e+02    2.2   0.0    98   119    91   112    85   120 0.70 -
PC1A_TRINITY_DN40046_c1_g8_i2.p1PC1A_TRINITY_DN40046_c1_g8  -            307 114420at3193         -            316   1.8e-06   29.1   0.0   2   3   0.00025       0.1   13.4   0.1    98   142   124   167   118   176 0.66 -
PC1A_TRINITY_DN40046_c1_g8_i2.p1PC1A_TRINITY_DN40046_c1_g8  -            307 114420at3193         -            316   1.8e-06   29.1   0.0   3   3     2e-05    0.0084   17.0   0.0    94   188   145   246   143   263 0.74 -
PC2J_TRINITY_DN45618_c1_g4_i1.p1PC2J_TRINITY_DN45618_c1_g4  -            115 114420at3193         -            316   2.7e-06   28.5   1.3   1   2   1.8e-07   7.3e-05   23.8   0.6   134   205     7    81     2    85 0.84 -
PC2J_TRINITY_DN45618_c1_g4_i1.p1PC2J_TRINITY_DN45618_c1_g4  -            115 114420at3193         -            316   2.7e-06   28.5   1.3   2   2     0.019       7.7    7.3   0.0   243   268    77   102    76   108 0.83 -
PC2J_TRINITY_DN32955_c0_g1_i2.p1PC2J_TRINITY_DN32955_c0_g1  -            122 114420at3193         -            316   2.7e-06   28.5   0.9   1   1   8.1e-09   3.3e-06   28.2   0.9   106   195     8    97     4   107 0.91 -
PC1J_TRINITY_DN34940_c4_g1_i4.p1PC1J_TRINITY_DN34940_c4_g1  -            168 114420at3193         -            316     5e-06   27.6   0.0   1   1   1.7e-08   7.2e-06   27.1   0.0    58   144    22   112    10   122 0.80 -
PC3A_TRINITY_DN43274_c1_g4_i2.p1PC3A_TRINITY_DN43274_c1_g4  -            267 114420at3193         -            316   5.5e-06   27.5   8.9   1   2   3.2e-05     0.013   16.4   0.0    85   154    25    95    15   115 0.87 -
PC3A_TRINITY_DN43274_c1_g4_i2.p1PC3A_TRINITY_DN43274_c1_g4  -            267 114420at3193         -            316   5.5e-06   27.5   8.9   2   2    0.0085       3.5    8.4   6.7   139   247   141   249   134   251 0.63 -
PC3J_TRINITY_DN17502_c0_g1_i1.p1PC3J_TRINITY_DN17502_c0_g1  -            111 114420at3193         -            316   6.5e-06   27.2   0.0   1   1   1.9e-08   7.9e-06   26.9   0.0    83   148     9    73     2    90 0.81 -
PC3A_TRINITY_DN37526_c0_g5_i1.p1PC3A_TRINITY_DN37526_c0_g5  -            149 114420at3193         -            316     9e-06   26.8   0.5   1   2       5.5   2.3e+03   -0.9   0.0   221   235     9    23     6    74 0.63 -
PC3A_TRINITY_DN37526_c0_g5_i1.p1PC3A_TRINITY_DN37526_c0_g5  -            149 114420at3193         -            316     9e-06   26.8   0.5   2   2   6.5e-08   2.7e-05   25.2   0.1    85   148    85   148    75   149 0.90 -
PC3A_TRINITY_DN36401_c2_g1_i14.p1PC3A_TRINITY_DN36401_c2_g1 -            212 114420at3193         -            316   1.2e-05   26.4   0.4   1   3   1.7e-06   0.00071   20.5   0.2   136   292     7   176     3   180 0.71 -
PC3A_TRINITY_DN36401_c2_g1_i14.p1PC3A_TRINITY_DN36401_c2_g1 -            212 114420at3193         -            316   1.2e-05   26.4   0.4   2   3     0.041        17    6.1   0.1   136   183   141   187   125   196 0.76 -
PC3A_TRINITY_DN36401_c2_g1_i14.p1PC3A_TRINITY_DN36401_c2_g1 -            212 114420at3193         -            316   1.2e-05   26.4   0.4   3   3       3.1   1.3e+03   -0.0   0.0   137   152   188   203   184   211 0.79 -
PC2J_TRINITY_DN43696_c0_g1_i10.p1PC2J_TRINITY_DN43696_c0_g1 -            192 114420at3193         -            316   1.4e-05   26.1   0.2   1   3       8.4   3.5e+03   -1.5   0.0   244   261     3    20     1    32 0.69 -
PC2J_TRINITY_DN43696_c0_g1_i10.p1PC2J_TRINITY_DN43696_c0_g1 -            192 114420at3193         -            316   1.4e-05   26.1   0.2   2   3   3.9e-07   0.00016   22.6   0.1    99   167    34   102    28   108 0.90 -
PC2J_TRINITY_DN43696_c0_g1_i10.p1PC2J_TRINITY_DN43696_c0_g1 -            192 114420at3193         -            316   1.4e-05   26.1   0.2   3   3       2.6   1.1e+03    0.2   0.0   135   148   161   174   144   187 0.62 -
PC2A_TRINITY_DN29929_c0_g1_i5.p1PC2A_TRINITY_DN29929_c0_g1  -            290 114420at3193         -            316   1.9e-05   25.7   0.0   1   1     7e-08   2.9e-05   25.1   0.0    59   144    19   108     9   122 0.79 -
PC2J_TRINITY_DN43263_c0_g2_i3.p1PC2J_TRINITY_DN43263_c0_g2  -            117 114420at3193         -            316   3.3e-05   24.9   0.1   1   2    0.0037       1.5    9.6   0.1   226   263    20    58     3    65 0.78 -
PC2J_TRINITY_DN43263_c0_g2_i3.p1PC2J_TRINITY_DN43263_c0_g2  -            117 114420at3193         -            316   3.3e-05   24.9   0.1   2   2    0.0002     0.081   13.8   0.0    93   142    67   116    62   117 0.82 -
PC1J_TRINITY_DN32536_c0_g1_i2.p1PC1J_TRINITY_DN32536_c0_g1  -            174 114420at3193         -            316   3.8e-05   24.7   1.8   1   2   0.00015     0.061   14.2   0.1   226   263    53    91    35    99 0.85 -
PC1J_TRINITY_DN32536_c0_g1_i2.p1PC1J_TRINITY_DN32536_c0_g1  -            174 114420at3193         -            316   3.8e-05   24.7   1.8   2   2    0.0023      0.94   10.3   0.1   219   278   102   158    96   168 0.84 -
PC3J_TRINITY_DN43497_c1_g1_i2.p1PC3J_TRINITY_DN43497_c1_g1  -            183 114420at3193         -            316   5.4e-05   24.2   0.0   1   1   2.8e-07   0.00011   23.1   0.0    98   155   105   162   101   175 0.90 -
PC1A_TRINITY_DN39470_c2_g4_i3.p1PC1A_TRINITY_DN39470_c2_g4  -            431 114420at3193         -            316   6.1e-05   24.0  10.4   1   5       4.5   1.9e+03   -0.6   0.1   135   174    40    81    34    99 0.67 -
PC1A_TRINITY_DN39470_c2_g4_i3.p1PC1A_TRINITY_DN39470_c2_g4  -            431 114420at3193         -            316   6.1e-05   24.0  10.4   2   5   0.00081      0.34   11.7   0.1   138   263   148   204   111   209 0.53 -
PC1A_TRINITY_DN39470_c2_g4_i3.p1PC1A_TRINITY_DN39470_c2_g4  -            431 114420at3193         -            316   6.1e-05   24.0  10.4   3   5     0.017       7.2    7.4   0.1   215   259   209   256   205   265 0.76 -
PC1A_TRINITY_DN39470_c2_g4_i3.p1PC1A_TRINITY_DN39470_c2_g4  -            431 114420at3193         -            316   6.1e-05   24.0  10.4   4   5      0.13        53    4.5   0.0   244   280   276   310   272   321 0.65 -
PC1A_TRINITY_DN39470_c2_g4_i3.p1PC1A_TRINITY_DN39470_c2_g4  -            431 114420at3193         -            316   6.1e-05   24.0  10.4   5   5      0.65   2.7e+02    2.2   0.1    99   161   324   384   311   394 0.75 -
PC2J_TRINITY_DN38796_c3_g1_i1.p1PC2J_TRINITY_DN38796_c3_g1  -            109 114420at3193         -            316    0.0001   23.3   1.6   1   2    0.0021      0.89   10.3   0.1   134   175    12    51     4    61 0.85 -
PC2J_TRINITY_DN38796_c3_g1_i1.p1PC2J_TRINITY_DN38796_c3_g1  -            109 114420at3193         -            316    0.0001   23.3   1.6   2   2   0.00033      0.14   13.0   0.2   134   177    59   100    52   105 0.87 -
PC2J_TRINITY_DN43696_c0_g1_i16.p1PC2J_TRINITY_DN43696_c0_g1 -            157 114420at3193         -            316   0.00012   23.0   0.0   1   1   3.8e-07   0.00016   22.7   0.0   104   167    12    75     4    90 0.86 -
PC1J_TRINITY_DN40230_c0_g1_i1.p1PC1J_TRINITY_DN40230_c0_g1  -            194 114420at3193         -            316   0.00015   22.7   0.1   1   1   4.6e-07   0.00019   22.4   0.1    71   136   117   185    77   194 0.63 -
PC3A_TRINITY_DN36528_c5_g2_i4.p1PC3A_TRINITY_DN36528_c5_g2  -            135 114420at3193         -            316   0.00018   22.5   0.4   1   1   5.5e-07   0.00023   22.1   0.4    52   145    13   113     3   128 0.76 -
PC2J_TRINITY_DN36395_c1_g3_i3.p1PC2J_TRINITY_DN36395_c1_g3  -            194 114420at3193         -            316   0.00019   22.4   0.1   1   1   6.5e-07   0.00027   21.9   0.1   136   244    29   137     4   151 0.81 -
PC1J_TRINITY_DN39528_c0_g2_i4.p1PC1J_TRINITY_DN39528_c0_g2  -            168 114420at3193         -            316   0.00019   22.4   0.5   1   2       6.4   2.6e+03   -1.1   0.0   252   265    13    26     4    50 0.73 -
PC1J_TRINITY_DN39528_c0_g2_i4.p1PC1J_TRINITY_DN39528_c0_g2  -            168 114420at3193         -            316   0.00019   22.4   0.5   2   2   4.5e-06    0.0019   19.1   0.1    92   188    51   154    44   164 0.76 -
PC3A_TRINITY_DN43738_c3_g2_i1.p1PC3A_TRINITY_DN43738_c3_g2  -            313 114420at3193         -            316   0.00021   22.3   0.0   1   1   7.5e-07   0.00031   21.7   0.0    79   155    71   147    21   160 0.80 -
PC2A_TRINITY_DN29872_c1_g1_i3.p1PC2A_TRINITY_DN29872_c1_g1  -            257 114420at3193         -            316   0.00021   22.2   9.9   1   2     0.014       5.8    7.7   7.8   141   278    12   142     3   156 0.70 -
PC2A_TRINITY_DN29872_c1_g1_i3.p1PC2A_TRINITY_DN29872_c1_g1  -            257 114420at3193         -            316   0.00021   22.2   9.9   2   2    0.0005      0.21   12.4   0.0    86   155   167   237   156   246 0.85 -
PC3J_TRINITY_DN44109_c1_g1_i5.p1PC3J_TRINITY_DN44109_c1_g1  -            165 114420at3193         -            316   0.00033   21.6   1.2   1   2    0.0016      0.65   10.8   0.3    85   150    17    76     5   100 0.57 -
PC3J_TRINITY_DN44109_c1_g1_i5.p1PC3J_TRINITY_DN44109_c1_g1  -            165 114420at3193         -            316   0.00033   21.6   1.2   2   2    0.0044       1.8    9.3   0.0   133   181   105   152    82   163 0.76 -
PC2A_TRINITY_DN37634_c0_g1_i1.p1PC2A_TRINITY_DN37634_c0_g1  -            149 114420at3193         -            316   0.00038   21.4   0.8   1   1   6.1e-06    0.0025   18.7   0.7   238   273   106   143   104   148 0.87 -
PC3J_TRINITY_DN45351_c1_g1_i2.p1PC3J_TRINITY_DN45351_c1_g1  -            177 114420at3193         -            316   0.00069   20.6   0.4   1   1   3.6e-06    0.0015   19.5   0.4    86   203    11   130     5   139 0.72 -
PC2A_TRINITY_DN30588_c0_g6_i3.p1PC2A_TRINITY_DN30588_c0_g6  -            157 114420at3193         -            316   0.00072   20.5   0.4   1   1   2.2e-06   0.00091   20.2   0.4   123   228    43   148    27   156 0.58 -
PC1J_TRINITY_DN36006_c0_g2_i1.p1PC1J_TRINITY_DN36006_c0_g2  -            118 114420at3193         -            316   0.00075   20.4   0.1   1   1   2.1e-06   0.00087   20.2   0.1   131   204    33   105     4   112 0.85 -
PC2A_TRINITY_DN32616_c1_g3_i17.p1PC2A_TRINITY_DN32616_c1_g3 -            132 114420at3193         -            316    0.0008   20.3   0.2   1   2     0.011       4.7    8.0   0.0    90   118    12    38     3    40 0.73 -
PC2A_TRINITY_DN32616_c1_g3_i17.p1PC2A_TRINITY_DN32616_c1_g3 -            132 114420at3193         -            316    0.0008   20.3   0.2   2   2    0.0019      0.78   10.5   0.0    98   142    54    97    51   117 0.64 -
PC1J_TRINITY_DN40502_c1_g1_i1.p1PC1J_TRINITY_DN40502_c1_g1  -            104 114420at3193         -            316   0.00084   20.3   0.0   1   2    0.0046       1.9    9.2   0.0    66    96    19    51     6    64 0.76 -
PC1J_TRINITY_DN40502_c1_g1_i1.p1PC1J_TRINITY_DN40502_c1_g1  -            104 114420at3193         -            316   0.00084   20.3   0.0   2   2    0.0034       1.4    9.7   0.0   241   264    65    88    61   103 0.81 -
PC1A_TRINITY_DN43998_c1_g1_i11.p1PC1A_TRINITY_DN43998_c1_g1 -            113 114420at3193         -            316   0.00095   20.1   0.9   1   1   5.2e-06    0.0022   18.9   0.9   142   251     2   106     1   113 0.86 -
PC3A_TRINITY_DN36401_c2_g1_i4.p1PC3A_TRINITY_DN36401_c2_g1  -            171 114420at3193         -            316    0.0014   19.5   0.1   1   1   2.8e-05     0.012   16.5   0.1   136   249    54   168     7   171 0.82 -
PC2A_TRINITY_DN35999_c0_g1_i1.p1PC2A_TRINITY_DN35999_c0_g1  -            158 114420at3193         -            316    0.0015   19.4   3.2   1   2     0.076        32    5.3   0.7   137   200    16    77    11    81 0.63 -
PC2A_TRINITY_DN35999_c0_g1_i1.p1PC2A_TRINITY_DN35999_c0_g1  -            158 114420at3193         -            316    0.0015   19.4   3.2   2   2   0.00016     0.067   14.0   0.1   138   179    89   130    79   139 0.90 -
PC1J_TRINITY_DN32536_c0_g1_i3.p1PC1J_TRINITY_DN32536_c0_g1  -            222 114420at3193         -            316    0.0016   19.4   2.0   1   2   0.00024     0.098   13.5   0.1   227   263    54    91    35    98 0.85 -
PC1J_TRINITY_DN32536_c0_g1_i3.p1PC1J_TRINITY_DN32536_c0_g1  -            222 114420at3193         -            316    0.0016   19.4   2.0   2   2     0.053        22    5.8   0.2   219   262   102   144    97   193 0.85 -
PC1A_TRINITY_DN25813_c0_g1_i1.p1PC1A_TRINITY_DN25813_c0_g1  -            110 114420at3193         -            316    0.0018   19.2   1.2   1   1   4.7e-06     0.002   19.1   1.2    99   168     6    76     2    99 0.70 -
PC3J_TRINITY_DN38369_c0_g2_i4.p1PC3J_TRINITY_DN38369_c0_g2  -            205 114420at3193         -            316    0.0027   18.6   0.2   1   2         6   2.5e+03   -1.0   0.0   281   295    27    41    16    49 0.73 -
PC3J_TRINITY_DN38369_c0_g2_i4.p1PC3J_TRINITY_DN38369_c0_g2  -            205 114420at3193         -            316    0.0027   18.6   0.2   2   2   7.6e-05     0.032   15.1   0.1   137   252    50   166    46   197 0.80 -
PC2J_TRINITY_DN42479_c2_g1_i1.p1PC2J_TRINITY_DN42479_c2_g1  -            135 114420at3193         -            316    0.0034   18.3   0.1   1   1   1.1e-05    0.0044   17.9   0.1   149   185    95   133    82   135 0.86 -
PC2A_TRINITY_DN32616_c1_g3_i12.p1PC2A_TRINITY_DN32616_c1_g3 -            221 114420at3193         -            316    0.0059   17.5   0.3   1   2     0.027        11    6.7   0.0    96   117    22    43     5    46 0.72 -
PC2A_TRINITY_DN32616_c1_g3_i12.p1PC2A_TRINITY_DN32616_c1_g3 -            221 114420at3193         -            316    0.0059   17.5   0.3   2   2    0.0067       2.8    8.7   0.1    98   141    60   102    57   122 0.64 -
PC3J_TRINITY_DN38595_c0_g2_i2.p2PC3J_TRINITY_DN38595_c0_g2  -            187 114420at3193         -            316    0.0066   17.3   3.7   1   3       0.2        81    3.9   0.1   141   177    47    81    34    93 0.78 -
PC3J_TRINITY_DN38595_c0_g2_i2.p2PC3J_TRINITY_DN38595_c0_g2  -            187 114420at3193         -            316    0.0066   17.3   3.7   2   3     0.014       5.8    7.7   0.1   136   176    89   127    82   135 0.88 -
PC3J_TRINITY_DN38595_c0_g2_i2.p2PC3J_TRINITY_DN38595_c0_g2  -            187 114420at3193         -            316    0.0066   17.3   3.7   3   3     0.035        14    6.4   0.1   136   177   136   175   132   184 0.87 -
PC3J_TRINITY_DN44109_c0_g4_i1.p1PC3J_TRINITY_DN44109_c0_g4  -            116 114420at3193         -            316    0.0077   17.1   0.5   1   1   0.00027      0.11   13.3   0.5   138   202    13    73     6    96 0.57 -
PC3J_TRINITY_DN40727_c3_g1_i5.p1PC3J_TRINITY_DN40727_c3_g1  -            105 114420at3193         -            316      0.01   16.7   0.2   1   1   3.6e-05     0.015   16.2   0.1   225   264    25    65     3    76 0.82 -
PC3J_TRINITY_DN33552_c0_g1_i1.p1PC3J_TRINITY_DN33552_c0_g1  -            129 114420at3193         -            316     0.011   16.6   1.3   1   2    0.0015      0.64   10.8   0.2   126   176    35    83     3    89 0.81 -
PC3J_TRINITY_DN33552_c0_g1_i1.p1PC3J_TRINITY_DN33552_c0_g1  -            129 114420at3193         -            316     0.011   16.6   1.3   2   2    0.0013      0.53   11.1   0.6    85   172    46   125    45   127 0.78 -
PC3A_TRINITY_DN28614_c0_g1_i1.p1PC3A_TRINITY_DN28614_c0_g1  -            112 114420at3193         -            316     0.011   16.6   1.4   1   2    0.0012      0.48   11.2   0.1   138   180     3    45     1    47 0.92 -
PC3A_TRINITY_DN28614_c0_g1_i1.p1PC3A_TRINITY_DN28614_c0_g1  -            112 114420at3193         -            316     0.011   16.6   1.4   2   2      0.11        46    4.7   0.2   134   147    56    69    46    97 0.72 -
PC1A_TRINITY_DN43998_c1_g1_i3.p1PC1A_TRINITY_DN43998_c1_g1  -            103 114420at3193         -            316     0.012   16.5   0.2   1   1   3.4e-05     0.014   16.3   0.2   136   197    14    73     4    85 0.87 -
PC1A_TRINITY_DN42186_c5_g2_i1.p1PC1A_TRINITY_DN42186_c5_g2  -            321 114420at3193         -            316     0.014   16.3   2.4   1   2    0.0063       2.6    8.8   0.5   187   264    42   123     2   133 0.57 -
PC1A_TRINITY_DN42186_c5_g2_i1.p1PC1A_TRINITY_DN42186_c5_g2  -            321 114420at3193         -            316     0.014   16.3   2.4   2   2   0.00021     0.085   13.7   1.3    81   309    85   299    67   303 0.76 -
PC3J_TRINITY_DN46594_c0_g3_i3.p1PC3J_TRINITY_DN46594_c0_g3  -            136 114420at3193         -            316     0.016   16.1   2.9   1   2      0.27   1.1e+02    3.4   1.3   129   149    44    64    14    72 0.65 -
PC3J_TRINITY_DN46594_c0_g3_i3.p1PC3J_TRINITY_DN46594_c0_g3  -            136 114420at3193         -            316     0.016   16.1   2.9   2   2   0.00072       0.3   11.9   0.1    71   116    82   129    66   133 0.73 -
PC3J_TRINITY_DN39731_c2_g2_i5.p1PC3J_TRINITY_DN39731_c2_g2  -            301 114420at3193         -            316     0.017   16.0   0.1   1   1       0.1        42    4.8   0.0    86   117   222   253   195   260 0.81 -
PC2A_TRINITY_DN30532_c0_g1_i3.p1PC2A_TRINITY_DN30532_c0_g1  -            160 114420at3193         -            316     0.023   15.6   0.2   1   3       3.4   1.4e+03   -0.2   0.0   138   176     5    41     1    55 0.68 -
PC2A_TRINITY_DN30532_c0_g1_i3.p1PC2A_TRINITY_DN30532_c0_g1  -            160 114420at3193         -            316     0.023   15.6   0.2   2   3      0.21        87    3.8   0.0   137   177    50    88    42    97 0.80 -
PC2A_TRINITY_DN30532_c0_g1_i3.p1PC2A_TRINITY_DN30532_c0_g1  -            160 114420at3193         -            316     0.023   15.6   0.2   3   3    0.0048         2    9.2   0.0   137   182    96   140    88   154 0.81 -
PC2J_TRINITY_DN38366_c0_g1_i4.p1PC2J_TRINITY_DN38366_c0_g1  -            160 114420at3193         -            316     0.031   15.1   6.6   1   3   8.8e-05     0.036   14.9   1.4   108   177    11    73     1    88 0.82 -
PC2J_TRINITY_DN38366_c0_g1_i4.p1PC2J_TRINITY_DN38366_c0_g1  -            160 114420at3193         -            316     0.031   15.1   6.6   2   3       0.9   3.7e+02    1.7   0.1   138   177    82   119    75   134 0.69 -
PC2J_TRINITY_DN38366_c0_g1_i4.p1PC2J_TRINITY_DN38366_c0_g1  -            160 114420at3193         -            316     0.031   15.1   6.6   3   3      0.58   2.4e+02    2.3   0.2   138   187   105   154    97   156 0.68 -
PC2J_TRINITY_DN36395_c1_g3_i2.p1PC2J_TRINITY_DN36395_c1_g3  -            114 114420at3193         -            316     0.031   15.1   0.1   1   1   0.00011     0.045   14.6   0.1   136   184    29    76     7    96 0.81 -
PC2J_TRINITY_DN45234_c1_g1_i2.p1PC2J_TRINITY_DN45234_c1_g1  -            150 114420at3193         -            316     0.044   14.6   0.0   1   2    0.0027       1.1   10.0   0.1    98   142    31    74    26    90 0.64 -
PC2J_TRINITY_DN45234_c1_g1_i2.p1PC2J_TRINITY_DN45234_c1_g1  -            150 114420at3193         -            316     0.044   14.6   0.0   2   2      0.45   1.9e+02    2.7   0.0   100   132    91   124    75   145 0.71 -
PC1A_TRINITY_DN41273_c4_g1_i1.p1PC1A_TRINITY_DN41273_c4_g1  -            125 114420at3193         -            316     0.049   14.5   1.7   1   1   0.00013     0.054   14.3   1.7   171   242    42   116     7   119 0.76 -
PC2A_TRINITY_DN34918_c2_g1_i1.p1PC2A_TRINITY_DN34918_c2_g1  -            121 114420at3193         -            316     0.053   14.4   1.6   1   1   0.00026      0.11   13.3   1.6   130   222    25   119     1   120 0.74 -
PC1A_TRINITY_DN41255_c4_g1_i2.p1PC1A_TRINITY_DN41255_c4_g1  -            211 114420at3193         -            316     0.055   14.3   0.4   1   2   0.00075      0.31   11.8   0.6    23   118    25   118     8   155 0.78 -
PC1A_TRINITY_DN41255_c4_g1_i2.p1PC1A_TRINITY_DN41255_c4_g1  -            211 114420at3193         -            316     0.055   14.3   0.4   2   2       2.7   1.1e+03    0.1   0.0   243   262   135   154   131   169 0.75 -
PC2A_TRINITY_DN34934_c0_g1_i2.p1PC2A_TRINITY_DN34934_c0_g1  -            174 114420at3193         -            316     0.055   14.3   0.0   1   2         8   3.3e+03   -1.4   0.1   126   147    19    42    10    50 0.52 -
PC2A_TRINITY_DN34934_c0_g1_i2.p1PC2A_TRINITY_DN34934_c0_g1  -            174 114420at3193         -            316     0.055   14.3   0.0   2   2   0.00041      0.17   12.7   0.0   106   167    70   130    62   142 0.79 -
PC2A_TRINITY_DN15983_c0_g1_i1.p1PC2A_TRINITY_DN15983_c0_g1  -            150 114420at3193         -            316     0.064   14.1   0.0   1   1   0.00019     0.077   13.8   0.0    17   102    58   145    48   149 0.77 -
PC2A_TRINITY_DN29429_c4_g2_i2.p1PC2A_TRINITY_DN29429_c4_g2  -            121 114420at3193         -            316     0.065   14.1   0.0   1   1   0.00021     0.086   13.7   0.0   124   175    58   111    39   118 0.81 -
PC2J_TRINITY_DN43672_c0_g1_i18.p1PC2J_TRINITY_DN43672_c0_g1 -            102 114420at3193         -            316     0.068   14.0   1.2   1   1   0.00061      0.25   12.1   1.3   122   199    13    86     4    96 0.72 -
PC2A_TRINITY_DN34352_c1_g1_i2.p1PC2A_TRINITY_DN34352_c1_g1  -            167 114420at3193         -            316     0.072   13.9   0.0   1   1   0.00026      0.11   13.4   0.0   220   261    88   133    77   141 0.75 -
PC2J_TRINITY_DN45234_c1_g1_i13.p1PC2J_TRINITY_DN45234_c1_g1 -            173 114420at3193         -            316     0.078   13.8   0.1   1   2    0.0048         2    9.2   0.1    98   141    51    93    49   106 0.58 -
PC2J_TRINITY_DN45234_c1_g1_i13.p1PC2J_TRINITY_DN45234_c1_g1 -            173 114420at3193         -            316     0.078   13.8   0.1   2   2       0.7   2.9e+02    2.1   0.0   100   130   111   142   103   168 0.69 -
PC1J_TRINITY_DN5758_c0_g1_i1.p1PC1J_TRINITY_DN5758_c0_g1    -            102 114420at3193         -            316       0.1   13.5   0.8   1   1   0.00026      0.11   13.4   0.8   139   195     2    56     1    77 0.83 -
PC1J_TRINITY_DN33561_c0_g2_i1.p1PC1J_TRINITY_DN33561_c0_g2  -            119 114420at3193         -            316       0.1   13.4   0.1   1   1   0.00029      0.12   13.2   0.1   125   174    56   107    17   111 0.79 -
PC2A_TRINITY_DN29629_c0_g1_i1.p1PC2A_TRINITY_DN29629_c0_g1  -            177 114420at3193         -            316      0.11   13.3   0.1   1   1   0.00051      0.21   12.4   0.1    95   178    54   134    29   156 0.74 -
PC2A_TRINITY_DN29629_c0_g1_i2.p1PC2A_TRINITY_DN29629_c0_g1  -            202 114420at3193         -            316      0.11   13.3   0.1   1   1    0.0005       0.2   12.4   0.1    97   196    56   150    31   156 0.73 -
PC2A_TRINITY_DN29271_c4_g3_i1.p1PC2A_TRINITY_DN29271_c4_g3  -            103 114420at3193         -            316      0.12   13.2   0.7   1   1   0.00034      0.14   13.0   0.7   209   265    16    71     6    98 0.63 -
PC2A_TRINITY_DN33285_c0_g1_i4.p1PC2A_TRINITY_DN33285_c0_g1  -            136 114420at3193         -            316      0.14   13.0   0.1   1   1   0.00039      0.16   12.8   0.1    80   217    40   103    11   126 0.48 -
PC2J_TRINITY_DN45234_c1_g1_i10.p1PC2J_TRINITY_DN45234_c1_g1 -            161 114420at3193         -            316      0.16   12.8   0.3   1   2       1.4     6e+02    1.0   0.0    98   117    13    32     2    45 0.73 -
PC2J_TRINITY_DN45234_c1_g1_i10.p1PC2J_TRINITY_DN45234_c1_g1 -            161 114420at3193         -            316      0.16   12.8   0.3   2   2    0.0029       1.2    9.9   0.0    59   118    69   127    49   129 0.72 -
PC1A_TRINITY_DN30901_c0_g1_i1.p1PC1A_TRINITY_DN30901_c0_g1  -            134 114420at3193         -            316       0.2   12.5   1.5   1   1    0.0042       1.7    9.4   0.4   132   170    26    63     6    83 0.68 -
PC2J_TRINITY_DN14332_c0_g1_i1.p1PC2J_TRINITY_DN14332_c0_g1  -            167 114420at3193         -            316       0.2   12.5   0.1   1   2       5.4   2.2e+03   -0.8   0.0   139   152    25    38     4    67 0.63 -
PC2J_TRINITY_DN14332_c0_g1_i1.p1PC2J_TRINITY_DN14332_c0_g1  -            167 114420at3193         -            316       0.2   12.5   0.1   2   2    0.0011      0.44   11.4   0.1   137   198    71   136    22   153 0.68 -
PC3J_TRINITY_DN39616_c0_g4_i1.p1PC3J_TRINITY_DN39616_c0_g4  -            106 114420at3193         -            316      0.25   12.1   0.3   1   1    0.0018      0.74   10.6   0.3   133   176    22    64     7    81 0.70 -
PC1A_TRINITY_DN47244_c0_g1_i1.p1PC1A_TRINITY_DN47244_c0_g1  -            223 114420at3193         -            316      0.27   12.1   0.0   1   1   0.00089      0.37   11.6   0.0    33   114   113   196   106   208 0.79 -
PC3A_TRINITY_DN39524_c2_g4_i3.p1PC3A_TRINITY_DN39524_c2_g4  -            124 114420at3193         -            316      0.28   12.0   0.0   1   2      0.33   1.4e+02    3.2   0.0   100   129    45    75    20    85 0.63 -
PC3A_TRINITY_DN39524_c2_g4_i3.p1PC3A_TRINITY_DN39524_c2_g4  -            124 114420at3193         -            316      0.28   12.0   0.0   2   2    0.0092       3.8    8.3   0.0   220   263    70   116    67   122 0.76 -
PC2J_TRINITY_DN35498_c1_g4_i2.p1PC2J_TRINITY_DN35498_c1_g4  -            144 114420at3193         -            316      0.29   11.9   0.8   1   1    0.0013      0.56   11.0   0.6   135   194    13    70     8    78 0.78 -
PC1J_TRINITY_DN33288_c0_g1_i5.p1PC1J_TRINITY_DN33288_c0_g1  -            201 114420at3193         -            316      0.38   11.5   0.2   1   2         5   2.1e+03   -0.7   0.0   237   262     9    34     4    41 0.78 -
PC1J_TRINITY_DN33288_c0_g1_i5.p1PC1J_TRINITY_DN33288_c0_g1  -            201 114420at3193         -            316      0.38   11.5   0.2   2   2     0.015       6.2    7.6   0.2    75   118    65   108    57   145 0.76 -
PC2J_TRINITY_DN39788_c0_g2_i2.p1PC2J_TRINITY_DN39788_c0_g2  -            146 114420at3193         -            316      0.41   11.5   0.0   1   1    0.0027       1.1   10.0   0.0   126   187    71   130    68   139 0.71 -
PC3A_TRINITY_DN36985_c2_g1_i1.p2PC3A_TRINITY_DN36985_c2_g1  -            109 114420at3193         -            316       1.7    9.4   3.4   1   2     0.005       2.1    9.1   0.8    60    95    17    52     6    62 0.73 -
PC3A_TRINITY_DN36985_c2_g1_i1.p2PC3A_TRINITY_DN36985_c2_g1  -            109 114420at3193         -            316       1.7    9.4   3.4   2   2       2.1   8.6e+02    0.5   0.1    84    98    65    79    60    84 0.78 -
#
# Program:         hmmsearch
# Version:         3.2.1 (June 2018)
# Pipeline mode:   SEARCH
# Query file:      /isg/shared/databases/BUSCO/odb10/embryophyta_odb10/hmms/114420at3193.hmm
# Target file:     Pine_final_annotations_no_contam_lvl0.faa
# Option settings: /usr/local/bin/hmmsearch --domtblout /labs/Wegrzyn/Juniper_Pine/BUSCO/NEW/busco_pine/run_embryophyta_odb10/hmmer_output/114420at3193.out --cpu 1 /isg/shared/databases/BUSCO/odb10/embryophyta_odb10/hmms/114420at3193.hmm Pine_final_annotations_no_contam_lvl0.faa 
# Current dir:     /labs/Wegrzyn/Juniper_Pine/BUSCO/NEW
# Date:            Thu Aug  6 14:39:19 2020
# [ok]
