#                                                                                                                    --- full sequence --- -------------- this domain -------------   hmm coord   ali coord   env coord
# target name                                                accession   tlen query name           accession   qlen   E-value  score  bias   #  of  c-Evalue  i-Evalue  score  bias  from    to  from    to  from    to  acc description of target
#                                        ------------------- ---------- ----- -------------------- ---------- ----- --------- ------ ----- --- --- --------- --------- ------ ----- ----- ----- ----- ----- ----- ----- ---- ---------------------
PC2J_TRINITY_DN44977_c4_g1_i16.p1PC2J_TRINITY_DN44977_c4_g1  -            610 11585at3193          -            749  1.9e-222  742.1   0.3   1   1  2.1e-225  2.2e-222  741.9   0.3   213   749     1   609     1   609 0.89 -
PC3J_TRINITY_DN45749_c0_g1_i3.p1PC3J_TRINITY_DN45749_c0_g1   -            416 11585at3193          -            749  1.3e-163  547.6   5.9   1   1  1.4e-166  1.5e-163  547.4   5.9   369   748     2   414     1   415 0.92 -
PC2J_TRINITY_DN44977_c4_g1_i14.p1PC2J_TRINITY_DN44977_c4_g1  -            441 11585at3193          -            749  5.2e-152  509.2   8.2   1   2   3.2e-28   3.4e-25   89.9   0.0   213   297     1   102     1   111 0.83 -
PC2J_TRINITY_DN44977_c4_g1_i14.p1PC2J_TRINITY_DN44977_c4_g1  -            441 11585at3193          -            749  5.2e-152  509.2   8.2   2   2  3.3e-128  3.5e-125  420.6   5.4   445   749   113   440   103   440 0.93 -
PC2J_TRINITY_DN37862_c0_g2_i1.p1PC2J_TRINITY_DN37862_c0_g2   -            285 11585at3193          -            749     9e-93  313.4   0.2   1   1     1e-95   1.1e-92  313.1   0.2   201   435    14   285    10   285 0.87 -
PC2A_TRINITY_DN29892_c0_g5_i6.p2PC2A_TRINITY_DN29892_c0_g5   -            302 11585at3193          -            749   1.3e-91  309.5   0.2   1   2   2.8e-86   2.9e-83  281.9   0.0   273   479    12   250     3   251 0.87 -
PC2A_TRINITY_DN29892_c0_g5_i6.p2PC2A_TRINITY_DN29892_c0_g5   -            302 11585at3193          -            749   1.3e-91  309.5   0.2   2   2   9.1e-10   9.7e-07   28.9   0.3   391   414   249   272   248   282 0.92 -
PC2J_TRINITY_DN44977_c4_g1_i18.p1PC2J_TRINITY_DN44977_c4_g1  -            219 11585at3193          -            749   2.6e-75  255.6   0.2   1   2   1.4e-53   1.5e-50  173.7   0.1   342   444     1   103     1   107 0.98 -
PC2J_TRINITY_DN44977_c4_g1_i18.p1PC2J_TRINITY_DN44977_c4_g1  -            219 11585at3193          -            749   2.6e-75  255.6   0.2   2   2   2.9e-25     3e-22   80.2   0.0   601   675   122   208   117   212 0.88 -
PC3J_TRINITY_DN38032_c0_g1_i1.p1PC3J_TRINITY_DN38032_c0_g1   -            203 11585at3193          -            749   2.2e-74  252.6   4.1   1   1   2.3e-77   2.4e-74  252.4   4.1   452   635     1   200     1   203 0.90 -
PC3J_TRINITY_DN45749_c0_g4_i5.p1PC3J_TRINITY_DN45749_c0_g4   -            206 11585at3193          -            749   2.2e-69  236.1   2.6   1   1   2.7e-72   2.8e-69  235.7   2.6   445   623    16   202    11   205 0.94 -
PC3J_TRINITY_DN45749_c0_g3_i2.p1PC3J_TRINITY_DN45749_c0_g3   -            279 11585at3193          -            749   5.7e-67  228.1   0.0   1   1   7.5e-70   7.9e-67  227.6   0.0   171   375    23   279     1   279 0.83 -
PC3J_TRINITY_DN38544_c0_g2_i1.p1PC3J_TRINITY_DN38544_c0_g2   -            147 11585at3193          -            749   6.1e-58  198.2   0.4   1   2   1.4e-05     0.015   15.0   0.0   343   365     1    23     1    33 0.87 -
PC3J_TRINITY_DN38544_c0_g2_i1.p1PC3J_TRINITY_DN38544_c0_g2   -            147 11585at3193          -            749   6.1e-58  198.2   0.4   2   2   5.2e-56   5.5e-53  181.8   0.1   328   439    36   147    33   147 0.98 -
PC2J_TRINITY_DN37862_c0_g5_i4.p1PC2J_TRINITY_DN37862_c0_g5   -            176 11585at3193          -            749     9e-57  194.3   1.4   1   1     1e-59   1.1e-56  194.1   1.4   595   749     6   175     4   175 0.93 -
PC1A_TRINITY_DN22967_c0_g1_i1.p1PC1A_TRINITY_DN22967_c0_g1   -            187 11585at3193          -            749     2e-55  189.9   0.0   1   1   2.3e-58   2.5e-55  189.6   0.0   172   318     5   181     3   186 0.85 -
PC2J_TRINITY_DN36338_c3_g1_i4.p1PC2J_TRINITY_DN36338_c3_g1   -            206 11585at3193          -            749   1.4e-52  180.5   0.8   1   2     9e-25   9.5e-22   78.5   0.0   232   320     8   116     4   120 0.84 -
PC2J_TRINITY_DN36338_c3_g1_i4.p1PC2J_TRINITY_DN36338_c3_g1   -            206 11585at3193          -            749   1.4e-52  180.5   0.8   2   2   1.7e-31   1.8e-28  100.8   0.5   667   748   120   204   115   205 0.94 -
PC1J_TRINITY_DN40840_c1_g1_i1.p1PC1J_TRINITY_DN40840_c1_g1   -            168 11585at3193          -            749   1.9e-48  166.8   0.2   1   1   2.2e-51   2.3e-48  166.5   0.2   576   707     9   152     3   160 0.92 -
PC2A_TRINITY_DN26789_c0_g1_i1.p1PC2A_TRINITY_DN26789_c0_g1   -            132 11585at3193          -            749     1e-46  161.1   0.3   1   1     1e-49   1.1e-46  161.0   0.3   626   749     1   131     1   131 0.94 -
PC3J_TRINITY_DN41030_c1_g4_i6.p4PC3J_TRINITY_DN41030_c1_g4   -            137 11585at3193          -            749   5.7e-38  132.2   3.3   1   2   5.7e-12   6.1e-09   36.2   0.0   445   480    16    51     9    52 0.95 -
PC3J_TRINITY_DN41030_c1_g4_i6.p4PC3J_TRINITY_DN41030_c1_g4   -            137 11585at3193          -            749   5.7e-38  132.2   3.3   2   2   2.8e-31   2.9e-28  100.1   1.3   391   444    49   102    48   106 0.96 -
PC1A_TRINITY_DN1343_c0_g1_i1.p1PC1A_TRINITY_DN1343_c0_g1     -            118 11585at3193          -            749   2.9e-29  103.4   0.0   1   1   2.8e-32     3e-29  103.3   0.0     1    91     9   102     9   118 0.87 -
PC3J_TRINITY_DN41852_c0_g1_i1.p1PC3J_TRINITY_DN41852_c0_g1   -            165 11585at3193          -            749   8.3e-29  101.9   0.0   1   1   9.7e-32     1e-28  101.6   0.0    14   118     1   117     1   119 0.87 -
PC2J_TRINITY_DN33575_c0_g2_i1.p1PC2J_TRINITY_DN33575_c0_g2   -            112 11585at3193          -            749   1.1e-27   98.2   0.0   1   1   1.1e-30   1.2e-27   98.1   0.0   274   363     4   112     1   112 0.82 -
PC2A_TRINITY_DN29892_c0_g1_i1.p1PC2A_TRINITY_DN29892_c0_g1   -            141 11585at3193          -            749   1.8e-27   97.5   0.6   1   1   1.7e-29   1.8e-26   94.2   0.6   146   222    47   141     1   141 0.85 -
PC1J_TRINITY_DN34565_c2_g2_i1.p1PC1J_TRINITY_DN34565_c2_g2   -            126 11585at3193          -            749     2e-24   87.4   0.2   1   1   2.3e-27   2.5e-24   87.1   0.2   582   663    17   110     9   119 0.87 -
PC2J_TRINITY_DN36338_c3_g1_i2.p1PC2J_TRINITY_DN36338_c3_g1   -            163 11585at3193          -            749   1.9e-17   64.4   0.0   1   1   2.2e-20   2.4e-17   64.0   0.0   232   327     8   120     4   126 0.82 -
PC1A_TRINITY_DN39839_c4_g1_i2.p1PC1A_TRINITY_DN39839_c4_g1   -            144 11585at3193          -            749   3.5e-16   60.2   0.0   1   1   3.6e-19   3.8e-16   60.0   0.0   253   329    12   103     1   115 0.77 -
PC2A_TRINITY_DN28437_c6_g2_i2.p1PC2A_TRINITY_DN28437_c6_g2   -            110 11585at3193          -            749   2.4e-14   54.1   0.0   1   1   3.8e-17     4e-14   53.3   0.0   328   379    48    99     2   106 0.74 -
PC3J_TRINITY_DN42475_c6_g1_i4.p1PC3J_TRINITY_DN42475_c6_g1   -            183 11585at3193          -            749     3e-14   53.8   0.1   1   1   3.2e-17   3.4e-14   53.6   0.1   361   460     9   107     2   135 0.87 -
PC3A_TRINITY_DN44284_c2_g2_i2.p1PC3A_TRINITY_DN44284_c2_g2   -            228 11585at3193          -            749   4.7e-14   53.1   0.0   1   2   1.4e-08   1.5e-05   25.0   0.0   372   463    13   101     3   123 0.81 -
PC3A_TRINITY_DN44284_c2_g2_i2.p1PC3A_TRINITY_DN44284_c2_g2   -            228 11585at3193          -            749   4.7e-14   53.1   0.0   2   2   5.5e-09   5.8e-06   26.4   0.0     7    54   147   194   142   209 0.93 -
PC3A_TRINITY_DN42490_c5_g1_i5.p1PC3A_TRINITY_DN42490_c5_g1   -            104 11585at3193          -            749   1.7e-13   51.3   0.0   1   1   1.7e-16   1.8e-13   51.2   0.0   368   451     4    86     1    98 0.90 -
PC2J_TRINITY_DN37278_c3_g1_i1.p1PC2J_TRINITY_DN37278_c3_g1   -            137 11585at3193          -            749   5.4e-13   49.6   0.0   1   1   5.7e-16   6.1e-13   49.4   0.0   367   446    21    98     5   110 0.91 -
PC2J_TRINITY_DN40976_c0_g1_i16.p1PC2J_TRINITY_DN40976_c0_g1  -            466 11585at3193          -            749   7.7e-13   49.1   0.1   1   2   5.2e-11   5.5e-08   33.0   0.0     3    77   201   276   199   300 0.90 -
PC2J_TRINITY_DN40976_c0_g1_i16.p1PC2J_TRINITY_DN40976_c0_g1  -            466 11585at3193          -            749   7.7e-13   49.1   0.1   2   2   2.9e-05     0.031   14.0   0.0     3    66   359   418   358   443 0.84 -
PC1A_TRINITY_DN40902_c0_g1_i7.p1PC1A_TRINITY_DN40902_c0_g1   -            537 11585at3193          -            749   1.1e-12   48.6   0.1   1   2   6.4e-11   6.8e-08   32.7   0.0     3    77   261   336   259   360 0.90 -
PC1A_TRINITY_DN40902_c0_g1_i7.p1PC1A_TRINITY_DN40902_c0_g1   -            537 11585at3193          -            749   1.1e-12   48.6   0.1   2   2   3.5e-05     0.037   13.8   0.0     3    66   419   478   418   505 0.84 -
PC2J_TRINITY_DN33575_c0_g1_i1.p1PC2J_TRINITY_DN33575_c0_g1   -            111 11585at3193          -            749   3.5e-12   46.9   0.0   1   1   3.9e-15   4.2e-12   46.7   0.0   270   327    30    99    18   104 0.81 -
PC1A_TRINITY_DN40951_c6_g1_i3.p1PC1A_TRINITY_DN40951_c6_g1   -            111 11585at3193          -            749   2.2e-10   41.0   0.1   1   1   2.1e-13   2.2e-10   41.0   0.1   368   438     4    72     1    95 0.92 -
PC1J_TRINITY_DN37933_c8_g1_i1.p1PC1J_TRINITY_DN37933_c8_g1   -            116 11585at3193          -            749     6e-10   39.5   0.0   1   1   6.8e-13   7.2e-10   39.3   0.0     2    90    17   103    13   111 0.74 -
PC2A_TRINITY_DN32748_c2_g2_i6.p1PC2A_TRINITY_DN32748_c2_g2   -            102 11585at3193          -            749   1.8e-08   34.7   0.0   1   1     2e-11   2.1e-08   34.4   0.0     6    76     7    78     5    86 0.90 -
PC2A_TRINITY_DN32748_c2_g2_i5.p1PC2A_TRINITY_DN32748_c2_g2   -            109 11585at3193          -            749   2.2e-08   34.4   0.1   1   1   2.3e-11   2.5e-08   34.2   0.1     6    76     7    78     5    99 0.90 -
PC2A_TRINITY_DN28975_c5_g4_i4.p1PC2A_TRINITY_DN28975_c5_g4   -            186 11585at3193          -            749   2.6e-08   34.1   0.0   1   1     3e-11   3.2e-08   33.8   0.0   364   498    34   172     3   182 0.81 -
PC2A_TRINITY_DN13828_c0_g1_i1.p1PC2A_TRINITY_DN13828_c0_g1   -            156 11585at3193          -            749   7.7e-08   32.6   0.0   1   2   2.6e-06    0.0027   17.5   0.0     3    58    13    68    12    82 0.84 -
PC2A_TRINITY_DN13828_c0_g1_i1.p1PC2A_TRINITY_DN13828_c0_g1   -            156 11585at3193          -            749   7.7e-08   32.6   0.0   2   2   5.2e-05     0.055   13.2   0.0     3    52    86   135    85   145 0.93 -
PC3A_TRINITY_DN42148_c1_g3_i1.p1PC3A_TRINITY_DN42148_c1_g3   -            518 11585at3193          -            749     8e-08   32.5   0.0   1   1   1.1e-10   1.1e-07   32.0   0.0   363   505   288   434   280   444 0.81 -
PC1A_TRINITY_DN7880_c0_g1_i2.p1PC1A_TRINITY_DN7880_c0_g1     -            220 11585at3193          -            749     8e-08   32.5   0.0   1   1   9.7e-11     1e-07   32.1   0.0     3    91   100   188    98   199 0.87 -
PC2J_TRINITY_DN41715_c0_g1_i6.p1PC2J_TRINITY_DN41715_c0_g1   -            178 11585at3193          -            749   3.4e-07   30.4   0.1   1   1   3.8e-10   4.1e-07   30.2   0.1   368   454    66   148    59   171 0.85 -
PC1A_TRINITY_DN39760_c1_g10_i1.p1PC1A_TRINITY_DN39760_c1_g10 -            273 11585at3193          -            749   9.1e-07   29.0   0.0   1   1   1.1e-09   1.1e-06   28.7   0.0     3    73   110   181   101   209 0.78 -
PC2J_TRINITY_DN43881_c1_g4_i1.p1PC2J_TRINITY_DN43881_c1_g4   -            205 11585at3193          -            749   1.7e-06   28.1   0.1   1   1     2e-09   2.1e-06   27.8   0.1     4   443   109   180    93   201 0.59 -
PC3A_TRINITY_DN37283_c1_g1_i2.p1PC3A_TRINITY_DN37283_c1_g1   -            171 11585at3193          -            749   3.2e-06   27.2   0.1   1   1     3e-09   3.2e-06   27.2   0.1     3    87    17   105    15   154 0.79 -
PC3J_TRINITY_DN11327_c0_g1_i1.p2PC3J_TRINITY_DN11327_c0_g1   -            132 11585at3193          -            749     4e-06   26.9   0.1   1   1   2.2e-08   2.3e-05   24.4   0.1   117   172    51   118    48   125 0.76 -
PC3J_TRINITY_DN38611_c4_g4_i2.p1PC3J_TRINITY_DN38611_c4_g4   -            152 11585at3193          -            749   5.2e-06   26.5   0.0   1   1     6e-09   6.4e-06   26.2   0.0   393   461     6    76     3    95 0.83 -
PC3J_TRINITY_DN38544_c0_g1_i4.p1PC3J_TRINITY_DN38544_c0_g1   -            145 11585at3193          -            749   5.9e-06   26.3   1.9   1   1   6.5e-07    0.0007   19.5   1.9   107   174    31   122    23   138 0.66 -
PC1A_TRINITY_DN40902_c0_g1_i1.p1PC1A_TRINITY_DN40902_c0_g1   -            156 11585at3193          -            749   4.2e-05   23.5   0.0   1   1   4.5e-08   4.7e-05   23.3   0.0    25    77     8    61     2    87 0.82 -
PC3A_TRINITY_DN2575_c0_g1_i1.p1PC3A_TRINITY_DN2575_c0_g1     -            124 11585at3193          -            749   0.00015   21.7   0.0   1   1   1.6e-07   0.00017   21.5   0.0   366   467    12   112     8   123 0.82 -
PC3A_TRINITY_DN27097_c0_g2_i1.p1PC3A_TRINITY_DN27097_c0_g2   -            197 11585at3193          -            749    0.0021   17.9   0.0   1   1   2.6e-06    0.0027   17.5   0.0   368   424   140   192   127   196 0.84 -
PC2J_TRINITY_DN36346_c0_g1_i2.p1PC2J_TRINITY_DN36346_c0_g1   -            206 11585at3193          -            749    0.0029   17.4   0.0   1   1   3.5e-06    0.0038   17.1   0.0     3    59    20    76    19   104 0.83 -
PC2A_TRINITY_DN35872_c2_g1_i2.p1PC2A_TRINITY_DN35872_c2_g1   -            213 11585at3193          -            749     0.007   16.2   0.0   1   1   7.1e-06    0.0075   16.1   0.0   393   465    88   162    50   189 0.88 -
PC3A_TRINITY_DN34302_c0_g1_i1.p1PC3A_TRINITY_DN34302_c0_g1   -            109 11585at3193          -            749     0.023   14.4   0.0   1   1   2.5e-05     0.027   14.2   0.0   417   493    23    98    17   105 0.75 -
PC1A_TRINITY_DN39178_c0_g2_i6.p1PC1A_TRINITY_DN39178_c0_g2   -            179 11585at3193          -            749     0.029   14.1   0.0   1   1   3.1e-05     0.033   13.9   0.0   390   492    49   151    21   155 0.64 -
PC3A_TRINITY_DN10585_c0_g1_i1.p1PC3A_TRINITY_DN10585_c0_g1   -            140 11585at3193          -            749     0.034   13.9   0.0   1   1   4.1e-05     0.044   13.5   0.0     3    52    72   121    71   131 0.93 -
PC3J_TRINITY_DN16803_c0_g1_i1.p1PC3J_TRINITY_DN16803_c0_g1   -            111 11585at3193          -            749     0.081   12.6   0.0   1   1   7.7e-05     0.082   12.6   0.0   392   470     2    83     1   105 0.79 -
PC3A_TRINITY_DN42322_c0_g1_i6.p1PC3A_TRINITY_DN42322_c0_g1   -            112 11585at3193          -            749      0.18   11.5   0.0   1   1   0.00017      0.18   11.5   0.0    31    70    19    57    12   103 0.86 -
PC3A_TRINITY_DN41857_c0_g6_i1.p1PC3A_TRINITY_DN41857_c0_g6   -            116 11585at3193          -            749      0.19   11.4   0.0   1   1   0.00019       0.2   11.3   0.0   393   460    29    98     9   113 0.82 -
PC3J_TRINITY_DN38946_c1_g8_i2.p1PC3J_TRINITY_DN38946_c1_g8   -            147 11585at3193          -            749      0.37   10.5   0.0   1   1    0.0004      0.42   10.3   0.0    12    86    20    95     4   102 0.65 -
PC3A_TRINITY_DN35987_c0_g2_i1.p1PC3A_TRINITY_DN35987_c0_g2   -            173 11585at3193          -            749      0.41   10.3   0.0   1   1   0.00046      0.48   10.1   0.0     3    86    80   169    78   172 0.66 -
PC1J_TRINITY_DN31492_c0_g1_i2.p1PC1J_TRINITY_DN31492_c0_g1   -            190 11585at3193          -            749      0.52   10.0   0.0   1   1   0.00053      0.56    9.9   0.0   362   455    35   127    25   165 0.60 -
#
# Program:         hmmsearch
# Version:         3.2.1 (June 2018)
# Pipeline mode:   SEARCH
# Query file:      /isg/shared/databases/BUSCO/odb10/embryophyta_odb10/hmms/11585at3193.hmm
# Target file:     Pine_final_annotations_no_contam_lvl0.faa
# Option settings: /usr/local/bin/hmmsearch --domtblout /labs/Wegrzyn/Juniper_Pine/BUSCO/NEW/busco_pine/run_embryophyta_odb10/hmmer_output/11585at3193.out --cpu 1 /isg/shared/databases/BUSCO/odb10/embryophyta_odb10/hmms/11585at3193.hmm Pine_final_annotations_no_contam_lvl0.faa 
# Current dir:     /labs/Wegrzyn/Juniper_Pine/BUSCO/NEW
# Date:            Thu Aug  6 14:39:33 2020
# [ok]
