#                                                                                                                   --- full sequence --- -------------- this domain -------------   hmm coord   ali coord   env coord
# target name                                               accession   tlen query name           accession   qlen   E-value  score  bias   #  of  c-Evalue  i-Evalue  score  bias  from    to  from    to  from    to  acc description of target
#                                       ------------------- ---------- ----- -------------------- ---------- ----- --------- ------ ----- --- --- --------- --------- ------ ----- ----- ----- ----- ----- ----- ----- ---- ---------------------
PC3J_TRINITY_DN44966_c0_g5_i1.p1PC3J_TRINITY_DN44966_c0_g5  -            116 122450at3193         -            572   1.7e-16   61.7   0.0   1   1   1.5e-19   4.9e-16   60.2   0.0   102   192     6   116     1   116 0.79 -
PC2A_TRINITY_DN27965_c5_g4_i1.p1PC2A_TRINITY_DN27965_c5_g4  -            105 122450at3193         -            572    0.0031   17.9   0.0   1   1   9.3e-07    0.0031   17.9   0.0   379   439    10    67     9   103 0.81 -
PC2J_TRINITY_DN41569_c4_g1_i1.p1PC2J_TRINITY_DN41569_c4_g1  -            336 122450at3193         -            572      0.12   12.7  13.9   1   1   4.2e-05      0.14   12.4  13.9   437   521   251   326   141   336 0.53 -
PC1J_TRINITY_DN36642_c0_g4_i4.p1PC1J_TRINITY_DN36642_c0_g4  -            198 122450at3193         -            572      0.41   10.9  13.9   1   1   0.00014      0.48   10.7  13.9   473   548    99   175    59   184 0.42 -
PC2J_TRINITY_DN34935_c0_g3_i1.p1PC2J_TRINITY_DN34935_c0_g3  -            301 122450at3193         -            572      0.64   10.3   0.1   1   1   0.00025      0.86    9.8   0.1   379   434   163   215   162   226 0.83 -
PC1J_TRINITY_DN38684_c1_g1_i1.p1PC1J_TRINITY_DN38684_c1_g1  -            152 122450at3193         -            572       1.8    8.7   9.2   1   1    0.0007       2.4    8.4   9.2   461   530    60   127     9   139 0.41 -
PC3A_TRINITY_DN41493_c2_g1_i14.p1PC3A_TRINITY_DN41493_c2_g1 -            128 122450at3193         -            572       2.3    8.4  11.0   1   1   0.00072       2.4    8.3  11.0   461   516    27    82     2   104 0.39 -
PC3J_TRINITY_DN45126_c0_g1_i1.p1PC3J_TRINITY_DN45126_c0_g1  -            157 122450at3193         -            572       3.1    8.0  12.4   1   1   0.00095       3.2    7.9  12.4   427   527    61   140    29   156 0.31 -
PC3J_TRINITY_DN48357_c1_g1_i24.p1PC3J_TRINITY_DN48357_c1_g1 -            138 122450at3193         -            572       3.3    7.9  13.1   1   1    0.0011       3.8    7.7  13.1   409   511    11   113     8   132 0.43 -
PC3J_TRINITY_DN32372_c0_g1_i1.p1PC3J_TRINITY_DN32372_c0_g1  -            244 122450at3193         -            572         4    7.6  13.9   1   1    0.0014       4.7    7.4  13.9   462   532   168   229   108   243 0.48 -
PC1A_TRINITY_DN35118_c0_g1_i1.p1PC1A_TRINITY_DN35118_c0_g1  -            137 122450at3193         -            572       4.8    7.3  22.7   1   1    0.0015       5.2    7.3  22.7   410   528    10   130     2   136 0.40 -
PC3A_TRINITY_DN42297_c2_g1_i4.p1PC3A_TRINITY_DN42297_c2_g1  -            159 122450at3193         -            572       4.9    7.3   5.5   1   1    0.0017       5.6    7.1   5.5   478   559    53   130     5   138 0.45 -
PC2A_TRINITY_DN30673_c2_g2_i2.p1PC2A_TRINITY_DN30673_c2_g2  -            137 122450at3193         -            572       6.5    6.9  19.2   1   1    0.0023       7.6    6.7  19.2   451   525    25   101    10   109 0.50 -
PC3J_TRINITY_DN48461_c1_g1_i1.p1PC3J_TRINITY_DN48461_c1_g1  -            161 122450at3193         -            572       7.3    6.8  14.0   1   1    0.0025       8.3    6.6  14.0   449   548    33   133     7   149 0.43 -
PC2J_TRINITY_DN43360_c1_g2_i2.p1PC2J_TRINITY_DN43360_c1_g2  -            125 122450at3193         -            572       7.6    6.7  13.6   1   1    0.0025       8.3    6.6  13.6   410   516    14   118     3   125 0.68 -
PC2J_TRINITY_DN35056_c1_g2_i2.p1PC2J_TRINITY_DN35056_c1_g2  -            127 122450at3193         -            572       7.8    6.7  17.7   1   1    0.0027       9.1    6.4  17.7   454   528    18    92     6   104 0.53 -
PC1J_TRINITY_DN40822_c2_g4_i1.p1PC1J_TRINITY_DN40822_c2_g4  -            192 122450at3193         -            572       7.9    6.6  29.7   1   1     0.003        10    6.3  29.7   436   529    80   186    22   192 0.41 -
PC2A_TRINITY_DN35766_c0_g1_i1.p1PC2A_TRINITY_DN35766_c0_g1  -            105 122450at3193         -            572       8.2    6.6  11.3   1   1    0.0028       9.4    6.4  11.3   408   491    10    89     3    99 0.33 -
PC2J_TRINITY_DN36051_c3_g1_i2.p1PC2J_TRINITY_DN36051_c3_g1  -            337 122450at3193         -            572       9.6    6.4   9.9   1   1    0.0038        13    6.0   9.9   403   543   167   301   155   330 0.50 -
#
# Program:         hmmsearch
# Version:         3.2.1 (June 2018)
# Pipeline mode:   SEARCH
# Query file:      /isg/shared/databases/BUSCO/odb10/embryophyta_odb10/hmms/122450at3193.hmm
# Target file:     Pine_final_annotations_no_contam_lvl0.faa
# Option settings: /usr/local/bin/hmmsearch --domtblout /labs/Wegrzyn/Juniper_Pine/BUSCO/NEW/busco_pine/run_embryophyta_odb10/hmmer_output/122450at3193.out --cpu 1 /isg/shared/databases/BUSCO/odb10/embryophyta_odb10/hmms/122450at3193.hmm Pine_final_annotations_no_contam_lvl0.faa 
# Current dir:     /labs/Wegrzyn/Juniper_Pine/BUSCO/NEW
# Date:            Thu Aug  6 14:40:19 2020
# [ok]
