#                                                                                                                  --- full sequence --- -------------- this domain -------------   hmm coord   ali coord   env coord
# target name                                              accession   tlen query name           accession   qlen   E-value  score  bias   #  of  c-Evalue  i-Evalue  score  bias  from    to  from    to  from    to  acc description of target
#                                      ------------------- ---------- ----- -------------------- ---------- ----- --------- ------ ----- --- --- --------- --------- ------ ----- ----- ----- ----- ----- ----- ----- ---- ---------------------
PC2J_TRINITY_DN8842_c0_g1_i1.p1PC2J_TRINITY_DN8842_c0_g1   -            132 122548at3193         -            289   5.9e-42  145.4   2.4   1   1   2.2e-43   4.6e-39  135.9   2.4    22   121     3   127     2   131 0.80 -
PC1A_TRINITY_DN43416_c4_g4_i1.p1PC1A_TRINITY_DN43416_c4_g4 -            123 122548at3193         -            289      0.19   12.5   0.1   1   1     1e-05      0.21   12.3   0.1    87   178    21   114    16   122 0.88 -
PC2A_TRINITY_DN34400_c4_g1_i1.p1PC2A_TRINITY_DN34400_c4_g1 -            208 122548at3193         -            289      0.53   11.0   0.0   1   1   3.3e-05       0.7   10.6   0.0    61   161    13   125     7   140 0.64 -
#
# Program:         hmmsearch
# Version:         3.2.1 (June 2018)
# Pipeline mode:   SEARCH
# Query file:      /isg/shared/databases/BUSCO/odb10/embryophyta_odb10/hmms/122548at3193.hmm
# Target file:     Pine_final_annotations_no_contam_lvl0.faa
# Option settings: /usr/local/bin/hmmsearch --domtblout /labs/Wegrzyn/Juniper_Pine/BUSCO/NEW/busco_pine/run_embryophyta_odb10/hmmer_output/122548at3193.out --cpu 1 /isg/shared/databases/BUSCO/odb10/embryophyta_odb10/hmms/122548at3193.hmm Pine_final_annotations_no_contam_lvl0.faa 
# Current dir:     /labs/Wegrzyn/Juniper_Pine/BUSCO/NEW
# Date:            Thu Aug  6 14:40:21 2020
# [ok]
