#                                                                                                                   --- full sequence --- -------------- this domain -------------   hmm coord   ali coord   env coord
# target name                                               accession   tlen query name           accession   qlen   E-value  score  bias   #  of  c-Evalue  i-Evalue  score  bias  from    to  from    to  from    to  acc description of target
#                                       ------------------- ---------- ----- -------------------- ---------- ----- --------- ------ ----- --- --- --------- --------- ------ ----- ----- ----- ----- ----- ----- ----- ---- ---------------------
PC3A_TRINITY_DN33584_c0_g1_i1.p1PC3A_TRINITY_DN33584_c0_g1  -            196 12298at3193          -            755    4e-115  387.2   0.0   1   1  1.7e-117  4.5e-115  387.1   0.0   228   418     1   196     1   196 0.98 -
PC1A_TRINITY_DN34163_c0_g1_i2.p1PC1A_TRINITY_DN34163_c0_g1  -            113 12298at3193          -            755     9e-27   95.1   0.1   1   1   3.9e-29     1e-26   94.9   0.1    38   115     1    86     1    92 0.93 -
PC3J_TRINITY_DN40636_c1_g1_i7.p1PC3J_TRINITY_DN40636_c1_g1  -            285 12298at3193          -            755   7.9e-25   88.7   2.9   1   3   7.4e-07    0.0002   21.3   0.0   493   535    11    52     2    61 0.85 -
PC3J_TRINITY_DN40636_c1_g1_i7.p1PC3J_TRINITY_DN40636_c1_g1  -            285 12298at3193          -            755   7.9e-25   88.7   2.9   2   3   2.7e-09     7e-07   29.3   0.1   470   532    77   139    71   151 0.94 -
PC3J_TRINITY_DN40636_c1_g1_i7.p1PC3J_TRINITY_DN40636_c1_g1  -            285 12298at3193          -            755   7.9e-25   88.7   2.9   3   3   2.6e-11   6.8e-09   36.0   0.1   467   535   205   272   145   279 0.72 -
PC1A_TRINITY_DN21053_c0_g1_i1.p1PC1A_TRINITY_DN21053_c0_g1  -            108 12298at3193          -            755   6.3e-24   85.7   0.3   1   1   2.7e-26   7.2e-24   85.5   0.3   655   731    14   107     5   108 0.82 -
PC3A_TRINITY_DN44386_c0_g3_i1.p1PC3A_TRINITY_DN44386_c0_g3  -            105 12298at3193          -            755   1.6e-22   81.0   0.0   1   1   7.4e-25     2e-22   80.8   0.0    42   115    13    94     9   102 0.91 -
PC3J_TRINITY_DN27586_c0_g1_i1.p1PC3J_TRINITY_DN27586_c0_g1  -            278 12298at3193          -            755     2e-22   80.7   0.8   1   4   1.4e-07   3.6e-05   23.7   0.1   499   543    15    59     6    65 0.91 -
PC3J_TRINITY_DN27586_c0_g1_i1.p1PC3J_TRINITY_DN27586_c0_g1  -            278 12298at3193          -            755     2e-22   80.7   0.8   2   4   0.00076       0.2   11.3   0.0   159   230    66   135    59   140 0.65 -
PC3J_TRINITY_DN27586_c0_g1_i1.p1PC3J_TRINITY_DN27586_c0_g1  -            278 12298at3193          -            755     2e-22   80.7   0.8   3   4   1.8e-11   4.9e-09   36.5   0.1   483   533   125   175   123   187 0.92 -
PC3J_TRINITY_DN27586_c0_g1_i1.p1PC3J_TRINITY_DN27586_c0_g1  -            278 12298at3193          -            755     2e-22   80.7   0.8   4   4    0.0041       1.1    8.9   0.0   204   266   202   262   183   272 0.77 -
PC2J_TRINITY_DN35658_c3_g1_i1.p1PC2J_TRINITY_DN35658_c3_g1  -            402 12298at3193          -            755     8e-20   72.1   3.1   1   2   1.2e-15     3e-13   50.4   1.1   413   533    20   157     1   176 0.82 -
PC2J_TRINITY_DN35658_c3_g1_i1.p1PC2J_TRINITY_DN35658_c3_g1  -            402 12298at3193          -            755     8e-20   72.1   3.1   2   2   1.5e-06    0.0004   20.2   0.0   474   534   308   370   289   398 0.79 -
PC1A_TRINITY_DN41112_c0_g6_i1.p1PC1A_TRINITY_DN41112_c0_g6  -            207 12298at3193          -            755   6.1e-19   69.2   0.1   1   4   4.4e-08   1.1e-05   25.3   0.0   483   539     1    57     1    62 0.93 -
PC1A_TRINITY_DN41112_c0_g6_i1.p1PC1A_TRINITY_DN41112_c0_g6  -            207 12298at3193          -            755   6.1e-19   69.2   0.1   2   4   2.2e-06   0.00057   19.7   0.0   498   537    58    97    54   107 0.86 -
PC1A_TRINITY_DN41112_c0_g6_i1.p1PC1A_TRINITY_DN41112_c0_g6  -            207 12298at3193          -            755   6.1e-19   69.2   0.1   3   4    0.0028      0.75    9.4   0.0   509   535   112   138   103   146 0.85 -
PC1A_TRINITY_DN41112_c0_g6_i1.p1PC1A_TRINITY_DN41112_c0_g6  -            207 12298at3193          -            755   6.1e-19   69.2   0.1   4   4    0.0013      0.35   10.5   0.0   473   507   162   197   152   203 0.81 -
PC1A_TRINITY_DN38151_c0_g1_i1.p1PC1A_TRINITY_DN38151_c0_g1  -            325 12298at3193          -            755   1.3e-18   68.1   0.0   1   3   5.8e-07   0.00015   21.6   0.0   469   532   130   193   122   197 0.92 -
PC1A_TRINITY_DN38151_c0_g1_i1.p1PC1A_TRINITY_DN38151_c0_g1  -            325 12298at3193          -            755   1.3e-18   68.1   0.0   2   3   1.8e-07   4.8e-05   23.3   0.0   474   534   177   236   176   242 0.91 -
PC1A_TRINITY_DN38151_c0_g1_i1.p1PC1A_TRINITY_DN38151_c0_g1  -            325 12298at3193          -            755   1.3e-18   68.1   0.0   3   3     1e-07   2.7e-05   24.1   0.0   465   534   251   320   245   325 0.93 -
PC3J_TRINITY_DN40636_c1_g1_i5.p1PC3J_TRINITY_DN40636_c1_g1  -            466 12298at3193          -            755   1.1e-17   65.1   0.8   1   2   6.7e-09   1.8e-06   28.0   0.1   471   532   259   320   253   329 0.95 -
PC3J_TRINITY_DN40636_c1_g1_i5.p1PC3J_TRINITY_DN40636_c1_g1  -            466 12298at3193          -            755   1.1e-17   65.1   0.8   2   2   7.4e-11   1.9e-08   34.5   0.1   468   535   387   453   332   460 0.75 -
PC1A_TRINITY_DN39432_c0_g1_i2.p1PC1A_TRINITY_DN39432_c0_g1  -            357 12298at3193          -            755     2e-17   64.2   0.3   1   3   1.2e-08   3.1e-06   27.2   0.2   436   533    18   129     7   138 0.74 -
PC1A_TRINITY_DN39432_c0_g1_i2.p1PC1A_TRINITY_DN39432_c0_g1  -            357 12298at3193          -            755     2e-17   64.2   0.3   2   3    0.0046       1.2    8.7   0.0   498   533   137   173   131   190 0.88 -
PC1A_TRINITY_DN39432_c0_g1_i2.p1PC1A_TRINITY_DN39432_c0_g1  -            357 12298at3193          -            755     2e-17   64.2   0.3   3   3   7.3e-08   1.9e-05   24.6   0.0   477   535   203   261   199   273 0.92 -
PC2J_TRINITY_DN43377_c1_g5_i2.p1PC2J_TRINITY_DN43377_c1_g5  -            245 12298at3193          -            755   6.2e-17   62.6   0.6   1   3   3.4e-08   8.8e-06   25.7   0.0   470   533     4    68     1    74 0.91 -
PC2J_TRINITY_DN43377_c1_g5_i2.p1PC2J_TRINITY_DN43377_c1_g5  -            245 12298at3193          -            755   6.2e-17   62.6   0.6   2   3   1.6e-08   4.2e-06   26.8   0.1   495   555    72   139    67   173 0.70 -
PC2J_TRINITY_DN43377_c1_g5_i2.p1PC2J_TRINITY_DN43377_c1_g5  -            245 12298at3193          -            755   6.2e-17   62.6   0.6   3   3     0.004       1.1    8.9   0.0   374   462   152   244   130   245 0.76 -
PC3J_TRINITY_DN46767_c0_g1_i2.p1PC3J_TRINITY_DN46767_c0_g1  -            246 12298at3193          -            755   1.2e-16   61.6   1.8   1   3   0.00018     0.048   13.3   0.0   492   541    12    62     8    67 0.87 -
PC3J_TRINITY_DN46767_c0_g1_i2.p1PC3J_TRINITY_DN46767_c0_g1  -            246 12298at3193          -            755   1.2e-16   61.6   1.8   2   3   5.5e-09   1.4e-06   28.3   0.1   492   533   112   152    97   157 0.90 -
PC3J_TRINITY_DN46767_c0_g1_i2.p1PC3J_TRINITY_DN46767_c0_g1  -            246 12298at3193          -            755   1.2e-16   61.6   1.8   3   3     6e-06    0.0016   18.3   0.0   496   566   157   228   152   241 0.83 -
PC2J_TRINITY_DN41723_c0_g2_i2.p1PC2J_TRINITY_DN41723_c0_g2  -            303 12298at3193          -            755   6.5e-16   59.2   0.4   1   2     4e-10   1.1e-07   32.1   0.0   465   564    17   117     6   122 0.93 -
PC2J_TRINITY_DN41723_c0_g2_i2.p1PC2J_TRINITY_DN41723_c0_g2  -            303 12298at3193          -            755   6.5e-16   59.2   0.4   2   2   3.6e-07   9.6e-05   22.3   1.3   137   313   118   298   115   301 0.68 -
PC1A_TRINITY_DN45736_c0_g1_i1.p1PC1A_TRINITY_DN45736_c0_g1  -            113 12298at3193          -            755   7.4e-16   59.0   2.1   1   2   7.7e-06     0.002   17.9   0.1   170   533     8    65     1    69 0.57 -
PC1A_TRINITY_DN45736_c0_g1_i1.p1PC1A_TRINITY_DN45736_c0_g1  -            113 12298at3193          -            755   7.4e-16   59.0   2.1   2   2   1.3e-14   3.5e-12   46.9   0.2   468   534    42   108    39   113 0.94 -
PC1A_TRINITY_DN43042_c1_g2_i1.p1PC1A_TRINITY_DN43042_c1_g2  -            378 12298at3193          -            755   7.9e-16   58.9   1.0   1   4   0.00022     0.058   13.1   0.0   496   561    57   123    47   140 0.80 -
PC1A_TRINITY_DN43042_c1_g2_i1.p1PC1A_TRINITY_DN43042_c1_g2  -            378 12298at3193          -            755   7.9e-16   58.9   1.0   2   4      0.53   1.4e+02    1.9   0.0   497   540   149   193   124   217 0.83 -
PC1A_TRINITY_DN43042_c1_g2_i1.p1PC1A_TRINITY_DN43042_c1_g2  -            378 12298at3193          -            755   7.9e-16   58.9   1.0   3   4   3.7e-07   9.8e-05   22.3   0.0   481   540   224   284   206   288 0.90 -
PC1A_TRINITY_DN43042_c1_g2_i1.p1PC1A_TRINITY_DN43042_c1_g2  -            378 12298at3193          -            755   7.9e-16   58.9   1.0   4   4   1.4e-05    0.0038   17.0   0.0   199   272   296   371   291   375 0.88 -
PC1A_TRINITY_DN44091_c6_g1_i2.p1PC1A_TRINITY_DN44091_c6_g1  -            327 12298at3193          -            755   7.9e-16   58.9   0.0   1   3   5.7e-05     0.015   15.0   0.0   466   555    14   103     5   114 0.86 -
PC1A_TRINITY_DN44091_c6_g1_i2.p1PC1A_TRINITY_DN44091_c6_g1  -            327 12298at3193          -            755   7.9e-16   58.9   0.0   2   3   2.3e-11   5.9e-09   36.2   0.0   464   560   148   247   135   263 0.90 -
PC1A_TRINITY_DN44091_c6_g1_i2.p1PC1A_TRINITY_DN44091_c6_g1  -            327 12298at3193          -            755   7.9e-16   58.9   0.0   3   3      0.13        34    4.0   0.0   187   227   277   316   264   323 0.78 -
PC3J_TRINITY_DN19667_c0_g1_i1.p1PC3J_TRINITY_DN19667_c0_g1  -            237 12298at3193          -            755   9.7e-16   58.6   1.0   1   3     4e-05      0.01   15.6   0.0   506   533     2    29     1    37 0.92 -
PC3J_TRINITY_DN19667_c0_g1_i1.p1PC3J_TRINITY_DN19667_c0_g1  -            237 12298at3193          -            755   9.7e-16   58.6   1.0   2   3     0.031       8.3    6.0   0.0   430   465    37    72    31    88 0.86 -
PC3J_TRINITY_DN19667_c0_g1_i1.p1PC3J_TRINITY_DN19667_c0_g1  -            237 12298at3193          -            755   9.7e-16   58.6   1.0   3   3   8.9e-11   2.4e-08   34.2   0.0   475   540   149   214   140   228 0.91 -
PC1A_TRINITY_DN40324_c4_g1_i4.p1PC1A_TRINITY_DN40324_c4_g1  -            444 12298at3193          -            755   2.7e-14   53.8   1.1   1   3   1.9e-08   5.1e-06   26.5   0.0   200   321   168   284   122   296 0.66 -
PC1A_TRINITY_DN40324_c4_g1_i4.p1PC1A_TRINITY_DN40324_c4_g1  -            444 12298at3193          -            755   2.7e-14   53.8   1.1   2   3   4.5e-06    0.0012   18.7   0.0   468   538   296   365   287   377 0.84 -
PC1A_TRINITY_DN40324_c4_g1_i4.p1PC1A_TRINITY_DN40324_c4_g1  -            444 12298at3193          -            755   2.7e-14   53.8   1.1   3   3     0.028       7.4    6.1   0.1   222   269   399   444   373   444 0.64 -
PC2A_TRINITY_DN33328_c1_g1_i4.p1PC2A_TRINITY_DN33328_c1_g1  -            232 12298at3193          -            755   1.1e-13   51.8   4.8   1   3   2.5e-08   6.7e-06   26.1   0.2   475   543    22    90     9   104 0.90 -
PC2A_TRINITY_DN33328_c1_g1_i4.p1PC2A_TRINITY_DN33328_c1_g1  -            232 12298at3193          -            755   1.1e-13   51.8   4.8   2   3   0.00061      0.16   11.6   0.0   485   533   118   167   109   167 0.92 -
PC2A_TRINITY_DN33328_c1_g1_i4.p1PC2A_TRINITY_DN33328_c1_g1  -            232 12298at3193          -            755   1.1e-13   51.8   4.8   3   3     5e-08   1.3e-05   25.1   0.8   476   543   152   219   140   227 0.91 -
PC2J_TRINITY_DN38512_c0_g2_i8.p1PC2J_TRINITY_DN38512_c0_g2  -            304 12298at3193          -            755   1.4e-13   51.4   1.3   1   2   5.5e-08   1.4e-05   25.0   0.1   467   535    16    84    10    95 0.91 -
PC2J_TRINITY_DN38512_c0_g2_i8.p1PC2J_TRINITY_DN38512_c0_g2  -            304 12298at3193          -            755   1.4e-13   51.4   1.3   2   2   4.1e-08   1.1e-05   25.4   0.2   465   566   125   229   101   243 0.82 -
PC2J_TRINITY_DN44469_c2_g6_i1.p1PC2J_TRINITY_DN44469_c2_g6  -            405 12298at3193          -            755   1.8e-13   51.1   0.3   1   3   0.00095      0.25   11.0   0.1   156   271   160   274   146   276 0.84 -
PC2J_TRINITY_DN44469_c2_g6_i1.p1PC2J_TRINITY_DN44469_c2_g6  -            405 12298at3193          -            755   1.8e-13   51.1   0.3   2   3   3.9e-10     1e-07   32.1   0.0   463   575   246   360   234   362 0.89 -
PC2J_TRINITY_DN44469_c2_g6_i1.p1PC2J_TRINITY_DN44469_c2_g6  -            405 12298at3193          -            755   1.8e-13   51.1   0.3   3   3   3.8e-06     0.001   18.9   0.0   477   534   346   403   331   405 0.85 -
PC3J_TRINITY_DN45182_c1_g1_i16.p1PC3J_TRINITY_DN45182_c1_g1 -            332 12298at3193          -            755   2.8e-13   50.5   2.7   1   3   1.2e-08   3.2e-06   27.2   0.1   198   324    51   173    35   188 0.83 -
PC3J_TRINITY_DN45182_c1_g1_i16.p1PC3J_TRINITY_DN45182_c1_g1 -            332 12298at3193          -            755   2.8e-13   50.5   2.7   2   3   0.00014     0.037   13.7   0.0   476   533   190   246   175   256 0.84 -
PC3J_TRINITY_DN45182_c1_g1_i16.p1PC3J_TRINITY_DN45182_c1_g1 -            332 12298at3193          -            755   2.8e-13   50.5   2.7   3   3    0.0046       1.2    8.7   0.2   209   269   273   330   250   331 0.62 -
PC2A_TRINITY_DN29897_c5_g1_i7.p1PC2A_TRINITY_DN29897_c5_g1  -            106 12298at3193          -            755   3.2e-13   50.3   0.0   1   1   1.3e-15   3.5e-13   50.2   0.0    61   115    33    95    18   103 0.88 -
PC3A_TRINITY_DN40572_c0_g2_i2.p1PC3A_TRINITY_DN40572_c0_g2  -            245 12298at3193          -            755   3.9e-13   50.0   2.1   1   3   9.5e-07   0.00025   20.9   0.2   483   533     3    53     1    65 0.93 -
PC3A_TRINITY_DN40572_c0_g2_i2.p1PC3A_TRINITY_DN40572_c0_g2  -            245 12298at3193          -            755   3.9e-13   50.0   2.1   2   3   1.7e-07   4.5e-05   23.4   0.0   471   597    80   205    69   210 0.78 -
PC3A_TRINITY_DN40572_c0_g2_i2.p1PC3A_TRINITY_DN40572_c0_g2  -            245 12298at3193          -            755   3.9e-13   50.0   2.1   3   3     0.056        15    5.1   0.1   507   533   206   232   194   241 0.83 -
PC1A_TRINITY_DN39873_c0_g1_i1.p1PC1A_TRINITY_DN39873_c0_g1  -            365 12298at3193          -            755   5.8e-13   49.5   7.1   1   5      0.29        77    2.8   0.0   492   532    11    57     6    62 0.76 -
PC1A_TRINITY_DN39873_c0_g1_i1.p1PC1A_TRINITY_DN39873_c0_g1  -            365 12298at3193          -            755   5.8e-13   49.5   7.1   2   5     0.041        11    5.6   0.0   501   533    77   109    70   113 0.91 -
PC1A_TRINITY_DN39873_c0_g1_i1.p1PC1A_TRINITY_DN39873_c0_g1  -            365 12298at3193          -            755   5.8e-13   49.5   7.1   3   5   7.6e-05      0.02   14.6   0.0   472   543    90   163    81   165 0.85 -
PC1A_TRINITY_DN39873_c0_g1_i1.p1PC1A_TRINITY_DN39873_c0_g1  -            365 12298at3193          -            755   5.8e-13   49.5   7.1   4   5   2.3e-09   6.2e-07   29.5   2.8   190   312   116   243   109   248 0.82 -
PC1A_TRINITY_DN39873_c0_g1_i1.p1PC1A_TRINITY_DN39873_c0_g1  -            365 12298at3193          -            755   5.8e-13   49.5   7.1   5   5     0.009       2.4    7.8   0.1   237   273   319   356   267   362 0.64 -
PC3J_TRINITY_DN48225_c3_g1_i20.p1PC3J_TRINITY_DN48225_c3_g1 -            239 12298at3193          -            755   1.3e-12   48.3   0.2   1   4    0.0004       0.1   12.2   0.0   500   532     8    40     2    48 0.90 -
PC3J_TRINITY_DN48225_c3_g1_i20.p1PC3J_TRINITY_DN48225_c3_g1 -            239 12298at3193          -            755   1.3e-12   48.3   0.2   2   4   7.3e-08   1.9e-05   24.6   0.2   467   537    17    87    13    97 0.91 -
PC3J_TRINITY_DN48225_c3_g1_i20.p1PC3J_TRINITY_DN48225_c3_g1 -            239 12298at3193          -            755   1.3e-12   48.3   0.2   3   4      0.33        87    2.6   0.0   237   272   118   153   112   158 0.87 -
PC3J_TRINITY_DN48225_c3_g1_i20.p1PC3J_TRINITY_DN48225_c3_g1 -            239 12298at3193          -            755   1.3e-12   48.3   0.2   4   4     2e-05    0.0053   16.5   0.0   217   273   159   214   153   225 0.74 -
PC3A_TRINITY_DN13729_c0_g1_i1.p1PC3A_TRINITY_DN13729_c0_g1  -            160 12298at3193          -            755   4.6e-12   46.5   0.1   1   2    0.0005      0.13   11.9   0.0   285   315    10    40     3    54 0.77 -
PC3A_TRINITY_DN13729_c0_g1_i1.p1PC3A_TRINITY_DN13729_c0_g1  -            160 12298at3193          -            755   4.6e-12   46.5   0.1   2   2     2e-10   5.3e-08   33.1   0.1   469   534    62   127    44   155 0.82 -
PC1A_TRINITY_DN18594_c0_g1_i1.p1PC1A_TRINITY_DN18594_c0_g1  -            205 12298at3193          -            755   1.1e-11   45.2   0.8   1   2   1.5e-11   3.8e-09   36.8   0.5   409   540     2   148     1   151 0.84 -
PC1A_TRINITY_DN18594_c0_g1_i1.p1PC1A_TRINITY_DN18594_c0_g1  -            205 12298at3193          -            755   1.1e-11   45.2   0.8   2   2    0.0021      0.56    9.8   0.0   180   247   136   203   136   205 0.90 -
PC3A_TRINITY_DN36736_c1_g3_i4.p1PC3A_TRINITY_DN36736_c1_g3  -            386 12298at3193          -            755   2.5e-11   44.1   1.2   1   3   1.8e-08   4.8e-06   26.6   0.1   198   324   103   225    91   238 0.83 -
PC3A_TRINITY_DN36736_c1_g3_i4.p1PC3A_TRINITY_DN36736_c1_g3  -            386 12298at3193          -            755   2.5e-11   44.1   1.2   2   3   0.00017     0.046   13.4   0.0   477   533   243   298   227   309 0.84 -
PC3A_TRINITY_DN36736_c1_g3_i4.p1PC3A_TRINITY_DN36736_c1_g3  -            386 12298at3193          -            755   2.5e-11   44.1   1.2   3   3      0.75     2e+02    1.4   0.0   114   151   314   348   300   356 0.78 -
PC3A_TRINITY_DN36112_c5_g2_i1.p1PC3A_TRINITY_DN36112_c5_g2  -            225 12298at3193          -            755     3e-11   43.8   0.4   1   3   3.2e-06   0.00084   19.2   0.0   496   534    91   129    65   137 0.87 -
PC3A_TRINITY_DN36112_c5_g2_i1.p1PC3A_TRINITY_DN36112_c5_g2  -            225 12298at3193          -            755     3e-11   43.8   0.4   2   3   2.2e-05    0.0059   16.4   0.0   501   532   138   169   131   176 0.91 -
PC3A_TRINITY_DN36112_c5_g2_i1.p1PC3A_TRINITY_DN36112_c5_g2  -            225 12298at3193          -            755     3e-11   43.8   0.4   3   3     0.042        11    5.5   0.0   515   538   200   223   178   225 0.69 -
PC2A_TRINITY_DN29479_c1_g2_i4.p1PC2A_TRINITY_DN29479_c1_g2  -            137 12298at3193          -            755   4.3e-11   43.3   0.1   1   2     1e-08   2.7e-06   27.4   0.0   192   272     3    81     1    85 0.84 -
PC2A_TRINITY_DN29479_c1_g2_i4.p1PC2A_TRINITY_DN29479_c1_g2  -            137 12298at3193          -            755   4.3e-11   43.3   0.1   2   2   0.00011     0.028   14.1   0.0   499   533    88   122    81   132 0.87 -
PC3A_TRINITY_DN36736_c1_g3_i3.p1PC3A_TRINITY_DN36736_c1_g3  -            443 12298at3193          -            755   4.5e-11   43.2   1.2   1   3   2.6e-08   6.9e-06   26.1   0.1   198   324   160   282   148   292 0.83 -
PC3A_TRINITY_DN36736_c1_g3_i3.p1PC3A_TRINITY_DN36736_c1_g3  -            443 12298at3193          -            755   4.5e-11   43.2   1.2   2   3    0.0002     0.054   13.2   0.0   475   533   298   355   280   365 0.84 -
PC3A_TRINITY_DN36736_c1_g3_i3.p1PC3A_TRINITY_DN36736_c1_g3  -            443 12298at3193          -            755   4.5e-11   43.2   1.2   3   3      0.98   2.6e+02    1.0   0.0   116   151   373   405   360   413 0.78 -
PC1J_TRINITY_DN24307_c0_g1_i1.p1PC1J_TRINITY_DN24307_c0_g1  -            145 12298at3193          -            755   5.3e-11   43.0   0.0   1   2   1.3e-09   3.3e-07   30.4   0.0   489   534    10    55     2    62 0.86 -
PC1J_TRINITY_DN24307_c0_g1_i1.p1PC1J_TRINITY_DN24307_c0_g1  -            145 12298at3193          -            755   5.3e-11   43.0   0.0   2   2    0.0011       0.3   10.7   0.0   469   532    72   139    68   143 0.73 -
PC1A_TRINITY_DN41897_c3_g1_i2.p1PC1A_TRINITY_DN41897_c3_g1  -            263 12298at3193          -            755   5.8e-11   42.8   0.1   1   3     0.015       3.9    7.0   0.0   497   533    30    66    19    70 0.90 -
PC1A_TRINITY_DN41897_c3_g1_i2.p1PC1A_TRINITY_DN41897_c3_g1  -            263 12298at3193          -            755   5.8e-11   42.8   0.1   2   3    0.0003      0.08   12.6   0.0   200   295    98   186    83   193 0.76 -
PC1A_TRINITY_DN41897_c3_g1_i2.p1PC1A_TRINITY_DN41897_c3_g1  -            263 12298at3193          -            755   5.8e-11   42.8   0.1   3   3   1.1e-06   0.00029   20.7   0.0   471   539   187   255   176   261 0.92 -
PC1J_TRINITY_DN33525_c0_g1_i1.p1PC1J_TRINITY_DN33525_c0_g1  -            257 12298at3193          -            755   6.9e-11   42.6   1.5   1   3     0.091        24    4.4   0.0   476   534    38    97    24   109 0.66 -
PC1J_TRINITY_DN33525_c0_g1_i1.p1PC1J_TRINITY_DN33525_c0_g1  -            257 12298at3193          -            755   6.9e-11   42.6   1.5   2   3    0.0011      0.28   10.8   0.0   509   555   128   175   120   178 0.73 -
PC1J_TRINITY_DN33525_c0_g1_i1.p1PC1J_TRINITY_DN33525_c0_g1  -            257 12298at3193          -            755   6.9e-11   42.6   1.5   3   3   4.8e-08   1.3e-05   25.2   0.5   475   542   179   246   166   251 0.90 -
PC2A_TRINITY_DN26277_c0_g2_i2.p1PC2A_TRINITY_DN26277_c0_g2  -            257 12298at3193          -            755     9e-11   42.2   0.2   1   1   5.9e-11   1.6e-08   34.8   0.0   456   533    90   167    49   172 0.85 -
PC1J_TRINITY_DN37015_c0_g2_i2.p1PC1J_TRINITY_DN37015_c0_g2  -            387 12298at3193          -            755   1.1e-10   42.0   3.8   1   4     0.081        21    4.6   0.0   512   561    37    90    29   104 0.82 -
PC1J_TRINITY_DN37015_c0_g2_i2.p1PC1J_TRINITY_DN37015_c0_g2  -            387 12298at3193          -            755   1.1e-10   42.0   3.8   2   4   1.7e-05    0.0046   16.7   0.2   477   532   146   202   129   210 0.83 -
PC1J_TRINITY_DN37015_c0_g2_i2.p1PC1J_TRINITY_DN37015_c0_g2  -            387 12298at3193          -            755   1.1e-10   42.0   3.8   3   4     0.033       8.6    5.9   0.0   501   533   217   249   213   254 0.91 -
PC1J_TRINITY_DN37015_c0_g2_i2.p1PC1J_TRINITY_DN37015_c0_g2  -            387 12298at3193          -            755   1.1e-10   42.0   3.8   4   4   0.00039       0.1   12.3   0.0   477   537   319   379   311   383 0.92 -
PC2J_TRINITY_DN38848_c2_g1_i1.p1PC2J_TRINITY_DN38848_c2_g1  -            145 12298at3193          -            755   1.5e-10   41.4   0.4   1   2    0.0027      0.71    9.5   0.0   519   566     5    52     2    62 0.91 -
PC2J_TRINITY_DN38848_c2_g1_i1.p1PC2J_TRINITY_DN38848_c2_g1  -            145 12298at3193          -            755   1.5e-10   41.4   0.4   2   2   1.1e-09   2.8e-07   30.7   0.2   491   542    70   121    54   137 0.85 -
PC2J_TRINITY_DN44110_c0_g3_i6.p1PC2J_TRINITY_DN44110_c0_g3  -            138 12298at3193          -            755   2.1e-10   41.0   2.4   1   1   9.5e-12   2.5e-09   37.4   2.4   431   556     2   129     1   132 0.88 -
PC2J_TRINITY_DN43463_c1_g2_i2.p1PC2J_TRINITY_DN43463_c1_g2  -            220 12298at3193          -            755   2.9e-10   40.5   0.6   1   2   3.9e-09     1e-06   28.8   0.4   466   533    61   128     6   137 0.70 -
PC2J_TRINITY_DN43463_c1_g2_i2.p1PC2J_TRINITY_DN43463_c1_g2  -            220 12298at3193          -            755   2.9e-10   40.5   0.6   2   2   5.1e-05     0.013   15.2   0.1   481   533   118   172   118   176 0.89 -
PC3J_TRINITY_DN46872_c1_g5_i1.p1PC3J_TRINITY_DN46872_c1_g5  -            206 12298at3193          -            755   3.9e-10   40.1   0.2   1   1   1.9e-12   5.1e-10   39.7   0.2   135   277    14   158     6   179 0.86 -
PC2A_TRINITY_DN28987_c8_g1_i3.p1PC2A_TRINITY_DN28987_c8_g1  -            132 12298at3193          -            755   4.3e-10   40.0   0.0   1   2   1.3e-07   3.4e-05   23.8   0.0   194   272     2    78     1    82 0.83 -
PC2A_TRINITY_DN28987_c8_g1_i3.p1PC2A_TRINITY_DN28987_c8_g1  -            132 12298at3193          -            755   4.3e-10   40.0   0.0   2   2   9.6e-05     0.025   14.3   0.1   499   532    85   118    79   128 0.90 -
PC1J_TRINITY_DN37598_c3_g1_i3.p1PC1J_TRINITY_DN37598_c3_g1  -            178 12298at3193          -            755   5.9e-10   39.5   0.3   1   2   0.00011     0.028   14.1   0.0   491   539    53   102    46   104 0.85 -
PC1J_TRINITY_DN37598_c3_g1_i3.p1PC1J_TRINITY_DN37598_c3_g1  -            178 12298at3193          -            755   5.9e-10   39.5   0.3   2   2   1.4e-09   3.7e-07   30.3   0.1   482   536    87   141    81   145 0.93 -
PC2A_TRINITY_DN34224_c0_g1_i2.p1PC2A_TRINITY_DN34224_c0_g1  -            314 12298at3193          -            755     7e-10   39.3   2.3   1   4     0.085        22    4.5   0.0   512   561    35    88    26    95 0.82 -
PC2A_TRINITY_DN34224_c0_g1_i2.p1PC2A_TRINITY_DN34224_c0_g1  -            314 12298at3193          -            755     7e-10   39.3   2.3   2   4   3.4e-06    0.0009   19.1   0.2   476   533   143   201   105   208 0.84 -
PC2A_TRINITY_DN34224_c0_g1_i2.p1PC2A_TRINITY_DN34224_c0_g1  -            314 12298at3193          -            755     7e-10   39.3   2.3   3   4      0.02       5.4    6.6   0.0   501   534   215   248   203   255 0.91 -
PC2A_TRINITY_DN34224_c0_g1_i2.p1PC2A_TRINITY_DN34224_c0_g1  -            314 12298at3193          -            755     7e-10   39.3   2.3   4   4   0.00022     0.058   13.1   0.1   447   512   231   297   217   311 0.82 -
PC3J_TRINITY_DN43232_c4_g1_i3.p1PC3J_TRINITY_DN43232_c4_g1  -            162 12298at3193          -            755   9.9e-10   38.8   0.6   1   2   1.1e-08     3e-06   27.2   0.4   475   532    40    97    24   105 0.89 -
PC3J_TRINITY_DN43232_c4_g1_i3.p1PC3J_TRINITY_DN43232_c4_g1  -            162 12298at3193          -            755   9.9e-10   38.8   0.6   2   2   6.4e-05     0.017   14.9   0.1   482   533    89   142    89   146 0.89 -
PC2J_TRINITY_DN36544_c3_g3_i13.p1PC2J_TRINITY_DN36544_c3_g3 -            394 12298at3193          -            755     1e-09   38.7   1.5   1   2   0.00022     0.058   13.1   0.0   499   533    39    73    35   123 0.88 -
PC2J_TRINITY_DN36544_c3_g3_i13.p1PC2J_TRINITY_DN36544_c3_g3 -            394 12298at3193          -            755     1e-09   38.7   1.5   2   2   2.1e-07   5.6e-05   23.1   0.6   496   540   244   288   156   296 0.81 -
PC1A_TRINITY_DN39867_c0_g5_i1.p1PC1A_TRINITY_DN39867_c0_g5  -            338 12298at3193          -            755   1.1e-09   38.6   0.0   1   2   2.8e-06   0.00075   19.3   0.0   473   543    76   146    68   153 0.84 -
PC1A_TRINITY_DN39867_c0_g5_i1.p1PC1A_TRINITY_DN39867_c0_g5  -            338 12298at3193          -            755   1.1e-09   38.6   0.0   2   2   1.5e-05    0.0039   16.9   0.1   179   262   178   261   163   268 0.84 -
PC3A_TRINITY_DN36596_c1_g5_i2.p1PC3A_TRINITY_DN36596_c1_g5  -            324 12298at3193          -            755   1.6e-09   38.1   4.0   1   2   0.00015     0.039   13.7   0.2   211   272    74   135    42   144 0.57 -
PC3A_TRINITY_DN36596_c1_g5_i2.p1PC3A_TRINITY_DN36596_c1_g5  -            324 12298at3193          -            755   1.6e-09   38.1   4.0   2   2   1.7e-10   4.5e-08   33.3   0.4   136   287    81   236    75   253 0.83 -
PC2A_TRINITY_DN33865_c4_g1_i5.p1PC2A_TRINITY_DN33865_c4_g1  -            199 12298at3193          -            755   2.1e-09   37.7   0.6   1   1   7.5e-11     2e-08   34.5   0.6   138   288    16   170    10   185 0.83 -
PC2J_TRINITY_DN43446_c1_g1_i10.p1PC2J_TRINITY_DN43446_c1_g1 -            357 12298at3193          -            755   3.1e-09   37.1   0.1   1   3   5.1e-06    0.0013   18.5   0.4   133   285    41   194    16   216 0.80 -
PC2J_TRINITY_DN43446_c1_g1_i10.p1PC2J_TRINITY_DN43446_c1_g1 -            357 12298at3193          -            755   3.1e-09   37.1   0.1   2   3   0.00097      0.26   11.0   0.0   471   558   161   246   153   251 0.85 -
PC2J_TRINITY_DN43446_c1_g1_i10.p1PC2J_TRINITY_DN43446_c1_g1 -            357 12298at3193          -            755   3.1e-09   37.1   0.1   3   3   0.00069      0.18   11.5   0.0   479   533   251   305   246   313 0.90 -
PC1J_TRINITY_DN37482_c3_g1_i3.p1PC1J_TRINITY_DN37482_c3_g1  -            361 12298at3193          -            755   3.3e-09   37.0   9.3   1   3      0.22        58    3.2   0.2   509   573    25    90    11    93 0.58 -
PC1J_TRINITY_DN37482_c3_g1_i3.p1PC1J_TRINITY_DN37482_c3_g1  -            361 12298at3193          -            755   3.3e-09   37.0   9.3   2   3   8.4e-06    0.0022   17.8   0.2   468   536   152   218   147   238 0.87 -
PC1J_TRINITY_DN37482_c3_g1_i3.p1PC1J_TRINITY_DN37482_c3_g1  -            361 12298at3193          -            755   3.3e-09   37.0   9.3   3   3     0.013       3.3    7.3   0.1   130   182   241   296   223   355 0.69 -
PC2J_TRINITY_DN44110_c0_g3_i1.p1PC2J_TRINITY_DN44110_c0_g3  -            151 12298at3193          -            755   5.2e-09   36.4   0.0   1   2     0.094        25    4.4   0.0   293   322     5    34     3    44 0.69 -
PC2J_TRINITY_DN44110_c0_g3_i1.p1PC2J_TRINITY_DN44110_c0_g3  -            151 12298at3193          -            755   5.2e-09   36.4   0.0   2   2   1.3e-09   3.4e-07   30.4   0.0   492   533    88   128    54   139 0.90 -
PC3A_TRINITY_DN46162_c0_g1_i1.p1PC3A_TRINITY_DN46162_c0_g1  -            117 12298at3193          -            755   8.6e-09   35.7   0.4   1   2      0.19        49    3.4   0.0   478   525     2    49     1    59 0.85 -
PC3A_TRINITY_DN46162_c0_g1_i1.p1PC3A_TRINITY_DN46162_c0_g1  -            117 12298at3193          -            755   8.6e-09   35.7   0.4   2   2     2e-10   5.3e-08   33.0   0.2   468   534    36   103    14   110 0.79 -
PC1A_TRINITY_DN33957_c0_g1_i1.p1PC1A_TRINITY_DN33957_c0_g1  -            139 12298at3193          -            755   1.3e-08   35.0   0.0   1   1   6.4e-11   1.7e-08   34.7   0.0   470   533    50   113     6   133 0.55 -
PC3A_TRINITY_DN39199_c0_g4_i1.p1PC3A_TRINITY_DN39199_c0_g4  -            239 12298at3193          -            755   1.3e-08   35.0   0.1   1   2   4.8e-06    0.0013   18.6   0.0   167   229    46   116    36   120 0.81 -
PC3A_TRINITY_DN39199_c0_g4_i1.p1PC3A_TRINITY_DN39199_c0_g4  -            239 12298at3193          -            755   1.3e-08   35.0   0.1   2   2   8.3e-05     0.022   14.5   0.0   197   275   134   214   131   233 0.82 -
PC2J_TRINITY_DN27478_c0_g1_i1.p1PC2J_TRINITY_DN27478_c0_g1  -            107 12298at3193          -            755   1.4e-08   34.9   0.0   1   1   6.5e-11   1.7e-08   34.7   0.0   468   536    17    86     7    91 0.90 -
PC1J_TRINITY_DN14248_c0_g1_i2.p1PC1J_TRINITY_DN14248_c0_g1  -            200 12298at3193          -            755   1.5e-08   34.9   0.2   1   3      0.33        87    2.6   0.0   500   532     2    34     1    41 0.90 -
PC1J_TRINITY_DN14248_c0_g1_i2.p1PC1J_TRINITY_DN14248_c0_g1  -            200 12298at3193          -            755   1.5e-08   34.9   0.2   2   3   5.3e-09   1.4e-06   28.4   0.0   465   533    51   122    43   126 0.89 -
PC1J_TRINITY_DN14248_c0_g1_i2.p1PC1J_TRINITY_DN14248_c0_g1  -            200 12298at3193          -            755   1.5e-08   34.9   0.2   3   3       4.1   1.1e+03   -1.0   0.0   508   532   165   189   154   197 0.56 -
PC2J_TRINITY_DN41276_c2_g2_i7.p1PC2J_TRINITY_DN41276_c2_g2  -            279 12298at3193          -            755   1.7e-08   34.7   0.2   1   2   7.4e-05     0.019   14.7   0.0   184   275    45   134    40   140 0.88 -
PC2J_TRINITY_DN41276_c2_g2_i7.p1PC2J_TRINITY_DN41276_c2_g2  -            279 12298at3193          -            755   1.7e-08   34.7   0.2   2   2   1.2e-05    0.0032   17.3   0.2   134   235   158   266   144   278 0.84 -
PC3J_TRINITY_DN45759_c1_g1_i1.p1PC3J_TRINITY_DN45759_c1_g1  -            194 12298at3193          -            755   2.5e-08   34.2   0.0   1   3      0.44   1.1e+02    2.2   0.0   501   531     7    37     4    45 0.91 -
PC3J_TRINITY_DN45759_c1_g1_i1.p1PC3J_TRINITY_DN45759_c1_g1  -            194 12298at3193          -            755   2.5e-08   34.2   0.0   2   3   8.4e-08   2.2e-05   24.4   0.0   497   560    51   114    13   126 0.79 -
PC3J_TRINITY_DN45759_c1_g1_i1.p1PC3J_TRINITY_DN45759_c1_g1  -            194 12298at3193          -            755   2.5e-08   34.2   0.0   3   3      0.05        13    5.3   0.0   187   227   144   183   125   191 0.79 -
PC3J_TRINITY_DN43616_c0_g2_i1.p1PC3J_TRINITY_DN43616_c0_g2  -            100 12298at3193          -            755   2.8e-08   34.0   0.0   1   1   1.2e-10   3.1e-08   33.8   0.0   475   544     7    75     4    96 0.80 -
PC1J_TRINITY_DN20665_c0_g1_i2.p1PC1J_TRINITY_DN20665_c0_g1  -            119 12298at3193          -            755     3e-08   33.9   0.0   1   2   0.00015     0.039   13.7   0.0   510   539     3    32     1    38 0.83 -
PC1J_TRINITY_DN20665_c0_g1_i2.p1PC1J_TRINITY_DN20665_c0_g1  -            119 12298at3193          -            755     3e-08   33.9   0.0   2   2   4.8e-06    0.0013   18.6   0.0   469   532    46   109    39   114 0.90 -
PC3J_TRINITY_DN3053_c0_g1_i1.p1PC3J_TRINITY_DN3053_c0_g1    -            124 12298at3193          -            755   3.5e-08   33.7   0.0   1   2      0.31        82    2.7   0.0   195   528    10    37     4    42 0.46 -
PC3J_TRINITY_DN3053_c0_g1_i1.p1PC3J_TRINITY_DN3053_c0_g1    -            124 12298at3193          -            755   3.5e-08   33.7   0.0   2   2   7.3e-10   1.9e-07   31.2   0.0   432   531    20   124    12   124 0.83 -
PC3A_TRINITY_DN39284_c6_g1_i1.p1PC3A_TRINITY_DN39284_c6_g1  -            543 12298at3193          -            755   4.2e-08   33.4   1.7   1   4      0.13        35    3.9   0.0   501   531    54    84    27    91 0.86 -
PC3A_TRINITY_DN39284_c6_g1_i1.p1PC3A_TRINITY_DN39284_c6_g1  -            543 12298at3193          -            755   4.2e-08   33.4   1.7   2   4   0.00023     0.062   13.0   0.0   164   327    65   227    53   230 0.83 -
PC3A_TRINITY_DN39284_c6_g1_i1.p1PC3A_TRINITY_DN39284_c6_g1  -            543 12298at3193          -            755   4.2e-08   33.4   1.7   3   4     0.034       8.9    5.9   0.0   501   534   230   263   226   268 0.92 -
PC3A_TRINITY_DN39284_c6_g1_i1.p1PC3A_TRINITY_DN39284_c6_g1  -            543 12298at3193          -            755   4.2e-08   33.4   1.7   4   4   0.00079      0.21   11.3   0.0   170   232   462   525   439   542 0.77 -
PC1J_TRINITY_DN38958_c0_g2_i12.p1PC1J_TRINITY_DN38958_c0_g2 -            464 12298at3193          -            755   5.5e-08   33.0   0.0   1   3   0.00058      0.15   11.7   0.0   495   534   262   301   255   308 0.88 -
PC1J_TRINITY_DN38958_c0_g2_i12.p1PC1J_TRINITY_DN38958_c0_g2 -            464 12298at3193          -            755   5.5e-08   33.0   0.0   2   3      0.11        30    4.1   0.0   496   534   308   346   304   351 0.87 -
PC1J_TRINITY_DN38958_c0_g2_i12.p1PC1J_TRINITY_DN38958_c0_g2 -            464 12298at3193          -            755   5.5e-08   33.0   0.0   3   3   1.1e-05    0.0029   17.4   0.0   177   275   337   433   320   453 0.86 -
PC3J_TRINITY_DN40015_c1_g2_i1.p1PC3J_TRINITY_DN40015_c1_g2  -            189 12298at3193          -            755   5.5e-08   33.0   0.4   1   2   3.5e-06   0.00091   19.0   0.0   493   536    37    79    15    98 0.79 -
PC3J_TRINITY_DN40015_c1_g2_i1.p1PC3J_TRINITY_DN40015_c1_g2  -            189 12298at3193          -            755   5.5e-08   33.0   0.4   2   2   0.00033     0.088   12.5   0.1   501   555    85   140    76   143 0.88 -
PC3J_TRINITY_DN44162_c4_g3_i2.p1PC3J_TRINITY_DN44162_c4_g3  -            232 12298at3193          -            755   9.4e-08   32.2   0.8   1   1   7.2e-10   1.9e-07   31.2   0.8   194   321    98   222    79   228 0.78 -
PC3J_TRINITY_DN48359_c2_g1_i3.p2PC3J_TRINITY_DN48359_c2_g1  -            139 12298at3193          -            755   9.6e-08   32.2   0.2   1   2   0.00014     0.036   13.8   0.0   505   533     3    31     1    38 0.85 -
PC3J_TRINITY_DN48359_c2_g1_i3.p2PC3J_TRINITY_DN48359_c2_g1  -            139 12298at3193          -            755   9.6e-08   32.2   0.2   2   2   1.6e-05    0.0043   16.8   0.1   502   533    74   105    66   112 0.90 -
PC1J_TRINITY_DN36259_c3_g5_i1.p1PC1J_TRINITY_DN36259_c3_g5  -            198 12298at3193          -            755     1e-07   32.1   0.0   1   2      0.12        31    4.1   0.0   198   229    21    51     4    57 0.82 -
PC1J_TRINITY_DN36259_c3_g5_i1.p1PC1J_TRINITY_DN36259_c3_g5  -            198 12298at3193          -            755     1e-07   32.1   0.0   2   2   2.4e-08   6.2e-06   26.2   0.0   501   560    64   127    59   141 0.70 -
PC2A_TRINITY_DN17606_c0_g1_i1.p1PC2A_TRINITY_DN17606_c0_g1  -            128 12298at3193          -            755   1.1e-07   32.1   0.4   1   1   1.1e-09     3e-07   30.6   0.4   170   269    14   111     3   115 0.82 -
PC3A_TRINITY_DN3169_c0_g1_i1.p1PC3A_TRINITY_DN3169_c0_g1    -            100 12298at3193          -            755   1.4e-07   31.7   0.1   1   1   5.6e-10   1.5e-07   31.6   0.1   461   539    17    94    10    99 0.88 -
PC3J_TRINITY_DN48253_c2_g1_i1.p1PC3J_TRINITY_DN48253_c2_g1  -            173 12298at3193          -            755     2e-07   31.1   0.0   1   1   9.6e-10   2.5e-07   30.8   0.0   186   320     4   129     1   139 0.85 -
PC1A_TRINITY_DN42120_c1_g1_i7.p1PC1A_TRINITY_DN42120_c1_g1  -            157 12298at3193          -            755   3.5e-07   30.3   0.6   1   2   1.5e-05    0.0039   17.0   0.2   500   566     2    69     1    83 0.88 -
PC1A_TRINITY_DN42120_c1_g1_i7.p1PC1A_TRINITY_DN42120_c1_g1  -            157 12298at3193          -            755   3.5e-07   30.3   0.6   2   2   1.8e-05    0.0047   16.7   0.0   211   310    60   149    39   153 0.81 -
PC3A_TRINITY_DN36903_c2_g3_i2.p1PC3A_TRINITY_DN36903_c2_g3  -            171 12298at3193          -            755   3.6e-07   30.3   0.0   1   1   1.6e-09   4.2e-07   30.1   0.0   476   568    69   161    15   165 0.94 -
PC3A_TRINITY_DN1513_c0_g1_i1.p1PC3A_TRINITY_DN1513_c0_g1    -            112 12298at3193          -            755   4.2e-07   30.1   0.3   1   2   1.1e-07   2.9e-05   24.0   0.0   498   542     2    46     1    62 0.90 -
PC3A_TRINITY_DN1513_c0_g1_i1.p1PC3A_TRINITY_DN1513_c0_g1    -            112 12298at3193          -            755   4.2e-07   30.1   0.3   2   2     0.062        16    5.0   0.0   471   521    62   111    53   112 0.79 -
PC3J_TRINITY_DN48225_c3_g1_i16.p1PC3J_TRINITY_DN48225_c3_g1 -            241 12298at3193          -            755   4.6e-07   29.9   3.1   1   2     0.056        15    5.1   0.1   518   537     4    23     2    28 0.84 -
PC3J_TRINITY_DN48225_c3_g1_i16.p1PC3J_TRINITY_DN48225_c3_g1 -            241 12298at3193          -            755   4.6e-07   29.9   3.1   2   2   4.1e-08   1.1e-05   25.4   0.4   465   566    62   166    37   213 0.82 -
PC2J_TRINITY_DN35263_c0_g1_i1.p1PC2J_TRINITY_DN35263_c0_g1  -            273 12298at3193          -            755   4.8e-07   29.9   0.5   1   1   1.2e-08   3.1e-06   27.2   0.4   430   574    33   191     9   230 0.78 -
PC2J_TRINITY_DN25584_c0_g1_i1.p1PC2J_TRINITY_DN25584_c0_g1  -            145 12298at3193          -            755   5.3e-07   29.8   0.1   1   1   3.1e-09   8.2e-07   29.1   0.1   473   568    41   140    22   145 0.83 -
PC3A_TRINITY_DN38273_c2_g1_i2.p1PC3A_TRINITY_DN38273_c2_g1  -            241 12298at3193          -            755   8.3e-07   29.1   0.2   1   2     0.057        15    5.1   0.0   417   465    78   127    63   135 0.82 -
PC3A_TRINITY_DN38273_c2_g1_i2.p1PC3A_TRINITY_DN38273_c2_g1  -            241 12298at3193          -            755   8.3e-07   29.1   0.2   2   2     4e-07    0.0001   22.2   0.1   196   270   143   217   134   224 0.88 -
PC1A_TRINITY_DN40563_c4_g6_i1.p1PC1A_TRINITY_DN40563_c4_g6  -            407 12298at3193          -            755   9.3e-07   28.9   0.8   1   2   9.6e-07   0.00025   20.9   0.1   465   531   193   263   141   289 0.80 -
PC1A_TRINITY_DN40563_c4_g6_i1.p1PC1A_TRINITY_DN40563_c4_g6  -            407 12298at3193          -            755   9.3e-07   28.9   0.8   2   2       0.7   1.8e+02    1.5   0.0   439   470   330   361   296   373 0.69 -
PC3J_TRINITY_DN44339_c5_g1_i2.p1PC3J_TRINITY_DN44339_c5_g1  -            455 12298at3193          -            755   1.1e-06   28.7   6.5   1   3      0.43   1.1e+02    2.2   0.0   495   533     9    46     4    54 0.86 -
PC3J_TRINITY_DN44339_c5_g1_i2.p1PC3J_TRINITY_DN44339_c5_g1  -            455 12298at3193          -            755   1.1e-06   28.7   6.5   2   3   0.00023      0.06   13.0   0.3   481   531    88   137    78   144 0.81 -
PC3J_TRINITY_DN44339_c5_g1_i2.p1PC3J_TRINITY_DN44339_c5_g1  -            455 12298at3193          -            755   1.1e-06   28.7   6.5   3   3   9.4e-05     0.025   14.3   0.5   132   234   203   301   168   317 0.82 -
PC2A_TRINITY_DN24255_c0_g1_i1.p1PC2A_TRINITY_DN24255_c0_g1  -            140 12298at3193          -            755   1.1e-06   28.7   0.0   1   2    0.0023      0.61    9.7   0.0   498   536    37    75    34    80 0.91 -
PC2A_TRINITY_DN24255_c0_g1_i1.p1PC2A_TRINITY_DN24255_c0_g1  -            140 12298at3193          -            755   1.1e-06   28.7   0.0   2   2   1.9e-07     5e-05   23.2   0.0   466   542    47   123    44   133 0.92 -
PC3A_TRINITY_DN36903_c2_g3_i1.p1PC3A_TRINITY_DN36903_c2_g3  -            204 12298at3193          -            755   1.2e-06   28.6   0.1   1   2   5.5e-07   0.00014   21.7   0.0   476   551    69   144    15   156 0.92 -
PC3A_TRINITY_DN36903_c2_g3_i1.p1PC3A_TRINITY_DN36903_c2_g3  -            204 12298at3193          -            755   1.2e-06   28.6   0.1   2   2      0.05        13    5.3   0.0   497   531   170   204   163   204 0.78 -
PC2J_TRINITY_DN42033_c4_g1_i1.p1PC2J_TRINITY_DN42033_c4_g1  -            133 12298at3193          -            755   1.2e-06   28.6   0.3   1   2   6.5e-06    0.0017   18.1   0.1   498   534     5    41     1    46 0.91 -
PC2J_TRINITY_DN42033_c4_g1_i1.p1PC2J_TRINITY_DN42033_c4_g1  -            133 12298at3193          -            755   1.2e-06   28.6   0.3   2   2    0.0012      0.33   10.6   0.0   490   540    39    89    39   118 0.79 -
PC1A_TRINITY_DN36118_c0_g2_i1.p1PC1A_TRINITY_DN36118_c0_g2  -            195 12298at3193          -            755   1.3e-06   28.5   0.4   1   2    0.0023      0.61    9.7   0.1   476   534    20    78     9    85 0.81 -
PC1A_TRINITY_DN36118_c0_g2_i1.p1PC1A_TRINITY_DN36118_c0_g2  -            195 12298at3193          -            755   1.3e-06   28.5   0.4   2   2   1.4e-05    0.0037   17.0   0.0   470   533    98   164    85   174 0.82 -
PC3J_TRINITY_DN38203_c0_g1_i4.p1PC3J_TRINITY_DN38203_c0_g1  -            209 12298at3193          -            755   1.4e-06   28.3   1.8   1   2   1.6e-06   0.00042   20.2   0.1   463   534    68   142    19   146 0.83 -
PC3J_TRINITY_DN38203_c0_g1_i4.p1PC3J_TRINITY_DN38203_c0_g1  -            209 12298at3193          -            755   1.4e-06   28.3   1.8   2   2     0.058        15    5.1   0.1   500   533   162   196   157   203 0.84 -
PC2A_TRINITY_DN30667_c2_g3_i5.p1PC2A_TRINITY_DN30667_c2_g3  -            599 12298at3193          -            755   1.4e-06   28.3   0.3   1   2   2.3e-05     0.006   16.4   0.2   163   308   166   312   104   332 0.69 -
PC2A_TRINITY_DN30667_c2_g3_i5.p1PC2A_TRINITY_DN30667_c2_g3  -            599 12298at3193          -            755   1.4e-06   28.3   0.3   2   2     0.007       1.9    8.1   0.0   200   301   341   444   330   456 0.76 -
PC1A_TRINITY_DN41924_c2_g4_i2.p1PC1A_TRINITY_DN41924_c2_g4  -            270 12298at3193          -            755   1.5e-06   28.2   0.6   1   1   1.2e-08   3.2e-06   27.2   0.6   423   533   145   270   132   270 0.79 -
PC1A_TRINITY_DN41520_c2_g1_i1.p1PC1A_TRINITY_DN41520_c2_g1  -            190 12298at3193          -            755   1.7e-06   28.1   0.2   1   3      0.23        59    3.1   0.0   511   537     1    27     1    37 0.86 -
PC1A_TRINITY_DN41520_c2_g1_i1.p1PC1A_TRINITY_DN41520_c2_g1  -            190 12298at3193          -            755   1.7e-06   28.1   0.2   2   3   0.00015      0.04   13.6   0.0   499   544    75   120    38   125 0.71 -
PC1A_TRINITY_DN41520_c2_g1_i1.p1PC1A_TRINITY_DN41520_c2_g1  -            190 12298at3193          -            755   1.7e-06   28.1   0.2   3   3    0.0073       1.9    8.1   0.0   510   546   138   174   134   185 0.85 -
PC3J_TRINITY_DN47023_c2_g1_i5.p1PC3J_TRINITY_DN47023_c2_g1  -            459 12298at3193          -            755   1.8e-06   28.0   1.1   1   2      0.06        16    5.0   0.1   484   533   165   219   145   236 0.62 -
PC3J_TRINITY_DN47023_c2_g1_i5.p1PC3J_TRINITY_DN47023_c2_g1  -            459 12298at3193          -            755   1.8e-06   28.0   1.1   2   2   9.2e-07   0.00024   21.0   0.1   143   301   269   436   254   457 0.68 -
PC3J_TRINITY_DN48225_c3_g1_i5.p1PC3J_TRINITY_DN48225_c3_g1  -            373 12298at3193          -            755   2.7e-06   27.4   3.4   1   2      0.09        24    4.5   0.1   518   537     4    23     2    31 0.85 -
PC3J_TRINITY_DN48225_c3_g1_i5.p1PC3J_TRINITY_DN48225_c3_g1  -            373 12298at3193          -            755   2.7e-06   27.4   3.4   2   2   1.4e-07   3.8e-05   23.6   0.4   465   565    62   165    34   180 0.79 -
PC2A_TRINITY_DN34875_c1_g1_i3.p1PC2A_TRINITY_DN34875_c1_g1  -            252 12298at3193          -            755   2.7e-06   27.4   0.3   1   2   0.00068      0.18   11.5   0.0   486   531     2    49     1    88 0.79 -
PC2A_TRINITY_DN34875_c1_g1_i3.p1PC2A_TRINITY_DN34875_c1_g1  -            252 12298at3193          -            755   2.7e-06   27.4   0.3   2   2     8e-05     0.021   14.5   0.2   419   524    94   210    54   220 0.72 -
PC2J_TRINITY_DN43908_c1_g1_i1.p1PC2J_TRINITY_DN43908_c1_g1  -            693 12298at3193          -            755   3.1e-06   27.2   2.3   1   2     0.068        18    4.9   0.1   515   537     8    30     1    40 0.80 -
PC2J_TRINITY_DN43908_c1_g1_i1.p1PC2J_TRINITY_DN43908_c1_g1  -            693 12298at3193          -            755   3.1e-06   27.2   2.3   2   2   4.4e-07   0.00012   22.0   0.4   465   565    69   172    44   184 0.78 -
PC2J_TRINITY_DN40506_c0_g3_i7.p1PC2J_TRINITY_DN40506_c0_g3  -            204 12298at3193          -            755   3.2e-06   27.2   0.3   1   2   1.8e-07   4.7e-05   23.3   0.1   468   545    13    92     9   103 0.85 -
PC2J_TRINITY_DN40506_c0_g3_i7.p1PC2J_TRINITY_DN40506_c0_g3  -            204 12298at3193          -            755   3.2e-06   27.2   0.3   2   2       1.2   3.1e+02    0.7   0.0   202   238   161   196   150   203 0.82 -
PC1J_TRINITY_DN37730_c1_g1_i1.p1PC1J_TRINITY_DN37730_c1_g1  -            275 12298at3193          -            755   3.8e-06   26.9   0.0   1   2   0.00055      0.15   11.8   0.0   471   558    79   164    71   170 0.85 -
PC1J_TRINITY_DN37730_c1_g1_i1.p1PC1J_TRINITY_DN37730_c1_g1  -            275 12298at3193          -            755   3.8e-06   26.9   0.0   2   2   0.00038     0.099   12.3   0.0   478   533   168   223   162   231 0.90 -
PC3A_TRINITY_DN41611_c1_g4_i2.p1PC3A_TRINITY_DN41611_c1_g4  -            191 12298at3193          -            755   3.9e-06   26.9   2.2   1   1   1.9e-07     5e-05   23.2   2.6   223   312    74   169    51   174 0.79 -
PC1J_TRINITY_DN38772_c0_g2_i4.p1PC1J_TRINITY_DN38772_c0_g2  -            129 12298at3193          -            755   3.9e-06   26.9   0.3   1   2      0.84   2.2e+02    1.3   0.0   512   535    35    58    16    70 0.64 -
PC1J_TRINITY_DN38772_c0_g2_i4.p1PC1J_TRINITY_DN38772_c0_g2  -            129 12298at3193          -            755   3.9e-06   26.9   0.3   2   2   1.1e-07   2.9e-05   24.0   0.1   497   535    70   108    56   115 0.89 -
PC1J_TRINITY_DN36258_c0_g1_i3.p1PC1J_TRINITY_DN36258_c0_g1  -            112 12298at3193          -            755     4e-06   26.8   0.0   1   1   1.7e-08   4.5e-06   26.7   0.0   490   560     7    80     3    92 0.86 -
PC1J_TRINITY_DN35913_c5_g1_i1.p1PC1J_TRINITY_DN35913_c5_g1  -            218 12298at3193          -            755   4.3e-06   26.7   0.1   1   2   0.00021     0.055   13.2   0.1   463   529    67   131    34   140 0.74 -
PC1J_TRINITY_DN35913_c5_g1_i1.p1PC1J_TRINITY_DN35913_c5_g1  -            218 12298at3193          -            755   4.3e-06   26.7   0.1   2   2   0.00072      0.19   11.4   0.0   153   218   143   211   124   216 0.54 -
PC3A_TRINITY_DN42630_c1_g1_i2.p1PC3A_TRINITY_DN42630_c1_g1  -            170 12298at3193          -            755   4.9e-06   26.5   0.0   1   1   5.4e-08   1.4e-05   25.0   0.0   464   551    39   128     5   139 0.77 -
PC1A_TRINITY_DN30091_c0_g1_i1.p1PC1A_TRINITY_DN30091_c0_g1  -            194 12298at3193          -            755   5.1e-06   26.5   0.3   1   2      0.23        61    3.1   0.1   240   270    24    53    11    64 0.58 -
PC1A_TRINITY_DN30091_c0_g1_i1.p1PC1A_TRINITY_DN30091_c0_g1  -            194 12298at3193          -            755   5.1e-06   26.5   0.3   2   2   6.8e-07   0.00018   21.4   0.0   405   476    76   149    67   169 0.80 -
PC2J_TRINITY_DN43463_c1_g2_i12.p1PC2J_TRINITY_DN43463_c1_g2 -            293 12298at3193          -            755   5.9e-06   26.3   0.0   1   1   5.3e-08   1.4e-05   25.1   0.0   477   535     8    66     4    78 0.92 -
PC2J_TRINITY_DN4791_c0_g1_i1.p1PC2J_TRINITY_DN4791_c0_g1    -            113 12298at3193          -            755     6e-06   26.3   0.5   1   2   1.6e-05    0.0042   16.9   0.1   480   541     5    66     1    75 0.85 -
PC2J_TRINITY_DN4791_c0_g1_i1.p1PC2J_TRINITY_DN4791_c0_g1    -            113 12298at3193          -            755     6e-06   26.3   0.5   2   2   0.00084      0.22   11.2   0.1   478   531    60   113    57   113 0.68 -
PC3A_TRINITY_DN35008_c0_g1_i1.p1PC3A_TRINITY_DN35008_c0_g1  -            144 12298at3193          -            755   6.3e-06   26.2   0.0   1   2   0.00096      0.25   11.0   0.0   197   272    20    97    10   101 0.78 -
PC3A_TRINITY_DN35008_c0_g1_i1.p1PC3A_TRINITY_DN35008_c0_g1  -            144 12298at3193          -            755   6.3e-06   26.2   0.0   2   2   0.00013     0.035   13.8   0.0   497   535   102   140    92   143 0.90 -
PC1J_TRINITY_DN6005_c0_g1_i1.p1PC1J_TRINITY_DN6005_c0_g1    -            197 12298at3193          -            755   6.4e-06   26.2   0.1   1   1   7.3e-07   0.00019   21.3   0.0   476   534    32    91    18    97 0.75 -
PC1A_TRINITY_DN42787_c2_g5_i4.p1PC1A_TRINITY_DN42787_c2_g5  -            494 12298at3193          -            755   6.5e-06   26.1   3.5   1   3       6.9   1.8e+03   -1.8   0.0   240   273   184   218   173   242 0.61 -
PC1A_TRINITY_DN42787_c2_g5_i4.p1PC1A_TRINITY_DN42787_c2_g5  -            494 12298at3193          -            755   6.5e-06   26.1   3.5   2   3    0.0012      0.33   10.6   0.1   500   538   293   332   287   349 0.76 -
PC1A_TRINITY_DN42787_c2_g5_i4.p1PC1A_TRINITY_DN42787_c2_g5  -            494 12298at3193          -            755   6.5e-06   26.1   3.5   3   3   2.3e-05     0.006   16.3   0.4   194   274   337   420   329   435 0.79 -
PC2J_TRINITY_DN40340_c4_g1_i2.p1PC2J_TRINITY_DN40340_c4_g1  -            111 12298at3193          -            755   8.7e-06   25.7   0.1   1   2     0.018       4.7    6.8   0.0   260   309     8    56     5    57 0.73 -
PC2J_TRINITY_DN40340_c4_g1_i2.p1PC2J_TRINITY_DN40340_c4_g1  -            111 12298at3193          -            755   8.7e-06   25.7   0.1   2   2   1.5e-06    0.0004   20.2   0.0   476   531    49   106    41   108 0.80 -
PC3J_TRINITY_DN39621_c2_g1_i1.p1PC3J_TRINITY_DN39621_c2_g1  -            152 12298at3193          -            755   9.4e-06   25.6   0.0   1   2   0.00033     0.086   12.5   0.0   484   537     6    60     2    68 0.85 -
PC3J_TRINITY_DN39621_c2_g1_i1.p1PC3J_TRINITY_DN39621_c2_g1  -            152 12298at3193          -            755   9.4e-06   25.6   0.0   2   2    0.0015       0.4   10.3   0.0   475   534    83   140    76   143 0.85 -
PC1A_TRINITY_DN43246_c0_g1_i2.p1PC1A_TRINITY_DN43246_c0_g1  -            332 12298at3193          -            755   9.7e-06   25.6   0.5   1   2      0.27        70    2.9   0.1   167   248    74   165    64   169 0.53 -
PC1A_TRINITY_DN43246_c0_g1_i2.p1PC1A_TRINITY_DN43246_c0_g1  -            332 12298at3193          -            755   9.7e-06   25.6   0.5   2   2   4.3e-07   0.00011   22.0   0.1   142   301   141   309   125   329 0.68 -
PC3A_TRINITY_DN37225_c2_g4_i1.p1PC3A_TRINITY_DN37225_c2_g4  -            146 12298at3193          -            755   1.1e-05   25.3   0.5   1   2   3.5e-07   9.2e-05   22.3   0.2   480   566    43   130    16   132 0.84 -
PC3A_TRINITY_DN37225_c2_g4_i1.p1PC3A_TRINITY_DN37225_c2_g4  -            146 12298at3193          -            755   1.1e-05   25.3   0.5   2   2     0.025       6.7    6.3   0.0   508   533   113   138   102   143 0.87 -
PC3A_TRINITY_DN40170_c1_g1_i17.p1PC3A_TRINITY_DN40170_c1_g1 -            243 12298at3193          -            755   1.2e-05   25.2   0.0   1   1   7.3e-08   1.9e-05   24.6   0.0   478   535     2    59     1    90 0.91 -
PC2J_TRINITY_DN32007_c0_g1_i1.p1PC2J_TRINITY_DN32007_c0_g1  -            126 12298at3193          -            755   1.4e-05   25.0   0.2   1   2    0.0041       1.1    8.9   0.0   507   539    13    48     5    67 0.72 -
PC2J_TRINITY_DN32007_c0_g1_i1.p1PC2J_TRINITY_DN32007_c0_g1  -            126 12298at3193          -            755   1.4e-05   25.0   0.2   2   2   0.00019     0.051   13.3   0.0   477   525    71   122    59   124 0.70 -
PC2A_TRINITY_DN30977_c3_g1_i1.p1PC2A_TRINITY_DN30977_c3_g1  -            147 12298at3193          -            755   1.5e-05   24.9   0.0   1   1     1e-07   2.8e-05   24.1   0.0   488   580    29   123     6   143 0.77 -
PC3A_TRINITY_DN39552_c0_g1_i1.p2PC3A_TRINITY_DN39552_c0_g1  -            106 12298at3193          -            755   1.6e-05   24.8   0.0   1   1     7e-08   1.9e-05   24.6   0.0   461   533    10    82     1    87 0.88 -
PC2J_TRINITY_DN44681_c2_g1_i2.p1PC2J_TRINITY_DN44681_c2_g1  -            162 12298at3193          -            755   1.7e-05   24.7   0.0   1   1   2.9e-05    0.0077   16.0   0.0   457   545    45   132    41   141 0.90 -
PC3A_TRINITY_DN41394_c3_g3_i1.p1PC3A_TRINITY_DN41394_c3_g3  -            293 12298at3193          -            755   2.6e-05   24.2   0.0   1   1   1.8e-07   4.6e-05   23.3   0.0   499   563    98   164    94   176 0.85 -
PC2J_TRINITY_DN45787_c2_g3_i1.p1PC2J_TRINITY_DN45787_c2_g3  -            116 12298at3193          -            755   3.1e-05   23.9   0.1   1   1   1.2e-07   3.2e-05   23.9   0.1   476   534    47   106    18   114 0.83 -
PC1J_TRINITY_DN36516_c3_g2_i2.p1PC1J_TRINITY_DN36516_c3_g2  -            209 12298at3193          -            755   3.2e-05   23.9   0.3   1   2   9.5e-07   0.00025   20.9   0.2   170   269    11   121     4   126 0.79 -
PC1J_TRINITY_DN36516_c3_g2_i2.p1PC1J_TRINITY_DN36516_c3_g2  -            209 12298at3193          -            755   3.2e-05   23.9   0.3   2   2     0.018       4.6    6.8   0.0   510   562   100   159    80   192 0.73 -
PC1J_TRINITY_DN35968_c0_g2_i1.p1PC1J_TRINITY_DN35968_c0_g2  -            175 12298at3193          -            755   3.5e-05   23.7   0.0   1   1   1.9e-07   5.1e-05   23.2   0.0   470   573    40   141    26   153 0.76 -
PC2A_TRINITY_DN34172_c1_g1_i3.p1PC2A_TRINITY_DN34172_c1_g1  -            105 12298at3193          -            755   4.7e-05   23.3   0.1   1   1     2e-07   5.2e-05   23.2   0.1   202   273    29   101    16   105 0.81 -
PC1A_TRINITY_DN46533_c0_g1_i1.p1PC1A_TRINITY_DN46533_c0_g1  -            202 12298at3193          -            755   4.9e-05   23.2   0.0   1   2   6.8e-07   0.00018   21.4   0.0   477   532    35    89     9   143 0.79 -
PC1A_TRINITY_DN46533_c0_g1_i1.p1PC1A_TRINITY_DN46533_c0_g1  -            202 12298at3193          -            755   4.9e-05   23.2   0.0   2   2       2.9   7.7e+02   -0.5   0.0   349   384   108   143   103   162 0.65 -
PC3J_TRINITY_DN44118_c3_g1_i2.p1PC3J_TRINITY_DN44118_c3_g1  -            207 12298at3193          -            755   5.2e-05   23.2   0.1   1   2         1   2.7e+02    0.9   0.0   248   322    12    86     7   109 0.65 -
PC3J_TRINITY_DN44118_c3_g1_i2.p1PC3J_TRINITY_DN44118_c3_g1  -            207 12298at3193          -            755   5.2e-05   23.2   0.1   2   2   1.8e-06   0.00047   20.0   0.0   475   533   107   165    99   174 0.90 -
PC2A_TRINITY_DN30463_c4_g1_i2.p1PC2A_TRINITY_DN30463_c4_g1  -            108 12298at3193          -            755   5.7e-05   23.0   0.0   1   1   2.1e-07   5.7e-05   23.0   0.0   497   543     7    53     2    97 0.85 -
PC3A_TRINITY_DN34975_c0_g1_i2.p1PC3A_TRINITY_DN34975_c0_g1  -            124 12298at3193          -            755   5.8e-05   23.0   0.5   1   2   5.1e-07   0.00014   21.8   0.4   483   543    24    84     2    98 0.85 -
PC3A_TRINITY_DN34975_c0_g1_i2.p1PC3A_TRINITY_DN34975_c0_g1  -            124 12298at3193          -            755   5.8e-05   23.0   0.5   2   2         3     8e+02   -0.6   0.0   474   491   105   122    86   123 0.85 -
PC2J_TRINITY_DN27923_c0_g1_i1.p1PC2J_TRINITY_DN27923_c0_g1  -            133 12298at3193          -            755   5.9e-05   23.0   0.0   1   2     7e-05     0.018   14.7   0.0   500   532     6    38     3    46 0.94 -
PC2J_TRINITY_DN27923_c0_g1_i1.p1PC2J_TRINITY_DN27923_c0_g1  -            133 12298at3193          -            755   5.9e-05   23.0   0.0   2   2     0.021       5.6    6.5   0.0   203   262    59   119    49   123 0.72 -
PC1J_TRINITY_DN36464_c4_g1_i2.p1PC1J_TRINITY_DN36464_c4_g1  -            290 12298at3193          -            755   9.1e-05   22.4   0.3   1   1      0.19        49    3.4   0.0    89   122    86   121    77   128 0.80 -
PC1J_TRINITY_DN24390_c0_g1_i1.p1PC1J_TRINITY_DN24390_c0_g1  -            183 12298at3193          -            755    0.0001   22.2   0.1   1   2   0.00068      0.18   11.5   0.0   488   537    38    87    17    92 0.84 -
PC1J_TRINITY_DN24390_c0_g1_i1.p1PC1J_TRINITY_DN24390_c0_g1  -            183 12298at3193          -            755    0.0001   22.2   0.1   2   2   4.3e-05     0.011   15.4   0.0   470   559    62   153    54   178 0.78 -
PC1A_TRINITY_DN44957_c0_g1_i1.p1PC1A_TRINITY_DN44957_c0_g1  -            100 12298at3193          -            755   0.00011   22.1   0.3   1   1   4.4e-07   0.00011   22.0   0.3   156   237     8    87     1    98 0.77 -
PC1J_TRINITY_DN38853_c0_g2_i13.p1PC1J_TRINITY_DN38853_c0_g2 -            337 12298at3193          -            755   0.00011   22.1   0.4   1   2   0.00015      0.04   13.6   0.1   424   534   167   238    77   289 0.63 -
PC1J_TRINITY_DN38853_c0_g2_i13.p1PC1J_TRINITY_DN38853_c0_g2 -            337 12298at3193          -            755   0.00011   22.1   0.4   2   2   9.2e-05     0.024   14.3   0.0   417   534   160   281   141   331 0.64 -
PC3J_TRINITY_DN38203_c0_g2_i2.p1PC3J_TRINITY_DN38203_c0_g2  -            139 12298at3193          -            755   0.00012   22.0   0.5   1   2   9.1e-05     0.024   14.4   0.1   476   534     5    65     2    72 0.83 -
PC3J_TRINITY_DN38203_c0_g2_i2.p1PC3J_TRINITY_DN38203_c0_g2  -            139 12298at3193          -            755   0.00012   22.0   0.5   2   2     0.028       7.5    6.1   0.0   501   533    88   121    82   127 0.85 -
PC1A_TRINITY_DN21879_c0_g1_i1.p1PC1A_TRINITY_DN21879_c0_g1  -            136 12298at3193          -            755   0.00012   21.9   0.0   1   1   5.6e-07   0.00015   21.7   0.0   499   576    21   100     8   125 0.87 -
PC2J_TRINITY_DN38542_c1_g1_i1.p1PC2J_TRINITY_DN38542_c1_g1  -            119 12298at3193          -            755   0.00017   21.5   0.7   1   1     2e-06   0.00052   19.9   0.7   489   548    43   102    16   117 0.75 -
PC3J_TRINITY_DN38154_c0_g1_i1.p1PC3J_TRINITY_DN38154_c0_g1  -            323 12298at3193          -            755   0.00017   21.5   0.3   1   2         1   2.7e+02    1.0   0.0   517   538   138   159   118   171 0.71 -
PC3J_TRINITY_DN38154_c0_g1_i1.p1PC3J_TRINITY_DN38154_c0_g1  -            323 12298at3193          -            755   0.00017   21.5   0.3   2   2     7e-06    0.0018   18.0   0.1   138   230   196   295   185   308 0.78 -
PC2A_TRINITY_DN27927_c0_g1_i3.p1PC2A_TRINITY_DN27927_c0_g1  -            146 12298at3193          -            755   0.00017   21.4   0.1   1   3     0.014       3.7    7.1   0.0   511   535    20    44     4    52 0.90 -
PC2A_TRINITY_DN27927_c0_g1_i3.p1PC2A_TRINITY_DN27927_c0_g1  -            146 12298at3193          -            755   0.00017   21.4   0.1   2   3    0.0048       1.3    8.7   0.0   430   474    54   100    42   107 0.64 -
PC2A_TRINITY_DN27927_c0_g1_i3.p1PC2A_TRINITY_DN27927_c0_g1  -            146 12298at3193          -            755   0.00017   21.4   0.1   3   3     0.003       0.8    9.3   0.1   474   533    70   129    61   136 0.60 -
PC3J_TRINITY_DN39448_c3_g1_i2.p1PC3J_TRINITY_DN39448_c3_g1  -            122 12298at3193          -            755    0.0002   21.3   0.0   1   1   1.6e-06   0.00042   20.2   0.0   466   533    37   104    31   112 0.93 -
PC1A_TRINITY_DN31717_c0_g1_i2.p1PC1A_TRINITY_DN31717_c0_g1  -            287 12298at3193          -            755   0.00022   21.1   0.7   1   2   1.1e-05    0.0029   17.4   0.2   466   532     3    69     1    73 0.93 -
PC1A_TRINITY_DN31717_c0_g1_i2.p1PC1A_TRINITY_DN31717_c0_g1  -            287 12298at3193          -            755   0.00022   21.1   0.7   2   2      0.43   1.1e+02    2.2   0.0   667   727   182   242   161   255 0.80 -
PC3J_TRINITY_DN51606_c0_g1_i1.p1PC3J_TRINITY_DN51606_c0_g1  -            128 12298at3193          -            755   0.00022   21.1   0.1   1   2    0.0017      0.46   10.1   0.0   180   253    17    87    12    96 0.76 -
PC3J_TRINITY_DN51606_c0_g1_i1.p1PC3J_TRINITY_DN51606_c0_g1  -            128 12298at3193          -            755   0.00022   21.1   0.1   2   2   5.2e-05     0.014   15.1   0.0   468   535    39   116    31   123 0.80 -
PC2J_TRINITY_DN37332_c0_g1_i1.p1PC2J_TRINITY_DN37332_c0_g1  -            167 12298at3193          -            755   0.00029   20.7   0.2   1   2   1.9e-06   0.00051   19.9   0.1   477   558    25   107    11   123 0.80 -
PC2J_TRINITY_DN37332_c0_g1_i1.p1PC2J_TRINITY_DN37332_c0_g1  -            167 12298at3193          -            755   0.00029   20.7   0.2   2   2       2.5   6.6e+02   -0.3   0.0   161   226    98   163    93   165 0.63 -
PC2J_TRINITY_DN43726_c0_g1_i4.p1PC2J_TRINITY_DN43726_c0_g1  -            187 12298at3193          -            755    0.0003   20.7   0.0   1   1   1.5e-06   0.00038   20.3   0.0   166   259    18   106    13   120 0.82 -
PC1J_TRINITY_DN29847_c0_g1_i1.p1PC1J_TRINITY_DN29847_c0_g1  -            129 12298at3193          -            755   0.00035   20.4   0.0   1   2      0.13        35    3.9   0.0   516   535     8    27     3    36 0.83 -
PC1J_TRINITY_DN29847_c0_g1_i1.p1PC1J_TRINITY_DN29847_c0_g1  -            129 12298at3193          -            755   0.00035   20.4   0.0   2   2    0.0002     0.051   13.3   0.0   473   511    51    90    44   103 0.79 -
PC2J_TRINITY_DN40591_c3_g1_i4.p1PC2J_TRINITY_DN40591_c3_g1  -            252 12298at3193          -            755   0.00036   20.4   0.1   1   2   2.8e-05    0.0074   16.0   0.1   500   540    57    98    39   146 0.81 -
PC2J_TRINITY_DN40591_c3_g1_i4.p1PC2J_TRINITY_DN40591_c3_g1  -            252 12298at3193          -            755   0.00036   20.4   0.1   2   2      0.35        91    2.5   0.0   241   531   179   208   156   215 0.54 -
PC3A_TRINITY_DN44195_c0_g2_i1.p1PC3A_TRINITY_DN44195_c0_g2  -            205 12298at3193          -            755   0.00038   20.3   0.1   1   2     0.091        24    4.4   0.0    95   150    24    79    11   100 0.73 -
PC3A_TRINITY_DN44195_c0_g2_i1.p1PC3A_TRINITY_DN44195_c0_g2  -            205 12298at3193          -            755   0.00038   20.3   0.1   2   2   9.9e-05     0.026   14.2   0.0   209   271   115   177    95   186 0.58 -
PC3J_TRINITY_DN38776_c3_g5_i2.p1PC3J_TRINITY_DN38776_c3_g5  -            210 12298at3193          -            755   0.00039   20.3   0.0   1   1   1.8e-06   0.00048   20.0   0.0   166   260    36   125    17   132 0.85 -
PC1A_TRINITY_DN43167_c4_g4_i4.p1PC1A_TRINITY_DN43167_c4_g4  -            332 12298at3193          -            755   0.00043   20.1   4.2   1   5         2   5.2e+02    0.0   0.0   231   271    72   121    48   128 0.65 -
PC1A_TRINITY_DN43167_c4_g4_i4.p1PC1A_TRINITY_DN43167_c4_g4  -            332 12298at3193          -            755   0.00043   20.1   4.2   2   5     0.047        12    5.4   0.2   481   531   111   161    93   168 0.69 -
PC1A_TRINITY_DN43167_c4_g4_i4.p1PC1A_TRINITY_DN43167_c4_g4  -            332 12298at3193          -            755   0.00043   20.1   4.2   3   5      0.22        58    3.2   0.1   428   466   171   210   164   244 0.63 -
PC1A_TRINITY_DN43167_c4_g4_i4.p1PC1A_TRINITY_DN43167_c4_g4  -            332 12298at3193          -            755   0.00043   20.1   4.2   4   5    0.0037      0.97    9.0   0.0   413   462   249   298   235   306 0.81 -
PC1A_TRINITY_DN43167_c4_g4_i4.p1PC1A_TRINITY_DN43167_c4_g4  -            332 12298at3193          -            755   0.00043   20.1   4.2   5   5     0.004       1.1    8.9   0.0   436   519   272   327   259   332 0.54 -
PC3A_TRINITY_DN44055_c1_g2_i3.p1PC3A_TRINITY_DN44055_c1_g2  -            228 12298at3193          -            755   0.00052   19.9   0.0   1   1   2.5e-06   0.00065   19.5   0.0   132   227   125   221   102   224 0.77 -
PC1J_TRINITY_DN14606_c0_g1_i1.p1PC1J_TRINITY_DN14606_c0_g1  -            140 12298at3193          -            755   0.00062   19.6   0.1   1   1   5.8e-06    0.0015   18.3   0.1   166   227    58   121    38   130 0.81 -
PC2J_TRINITY_DN36033_c5_g1_i1.p1PC2J_TRINITY_DN36033_c5_g1  -            188 12298at3193          -            755   0.00065   19.5   0.0   1   2   6.6e-05     0.017   14.8   0.0   498   547    12    61     9    72 0.88 -
PC2J_TRINITY_DN36033_c5_g1_i1.p1PC2J_TRINITY_DN36033_c5_g1  -            188 12298at3193          -            755   0.00065   19.5   0.0   2   2      0.18        46    3.5   0.0   435   463    63    92    59   101 0.84 -
PC1A_TRINITY_DN39339_c0_g1_i6.p1PC1A_TRINITY_DN39339_c0_g1  -            423 12298at3193          -            755   0.00069   19.4   0.3   1   1   6.5e-06    0.0017   18.2   0.3   442   556   294   410   202   422 0.86 -
PC3J_TRINITY_DN47409_c0_g5_i1.p1PC3J_TRINITY_DN47409_c0_g5  -            103 12298at3193          -            755   0.00078   19.3   0.0   1   1   2.9e-06   0.00078   19.3   0.0   483   541     3    61     1    97 0.82 -
PC2J_TRINITY_DN4215_c0_g1_i1.p1PC2J_TRINITY_DN4215_c0_g1    -            133 12298at3193          -            755     0.001   18.9   0.0   1   2   0.00027     0.072   12.8   0.0   506   537    12    43     1    57 0.81 -
PC2J_TRINITY_DN4215_c0_g1_i1.p1PC2J_TRINITY_DN4215_c0_g1    -            133 12298at3193          -            755     0.001   18.9   0.0   2   2     0.074        19    4.7   0.0   485   532    65   117    46   125 0.74 -
PC1A_TRINITY_DN40319_c0_g2_i1.p1PC1A_TRINITY_DN40319_c0_g2  -            412 12298at3193          -            755    0.0011   18.8   0.1   1   1   6.4e-06    0.0017   18.2   0.1   474   534   251   312   238   362 0.89 -
PC1J_TRINITY_DN40773_c2_g2_i7.p1PC1J_TRINITY_DN40773_c2_g2  -            195 12298at3193          -            755    0.0011   18.8   0.1   1   1   5.4e-06    0.0014   18.4   0.1   179   262    35   118    28   125 0.84 -
PC3A_TRINITY_DN27227_c0_g1_i1.p1PC3A_TRINITY_DN27227_c0_g1  -            231 12298at3193          -            755    0.0011   18.7   0.0   1   2       1.3   3.4e+02    0.6   0.0   199   231     3    36     1    50 0.86 -
PC3A_TRINITY_DN27227_c0_g1_i1.p1PC3A_TRINITY_DN27227_c0_g1  -            231 12298at3193          -            755    0.0011   18.7   0.0   2   2   2.8e-05    0.0073   16.1   0.0   129   256    69   202    39   212 0.75 -
PC3J_TRINITY_DN46258_c3_g1_i3.p1PC3J_TRINITY_DN46258_c3_g1  -            164 12298at3193          -            755    0.0012   18.7   0.2   1   2      0.46   1.2e+02    2.1   0.0   132   163    11    44     4    55 0.74 -
PC3J_TRINITY_DN46258_c3_g1_i3.p1PC3J_TRINITY_DN46258_c3_g1  -            164 12298at3193          -            755    0.0012   18.7   0.2   2   2   6.5e-05     0.017   14.8   0.0   465   538    60   139    51   149 0.77 -
PC1A_TRINITY_DN40391_c3_g3_i3.p1PC1A_TRINITY_DN40391_c3_g3  -            306 12298at3193          -            755    0.0012   18.7   4.6   1   2   8.2e-06    0.0021   17.8   0.6   476   540    64   128    52   137 0.86 -
PC1A_TRINITY_DN40391_c3_g3_i3.p1PC1A_TRINITY_DN40391_c3_g3  -            306 12298at3193          -            755    0.0012   18.7   4.6   2   2      0.49   1.3e+02    2.0   0.2   465   524   206   263   153   302 0.66 -
PC1J_TRINITY_DN39920_c0_g2_i2.p1PC1J_TRINITY_DN39920_c0_g2  -            275 12298at3193          -            755    0.0013   18.5   0.3   1   3      0.99   2.6e+02    1.0   0.1   516   558    75   117    47   132 0.64 -
PC1J_TRINITY_DN39920_c0_g2_i2.p1PC1J_TRINITY_DN39920_c0_g2  -            275 12298at3193          -            755    0.0013   18.5   0.3   2   3   0.00069      0.18   11.4   0.1   475   533   117   175   105   182 0.88 -
PC1J_TRINITY_DN39920_c0_g2_i2.p1PC1J_TRINITY_DN39920_c0_g2  -            275 12298at3193          -            755    0.0013   18.5   0.3   3   3      0.26        67    3.0   0.0   500   561   185   247   178   259 0.83 -
PC1A_TRINITY_DN32960_c0_g1_i1.p1PC1A_TRINITY_DN32960_c0_g1  -            141 12298at3193          -            755    0.0014   18.5   0.0   1   1   6.4e-06    0.0017   18.2   0.0   469   545    47   123    40   130 0.89 -
PC2J_TRINITY_DN34419_c0_g1_i2.p1PC2J_TRINITY_DN34419_c0_g1  -            179 12298at3193          -            755    0.0017   18.1   0.2   1   1     8e-06    0.0021   17.8   0.2   222   537    35    86    20   156 0.61 -
PC3A_TRINITY_DN34423_c0_g1_i2.p1PC3A_TRINITY_DN34423_c0_g1  -            237 12298at3193          -            755     0.002   17.9   0.0   1   2   3.7e-05    0.0097   15.7   0.0   188   253    23    86    15   109 0.80 -
PC3A_TRINITY_DN34423_c0_g1_i2.p1PC3A_TRINITY_DN34423_c0_g1  -            237 12298at3193          -            755     0.002   17.9   0.0   2   2       2.3     6e+02   -0.2   0.0   241   463   171   202   135   210 0.53 -
PC1J_TRINITY_DN39920_c0_g2_i1.p1PC1J_TRINITY_DN39920_c0_g2  -            201 12298at3193          -            755    0.0021   17.9   0.1   1   2   0.00044      0.11   12.1   0.1   476   534    44   102    34   110 0.87 -
PC1J_TRINITY_DN39920_c0_g2_i1.p1PC1J_TRINITY_DN39920_c0_g2  -            201 12298at3193          -            755    0.0021   17.9   0.1   2   2      0.14        38    3.8   0.0   500   561   111   173   106   188 0.84 -
PC1A_TRINITY_DN5031_c0_g1_i1.p1PC1A_TRINITY_DN5031_c0_g1    -            133 12298at3193          -            755    0.0023   17.7   0.0   1   2   3.5e-05    0.0093   15.7   0.0   476   538    25    87     9   118 0.73 -
PC1A_TRINITY_DN5031_c0_g1_i1.p1PC1A_TRINITY_DN5031_c0_g1    -            133 12298at3193          -            755    0.0023   17.7   0.0   2   2      0.76     2e+02    1.4   0.0   500   532    92   124    86   128 0.70 -
PC1J_TRINITY_DN37482_c3_g1_i1.p1PC1J_TRINITY_DN37482_c3_g1  -            105 12298at3193          -            755    0.0024   17.7   0.1   1   1   9.1e-06    0.0024   17.7   0.1   211   274    23    84     1    99 0.53 -
PC2J_TRINITY_DN37985_c0_g1_i1.p1PC2J_TRINITY_DN37985_c0_g1  -            212 12298at3193          -            755    0.0027   17.5   0.0   1   1   1.3e-05    0.0035   17.1   0.0   496   535    65   105    46   128 0.80 -
PC2A_TRINITY_DN28043_c3_g3_i1.p1PC2A_TRINITY_DN28043_c3_g3  -            123 12298at3193          -            755    0.0031   17.3   0.6   1   2    0.0025      0.66    9.6   0.0   476   524     2    50     1    52 0.93 -
PC2A_TRINITY_DN28043_c3_g3_i1.p1PC2A_TRINITY_DN28043_c3_g3  -            123 12298at3193          -            755    0.0031   17.3   0.6   2   2      0.01       2.7    7.6   0.2   488   534    50    95    49   106 0.90 -
PC3J_TRINITY_DN44867_c1_g2_i1.p1PC3J_TRINITY_DN44867_c1_g2  -            109 12298at3193          -            755    0.0032   17.3   0.0   1   1   1.2e-05    0.0033   17.2   0.0   486   536    34    84    10    94 0.83 -
PC3A_TRINITY_DN34423_c0_g1_i1.p1PC3A_TRINITY_DN34423_c0_g1  -            165 12298at3193          -            755    0.0036   17.1   0.0   1   1   1.6e-05    0.0043   16.8   0.0   188   253    23    86    15   110 0.80 -
PC2J_TRINITY_DN41528_c4_g2_i8.p1PC2J_TRINITY_DN41528_c4_g2  -            144 12298at3193          -            755    0.0036   17.1   0.0   1   1   1.5e-05     0.004   16.9   0.0   191   268    41   117     5   129 0.67 -
PC3J_TRINITY_DN39482_c6_g2_i1.p1PC3J_TRINITY_DN39482_c6_g2  -            111 12298at3193          -            755    0.0045   16.8   0.0   1   1     2e-05    0.0052   16.5   0.0   239   289    54   101    42   109 0.87 -
PC3A_TRINITY_DN37672_c5_g1_i5.p1PC3A_TRINITY_DN37672_c5_g1  -            204 12298at3193          -            755    0.0052   16.6   0.0   1   1   2.6e-05    0.0069   16.1   0.0   498   533    74   110    58   125 0.85 -
PC2J_TRINITY_DN361_c0_g1_i1.p1PC2J_TRINITY_DN361_c0_g1      -            122 12298at3193          -            755    0.0053   16.5   0.0   1   1   2.2e-05    0.0058   16.4   0.0   476   579     4   105     1   119 0.83 -
PC3J_TRINITY_DN32837_c0_g1_i2.p1PC3J_TRINITY_DN32837_c0_g1  -            156 12298at3193          -            755    0.0053   16.5   0.1   1   1   0.00012     0.033   13.9   0.0   497   559    21    82    14   100 0.81 -
PC2J_TRINITY_DN44321_c5_g2_i1.p1PC2J_TRINITY_DN44321_c5_g2  -            164 12298at3193          -            755    0.0054   16.5   0.2   1   2      0.89   2.3e+02    1.2   0.0   497   534    81   119    79   124 0.80 -
PC2J_TRINITY_DN44321_c5_g2_i1.p1PC2J_TRINITY_DN44321_c5_g2  -            164 12298at3193          -            755    0.0054   16.5   0.2   2   2   0.00026     0.069   12.8   0.0   500   529   127   156   124   158 0.93 -
PC3J_TRINITY_DN43228_c2_g1_i5.p1PC3J_TRINITY_DN43228_c2_g1  -            410 12298at3193          -            755    0.0058   16.4   0.0   1   1   4.4e-05     0.012   15.4   0.0   491   535     3    47     1    58 0.88 -
PC2A_TRINITY_DN22817_c0_g1_i3.p1PC2A_TRINITY_DN22817_c0_g1  -            216 12298at3193          -            755    0.0059   16.4   0.0   1   2    0.0083       2.2    7.9   0.0   486   526     9    49     5    61 0.85 -
PC2A_TRINITY_DN22817_c0_g1_i3.p1PC2A_TRINITY_DN22817_c0_g1  -            216 12298at3193          -            755    0.0059   16.4   0.0   2   2     0.021       5.4    6.6   0.0   495   531    79   116    63   121 0.72 -
PC1A_TRINITY_DN41201_c0_g1_i1.p1PC1A_TRINITY_DN41201_c0_g1  -            103 12298at3193          -            755    0.0062   16.3   0.0   1   1   2.4e-05    0.0063   16.3   0.0   479   542    25    88     4    99 0.81 -
PC1A_TRINITY_DN40814_c3_g1_i5.p1PC1A_TRINITY_DN40814_c3_g1  -            201 12298at3193          -            755    0.0064   16.3   0.3   1   2      0.03       7.9    6.0   0.0   481   531    95   146    73   158 0.79 -
PC1A_TRINITY_DN40814_c3_g1_i5.p1PC1A_TRINITY_DN40814_c3_g1  -            201 12298at3193          -            755    0.0064   16.3   0.3   2   2     0.011         3    7.4   0.0   504   539   162   197   154   200 0.85 -
PC1A_TRINITY_DN40714_c1_g6_i2.p1PC1A_TRINITY_DN40714_c1_g6  -            148 12298at3193          -            755     0.007   16.1   0.4   1   2   0.00012     0.031   14.0   0.3   474   534    42   102    28   134 0.85 -
PC1A_TRINITY_DN40714_c1_g6_i2.p1PC1A_TRINITY_DN40714_c1_g6  -            148 12298at3193          -            755     0.007   16.1   0.4   2   2      0.96   2.5e+02    1.1   0.0   193   226   110   144   102   147 0.77 -
PC2J_TRINITY_DN35357_c0_g1_i6.p1PC2J_TRINITY_DN35357_c0_g1  -            165 12298at3193          -            755    0.0074   16.0   0.0   1   2   0.00025     0.066   12.9   0.0   468   555    11   102     5   113 0.83 -
PC2J_TRINITY_DN35357_c0_g1_i6.p1PC2J_TRINITY_DN35357_c0_g1  -            165 12298at3193          -            755    0.0074   16.0   0.0   2   2      0.85   2.2e+02    1.2   0.0   495   529   129   163   122   165 0.83 -
PC3J_TRINITY_DN13681_c0_g1_i1.p1PC3J_TRINITY_DN13681_c0_g1  -            218 12298at3193          -            755    0.0078   16.0   0.1   1   2     0.058        15    5.1   0.0   240   318    66   142    52   150 0.60 -
PC3J_TRINITY_DN13681_c0_g1_i1.p1PC3J_TRINITY_DN13681_c0_g1  -            218 12298at3193          -            755    0.0078   16.0   0.1   2   2    0.0034       0.9    9.1   0.0   168   218   169   218   154   218 0.80 -
PC2A_TRINITY_DN34224_c0_g1_i3.p1PC2A_TRINITY_DN34224_c0_g1  -            108 12298at3193          -            755    0.0081   15.9   0.1   1   1   3.4e-05    0.0088   15.8   0.1   477   529    22    75     5    97 0.74 -
PC3A_TRINITY_DN10400_c0_g1_i2.p1PC3A_TRINITY_DN10400_c0_g1  -            150 12298at3193          -            755    0.0082   15.9   0.0   1   2   7.4e-05     0.019   14.7   0.0   495   573     4    82     1    96 0.84 -
PC3A_TRINITY_DN10400_c0_g1_i2.p1PC3A_TRINITY_DN10400_c0_g1  -            150 12298at3193          -            755    0.0082   15.9   0.0   2   2         7   1.8e+03   -1.8   0.0   398   424    99   125    88   131 0.78 -
PC1A_TRINITY_DN42892_c4_g2_i8.p1PC1A_TRINITY_DN42892_c4_g2  -            414 12298at3193          -            755    0.0085   15.8   0.0   1   1   4.4e-05     0.012   15.4   0.0   141   269   230   364   190   379 0.66 -
PC3A_TRINITY_DN28140_c0_g1_i1.p1PC3A_TRINITY_DN28140_c0_g1  -            161 12298at3193          -            755    0.0096   15.7   0.2   1   2      0.71   1.9e+02    1.5   0.1   429   462    24    56    14    63 0.60 -
PC3A_TRINITY_DN28140_c0_g1_i1.p1PC3A_TRINITY_DN28140_c0_g1  -            161 12298at3193          -            755    0.0096   15.7   0.2   2   2   0.00023      0.06   13.0   0.1   494   535    62   103    30   113 0.83 -
PC2A_TRINITY_DN6061_c0_g1_i1.p1PC2A_TRINITY_DN6061_c0_g1    -            143 12298at3193          -            755     0.011   15.5   0.2   1   2       1.1     3e+02    0.8   0.0   182   227    22    67    11    89 0.73 -
PC2A_TRINITY_DN6061_c0_g1_i1.p1PC2A_TRINITY_DN6061_c0_g1    -            143 12298at3193          -            755     0.011   15.5   0.2   2   2    0.0002     0.052   13.2   0.1   194   230   106   141    79   143 0.73 -
PC1A_TRINITY_DN39969_c2_g1_i4.p1PC1A_TRINITY_DN39969_c2_g1  -            362 12298at3193          -            755     0.011   15.5   0.0   1   1   5.5e-05     0.015   15.1   0.0   447   531   238   320   227   350 0.83 -
PC2J_TRINITY_DN45530_c2_g1_i13.p1PC2J_TRINITY_DN45530_c2_g1 -            105 12298at3193          -            755     0.013   15.2   0.0   1   1   5.4e-05     0.014   15.1   0.0   473   534    37    98     7   103 0.87 -
PC1J_TRINITY_DN13233_c0_g1_i1.p1PC1J_TRINITY_DN13233_c0_g1  -            141 12298at3193          -            755     0.014   15.2   2.9   1   2    0.0014      0.36   10.5   0.5   444   534     9    96     1   104 0.77 -
PC1J_TRINITY_DN13233_c0_g1_i1.p1PC1J_TRINITY_DN13233_c0_g1  -            141 12298at3193          -            755     0.014   15.2   2.9   2   2     0.054        14    5.2   0.1   200   227   109   136    98   139 0.89 -
PC1A_TRINITY_DN45850_c0_g1_i1.p1PC1A_TRINITY_DN45850_c0_g1  -            108 12298at3193          -            755     0.015   15.0   0.1   1   1   5.9e-05     0.016   15.0   0.1   194   247    54   106    35   108 0.86 -
PC1A_TRINITY_DN41201_c0_g1_i2.p1PC1A_TRINITY_DN41201_c0_g1  -            107 12298at3193          -            755     0.016   14.9   0.0   1   1   6.5e-05     0.017   14.8   0.0   479   532    25    78     4    89 0.86 -
PC2J_TRINITY_DN45530_c2_g1_i11.p1PC2J_TRINITY_DN45530_c2_g1 -            120 12298at3193          -            755     0.017   14.9   0.0   1   1   0.00011     0.028   14.1   0.0   473   534    52   113    39   118 0.90 -
PC2A_TRINITY_DN35500_c1_g2_i1.p1PC2A_TRINITY_DN35500_c1_g2  -            104 12298at3193          -            755     0.017   14.8   0.0   1   1   7.4e-05     0.019   14.7   0.0   464   545    13    93     8   102 0.90 -
PC1J_TRINITY_DN38021_c0_g1_i2.p1PC1J_TRINITY_DN38021_c0_g1  -            228 12298at3193          -            755     0.017   14.8   0.0   1   1   8.8e-05     0.023   14.4   0.0   472   520   112   159    87   177 0.75 -
PC1A_TRINITY_DN42992_c1_g1_i4.p1PC1A_TRINITY_DN42992_c1_g1  -            224 12298at3193          -            755     0.019   14.7   0.0   1   1     8e-05     0.021   14.5   0.0   499   534    74   109    70   170 0.87 -
PC2J_TRINITY_DN32016_c0_g1_i2.p1PC2J_TRINITY_DN32016_c0_g1  -            216 12298at3193          -            755     0.022   14.5   4.7   1   4       0.2        52    3.3   0.0   503   531     3    31     1    38 0.59 -
PC2J_TRINITY_DN32016_c0_g1_i2.p1PC2J_TRINITY_DN32016_c0_g1  -            216 12298at3193          -            755     0.022   14.5   4.7   2   4     0.062        16    5.0   0.2   491   535    40    84    38    95 0.89 -
PC2J_TRINITY_DN32016_c0_g1_i2.p1PC2J_TRINITY_DN32016_c0_g1  -            216 12298at3193          -            755     0.022   14.5   4.7   3   4     0.074        20    4.7   0.0   199   229   103   136    93   153 0.85 -
PC2J_TRINITY_DN32016_c0_g1_i2.p1PC2J_TRINITY_DN32016_c0_g1  -            216 12298at3193          -            755     0.022   14.5   4.7   4   4       1.6   4.1e+02    0.4   0.0   493   535   170   214   152   215 0.70 -
PC3J_TRINITY_DN36680_c0_g1_i2.p1PC3J_TRINITY_DN36680_c0_g1  -            259 12298at3193          -            755     0.023   14.4   0.0   1   1   0.00014     0.036   13.8   0.0   494   532    24    62    19    67 0.92 -
PC3A_TRINITY_DN43768_c2_g2_i12.p1PC3A_TRINITY_DN43768_c2_g2 -            164 12298at3193          -            755     0.024   14.4   0.0   1   1   0.00022     0.058   13.1   0.0   214   297    52   137    34   161 0.56 -
PC3J_TRINITY_DN44023_c0_g2_i2.p1PC3J_TRINITY_DN44023_c0_g2  -            102 12298at3193          -            755     0.027   14.2   0.0   1   2    0.0081       2.1    7.9   0.0   213   270     2    56     1    60 0.61 -
PC3J_TRINITY_DN44023_c0_g2_i2.p1PC3J_TRINITY_DN44023_c0_g2  -            102 12298at3193          -            755     0.027   14.2   0.0   2   2     0.017       4.6    6.8   0.0   509   556    53   100    46   101 0.75 -
PC3J_TRINITY_DN45495_c1_g7_i1.p1PC3J_TRINITY_DN45495_c1_g7  -            265 12298at3193          -            755     0.031   14.0   0.0   1   1   0.00018     0.047   13.4   0.0   134   206   189   265   178   265 0.59 -
PC3J_TRINITY_DN44322_c7_g1_i12.p1PC3J_TRINITY_DN44322_c7_g1 -            123 12298at3193          -            755     0.037   13.7   0.0   1   1   0.00019      0.05   13.3   0.0   500   537    68   106    62   119 0.81 -
PC1J_TRINITY_DN4819_c0_g1_i1.p1PC1J_TRINITY_DN4819_c0_g1    -            155 12298at3193          -            755      0.04   13.6   0.1   1   1    0.0002     0.053   13.2   0.1   496   533    79   116    76   125 0.91 -
PC2J_TRINITY_DN33955_c0_g1_i1.p1PC2J_TRINITY_DN33955_c0_g1  -            156 12298at3193          -            755     0.041   13.6   0.0   1   1    0.0002     0.052   13.3   0.0   518   573    36    89    12    98 0.88 -
PC1A_TRINITY_DN3340_c0_g1_i2.p1PC1A_TRINITY_DN3340_c0_g1    -            167 12298at3193          -            755     0.048   13.4   0.0   1   1   0.00028     0.073   12.8   0.0   464   532    97   166    74   167 0.79 -
PC2J_TRINITY_DN27923_c0_g2_i1.p1PC2J_TRINITY_DN27923_c0_g2  -            113 12298at3193          -            755     0.056   13.1   0.1   1   1   0.00037     0.098   12.3   0.1   200   269    28    95    18   109 0.53 -
PC2J_TRINITY_DN36224_c1_g5_i1.p1PC2J_TRINITY_DN36224_c1_g5  -            142 12298at3193          -            755     0.067   12.9   0.0   1   1   0.00027     0.071   12.8   0.0   168   241    56   140    26   142 0.74 -
PC2J_TRINITY_DN45530_c2_g1_i12.p1PC2J_TRINITY_DN45530_c2_g1 -            162 12298at3193          -            755     0.071   12.8   0.0   1   1   0.00041      0.11   12.2   0.0   469   558    40   131    14   156 0.67 -
PC2J_TRINITY_DN48432_c0_g1_i1.p1PC2J_TRINITY_DN48432_c0_g1  -            113 12298at3193          -            755     0.073   12.8   0.0   1   1   0.00031      0.08   12.6   0.0   486   533    28    76     8    82 0.85 -
PC1J_TRINITY_DN35009_c0_g1_i3.p1PC1J_TRINITY_DN35009_c0_g1  -            135 12298at3193          -            755     0.074   12.7   0.5   1   1    0.0012      0.31   10.7   0.6   197   273    50   126    39   132 0.56 -
PC2J_TRINITY_DN5610_c0_g1_i1.p1PC2J_TRINITY_DN5610_c0_g1    -            101 12298at3193          -            755     0.075   12.7   0.1   1   1   0.00034      0.09   12.4   0.1   131   210     8    96     3   100 0.69 -
PC2J_TRINITY_DN38508_c4_g2_i5.p1PC2J_TRINITY_DN38508_c4_g2  -            232 12298at3193          -            755     0.082   12.6   0.0   1   1   0.00035     0.093   12.4   0.0   234   319    40   124    30   180 0.75 -
PC1J_TRINITY_DN38571_c0_g1_i11.p1PC1J_TRINITY_DN38571_c0_g1 -            516 12298at3193          -            755     0.082   12.6   0.0   1   2       2.5   6.6e+02   -0.3   0.0   130   159   365   396   341   408 0.62 -
PC1J_TRINITY_DN38571_c0_g1_i11.p1PC1J_TRINITY_DN38571_c0_g1 -            516 12298at3193          -            755     0.082   12.6   0.0   2   2    0.0017      0.44   10.2   0.0   468   541   419   497   406   512 0.62 -
PC3J_TRINITY_DN45781_c1_g2_i1.p1PC3J_TRINITY_DN45781_c1_g2  -            301 12298at3193          -            755     0.083   12.6   0.0   1   1   0.00043      0.11   12.1   0.0   185   289   144   258   117   277 0.76 -
PC3J_TRINITY_DN43522_c0_g3_i3.p1PC3J_TRINITY_DN43522_c0_g3  -            117 12298at3193          -            755     0.086   12.5   0.1   1   1    0.0012      0.32   10.6   0.1   198   251    36    89    11   108 0.79 -
PC2J_TRINITY_DN45351_c4_g1_i12.p1PC2J_TRINITY_DN45351_c4_g1 -            101 12298at3193          -            755     0.089   12.5   0.0   1   1   0.00034     0.089   12.5   0.0   499   540    40    83     8    92 0.81 -
PC1J_TRINITY_DN12737_c0_g1_i1.p1PC1J_TRINITY_DN12737_c0_g1  -            226 12298at3193          -            755     0.089   12.5   0.0   1   1   0.00067      0.18   11.5   0.0   161   213   173   225   133   226 0.77 -
PC1J_TRINITY_DN41403_c2_g4_i1.p1PC1J_TRINITY_DN41403_c2_g4  -            129 12298at3193          -            755       0.1   12.3   0.0   1   2   0.00083      0.22   11.2   0.0   495   536     6    47     3    62 0.90 -
PC1J_TRINITY_DN41403_c2_g4_i1.p1PC1J_TRINITY_DN41403_c2_g4  -            129 12298at3193          -            755       0.1   12.3   0.0   2   2       7.1   1.9e+03   -1.8   0.0   496   529    80   112    68   115 0.64 -
PC1J_TRINITY_DN34476_c2_g2_i2.p1PC1J_TRINITY_DN34476_c2_g2  -            139 12298at3193          -            755      0.11   12.2   0.0   1   1   0.00045      0.12   12.1   0.0   165   217    66   119    26   124 0.81 -
PC1A_TRINITY_DN40785_c2_g5_i2.p1PC1A_TRINITY_DN40785_c2_g5  -            303 12298at3193          -            755      0.11   12.2   0.1   1   2     0.018       4.6    6.8   0.0   498   540   158   200   152   229 0.76 -
PC1A_TRINITY_DN40785_c2_g5_i2.p1PC1A_TRINITY_DN40785_c2_g5  -            303 12298at3193          -            755      0.11   12.2   0.1   2   2      0.19        49    3.4   0.1   500   535   255   288   239   297 0.80 -
PC2A_TRINITY_DN28371_c0_g1_i19.p1PC2A_TRINITY_DN28371_c0_g1 -            102 12298at3193          -            755      0.12   12.0   0.0   1   1   0.00051      0.13   11.9   0.0   500   544    42    85    34   100 0.55 -
PC3A_TRINITY_DN33328_c0_g1_i1.p1PC3A_TRINITY_DN33328_c0_g1  -            165 12298at3193          -            755      0.14   11.9   0.0   1   1   0.00063      0.17   11.6   0.0   173   274    10   121     3   138 0.78 -
PC2J_TRINITY_DN45748_c0_g6_i3.p1PC2J_TRINITY_DN45748_c0_g6  -            220 12298at3193          -            755      0.14   11.8   0.0   1   2    0.0015      0.41   10.3   0.0   179   282     7   107     3   112 0.82 -
PC2J_TRINITY_DN45748_c0_g6_i3.p1PC2J_TRINITY_DN45748_c0_g6  -            220 12298at3193          -            755      0.14   11.8   0.0   2   2       4.9   1.3e+03   -1.3   0.0   503   531   169   195   156   215 0.67 -
PC2J_TRINITY_DN44856_c2_g2_i4.p1PC2J_TRINITY_DN44856_c2_g2  -            343 12298at3193          -            755      0.15   11.7   0.1   1   2       3.8   9.9e+02   -0.9   0.0   301   323   185   206   164   222 0.74 -
PC2J_TRINITY_DN44856_c2_g2_i4.p1PC2J_TRINITY_DN44856_c2_g2  -            343 12298at3193          -            755      0.15   11.7   0.1   2   2    0.0047       1.2    8.7   0.1   212   290   259   340   239   342 0.50 -
PC3A_TRINITY_DN42731_c0_g4_i1.p1PC3A_TRINITY_DN42731_c0_g4  -            150 12298at3193          -            755      0.18   11.5   0.0   1   1   0.00075       0.2   11.3   0.0   201   270    22    92    10   130 0.66 -
PC1J_TRINITY_DN39677_c2_g2_i9.p1PC1J_TRINITY_DN39677_c2_g2  -            133 12298at3193          -            755      0.18   11.5   0.0   1   1    0.0008      0.21   11.2   0.0   475   533    72   128    53   131 0.73 -
PC2J_TRINITY_DN44694_c4_g1_i2.p1PC2J_TRINITY_DN44694_c4_g1  -            208 12298at3193          -            755      0.18   11.5   0.0   1   1   0.00088      0.23   11.1   0.0   132   240     4   127     2   141 0.72 -
PC1J_TRINITY_DN34953_c2_g3_i1.p1PC1J_TRINITY_DN34953_c2_g3  -            271 12298at3193          -            755      0.18   11.5   0.0   1   1   0.00082      0.22   11.2   0.0   163   275    89   210    73   259 0.79 -
PC1A_TRINITY_DN43976_c2_g1_i1.p1PC1A_TRINITY_DN43976_c2_g1  -            156 12298at3193          -            755      0.19   11.4   0.0   1   1   0.00087      0.23   11.1   0.0   224   293    19    85     8   129 0.65 -
PC1J_TRINITY_DN35009_c0_g1_i1.p1PC1J_TRINITY_DN35009_c0_g1  -            134 12298at3193          -            755       0.2   11.3   1.5   1   2   0.00081      0.21   11.2   0.3   498   534    33    69    25    73 0.90 -
PC1J_TRINITY_DN35009_c0_g1_i1.p1PC1J_TRINITY_DN35009_c0_g1  -            134 12298at3193          -            755       0.2   11.3   1.5   2   2       7.1   1.9e+03   -1.8   0.0   244   269    95   117    84   127 0.49 -
PC2A_TRINITY_DN34875_c1_g1_i5.p1PC2A_TRINITY_DN34875_c1_g1  -            100 12298at3193          -            755       0.2   11.3   0.0   1   1   0.00077       0.2   11.3   0.0   476   538    12    78     1    92 0.71 -
PC3A_TRINITY_DN38181_c1_g2_i8.p1PC3A_TRINITY_DN38181_c1_g2  -            396 12298at3193          -            755      0.21   11.2   0.0   1   2      0.08        21    4.6   0.0   471   511   193   236   188   255 0.77 -
PC3A_TRINITY_DN38181_c1_g2_i8.p1PC3A_TRINITY_DN38181_c1_g2  -            396 12298at3193          -            755      0.21   11.2   0.0   2   2     0.081        21    4.6   0.0   469   513   261   308   248   325 0.79 -
PC1J_TRINITY_DN23678_c0_g1_i1.p1PC1J_TRINITY_DN23678_c0_g1  -            156 12298at3193          -            755      0.22   11.2   0.0   1   1   0.00096      0.25   11.0   0.0   202   270    13    82     4   121 0.66 -
PC2A_TRINITY_DN35273_c1_g2_i1.p1PC2A_TRINITY_DN35273_c1_g2  -            103 12298at3193          -            755      0.27   10.9   0.1   1   1    0.0023      0.61    9.7   0.0   505   542    65   102    52   103 0.89 -
PC1A_TRINITY_DN8517_c0_g1_i1.p1PC1A_TRINITY_DN8517_c0_g1    -            100 12298at3193          -            755      0.29   10.8   0.0   1   1     0.002      0.51   10.0   0.0   171   219    50    98    28   100 0.72 -
PC3A_TRINITY_DN6726_c0_g1_i1.p1PC3A_TRINITY_DN6726_c0_g1    -            202 12298at3193          -            755      0.29   10.8   0.1   1   1    0.0017      0.45   10.1   0.1   170   326    44   193    18   202 0.71 -
PC2J_TRINITY_DN35349_c3_g5_i1.p1PC2J_TRINITY_DN35349_c3_g5  -            116 12298at3193          -            755      0.34   10.5   0.0   1   1    0.0014      0.38   10.4   0.0   236   284    20    72     6    87 0.80 -
PC2J_TRINITY_DN45261_c0_g2_i3.p1PC2J_TRINITY_DN45261_c0_g2  -            202 12298at3193          -            755      0.37   10.4   0.0   1   2       1.8   4.7e+02    0.2   0.0   501   537    44    81    40    93 0.69 -
PC2J_TRINITY_DN45261_c0_g2_i3.p1PC2J_TRINITY_DN45261_c0_g2  -            202 12298at3193          -            755      0.37   10.4   0.0   2   2    0.0071       1.9    8.1   0.0   233   532   135   171    84   194 0.50 -
PC2J_TRINITY_DN44110_c0_g3_i2.p1PC2J_TRINITY_DN44110_c0_g3  -            151 12298at3193          -            755      0.38   10.4   0.0   1   2     0.094        25    4.4   0.0   293   322     5    34     3    44 0.69 -
PC2J_TRINITY_DN44110_c0_g3_i2.p1PC2J_TRINITY_DN44110_c0_g3  -            151 12298at3193          -            755      0.38   10.4   0.0   2   2     0.095        25    4.4   0.0   492   520    88   116    54   124 0.87 -
PC1J_TRINITY_DN27622_c0_g2_i1.p1PC1J_TRINITY_DN27622_c0_g2  -            143 12298at3193          -            755      0.38   10.4   0.0   1   1    0.0016      0.42   10.3   0.0   481   533    40    92    21   116 0.71 -
PC3A_TRINITY_DN11505_c0_g1_i1.p1PC3A_TRINITY_DN11505_c0_g1  -            107 12298at3193          -            755       0.5   10.0   0.0   1   1     0.002      0.51   10.0   0.0   493   536    35    78    25    99 0.71 -
PC1J_TRINITY_DN41260_c0_g3_i1.p1PC1J_TRINITY_DN41260_c0_g3  -            116 12298at3193          -            755      0.62    9.7   0.0   1   1    0.0044       1.1    8.8   0.0   432   473    25    66    16    88 0.89 -
PC3A_TRINITY_DN42985_c1_g1_i19.p1PC3A_TRINITY_DN42985_c1_g1 -            441 12298at3193          -            755      0.73    9.4   0.0   1   1    0.0041       1.1    8.9   0.0   486   533   372   420   363   430 0.85 -
PC1A_TRINITY_DN22537_c0_g1_i1.p1PC1A_TRINITY_DN22537_c0_g1  -            107 12298at3193          -            755      0.74    9.4   0.0   1   1     0.003      0.79    9.3   0.0   436   470    14    48     3    66 0.78 -
PC2A_TRINITY_DN28296_c5_g4_i2.p1PC2A_TRINITY_DN28296_c5_g4  -            172 12298at3193          -            755      0.82    9.3   0.0   1   1    0.0036      0.95    9.1   0.0   493   533   120   160    90   165 0.62 -
#
# Program:         hmmsearch
# Version:         3.2.1 (June 2018)
# Pipeline mode:   SEARCH
# Query file:      /isg/shared/databases/BUSCO/odb10/embryophyta_odb10/hmms/12298at3193.hmm
# Target file:     Pine_final_annotations_no_contam_lvl0.faa
# Option settings: /usr/local/bin/hmmsearch --domtblout /labs/Wegrzyn/Juniper_Pine/BUSCO/NEW/busco_pine/run_embryophyta_odb10/hmmer_output/12298at3193.out --cpu 1 /isg/shared/databases/BUSCO/odb10/embryophyta_odb10/hmms/12298at3193.hmm Pine_final_annotations_no_contam_lvl0.faa 
# Current dir:     /labs/Wegrzyn/Juniper_Pine/BUSCO/NEW
# Date:            Thu Aug  6 14:40:27 2020
# [ok]
