#                                                                                                                  --- full sequence --- -------------- this domain -------------   hmm coord   ali coord   env coord
# target name                                              accession   tlen query name           accession   qlen   E-value  score  bias   #  of  c-Evalue  i-Evalue  score  bias  from    to  from    to  from    to  acc description of target
#                                      ------------------- ---------- ----- -------------------- ---------- ----- --------- ------ ----- --- --- --------- --------- ------ ----- ----- ----- ----- ----- ----- ----- ---- ---------------------
PC1A_TRINITY_DN6185_c0_g1_i1.p1PC1A_TRINITY_DN6185_c0_g1   -            117 123110at3193         -            405   2.7e-13   51.2   0.0   1   1   2.5e-16   3.2e-13   51.0   0.0   235   305     4    76     1    82 0.91 -
PC2J_TRINITY_DN25415_c0_g1_i1.p1PC2J_TRINITY_DN25415_c0_g1 -            117 123110at3193         -            405   3.1e-13   51.0   0.3   1   1   2.8e-16   3.7e-13   50.8   0.3   239   322     8   100     4   111 0.82 -
PC1A_TRINITY_DN37218_c0_g1_i3.p1PC1A_TRINITY_DN37218_c0_g1 -            282 123110at3193         -            405   6.5e-07   30.2   0.2   1   1   6.9e-10   8.9e-07   29.8   0.2     5    88    70   161    67   175 0.85 -
PC3J_TRINITY_DN39397_c0_g1_i1.p1PC3J_TRINITY_DN39397_c0_g1 -            137 123110at3193         -            405   1.4e-06   29.2   0.1   1   1   1.2e-09   1.5e-06   29.0   0.1     7    96    26   123    20   135 0.75 -
PC1A_TRINITY_DN5785_c0_g1_i1.p1PC1A_TRINITY_DN5785_c0_g1   -            154 123110at3193         -            405     4e-06   27.6   0.5   1   1   3.6e-09   4.7e-06   27.4   0.5    20    88    57   130    38   143 0.83 -
PC2J_TRINITY_DN45568_c2_g4_i1.p1PC2J_TRINITY_DN45568_c2_g4 -            126 123110at3193         -            405     4e-06   27.6   0.1   1   1   3.3e-09   4.3e-06   27.5   0.1     5    84    20   107    16   122 0.79 -
PC1A_TRINITY_DN45450_c0_g1_i1.p1PC1A_TRINITY_DN45450_c0_g1 -            109 123110at3193         -            405   4.6e-06   27.4   0.1   1   1   5.6e-09   7.3e-06   26.7   0.1   242   277    69   108    65   109 0.81 -
PC1J_TRINITY_DN37053_c3_g1_i2.p1PC1J_TRINITY_DN37053_c3_g1 -            195 123110at3193         -            405     1e-05   26.3   0.2   1   1   9.6e-09   1.2e-05   26.0   0.2     6    96     8   106     3   124 0.84 -
PC1A_TRINITY_DN39025_c0_g2_i1.p1PC1A_TRINITY_DN39025_c0_g2 -            120 123110at3193         -            405   2.8e-05   24.8   0.0   1   2       1.7   2.2e+03   -1.2   0.0   133   149     6    22     2    42 0.71 -
PC1A_TRINITY_DN39025_c0_g2_i1.p1PC1A_TRINITY_DN39025_c0_g2 -            120 123110at3193         -            405   2.8e-05   24.8   0.0   2   2   6.3e-08   8.2e-05   23.3   0.0   241   280    68   111    63   116 0.82 -
PC2J_TRINITY_DN43680_c1_g3_i4.p1PC2J_TRINITY_DN43680_c1_g3 -            400 123110at3193         -            405   2.9e-05   24.8   5.7   1   3     0.059        77    3.6   0.3    19    64    53   103    35   122 0.64 -
PC2J_TRINITY_DN43680_c1_g3_i4.p1PC2J_TRINITY_DN43680_c1_g3 -            400 123110at3193         -            405   2.9e-05   24.8   5.7   2   3   6.9e-06    0.0089   16.6   0.1    19   105   113   204   101   224 0.79 -
PC2J_TRINITY_DN43680_c1_g3_i4.p1PC2J_TRINITY_DN43680_c1_g3 -            400 123110at3193         -            405   2.9e-05   24.8   5.7   3   3    0.0072       9.4    6.6   0.1    37    90   340   394   336   398 0.81 -
PC2J_TRINITY_DN44586_c0_g1_i1.p1PC2J_TRINITY_DN44586_c0_g1 -            346 123110at3193         -            405     3e-05   24.7   0.3   1   1   4.1e-08   5.3e-05   23.9   0.3     4    91   137   232   134   250 0.80 -
PC3J_TRINITY_DN48933_c0_g3_i1.p1PC3J_TRINITY_DN48933_c0_g3 -            436 123110at3193         -            405   7.1e-05   23.5   0.1   1   1   9.8e-08   0.00013   22.7   0.1   241   282   306   351   297   369 0.79 -
PC1J_TRINITY_DN42322_c0_g1_i1.p1PC1J_TRINITY_DN42322_c0_g1 -            165 123110at3193         -            405   7.7e-05   23.4   0.0   1   1   6.9e-08     9e-05   23.2   0.0   217   284    53   123    26   133 0.75 -
PC3A_TRINITY_DN25600_c0_g1_i1.p1PC3A_TRINITY_DN25600_c0_g1 -            127 123110at3193         -            405   0.00013   22.7   0.9   1   1   1.1e-07   0.00014   22.5   0.9    32    90    47   108    12   120 0.82 -
PC1J_TRINITY_DN34930_c0_g5_i1.p1PC1J_TRINITY_DN34930_c0_g5 -            182 123110at3193         -            405   0.00027   21.6   0.2   1   1   2.8e-07   0.00037   21.2   0.2    26    87    60   123    53   130 0.86 -
PC1A_TRINITY_DN43540_c1_g4_i1.p1PC1A_TRINITY_DN43540_c1_g4 -            148 123110at3193         -            405   0.00027   21.6   0.1   1   1   2.7e-07   0.00035   21.2   0.1    34    84     9    62     6    77 0.87 -
PC3J_TRINITY_DN41247_c0_g1_i8.p1PC3J_TRINITY_DN41247_c0_g1 -            573 123110at3193         -            405   0.00057   20.5   0.4   1   1   7.1e-07   0.00093   19.8   0.4    17    87   470   548   456   562 0.81 -
PC2J_TRINITY_DN44650_c8_g1_i1.p1PC2J_TRINITY_DN44650_c8_g1 -            102 123110at3193         -            405   0.00084   20.0   0.0   1   2    0.0048       6.2    7.2   0.0    54    88     4    38     2    43 0.94 -
PC2J_TRINITY_DN44650_c8_g1_i1.p1PC2J_TRINITY_DN44650_c8_g1 -            102 123110at3193         -            405   0.00084   20.0   0.0   2   2   0.00031      0.41   11.1   0.1    39    84    57   102    41   102 0.87 -
PC1J_TRINITY_DN39493_c1_g3_i1.p1PC1J_TRINITY_DN39493_c1_g3 -            151 123110at3193         -            405   0.00085   19.9   0.7   1   1   8.1e-07    0.0011   19.6   0.7    33    84    38    92    14   112 0.81 -
PC2A_TRINITY_DN34850_c0_g1_i3.p1PC2A_TRINITY_DN34850_c0_g1 -            141 123110at3193         -            405   0.00087   19.9   0.1   1   1   7.8e-07     0.001   19.7   0.1    19   105    24   115    18   130 0.78 -
PC1J_TRINITY_DN39499_c2_g1_i2.p1PC1J_TRINITY_DN39499_c2_g1 -            105 123110at3193         -            405   0.00099   19.7   0.1   1   1   8.2e-07    0.0011   19.6   0.1    17    88    19    95     2   102 0.79 -
PC2J_TRINITY_DN41106_c1_g1_i8.p1PC2J_TRINITY_DN41106_c1_g1 -            117 123110at3193         -            405    0.0016   19.0   0.1   1   1   1.5e-06     0.002   18.8   0.1    48    88     1    41     1    63 0.93 -
PC1J_TRINITY_DN37424_c2_g1_i2.p1PC1J_TRINITY_DN37424_c2_g1 -            107 123110at3193         -            405    0.0019   18.8   0.0   1   1   1.7e-06    0.0023   18.5   0.0   244   281     3    44     1    53 0.80 -
PC2J_TRINITY_DN39687_c3_g5_i1.p1PC2J_TRINITY_DN39687_c3_g5 -            121 123110at3193         -            405     0.002   18.7   0.0   1   1   2.1e-06    0.0027   18.3   0.0   243   281    16    58    14    67 0.80 -
PC1A_TRINITY_DN33447_c0_g1_i2.p1PC1A_TRINITY_DN33447_c0_g1 -            207 123110at3193         -            405    0.0021   18.7   0.1   1   1   2.2e-06    0.0028   18.2   0.1    32    87     9    67     2    87 0.84 -
PC2A_TRINITY_DN37488_c0_g1_i1.p1PC2A_TRINITY_DN37488_c0_g1 -            127 123110at3193         -            405    0.0058   17.2   0.1   1   1   4.5e-06    0.0059   17.2   0.1   245   289     5    53     3   113 0.76 -
PC3J_TRINITY_DN39397_c3_g2_i4.p1PC3J_TRINITY_DN39397_c3_g2 -            357 123110at3193         -            405      0.01   16.4   1.1   1   3      0.01        13    6.1   0.0    36    89    92   148    72   161 0.86 -
PC3J_TRINITY_DN39397_c3_g2_i4.p1PC3J_TRINITY_DN39397_c3_g2 -            357 123110at3193         -            405      0.01   16.4   1.1   2   3      0.81   1.1e+03   -0.1   0.0    48   100   182   235   160   255 0.72 -
PC3J_TRINITY_DN39397_c3_g2_i4.p1PC3J_TRINITY_DN39397_c3_g2 -            357 123110at3193         -            405      0.01   16.4   1.1   3   3    0.0054       7.1    7.0   0.0     5    60   291   354   287   357 0.72 -
PC1J_TRINITY_DN36335_c2_g1_i1.p1PC1J_TRINITY_DN36335_c2_g1 -            247 123110at3193         -            405     0.013   16.0   1.3   1   2       1.3   1.7e+03   -0.8   0.0    37    84    68   115    56   119 0.81 -
PC1J_TRINITY_DN36335_c2_g1_i1.p1PC1J_TRINITY_DN36335_c2_g1 -            247 123110at3193         -            405     0.013   16.0   1.3   2   2   1.9e-05     0.024   15.1   0.3    44    92   153   201   135   224 0.91 -
PC2A_TRINITY_DN33818_c2_g1_i1.p1PC2A_TRINITY_DN33818_c2_g1 -            279 123110at3193         -            405     0.019   15.5   0.6   1   1   2.3e-05      0.03   14.8   0.6    34   100   149   218   141   237 0.81 -
PC3J_TRINITY_DN618_c0_g1_i1.p1PC3J_TRINITY_DN618_c0_g1     -            109 123110at3193         -            405     0.021   15.4   0.1   1   1   1.9e-05     0.025   15.1   0.1   234   254    87   107    77   109 0.89 -
PC3J_TRINITY_DN51649_c0_g1_i1.p1PC3J_TRINITY_DN51649_c0_g1 -            145 123110at3193         -            405     0.021   15.3   1.6   1   2     0.077     1e+02    3.2   0.1    51    91     1    41     1    67 0.89 -
PC3J_TRINITY_DN51649_c0_g1_i1.p1PC3J_TRINITY_DN51649_c0_g1 -            145 123110at3193         -            405     0.021   15.3   1.6   2   2   0.00019      0.25   11.8   0.1    45    85    86   126    75   141 0.86 -
PC1J_TRINITY_DN38902_c0_g4_i1.p1PC1J_TRINITY_DN38902_c0_g4 -            614 123110at3193         -            405     0.024   15.2   7.4   1   5      0.15     2e+02    2.3   0.1    33    87     7    58     3   106 0.65 -
PC1J_TRINITY_DN38902_c0_g4_i1.p1PC1J_TRINITY_DN38902_c0_g4 -            614 123110at3193         -            405     0.024   15.2   7.4   2   5     0.056        73    3.7   0.2    28    86   101   162    91   169 0.82 -
PC1J_TRINITY_DN38902_c0_g4_i1.p1PC1J_TRINITY_DN38902_c0_g4 -            614 123110at3193         -            405     0.024   15.2   7.4   3   5     0.088   1.1e+02    3.1   0.1    30    90   171   234   150   260 0.81 -
PC1J_TRINITY_DN38902_c0_g4_i1.p1PC1J_TRINITY_DN38902_c0_g4 -            614 123110at3193         -            405     0.024   15.2   7.4   4   5     0.038        49    4.3   0.1    32    88   275   334   261   343 0.77 -
PC1J_TRINITY_DN38902_c0_g4_i1.p1PC1J_TRINITY_DN38902_c0_g4 -            614 123110at3193         -            405     0.024   15.2   7.4   5   5      0.11   1.5e+02    2.7   0.0    45    84   359   398   335   426 0.82 -
PC3J_TRINITY_DN51258_c0_g1_i1.p1PC3J_TRINITY_DN51258_c0_g1 -            129 123110at3193         -            405     0.031   14.8   0.2   1   1   2.5e-05     0.033   14.7   0.2    20    91    35   108    13   121 0.76 -
PC1J_TRINITY_DN39957_c2_g1_i6.p1PC1J_TRINITY_DN39957_c2_g1 -            174 123110at3193         -            405     0.032   14.8   0.1   1   2    0.0038         5    7.5   0.0    51    90    23    62    15    64 0.87 -
PC1J_TRINITY_DN39957_c2_g1_i6.p1PC1J_TRINITY_DN39957_c2_g1 -            174 123110at3193         -            405     0.032   14.8   0.1   2   2    0.0064       8.3    6.8   0.1    45    92    61   112    59   125 0.72 -
PC2J_TRINITY_DN44355_c1_g2_i1.p1PC2J_TRINITY_DN44355_c1_g2 -            103 123110at3193         -            405     0.034   14.7   0.0   1   1   2.8e-05     0.037   14.6   0.0    35    89    37    94    17   101 0.83 -
PC1A_TRINITY_DN48069_c0_g1_i1.p1PC1A_TRINITY_DN48069_c0_g1 -            145 123110at3193         -            405     0.047   14.2   0.0   1   1   5.7e-05     0.074   13.6   0.0   241   258   114   131   106   145 0.73 -
PC1J_TRINITY_DN39957_c2_g1_i4.p1PC1J_TRINITY_DN39957_c2_g1 -            211 123110at3193         -            405     0.052   14.1   0.1   1   2     0.007       9.1    6.7   0.0    51    90    23    62    15    63 0.87 -
PC1J_TRINITY_DN39957_c2_g1_i4.p1PC1J_TRINITY_DN39957_c2_g1 -            211 123110at3193         -            405     0.052   14.1   0.1   2   2    0.0083        11    6.4   0.1    45    93    61   113    60   139 0.73 -
PC3J_TRINITY_DN35505_c0_g1_i1.p1PC3J_TRINITY_DN35505_c0_g1 -            148 123110at3193         -            405      0.07   13.6   0.1   1   1   6.8e-05     0.088   13.3   0.1    38    89    60   114    52   127 0.82 -
PC3J_TRINITY_DN39889_c4_g1_i1.p1PC3J_TRINITY_DN39889_c4_g1 -            102 123110at3193         -            405     0.078   13.5   0.6   1   1   6.3e-05     0.082   13.4   0.6    42   103    36    97    18   101 0.84 -
PC1J_TRINITY_DN34566_c0_g3_i1.p1PC1J_TRINITY_DN34566_c0_g3 -            101 123110at3193         -            405      0.11   12.9   0.1   1   1     9e-05      0.12   12.9   0.1    31    70    42    84     9    96 0.78 -
PC2J_TRINITY_DN44009_c7_g2_i2.p1PC2J_TRINITY_DN44009_c7_g2 -            208 123110at3193         -            405      0.15   12.6   0.1   1   1   0.00017      0.22   12.0   0.1    45    90   139   184   121   197 0.87 -
PC2J_TRINITY_DN36894_c4_g1_i2.p1PC2J_TRINITY_DN36894_c4_g1 -            102 123110at3193         -            405      0.16   12.5   0.6   1   1   0.00014      0.18   12.3   0.6    32    87    38    96     7   101 0.72 -
PC1J_TRINITY_DN40022_c2_g5_i3.p1PC1J_TRINITY_DN40022_c2_g5 -            260 123110at3193         -            405      0.18   12.3   0.0   1   1   0.00032      0.42   11.1   0.0    35    88   100   156    80   161 0.84 -
PC1A_TRINITY_DN42966_c1_g5_i1.p1PC1A_TRINITY_DN42966_c1_g5 -            106 123110at3193         -            405      0.27   11.7   0.0   1   1   0.00022      0.29   11.6   0.0    46    89    20    63     4    86 0.86 -
PC2J_TRINITY_DN43680_c1_g3_i2.p1PC2J_TRINITY_DN43680_c1_g3 -            342 123110at3193         -            405      0.31   11.5   0.6   1   2       3.2   4.2e+03   -2.1   0.0    58   105    36    83    31    96 0.74 -
PC2J_TRINITY_DN43680_c1_g3_i2.p1PC2J_TRINITY_DN43680_c1_g3 -            342 123110at3193         -            405      0.31   11.5   0.6   2   2   0.00063      0.82   10.1   0.4    38    98   220   281   215   322 0.83 -
PC3A_TRINITY_DN40149_c1_g1_i1.p1PC3A_TRINITY_DN40149_c1_g1 -            310 123110at3193         -            405      0.32   11.5   2.4   1   3     0.001       1.4    9.4   0.0    34    98    47   111    31   121 0.79 -
PC3A_TRINITY_DN40149_c1_g1_i1.p1PC3A_TRINITY_DN40149_c1_g1 -            310 123110at3193         -            405      0.32   11.5   2.4   2   3      0.49   6.3e+02    0.6   0.1    46    89   130   173   122   184 0.87 -
PC3A_TRINITY_DN40149_c1_g1_i1.p1PC3A_TRINITY_DN40149_c1_g1 -            310 123110at3193         -            405      0.32   11.5   2.4   3   3       3.2   4.2e+03   -2.1   0.1    55    85   207   237   197   273 0.61 -
PC2J_TRINITY_DN44586_c0_g1_i5.p1PC2J_TRINITY_DN44586_c0_g1 -            203 123110at3193         -            405      0.33   11.4   0.0   1   1   0.00037      0.48   10.9   0.0    50    91    24    65    20    86 0.90 -
PC1J_TRINITY_DN38859_c2_g3_i3.p1PC1J_TRINITY_DN38859_c2_g3 -            211 123110at3193         -            405      0.47   10.9   0.0   1   2    0.0025       3.3    8.2   0.0    45    87   100   142    96   152 0.91 -
PC1J_TRINITY_DN38859_c2_g3_i3.p1PC1J_TRINITY_DN38859_c2_g3 -            211 123110at3193         -            405      0.47   10.9   0.0   2   2      0.56   7.2e+02    0.4   0.0    53    87   152   186   139   194 0.87 -
PC3A_TRINITY_DN41376_c1_g1_i2.p1PC3A_TRINITY_DN41376_c1_g1 -            171 123110at3193         -            405       0.5   10.8   0.0   1   1   0.00069       0.9   10.0   0.0    45    87   100   142    96   147 0.93 -
#
# Program:         hmmsearch
# Version:         3.2.1 (June 2018)
# Pipeline mode:   SEARCH
# Query file:      /isg/shared/databases/BUSCO/odb10/embryophyta_odb10/hmms/123110at3193.hmm
# Target file:     Pine_final_annotations_no_contam_lvl0.faa
# Option settings: /usr/local/bin/hmmsearch --domtblout /labs/Wegrzyn/Juniper_Pine/BUSCO/NEW/busco_pine/run_embryophyta_odb10/hmmer_output/123110at3193.out --cpu 1 /isg/shared/databases/BUSCO/odb10/embryophyta_odb10/hmms/123110at3193.hmm Pine_final_annotations_no_contam_lvl0.faa 
# Current dir:     /labs/Wegrzyn/Juniper_Pine/BUSCO/NEW
# Date:            Thu Aug  6 14:40:36 2020
# [ok]
