#                                                                                                                  --- full sequence --- -------------- this domain -------------   hmm coord   ali coord   env coord
# target name                                              accession   tlen query name           accession   qlen   E-value  score  bias   #  of  c-Evalue  i-Evalue  score  bias  from    to  from    to  from    to  acc description of target
#                                      ------------------- ---------- ----- -------------------- ---------- ----- --------- ------ ----- --- --- --------- --------- ------ ----- ----- ----- ----- ----- ----- ----- ---- ---------------------
PC3A_TRINITY_DN27801_c0_g1_i2.p1PC3A_TRINITY_DN27801_c0_g1 -            238 130795at3193         -            242   3.3e-90  303.5   0.6   1   1     4e-92   6.3e-88  296.0   0.6    29   229     2   238     1   238 0.94 -
PC3J_TRINITY_DN35305_c0_g1_i2.p1PC3J_TRINITY_DN35305_c0_g1 -            169 130795at3193         -            242   4.6e-56  191.7   1.2   1   1   1.5e-59   2.3e-55  189.4   1.2    81   202    26   161    15   166 0.91 -
PC3J_TRINITY_DN35305_c0_g1_i3.p1PC3J_TRINITY_DN35305_c0_g1 -            110 130795at3193         -            242   2.4e-32  114.1   2.2   1   1   9.6e-36   1.5e-31  111.4   2.2   122   203     8   103     3   107 0.90 -
PC1J_TRINITY_DN36177_c1_g2_i1.p1PC1J_TRINITY_DN36177_c1_g2 -            127 130795at3193         -            242     0.028   15.6   0.0   1   2    0.0004       6.3    7.9   0.0   107   130    40    63    34    76 0.84 -
PC1J_TRINITY_DN36177_c1_g2_i1.p1PC1J_TRINITY_DN36177_c1_g2 -            127 130795at3193         -            242     0.028   15.6   0.0   2   2    0.0017        27    5.8   0.0   107   126   106   125   100   126 0.92 -
#
# Program:         hmmsearch
# Version:         3.2.1 (June 2018)
# Pipeline mode:   SEARCH
# Query file:      /isg/shared/databases/BUSCO/odb10/embryophyta_odb10/hmms/130795at3193.hmm
# Target file:     Pine_final_annotations_no_contam_lvl0.faa
# Option settings: /usr/local/bin/hmmsearch --domtblout /labs/Wegrzyn/Juniper_Pine/BUSCO/NEW/busco_pine/run_embryophyta_odb10/hmmer_output/130795at3193.out --cpu 1 /isg/shared/databases/BUSCO/odb10/embryophyta_odb10/hmms/130795at3193.hmm Pine_final_annotations_no_contam_lvl0.faa 
# Current dir:     /labs/Wegrzyn/Juniper_Pine/BUSCO/NEW
# Date:            Thu Aug  6 14:41:30 2020
# [ok]
