#                                                                                                                   --- full sequence --- -------------- this domain -------------   hmm coord   ali coord   env coord
# target name                                               accession   tlen query name           accession   qlen   E-value  score  bias   #  of  c-Evalue  i-Evalue  score  bias  from    to  from    to  from    to  acc description of target
#                                       ------------------- ---------- ----- -------------------- ---------- ----- --------- ------ ----- --- --- --------- --------- ------ ----- ----- ----- ----- ----- ----- ----- ---- ---------------------
PC1J_TRINITY_DN36615_c1_g2_i3.p1PC1J_TRINITY_DN36615_c1_g2  -            267 134161at3193         -            243   7.5e-59  200.9   6.3   1   1   1.2e-62   1.5e-58  199.9   6.3     1   142    90   246    90   267 0.87 -
PC3J_TRINITY_DN26704_c0_g1_i1.p1PC3J_TRINITY_DN26704_c0_g1  -            203 134161at3193         -            243   1.6e-46  160.6   1.3   1   2   1.8e-10   2.3e-06   29.0   0.0    49    69     1    21     1    31 0.92 -
PC3J_TRINITY_DN26704_c0_g1_i1.p1PC3J_TRINITY_DN26704_c0_g1  -            203 134161at3193         -            243   1.6e-46  160.6   1.3   2   2   1.9e-41   2.4e-37  130.5   0.3     1    82    77   161    77   187 0.92 -
PC2J_TRINITY_DN3913_c0_g1_i1.p1PC2J_TRINITY_DN3913_c0_g1    -            118 134161at3193         -            243   1.4e-38  134.5   1.4   1   1   1.7e-41   2.2e-37  130.6   1.4   143   242     1   117     1   118 0.83 -
PC2J_TRINITY_DN39660_c3_g2_i14.p1PC2J_TRINITY_DN39660_c3_g2 -            275 134161at3193         -            243      0.11   13.7   0.2   1   1   1.3e-05      0.16   13.1   0.2   142   190    29    77    12    84 0.86 -
PC3J_TRINITY_DN23895_c0_g1_i1.p2PC3J_TRINITY_DN23895_c0_g1  -            121 134161at3193         -            243      0.45   11.7   0.0   1   2    0.0029        37    5.4   0.0   172   204    30    62    12    69 0.83 -
PC3J_TRINITY_DN23895_c0_g1_i1.p2PC3J_TRINITY_DN23895_c0_g1  -            121 134161at3193         -            243      0.45   11.7   0.0   2   2    0.0048        61    4.7   0.0   172   201    87   116    69   121 0.83 -
#
# Program:         hmmsearch
# Version:         3.2.1 (June 2018)
# Pipeline mode:   SEARCH
# Query file:      /isg/shared/databases/BUSCO/odb10/embryophyta_odb10/hmms/134161at3193.hmm
# Target file:     Pine_final_annotations_no_contam_lvl0.faa
# Option settings: /usr/local/bin/hmmsearch --domtblout /labs/Wegrzyn/Juniper_Pine/BUSCO/NEW/busco_pine/run_embryophyta_odb10/hmmer_output/134161at3193.out --cpu 1 /isg/shared/databases/BUSCO/odb10/embryophyta_odb10/hmms/134161at3193.hmm Pine_final_annotations_no_contam_lvl0.faa 
# Current dir:     /labs/Wegrzyn/Juniper_Pine/BUSCO/NEW
# Date:            Thu Aug  6 14:42:08 2020
# [ok]
