#                                                                                                                   --- full sequence --- -------------- this domain -------------   hmm coord   ali coord   env coord
# target name                                               accession   tlen query name           accession   qlen   E-value  score  bias   #  of  c-Evalue  i-Evalue  score  bias  from    to  from    to  from    to  acc description of target
#                                       ------------------- ---------- ----- -------------------- ---------- ----- --------- ------ ----- --- --- --------- --------- ------ ----- ----- ----- ----- ----- ----- ----- ---- ---------------------
PC3J_TRINITY_DN39621_c2_g1_i1.p1PC3J_TRINITY_DN39621_c2_g1  -            152 137897at3193         -            421   2.3e-56  193.1   0.1   1   1   9.7e-59   2.7e-56  192.9   0.1    59   185     1   144     1   150 0.93 -
PC3A_TRINITY_DN28468_c0_g1_i2.p1PC3A_TRINITY_DN28468_c0_g1  -            189 137897at3193         -            421   1.5e-49  170.6   1.4   1   1   6.5e-52   1.8e-49  170.4   1.4   259   420    20   187    11   188 0.93 -
PC3A_TRINITY_DN44055_c1_g2_i3.p1PC3A_TRINITY_DN44055_c1_g2  -            228 137897at3193         -            421   2.3e-48  166.7   0.1   1   1   1.3e-50   3.5e-48  166.2   0.1    76   185   106   227    89   228 0.86 -
PC1J_TRINITY_DN39677_c2_g2_i9.p1PC1J_TRINITY_DN39677_c2_g2  -            133 137897at3193         -            421   5.4e-34  119.4   0.0   1   1   2.3e-36   6.3e-34  119.2   0.0   112   185    54   133    47   133 0.92 -
PC3J_TRINITY_DN44339_c5_g1_i2.p1PC3J_TRINITY_DN44339_c5_g1  -            455 137897at3193         -            421   2.3e-22   81.1   8.4   1   3   2.5e-08   6.9e-06   26.8   0.3   113   218    16   135     9   142 0.77 -
PC3J_TRINITY_DN44339_c5_g1_i2.p1PC3J_TRINITY_DN44339_c5_g1  -            455 137897at3193         -            421   2.3e-22   81.1   8.4   2   3   1.4e-08   3.9e-06   27.6   0.1   150   220   148   215   140   218 0.94 -
PC3J_TRINITY_DN44339_c5_g1_i2.p1PC3J_TRINITY_DN44339_c5_g1  -            455 137897at3193         -            421   2.3e-22   81.1   8.4   3   3   3.3e-12   8.9e-10   39.6   1.0    92   179   203   294   201   328 0.87 -
PC2J_TRINITY_DN35658_c3_g1_i1.p1PC2J_TRINITY_DN35658_c3_g1  -            402 137897at3193         -            421   5.9e-21   76.4   1.9   1   3   2.7e-09   7.4e-07   30.0   0.1   124   202    10    92     3    99 0.81 -
PC2J_TRINITY_DN35658_c3_g1_i1.p1PC2J_TRINITY_DN35658_c3_g1  -            402 137897at3193         -            421   5.9e-21   76.4   1.9   2   3   3.6e-10   9.8e-08   32.9   0.2    74   168    80   185    79   192 0.73 -
PC2J_TRINITY_DN35658_c3_g1_i1.p1PC2J_TRINITY_DN35658_c3_g1  -            402 137897at3193         -            421   5.9e-21   76.4   1.9   3   3   6.3e-05     0.017   15.6   0.0    92   146   311   371   280   390 0.80 -
PC2J_TRINITY_DN41723_c0_g2_i2.p1PC2J_TRINITY_DN41723_c0_g2  -            303 137897at3193         -            421   2.6e-20   74.3   4.4   1   3    0.0047       1.3    9.4   0.0   117   149    16    48     4    59 0.82 -
PC2J_TRINITY_DN41723_c0_g2_i2.p1PC2J_TRINITY_DN41723_c0_g2  -            303 137897at3193         -            421   2.6e-20   74.3   4.4   2   3     2e-08   5.6e-06   27.1   0.1    73   146    51   129    47   133 0.86 -
PC2J_TRINITY_DN41723_c0_g2_i2.p1PC2J_TRINITY_DN41723_c0_g2  -            303 137897at3193         -            421   2.6e-20   74.3   4.4   3   3   4.1e-16   1.1e-13   52.5   0.4    71   234    91   264    89   272 0.86 -
PC2A_TRINITY_DN33328_c1_g1_i4.p1PC2A_TRINITY_DN33328_c1_g1  -            232 137897at3193         -            421   4.3e-19   70.3   9.4   1   2   4.9e-17   1.3e-14   55.5   2.6    72   241     2   190     1   193 0.81 -
PC2A_TRINITY_DN33328_c1_g1_i4.p1PC2A_TRINITY_DN33328_c1_g1  -            232 137897at3193         -            421   4.3e-19   70.3   9.4   2   2   4.4e-08   1.2e-05   26.0   0.6    74   146   133   211   133   223 0.88 -
PC1A_TRINITY_DN41112_c0_g6_i1.p1PC1A_TRINITY_DN41112_c0_g6  -            207 137897at3193         -            421   2.1e-18   68.0   0.6   1   2   2.8e-13   7.7e-11   43.1   0.2    98   185     1    98     1   107 0.81 -
PC1A_TRINITY_DN41112_c0_g6_i1.p1PC1A_TRINITY_DN41112_c0_g6  -            207 137897at3193         -            421   2.1e-18   68.0   0.6   2   2   2.4e-09   6.5e-07   30.2   0.0    41   149    63   186    56   199 0.77 -
PC3J_TRINITY_DN48225_c3_g1_i20.p1PC3J_TRINITY_DN48225_c3_g1 -            239 137897at3193         -            421   8.5e-18   66.0   6.4   1   3     2e-13   5.4e-11   43.6   0.9    73   162     7   101     4   117 0.88 -
PC3J_TRINITY_DN48225_c3_g1_i20.p1PC3J_TRINITY_DN48225_c3_g1 -            239 137897at3193         -            421   8.5e-18   66.0   6.4   2   3     0.061        17    5.8   0.0    74   106   119   152   113   156 0.84 -
PC3J_TRINITY_DN48225_c3_g1_i20.p1PC3J_TRINITY_DN48225_c3_g1 -            239 137897at3193         -            421   8.5e-18   66.0   6.4   3   3   5.7e-06    0.0016   19.1   0.1    57   121   156   231   151   236 0.80 -
PC1J_TRINITY_DN37482_c3_g1_i3.p1PC1J_TRINITY_DN37482_c3_g1  -            361 137897at3193         -            421   1.2e-17   65.6  10.6   1   3     0.087        24    5.3   0.0   126   143    32    49    16    59 0.83 -
PC1J_TRINITY_DN37482_c3_g1_i3.p1PC1J_TRINITY_DN37482_c3_g1  -            361 137897at3193         -            421   1.2e-17   65.6  10.6   2   3   1.5e-14   4.2e-12   47.3   2.0    73   202    60   196    56   201 0.79 -
PC1J_TRINITY_DN37482_c3_g1_i3.p1PC1J_TRINITY_DN37482_c3_g1  -            361 137897at3193         -            421   1.2e-17   65.6  10.6   3   3   1.4e-09   3.9e-07   30.9   1.6    81   206   149   284   141   299 0.73 -
PC1A_TRINITY_DN38151_c0_g1_i1.p1PC1A_TRINITY_DN38151_c0_g1  -            325 137897at3193         -            421   1.8e-17   65.0   0.1   1   1   8.3e-18   2.3e-15   58.0   0.1    45   221   126   318   108   320 0.79 -
PC1A_TRINITY_DN39432_c0_g1_i2.p1PC1A_TRINITY_DN39432_c0_g1  -            357 137897at3193         -            421   5.6e-17   63.4   7.5   1   3     2e-06   0.00056   20.5   1.3    78   143    58   128    16   129 0.78 -
PC1A_TRINITY_DN39432_c0_g1_i2.p1PC1A_TRINITY_DN39432_c0_g1  -            357 137897at3193         -            421   5.6e-17   63.4   7.5   2   3   2.7e-10   7.4e-08   33.3   2.4    45   145    61   174    45   181 0.78 -
PC1A_TRINITY_DN39432_c0_g1_i2.p1PC1A_TRINITY_DN39432_c0_g1  -            357 137897at3193         -            421   5.6e-17   63.4   7.5   3   3   1.7e-09   4.6e-07   30.7   0.2    73   195   181   314   178   334 0.77 -
PC1A_TRINITY_DN43042_c1_g2_i1.p1PC1A_TRINITY_DN43042_c1_g2  -            378 137897at3193         -            421   1.5e-16   62.0   0.0   1   3    0.0051       1.4    9.3   0.0   188   242    59   118    53   132 0.78 -
PC1A_TRINITY_DN43042_c1_g2_i1.p1PC1A_TRINITY_DN43042_c1_g2  -            378 137897at3193         -            421   1.5e-16   62.0   0.0   2   3   1.1e-13     3e-11   44.5   0.0    72   213   150   314   111   329 0.74 -
PC1A_TRINITY_DN43042_c1_g2_i1.p1PC1A_TRINITY_DN43042_c1_g2  -            378 137897at3193         -            421   1.5e-16   62.0   0.0   3   3      0.26        71    3.7   0.0   113   143   339   369   322   372 0.87 -
PC3J_TRINITY_DN45182_c1_g1_i16.p1PC3J_TRINITY_DN45182_c1_g1 -            332 137897at3193         -            421   2.8e-16   61.1   3.4   1   3   1.3e-12   3.5e-10   41.0   0.2    42   214    51   239    33   247 0.78 -
PC3J_TRINITY_DN45182_c1_g1_i16.p1PC3J_TRINITY_DN45182_c1_g1 -            332 137897at3193         -            421   2.8e-16   61.1   3.4   2   3   1.2e-07   3.2e-05   24.6   0.1    71   182   129   248   126   282 0.52 -
PC3J_TRINITY_DN45182_c1_g1_i16.p1PC3J_TRINITY_DN45182_c1_g1 -            332 137897at3193         -            421   2.8e-16   61.1   3.4   3   3    0.0042       1.2    9.6   0.0    92   142   277   330   261   331 0.83 -
PC1A_TRINITY_DN18594_c0_g1_i1.p1PC1A_TRINITY_DN18594_c0_g1  -            205 137897at3193         -            421   5.1e-16   60.2   5.5   1   2   3.3e-16     9e-14   52.8   2.4    93   225     2   144     1   149 0.83 -
PC1A_TRINITY_DN18594_c0_g1_i1.p1PC1A_TRINITY_DN18594_c0_g1  -            205 137897at3193         -            421   5.1e-16   60.2   5.5   2   2   4.7e-05     0.013   16.0   0.2    92   143   127   183   126   195 0.81 -
PC3A_TRINITY_DN36736_c1_g3_i4.p1PC3A_TRINITY_DN36736_c1_g3  -            386 137897at3193         -            421   5.6e-16   60.0   1.0   1   2   2.3e-12   6.4e-10   40.1   0.2    42   214   103   291    86   297 0.78 -
PC3A_TRINITY_DN36736_c1_g3_i4.p1PC3A_TRINITY_DN36736_c1_g3  -            386 137897at3193         -            421   5.6e-16   60.0   1.0   2   2   3.1e-08   8.6e-06   26.5   0.0    70   241   180   364   179   380 0.72 -
PC2J_TRINITY_DN44110_c0_g3_i6.p1PC2J_TRINITY_DN44110_c0_g3  -            138 137897at3193         -            421   5.9e-16   60.0   5.1   1   2   1.5e-06   0.00043   20.9   0.1   113   144     3    35     1    42 0.87 -
PC2J_TRINITY_DN44110_c0_g3_i6.p1PC2J_TRINITY_DN44110_c0_g3  -            138 137897at3193         -            421   5.9e-16   60.0   5.1   2   2   1.1e-12   3.1e-10   41.1   1.8    82   149    39   111    34   132 0.78 -
PC3A_TRINITY_DN36736_c1_g3_i3.p1PC3A_TRINITY_DN36736_c1_g3  -            443 137897at3193         -            421   1.1e-15   59.1   1.1   1   2   2.8e-12   7.7e-10   39.8   0.2    42   214   160   348   143   355 0.78 -
PC3A_TRINITY_DN36736_c1_g3_i3.p1PC3A_TRINITY_DN36736_c1_g3  -            443 137897at3193         -            421   1.1e-15   59.1   1.1   2   2   4.3e-08   1.2e-05   26.0   0.1    70   241   237   421   236   437 0.71 -
PC3J_TRINITY_DN27586_c0_g1_i1.p1PC3J_TRINITY_DN27586_c0_g1  -            278 137897at3193         -            421   1.3e-15   58.8   0.7   1   2   5.8e-16   1.6e-13   52.0   0.1    73   223    15   176     9   179 0.86 -
PC3J_TRINITY_DN27586_c0_g1_i1.p1PC3J_TRINITY_DN27586_c0_g1  -            278 137897at3193         -            421   1.3e-15   58.8   0.7   2   2      0.12        34    4.8   0.1   115   149   197   230   188   260 0.70 -
PC3J_TRINITY_DN40636_c1_g1_i7.p1PC3J_TRINITY_DN40636_c1_g1  -            285 137897at3193         -            421   2.5e-15   57.9   5.2   1   3   0.00077      0.21   12.0   0.0   145   180    14    50     4    56 0.83 -
PC3J_TRINITY_DN40636_c1_g1_i7.p1PC3J_TRINITY_DN40636_c1_g1  -            285 137897at3193         -            421   2.5e-15   57.9   5.2   2   3   0.00014     0.039   14.5   0.2   162   220    79   138    75   141 0.73 -
PC3J_TRINITY_DN40636_c1_g1_i7.p1PC3J_TRINITY_DN40636_c1_g1  -            285 137897at3193         -            421   2.5e-15   57.9   5.2   3   3   1.3e-09   3.6e-07   31.0   0.3    73   180   151   270   144   274 0.77 -
PC3J_TRINITY_DN19667_c0_g1_i1.p1PC3J_TRINITY_DN19667_c0_g1  -            237 137897at3193         -            421   2.8e-15   57.7   0.1   1   3   5.1e-07   0.00014   22.5   0.0    45   109     3    73     1    78 0.84 -
PC3J_TRINITY_DN19667_c0_g1_i1.p1PC3J_TRINITY_DN19667_c0_g1  -            237 137897at3193         -            421   2.8e-15   57.7   0.1   2   3      0.12        33    4.8   0.0    32    73    73   114    70   123 0.83 -
PC3J_TRINITY_DN19667_c0_g1_i1.p1PC3J_TRINITY_DN19667_c0_g1  -            237 137897at3193         -            421   2.8e-15   57.7   0.1   3   3   9.6e-09   2.7e-06   28.2   0.1   113   198   130   224   122   231 0.77 -
PC3A_TRINITY_DN40572_c0_g2_i2.p1PC3A_TRINITY_DN40572_c0_g2  -            245 137897at3193         -            421   9.4e-15   56.0   0.4   1   2   4.9e-16   1.3e-13   52.2   0.3    70   222    16   182     7   187 0.84 -
PC3A_TRINITY_DN40572_c0_g2_i2.p1PC3A_TRINITY_DN40572_c0_g2  -            245 137897at3193         -            421   9.4e-15   56.0   0.4   2   2       2.6   7.2e+02    0.4   0.0    46    71   207   232   201   242 0.83 -
PC1J_TRINITY_DN33525_c0_g1_i1.p1PC1J_TRINITY_DN33525_c0_g1  -            257 137897at3193         -            421   2.3e-14   54.7   2.9   1   2   0.00018     0.049   14.1   0.1   128   181    37    97    27   107 0.72 -
PC1J_TRINITY_DN33525_c0_g1_i1.p1PC1J_TRINITY_DN33525_c0_g1  -            257 137897at3193         -            421   2.3e-14   54.7   2.9   2   2   1.2e-12   3.4e-10   41.0   0.4    45   146   126   239   121   251 0.86 -
PC3A_TRINITY_DN36596_c1_g5_i2.p1PC3A_TRINITY_DN36596_c1_g5  -            324 137897at3193         -            421   3.6e-14   54.1   1.8   1   3   7.5e-05     0.021   15.4   0.4    40   144    10   134     4   137 0.61 -
PC3A_TRINITY_DN36596_c1_g5_i2.p1PC3A_TRINITY_DN36596_c1_g5  -            324 137897at3193         -            421   3.6e-14   54.1   1.8   2   3   1.4e-09   3.8e-07   31.0   0.0    35   120   139   232   134   250 0.81 -
PC3A_TRINITY_DN36596_c1_g5_i2.p1PC3A_TRINITY_DN36596_c1_g5  -            324 137897at3193         -            421   3.6e-14   54.1   1.8   3   3      0.18        49    4.2   0.0    42    71   293   322   263   323 0.89 -
PC2J_TRINITY_DN38512_c0_g2_i8.p1PC2J_TRINITY_DN38512_c0_g2  -            304 137897at3193         -            421   4.8e-14   53.7  10.8   1   3   2.9e-09     8e-07   29.9   1.6    81   154    14    92     6   101 0.82 -
PC2J_TRINITY_DN38512_c0_g2_i8.p1PC2J_TRINITY_DN38512_c0_g2  -            304 137897at3193         -            421   4.8e-14   53.7  10.8   2   3   9.4e-09   2.6e-06   28.2   1.8    73   145   117   196    99   206 0.82 -
PC2J_TRINITY_DN38512_c0_g2_i8.p1PC2J_TRINITY_DN38512_c0_g2  -            304 137897at3193         -            421   4.8e-14   53.7  10.8   3   3       8.1   2.2e+03   -1.2   0.0    47    73   213   238   195   242 0.69 -
PC1A_TRINITY_DN44091_c6_g1_i2.p1PC1A_TRINITY_DN44091_c6_g1  -            327 137897at3193         -            421   7.4e-14   53.1   0.0   1   3   2.9e-05    0.0081   16.7   0.0    74   145     6    82     2   103 0.83 -
PC1A_TRINITY_DN44091_c6_g1_i2.p1PC1A_TRINITY_DN44091_c6_g1  -            327 137897at3193         -            421   7.4e-14   53.1   0.0   2   3   3.5e-10   9.7e-08   32.9   0.0    90   152   159   228   139   256 0.77 -
PC1A_TRINITY_DN44091_c6_g1_i2.p1PC1A_TRINITY_DN44091_c6_g1  -            327 137897at3193         -            421   7.4e-14   53.1   0.0   3   3       6.5   1.8e+03   -0.9   0.0    47    69   293   315   287   319 0.84 -
PC2A_TRINITY_DN34875_c1_g1_i3.p1PC2A_TRINITY_DN34875_c1_g1  -            252 137897at3193         -            421   2.6e-13   51.3   0.1   1   2   3.4e-05    0.0093   16.5   0.0   174   222     1    51     1    77 0.84 -
PC2A_TRINITY_DN34875_c1_g1_i3.p1PC2A_TRINITY_DN34875_c1_g1  -            252 137897at3193         -            421   2.6e-13   51.3   0.1   2   2   2.9e-10   7.9e-08   33.2   0.1    80   193   113   231    61   239 0.78 -
PC2J_TRINITY_DN35263_c0_g1_i1.p1PC2J_TRINITY_DN35263_c0_g1  -            273 137897at3193         -            421   4.3e-13   50.6   1.0   1   2   1.2e-10   3.2e-08   34.5   0.2   107   223    28   151    19   152 0.82 -
PC2J_TRINITY_DN35263_c0_g1_i1.p1PC2J_TRINITY_DN35263_c0_g1  -            273 137897at3193         -            421   4.3e-13   50.6   1.0   2   2   7.3e-07    0.0002   22.0   0.0    71   147   114   195   114   206 0.83 -
PC3J_TRINITY_DN46767_c0_g1_i2.p1PC3J_TRINITY_DN46767_c0_g1  -            246 137897at3193         -            421   5.6e-13   50.2   3.1   1   2      0.09        25    5.2   0.1    72   108    18    55     6    62 0.81 -
PC3J_TRINITY_DN46767_c0_g1_i2.p1PC3J_TRINITY_DN46767_c0_g1  -            246 137897at3193         -            421   5.6e-13   50.2   3.1   2   2   9.7e-14   2.7e-11   44.6   0.8    74   173   120   229   115   232 0.79 -
PC2A_TRINITY_DN34224_c0_g1_i2.p1PC2A_TRINITY_DN34224_c0_g1  -            314 137897at3193         -            421   8.1e-13   49.6   0.6   1   2      0.62   1.7e+02    2.5   0.0   121   144    33    56    22    67 0.80 -
PC2A_TRINITY_DN34224_c0_g1_i2.p1PC2A_TRINITY_DN34224_c0_g1  -            314 137897at3193         -            421   8.1e-13   49.6   0.6   2   2   6.2e-14   1.7e-11   45.3   0.2    46   199   133   294   114   308 0.83 -
PC1A_TRINITY_DN36118_c0_g2_i1.p1PC1A_TRINITY_DN36118_c0_g2  -            195 137897at3193         -            421     3e-12   47.8  14.4   1   3   1.2e-05    0.0033   18.0   0.8    92   146    20    79    15    85 0.75 -
PC1A_TRINITY_DN36118_c0_g2_i1.p1PC1A_TRINITY_DN36118_c0_g2  -            195 137897at3193         -            421     3e-12   47.8  14.4   2   3     1e-07   2.8e-05   24.8   1.1    91   147    61   123    40   131 0.74 -
PC1A_TRINITY_DN36118_c0_g2_i1.p1PC1A_TRINITY_DN36118_c0_g2  -            195 137897at3193         -            421     3e-12   47.8  14.4   3   3   3.2e-08   8.7e-06   26.5   0.4    82   146    97   166    86   170 0.80 -
PC1J_TRINITY_DN37015_c0_g2_i2.p1PC1J_TRINITY_DN37015_c0_g2  -            387 137897at3193         -            421   4.5e-12   47.2   3.4   1   3      0.59   1.6e+02    2.5   0.0   121   144    35    58    24    69 0.80 -
PC1J_TRINITY_DN37015_c0_g2_i2.p1PC1J_TRINITY_DN37015_c0_g2  -            387 137897at3193         -            421   4.5e-12   47.2   3.4   2   3   6.2e-11   1.7e-08   35.4   0.0    46   148   135   253   120   259 0.83 -
PC1J_TRINITY_DN37015_c0_g2_i2.p1PC1J_TRINITY_DN37015_c0_g2  -            387 137897at3193         -            421   4.5e-12   47.2   3.4   3   3    0.0099       2.7    8.4   0.4    91   144   318   375   294   383 0.70 -
PC2A_TRINITY_DN33865_c4_g1_i5.p1PC2A_TRINITY_DN33865_c4_g1  -            199 137897at3193         -            421   6.4e-12   46.7   1.3   1   2     6e-06    0.0017   19.0   0.4    98   177    16   104     7   105 0.74 -
PC2A_TRINITY_DN33865_c4_g1_i5.p1PC2A_TRINITY_DN33865_c4_g1  -            199 137897at3193         -            421   6.4e-12   46.7   1.3   2   2   4.2e-10   1.2e-07   32.7   0.0    34   121    71   166    66   182 0.82 -
PC2J_TRINITY_DN43446_c1_g1_i10.p1PC2J_TRINITY_DN43446_c1_g1 -            357 137897at3193         -            421     1e-11   46.0   0.1   1   3   0.00011      0.03   14.8   0.0    87   180    35   137    16   140 0.65 -
PC2J_TRINITY_DN43446_c1_g1_i10.p1PC2J_TRINITY_DN43446_c1_g1 -            357 137897at3193         -            421     1e-11   46.0   0.1   2   3   1.5e-06   0.00041   21.0   0.0    77   180   107   221   107   236 0.69 -
PC2J_TRINITY_DN43446_c1_g1_i10.p1PC2J_TRINITY_DN43446_c1_g1 -            357 137897at3193         -            421     1e-11   46.0   0.1   3   3    0.0035      0.97    9.9   0.0    93   150   250   311   245   318 0.83 -
PC1A_TRINITY_DN40324_c4_g1_i4.p1PC1A_TRINITY_DN40324_c4_g1  -            444 137897at3193         -            421   1.3e-11   45.7   0.3   1   2   3.3e-10   9.2e-08   33.0   0.1    45   222   169   360   166   373 0.78 -
PC1A_TRINITY_DN40324_c4_g1_i4.p1PC1A_TRINITY_DN40324_c4_g1  -            444 137897at3193         -            421   1.3e-11   45.7   0.3   2   2     0.032       8.8    6.7   0.0    95   142   394   444   380   444 0.79 -
PC3J_TRINITY_DN46872_c1_g5_i1.p1PC3J_TRINITY_DN46872_c1_g5  -            206 137897at3193         -            421   2.8e-11   44.6   0.1   1   1     2e-13   5.5e-11   43.6   0.1    93   225    12   155     9   194 0.76 -
PC3A_TRINITY_DN13729_c0_g1_i1.p1PC3A_TRINITY_DN13729_c0_g1  -            160 137897at3193         -            421   6.4e-11   43.4   0.7   1   1   2.6e-12   7.3e-10   39.9   0.8    45   150    16   132    12   145 0.85 -
PC3A_TRINITY_DN3169_c0_g1_i1.p1PC3A_TRINITY_DN3169_c0_g1    -            100 137897at3193         -            421   7.3e-11   43.2   0.2   1   1     3e-13   8.2e-11   43.0   0.2    71   150     9    93     3    98 0.89 -
PC3J_TRINITY_DN40636_c1_g1_i5.p1PC3J_TRINITY_DN40636_c1_g1  -            466 137897at3193         -            421   7.7e-11   43.1   3.3   1   2   0.00031     0.085   13.3   0.2   162   220   260   319   257   322 0.73 -
PC3J_TRINITY_DN40636_c1_g1_i5.p1PC3J_TRINITY_DN40636_c1_g1  -            466 137897at3193         -            421   7.7e-11   43.1   3.3   2   2   3.7e-09     1e-06   29.6   0.3    73   180   332   451   325   454 0.77 -
PC3J_TRINITY_DN48225_c3_g1_i16.p1PC3J_TRINITY_DN48225_c3_g1 -            241 137897at3193         -            421   2.7e-10   41.3   3.6   1   3    0.0016      0.45   11.0   0.0   127   162     2    37     1    53 0.86 -
PC3J_TRINITY_DN48225_c3_g1_i16.p1PC3J_TRINITY_DN48225_c3_g1 -            241 137897at3193         -            421   2.7e-10   41.3   3.6   2   3   7.7e-09   2.1e-06   28.5   1.1    74   145    55   133    50   141 0.84 -
PC3J_TRINITY_DN48225_c3_g1_i16.p1PC3J_TRINITY_DN48225_c3_g1 -            241 137897at3193         -            421   2.7e-10   41.3   3.6   3   3       1.9   5.2e+02    0.9   0.0    49    73   152   175   133   182 0.78 -
PC1A_TRINITY_DN39873_c0_g1_i1.p1PC1A_TRINITY_DN39873_c0_g1  -            365 137897at3193         -            421   3.5e-10   40.9  11.2   1   3     2e-09   5.5e-07   30.4   3.3   112   220    77   196    11   197 0.79 -
PC1A_TRINITY_DN39873_c0_g1_i1.p1PC1A_TRINITY_DN39873_c0_g1  -            365 137897at3193         -            421   3.5e-10   40.9  11.2   2   3    0.0019      0.51   10.8   2.8    74   149   165   253   161   258 0.75 -
PC1A_TRINITY_DN39873_c0_g1_i1.p1PC1A_TRINITY_DN39873_c0_g1  -            365 137897at3193         -            421   3.5e-10   40.9  11.2   3   3     0.017       4.6    7.6   0.0    69   108   315   356   262   363 0.74 -
PC3J_TRINITY_DN38154_c0_g1_i1.p1PC3J_TRINITY_DN38154_c0_g1  -            323 137897at3193         -            421   3.8e-10   40.8   1.7   1   3       8.1   2.2e+03   -1.2   0.0   144   173    62    93    59   101 0.67 -
PC3J_TRINITY_DN38154_c0_g1_i1.p1PC3J_TRINITY_DN38154_c0_g1  -            323 137897at3193         -            421   3.8e-10   40.8   1.7   2   3    0.0076       2.1    8.8   0.0    89   111   137   159   117   164 0.75 -
PC3J_TRINITY_DN38154_c0_g1_i1.p1PC3J_TRINITY_DN38154_c0_g1  -            323 137897at3193         -            421   3.8e-10   40.8   1.7   3   3   3.3e-09     9e-07   29.7   0.7    75   180   171   293   160   300 0.74 -
PC3A_TRINITY_DN36112_c5_g2_i1.p1PC3A_TRINITY_DN36112_c5_g2  -            225 137897at3193         -            421   4.1e-10   40.7   0.1   1   1   1.3e-11   3.5e-09   37.7   0.1    73   144    94   170    82   219 0.89 -
PC2J_TRINITY_DN43463_c1_g2_i2.p1PC2J_TRINITY_DN43463_c1_g2  -            220 137897at3193         -            421   4.9e-10   40.5   3.1   1   2     2e-11   5.6e-09   37.0   1.9    39   144    53   172    18   179 0.80 -
PC2J_TRINITY_DN43463_c1_g2_i2.p1PC2J_TRINITY_DN43463_c1_g2  -            220 137897at3193         -            421   4.9e-10   40.5   3.1   2   2       1.1   3.1e+02    1.6   0.0    73   102   180   212   178   217 0.84 -
PC2A_TRINITY_DN28987_c8_g1_i3.p1PC2A_TRINITY_DN28987_c8_g1  -            132 137897at3193         -            421   1.2e-09   39.2   0.5   1   1   5.3e-12   1.5e-09   38.9   0.5    44   144     8   119     2   127 0.83 -
PC2A_TRINITY_DN29479_c1_g2_i4.p1PC2A_TRINITY_DN29479_c1_g2  -            137 137897at3193         -            421   1.2e-09   39.2   0.4   1   1     5e-12   1.4e-09   39.0   0.4    42   145     9   123     1   130 0.83 -
PC3J_TRINITY_DN43232_c4_g1_i3.p1PC3J_TRINITY_DN43232_c4_g1  -            162 137897at3193         -            421   1.7e-09   38.7   1.6   1   1   1.3e-11   3.7e-09   37.6   1.6    45   144    30   142    16   150 0.81 -
PC3J_TRINITY_DN48225_c3_g1_i5.p1PC3J_TRINITY_DN48225_c3_g1  -            373 137897at3193         -            421   1.9e-09   38.5   3.9   1   3     0.003      0.82   10.1   0.1   127   162     2    37     1    54 0.86 -
PC3J_TRINITY_DN48225_c3_g1_i5.p1PC3J_TRINITY_DN48225_c3_g1  -            373 137897at3193         -            421   1.9e-09   38.5   3.9   2   3   1.6e-08   4.3e-06   27.5   1.1    74   145    55   133    49   145 0.84 -
PC3J_TRINITY_DN48225_c3_g1_i5.p1PC3J_TRINITY_DN48225_c3_g1  -            373 137897at3193         -            421   1.9e-09   38.5   3.9   3   3       3.5   9.5e+02   -0.0   0.0    49    73   152   175   133   182 0.78 -
PC2J_TRINITY_DN36544_c3_g3_i13.p1PC2J_TRINITY_DN36544_c3_g3 -            394 137897at3193         -            421   2.2e-09   38.4   0.5   1   3     0.045        12    6.2   0.0    42    77    44    79    23   107 0.75 -
PC2J_TRINITY_DN36544_c3_g3_i13.p1PC2J_TRINITY_DN36544_c3_g3 -            394 137897at3193         -            421   2.2e-09   38.4   0.5   2   3   6.5e-09   1.8e-06   28.7   0.1   128   227   173   286   163   298 0.69 -
PC2J_TRINITY_DN36544_c3_g3_i13.p1PC2J_TRINITY_DN36544_c3_g3 -            394 137897at3193         -            421   2.2e-09   38.4   0.5   3   3       5.3   1.4e+03   -0.6   0.0   128   143   371   386   364   390 0.79 -
PC1J_TRINITY_DN35968_c0_g2_i1.p1PC1J_TRINITY_DN35968_c0_g2  -            175 137897at3193         -            421   2.7e-09   38.0   0.2   1   1   2.3e-11   6.3e-09   36.8   0.2   113   222    28   143    21   150 0.61 -
PC2J_TRINITY_DN43908_c1_g1_i1.p1PC2J_TRINITY_DN43908_c1_g1  -            693 137897at3193         -            421   2.7e-09   38.0   3.3   1   3    0.0019      0.51   10.8   0.0   124   161     6    43     1    59 0.84 -
PC2J_TRINITY_DN43908_c1_g1_i1.p1PC2J_TRINITY_DN43908_c1_g1  -            693 137897at3193         -            421   2.7e-09   38.0   3.3   2   3   4.3e-08   1.2e-05   26.0   1.2    74   145    62   140    53   150 0.84 -
PC2J_TRINITY_DN43908_c1_g1_i1.p1PC2J_TRINITY_DN43908_c1_g1  -            693 137897at3193         -            421   2.7e-09   38.0   3.3   3   3       8.6   2.4e+03   -1.3   0.0    50    73   160   182   141   186 0.79 -
PC1J_TRINITY_DN14248_c0_g1_i2.p1PC1J_TRINITY_DN14248_c0_g1  -            200 137897at3193         -            421   4.5e-09   37.3   0.0   1   2   1.1e-08   3.1e-06   28.0   0.0   113   223     4   123     1   135 0.84 -
PC1J_TRINITY_DN14248_c0_g1_i2.p1PC1J_TRINITY_DN14248_c0_g1  -            200 137897at3193         -            421   4.5e-09   37.3   0.0   2   2     0.022       6.2    7.2   0.0   117   144   163   190   151   197 0.87 -
PC1J_TRINITY_DN20665_c0_g1_i2.p1PC1J_TRINITY_DN20665_c0_g1  -            119 137897at3193         -            421     6e-09   36.9   0.0   1   1   2.4e-11   6.6e-09   36.8   0.0    47   147     2   113     1   118 0.81 -
PC2A_TRINITY_DN17606_c0_g1_i1.p1PC2A_TRINITY_DN17606_c0_g1  -            128 137897at3193         -            421   9.5e-09   36.2   0.4   1   2     5e-08   1.4e-05   25.8   0.2   125   199    10    89     2    93 0.80 -
PC2A_TRINITY_DN17606_c0_g1_i1.p1PC2A_TRINITY_DN17606_c0_g1  -            128 137897at3193         -            421   9.5e-09   36.2   0.4   2   2    0.0076       2.1    8.8   0.0   128   147    97   116    93   123 0.86 -
PC2J_TRINITY_DN43377_c1_g5_i2.p1PC2J_TRINITY_DN43377_c1_g5  -            245 137897at3193         -            421   1.1e-08   36.1   0.4   1   2   4.9e-10   1.3e-07   32.4   0.1    49   148     3   114     1   122 0.85 -
PC2J_TRINITY_DN43377_c1_g5_i2.p1PC2J_TRINITY_DN43377_c1_g5  -            245 137897at3193         -            421   1.1e-08   36.1   0.4   2   2      0.91   2.5e+02    1.9   0.0   115   143   217   244   175   245 0.66 -
PC2J_TRINITY_DN44681_c2_g1_i2.p1PC2J_TRINITY_DN44681_c2_g1  -            162 137897at3193         -            421   1.3e-08   35.8   0.0   1   1   6.1e-11   1.7e-08   35.4   0.0    91   178    22   118    16   122 0.83 -
PC1J_TRINITY_DN37482_c3_g1_i1.p1PC1J_TRINITY_DN37482_c3_g1  -            105 137897at3193         -            421   1.3e-08   35.8   0.4   1   1   6.4e-11   1.8e-08   35.4   0.4    76   146    11    83     7    92 0.85 -
PC3J_TRINITY_DN48253_c2_g1_i1.p1PC3J_TRINITY_DN48253_c2_g1  -            173 137897at3193         -            421   1.7e-08   35.4   0.0   1   2    0.0031      0.84   10.1   0.0   104   144     1    45     1    52 0.85 -
PC3J_TRINITY_DN48253_c2_g1_i1.p1PC3J_TRINITY_DN48253_c2_g1  -            173 137897at3193         -            421   1.7e-08   35.4   0.0   2   2   2.1e-07   5.7e-05   23.8   0.0    73   144    53   126    48   145 0.88 -
PC1J_TRINITY_DN38958_c0_g2_i12.p1PC1J_TRINITY_DN38958_c0_g2 -            464 137897at3193         -            421   2.3e-08   35.0   0.0   1   2      0.26        71    3.7   0.0    69   112   262   306   248   311 0.82 -
PC1J_TRINITY_DN38958_c0_g2_i12.p1PC1J_TRINITY_DN38958_c0_g2 -            464 137897at3193         -            421   2.3e-08   35.0   0.0   2   2     3e-09   8.4e-07   29.8   0.0    72   210   310   456   304   461 0.75 -
PC2J_TRINITY_DN44469_c2_g6_i1.p1PC2J_TRINITY_DN44469_c2_g6  -            405 137897at3193         -            421   2.6e-08   34.8   0.2   1   2   1.3e-07   3.5e-05   24.5   0.0   153   222   246   316   225   350 0.71 -
PC2J_TRINITY_DN44469_c2_g6_i1.p1PC2J_TRINITY_DN44469_c2_g6  -            405 137897at3193         -            421   2.6e-08   34.8   0.2   2   2     0.017       4.7    7.6   0.0   118   144   376   402   366   404 0.72 -
PC1A_TRINITY_DN40563_c4_g6_i1.p1PC1A_TRINITY_DN40563_c4_g6  -            407 137897at3193         -            421   2.6e-08   34.8   0.6   1   3         5   1.4e+03   -0.5   0.0    89   117    97   125    82   164 0.78 -
PC1A_TRINITY_DN40563_c4_g6_i1.p1PC1A_TRINITY_DN40563_c4_g6  -            407 137897at3193         -            421   2.6e-08   34.8   0.6   2   3   2.1e-06   0.00058   20.5   0.0   167   222   207   265   179   300 0.79 -
PC1A_TRINITY_DN40563_c4_g6_i1.p1PC1A_TRINITY_DN40563_c4_g6  -            407 137897at3193         -            421   2.6e-08   34.8   0.6   3   3    0.0018       0.5   10.8   0.1    81   113   328   361   279   366 0.81 -
PC2A_TRINITY_DN31315_c0_g1_i2.p1PC2A_TRINITY_DN31315_c0_g1  -            197 137897at3193         -            421   3.6e-08   34.3   0.2   1   1   1.6e-10   4.5e-08   34.0   0.2   101   179    11    93     5   128 0.84 -
PC3J_TRINITY_DN40015_c1_g2_i1.p1PC3J_TRINITY_DN40015_c1_g2  -            189 137897at3193         -            421   4.4e-08   34.1   0.0   1   1     2e-10   5.5e-08   33.7   0.0    74   169    44   149    30   163 0.81 -
PC1A_TRINITY_DN42120_c1_g1_i7.p1PC1A_TRINITY_DN42120_c1_g1  -            157 137897at3193         -            421   5.7e-08   33.7   0.9   1   2    0.0002     0.055   14.0   0.1    74   110     2    39     1    46 0.55 -
PC1A_TRINITY_DN42120_c1_g1_i7.p1PC1A_TRINITY_DN42120_c1_g1  -            157 137897at3193         -            421   5.7e-08   33.7   0.9   2   2   4.7e-06    0.0013   19.3   0.1    47   138    53   150    35   152 0.73 -
PC1A_TRINITY_DN43167_c4_g4_i4.p1PC1A_TRINITY_DN43167_c4_g4  -            332 137897at3193         -            421   6.4e-08   33.5   1.4   1   3      0.16        45    4.4   0.2    91   142   106   161   103   163 0.76 -
PC1A_TRINITY_DN43167_c4_g4_i4.p1PC1A_TRINITY_DN43167_c4_g4  -            332 137897at3193         -            421   6.4e-08   33.5   1.4   2   3   3.8e-05      0.01   16.3   0.1    92   147   149   210   130   221 0.79 -
PC1A_TRINITY_DN43167_c4_g4_i4.p1PC1A_TRINITY_DN43167_c4_g4  -            332 137897at3193         -            421   6.4e-08   33.5   1.4   3   3   0.00021     0.059   13.9   0.0    43   134   235   331   223   332 0.79 -
PC1J_TRINITY_DN37730_c1_g1_i1.p1PC1J_TRINITY_DN37730_c1_g1  -            275 137897at3193         -            421   7.2e-08   33.3   0.0   1   2     6e-06    0.0016   19.0   0.0   116   181    70   140    39   156 0.67 -
PC1J_TRINITY_DN37730_c1_g1_i1.p1PC1J_TRINITY_DN37730_c1_g1  -            275 137897at3193         -            421   7.2e-08   33.3   0.0   2   2    0.0025      0.69   10.4   0.0    93   150   168   229   165   236 0.85 -
PC1A_TRINITY_DN40391_c3_g3_i3.p1PC1A_TRINITY_DN40391_c3_g3  -            306 137897at3193         -            421   1.1e-07   32.7   2.5   1   3   8.4e-07   0.00023   21.8   0.2   110   158    86   135    58   141 0.81 -
PC1A_TRINITY_DN40391_c3_g3_i3.p1PC1A_TRINITY_DN40391_c3_g3  -            306 137897at3193         -            421   1.1e-07   32.7   2.5   2   3     0.099        27    5.1   0.2   111   145   156   193   148   207 0.79 -
PC1A_TRINITY_DN40391_c3_g3_i3.p1PC1A_TRINITY_DN40391_c3_g3  -            306 137897at3193         -            421   1.1e-07   32.7   2.5   3   3      0.13        36    4.7   0.0    27    71   208   251   190   256 0.85 -
PC1J_TRINITY_DN38772_c0_g2_i4.p1PC1J_TRINITY_DN38772_c0_g2  -            129 137897at3193         -            421   1.4e-07   32.4   0.0   1   1   5.9e-10   1.6e-07   32.2   0.0   159   231    34   115    22   128 0.76 -
PC2A_TRINITY_DN26277_c0_g2_i2.p1PC2A_TRINITY_DN26277_c0_g2  -            257 137897at3193         -            421   1.8e-07   32.1   0.1   1   1     4e-09   1.1e-06   29.4   0.1    72   183    90   214    73   220 0.74 -
PC1A_TRINITY_DN31717_c0_g1_i2.p1PC1A_TRINITY_DN31717_c0_g1  -            287 137897at3193         -            421   6.5e-07   30.2   0.2   1   1   4.7e-09   1.3e-06   29.2   0.1    83   144     4    70     1    91 0.83 -
PC3J_TRINITY_DN38203_c0_g1_i4.p1PC3J_TRINITY_DN38203_c0_g1  -            209 137897at3193         -            421   6.6e-07   30.2   1.4   1   2   6.8e-09   1.9e-06   28.7   0.0    75   181    18   142     6   152 0.75 -
PC3J_TRINITY_DN38203_c0_g1_i4.p1PC3J_TRINITY_DN38203_c0_g1  -            209 137897at3193         -            421   6.6e-07   30.2   1.4   2   2       8.1   2.2e+03   -1.2   0.3    88   109   178   199   163   206 0.76 -
PC1A_TRINITY_DN45736_c0_g1_i1.p1PC1A_TRINITY_DN45736_c0_g1  -            113 137897at3193         -            421   6.7e-07   30.2   0.2   1   1   3.4e-09   9.4e-07   29.7   0.2    93   180    10   107     5   113 0.71 -
PC3A_TRINITY_DN46162_c0_g1_i1.p1PC3A_TRINITY_DN46162_c0_g1  -            117 137897at3193         -            421   6.7e-07   30.1   0.2   1   2      0.29        79    3.6   0.0   131   151     2    22     1    81 0.58 -
PC3A_TRINITY_DN46162_c0_g1_i1.p1PC3A_TRINITY_DN46162_c0_g1  -            117 137897at3193         -            421   6.7e-07   30.1   0.2   2   2   2.5e-08   6.8e-06   26.8   0.1   100   156    54   114    27   116 0.74 -
PC3J_TRINITY_DN38550_c5_g1_i1.p1PC3J_TRINITY_DN38550_c5_g1  -            233 137897at3193         -            421   6.9e-07   30.1   0.2   1   3   1.2e-07   3.3e-05   24.6   0.1    80   155    14    92     4   130 0.76 -
PC3J_TRINITY_DN38550_c5_g1_i1.p1PC3J_TRINITY_DN38550_c5_g1  -            233 137897at3193         -            421   6.9e-07   30.1   0.2   2   3       2.6     7e+02    0.4   0.0    34    76    90   130    85   146 0.66 -
PC3J_TRINITY_DN38550_c5_g1_i1.p1PC3J_TRINITY_DN38550_c5_g1  -            233 137897at3193         -            421   6.9e-07   30.1   0.2   3   3      0.66   1.8e+02    2.4   0.0   154   179   197   223   186   231 0.78 -
PC3J_TRINITY_DN43616_c0_g2_i1.p1PC3J_TRINITY_DN43616_c0_g2  -            100 137897at3193         -            421     1e-06   29.6   0.1   1   1   4.1e-09   1.1e-06   29.4   0.1    88   173     5    96     2    98 0.81 -
PC1A_TRINITY_DN42787_c2_g5_i4.p1PC1A_TRINITY_DN42787_c2_g5  -            494 137897at3193         -            421     1e-06   29.5   3.1   1   2   5.5e-05     0.015   15.8   0.2   104   148   286   331   190   334 0.74 -
PC1A_TRINITY_DN42787_c2_g5_i4.p1PC1A_TRINITY_DN42787_c2_g5  -            494 137897at3193         -            421     1e-06   29.5   3.1   2   2   0.00023     0.064   13.8   0.3    74   145   337   418   333   430 0.77 -
PC2J_TRINITY_DN27478_c0_g1_i1.p1PC2J_TRINITY_DN27478_c0_g1  -            107 137897at3193         -            421   1.4e-06   29.1   0.6   1   1   1.5e-08   4.1e-06   27.6   0.6   117   184    13    87     6    94 0.64 -
PC1J_TRINITY_DN13233_c0_g1_i1.p1PC1J_TRINITY_DN13233_c0_g1  -            141 137897at3193         -            421   1.7e-06   28.8   0.3   1   2      0.17        48    4.3   0.0   127   145    11    29     2    41 0.70 -
PC1J_TRINITY_DN13233_c0_g1_i1.p1PC1J_TRINITY_DN13233_c0_g1  -            141 137897at3193         -            421   1.7e-06   28.8   0.3   2   2   3.6e-07   9.8e-05   23.0   0.1    65   146    54   139    36   140 0.83 -
PC2A_TRINITY_DN24255_c0_g1_i1.p1PC2A_TRINITY_DN24255_c0_g1  -            140 137897at3193         -            421   1.7e-06   28.8   0.2   1   2   0.00023     0.063   13.8   0.0   112   148    39    76    33    80 0.87 -
PC2A_TRINITY_DN24255_c0_g1_i1.p1PC2A_TRINITY_DN24255_c0_g1  -            140 137897at3193         -            421   1.7e-06   28.8   0.2   2   2   0.00026     0.073   13.6   0.0    73   121    80   130    76   136 0.81 -
PC2J_TRINITY_DN37332_c0_g1_i1.p1PC2J_TRINITY_DN37332_c0_g1  -            167 137897at3193         -            421   2.2e-06   28.5   0.5   1   2     8e-07   0.00022   21.9   0.2    92   178    25   120    14   131 0.75 -
PC2J_TRINITY_DN37332_c0_g1_i1.p1PC2J_TRINITY_DN37332_c0_g1  -            167 137897at3193         -            421   2.2e-06   28.5   0.5   2   2     0.084        23    5.3   0.0    42    71   136   165   126   166 0.90 -
PC1A_TRINITY_DN41897_c3_g1_i2.p1PC1A_TRINITY_DN41897_c3_g1  -            263 137897at3193         -            421   2.3e-06   28.4   0.1   1   2      0.29        80    3.5   0.0   112   143    32    65     4    78 0.61 -
PC1A_TRINITY_DN41897_c3_g1_i2.p1PC1A_TRINITY_DN41897_c3_g1  -            263 137897at3193         -            421   2.3e-06   28.4   0.1   2   2   3.7e-07    0.0001   23.0   0.0    46   195   100   263    91   263 0.80 -
PC2J_TRINITY_DN41276_c2_g2_i7.p1PC2J_TRINITY_DN41276_c2_g2  -            279 137897at3193         -            421   2.9e-06   28.1   0.2   1   2    0.0054       1.5    9.3   0.0   117   211    62   158    42   172 0.71 -
PC2J_TRINITY_DN41276_c2_g2_i7.p1PC2J_TRINITY_DN41276_c2_g2  -            279 137897at3193         -            421   2.9e-06   28.1   0.2   2   2   2.3e-05    0.0064   17.0   0.0    88   151   198   266   177   278 0.84 -
PC3A_TRINITY_DN10400_c0_g1_i2.p1PC3A_TRINITY_DN10400_c0_g1  -            150 137897at3193         -            421   3.1e-06   28.0   0.0   1   1   1.7e-08   4.7e-06   27.4   0.0    69   157     4    97     1   119 0.82 -
PC3J_TRINITY_DN3053_c0_g1_i1.p1PC3J_TRINITY_DN3053_c0_g1    -            124 137897at3193         -            421   3.3e-06   27.9   0.0   1   1   2.7e-08   7.6e-06   26.7   0.0   113   216    11   120     2   124 0.82 -
PC2A_TRINITY_DN27927_c0_g1_i3.p1PC2A_TRINITY_DN27927_c0_g1  -            146 137897at3193         -            421   3.9e-06   27.6   0.0   1   1   1.6e-08   4.4e-06   27.4   0.0    72   149    52   134     5   141 0.76 -
PC2J_TRINITY_DN33955_c0_g1_i1.p1PC2J_TRINITY_DN33955_c0_g1  -            156 137897at3193         -            421     4e-06   27.6   0.0   1   1   1.9e-08   5.3e-06   27.2   0.0   123   179    30    90    17    97 0.88 -
PC2J_TRINITY_DN25584_c0_g1_i1.p1PC2J_TRINITY_DN25584_c0_g1  -            145 137897at3193         -            421   4.3e-06   27.5   0.2   1   1   1.8e-08     5e-06   27.3   0.2   112   210    28   133    15   144 0.82 -
PC3J_TRINITY_DN45759_c1_g1_i1.p1PC3J_TRINITY_DN45759_c1_g1  -            194 137897at3193         -            421   4.3e-06   27.5   0.0   1   2   9.8e-08   2.7e-05   24.9   0.0    74   152     6    95     2   124 0.74 -
PC3J_TRINITY_DN45759_c1_g1_i1.p1PC3J_TRINITY_DN45759_c1_g1  -            194 137897at3193         -            421   4.3e-06   27.5   0.0   2   2         3   8.3e+02    0.2   0.0    47    69   160   182   152   187 0.83 -
PC1J_TRINITY_DN35913_c5_g1_i1.p1PC1J_TRINITY_DN35913_c5_g1  -            218 137897at3193         -            421   5.9e-06   27.0   0.5   1   1   3.1e-08   8.5e-06   26.5   0.5    31   173    55   213    32   217 0.74 -
PC1A_TRINITY_DN40814_c3_g1_i5.p1PC1A_TRINITY_DN40814_c3_g1  -            201 137897at3193         -            421   6.5e-06   26.9   1.0   1   3     0.019       5.3    7.4   0.0   121   148    40    67    32    96 0.89 -
PC1A_TRINITY_DN40814_c3_g1_i5.p1PC1A_TRINITY_DN40814_c3_g1  -            201 137897at3193         -            421   6.5e-06   26.9   1.0   2   3    0.0025      0.68   10.4   0.2   110   143   111   147    84   166 0.67 -
PC1A_TRINITY_DN40814_c3_g1_i5.p1PC1A_TRINITY_DN40814_c3_g1  -            201 137897at3193         -            421   6.5e-06   26.9   1.0   3   3     0.021       5.9    7.3   0.0    79   112   163   197   153   199 0.77 -
PC2J_TRINITY_DN43463_c1_g2_i12.p1PC2J_TRINITY_DN43463_c1_g2 -            293 137897at3193         -            421   9.6e-06   26.3   0.1   1   1   5.7e-08   1.6e-05   25.6   0.1    88   195     4   119     2   140 0.76 -
PC3A_TRINITY_DN37225_c2_g4_i1.p1PC3A_TRINITY_DN37225_c2_g4  -            146 137897at3193         -            421   1.1e-05   26.1   1.1   1   2   1.9e-06   0.00053   20.6   0.4    60   145    13    98     2   108 0.76 -
PC3A_TRINITY_DN37225_c2_g4_i1.p1PC3A_TRINITY_DN37225_c2_g4  -            146 137897at3193         -            421   1.1e-05   26.1   1.1   2   2      0.12        34    4.8   0.0    43    72   110   139    97   145 0.67 -
PC1A_TRINITY_DN40319_c0_g2_i1.p1PC1A_TRINITY_DN40319_c0_g2  -            412 137897at3193         -            421   1.2e-05   26.1   0.4   1   1   7.5e-08   2.1e-05   25.3   0.4    92   200   254   381   236   387 0.72 -
PC2J_TRINITY_DN45261_c0_g2_i3.p1PC2J_TRINITY_DN45261_c0_g2  -            202 137897at3193         -            421   1.3e-05   25.9   0.0   1   2     0.048        13    6.1   0.0    90   109    61    80    40    92 0.70 -
PC2J_TRINITY_DN45261_c0_g2_i3.p1PC2J_TRINITY_DN45261_c0_g2  -            202 137897at3193         -            421   1.3e-05   25.9   0.0   2   2   1.3e-05    0.0034   17.9   0.0   107   150   134   178    84   192 0.75 -
PC2A_TRINITY_DN34172_c1_g1_i3.p1PC2A_TRINITY_DN34172_c1_g1  -            105 137897at3193         -            421   1.9e-05   25.4   0.8   1   1   4.5e-07   0.00012   22.7   0.8   148   220    21    97     8    99 0.84 -
PC3J_TRINITY_DN38203_c0_g1_i6.p1PC3J_TRINITY_DN38203_c0_g1  -            139 137897at3193         -            421   1.9e-05   25.4   0.0   1   1   7.9e-08   2.2e-05   25.2   0.0    74   150    17   103     5   116 0.77 -
PC2J_TRINITY_DN42033_c4_g1_i1.p1PC2J_TRINITY_DN42033_c4_g1  -            133 137897at3193         -            421     2e-05   25.3   0.1   1   1   8.1e-08   2.2e-05   25.1   0.1   123   181    19    83     3   110 0.62 -
PC3J_TRINITY_DN39448_c3_g1_i2.p1PC3J_TRINITY_DN39448_c3_g1  -            122 137897at3193         -            421   2.3e-05   25.1   0.1   1   2   0.00017     0.047   14.2   0.0   112   148    29    66    22    70 0.87 -
PC3J_TRINITY_DN39448_c3_g1_i2.p1PC3J_TRINITY_DN39448_c3_g1  -            122 137897at3193         -            421   2.3e-05   25.1   0.1   2   2    0.0048       1.3    9.4   0.0    73   106    70   104    65   108 0.83 -
PC2J_TRINITY_DN32016_c0_g1_i2.p1PC2J_TRINITY_DN32016_c0_g1  -            216 137897at3193         -            421   2.4e-05   25.0   1.6   1   3       0.1        28    5.0   0.1   192   222     2    33     1    36 0.90 -
PC2J_TRINITY_DN32016_c0_g1_i2.p1PC2J_TRINITY_DN32016_c0_g1  -            216 137897at3193         -            421   2.4e-05   25.0   1.6   2   3   1.1e-05    0.0031   18.1   0.3   105   162    45    99    33   113 0.76 -
PC2J_TRINITY_DN32016_c0_g1_i2.p1PC2J_TRINITY_DN32016_c0_g1  -            216 137897at3193         -            421   2.4e-05   25.0   1.6   3   3       3.2   8.9e+02    0.1   0.0    30    71    92   135    87   137 0.77 -
PC1J_TRINITY_DN36464_c4_g1_i2.p1PC1J_TRINITY_DN36464_c4_g1  -            290 137897at3193         -            421   2.5e-05   24.9   0.8   1   2     0.028       7.7    6.9   0.1   124   185    13    75     2   112 0.64 -
PC1J_TRINITY_DN36464_c4_g1_i2.p1PC1J_TRINITY_DN36464_c4_g1  -            290 137897at3193         -            421   2.5e-05   24.9   0.8   2   2   3.7e-05      0.01   16.4   0.1    82   180   131   193    95   246 0.54 -
PC1J_TRINITY_DN24307_c0_g1_i1.p1PC1J_TRINITY_DN24307_c0_g1  -            145 137897at3193         -            421   3.2e-05   24.6   0.1   1   2   4.2e-07   0.00012   22.8   0.1   113   149    23    59     2    94 0.77 -
PC1J_TRINITY_DN24307_c0_g1_i1.p1PC1J_TRINITY_DN24307_c0_g1  -            145 137897at3193         -            421   3.2e-05   24.6   0.1   2   2         4   1.1e+03   -0.2   0.0    48    73    71    96    68   101 0.85 -
PC3A_TRINITY_DN38273_c2_g1_i2.p1PC3A_TRINITY_DN38273_c2_g1  -            241 137897at3193         -            421   3.3e-05   24.6   1.9   1   1   4.8e-07   0.00013   22.6   1.9    36   150    90   224    66   233 0.72 -
PC3A_TRINITY_DN40681_c0_g1_i3.p1PC3A_TRINITY_DN40681_c0_g1  -            413 137897at3193         -            421   3.9e-05   24.3   0.0   1   1   5.9e-07   0.00016   22.3   0.0   122   179   167   228   127   231 0.85 -
PC3A_TRINITY_DN40681_c0_g1_i6.p1PC3A_TRINITY_DN40681_c0_g1  -            413 137897at3193         -            421   3.9e-05   24.3   0.0   1   1   5.9e-07   0.00016   22.3   0.0   122   179   167   228   127   231 0.85 -
PC1A_TRINITY_DN41924_c2_g4_i2.p1PC1A_TRINITY_DN41924_c2_g4  -            270 137897at3193         -            421     4e-05   24.3   2.0   1   2   0.00022     0.061   13.8   0.1    91   152   170   235   151   237 0.81 -
PC1A_TRINITY_DN41924_c2_g4_i2.p1PC1A_TRINITY_DN41924_c2_g4  -            270 137897at3193         -            421     4e-05   24.3   2.0   2   2   1.9e-05    0.0053   17.3   0.3    88   143   209   269   193   270 0.83 -
PC1J_TRINITY_DN37598_c3_g1_i3.p1PC1J_TRINITY_DN37598_c3_g1  -            178 137897at3193         -            421   5.4e-05   23.9   0.0   1   1   2.4e-07   6.7e-05   23.6   0.0    85   149    74   143    23   157 0.85 -
PC2J_TRINITY_DN44856_c2_g2_i4.p1PC2J_TRINITY_DN44856_c2_g2  -            343 137897at3193         -            421   5.4e-05   23.9   0.0   1   2      0.67   1.9e+02    2.3   0.0    88   163   183   255   165   258 0.69 -
PC2J_TRINITY_DN44856_c2_g2_i4.p1PC2J_TRINITY_DN44856_c2_g2  -            343 137897at3193         -            421   5.4e-05   23.9   0.0   2   2   1.3e-06   0.00035   21.2   0.1    75   148   241   323   237   334 0.77 -
PC3J_TRINITY_DN47023_c2_g1_i5.p1PC3J_TRINITY_DN47023_c2_g1  -            459 137897at3193         -            421   6.4e-05   23.6   0.0   1   3       3.7     1e+03   -0.1   0.0    10    34    33    57    25    62 0.79 -
PC3J_TRINITY_DN47023_c2_g1_i5.p1PC3J_TRINITY_DN47023_c2_g1  -            459 137897at3193         -            421   6.4e-05   23.6   0.0   2   3      0.76   2.1e+02    2.2   0.0   171   220   163   217   139   227 0.66 -
PC3J_TRINITY_DN47023_c2_g1_i5.p1PC3J_TRINITY_DN47023_c2_g1  -            459 137897at3193         -            421   6.4e-05   23.6   0.0   3   3   2.4e-05    0.0065   17.0   0.0   121   242   293   426   236   451 0.75 -
PC2A_TRINITY_DN30667_c2_g3_i5.p1PC2A_TRINITY_DN30667_c2_g3  -            599 137897at3193         -            421   7.3e-05   23.4   0.7   1   3       4.1   1.1e+03   -0.2   0.0   154   204   161   214   135   222 0.69 -
PC2A_TRINITY_DN30667_c2_g3_i5.p1PC2A_TRINITY_DN30667_c2_g3  -            599 137897at3193         -            421   7.3e-05   23.4   0.7   2   3    0.0001     0.028   14.9   0.0   167   222   221   279   193   291 0.77 -
PC2A_TRINITY_DN30667_c2_g3_i5.p1PC2A_TRINITY_DN30667_c2_g3  -            599 137897at3193         -            421   7.3e-05   23.4   0.7   3   3      0.19        54    4.1   0.0    78   109   339   371   295   378 0.81 -
PC1J_TRINITY_DN6005_c0_g1_i1.p1PC1J_TRINITY_DN6005_c0_g1    -            197 137897at3193         -            421   0.00012   22.8   0.2   1   1   6.8e-07   0.00019   22.1   0.2    92   179    33   135    12   144 0.59 -
PC1A_TRINITY_DN5031_c0_g1_i1.p1PC1A_TRINITY_DN5031_c0_g1    -            133 137897at3193         -            421   0.00013   22.6   0.0   1   1   7.8e-07   0.00021   21.9   0.0    87   179    21   124     9   128 0.74 -
PC1J_TRINITY_DN36258_c0_g1_i3.p1PC1J_TRINITY_DN36258_c0_g1  -            112 137897at3193         -            421   0.00014   22.5   0.0   1   1   5.6e-07   0.00015   22.4   0.0   108   152    17    61     4    90 0.77 -
PC1J_TRINITY_DN14606_c0_g1_i1.p1PC1J_TRINITY_DN14606_c0_g1  -            140 137897at3193         -            421   0.00016   22.3   0.0   1   1   1.3e-06   0.00036   21.1   0.0   119   182    52   124    35   133 0.67 -
PC1A_TRINITY_DN39339_c0_g1_i6.p1PC1A_TRINITY_DN39339_c0_g1  -            423 137897at3193         -            421   0.00017   22.2   0.7   1   2       0.4   1.1e+02    3.1   0.1    38    71   261   294   238   327 0.86 -
PC1A_TRINITY_DN39339_c0_g1_i6.p1PC1A_TRINITY_DN39339_c0_g1  -            423 137897at3193         -            421   0.00017   22.2   0.7   2   2   2.2e-05    0.0061   17.1   0.1    55   136   328   421   309   423 0.77 -
PC3J_TRINITY_DN45781_c1_g2_i1.p1PC3J_TRINITY_DN45781_c1_g2  -            301 137897at3193         -            421   0.00017   22.2   0.3   1   2     0.052        14    6.0   0.1    46    73   165   192   152   206 0.63 -
PC3J_TRINITY_DN45781_c1_g2_i1.p1PC3J_TRINITY_DN45781_c1_g2  -            301 137897at3193         -            421   0.00017   22.2   0.3   2   2   0.00015     0.041   14.4   0.0   112   184   208   285   202   293 0.80 -
PC2A_TRINITY_DN1352_c0_g1_i1.p1PC2A_TRINITY_DN1352_c0_g1    -            144 137897at3193         -            421   0.00018   22.2   0.0   1   1   6.8e-07   0.00019   22.1   0.0   122   148    14    40     4    97 0.76 -
PC3A_TRINITY_DN44195_c0_g2_i1.p1PC3A_TRINITY_DN44195_c0_g2  -            205 137897at3193         -            421   0.00018   22.1   0.1   1   2      0.65   1.8e+02    2.4   0.0    56    82    60    86    45    89 0.83 -
PC3A_TRINITY_DN44195_c0_g2_i1.p1PC3A_TRINITY_DN44195_c0_g2  -            205 137897at3193         -            421   0.00018   22.1   0.1   2   2   2.2e-05    0.0062   17.1   0.1    93   146   120   179   108   183 0.76 -
PC1A_TRINITY_DN44886_c0_g1_i1.p1PC1A_TRINITY_DN44886_c0_g1  -            115 137897at3193         -            421    0.0002   22.0   0.0   1   1   1.3e-06   0.00036   21.2   0.0    92   158    12    82     4   105 0.75 -
PC1A_TRINITY_DN34761_c0_g1_i1.p1PC1A_TRINITY_DN34761_c0_g1  -            333 137897at3193         -            421   0.00025   21.7   0.0   1   3      0.12        34    4.8   0.0   147   195    64   116    58   121 0.81 -
PC1A_TRINITY_DN34761_c0_g1_i1.p1PC1A_TRINITY_DN34761_c0_g1  -            333 137897at3193         -            421   0.00025   21.7   0.0   2   3    0.0043       1.2    9.6   0.0   174   223   145   193   137   206 0.83 -
PC1A_TRINITY_DN34761_c0_g1_i1.p1PC1A_TRINITY_DN34761_c0_g1  -            333 137897at3193         -            421   0.00025   21.7   0.0   3   3      0.27        74    3.7   0.0    72   109   247   286   214   305 0.76 -
PC3A_TRINITY_DN6726_c0_g1_i1.p1PC3A_TRINITY_DN6726_c0_g1    -            202 137897at3193         -            421   0.00029   21.5   2.0   1   2    0.0015       0.4   11.1   0.2    81   147    33   103    25   112 0.76 -
PC3A_TRINITY_DN6726_c0_g1_i1.p1PC3A_TRINITY_DN6726_c0_g1    -            202 137897at3193         -            421   0.00029   21.5   2.0   2   2     0.003      0.83   10.1   0.1   111   143   149   184   125   202 0.68 -
PC3J_TRINITY_DN44162_c4_g3_i2.p1PC3J_TRINITY_DN44162_c4_g3  -            232 137897at3193         -            421   0.00031   21.4   0.1   1   2   2.3e-06   0.00063   20.3   0.1   118   203   105   196    93   210 0.81 -
PC3J_TRINITY_DN44162_c4_g3_i2.p1PC3J_TRINITY_DN44162_c4_g3  -            232 137897at3193         -            421   0.00031   21.4   0.1   2   2       2.6   7.1e+02    0.4   0.0    71   108   180   220   176   224 0.71 -
PC3J_TRINITY_DN47409_c0_g5_i1.p1PC3J_TRINITY_DN47409_c0_g5  -            103 137897at3193         -            421   0.00033   21.3   0.0   1   1   1.8e-06   0.00051   20.7   0.0   134   188     1    60     1    98 0.75 -
PC1J_TRINITY_DN39920_c0_g2_i1.p1PC1J_TRINITY_DN39920_c0_g2  -            201 137897at3193         -            421   0.00039   21.0   0.5   1   2   5.2e-05     0.014   15.9   0.4   107   180    64   144    28   144 0.67 -
PC1J_TRINITY_DN39920_c0_g2_i1.p1PC1J_TRINITY_DN39920_c0_g2  -            201 137897at3193         -            421   0.00039   21.0   0.5   2   2      0.03       8.2    6.8   0.0    44    74   117   147   104   157 0.80 -
PC1A_TRINITY_DN43976_c2_g1_i1.p1PC1A_TRINITY_DN43976_c2_g1  -            156 137897at3193         -            421   0.00042   20.9   0.1   1   2   0.00038      0.11   13.0   0.2   172   221    15    62    10    84 0.83 -
PC1A_TRINITY_DN43976_c2_g1_i1.p1PC1A_TRINITY_DN43976_c2_g1  -            156 137897at3193         -            421   0.00042   20.9   0.1   2   2     0.041        11    6.4   0.0   106   178    71   148    68   152 0.71 -
PC3A_TRINITY_DN1513_c0_g1_i1.p1PC3A_TRINITY_DN1513_c0_g1    -            112 137897at3193         -            421   0.00044   20.9   0.1   1   1   1.8e-06   0.00049   20.7   0.1    71   152     1    89     1   107 0.78 -
PC3J_TRINITY_DN51606_c0_g1_i1.p1PC3J_TRINITY_DN51606_c0_g1  -            128 137897at3193         -            421   0.00046   20.8   0.1   1   2    0.0089       2.4    8.5   0.0   143   201    24    83    17    90 0.66 -
PC3J_TRINITY_DN51606_c0_g1_i1.p1PC3J_TRINITY_DN51606_c0_g1  -            128 137897at3193         -            421   0.00046   20.8   0.1   2   2     7e-05     0.019   15.5   0.1    77   154    33   124    33   128 0.59 -
PC1J_TRINITY_DN39920_c0_g2_i2.p1PC1J_TRINITY_DN39920_c0_g2  -            275 137897at3193         -            421    0.0005   20.7   1.4   1   2   8.1e-05     0.022   15.3   1.2    86   180   113   218    72   218 0.62 -
PC1J_TRINITY_DN39920_c0_g2_i2.p1PC1J_TRINITY_DN39920_c0_g2  -            275 137897at3193         -            421    0.0005   20.7   1.4   2   2     0.044        12    6.3   0.0    44    74   191   221   177   231 0.80 -
PC2J_TRINITY_DN27923_c0_g2_i1.p1PC2J_TRINITY_DN27923_c0_g2  -            113 137897at3193         -            421   0.00052   20.6   0.0   1   1   2.2e-06   0.00061   20.4   0.0    45   108    29    99    18   108 0.84 -
PC2A_TRINITY_DN28043_c3_g3_i1.p1PC2A_TRINITY_DN28043_c3_g3  -            123 137897at3193         -            421   0.00085   19.9   0.2   1   1   7.4e-06     0.002   18.7   0.2    92   192     3   106     1   117 0.76 -
PC1J_TRINITY_DN24390_c0_g1_i1.p1PC1J_TRINITY_DN24390_c0_g1  -            183 137897at3193         -            421   0.00092   19.8   0.0   1   1   6.3e-06    0.0017   18.9   0.0   113   179    52   125    43   137 0.79 -
PC3J_TRINITY_DN38203_c0_g2_i2.p1PC3J_TRINITY_DN38203_c0_g2  -            139 137897at3193         -            421   0.00092   19.8   0.2   1   2   0.00024     0.066   13.7   0.0    93   146     7    66     6    98 0.74 -
PC3J_TRINITY_DN38203_c0_g2_i2.p1PC3J_TRINITY_DN38203_c0_g2  -            139 137897at3193         -            421   0.00092   19.8   0.2   2   2       6.3   1.7e+03   -0.9   0.0    92   109   107   124    86   132 0.69 -
PC2J_TRINITY_DN40506_c0_g3_i7.p1PC2J_TRINITY_DN40506_c0_g3  -            204 137897at3193         -            421     0.001   19.6   0.0   1   2   5.7e-05     0.016   15.7   0.0    40   113     5    87     1    95 0.77 -
PC2J_TRINITY_DN40506_c0_g3_i7.p1PC2J_TRINITY_DN40506_c0_g3  -            204 137897at3193         -            421     0.001   19.6   0.0   2   2      0.92   2.5e+02    1.9   0.0    45    72   160   187   131   196 0.81 -
PC1J_TRINITY_DN41218_c2_g4_i1.p1PC1J_TRINITY_DN41218_c2_g4  -            179 137897at3193         -            421    0.0012   19.5   0.0   1   1   5.8e-06    0.0016   19.0   0.0   127   179    15    71     9    74 0.85 -
PC1A_TRINITY_DN43246_c0_g1_i2.p1PC1A_TRINITY_DN43246_c0_g1  -            332 137897at3193         -            421    0.0014   19.2   0.1   1   1   1.3e-05    0.0037   17.8   0.0   121   241   166   298   109   304 0.73 -
PC3J_TRINITY_DN44322_c7_g1_i12.p1PC3J_TRINITY_DN44322_c7_g1 -            123 137897at3193         -            421    0.0015   19.1   0.1   1   1   5.9e-06    0.0016   19.0   0.1   104   148    61   106    21   119 0.88 -
PC3J_TRINITY_DN48359_c2_g1_i3.p2PC3J_TRINITY_DN48359_c2_g1  -            139 137897at3193         -            421    0.0016   19.1   0.1   1   1   7.3e-05      0.02   15.4   0.1    44   144     4   105     1   116 0.74 -
PC2A_TRINITY_DN34224_c0_g1_i3.p1PC2A_TRINITY_DN34224_c0_g1  -            108 137897at3193         -            421    0.0016   19.0   0.1   1   1     7e-06    0.0019   18.8   0.1    46   109    11    82     6    95 0.77 -
PC2J_TRINITY_DN45530_c2_g1_i12.p1PC2J_TRINITY_DN45530_c2_g1 -            162 137897at3193         -            421    0.0019   18.8   0.1   1   2   9.5e-05     0.026   15.0   0.1   113   148    31    66    22   104 0.77 -
PC2J_TRINITY_DN45530_c2_g1_i12.p1PC2J_TRINITY_DN45530_c2_g1 -            162 137897at3193         -            421    0.0019   18.8   0.1   2   2       0.4   1.1e+02    3.1   0.0    45    80    79   114    65   119 0.81 -
PC3A_TRINITY_DN42630_c1_g1_i2.p1PC3A_TRINITY_DN42630_c1_g1  -            170 137897at3193         -            421    0.0021   18.6   0.0   1   1   1.1e-05     0.003   18.1   0.0   163   222    49   107     6   120 0.75 -
PC3A_TRINITY_DN39552_c0_g1_i1.p2PC3A_TRINITY_DN39552_c0_g1  -            106 137897at3193         -            421    0.0023   18.5   0.1   1   1   1.5e-05    0.0041   17.7   0.1    74   149     7    87     3    99 0.68 -
PC1J_TRINITY_DN38853_c0_g2_i13.p1PC1J_TRINITY_DN38853_c0_g2 -            337 137897at3193         -            421    0.0029   18.2   0.1   1   3       5.6   1.5e+03   -0.7   0.0   206   232   138   165   129   205 0.66 -
PC1J_TRINITY_DN38853_c0_g2_i13.p1PC1J_TRINITY_DN38853_c0_g2 -            337 137897at3193         -            421    0.0029   18.2   0.1   2   3   0.00021     0.057   13.9   0.1   112   148   204   241   177   280 0.75 -
PC1J_TRINITY_DN38853_c0_g2_i13.p1PC1J_TRINITY_DN38853_c0_g2 -            337 137897at3193         -            421    0.0029   18.2   0.1   3   3       1.4   3.9e+02    1.3   0.0    45    79   254   288   241   293 0.82 -
PC3A_TRINITY_DN35008_c0_g1_i1.p1PC3A_TRINITY_DN35008_c0_g1  -            144 137897at3193         -            421    0.0032   18.0   0.0   1   2     0.045        12    6.2   0.0   151   210    20    82    14    91 0.70 -
PC3A_TRINITY_DN35008_c0_g1_i1.p1PC3A_TRINITY_DN35008_c0_g1  -            144 137897at3193         -            421    0.0032   18.0   0.0   2   2    0.0029       0.8   10.1   0.0    70   107   101   139    95   143 0.87 -
PC1A_TRINITY_DN44957_c0_g1_i1.p1PC1A_TRINITY_DN44957_c0_g1  -            100 137897at3193         -            421    0.0038   17.8   0.1   1   1   1.7e-05    0.0046   17.5   0.1    47   182    12    80     5    98 0.49 -
PC3J_TRINITY_DN44118_c3_g1_i2.p1PC3J_TRINITY_DN44118_c3_g1  -            207 137897at3193         -            421    0.0039   17.7   0.0   1   1   2.5e-05    0.0068   16.9   0.0    71   180    45   165    14   205 0.52 -
PC1J_TRINITY_DN38571_c0_g1_i11.p1PC1J_TRINITY_DN38571_c0_g1 -            516 137897at3193         -            421     0.004   17.7   0.1   1   2       1.5   4.2e+02    1.2   0.0   150   206   411   470   390   481 0.70 -
PC1J_TRINITY_DN38571_c0_g1_i11.p1PC1J_TRINITY_DN38571_c0_g1 -            516 137897at3193         -            421     0.004   17.7   0.1   2   2   7.5e-05     0.021   15.4   0.0   162   203   469   511   447   516 0.75 -
PC1A_TRINITY_DN29866_c0_g1_i1.p1PC1A_TRINITY_DN29866_c0_g1  -            109 137897at3193         -            421     0.004   17.7   0.3   1   2     0.019       5.1    7.5   0.0   112   143     5    37     1    61 0.83 -
PC1A_TRINITY_DN29866_c0_g1_i1.p1PC1A_TRINITY_DN29866_c0_g1  -            109 137897at3193         -            421     0.004   17.7   0.3   2   2    0.0062       1.7    9.0   0.1   107   143    67   104    42   108 0.87 -
PC2J_TRINITY_DN40340_c4_g1_i2.p1PC2J_TRINITY_DN40340_c4_g1  -            111 137897at3193         -            421     0.004   17.7   0.1   1   1     4e-05     0.011   16.2   0.1    91   142    49   106    25   109 0.75 -
PC2J_TRINITY_DN45787_c2_g3_i1.p1PC2J_TRINITY_DN45787_c2_g3  -            116 137897at3193         -            421    0.0041   17.7   0.0   1   1   3.5e-05    0.0096   16.5   0.0    92   148    48   109    43   114 0.79 -
PC2A_TRINITY_DN30977_c3_g1_i1.p1PC2A_TRINITY_DN30977_c3_g1  -            147 137897at3193         -            421    0.0044   17.6   0.0   1   1     2e-05    0.0056   17.2   0.0   141   215    29   108    10   127 0.61 -
PC2A_TRINITY_DN28982_c6_g1_i3.p1PC2A_TRINITY_DN28982_c6_g1  -            201 137897at3193         -            421    0.0049   17.4   0.0   1   1    0.0012      0.32   11.4   0.0    64   109    16    66     4   189 0.75 -
PC3J_TRINITY_DN38203_c0_g1_i5.p1PC3J_TRINITY_DN38203_c0_g1  -            110 137897at3193         -            421     0.005   17.4   0.0   1   1   1.8e-05    0.0051   17.4   0.0   108   150    41    84     9    97 0.82 -
PC3J_TRINITY_DN44023_c0_g2_i2.p1PC3J_TRINITY_DN44023_c0_g2  -            102 137897at3193         -            421    0.0068   17.0   0.1   1   2    0.0072         2    8.8   0.0   130   178     3    55     1    57 0.80 -
PC3J_TRINITY_DN44023_c0_g2_i2.p1PC3J_TRINITY_DN44023_c0_g2  -            102 137897at3193         -            421    0.0068   17.0   0.1   2   2     0.032       8.7    6.7   0.0   162   192    58    88    56   101 0.73 -
PC1J_TRINITY_DN29847_c0_g1_i1.p1PC1J_TRINITY_DN29847_c0_g1  -            129 137897at3193         -            421    0.0071   16.9   0.0   1   1   4.5e-05     0.012   16.1   0.0   123   208     4    98     2   102 0.53 -
PC2J_TRINITY_DN38508_c4_g2_i5.p1PC2J_TRINITY_DN38508_c4_g2  -            232 137897at3193         -            421    0.0072   16.9   0.0   1   2   0.00026      0.07   13.6   0.0   149   219    45   119    27   125 0.74 -
PC2J_TRINITY_DN38508_c4_g2_i5.p1PC2J_TRINITY_DN38508_c4_g2  -            232 137897at3193         -            421    0.0072   16.9   0.0   2   2      0.34        93    3.3   0.0   165   224   107   169    99   229 0.64 -
PC3A_TRINITY_DN36903_c2_g3_i1.p1PC3A_TRINITY_DN36903_c2_g3  -            204 137897at3193         -            421    0.0074   16.8   0.8   1   2   0.00037       0.1   13.1   0.1   109   191    49   136    10   156 0.76 -
PC3A_TRINITY_DN36903_c2_g3_i1.p1PC3A_TRINITY_DN36903_c2_g3  -            204 137897at3193         -            421    0.0074   16.8   0.8   2   2     0.039        11    6.4   0.5    47   142   102   204   100   204 0.72 -
PC3A_TRINITY_DN34975_c0_g1_i2.p1PC3A_TRINITY_DN34975_c0_g1  -            124 137897at3193         -            421    0.0082   16.7   0.2   1   1   3.4e-05    0.0093   16.5   0.2   103   165    29   100    23   122 0.71 -
PC3A_TRINITY_DN10400_c0_g1_i1.p1PC3A_TRINITY_DN10400_c0_g1  -            143 137897at3193         -            421    0.0089   16.6   0.0   1   1     4e-05     0.011   16.3   0.0   126   158    59    91    41   132 0.62 -
PC1A_TRINITY_DN41520_c2_g1_i1.p1PC1A_TRINITY_DN41520_c2_g1  -            190 137897at3193         -            421    0.0093   16.5   0.1   1   4    0.0032      0.89   10.0   0.0   126   148     5    27     1    37 0.85 -
PC1A_TRINITY_DN41520_c2_g1_i1.p1PC1A_TRINITY_DN41520_c2_g1  -            190 137897at3193         -            421    0.0093   16.5   0.1   2   4       2.3   6.3e+02    0.6   0.0    49    73    41    65    33   104 0.82 -
PC1A_TRINITY_DN41520_c2_g1_i1.p1PC1A_TRINITY_DN41520_c2_g1  -            190 137897at3193         -            421    0.0093   16.5   0.1   3   4       2.9   7.9e+02    0.3   0.0    45    70    83   108    76   114 0.86 -
PC1A_TRINITY_DN41520_c2_g1_i1.p1PC1A_TRINITY_DN41520_c2_g1  -            190 137897at3193         -            421    0.0093   16.5   0.1   4   4       3.4   9.5e+02    0.0   0.0    48    70   138   160   133   170 0.72 -
PC2J_TRINITY_DN45530_c2_g1_i11.p1PC2J_TRINITY_DN45530_c2_g1 -            120 137897at3193         -            421    0.0095   16.5   0.1   1   1   4.4e-05     0.012   16.1   0.1   103   147    67   115    14   119 0.77 -
PC1A_TRINITY_DN39867_c0_g5_i1.p1PC1A_TRINITY_DN39867_c0_g5  -            338 137897at3193         -            421    0.0095   16.5   0.0   1   2    0.0034      0.93    9.9   0.0    47   112    70   142    57   184 0.79 -
PC1A_TRINITY_DN39867_c0_g5_i1.p1PC1A_TRINITY_DN39867_c0_g5  -            338 137897at3193         -            421    0.0095   16.5   0.0   2   2      0.13        37    4.7   0.0    96   152   174   234   157   244 0.66 -
PC2J_TRINITY_DN39555_c1_g1_i1.p1PC2J_TRINITY_DN39555_c1_g1  -            257 137897at3193         -            421    0.0099   16.4   0.0   1   2    0.0028      0.77   10.2   0.0   174   223    69   117    61   131 0.83 -
PC2J_TRINITY_DN39555_c1_g1_i1.p1PC2J_TRINITY_DN39555_c1_g1  -            257 137897at3193         -            421    0.0099   16.4   0.0   2   2      0.16        45    4.4   0.0    72   109   171   210   134   230 0.76 -
PC3A_TRINITY_DN40170_c1_g1_i17.p1PC3A_TRINITY_DN40170_c1_g1 -            243 137897at3193         -            421     0.011   16.3   0.0   1   2    0.0084       2.3    8.6   0.0    58   114     2    65     1   107 0.87 -
PC3A_TRINITY_DN40170_c1_g1_i17.p1PC3A_TRINITY_DN40170_c1_g1 -            243 137897at3193         -            421     0.011   16.3   0.0   2   2     0.055        15    5.9   0.0    46    77   126   157   116   170 0.85 -
PC1A_TRINITY_DN39969_c2_g1_i4.p1PC1A_TRINITY_DN39969_c2_g1  -            362 137897at3193         -            421     0.011   16.3   0.0   1   1     6e-05     0.016   15.7   0.0   168   225   265   325   257   339 0.80 -
PC2J_TRINITY_DN32007_c0_g1_i1.p1PC2J_TRINITY_DN32007_c0_g1  -            126 137897at3193         -            421     0.011   16.2   0.0   1   1   4.6e-05     0.013   16.1   0.0   129   202    27   106    14   125 0.69 -
PC2J_TRINITY_DN45530_c2_g1_i13.p1PC2J_TRINITY_DN45530_c2_g1 -            105 137897at3193         -            421     0.012   16.2   0.0   1   1   4.5e-05     0.012   16.1   0.0   112   147    61   100    22   104 0.79 -
PC1J_TRINITY_DN36259_c3_g5_i1.p1PC1J_TRINITY_DN36259_c3_g5  -            198 137897at3193         -            421     0.012   16.2   0.0   1   2      0.51   1.4e+02    2.7   0.0    46    72    25    51    21    62 0.90 -
PC1J_TRINITY_DN36259_c3_g5_i1.p1PC1J_TRINITY_DN36259_c3_g5  -            198 137897at3193         -            421     0.012   16.2   0.0   2   2    0.0011      0.31   11.5   0.0   113   146    65    98    53   130 0.90 -
PC3A_TRINITY_DN39284_c6_g1_i1.p1PC3A_TRINITY_DN39284_c6_g1  -            543 137897at3193         -            421     0.012   16.1   1.0   1   4         4   1.1e+03   -0.2   0.0    45    69    60    84    51    95 0.81 -
PC3A_TRINITY_DN39284_c6_g1_i1.p1PC3A_TRINITY_DN39284_c6_g1  -            543 137897at3193         -            421     0.012   16.1   1.0   2   4     0.033       9.2    6.6   0.2    74   144   184   262   106   307 0.64 -
PC3A_TRINITY_DN39284_c6_g1_i1.p1PC3A_TRINITY_DN39284_c6_g1  -            543 137897at3193         -            421     0.012   16.1   1.0   3   4     0.056        15    5.9   0.6    75   145   185   263   178   363 0.68 -
PC3A_TRINITY_DN39284_c6_g1_i1.p1PC3A_TRINITY_DN39284_c6_g1  -            543 137897at3193         -            421     0.012   16.1   1.0   4   4      0.19        52    4.2   0.0   150   191   490   532   433   542 0.51 -
PC1A_TRINITY_DN40714_c1_g6_i2.p1PC1A_TRINITY_DN40714_c1_g6  -            148 137897at3193         -            421     0.017   15.6   0.1   1   1   6.2e-05     0.017   15.6   0.1   107   149    64   106     8   144 0.70 -
PC1A_TRINITY_DN30091_c0_g1_i1.p1PC1A_TRINITY_DN30091_c0_g1  -            194 137897at3193         -            421     0.017   15.6   0.0   1   2      0.38     1e+02    3.2   0.0   151   192    25    65    17    94 0.69 -
PC1A_TRINITY_DN30091_c0_g1_i1.p1PC1A_TRINITY_DN30091_c0_g1  -            194 137897at3193         -            421     0.017   15.6   0.0   2   2    0.0017      0.46   10.9   0.0    49   106    72   136    65   148 0.65 -
PC2A_TRINITY_DN35500_c1_g2_i1.p1PC2A_TRINITY_DN35500_c1_g2  -            104 137897at3193         -            421     0.019   15.5   0.0   1   1   8.3e-05     0.023   15.2   0.0   128   178    24    79    15    84 0.79 -
PC1J_TRINITY_DN4819_c0_g1_i1.p1PC1J_TRINITY_DN4819_c0_g1    -            155 137897at3193         -            421      0.02   15.4   0.4   1   1   9.3e-05     0.026   15.1   0.1   114   148    86   120    76   154 0.82 -
PC3J_TRINITY_DN46258_c3_g1_i3.p1PC3J_TRINITY_DN46258_c3_g1  -            164 137897at3193         -            421      0.02   15.4   0.6   1   3       2.9   8.1e+02    0.2   0.0    95   118    14    37     7    60 0.71 -
PC3J_TRINITY_DN46258_c3_g1_i3.p1PC3J_TRINITY_DN46258_c3_g1  -            164 137897at3193         -            421      0.02   15.4   0.6   2   3     0.009       2.5    8.5   0.3   155   221    60   132    22   133 0.51 -
PC3J_TRINITY_DN46258_c3_g1_i3.p1PC3J_TRINITY_DN46258_c3_g1  -            164 137897at3193         -            421      0.02   15.4   0.6   3   3    0.0005      0.14   12.7   0.3    50   121    65   154    52   159 0.63 -
PC1A_TRINITY_DN40785_c2_g5_i2.p1PC1A_TRINITY_DN40785_c2_g5  -            303 137897at3193         -            421      0.02   15.4   0.0   1   2    0.0058       1.6    9.1   0.0   113   157   162   207   148   237 0.58 -
PC1A_TRINITY_DN40785_c2_g5_i2.p1PC1A_TRINITY_DN40785_c2_g5  -            303 137897at3193         -            421      0.02   15.4   0.0   2   2      0.16        43    4.4   0.0    88   147   268   289   241   303 0.59 -
PC2J_TRINITY_DN37601_c0_g1_i1.p1PC2J_TRINITY_DN37601_c0_g1  -            241 137897at3193         -            421     0.025   15.1   0.0   1   2       1.8     5e+02    0.9   0.0   147   182    69   108    65   124 0.75 -
PC2J_TRINITY_DN37601_c0_g1_i1.p1PC2J_TRINITY_DN37601_c0_g1  -            241 137897at3193         -            421     0.025   15.1   0.0   2   2   0.00086      0.24   11.9   0.0   174   223   150   198   141   213 0.83 -
PC2J_TRINITY_DN36033_c5_g1_i1.p1PC2J_TRINITY_DN36033_c5_g1  -            188 137897at3193         -            421     0.026   15.1   0.0   1   1   0.00011     0.029   14.9   0.0   151   222    17    92    10   145 0.77 -
PC2J_TRINITY_DN38542_c1_g1_i1.p1PC2J_TRINITY_DN38542_c1_g1  -            119 137897at3193         -            421     0.033   14.7   0.5   1   1   0.00018     0.049   14.1   0.5   157   214    62   119     5   119 0.55 -
PC2A_TRINITY_DN31479_c2_g4_i1.p1PC2A_TRINITY_DN31479_c2_g4  -            107 137897at3193         -            421     0.034   14.6   0.1   1   1    0.0013      0.36   11.3   0.1   153   196    27    72    16   107 0.70 -
PC1A_TRINITY_DN32960_c0_g1_i1.p1PC1A_TRINITY_DN32960_c0_g1  -            141 137897at3193         -            421     0.039   14.5   0.0   1   1   0.00027     0.073   13.5   0.0    46   107    44   112    32   119 0.66 -
PC1J_TRINITY_DN12737_c0_g1_i1.p1PC1J_TRINITY_DN12737_c0_g1  -            226 137897at3193         -            421     0.042   14.4   0.0   1   2     0.044        12    6.2   0.0   143   193    77   126    57   127 0.79 -
PC1J_TRINITY_DN12737_c0_g1_i1.p1PC1J_TRINITY_DN12737_c0_g1  -            226 137897at3193         -            421     0.042   14.4   0.0   2   2     0.014       3.9    7.9   0.0    71   145   120   198   116   218 0.86 -
PC3J_TRINITY_DN39482_c6_g2_i1.p1PC3J_TRINITY_DN39482_c6_g2  -            111 137897at3193         -            421     0.042   14.4   0.0   1   1   0.00019     0.051   14.1   0.0    60   112    38    92    29    96 0.82 -
PC2A_TRINITY_DN35273_c1_g2_i1.p1PC2A_TRINITY_DN35273_c1_g2  -            103 137897at3193         -            421     0.042   14.3   0.5   1   2      0.24        65    3.8   0.0    87   110     8    31     2    53 0.68 -
PC2A_TRINITY_DN35273_c1_g2_i1.p1PC2A_TRINITY_DN35273_c1_g2  -            103 137897at3193         -            421     0.042   14.3   0.5   2   2    0.0097       2.7    8.4   0.1   122   147    71    96    62   101 0.76 -
PC1J_TRINITY_DN35009_c0_g1_i3.p1PC1J_TRINITY_DN35009_c0_g1  -            135 137897at3193         -            421     0.049   14.1   0.0   1   2      0.43   1.2e+02    3.0   0.0   186   221    32    68    13    76 0.83 -
PC1J_TRINITY_DN35009_c0_g1_i3.p1PC1J_TRINITY_DN35009_c0_g1  -            135 137897at3193         -            421     0.049   14.1   0.0   2   2    0.0048       1.3    9.4   0.0    70   108    86   126    74   133 0.77 -
PC3A_TRINITY_DN41611_c1_g4_i2.p1PC3A_TRINITY_DN41611_c1_g4  -            191 137897at3193         -            421      0.05   14.1   5.5   1   1   0.00087      0.24   11.9   0.9    95   142    68   122    51   128 0.73 -
PC3A_TRINITY_DN42731_c0_g4_i1.p1PC3A_TRINITY_DN42731_c0_g4  -            150 137897at3193         -            421     0.051   14.1   0.1   1   2       3.7     1e+03   -0.1   0.0    45    70    22    48     3    60 0.69 -
PC3A_TRINITY_DN42731_c0_g4_i1.p1PC3A_TRINITY_DN42731_c0_g4  -            150 137897at3193         -            421     0.051   14.1   0.1   2   2   0.00066      0.18   12.3   0.0    43    85    65   107    42   112 0.85 -
PC1J_TRINITY_DN40524_c0_g1_i1.p1PC1J_TRINITY_DN40524_c0_g1  -            100 137897at3193         -            421     0.056   13.9   0.1   1   1   0.00024     0.066   13.7   0.1    82   113    46    78    33    82 0.79 -
PC1A_TRINITY_DN21879_c0_g1_i1.p1PC1A_TRINITY_DN21879_c0_g1  -            136 137897at3193         -            421     0.063   13.8   0.0   1   1   0.00041      0.11   12.9   0.0   176   238     9    76     6   100 0.71 -
PC2A_TRINITY_DN28987_c8_g1_i2.p1PC2A_TRINITY_DN28987_c8_g1  -            133 137897at3193         -            421     0.066   13.7   0.1   1   1   0.00035     0.097   13.2   0.1   117   158     2    43     1    90 0.82 -
PC2J_TRINITY_DN361_c0_g1_i1.p1PC2J_TRINITY_DN361_c0_g1      -            122 137897at3193         -            421      0.07   13.6   0.0   1   2   0.00052      0.14   12.6   0.0   129   178     4    58     1    64 0.76 -
PC2J_TRINITY_DN361_c0_g1_i1.p1PC2J_TRINITY_DN361_c0_g1      -            122 137897at3193         -            421      0.07   13.6   0.0   2   2       1.3   3.6e+02    1.4   0.0    45    79    35    68    31   101 0.76 -
PC2J_TRINITY_DN38848_c2_g1_i1.p1PC2J_TRINITY_DN38848_c2_g1  -            145 137897at3193         -            421     0.071   13.6   0.1   1   2       1.3   3.5e+02    1.4   0.0   208   255     5    58     2    67 0.54 -
PC2J_TRINITY_DN38848_c2_g1_i1.p1PC2J_TRINITY_DN38848_c2_g1  -            145 137897at3193         -            421     0.071   13.6   0.1   2   2    0.0025      0.68   10.4   0.0    72   117    77   123    62   139 0.77 -
PC1J_TRINITY_DN23678_c0_g1_i1.p1PC1J_TRINITY_DN23678_c0_g1  -            156 137897at3193         -            421     0.076   13.5   0.1   1   2         7   1.9e+03   -1.0   0.0    47    70    14    38     6    52 0.71 -
PC1J_TRINITY_DN23678_c0_g1_i1.p1PC1J_TRINITY_DN23678_c0_g1  -            156 137897at3193         -            421     0.076   13.5   0.1   2   2   0.00083      0.23   11.9   0.0    44    85    56    97    42   103 0.86 -
PC2J_TRINITY_DN34419_c0_g1_i2.p1PC2J_TRINITY_DN34419_c0_g1  -            179 137897at3193         -            421     0.077   13.5   0.2   1   1   0.00064      0.18   12.3   0.1    56   108    26    84    10   117 0.57 -
PC2A_TRINITY_DN28296_c5_g4_i2.p1PC2A_TRINITY_DN28296_c5_g4  -            172 137897at3193         -            421     0.093   13.2   0.0   1   1   0.00072       0.2   12.1   0.0    71   108   124   162   114   165 0.88 -
PC1A_TRINITY_DN33957_c0_g1_i1.p1PC1A_TRINITY_DN33957_c0_g1  -            139 137897at3193         -            421      0.12   12.9   0.0   1   1   0.00052      0.14   12.6   0.0    46   108    46   115    18   125 0.79 -
PC2J_TRINITY_DN44110_c0_g3_i1.p1PC2J_TRINITY_DN44110_c0_g3  -            151 137897at3193         -            421      0.12   12.8   0.1   1   2       2.1   5.7e+02    0.7   0.0    91   108    14    31     9    39 0.64 -
PC2J_TRINITY_DN44110_c0_g3_i1.p1PC2J_TRINITY_DN44110_c0_g3  -            151 137897at3193         -            421      0.12   12.8   0.1   2   2    0.0034      0.95    9.9   0.0    75   112    97   134    87   143 0.67 -
PC2A_TRINITY_DN28371_c0_g1_i19.p1PC2A_TRINITY_DN28371_c0_g1 -            102 137897at3193         -            421      0.12   12.8   0.0   1   1   0.00047      0.13   12.7   0.0    60   112    26    80    12    98 0.85 -
PC3J_TRINITY_DN32837_c0_g1_i2.p1PC3J_TRINITY_DN32837_c0_g1  -            156 137897at3193         -            421      0.12   12.8   0.3   1   2      0.11        31    4.9   0.0   187   219    21    52    14    59 0.80 -
PC3J_TRINITY_DN32837_c0_g1_i2.p1PC3J_TRINITY_DN32837_c0_g1  -            156 137897at3193         -            421      0.12   12.8   0.3   2   2     0.047        13    6.1   0.1    71   145    61   146    57   155 0.71 -
PC3J_TRINITY_DN12592_c0_g1_i1.p1PC3J_TRINITY_DN12592_c0_g1  -            137 137897at3193         -            421      0.12   12.8   0.1   1   1   0.00057      0.16   12.5   0.1   109   139   105   136    75   137 0.81 -
PC2J_TRINITY_DN45974_c4_g3_i1.p1PC2J_TRINITY_DN45974_c4_g3  -            189 137897at3193         -            421      0.13   12.7   0.0   1   1   0.00061      0.17   12.4   0.0    67   110   115   159   103   184 0.66 -
PC2J_TRINITY_DN37506_c4_g1_i1.p2PC2J_TRINITY_DN37506_c4_g1  -            137 137897at3193         -            421      0.14   12.6   0.0   1   1   0.00067      0.19   12.2   0.0   151   186    25    58    15    61 0.89 -
PC3A_TRINITY_DN28140_c0_g1_i1.p1PC3A_TRINITY_DN28140_c0_g1  -            161 137897at3193         -            421      0.15   12.5   0.1   1   1   0.00078      0.22   12.0   0.1   109   183    23   104    19   111 0.68 -
PC1J_TRINITY_DN4855_c0_g1_i1.p1PC1J_TRINITY_DN4855_c0_g1    -            174 137897at3193         -            421      0.15   12.5   0.0   1   1   0.00096      0.26   11.7   0.0   120   146     3    29     1    33 0.90 -
PC1A_TRINITY_DN3346_c0_g1_i1.p1PC1A_TRINITY_DN3346_c0_g1    -            152 137897at3193         -            421      0.15   12.5   0.0   1   1   0.00066      0.18   12.3   0.0    44    80    38    74    13    81 0.89 -
PC2J_TRINITY_DN43726_c0_g1_i4.p1PC2J_TRINITY_DN43726_c0_g1  -            187 137897at3193         -            421      0.16   12.4   0.0   1   1    0.0009      0.25   11.8   0.0    43   106    49   118    39   122 0.86 -
PC1J_TRINITY_DN34953_c2_g3_i1.p1PC1J_TRINITY_DN34953_c2_g3  -            271 137897at3193         -            421      0.18   12.3   0.0   1   3       1.4   3.8e+02    1.3   0.0    56    75    96   115    77   124 0.79 -
PC1J_TRINITY_DN34953_c2_g3_i1.p1PC1J_TRINITY_DN34953_c2_g3  -            271 137897at3193         -            421      0.18   12.3   0.0   2   3       1.2   3.3e+02    1.5   0.0    56    76   145   165   122   205 0.76 -
PC1J_TRINITY_DN34953_c2_g3_i1.p1PC1J_TRINITY_DN34953_c2_g3  -            271 137897at3193         -            421      0.18   12.3   0.0   3   3     0.071        20    5.6   0.0   167   213   193   238   166   242 0.86 -
PC2A_TRINITY_DN34875_c1_g1_i5.p1PC2A_TRINITY_DN34875_c1_g1  -            100 137897at3193         -            421      0.19   12.2   0.1   1   1   0.00076      0.21   12.0   0.1    52   110     8    77     2    85 0.66 -
PC1J_TRINITY_DN41260_c0_g3_i1.p1PC1J_TRINITY_DN41260_c0_g3  -            116 137897at3193         -            421       0.2   12.1   0.0   1   1   0.00095      0.26   11.7   0.0   108   188    20   107    16   113 0.73 -
PC3J_TRINITY_DN44867_c1_g2_i1.p1PC3J_TRINITY_DN44867_c1_g2  -            109 137897at3193         -            421       0.2   12.1   0.0   1   1   0.00075      0.21   12.1   0.0    70   107    44    82    19   102 0.85 -
PC2J_TRINITY_DN44321_c5_g2_i1.p1PC2J_TRINITY_DN44321_c5_g2  -            164 137897at3193         -            421      0.21   12.0   0.3   1   2       1.1     3e+02    1.7   0.0   109   144    82   118    71   122 0.74 -
PC2J_TRINITY_DN44321_c5_g2_i1.p1PC2J_TRINITY_DN44321_c5_g2  -            164 137897at3193         -            421      0.21   12.0   0.3   2   2    0.0097       2.7    8.4   0.1    41    67   130   156   120   162 0.88 -
PC2J_TRINITY_DN39815_c1_g1_i2.p1PC2J_TRINITY_DN39815_c1_g1  -            122 137897at3193         -            421      0.21   12.0   0.0   1   1     0.001      0.28   11.7   0.0    45    80     8    43     3    53 0.90 -
PC2J_TRINITY_DN35357_c0_g1_i6.p1PC2J_TRINITY_DN35357_c0_g1  -            165 137897at3193         -            421      0.22   12.0   0.9   1   2    0.0049       1.3    9.4   0.2    92   142    20    78     1    88 0.53 -
PC2J_TRINITY_DN35357_c0_g1_i6.p1PC2J_TRINITY_DN35357_c0_g1  -            165 137897at3193         -            421      0.22   12.0   0.9   2   2       1.8   4.8e+02    1.0   0.0    70    97   130   157   116   165 0.73 -
PC2J_TRINITY_DN5610_c0_g1_i1.p1PC2J_TRINITY_DN5610_c0_g1    -            101 137897at3193         -            421      0.22   12.0   0.3   1   1    0.0012      0.34   11.4   0.1   153   204    42    94    31    99 0.77 -
PC2J_TRINITY_DN4791_c0_g1_i1.p1PC2J_TRINITY_DN4791_c0_g1    -            113 137897at3193         -            421      0.24   11.9   4.8   1   2    0.0047       1.3    9.4   2.8   130   186     2    64     1    83 0.72 -
PC2J_TRINITY_DN4791_c0_g1_i1.p1PC2J_TRINITY_DN4791_c0_g1    -            113 137897at3193         -            421      0.24   11.9   4.8   2   2     0.035       9.6    6.6   0.3   129   178    58   113    57   113 0.61 -
PC3J_TRINITY_DN49373_c1_g1_i5.p1PC3J_TRINITY_DN49373_c1_g1  -            135 137897at3193         -            421      0.25   11.8   0.0   1   1    0.0011      0.32   11.5   0.0   182   243    43   105    35   114 0.84 -
PC2A_TRINITY_DN32934_c0_g5_i2.p1PC2A_TRINITY_DN32934_c0_g5  -            126 137897at3193         -            421      0.25   11.8   0.0   1   1   0.00094      0.26   11.7   0.0    66   143    40   125     9   125 0.70 -
PC1A_TRINITY_DN40882_c4_g1_i2.p1PC1A_TRINITY_DN40882_c4_g1  -            167 137897at3193         -            421      0.26   11.7   0.0   1   1    0.0012      0.32   11.4   0.0   151   229    44   126    24   138 0.83 -
PC1J_TRINITY_DN34732_c0_g1_i7.p1PC1J_TRINITY_DN34732_c0_g1  -            171 137897at3193         -            421      0.26   11.7   0.0   1   1    0.0012      0.34   11.4   0.0   151   200   107   156    73   171 0.52 -
PC3A_TRINITY_DN34423_c0_g1_i2.p1PC3A_TRINITY_DN34423_c0_g1  -            237 137897at3193         -            421      0.27   11.7   0.0   1   2       1.5   4.1e+02    1.2   0.0   196   230    35    70    20   106 0.55 -
PC3A_TRINITY_DN34423_c0_g1_i2.p1PC3A_TRINITY_DN34423_c0_g1  -            237 137897at3193         -            421      0.27   11.7   0.0   2   2    0.0086       2.4    8.6   0.0   121   148   179   206   141   236 0.81 -
PC1J_TRINITY_DN41318_c1_g1_i3.p1PC1J_TRINITY_DN41318_c1_g1  -            160 137897at3193         -            421       0.3   11.5   0.0   1   1    0.0014      0.38   11.2   0.0   120   145    64    89    55   131 0.83 -
PC2A_TRINITY_DN30463_c4_g1_i2.p1PC2A_TRINITY_DN30463_c4_g1  -            108 137897at3193         -            421      0.31   11.5   0.0   1   1    0.0013      0.37   11.2   0.0   188   223     8    44     1    53 0.44 -
PC3A_TRINITY_DN41394_c3_g3_i1.p1PC3A_TRINITY_DN41394_c3_g3  -            293 137897at3193         -            421      0.32   11.5   0.0   1   1    0.0017      0.47   10.9   0.0   113   166   101   158    94   177 0.74 -
PC1J_TRINITY_DN38021_c0_g1_i2.p1PC1J_TRINITY_DN38021_c0_g1  -            228 137897at3193         -            421      0.35   11.3   0.1   1   2    0.0037         1    9.8   0.0    75   112    99   136    91   175 0.71 -
PC1J_TRINITY_DN38021_c0_g1_i2.p1PC1J_TRINITY_DN38021_c0_g1  -            228 137897at3193         -            421      0.35   11.3   0.1   2   2       9.3   2.5e+03   -1.4   0.0    44    71   198   225   194   226 0.82 -
PC1A_TRINITY_DN8517_c0_g1_i1.p1PC1A_TRINITY_DN8517_c0_g1    -            100 137897at3193         -            421      0.39   11.2   0.0   1   1    0.0016      0.45   11.0   0.0    73   133    30    96    19    99 0.85 -
PC3J_TRINITY_DN35893_c0_g1_i1.p1PC3J_TRINITY_DN35893_c0_g1  -            280 137897at3193         -            421      0.44   11.0   0.0   1   1    0.0023      0.64   10.4   0.0   151   186   153   186   148   189 0.89 -
PC3A_TRINITY_DN33584_c0_g1_i1.p1PC3A_TRINITY_DN33584_c0_g1  -            196 137897at3193         -            421      0.44   11.0   0.0   1   1     0.003      0.81   10.1   0.0    33   109    18    93     8    99 0.76 -
PC3A_TRINITY_DN34534_c0_g1_i2.p1PC3A_TRINITY_DN34534_c0_g1  -            146 137897at3193         -            421      0.48   10.9   0.4   1   1     0.037        10    6.5   0.2    91   142    54   109    49   111 0.77 -
PC1J_TRINITY_DN27622_c0_g2_i1.p1PC1J_TRINITY_DN27622_c0_g2  -            143 137897at3193         -            421      0.53   10.7   0.0   1   1    0.0021      0.58   10.6   0.0    80   145    23    93    18   131 0.76 -
PC1A_TRINITY_DN32724_c0_g1_i1.p1PC1A_TRINITY_DN32724_c0_g1  -            110 137897at3193         -            421      0.59   10.6   0.0   1   1    0.0035      0.95    9.9   0.0   160   184    56    81    47    87 0.82 -
PC3A_TRINITY_DN33328_c0_g1_i1.p1PC3A_TRINITY_DN33328_c0_g1  -            165 137897at3193         -            421      0.64   10.4   0.1   1   3       9.1   2.5e+03   -1.4   0.0   130   151     8    29     2    32 0.75 -
PC3A_TRINITY_DN33328_c0_g1_i1.p1PC3A_TRINITY_DN33328_c0_g1  -            165 137897at3193         -            421      0.64   10.4   0.1   2   3     0.024       6.6    7.1   0.0    52    82    55    85    49    88 0.90 -
PC3A_TRINITY_DN33328_c0_g1_i1.p1PC3A_TRINITY_DN33328_c0_g1  -            165 137897at3193         -            421      0.64   10.4   0.1   3   3       3.9   1.1e+03   -0.2   0.0   120   149    94   123    88   127 0.81 -
PC2J_TRINITY_DN44939_c3_g1_i5.p1PC2J_TRINITY_DN44939_c3_g1  -            151 137897at3193         -            421      0.75   10.2   0.0   1   1     0.032       8.9    6.7   0.0    49   144    29   126    21   136 0.47 -
PC3J_TRINITY_DN25489_c0_g1_i1.p1PC3J_TRINITY_DN25489_c0_g1  -            168 137897at3193         -            421      0.99    9.8   0.1   1   1     0.005       1.4    9.4   0.1   137   183    35    83    16    88 0.80 -
PC2J_TRINITY_DN25259_c0_g1_i3.p1PC2J_TRINITY_DN25259_c0_g1  -            128 137897at3193         -            421       1.1    9.7   0.0   1   1    0.0047       1.3    9.4   0.0   139   183    10    56     2    61 0.82 -
#
# Program:         hmmsearch
# Version:         3.2.1 (June 2018)
# Pipeline mode:   SEARCH
# Query file:      /isg/shared/databases/BUSCO/odb10/embryophyta_odb10/hmms/137897at3193.hmm
# Target file:     Pine_final_annotations_no_contam_lvl0.faa
# Option settings: /usr/local/bin/hmmsearch --domtblout /labs/Wegrzyn/Juniper_Pine/BUSCO/NEW/busco_pine/run_embryophyta_odb10/hmmer_output/137897at3193.out --cpu 1 /isg/shared/databases/BUSCO/odb10/embryophyta_odb10/hmms/137897at3193.hmm Pine_final_annotations_no_contam_lvl0.faa 
# Current dir:     /labs/Wegrzyn/Juniper_Pine/BUSCO/NEW
# Date:            Thu Aug  6 14:42:43 2020
# [ok]
