#                                                                                                                  --- full sequence --- -------------- this domain -------------   hmm coord   ali coord   env coord
# target name                                              accession   tlen query name           accession   qlen   E-value  score  bias   #  of  c-Evalue  i-Evalue  score  bias  from    to  from    to  from    to  acc description of target
#                                      ------------------- ---------- ----- -------------------- ---------- ----- --------- ------ ----- --- --- --------- --------- ------ ----- ----- ----- ----- ----- ----- ----- ---- ---------------------
PC3A_TRINITY_DN31838_c0_g1_i3.p1PC3A_TRINITY_DN31838_c0_g1 -            173 138689at3193         -            199   5.7e-58  197.1   0.0   1   1   5.8e-62   7.4e-58  196.7   0.0    12   134    43   167    32   170 0.93 -
PC2J_TRINITY_DN36061_c1_g2_i2.p1PC2J_TRINITY_DN36061_c1_g2 -            148 138689at3193         -            199   6.4e-11   43.5   0.0   1   1   7.1e-15     9e-11   43.0   0.0    12    47    56    91    45    97 0.87 -
PC3A_TRINITY_DN40270_c1_g1_i3.p1PC3A_TRINITY_DN40270_c1_g1 -            128 138689at3193         -            199      0.04   14.8   0.2   1   1   3.6e-06     0.046   14.6   0.2    97   159    63   126    45   128 0.88 -
PC1A_TRINITY_DN41268_c2_g1_i1.p1PC1A_TRINITY_DN41268_c2_g1 -            115 138689at3193         -            199      0.39   11.6   0.1   1   1   3.2e-05      0.41   11.5   0.1    35   109    40   113    15   114 0.66 -
PC1J_TRINITY_DN34765_c7_g1_i2.p1PC1J_TRINITY_DN34765_c7_g1 -            104 138689at3193         -            199      0.48   11.3   0.0   1   1   4.3e-05      0.55   11.1   0.0    14    54    30    71     6    84 0.77 -
#
# Program:         hmmsearch
# Version:         3.2.1 (June 2018)
# Pipeline mode:   SEARCH
# Query file:      /isg/shared/databases/BUSCO/odb10/embryophyta_odb10/hmms/138689at3193.hmm
# Target file:     Pine_final_annotations_no_contam_lvl0.faa
# Option settings: /usr/local/bin/hmmsearch --domtblout /labs/Wegrzyn/Juniper_Pine/BUSCO/NEW/busco_pine/run_embryophyta_odb10/hmmer_output/138689at3193.out --cpu 1 /isg/shared/databases/BUSCO/odb10/embryophyta_odb10/hmms/138689at3193.hmm Pine_final_annotations_no_contam_lvl0.faa 
# Current dir:     /labs/Wegrzyn/Juniper_Pine/BUSCO/NEW
# Date:            Thu Aug  6 14:42:46 2020
# [ok]
