#                                                                                                                  --- full sequence --- -------------- this domain -------------   hmm coord   ali coord   env coord
# target name                                              accession   tlen query name           accession   qlen   E-value  score  bias   #  of  c-Evalue  i-Evalue  score  bias  from    to  from    to  from    to  acc description of target
#                                      ------------------- ---------- ----- -------------------- ---------- ----- --------- ------ ----- --- --- --------- --------- ------ ----- ----- ----- ----- ----- ----- ----- ---- ---------------------
PC3J_TRINITY_DN31730_c0_g1_i1.p1PC3J_TRINITY_DN31730_c0_g1 -            225 141065at3193         -            151   5.5e-58  197.3   2.7   1   2     6e-33   3.8e-28  100.4   0.4     1    72    36   120    36   145 0.82 -
PC3J_TRINITY_DN31730_c0_g1_i1.p1PC3J_TRINITY_DN31730_c0_g1 -            225 141065at3193         -            151   5.5e-58  197.3   2.7   2   2   6.5e-31   4.2e-26   93.8   0.1    75   134   156   216   144   225 0.86 -
#
# Program:         hmmsearch
# Version:         3.2.1 (June 2018)
# Pipeline mode:   SEARCH
# Query file:      /isg/shared/databases/BUSCO/odb10/embryophyta_odb10/hmms/141065at3193.hmm
# Target file:     Pine_final_annotations_no_contam_lvl0.faa
# Option settings: /usr/local/bin/hmmsearch --domtblout /labs/Wegrzyn/Juniper_Pine/BUSCO/NEW/busco_pine/run_embryophyta_odb10/hmmer_output/141065at3193.out --cpu 1 /isg/shared/databases/BUSCO/odb10/embryophyta_odb10/hmms/141065at3193.hmm Pine_final_annotations_no_contam_lvl0.faa 
# Current dir:     /labs/Wegrzyn/Juniper_Pine/BUSCO/NEW
# Date:            Thu Aug  6 14:43:12 2020
# [ok]
