#                                                                                                                   --- full sequence --- -------------- this domain -------------   hmm coord   ali coord   env coord
# target name                                               accession   tlen query name           accession   qlen   E-value  score  bias   #  of  c-Evalue  i-Evalue  score  bias  from    to  from    to  from    to  acc description of target
#                                       ------------------- ---------- ----- -------------------- ---------- ----- --------- ------ ----- --- --- --------- --------- ------ ----- ----- ----- ----- ----- ----- ----- ---- ---------------------
PC3J_TRINITY_DN49673_c0_g1_i1.p2PC3J_TRINITY_DN49673_c0_g1  -            111 141575at3193         -            260   9.8e-45  154.6   0.5   1   1   1.8e-47   1.1e-44  154.4   0.5    27   130     1   111     1   111 0.94 -
PC3A_TRINITY_DN41339_c3_g1_i1.p1PC3A_TRINITY_DN41339_c3_g1  -            283 141575at3193         -            260   1.5e-32  114.7   6.4   1   2   4.5e-18   2.7e-15   58.1   0.2    69   147     7    87     3   111 0.87 -
PC3A_TRINITY_DN41339_c3_g1_i1.p1PC3A_TRINITY_DN41339_c3_g1  -            283 141575at3193         -            260   1.5e-32  114.7   6.4   2   2   2.1e-18   1.2e-15   59.2   1.5    52   146   170   270   159   281 0.84 -
PC3J_TRINITY_DN43942_c3_g4_i4.p1PC3J_TRINITY_DN43942_c3_g4  -            668 141575at3193         -            260   3.2e-20   74.3   6.7   1   5    0.0076       4.6    8.2   0.0   102   144    43    86    28    89 0.84 -
PC3J_TRINITY_DN43942_c3_g4_i4.p1PC3J_TRINITY_DN43942_c3_g4  -            668 141575at3193         -            260   3.2e-20   74.3   6.7   2   5   2.4e-08   1.4e-05   26.2   0.0    78   144    84   154    79   161 0.87 -
PC3J_TRINITY_DN43942_c3_g4_i4.p1PC3J_TRINITY_DN43942_c3_g4  -            668 141575at3193         -            260   3.2e-20   74.3   6.7   3   5     0.021        13    6.8   0.0    72   136   146   214   146   225 0.79 -
PC3J_TRINITY_DN43942_c3_g4_i4.p1PC3J_TRINITY_DN43942_c3_g4  -            668 141575at3193         -            260   3.2e-20   74.3   6.7   4   5   5.9e-08   3.5e-05   25.0   0.3    86   145   239   301   215   304 0.88 -
PC3J_TRINITY_DN43942_c3_g4_i4.p1PC3J_TRINITY_DN43942_c3_g4  -            668 141575at3193         -            260   3.2e-20   74.3   6.7   5   5   5.1e-05     0.031   15.3   0.1    76   141   296   369   295   458 0.73 -
PC2J_TRINITY_DN37827_c2_g1_i8.p1PC2J_TRINITY_DN37827_c2_g1  -            259 141575at3193         -            260   5.7e-20   73.4   2.1   1   3   0.00013     0.079   14.0   0.0    72   135     9    75     3    85 0.62 -
PC2J_TRINITY_DN37827_c2_g1_i8.p1PC2J_TRINITY_DN37827_c2_g1  -            259 141575at3193         -            260   5.7e-20   73.4   2.1   2   3     4e-05     0.024   15.7   0.0   106   141    96   131    79   132 0.81 -
PC2J_TRINITY_DN37827_c2_g1_i8.p1PC2J_TRINITY_DN37827_c2_g1  -            259 141575at3193         -            260   5.7e-20   73.4   2.1   3   3   3.7e-14   2.2e-11   45.3   0.3    71   146   125   201   123   212 0.92 -
PC2J_TRINITY_DN40986_c1_g1_i17.p1PC2J_TRINITY_DN40986_c1_g1 -            279 141575at3193         -            260   5.8e-18   66.9   0.7   1   3   1.2e-06    0.0007   20.7   0.0    75   143    34   105    24   110 0.80 -
PC2J_TRINITY_DN40986_c1_g1_i17.p1PC2J_TRINITY_DN40986_c1_g1 -            279 141575at3193         -            260   5.8e-18   66.9   0.7   2   3   1.7e-10     1e-07   33.3   0.1    67   145    92   174    92   177 0.89 -
PC2J_TRINITY_DN40986_c1_g1_i17.p1PC2J_TRINITY_DN40986_c1_g1 -            279 141575at3193         -            260   5.8e-18   66.9   0.7   3   3   1.2e-07   7.3e-05   23.9   0.0    73   147   166   244   165   265 0.84 -
PC3J_TRINITY_DN39490_c0_g3_i1.p1PC3J_TRINITY_DN39490_c0_g3  -            229 141575at3193         -            260   9.9e-18   66.1   0.2   1   2   5.8e-07   0.00035   21.7   0.0    85   141    25    82    12    83 0.88 -
PC3J_TRINITY_DN39490_c0_g3_i1.p1PC3J_TRINITY_DN39490_c0_g3  -            229 141575at3193         -            260   9.9e-18   66.1   0.2   2   2   2.5e-14   1.5e-11   45.9   0.3    71   146    76   152    73   162 0.92 -
PC1A_TRINITY_DN40315_c0_g2_i6.p1PC1A_TRINITY_DN40315_c0_g2  -            141 141575at3193         -            260   5.7e-17   63.6   6.2   1   2   0.00047      0.28   12.2   0.1    97   142     5    53     1    53 0.84 -
PC1A_TRINITY_DN40315_c0_g2_i6.p1PC1A_TRINITY_DN40315_c0_g2  -            141 141575at3193         -            260   5.7e-17   63.6   6.2   2   2   1.4e-18   8.4e-16   59.8   2.1    69   147    44   124    18   137 0.82 -
PC3J_TRINITY_DN41391_c1_g2_i3.p1PC3J_TRINITY_DN41391_c1_g2  -            354 141575at3193         -            260   6.4e-17   63.4   0.8   1   3   2.4e-06    0.0015   19.7   0.1    80   143    33    99    26   103 0.80 -
PC3J_TRINITY_DN41391_c1_g2_i3.p1PC3J_TRINITY_DN41391_c1_g2  -            354 141575at3193         -            260   6.4e-17   63.4   0.8   2   3   2.6e-10   1.5e-07   32.7   0.1    67   145    86   168    86   171 0.89 -
PC3J_TRINITY_DN41391_c1_g2_i3.p1PC3J_TRINITY_DN41391_c1_g2  -            354 141575at3193         -            260   6.4e-17   63.4   0.8   3   3   2.4e-07   0.00015   22.9   0.0    73   147   160   238   159   254 0.86 -
PC3A_TRINITY_DN43359_c1_g1_i8.p1PC3A_TRINITY_DN43359_c1_g1  -            170 141575at3193         -            260   9.3e-16   59.6   1.2   1   1   3.3e-18     2e-15   58.6   1.1    52   146    52   152    42   165 0.85 -
PC1A_TRINITY_DN40315_c0_g2_i7.p1PC1A_TRINITY_DN40315_c0_g2  -            349 141575at3193         -            260   9.5e-16   59.6   1.4   1   1   2.8e-18   1.7e-15   58.8   1.4    52   146   231   331   221   344 0.84 -
PC3J_TRINITY_DN44290_c1_g1_i12.p1PC3J_TRINITY_DN44290_c1_g1 -            225 141575at3193         -            260   2.5e-15   58.3   0.1   1   1   5.9e-18   3.6e-15   57.7   0.1    59   146   117   207   112   220 0.90 -
PC3J_TRINITY_DN37939_c0_g1_i1.p1PC3J_TRINITY_DN37939_c0_g1  -            241 141575at3193         -            260   2.6e-15   58.2   0.0   1   2   4.3e-08   2.6e-05   25.4   0.0    99   142    10    53     2    61 0.91 -
PC3J_TRINITY_DN37939_c0_g1_i1.p1PC3J_TRINITY_DN37939_c0_g1  -            241 141575at3193         -            260   2.6e-15   58.2   0.0   2   2   1.2e-09   7.1e-07   30.5   0.0    91   147    97   155    79   198 0.77 -
PC2J_TRINITY_DN40986_c1_g1_i21.p1PC2J_TRINITY_DN40986_c1_g1 -            265 141575at3193         -            260   2.8e-15   58.0   0.8   1   2   1.8e-11   1.1e-08   36.4   0.3    54   145    42   137    30   140 0.83 -
PC2J_TRINITY_DN40986_c1_g1_i21.p1PC2J_TRINITY_DN40986_c1_g1 -            265 141575at3193         -            260   2.8e-15   58.0   0.8   2   2   1.6e-07   9.7e-05   23.5   0.0    73   147   129   207   128   217 0.87 -
PC1J_TRINITY_DN40881_c1_g1_i2.p1PC1J_TRINITY_DN40881_c1_g1  -            347 141575at3193         -            260   4.3e-15   57.5   0.7   1   1   1.3e-17   8.1e-15   56.5   0.7    52   146   229   329   215   342 0.86 -
PC1A_TRINITY_DN40062_c1_g1_i6.p1PC1A_TRINITY_DN40062_c1_g1  -            240 141575at3193         -            260   1.3e-14   55.9   0.1   1   1   3.2e-17   1.9e-14   55.3   0.1    52   146   121   221    97   233 0.84 -
PC1A_TRINITY_DN39546_c3_g5_i1.p1PC1A_TRINITY_DN39546_c3_g5  -            563 141575at3193         -            260   1.7e-14   55.5   0.0   1   2   1.8e-09   1.1e-06   29.9   0.0    77   142   378   445   357   458 0.90 -
PC1A_TRINITY_DN39546_c3_g5_i1.p1PC1A_TRINITY_DN39546_c3_g5  -            563 141575at3193         -            260   1.7e-14   55.5   0.0   2   2   2.1e-07   0.00013   23.1   0.0    90   146   488   548   476   557 0.85 -
PC2J_TRINITY_DN39875_c0_g1_i14.p1PC2J_TRINITY_DN39875_c0_g1 -            218 141575at3193         -            260   5.7e-14   53.8   0.0   1   2   1.2e-07   7.3e-05   23.9   0.1    78   151    48   123    35   128 0.85 -
PC2J_TRINITY_DN39875_c0_g1_i14.p1PC2J_TRINITY_DN39875_c0_g1 -            218 141575at3193         -            260   5.7e-14   53.8   0.0   2   2   2.2e-10   1.4e-07   32.9   0.0    73   145   109   183   108   193 0.92 -
PC1A_TRINITY_DN44945_c0_g1_i1.p1PC1A_TRINITY_DN44945_c0_g1  -            212 141575at3193         -            260   1.5e-13   52.4   1.6   1   2   2.9e-08   1.7e-05   26.0   0.1    77   147    27   100    18   109 0.87 -
PC1A_TRINITY_DN44945_c0_g1_i1.p1PC1A_TRINITY_DN44945_c0_g1  -            212 141575at3193         -            260   1.5e-13   52.4   1.6   2   2   3.1e-08   1.8e-05   25.9   0.1    75   147   125   199   111   207 0.92 -
PC1A_TRINITY_DN34843_c0_g1_i1.p1PC1A_TRINITY_DN34843_c0_g1  -            146 141575at3193         -            260   4.6e-13   50.8   0.0   1   2   1.1e-10   6.5e-08   33.9   0.0    74   145    11    86     4    88 0.85 -
PC1A_TRINITY_DN34843_c0_g1_i1.p1PC1A_TRINITY_DN34843_c0_g1  -            146 141575at3193         -            260   4.6e-13   50.8   0.0   2   2     8e-07   0.00048   21.2   0.0   105   145    79   119    78   124 0.95 -
PC3J_TRINITY_DN38553_c0_g1_i2.p1PC3J_TRINITY_DN38553_c0_g1  -            296 141575at3193         -            260   5.9e-13   50.4   0.7   1   2   5.5e-10   3.3e-07   31.6   0.4    36   169    37   177    32   179 0.87 -
PC3J_TRINITY_DN38553_c0_g1_i2.p1PC3J_TRINITY_DN38553_c0_g1  -            296 141575at3193         -            260   5.9e-13   50.4   0.7   2   2   0.00031      0.19   12.7   0.0   100   145   190   235   182   247 0.86 -
PC2J_TRINITY_DN38757_c5_g1_i3.p1PC2J_TRINITY_DN38757_c5_g1  -            265 141575at3193         -            260   8.2e-13   50.0   0.0   1   2      0.12        71    4.3   0.0   106   146     5    45     2    55 0.88 -
PC2J_TRINITY_DN38757_c5_g1_i3.p1PC2J_TRINITY_DN38757_c5_g1  -            265 141575at3193         -            260   8.2e-13   50.0   0.0   2   2     2e-13   1.2e-10   42.9   0.1    69   145    66   145    49   149 0.88 -
PC3J_TRINITY_DN46494_c0_g1_i1.p1PC3J_TRINITY_DN46494_c0_g1  -            143 141575at3193         -            260   1.9e-12   48.7   0.4   1   2   5.4e-06    0.0033   18.5   0.2    97   147     4    54     1    86 0.82 -
PC3J_TRINITY_DN46494_c0_g1_i1.p1PC3J_TRINITY_DN46494_c0_g1  -            143 141575at3193         -            260   1.9e-12   48.7   0.4   2   2     3e-09   1.8e-06   29.2   0.0    87   145    79   139    67   141 0.84 -
PC1J_TRINITY_DN25598_c0_g1_i1.p1PC1J_TRINITY_DN25598_c0_g1  -            206 141575at3193         -            260   3.9e-12   47.8   0.9   1   3   7.2e-07   0.00043   21.4   0.0    74   135    51   114    20   117 0.80 -
PC1J_TRINITY_DN25598_c0_g1_i1.p1PC1J_TRINITY_DN25598_c0_g1  -            206 141575at3193         -            260   3.9e-12   47.8   0.9   2   3    0.0046       2.8    8.9   0.0    73    95   117   139   114   158 0.85 -
PC1J_TRINITY_DN25598_c0_g1_i1.p1PC1J_TRINITY_DN25598_c0_g1  -            206 141575at3193         -            260   3.9e-12   47.8   0.9   3   3   5.7e-05     0.034   15.2   0.2   102   129   178   205   151   206 0.83 -
PC1A_TRINITY_DN41947_c3_g1_i2.p1PC1A_TRINITY_DN41947_c3_g1  -            399 141575at3193         -            260   4.8e-12   47.5   4.5   1   3    0.0002      0.12   13.4   0.0    41   131    21   124    13   129 0.71 -
PC1A_TRINITY_DN41947_c3_g1_i2.p1PC1A_TRINITY_DN41947_c3_g1  -            399 141575at3193         -            260   4.8e-12   47.5   4.5   2   3   1.1e-07   6.8e-05   24.0   0.5    44   127   131   223   124   229 0.80 -
PC1A_TRINITY_DN41947_c3_g1_i2.p1PC1A_TRINITY_DN41947_c3_g1  -            399 141575at3193         -            260   4.8e-12   47.5   4.5   3   3    0.0018       1.1   10.3   0.1   100   148   230   279   225   303 0.83 -
PC3J_TRINITY_DN41391_c1_g2_i6.p1PC3J_TRINITY_DN41391_c1_g2  -            186 141575at3193         -            260   7.2e-12   46.9   0.4   1   2   8.4e-12   5.1e-09   37.6   0.3    54   145    28   123    12   125 0.83 -
PC3J_TRINITY_DN41391_c1_g2_i6.p1PC3J_TRINITY_DN41391_c1_g2  -            186 141575at3193         -            260   7.2e-12   46.9   0.4   2   2   0.00084       0.5   11.3   0.0    74   126   116   170   116   173 0.82 -
PC2J_TRINITY_DN45262_c2_g1_i2.p1PC2J_TRINITY_DN45262_c2_g1  -            277 141575at3193         -            260   8.4e-12   46.7   2.0   1   3      0.11        68    4.4   0.0   103   136    28    61    10    81 0.86 -
PC2J_TRINITY_DN45262_c2_g1_i2.p1PC2J_TRINITY_DN45262_c2_g1  -            277 141575at3193         -            260   8.4e-12   46.7   2.0   2   3   2.4e-08   1.5e-05   26.2   0.4    86   145    86   148    70   151 0.87 -
PC2J_TRINITY_DN45262_c2_g1_i2.p1PC2J_TRINITY_DN45262_c2_g1  -            277 141575at3193         -            260   8.4e-12   46.7   2.0   3   3   2.3e-05     0.014   16.5   0.0    78   141   145   216   143   263 0.70 -
PC2J_TRINITY_DN45579_c2_g2_i5.p1PC2J_TRINITY_DN45579_c2_g2  -            128 141575at3193         -            260   7.7e-11   43.5   0.3   1   2   2.6e-08   1.6e-05   26.1   0.1    70   113     7    52     1    61 0.63 -
PC2J_TRINITY_DN45579_c2_g2_i5.p1PC2J_TRINITY_DN45579_c2_g2  -            128 141575at3193         -            260   7.7e-11   43.5   0.3   2   2   3.2e-05     0.019   16.0   0.0   112   146    76   110    67   125 0.61 -
PC2A_TRINITY_DN29844_c3_g2_i2.p1PC2A_TRINITY_DN29844_c3_g2  -            149 141575at3193         -            260     1e-10   43.1   0.3   1   3    0.0016      0.99   10.4   0.1   103   128    26    51     6    60 0.83 -
PC2A_TRINITY_DN29844_c3_g2_i2.p1PC2A_TRINITY_DN29844_c3_g2  -            149 141575at3193         -            260     1e-10   43.1   0.3   2   3   2.9e-06    0.0018   19.4   0.2   103   144    64   105    53   108 0.84 -
PC2A_TRINITY_DN29844_c3_g2_i2.p1PC2A_TRINITY_DN29844_c3_g2  -            149 141575at3193         -            260     1e-10   43.1   0.3   3   3   0.00068      0.41   11.6   0.0    97   145   100   149    95   149 0.81 -
PC1A_TRINITY_DN26554_c0_g1_i1.p1PC1A_TRINITY_DN26554_c0_g1  -            138 141575at3193         -            260   1.3e-10   42.8   0.0   1   1   2.9e-13   1.7e-10   42.4   0.0    53   145    28   126    17   130 0.86 -
PC2A_TRINITY_DN33724_c0_g1_i4.p2PC2A_TRINITY_DN33724_c0_g1  -            112 141575at3193         -            260   1.8e-10   42.3   1.0   1   2    0.0044       2.6    9.0   0.1   103   140    22    58    11    58 0.81 -
PC2A_TRINITY_DN33724_c0_g1_i4.p2PC2A_TRINITY_DN33724_c0_g1  -            112 141575at3193         -            260   1.8e-10   42.3   1.0   2   2   7.4e-13   4.4e-10   41.0   0.9    52   126    30   110    21   112 0.80 -
PC2J_TRINITY_DN38757_c5_g2_i1.p1PC2J_TRINITY_DN38757_c5_g2  -            104 141575at3193         -            260   5.1e-10   40.8   0.0   1   1   1.4e-12   8.6e-10   40.1   0.0    71   146     9    86     1    95 0.90 -
PC3J_TRINITY_DN43942_c3_g4_i7.p1PC3J_TRINITY_DN43942_c3_g4  -            214 141575at3193         -            260   8.6e-10   40.1   0.1   1   2    0.0015      0.89   10.5   0.0   102   144    43    86    29    89 0.84 -
PC3J_TRINITY_DN43942_c3_g4_i7.p1PC3J_TRINITY_DN43942_c3_g4  -            214 141575at3193         -            260   8.6e-10   40.1   0.1   2   2   3.7e-09   2.2e-06   28.9   0.0    78   144    84   154    79   161 0.87 -
PC3J_TRINITY_DN49418_c0_g4_i1.p2PC3J_TRINITY_DN49418_c0_g4  -            164 141575at3193         -            260   9.1e-10   40.0   0.8   1   2   7.6e-07   0.00046   21.3   0.1    70   130    26    88     3    95 0.76 -
PC3J_TRINITY_DN49418_c0_g4_i1.p2PC3J_TRINITY_DN49418_c0_g4  -            164 141575at3193         -            260   9.1e-10   40.0   0.8   2   2   1.1e-05    0.0067   17.5   0.1   103   146   101   144    92   153 0.92 -
PC2J_TRINITY_DN32734_c0_g1_i1.p1PC2J_TRINITY_DN32734_c0_g1  -            304 141575at3193         -            260   1.7e-09   39.1   0.0   1   2   1.1e-06   0.00068   20.7   0.0    85   136    24    77    12    80 0.89 -
PC2J_TRINITY_DN32734_c0_g1_i1.p1PC2J_TRINITY_DN32734_c0_g1  -            304 141575at3193         -            260   1.7e-09   39.1   0.0   2   2   1.3e-05    0.0077   17.3   0.0   103   145    78   120    76   135 0.88 -
PC1J_TRINITY_DN34979_c4_g4_i1.p1PC1J_TRINITY_DN34979_c4_g4  -            128 141575at3193         -            260     9e-09   36.7   0.0   1   1   2.8e-11   1.7e-08   35.8   0.0    66   145    13    96     1    99 0.86 -
PC3J_TRINITY_DN48253_c2_g1_i4.p1PC3J_TRINITY_DN48253_c2_g1  -            119 141575at3193         -            260   9.1e-09   36.7   0.0   1   1   1.7e-11     1e-08   36.6   0.0    61   146     4    93     1   104 0.88 -
PC2J_TRINITY_DN37119_c0_g1_i2.p1PC2J_TRINITY_DN37119_c0_g1  -            148 141575at3193         -            260   1.6e-08   35.9   0.3   1   1   3.6e-11   2.2e-08   35.5   0.3    71   145    44   120    11   145 0.79 -
PC3J_TRINITY_DN23848_c0_g1_i1.p1PC3J_TRINITY_DN23848_c0_g1  -            330 141575at3193         -            260   1.8e-08   35.7   3.0   1   3      0.77   4.6e+02    1.6   0.0   103   130     8    35     2    46 0.86 -
PC3J_TRINITY_DN23848_c0_g1_i1.p1PC3J_TRINITY_DN23848_c0_g1  -            330 141575at3193         -            260   1.8e-08   35.7   3.0   2   3   1.5e-06   0.00092   20.3   1.3    73   146    43   120    14   138 0.70 -
PC3J_TRINITY_DN23848_c0_g1_i1.p1PC3J_TRINITY_DN23848_c0_g1  -            330 141575at3193         -            260   1.8e-08   35.7   3.0   3   3   1.2e-05    0.0074   17.3   0.1    73   150   111   193   110   213 0.81 -
PC2J_TRINITY_DN45579_c2_g2_i13.p1PC2J_TRINITY_DN45579_c2_g2 -            210 141575at3193         -            260   1.9e-08   35.6   0.3   1   1   5.2e-11   3.1e-08   35.0   0.3    72   145    44   119    37   133 0.88 -
PC2J_TRINITY_DN37495_c1_g2_i3.p1PC2J_TRINITY_DN37495_c1_g2  -            251 141575at3193         -            260   2.1e-08   35.5   2.6   1   2   7.2e-08   4.3e-05   24.7   0.4    45   128     7    99     3   107 0.80 -
PC2J_TRINITY_DN37495_c1_g2_i3.p1PC2J_TRINITY_DN37495_c1_g2  -            251 141575at3193         -            260   2.1e-08   35.5   2.6   2   2     0.001      0.63   11.0   0.1   100   149   105   154    99   177 0.81 -
PC1A_TRINITY_DN46141_c0_g1_i1.p1PC1A_TRINITY_DN46141_c0_g1  -            108 141575at3193         -            260     3e-08   35.0   0.3   1   1     6e-11   3.6e-08   34.8   0.3    70   145    25   104     7   107 0.86 -
PC3A_TRINITY_DN33445_c0_g1_i1.p1PC3A_TRINITY_DN33445_c0_g1  -            170 141575at3193         -            260   4.4e-08   34.5   0.1   1   2   3.5e-06    0.0021   19.2   0.0    72   134    50   115    31   121 0.81 -
PC3A_TRINITY_DN33445_c0_g1_i1.p1PC3A_TRINITY_DN33445_c0_g1  -            170 141575at3193         -            260   4.4e-08   34.5   0.1   2   2   0.00013     0.077   14.0   0.0    72   121   118   168   114   170 0.86 -
PC2J_TRINITY_DN40986_c1_g5_i1.p1PC2J_TRINITY_DN40986_c1_g5  -            131 141575at3193         -            260   5.8e-08   34.1   0.0   1   1   1.7e-10   1.1e-07   33.2   0.0    67   145    21   103     7   109 0.88 -
PC2J_TRINITY_DN44511_c0_g4_i1.p1PC2J_TRINITY_DN44511_c0_g4  -            183 141575at3193         -            260   1.1e-07   33.2   0.0   1   1     2e-10   1.2e-07   33.0   0.0    25   147    37   165    12   179 0.85 -
PC2A_TRINITY_DN23055_c1_g1_i3.p1PC2A_TRINITY_DN23055_c1_g1  -            181 141575at3193         -            260   1.3e-07   32.9   0.0   1   2   2.7e-08   1.6e-05   26.1   0.0    64   135    19    96     6   100 0.86 -
PC2A_TRINITY_DN23055_c1_g1_i3.p1PC2A_TRINITY_DN23055_c1_g1  -            181 141575at3193         -            260   1.3e-07   32.9   0.0   2   2     0.079        47    4.9   0.0   105   139   101   137    94   146 0.85 -
PC3J_TRINITY_DN17791_c0_g1_i1.p1PC3J_TRINITY_DN17791_c0_g1  -            102 141575at3193         -            260   1.4e-07   32.8   0.0   1   1   2.6e-10   1.5e-07   32.7   0.0   100   166    18    84     2    99 0.89 -
PC3A_TRINITY_DN40720_c1_g4_i2.p1PC3A_TRINITY_DN40720_c1_g4  -            110 141575at3193         -            260   3.5e-07   31.5   0.1   1   1   7.4e-10   4.5e-07   31.2   0.1    53   130    11    94     5    98 0.80 -
PC1A_TRINITY_DN40025_c4_g1_i9.p1PC1A_TRINITY_DN40025_c4_g1  -            327 141575at3193         -            260   5.2e-07   31.0   0.0   1   1   1.3e-09   7.7e-07   30.4   0.0    72   145   158   239   146   288 0.85 -
PC1J_TRINITY_DN3758_c0_g1_i1.p1PC1J_TRINITY_DN3758_c0_g1    -            160 141575at3193         -            260   5.3e-07   30.9   0.1   1   1   1.2e-09   6.9e-07   30.6   0.1    83   145    22    86     7   110 0.74 -
PC3A_TRINITY_DN42839_c2_g1_i2.p1PC3A_TRINITY_DN42839_c2_g1  -            269 141575at3193         -            260   5.4e-07   30.9   4.5   1   2   2.6e-06    0.0016   19.6   1.4    51   127    23   108    17   113 0.67 -
PC3A_TRINITY_DN42839_c2_g1_i2.p1PC3A_TRINITY_DN42839_c2_g1  -            269 141575at3193         -            260   5.4e-07   30.9   4.5   2   2   0.00014     0.082   13.9   0.2    88   149   100   165    93   242 0.81 -
PC1A_TRINITY_DN39546_c3_g4_i1.p1PC1A_TRINITY_DN39546_c3_g4  -            113 141575at3193         -            260   5.9e-07   30.8   0.0   1   1   9.9e-10   5.9e-07   30.8   0.0    89   147    32    94     1   108 0.74 -
PC3A_TRINITY_DN37316_c4_g1_i3.p1PC3A_TRINITY_DN37316_c4_g1  -            144 141575at3193         -            260   6.2e-07   30.7   0.0   1   1   1.5e-09   8.9e-07   30.2   0.0    67   147    21   106     1   123 0.84 -
PC3A_TRINITY_DN34265_c0_g1_i1.p1PC3A_TRINITY_DN34265_c0_g1  -            189 141575at3193         -            260   8.5e-07   30.3   0.7   1   2     2e-08   1.2e-05   26.5   0.3    70   164    52   150    31   161 0.78 -
PC3A_TRINITY_DN34265_c0_g1_i1.p1PC3A_TRINITY_DN34265_c0_g1  -            189 141575at3193         -            260   8.5e-07   30.3   0.7   2   2      0.34     2e+02    2.8   0.0    98   126   156   184   139   188 0.79 -
PC3A_TRINITY_DN34141_c0_g1_i1.p1PC3A_TRINITY_DN34141_c0_g1  -            114 141575at3193         -            260   1.5e-06   29.4   0.1   1   1   2.9e-09   1.8e-06   29.2   0.1    50   130    21   114     7   114 0.74 -
PC3J_TRINITY_DN40807_c8_g1_i4.p1PC3J_TRINITY_DN40807_c8_g1  -            809 141575at3193         -            260   2.2e-06   28.9   0.0   1   1   6.4e-09   3.8e-06   28.1   0.0    72   145   615   696   604   718 0.83 -
PC1J_TRINITY_DN21067_c0_g1_i1.p1PC1J_TRINITY_DN21067_c0_g1  -            116 141575at3193         -            260   2.4e-06   28.8   0.1   1   1   4.7e-09   2.8e-06   28.6   0.1    74   138    47   114    40   116 0.88 -
PC2J_TRINITY_DN43910_c0_g5_i1.p1PC2J_TRINITY_DN43910_c0_g5  -            333 141575at3193         -            260   2.8e-06   28.6   0.5   1   2   5.4e-08   3.3e-05   25.1   0.2    53   155    19   125     8   151 0.79 -
PC2J_TRINITY_DN43910_c0_g5_i1.p1PC2J_TRINITY_DN43910_c0_g5  -            333 141575at3193         -            260   2.8e-06   28.6   0.5   2   2      0.82   4.9e+02    1.5   0.0   139   191   158   211   130   213 0.82 -
PC1J_TRINITY_DN36473_c3_g2_i1.p1PC1J_TRINITY_DN36473_c3_g2  -            113 141575at3193         -            260   5.2e-06   27.7   0.0   1   1   9.6e-09   5.8e-06   27.5   0.0    97   145    24    72     6    89 0.87 -
PC3A_TRINITY_DN44516_c0_g1_i1.p1PC3A_TRINITY_DN44516_c0_g1  -            165 141575at3193         -            260   5.3e-06   27.7   0.0   1   1   1.3e-08     8e-06   27.1   0.0    74   136    47   112    23   128 0.85 -
PC2J_TRINITY_DN40116_c0_g1_i5.p1PC2J_TRINITY_DN40116_c0_g1  -            355 141575at3193         -            260   6.6e-06   27.4   0.1   1   1   1.8e-08   1.1e-05   26.7   0.1    72   132   216   278   211   298 0.88 -
PC1J_TRINITY_DN33545_c7_g1_i1.p1PC1J_TRINITY_DN33545_c7_g1  -            295 141575at3193         -            260   6.6e-06   27.3   0.1   1   2   0.00031      0.18   12.8   0.0    89   138     6    56     2    57 0.84 -
PC1J_TRINITY_DN33545_c7_g1_i1.p1PC1J_TRINITY_DN33545_c7_g1  -            295 141575at3193         -            260   6.6e-06   27.3   0.1   2   2   2.6e-05     0.016   16.3   0.0    98   152    49   103    46   136 0.83 -
PC3J_TRINITY_DN41391_c1_g2_i1.p1PC3J_TRINITY_DN41391_c1_g2  -            416 141575at3193         -            260   8.1e-06   27.1   0.0   1   1     2e-08   1.2e-05   26.5   0.0    67   147    60   145    45   161 0.86 -
PC2J_TRINITY_DN37827_c2_g1_i7.p1PC2J_TRINITY_DN37827_c2_g1  -            147 141575at3193         -            260   8.9e-06   26.9   0.6   1   2   1.7e-05      0.01   16.9   0.0    68   136    19    90     3   103 0.67 -
PC2J_TRINITY_DN37827_c2_g1_i7.p1PC2J_TRINITY_DN37827_c2_g1  -            147 141575at3193         -            260   8.9e-06   26.9   0.6   2   2    0.0092       5.5    7.9   0.1    91   126   110   145   100   146 0.79 -
PC3J_TRINITY_DN43963_c3_g4_i1.p1PC3J_TRINITY_DN43963_c3_g4  -            108 141575at3193         -            260   9.2e-06   26.9   0.1   1   1   1.7e-08     1e-05   26.7   0.1    95   147    19    73     8    89 0.84 -
PC2J_TRINITY_DN34887_c0_g1_i4.p1PC2J_TRINITY_DN34887_c0_g1  -            225 141575at3193         -            260   1.2e-05   26.5   0.1   1   2      0.44   2.7e+02    2.4   0.0   101   134    14    47     4    57 0.76 -
PC2J_TRINITY_DN34887_c0_g1_i4.p1PC2J_TRINITY_DN34887_c0_g1  -            225 141575at3193         -            260   1.2e-05   26.5   0.1   2   2   5.6e-07   0.00034   21.7   0.0    68   146    99   183    65   204 0.79 -
PC3J_TRINITY_DN39201_c0_g1_i4.p1PC3J_TRINITY_DN39201_c0_g1  -            104 141575at3193         -            260   1.6e-05   26.1   0.0   1   1   4.2e-08   2.5e-05   25.4   0.0     2    29    74   104    73   104 0.90 -
PC3J_TRINITY_DN41157_c1_g1_i2.p1PC3J_TRINITY_DN41157_c1_g1  -            104 141575at3193         -            260   1.8e-05   25.9   0.5   1   2   1.4e-06   0.00082   20.5   0.2   103   144    32    73    21    76 0.84 -
PC3J_TRINITY_DN41157_c1_g1_i2.p1PC3J_TRINITY_DN41157_c1_g1  -            104 141575at3193         -            260   1.8e-05   25.9   0.5   2   2     0.068        41    5.1   0.0    72    98    75   101    65   104 0.55 -
PC3A_TRINITY_DN37316_c4_g1_i2.p1PC3A_TRINITY_DN37316_c4_g1  -            155 141575at3193         -            260     3e-05   25.2   0.2   1   2   1.7e-07    0.0001   23.4   0.1    74   144    39   112    20   124 0.83 -
PC3A_TRINITY_DN37316_c4_g1_i2.p1PC3A_TRINITY_DN37316_c4_g1  -            155 141575at3193         -            260     3e-05   25.2   0.2   2   2     0.058        35    5.3   0.0    75   135   107   136   106   150 0.55 -
PC3J_TRINITY_DN44599_c3_g1_i2.p1PC3J_TRINITY_DN44599_c3_g1  -            143 141575at3193         -            260   4.3e-05   24.7   0.0   1   2   6.6e-05     0.039   15.0   0.1   103   144    41    82    29    85 0.82 -
PC3J_TRINITY_DN44599_c3_g1_i2.p1PC3J_TRINITY_DN44599_c3_g1  -            143 141575at3193         -            260   4.3e-05   24.7   0.0   2   2    0.0052       3.1    8.7   0.0   104   146    85   127    71   131 0.85 -
PC2A_TRINITY_DN31852_c1_g1_i1.p1PC2A_TRINITY_DN31852_c1_g1  -            104 141575at3193         -            260   4.3e-05   24.7   1.4   1   2   2.5e-07   0.00015   22.9   1.4    71   142     3    79     2    97 0.79 -
PC2A_TRINITY_DN31852_c1_g1_i1.p1PC2A_TRINITY_DN31852_c1_g1  -            104 141575at3193         -            260   4.3e-05   24.7   1.4   2   2      0.62   3.7e+02    1.9   0.1   107   128    80   101    72   104 0.76 -
PC2J_TRINITY_DN30648_c0_g1_i1.p1PC2J_TRINITY_DN30648_c0_g1  -            127 141575at3193         -            260   4.5e-05   24.6   0.0   1   2    0.0059       3.5    8.6   0.0    92   128    37    76     3    88 0.74 -
PC2J_TRINITY_DN30648_c0_g1_i1.p1PC2J_TRINITY_DN30648_c0_g1  -            127 141575at3193         -            260   4.5e-05   24.6   0.0   2   2   6.8e-05     0.041   14.9   0.0   103   134    88   119    79   124 0.86 -
PC2J_TRINITY_DN38560_c3_g1_i1.p1PC2J_TRINITY_DN38560_c3_g1  -            121 141575at3193         -            260   0.00015   22.9   0.1   1   2   1.6e-05    0.0095   17.0   0.0    77   119    50    94    18   101 0.66 -
PC2J_TRINITY_DN38560_c3_g1_i1.p1PC2J_TRINITY_DN38560_c3_g1  -            121 141575at3193         -            260   0.00015   22.9   0.1   2   2      0.12        70    4.3   0.0    73    92   102   121    98   121 0.88 -
PC2J_TRINITY_DN42769_c4_g2_i5.p1PC2J_TRINITY_DN42769_c4_g2  -            480 141575at3193         -            260   0.00026   22.1   0.3   1   2     0.078        47    4.9   0.0    71   128    91   158    83   161 0.70 -
PC2J_TRINITY_DN42769_c4_g2_i5.p1PC2J_TRINITY_DN42769_c4_g2  -            480 141575at3193         -            260   0.00026   22.1   0.3   2   2   5.2e-05     0.031   15.3   0.0    72   144   173   255   167   283 0.75 -
PC1A_TRINITY_DN39270_c0_g2_i5.p1PC1A_TRINITY_DN39270_c0_g2  -            500 141575at3193         -            260   0.00029   21.9   0.0   1   2     0.075        45    4.9   0.0   117   145    19    47     5    58 0.84 -
PC1A_TRINITY_DN39270_c0_g2_i5.p1PC1A_TRINITY_DN39270_c0_g2  -            500 141575at3193         -            260   0.00029   21.9   0.0   2   2   8.6e-05     0.052   14.6   0.0    93   162    60   134    54   161 0.77 -
PC3J_TRINITY_DN23848_c0_g1_i2.p1PC3J_TRINITY_DN23848_c0_g1  -            260 141575at3193         -            260   0.00067   20.8   0.2   1   2      0.42   2.5e+02    2.5   0.0   103   130     8    35     2    52 0.82 -
PC3J_TRINITY_DN23848_c0_g1_i2.p1PC3J_TRINITY_DN23848_c0_g1  -            260 141575at3193         -            260   0.00067   20.8   0.2   2   2   1.1e-05    0.0066   17.5   0.1    73   150    43   123    14   135 0.75 -
PC1A_TRINITY_DN11129_c0_g1_i1.p1PC1A_TRINITY_DN11129_c0_g1  -            146 141575at3193         -            260   0.00071   20.7   3.3   1   2     0.032        19    6.2   0.0    13    36    17    42     9    50 0.64 -
PC1A_TRINITY_DN11129_c0_g1_i1.p1PC1A_TRINITY_DN11129_c0_g1  -            146 141575at3193         -            260   0.00071   20.7   3.3   2   2   0.00011     0.068   14.2   1.0   227   251    94   120    80   131 0.68 -
PC2J_TRINITY_DN45579_c2_g2_i1.p1PC2J_TRINITY_DN45579_c2_g2  -            177 141575at3193         -            260   0.00093   20.3   0.0   1   1   1.7e-06     0.001   20.2   0.0    72   124    44    98    36   157 0.84 -
PC2A_TRINITY_DN33724_c0_g1_i13.p1PC2A_TRINITY_DN33724_c0_g1 -            155 141575at3193         -            260    0.0011   20.1   0.1   1   1   2.3e-06    0.0014   19.7   0.1    72   125    90   145    80   152 0.84 -
PC1A_TRINITY_DN44073_c1_g7_i1.p1PC1A_TRINITY_DN44073_c1_g7  -            372 141575at3193         -            260    0.0012   19.9   0.1   1   1   2.9e-06    0.0017   19.4   0.1    72   156    45   139    39   151 0.72 -
PC1A_TRINITY_DN44073_c1_g7_i3.p1PC1A_TRINITY_DN44073_c1_g7  -            443 141575at3193         -            260    0.0016   19.5   0.1   1   1   3.9e-06    0.0023   19.0   0.1    72   155    45   138    39   151 0.72 -
PC1J_TRINITY_DN33809_c0_g7_i2.p1PC1J_TRINITY_DN33809_c0_g7  -            147 141575at3193         -            260    0.0025   18.9   0.0   1   1   5.3e-06    0.0032   18.5   0.0   102   144    20    62     5    89 0.71 -
PC1A_TRINITY_DN10797_c0_g1_i1.p1PC1A_TRINITY_DN10797_c0_g1  -            195 141575at3193         -            260    0.0048   18.0   0.1   1   1   1.2e-05    0.0072   17.4   0.1    71   145    89   170    84   180 0.79 -
PC3J_TRINITY_DN43942_c3_g4_i3.p1PC3J_TRINITY_DN43942_c3_g4  -            129 141575at3193         -            260    0.0053   17.8   0.0   1   2    0.0005       0.3   12.1   0.0   102   144    43    86    28    90 0.84 -
PC3J_TRINITY_DN43942_c3_g4_i3.p1PC3J_TRINITY_DN43942_c3_g4  -            129 141575at3193         -            260    0.0053   17.8   0.0   2   2     0.051        31    5.5   0.0    78   103    84   109    79   118 0.81 -
PC1A_TRINITY_DN40025_c4_g1_i2.p1PC1A_TRINITY_DN40025_c4_g1  -            142 141575at3193         -            260    0.0066   17.5   0.0   1   1   1.5e-05    0.0092   17.0   0.0    72   117    88   135    75   141 0.88 -
PC1A_TRINITY_DN42448_c0_g1_i2.p1PC1A_TRINITY_DN42448_c0_g1  -            330 141575at3193         -            260      0.01   16.9   0.0   1   1   2.5e-05     0.015   16.3   0.0    71   144   142   225   134   254 0.76 -
PC2J_TRINITY_DN42671_c2_g2_i2.p1PC2J_TRINITY_DN42671_c2_g2  -            176 141575at3193         -            260      0.01   16.9   0.2   1   1   2.3e-05     0.014   16.5   0.2    50   131    76   163    64   171 0.79 -
PC3A_TRINITY_DN43651_c0_g1_i11.p1PC3A_TRINITY_DN43651_c0_g1 -            632 141575at3193         -            260      0.01   16.9   0.1   1   1   2.7e-05     0.016   16.2   0.1    73   144     6    87     2   108 0.77 -
PC1A_TRINITY_DN22248_c1_g1_i3.p1PC1A_TRINITY_DN22248_c1_g1  -            305 141575at3193         -            260     0.011   16.8   0.9   1   2     0.014       8.6    7.3   0.1    16    37    63    86    43    96 0.77 -
PC1A_TRINITY_DN22248_c1_g1_i3.p1PC1A_TRINITY_DN22248_c1_g1  -            305 141575at3193         -            260     0.011   16.8   0.9   2   2    0.0079       4.7    8.1   0.1   228   249   153   176   107   190 0.82 -
PC3J_TRINITY_DN7875_c0_g1_i1.p1PC3J_TRINITY_DN7875_c0_g1    -            104 141575at3193         -            260     0.018   16.1   0.5   1   2      0.22   1.4e+02    3.4   0.0   102   124     5    27     2    49 0.83 -
PC3J_TRINITY_DN7875_c0_g1_i1.p1PC3J_TRINITY_DN7875_c0_g1    -            104 141575at3193         -            260     0.018   16.1   0.5   2   2   0.00074      0.45   11.5   0.1   100   144    51    98    33   103 0.83 -
PC3J_TRINITY_DN48210_c4_g1_i4.p1PC3J_TRINITY_DN48210_c4_g1  -            113 141575at3193         -            260     0.023   15.7   0.1   1   1   4.5e-05     0.027   15.5   0.1    57   145    16    78     2    96 0.50 -
PC2J_TRINITY_DN45579_c2_g2_i19.p1PC2J_TRINITY_DN45579_c2_g2 -            190 141575at3193         -            260     0.027   15.5   0.0   1   1   6.2e-05     0.037   15.0   0.0   112   146   138   172   120   187 0.66 -
PC2A_TRINITY_DN33759_c2_g2_i2.p1PC2A_TRINITY_DN33759_c2_g2  -            144 141575at3193         -            260     0.036   15.1   0.8   1   1   0.00013     0.077   14.0   0.8   227   251    58    84    43    91 0.67 -
PC1A_TRINITY_DN39550_c0_g6_i1.p1PC1A_TRINITY_DN39550_c0_g6  -            278 141575at3193         -            260     0.043   14.8   0.0   1   1    0.0001     0.062   14.3   0.0   105   147   177   219   115   235 0.79 -
PC2J_TRINITY_DN26595_c0_g1_i2.p1PC2J_TRINITY_DN26595_c0_g1  -            153 141575at3193         -            260     0.046   14.8   0.0   1   1   8.4e-05      0.05   14.6   0.0    54   142    58   153    38   153 0.72 -
PC1J_TRINITY_DN29136_c0_g1_i1.p1PC1J_TRINITY_DN29136_c0_g1  -            188 141575at3193         -            260     0.055   14.5   0.0   1   1   0.00011     0.064   14.3   0.0    98   144    63   112     3   128 0.77 -
PC1J_TRINITY_DN34979_c4_g3_i1.p1PC1J_TRINITY_DN34979_c4_g3  -            109 141575at3193         -            260     0.075   14.1   0.0   1   1   0.00015     0.087   13.8   0.0    84   135    12    65     5    80 0.81 -
PC1A_TRINITY_DN5601_c0_g1_i2.p1PC1A_TRINITY_DN5601_c0_g1    -            171 141575at3193         -            260     0.087   13.8   0.0   1   1   0.00018      0.11   13.5   0.0    99   146    76   123    50   143 0.81 -
PC2J_TRINITY_DN43333_c2_g1_i5.p1PC2J_TRINITY_DN43333_c2_g1  -            157 141575at3193         -            260     0.092   13.8   0.0   1   1    0.0002      0.12   13.4   0.0    97   145    93   140    79   154 0.60 -
PC1A_TRINITY_DN42794_c1_g5_i3.p1PC1A_TRINITY_DN42794_c1_g5  -            399 141575at3193         -            260       0.2   12.7   0.1   1   1   0.00052      0.31   12.0   0.1    55   143    40   102    14   121 0.56 -
PC2J_TRINITY_DN36355_c2_g1_i9.p1PC2J_TRINITY_DN36355_c2_g1  -            131 141575at3193         -            260      0.21   12.6   0.0   1   1   0.00041      0.25   12.3   0.0   111   152    37    78     6    92 0.79 -
PC2J_TRINITY_DN46251_c3_g1_i2.p1PC2J_TRINITY_DN46251_c3_g1  -            156 141575at3193         -            260      0.23   12.5   0.1   1   1   0.00055      0.33   11.9   0.1     8    38   115   147   108   149 0.82 -
PC1J_TRINITY_DN39807_c1_g1_i1.p1PC1J_TRINITY_DN39807_c1_g1  -            151 141575at3193         -            260      0.25   12.3   0.0   1   1   0.00054      0.32   12.0   0.0     8    33   116   143   109   149 0.73 -
PC1A_TRINITY_DN45397_c0_g1_i1.p1PC1A_TRINITY_DN45397_c0_g1  -            151 141575at3193         -            260      0.25   12.3   0.0   1   1   0.00053      0.32   12.0   0.0   102   147     4    51     2    71 0.85 -
PC2A_TRINITY_DN33659_c1_g1_i3.p1PC2A_TRINITY_DN33659_c1_g1  -            109 141575at3193         -            260      0.33   11.9   0.1   1   1   0.00072      0.43   11.6   0.1   229   247    80   100    64   105 0.81 -
PC1A_TRINITY_DN12516_c0_g1_i1.p1PC1A_TRINITY_DN12516_c0_g1  -            157 141575at3193         -            260      0.34   11.9   0.0   1   1   0.00062      0.37   11.8   0.0   101   145   103   149    59   152 0.79 -
PC2J_TRINITY_DN40762_c3_g2_i3.p1PC2J_TRINITY_DN40762_c3_g2  -            150 141575at3193         -            260      0.53   11.3   0.0   1   1    0.0011      0.68   10.9   0.0   117   172    33    91    24   104 0.86 -
#
# Program:         hmmsearch
# Version:         3.2.1 (June 2018)
# Pipeline mode:   SEARCH
# Query file:      /isg/shared/databases/BUSCO/odb10/embryophyta_odb10/hmms/141575at3193.hmm
# Target file:     Pine_final_annotations_no_contam_lvl0.faa
# Option settings: /usr/local/bin/hmmsearch --domtblout /labs/Wegrzyn/Juniper_Pine/BUSCO/NEW/busco_pine/run_embryophyta_odb10/hmmer_output/141575at3193.out --cpu 1 /isg/shared/databases/BUSCO/odb10/embryophyta_odb10/hmms/141575at3193.hmm Pine_final_annotations_no_contam_lvl0.faa 
# Current dir:     /labs/Wegrzyn/Juniper_Pine/BUSCO/NEW
# Date:            Thu Aug  6 14:43:25 2020
# [ok]
