#                                                                                                                  --- full sequence --- -------------- this domain -------------   hmm coord   ali coord   env coord
# target name                                              accession   tlen query name           accession   qlen   E-value  score  bias   #  of  c-Evalue  i-Evalue  score  bias  from    to  from    to  from    to  acc description of target
#                                      ------------------- ---------- ----- -------------------- ---------- ----- --------- ------ ----- --- --- --------- --------- ------ ----- ----- ----- ----- ----- ----- ----- ---- ---------------------
PC1A_TRINITY_DN41139_c4_g8_i1.p1PC1A_TRINITY_DN41139_c4_g8 -            123 141872at3193         -            264     0.014   17.0   0.2   1   1   9.8e-07     0.016   16.9   0.2   127   212     8    93     3   108 0.82 -
PC2A_TRINITY_DN32962_c0_g4_i6.p1PC2A_TRINITY_DN32962_c0_g4 -            252 141872at3193         -            264     0.019   16.6   0.0   1   1   1.3e-06     0.021   16.4   0.0     4   192    35   236    32   252 0.81 -
PC3A_TRINITY_DN42529_c1_g1_i4.p1PC3A_TRINITY_DN42529_c1_g1 -            436 141872at3193         -            264     0.019   16.5   0.0   1   1   1.8e-06     0.028   16.0   0.0     4   210   137   357   134   407 0.82 -
PC3A_TRINITY_DN2868_c0_g1_i1.p1PC3A_TRINITY_DN2868_c0_g1   -            129 141872at3193         -            264      0.19   13.3   0.1   1   1   1.3e-05      0.21   13.1   0.1    94   150    57   113    22   118 0.88 -
#
# Program:         hmmsearch
# Version:         3.2.1 (June 2018)
# Pipeline mode:   SEARCH
# Query file:      /isg/shared/databases/BUSCO/odb10/embryophyta_odb10/hmms/141872at3193.hmm
# Target file:     Pine_final_annotations_no_contam_lvl0.faa
# Option settings: /usr/local/bin/hmmsearch --domtblout /labs/Wegrzyn/Juniper_Pine/BUSCO/NEW/busco_pine/run_embryophyta_odb10/hmmer_output/141872at3193.out --cpu 1 /isg/shared/databases/BUSCO/odb10/embryophyta_odb10/hmms/141872at3193.hmm Pine_final_annotations_no_contam_lvl0.faa 
# Current dir:     /labs/Wegrzyn/Juniper_Pine/BUSCO/NEW
# Date:            Thu Aug  6 14:43:29 2020
# [ok]
