#                                                                                                                   --- full sequence --- -------------- this domain -------------   hmm coord   ali coord   env coord
# target name                                               accession   tlen query name           accession   qlen   E-value  score  bias   #  of  c-Evalue  i-Evalue  score  bias  from    to  from    to  from    to  acc description of target
#                                       ------------------- ---------- ----- -------------------- ---------- ----- --------- ------ ----- --- --- --------- --------- ------ ----- ----- ----- ----- ----- ----- ----- ---- ---------------------
PC1A_TRINITY_DN39934_c0_g4_i4.p1PC1A_TRINITY_DN39934_c0_g4  -            259 141833at3193         -            244   4.4e-32  113.0   4.2   1   1   1.7e-31   1.1e-28  102.0   4.2    39   238     4   255     1   258 0.75 -
PC3A_TRINITY_DN38181_c1_g2_i8.p1PC3A_TRINITY_DN38181_c1_g2  -            396 141833at3193         -            244   7.1e-31  109.1   2.8   1   3   7.3e-08   4.4e-05   24.6   0.1     4    80    56   138    53   142 0.74 -
PC3A_TRINITY_DN38181_c1_g2_i8.p1PC3A_TRINITY_DN38181_c1_g2  -            396 141833at3193         -            244   7.1e-31  109.1   2.8   2   3   2.9e-12   1.8e-09   39.0   0.0    40   159   141   268   136   273 0.84 -
PC3A_TRINITY_DN38181_c1_g2_i8.p1PC3A_TRINITY_DN38181_c1_g2  -            396 141833at3193         -            244   7.1e-31  109.1   2.8   3   3   8.9e-14   5.4e-11   44.0   0.1    96   199   276   386   268   390 0.83 -
PC1A_TRINITY_DN41634_c4_g2_i1.p1PC1A_TRINITY_DN41634_c4_g2  -            343 141833at3193         -            244   1.9e-29  104.4   0.9   1   2   4.8e-19   2.9e-16   61.2   0.4     4   167    56   233    53   238 0.82 -
PC1A_TRINITY_DN41634_c4_g2_i1.p1PC1A_TRINITY_DN41634_c4_g2  -            343 141833at3193         -            244   1.9e-29  104.4   0.9   2   2   3.7e-13   2.2e-10   42.0   0.0    77   170   240   338   235   342 0.89 -
PC1J_TRINITY_DN38390_c1_g1_i18.p1PC1J_TRINITY_DN38390_c1_g1 -            236 141833at3193         -            244   2.7e-29  103.9   0.2   1   1   7.4e-32   4.5e-29  103.2   0.2     1   185     7   224     7   234 0.77 -
PC2J_TRINITY_DN41052_c1_g2_i1.p1PC2J_TRINITY_DN41052_c1_g2  -            384 141833at3193         -            244   3.2e-22   80.7   0.1   1   2   8.9e-09   5.4e-06   27.6   0.0    54   161    40   152    33   162 0.79 -
PC2J_TRINITY_DN41052_c1_g2_i1.p1PC2J_TRINITY_DN41052_c1_g2  -            384 141833at3193         -            244   3.2e-22   80.7   0.1   2   2   6.9e-14   4.2e-11   44.3   0.0     5   163   178   374   175   381 0.77 -
PC2J_TRINITY_DN39691_c2_g1_i18.p1PC2J_TRINITY_DN39691_c2_g1 -            238 141833at3193         -            244   1.2e-21   78.9   0.3   1   2       2.9   1.8e+03   -0.3   0.0   100   123    11    33     4    39 0.67 -
PC2J_TRINITY_DN39691_c2_g1_i18.p1PC2J_TRINITY_DN39691_c2_g1 -            238 141833at3193         -            244   1.2e-21   78.9   0.3   2   2   1.9e-21   1.1e-18   69.1   0.1     6   170    49   233    48   237 0.84 -
PC1A_TRINITY_DN40373_c3_g2_i3.p1PC1A_TRINITY_DN40373_c3_g2  -            392 141833at3193         -            244   7.8e-20   72.9   0.3   1   3      0.31   1.9e+02    2.9   0.0   172   216    93   139    87   140 0.78 -
PC1A_TRINITY_DN40373_c3_g2_i3.p1PC1A_TRINITY_DN40373_c3_g2  -            392 141833at3193         -            244   7.8e-20   72.9   0.3   2   3   1.6e-07   9.9e-05   23.5   0.0    96   214   107   241    98   246 0.69 -
PC1A_TRINITY_DN40373_c3_g2_i3.p1PC1A_TRINITY_DN40373_c3_g2  -            392 141833at3193         -            244   7.8e-20   72.9   0.3   3   3   1.4e-14   8.3e-12   46.6   0.2    36   153   243   371   227   382 0.78 -
PC2A_TRINITY_DN34585_c1_g2_i3.p1PC2A_TRINITY_DN34585_c1_g2  -            329 141833at3193         -            244   5.3e-19   70.2   3.7   1   2   1.3e-11     8e-09   36.9   0.4    21   163     5   164     1   170 0.71 -
PC2A_TRINITY_DN34585_c1_g2_i3.p1PC2A_TRINITY_DN34585_c1_g2  -            329 141833at3193         -            244   5.3e-19   70.2   3.7   2   2   3.4e-07   0.00021   22.4   0.1    86   162   197   289   195   296 0.65 -
PC3A_TRINITY_DN36546_c5_g2_i4.p1PC3A_TRINITY_DN36546_c5_g2  -            340 141833at3193         -            244   2.6e-18   68.0   4.2   1   3   1.5e-07   8.9e-05   23.6   0.3    83   166    31   110    21   128 0.85 -
PC3A_TRINITY_DN36546_c5_g2_i4.p1PC3A_TRINITY_DN36546_c5_g2  -            340 141833at3193         -            244   2.6e-18   68.0   4.2   2   3   1.6e-07   9.7e-05   23.5   0.0    86   163   129   214   121   220 0.78 -
PC3A_TRINITY_DN36546_c5_g2_i4.p1PC3A_TRINITY_DN36546_c5_g2  -            340 141833at3193         -            244   2.6e-18   68.0   4.2   3   3   1.7e-06     0.001   20.1   0.1    85   161   246   324   234   330 0.74 -
PC3J_TRINITY_DN43804_c0_g1_i9.p1PC3J_TRINITY_DN43804_c0_g1  -            179 141833at3193         -            244   3.3e-17   64.3   0.1   1   1     1e-19   6.3e-17   63.4   0.1     3   113     2   131     1   150 0.79 -
PC1A_TRINITY_DN38365_c0_g1_i6.p1PC1A_TRINITY_DN38365_c0_g1  -            272 141833at3193         -            244   1.8e-16   61.9   0.2   1   2   6.1e-14   3.7e-11   44.5   0.2    46   201     5   172     2   182 0.72 -
PC1A_TRINITY_DN38365_c0_g1_i6.p1PC1A_TRINITY_DN38365_c0_g1  -            272 141833at3193         -            244   1.8e-16   61.9   0.2   2   2     3e-07   0.00018   22.6   0.0     5    81   147   226   142   232 0.78 -
PC3J_TRINITY_DN36208_c0_g1_i2.p1PC3J_TRINITY_DN36208_c0_g1  -            252 141833at3193         -            244     3e-16   61.2   0.1   1   2   6.3e-06    0.0038   18.3   0.0    76   161    10   101     7   112 0.83 -
PC3J_TRINITY_DN36208_c0_g1_i2.p1PC3J_TRINITY_DN36208_c0_g1  -            252 141833at3193         -            244     3e-16   61.2   0.1   2   2   8.5e-13   5.2e-10   40.8   0.0    84   198   119   244   111   252 0.83 -
PC2J_TRINITY_DN42932_c0_g1_i1.p1PC2J_TRINITY_DN42932_c0_g1  -            126 141833at3193         -            244   3.7e-16   60.9   0.7   1   2   1.9e-18   1.1e-15   59.3   0.4   115   209    12   113     6   117 0.84 -
PC2J_TRINITY_DN42932_c0_g1_i1.p1PC2J_TRINITY_DN42932_c0_g1  -            126 141833at3193         -            244   3.7e-16   60.9   0.7   2   2      0.61   3.7e+02    1.9   0.1   173   192   106   126   101   126 0.85 -
PC1J_TRINITY_DN6966_c0_g1_i1.p1PC1J_TRINITY_DN6966_c0_g1    -            211 141833at3193         -            244   4.8e-16   60.5   1.9   1   3      0.14        83    4.1   0.0   174   215    30    72    12    76 0.85 -
PC1J_TRINITY_DN6966_c0_g1_i1.p1PC1J_TRINITY_DN6966_c0_g1    -            211 141833at3193         -            244   4.8e-16   60.5   1.9   2   3   3.6e-10   2.2e-07   32.1   0.2    28    81    65   118    56   136 0.82 -
PC1J_TRINITY_DN6966_c0_g1_i1.p1PC1J_TRINITY_DN6966_c0_g1    -            211 141833at3193         -            244   4.8e-16   60.5   1.9   3   3   2.2e-08   1.3e-05   26.3   0.1    10    66   138   199   129   211 0.74 -
PC1J_TRINITY_DN36959_c0_g2_i5.p1PC1J_TRINITY_DN36959_c0_g2  -            319 141833at3193         -            244   1.1e-14   56.1   0.3   1   2   2.1e-05     0.013   16.5   0.0    88   148    40    96    23   108 0.86 -
PC1J_TRINITY_DN36959_c0_g2_i5.p1PC1J_TRINITY_DN36959_c0_g2  -            319 141833at3193         -            244   1.1e-14   56.1   0.3   2   2   1.8e-11   1.1e-08   36.4   0.1     5   138   129   285   125   298 0.75 -
PC2J_TRINITY_DN40393_c0_g5_i8.p2PC2J_TRINITY_DN40393_c0_g5  -            175 141833at3193         -            244   1.8e-14   55.4   0.2   1   2   1.8e-07   0.00011   23.3   0.1   113   200     4    96     1   104 0.81 -
PC2J_TRINITY_DN40393_c0_g5_i8.p2PC2J_TRINITY_DN40393_c0_g5  -            175 141833at3193         -            244   1.8e-14   55.4   0.2   2   2   1.2e-09   7.2e-07   30.5   0.0   115   167   105   157    99   163 0.92 -
PC1J_TRINITY_DN33806_c4_g1_i10.p1PC1J_TRINITY_DN33806_c4_g1 -            333 141833at3193         -            244   1.9e-14   55.3   0.5   1   2   5.7e-16   3.4e-13   51.2   0.1    10   161    58   223    49   233 0.75 -
PC1J_TRINITY_DN33806_c4_g1_i10.p1PC1J_TRINITY_DN33806_c4_g1 -            333 141833at3193         -            244   1.9e-14   55.3   0.5   2   2       2.1   1.3e+03    0.2   0.0     4    28   249   274   244   322 0.72 -
PC1J_TRINITY_DN38205_c0_g4_i1.p1PC1J_TRINITY_DN38205_c0_g4  -            184 141833at3193         -            244   2.4e-14   54.9   0.0   1   1   5.9e-17   3.6e-14   54.4   0.0    15   165     9   177     3   183 0.81 -
PC2J_TRINITY_DN43603_c0_g4_i3.p1PC2J_TRINITY_DN43603_c0_g4  -            276 141833at3193         -            244   3.4e-14   54.4   0.3   1   2     2e-08   1.2e-05   26.4   0.1    87   203    60   194    44   196 0.80 -
PC2J_TRINITY_DN43603_c0_g4_i3.p1PC2J_TRINITY_DN43603_c0_g4  -            276 141833at3193         -            244   3.4e-14   54.4   0.3   2   2   1.4e-10   8.4e-08   33.5   0.0     6    79   167   244   162   253 0.86 -
PC2J_TRINITY_DN41052_c1_g2_i5.p1PC2J_TRINITY_DN41052_c1_g2  -            331 141833at3193         -            244   6.6e-14   53.5   0.1   1   2       8.1   4.9e+03   -1.7   0.0   169   190    68    90    41    99 0.68 -
PC2J_TRINITY_DN41052_c1_g2_i5.p1PC2J_TRINITY_DN41052_c1_g2  -            331 141833at3193         -            244   6.6e-14   53.5   0.1   2   2   4.6e-14   2.8e-11   44.9   0.0     5   163   125   321   122   328 0.77 -
PC1J_TRINITY_DN39972_c4_g1_i12.p1PC1J_TRINITY_DN39972_c4_g1 -            419 141833at3193         -            244   1.1e-13   52.7   1.1   1   3   3.1e-09   1.9e-06   29.1   0.0    90   164   106   184    98   190 0.78 -
PC1J_TRINITY_DN39972_c4_g1_i12.p1PC1J_TRINITY_DN39972_c4_g1 -            419 141833at3193         -            244   1.1e-13   52.7   1.1   2   3   1.3e-05    0.0077   17.3   0.0    85   140   203   257   185   284 0.62 -
PC1J_TRINITY_DN39972_c4_g1_i12.p1PC1J_TRINITY_DN39972_c4_g1 -            419 141833at3193         -            244   1.1e-13   52.7   1.1   3   3      0.18   1.1e+02    3.7   0.1     3    78   303   375   301   392 0.72 -
PC2J_TRINITY_DN44599_c3_g1_i1.p1PC2J_TRINITY_DN44599_c3_g1  -            178 141833at3193         -            244   1.6e-13   52.3   0.8   1   2   5.4e-10   3.3e-07   31.6   0.2   160   241    28   111     9   114 0.86 -
PC2J_TRINITY_DN44599_c3_g1_i1.p1PC2J_TRINITY_DN44599_c3_g1  -            178 141833at3193         -            244   1.6e-13   52.3   0.8   2   2   1.1e-06   0.00068   20.7   0.0    86   138   125   174    98   178 0.72 -
PC3A_TRINITY_DN40186_c1_g1_i5.p1PC3A_TRINITY_DN40186_c1_g1  -            514 141833at3193         -            244   2.4e-13   51.6   0.4   1   2     4e-09   2.4e-06   28.7   0.1    11   161   219   380   208   389 0.77 -
PC3A_TRINITY_DN40186_c1_g1_i5.p1PC3A_TRINITY_DN40186_c1_g1  -            514 141833at3193         -            244   2.4e-13   51.6   0.4   2   2   4.2e-06    0.0026   18.8   0.0     6    81   434   511   430   512 0.88 -
PC2J_TRINITY_DN44100_c1_g1_i2.p1PC2J_TRINITY_DN44100_c1_g1  -            188 141833at3193         -            244   2.6e-13   51.5   0.0   1   2   1.2e-14   7.1e-12   46.8   0.0    14   164     8   165     4   170 0.87 -
PC2J_TRINITY_DN44100_c1_g1_i2.p1PC2J_TRINITY_DN44100_c1_g1  -            188 141833at3193         -            244   2.6e-13   51.5   0.0   2   2      0.12        71    4.3   0.0   189   209   157   177   151   185 0.87 -
PC1A_TRINITY_DN11852_c0_g1_i2.p1PC1A_TRINITY_DN11852_c0_g1  -            212 141833at3193         -            244   4.8e-13   50.7   0.3   1   1   1.1e-15   6.9e-13   50.2   0.3     5   145    36   190    33   196 0.84 -
PC2A_TRINITY_DN18325_c0_g1_i1.p1PC2A_TRINITY_DN18325_c0_g1  -            174 141833at3193         -            244   5.8e-13   50.4   0.0   1   1   9.1e-14   5.6e-11   43.9   0.0     4   143     6   161     3   162 0.80 -
PC3J_TRINITY_DN38227_c1_g1_i2.p1PC3J_TRINITY_DN38227_c1_g1  -            221 141833at3193         -            244   9.9e-13   49.6   0.1   1   2   6.6e-10     4e-07   31.3   0.1    81   201    26   148     5   158 0.71 -
PC3J_TRINITY_DN38227_c1_g1_i2.p1PC3J_TRINITY_DN38227_c1_g1  -            221 141833at3193         -            244   9.9e-13   49.6   0.1   2   2   1.8e-07   0.00011   23.3   0.0     5    79   123   199   119   203 0.77 -
PC1J_TRINITY_DN36376_c0_g1_i10.p1PC1J_TRINITY_DN36376_c0_g1 -            252 141833at3193         -            244   1.9e-12   48.7   0.3   1   2   2.3e-08   1.4e-05   26.2   0.0     4    77    42   118    39   128 0.55 -
PC1J_TRINITY_DN36376_c0_g1_i10.p1PC1J_TRINITY_DN36376_c0_g1 -            252 141833at3193         -            244   1.9e-12   48.7   0.3   2   2   1.3e-06   0.00077   20.5   0.0     6    81   172   249   168   250 0.88 -
PC2A_TRINITY_DN10784_c0_g1_i1.p1PC2A_TRINITY_DN10784_c0_g1  -            131 141833at3193         -            244   6.2e-12   47.0   0.0   1   1   1.3e-14   7.8e-12   46.7   0.0    88   167    20   104    10   107 0.84 -
PC1J_TRINITY_DN33641_c0_g1_i2.p1PC1J_TRINITY_DN33641_c0_g1  -            387 141833at3193         -            244     1e-11   46.3   6.9   1   3       1.3   7.9e+02    0.9   0.0     5    30    17    43     2    54 0.55 -
PC1J_TRINITY_DN33641_c0_g1_i2.p1PC1J_TRINITY_DN33641_c0_g1  -            387 141833at3193         -            244     1e-11   46.3   6.9   2   3     0.004       2.4    9.1   1.5    37    84    69   116    65   171 0.72 -
PC1J_TRINITY_DN33641_c0_g1_i2.p1PC1J_TRINITY_DN33641_c0_g1  -            387 141833at3193         -            244     1e-11   46.3   6.9   3   3   8.8e-10   5.4e-07   30.9   0.2    26   159   208   361   198   372 0.71 -
PC1J_TRINITY_DN5207_c0_g1_i1.p1PC1J_TRINITY_DN5207_c0_g1    -            121 141833at3193         -            244   1.2e-11   46.1   0.0   1   1   4.4e-13   2.7e-10   41.7   0.0    43   146     2   117     1   118 0.79 -
PC2J_TRINITY_DN36236_c2_g1_i1.p1PC2J_TRINITY_DN36236_c2_g1  -            183 141833at3193         -            244   1.8e-11   45.5   0.0   1   2   2.1e-08   1.3e-05   26.3   0.0   119   202    23   111    17   122 0.73 -
PC2J_TRINITY_DN36236_c2_g1_i1.p1PC2J_TRINITY_DN36236_c2_g1  -            183 141833at3193         -            244   1.8e-11   45.5   0.0   2   2   1.2e-07   7.4e-05   23.9   0.0     5    79    85   161    81   165 0.77 -
PC3J_TRINITY_DN43804_c0_g1_i8.p1PC3J_TRINITY_DN43804_c0_g1  -            106 141833at3193         -            244   2.4e-11   45.1   0.2   1   1   4.8e-14   2.9e-11   44.8   0.2   122   199    11    95     3   103 0.82 -
PC2J_TRINITY_DN42932_c0_g1_i10.p1PC2J_TRINITY_DN42932_c0_g1 -            148 141833at3193         -            244   2.6e-11   45.0   0.0   1   1   7.6e-14   4.6e-11   44.2   0.0     1   105     7   130     7   141 0.79 -
PC1A_TRINITY_DN38365_c0_g1_i3.p1PC1A_TRINITY_DN38365_c0_g1  -            211 141833at3193         -            244   7.8e-11   43.4   0.1   1   3   5.2e-08   3.1e-05   25.1   0.1   124   201    27   109    10   119 0.73 -
PC1A_TRINITY_DN38365_c0_g1_i3.p1PC1A_TRINITY_DN38365_c0_g1  -            211 141833at3193         -            244   7.8e-11   43.4   0.1   2   3   1.9e-07   0.00012   23.2   0.0     5    81    84   163    81   170 0.78 -
PC1A_TRINITY_DN38365_c0_g1_i3.p1PC1A_TRINITY_DN38365_c0_g1  -            211 141833at3193         -            244   7.8e-11   43.4   0.1   3   3      0.58   3.5e+02    2.0   0.2   170   200   176   203   170   209 0.72 -
PC1J_TRINITY_DN38390_c1_g1_i1.p1PC1J_TRINITY_DN38390_c1_g1  -            125 141833at3193         -            244   1.1e-10   43.0   0.0   1   1   2.6e-13   1.6e-10   42.4   0.0     1    81     7    96     7   116 0.86 -
PC2J_TRINITY_DN42932_c0_g1_i3.p1PC2J_TRINITY_DN42932_c0_g1  -            113 141833at3193         -            244   1.1e-10   42.9   0.0   1   1   3.3e-13     2e-10   42.1   0.0     1    79     7    94     7   103 0.84 -
PC1A_TRINITY_DN41555_c3_g1_i1.p1PC1A_TRINITY_DN41555_c3_g1  -            170 141833at3193         -            244   2.7e-10   41.7   0.0   1   1   1.1e-12   6.4e-10   40.4   0.0    26   146    30   157    14   169 0.81 -
PC1J_TRINITY_DN38205_c0_g4_i2.p1PC1J_TRINITY_DN38205_c0_g4  -            164 141833at3193         -            244   4.6e-10   40.9   0.0   1   1   1.4e-12   8.7e-10   40.0   0.0    44   164    21   156    15   162 0.80 -
PC1A_TRINITY_DN44568_c5_g2_i2.p1PC1A_TRINITY_DN44568_c5_g2  -            150 141833at3193         -            244   7.6e-10   40.2   0.1   1   2    0.0017         1   10.3   0.0   174   206    24    57    10    66 0.83 -
PC1A_TRINITY_DN44568_c5_g2_i2.p1PC1A_TRINITY_DN44568_c5_g2  -            150 141833at3193         -            244   7.6e-10   40.2   0.1   2   2   4.4e-09   2.7e-06   28.6   0.0   125   200    66   147    59   149 0.81 -
PC2J_TRINITY_DN43117_c3_g2_i3.p1PC2J_TRINITY_DN43117_c3_g2  -            198 141833at3193         -            244   7.7e-10   40.2   0.6   1   2   0.00017       0.1   13.5   0.2   117   166    13    62     2    79 0.75 -
PC2J_TRINITY_DN43117_c3_g2_i3.p1PC2J_TRINITY_DN43117_c3_g2  -            198 141833at3193         -            244   7.7e-10   40.2   0.6   2   2   5.1e-08   3.1e-05   25.1   0.0    86   163    81   166    72   172 0.79 -
PC3J_TRINITY_DN45492_c1_g1_i6.p1PC3J_TRINITY_DN45492_c1_g1  -            160 141833at3193         -            244   9.5e-10   39.9   0.2   1   3   0.00055      0.34   11.9   0.0   118   146     3    31     1    41 0.88 -
PC3J_TRINITY_DN45492_c1_g1_i6.p1PC3J_TRINITY_DN45492_c1_g1  -            160 141833at3193         -            244   9.5e-10   39.9   0.2   2   3    0.0078       4.7    8.1   0.0    92   115    47    70    37    79 0.60 -
PC3J_TRINITY_DN45492_c1_g1_i6.p1PC3J_TRINITY_DN45492_c1_g1  -            160 141833at3193         -            244   9.5e-10   39.9   0.2   3   3   1.6e-05    0.0099   16.9   0.0   115   161    93   139    89   143 0.90 -
PC3J_TRINITY_DN41803_c1_g1_i9.p1PC3J_TRINITY_DN41803_c1_g1  -            283 141833at3193         -            244   1.2e-09   39.5   1.3   1   2   5.7e-10   3.5e-07   31.5   0.1    34   159    21   159    12   167 0.72 -
PC3J_TRINITY_DN41803_c1_g1_i9.p1PC3J_TRINITY_DN41803_c1_g1  -            283 141833at3193         -            244   1.2e-09   39.5   1.3   2   2      0.11        66    4.4   0.2     3    77   186   257   184   267 0.71 -
PC1A_TRINITY_DN27762_c0_g1_i1.p1PC1A_TRINITY_DN27762_c0_g1  -            195 141833at3193         -            244   2.3e-09   38.6   0.1   1   1   3.1e-11   1.9e-08   35.6   0.1    32   165    31   183    19   189 0.71 -
PC3J_TRINITY_DN38885_c0_g2_i1.p1PC3J_TRINITY_DN38885_c0_g2  -            192 141833at3193         -            244   3.6e-09   38.0   0.1   1   1   9.4e-12   5.7e-09   37.3   0.1    15   163     2   156     1   162 0.76 -
PC2J_TRINITY_DN38836_c1_g1_i7.p1PC2J_TRINITY_DN38836_c1_g1  -            123 141833at3193         -            244   7.2e-09   37.0   0.4   1   1   1.5e-11   9.4e-09   36.6   0.4     6    72    30   101    28   108 0.83 -
PC2J_TRINITY_DN38836_c1_g1_i3.p1PC2J_TRINITY_DN38836_c1_g1  -            169 141833at3193         -            244   7.7e-09   36.9   0.7   1   1   1.7e-11     1e-08   36.5   0.7     6    72    75   147    71   154 0.81 -
PC2J_TRINITY_DN43603_c0_g4_i4.p1PC2J_TRINITY_DN43603_c0_g4  -            136 141833at3193         -            244   1.2e-08   36.2   0.1   1   1   3.6e-11   2.2e-08   35.4   0.1     6    79    43   120    39   124 0.86 -
PC2A_TRINITY_DN33797_c3_g1_i3.p1PC2A_TRINITY_DN33797_c3_g1  -            133 141833at3193         -            244   1.6e-08   35.9   0.0   1   1   3.7e-11   2.2e-08   35.4   0.0     6    85     3    88     1   120 0.83 -
PC2J_TRINITY_DN37516_c2_g1_i1.p1PC2J_TRINITY_DN37516_c2_g1  -            125 141833at3193         -            244   1.9e-08   35.6   0.1   1   2    0.0038       2.3    9.1   0.0   175   205    15    46    11    53 0.82 -
PC2J_TRINITY_DN37516_c2_g1_i1.p1PC2J_TRINITY_DN37516_c2_g1  -            125 141833at3193         -            244   1.9e-08   35.6   0.1   2   2   5.2e-08   3.1e-05   25.1   0.0   113   164    52   103    44   109 0.89 -
PC2A_TRINITY_DN3940_c0_g1_i1.p1PC2A_TRINITY_DN3940_c0_g1    -            180 141833at3193         -            244   3.5e-08   34.8   0.0   1   1   2.4e-09   1.5e-06   29.5   0.0   130   243    37   175    22   176 0.76 -
PC1A_TRINITY_DN45059_c0_g1_i1.p1PC1A_TRINITY_DN45059_c0_g1  -            115 141833at3193         -            244   9.1e-08   33.4   0.0   1   1   2.2e-09   1.4e-06   29.6   0.0    28   112     8   108     2   114 0.74 -
PC1J_TRINITY_DN20395_c0_g1_i1.p1PC1J_TRINITY_DN20395_c0_g1  -            149 141833at3193         -            244   9.5e-08   33.3   0.3   1   1   2.6e-10   1.6e-07   32.6   0.0    90   163    30   106    12   113 0.80 -
PC3A_TRINITY_DN29305_c0_g1_i1.p1PC3A_TRINITY_DN29305_c0_g1  -            118 141833at3193         -            244   2.3e-07   32.1   0.0   1   1   4.3e-10   2.6e-07   31.9   0.0    96   164     9    80     1    88 0.86 -
PC3J_TRINITY_DN48456_c2_g3_i2.p1PC3J_TRINITY_DN48456_c2_g3  -            239 141833at3193         -            244   3.1e-07   31.6   0.0   1   2   0.00017       0.1   13.6   0.0    33    80    12    59     3    93 0.88 -
PC3J_TRINITY_DN48456_c2_g3_i2.p1PC3J_TRINITY_DN48456_c2_g3  -            239 141833at3193         -            244   3.1e-07   31.6   0.0   2   2   3.6e-05     0.022   15.8   0.0     3    78   150   235   147   238 0.59 -
PC1J_TRINITY_DN40420_c1_g2_i1.p1PC1J_TRINITY_DN40420_c1_g2  -            167 141833at3193         -            244   3.3e-07   31.6   0.1   1   2    0.0067       4.1    8.3   0.0   175   205    15    46    12    52 0.82 -
PC1J_TRINITY_DN40420_c1_g2_i1.p1PC1J_TRINITY_DN40420_c1_g2  -            167 141833at3193         -            244   3.3e-07   31.6   0.1   2   2   7.2e-07   0.00044   21.3   0.0   113   154    52    93    47   101 0.86 -
PC3A_TRINITY_DN35276_c0_g1_i2.p1PC3A_TRINITY_DN35276_c0_g1  -            276 141833at3193         -            244   3.5e-07   31.5   0.0   1   1   8.8e-10   5.3e-07   30.9   0.0    86   164   191   272   186   274 0.90 -
PC2J_TRINITY_DN44945_c1_g1_i13.p1PC2J_TRINITY_DN44945_c1_g1 -            325 141833at3193         -            244   4.9e-07   31.0   0.9   1   2   3.4e-07   0.00021   22.4   0.0    35   158    64   200    54   209 0.67 -
PC2J_TRINITY_DN44945_c1_g1_i13.p1PC2J_TRINITY_DN44945_c1_g1 -            325 141833at3193         -            244   4.9e-07   31.0   0.9   2   2      0.14        84    4.0   0.2     3    77   228   299   226   309 0.70 -
PC3J_TRINITY_DN44270_c0_g1_i4.p1PC3J_TRINITY_DN44270_c0_g1  -            134 141833at3193         -            244   1.2e-06   29.7   0.0   1   1   3.6e-08   2.2e-05   25.6   0.0    30   112    10   108     1   119 0.68 -
PC3A_TRINITY_DN14298_c0_g1_i2.p1PC3A_TRINITY_DN14298_c0_g1  -            115 141833at3193         -            244   1.3e-06   29.7   0.0   1   1   2.4e-09   1.4e-06   29.5   0.0    92   164    37   110    25   115 0.82 -
PC3J_TRINITY_DN38266_c0_g1_i4.p1PC3J_TRINITY_DN38266_c0_g1  -            132 141833at3193         -            244   1.3e-06   29.6   0.0   1   1     3e-09   1.8e-06   29.1   0.0    95   155    67   131    50   132 0.80 -
PC3A_TRINITY_DN14298_c0_g1_i1.p1PC3A_TRINITY_DN14298_c0_g1  -            116 141833at3193         -            244   1.3e-06   29.6   0.0   1   1   2.4e-09   1.5e-06   29.4   0.0    92   164    38   111    26   116 0.82 -
PC2J_TRINITY_DN6757_c0_g1_i1.p1PC2J_TRINITY_DN6757_c0_g1    -            107 141833at3193         -            244   2.5e-06   28.7   0.1   1   1   4.6e-09   2.8e-06   28.5   0.1   125   199    25   105     5   107 0.80 -
PC1J_TRINITY_DN22646_c0_g1_i2.p1PC1J_TRINITY_DN22646_c0_g1  -            145 141833at3193         -            244   3.8e-06   28.1   0.0   1   1     1e-08   6.3e-06   27.4   0.0    86   140    19    73    13    97 0.81 -
PC1J_TRINITY_DN39181_c0_g3_i5.p1PC1J_TRINITY_DN39181_c0_g3  -            184 141833at3193         -            244   4.3e-06   27.9   0.9   1   1   9.5e-09   5.8e-06   27.5   0.9    82   208    30   152    21   181 0.73 -
PC1J_TRINITY_DN35094_c5_g1_i8.p1PC1J_TRINITY_DN35094_c5_g1  -            168 141833at3193         -            244   4.7e-06   27.8   0.1   1   1     1e-08   6.4e-06   27.4   0.1     4    80    56   138    53   151 0.74 -
PC2J_TRINITY_DN39691_c2_g1_i20.p1PC2J_TRINITY_DN39691_c2_g1 -            205 141833at3193         -            244   5.1e-06   27.7   0.2   1   1   1.4e-08   8.7e-06   26.9   0.1     4    80    56   138    53   162 0.77 -
PC1J_TRINITY_DN35094_c5_g1_i1.p1PC1J_TRINITY_DN35094_c5_g1  -            155 141833at3193         -            244   5.1e-06   27.7   0.2   1   1   1.7e-08     1e-05   26.7   0.2    50   164     1   125     1   138 0.77 -
PC2J_TRINITY_DN38870_c0_g3_i1.p1PC2J_TRINITY_DN38870_c0_g3  -            161 141833at3193         -            244   5.3e-06   27.6   0.0   1   2    0.0047       2.9    8.8   0.0    90   115    51    76    18    85 0.70 -
PC2J_TRINITY_DN38870_c0_g3_i1.p1PC2J_TRINITY_DN38870_c0_g3  -            161 141833at3193         -            244   5.3e-06   27.6   0.0   2   2   1.7e-05      0.01   16.9   0.0   115   161    99   145    95   149 0.90 -
PC2A_TRINITY_DN28581_c3_g1_i6.p1PC2A_TRINITY_DN28581_c3_g1  -            153 141833at3193         -            244   6.2e-06   27.4   0.0   1   2    0.0063       3.8    8.4   0.0    92   115    44    67    25    76 0.66 -
PC2A_TRINITY_DN28581_c3_g1_i6.p1PC2A_TRINITY_DN28581_c3_g1  -            153 141833at3193         -            244   6.2e-06   27.4   0.0   2   2   1.5e-05    0.0091   17.0   0.0   115   161    90   136    86   140 0.90 -
PC3J_TRINITY_DN37026_c0_g1_i1.p1PC3J_TRINITY_DN37026_c0_g1  -            177 141833at3193         -            244   6.9e-06   27.3   0.3   1   1   4.9e-08     3e-05   25.2   0.3    82   166     8    91     2   149 0.82 -
PC2J_TRINITY_DN43117_c3_g2_i24.p1PC2J_TRINITY_DN43117_c3_g2 -            213 141833at3193         -            244   7.3e-06   27.2   1.2   1   2   4.9e-08   2.9e-05   25.2   0.6    83   173    31   116    21   147 0.83 -
PC2J_TRINITY_DN43117_c3_g2_i24.p1PC2J_TRINITY_DN43117_c3_g2 -            213 141833at3193         -            244   7.3e-06   27.2   1.2   2   2       1.3   8.1e+02    0.8   0.0    86   113   129   157   122   162 0.77 -
PC3J_TRINITY_DN48866_c0_g1_i2.p1PC3J_TRINITY_DN48866_c0_g1  -            111 141833at3193         -            244   9.5e-06   26.8   0.0   1   2     0.016       9.6    7.1   0.0    96   116    10    30     3    41 0.78 -
PC3J_TRINITY_DN48866_c0_g1_i2.p1PC3J_TRINITY_DN48866_c0_g1  -            111 141833at3193         -            244   9.5e-06   26.8   0.0   2   2   7.2e-06    0.0044   18.1   0.0   118   161    50    93    43    98 0.90 -
PC2A_TRINITY_DN36399_c0_g1_i1.p1PC2A_TRINITY_DN36399_c0_g1  -            121 141833at3193         -            244   2.3e-05   25.5   0.1   1   2   0.00019      0.12   13.4   0.0    45    82     2    39     1    64 0.90 -
PC2A_TRINITY_DN36399_c0_g1_i1.p1PC2A_TRINITY_DN36399_c0_g1  -            121 141833at3193         -            244   2.3e-05   25.5   0.1   2   2    0.0015      0.93   10.4   0.0     4    30    63    90    60   121 0.75 -
PC3A_TRINITY_DN42974_c2_g4_i1.p1PC3A_TRINITY_DN42974_c2_g4  -            118 141833at3193         -            244   2.4e-05   25.5   0.1   1   1   5.1e-08   3.1e-05   25.1   0.1   102   200    11   111     7   117 0.70 -
PC3A_TRINITY_DN18940_c0_g1_i1.p1PC3A_TRINITY_DN18940_c0_g1  -            110 141833at3193         -            244   2.9e-05   25.2   0.0   1   1   5.7e-08   3.5e-05   25.0   0.0   113   159    18    64     8    75 0.87 -
PC1J_TRINITY_DN41989_c0_g1_i1.p1PC1J_TRINITY_DN41989_c0_g1  -            109 141833at3193         -            244   3.2e-05   25.1   0.1   1   2   1.5e-07     9e-05   23.6   0.1    35    78    25    68     9    73 0.78 -
PC1J_TRINITY_DN41989_c0_g1_i1.p1PC1J_TRINITY_DN41989_c0_g1  -            109 141833at3193         -            244   3.2e-05   25.1   0.1   2   2       5.6   3.4e+03   -1.2   0.0    12    25    93   106    77   108 0.73 -
PC2A_TRINITY_DN35453_c2_g1_i2.p1PC2A_TRINITY_DN35453_c2_g1  -            104 141833at3193         -            244   3.4e-05   25.0   0.0   1   1     6e-08   3.7e-05   24.9   0.0    15    80    11    80     2   101 0.55 -
PC2J_TRINITY_DN46023_c1_g1_i12.p1PC2J_TRINITY_DN46023_c1_g1 -            133 141833at3193         -            244   3.8e-05   24.8   0.0   1   1     9e-08   5.5e-05   24.3   0.0   100   153    57   112    38   124 0.80 -
PC1A_TRINITY_DN44507_c0_g4_i1.p1PC1A_TRINITY_DN44507_c0_g4  -            165 141833at3193         -            244   4.3e-05   24.6   0.1   1   1   1.8e-07   0.00011   23.3   0.1     9   118    25   150    17   154 0.69 -
PC1A_TRINITY_DN44568_c5_g2_i1.p1PC1A_TRINITY_DN44568_c5_g2  -            105 141833at3193         -            244   5.4e-05   24.3   0.2   1   1   9.1e-08   5.5e-05   24.3   0.2    90   166    19    96     3   104 0.80 -
PC1J_TRINITY_DN37434_c1_g3_i5.p1PC1J_TRINITY_DN37434_c1_g3  -            110 141833at3193         -            244   6.4e-05   24.1   0.0   1   1   1.3e-07   7.8e-05   23.8   0.0     5    55    33    89    30   105 0.83 -
PC3A_TRINITY_DN46105_c0_g1_i1.p1PC3A_TRINITY_DN46105_c0_g1  -            112 141833at3193         -            244     8e-05   23.8   0.1   1   1   1.5e-07   9.2e-05   23.6   0.1     1    61    40   107    40   112 0.73 -
PC2J_TRINITY_DN42232_c3_g1_i2.p1PC2J_TRINITY_DN42232_c3_g1  -            118 141833at3193         -            244   8.5e-05   23.7   0.1   1   1   1.7e-07    0.0001   23.4   0.1    88   168    22    98     7   108 0.87 -
PC1A_TRINITY_DN43423_c0_g1_i1.p1PC1A_TRINITY_DN43423_c0_g1  -            116 141833at3193         -            244   8.6e-05   23.6   0.1   1   1   1.7e-07    0.0001   23.4   0.1    36    79    44    87    23    97 0.81 -
PC1A_TRINITY_DN38736_c0_g1_i2.p1PC1A_TRINITY_DN38736_c0_g1  -            129 141833at3193         -            244   0.00019   22.5   0.0   1   1   3.9e-07   0.00024   22.2   0.0    98   161    35   100    26   111 0.76 -
PC3A_TRINITY_DN40186_c1_g1_i6.p1PC3A_TRINITY_DN40186_c1_g1  -            126 141833at3193         -            244   0.00025   22.1   0.0   1   1   4.9e-07    0.0003   21.9   0.0   100   161     5    66     1    75 0.84 -
PC2A_TRINITY_DN34585_c1_g2_i1.p1PC2A_TRINITY_DN34585_c1_g2  -            140 141833at3193         -            244   0.00039   21.5   0.9   1   1   3.7e-06    0.0022   19.0   0.2   100   166     2    66     1    84 0.82 -
PC3J_TRINITY_DN36208_c0_g1_i1.p1PC3J_TRINITY_DN36208_c0_g1  -            132 141833at3193         -            244   0.00057   21.0   0.0   1   1   1.1e-06   0.00068   20.7   0.0    76   163    10   103     6   119 0.83 -
PC2J_TRINITY_DN40393_c0_g5_i2.p1PC2J_TRINITY_DN40393_c0_g5  -            177 141833at3193         -            244   0.00071   20.6   0.1   1   1   1.3e-06   0.00082   20.5   0.1   113   197     4    93     1   132 0.83 -
PC1J_TRINITY_DN35159_c2_g2_i3.p1PC1J_TRINITY_DN35159_c2_g2  -            135 141833at3193         -            244   0.00092   20.3   0.0   1   1   1.9e-06    0.0012   19.9   0.0   114   161    64   111    51   121 0.87 -
PC1A_TRINITY_DN39968_c0_g2_i2.p1PC1A_TRINITY_DN39968_c0_g2  -            145 141833at3193         -            244    0.0014   19.7   0.1   1   2   4.8e-06    0.0029   18.6   0.1   127   203     6    86     2   107 0.79 -
PC1A_TRINITY_DN39968_c0_g2_i2.p1PC1A_TRINITY_DN39968_c0_g2  -            145 141833at3193         -            244    0.0014   19.7   0.1   2   2       6.4   3.9e+03   -1.4   0.0    87   100    92   105    88   123 0.68 -
PC1A_TRINITY_DN21626_c0_g1_i1.p1PC1A_TRINITY_DN21626_c0_g1  -            120 141833at3193         -            244     0.005   17.9   0.0   1   2     0.003       1.8    9.5   0.0    87   114    18    45     2    71 0.68 -
PC1A_TRINITY_DN21626_c0_g1_i1.p1PC1A_TRINITY_DN21626_c0_g1  -            120 141833at3193         -            244     0.005   17.9   0.0   2   2      0.02        12    6.8   0.0   115   138    96   119    92   120 0.92 -
PC3A_TRINITY_DN33754_c0_g1_i1.p1PC3A_TRINITY_DN33754_c0_g1  -            168 141833at3193         -            244    0.0059   17.6   1.7   1   2   0.00012     0.072   14.1   0.1     5   160    12    86     3   103 0.49 -
PC3A_TRINITY_DN33754_c0_g1_i1.p1PC3A_TRINITY_DN33754_c0_g1  -            168 141833at3193         -            244    0.0059   17.6   1.7   2   2      0.21   1.3e+02    3.4   0.3    39    74   103   138    86   145 0.82 -
PC1A_TRINITY_DN43242_c1_g9_i1.p1PC1A_TRINITY_DN43242_c1_g9  -            115 141833at3193         -            244    0.0063   17.5   0.1   1   1   0.00041      0.25   12.3   0.1     6    78     9    98     4   102 0.52 -
PC3A_TRINITY_DN44202_c3_g4_i1.p1PC3A_TRINITY_DN44202_c3_g4  -            254 141833at3193         -            244    0.0087   17.1   0.0   1   1   2.4e-05     0.015   16.3   0.0     3    79   143   229   138   252 0.56 -
PC3J_TRINITY_DN45492_c1_g1_i11.p1PC3J_TRINITY_DN45492_c1_g1 -            223 141833at3193         -            244     0.013   16.6   0.0   1   1     3e-05     0.018   16.1   0.0   115   160   156   201   152   206 0.90 -
PC1J_TRINITY_DN37117_c2_g2_i1.p1PC1J_TRINITY_DN37117_c2_g2  -            105 141833at3193         -            244     0.021   15.8   0.1   1   1   5.2e-05     0.031   15.3   0.1   169   223    28    84     3   104 0.67 -
PC3J_TRINITY_DN26574_c0_g1_i1.p1PC3J_TRINITY_DN26574_c0_g1  -            105 141833at3193         -            244     0.042   14.8   0.1   1   1   8.2e-05      0.05   14.6   0.1    84   133    40    89    24    98 0.90 -
PC1J_TRINITY_DN6833_c0_g1_i1.p1PC1J_TRINITY_DN6833_c0_g1    -            124 141833at3193         -            244      0.08   13.9   0.0   1   2    0.0011      0.64   11.0   0.0   125   167    16    58     7    62 0.73 -
PC1J_TRINITY_DN6833_c0_g1_i1.p1PC1J_TRINITY_DN6833_c0_g1    -            124 141833at3193         -            244      0.08   13.9   0.0   2   2       1.4   8.3e+02    0.8   0.0   175   195    89   110    84   122 0.55 -
PC3J_TRINITY_DN44362_c3_g3_i2.p1PC3J_TRINITY_DN44362_c3_g3  -            114 141833at3193         -            244      0.21   12.6   0.0   1   1   0.00052      0.31   12.0   0.0    92   134    53    96    41   104 0.80 -
PC3J_TRINITY_DN39458_c6_g2_i1.p1PC3J_TRINITY_DN39458_c6_g2  -            105 141833at3193         -            244      0.24   12.3   0.0   1   1   0.00041      0.25   12.3   0.0    31    81    18    69     5    94 0.78 -
PC1A_TRINITY_DN36839_c0_g1_i3.p1PC1A_TRINITY_DN36839_c0_g1  -            120 141833at3193         -            244      0.28   12.1   0.0   1   2      0.29   1.8e+02    3.0   0.0     5    31    10    37     4    49 0.62 -
PC1A_TRINITY_DN36839_c0_g1_i3.p1PC1A_TRINITY_DN36839_c0_g1  -            120 141833at3193         -            244      0.28   12.1   0.0   2   2     0.014       8.6    7.3   0.0    37    64    62    89    57    99 0.84 -
PC3J_TRINITY_DN51647_c0_g1_i1.p2PC3J_TRINITY_DN51647_c0_g1  -            105 141833at3193         -            244      0.38   11.7   0.1   1   1   0.00073      0.44   11.5   0.1    84   112    53    81    14   104 0.69 -
PC3J_TRINITY_DN41479_c0_g1_i2.p1PC3J_TRINITY_DN41479_c0_g1  -            111 141833at3193         -            244      0.62   11.0   0.1   1   2    0.0022       1.3    9.9   0.1    84   112    27    55     5    60 0.78 -
PC3J_TRINITY_DN41479_c0_g1_i2.p1PC3J_TRINITY_DN41479_c0_g1  -            111 141833at3193         -            244      0.62   11.0   0.1   2   2       8.1   4.9e+03   -1.7   0.0    77   104    59    86    57    88 0.83 -
#
# Program:         hmmsearch
# Version:         3.2.1 (June 2018)
# Pipeline mode:   SEARCH
# Query file:      /isg/shared/databases/BUSCO/odb10/embryophyta_odb10/hmms/141833at3193.hmm
# Target file:     Pine_final_annotations_no_contam_lvl0.faa
# Option settings: /usr/local/bin/hmmsearch --domtblout /labs/Wegrzyn/Juniper_Pine/BUSCO/NEW/busco_pine/run_embryophyta_odb10/hmmer_output/141833at3193.out --cpu 1 /isg/shared/databases/BUSCO/odb10/embryophyta_odb10/hmms/141833at3193.hmm Pine_final_annotations_no_contam_lvl0.faa 
# Current dir:     /labs/Wegrzyn/Juniper_Pine/BUSCO/NEW
# Date:            Thu Aug  6 14:43:28 2020
# [ok]
