#                                                                                                                   --- full sequence --- -------------- this domain -------------   hmm coord   ali coord   env coord
# target name                                               accession   tlen query name           accession   qlen   E-value  score  bias   #  of  c-Evalue  i-Evalue  score  bias  from    to  from    to  from    to  acc description of target
#                                       ------------------- ---------- ----- -------------------- ---------- ----- --------- ------ ----- --- --- --------- --------- ------ ----- ----- ----- ----- ----- ----- ----- ---- ---------------------
PC1A_TRINITY_DN43894_c0_g1_i5.p1PC1A_TRINITY_DN43894_c0_g1  -            342 143161at3193         -            223  3.6e-138  460.0   3.3   1   2   4.2e-18   4.2e-15   57.5   0.0     1    57    20    80    20    96 0.87 -
PC1A_TRINITY_DN43894_c0_g1_i5.p1PC1A_TRINITY_DN43894_c0_g1  -            342 143161at3193         -            223  3.6e-138  460.0   3.3   2   2  1.3e-123  1.3e-120  402.6   1.3     1   223   111   340   111   340 0.97 -
PC1A_TRINITY_DN43894_c0_g1_i2.p1PC1A_TRINITY_DN43894_c0_g1  -            313 143161at3193         -            223  3.8e-101  338.9   1.9   1   1    5e-104    5e-101  338.5   1.9     1   193    89   288    89   294 0.96 -
PC3A_TRINITY_DN37225_c2_g1_i1.p1PC3A_TRINITY_DN37225_c2_g1  -            249 143161at3193         -            223   7.1e-73  246.4   2.1   1   2   1.8e-57   1.8e-54  186.3   0.2     1   117    89   209    89   211 0.97 -
PC3A_TRINITY_DN37225_c2_g1_i1.p1PC3A_TRINITY_DN37225_c2_g1  -            249 143161at3193         -            223   7.1e-73  246.4   2.1   2   2   3.2e-19   3.2e-16   61.2   0.2   186   223   210   247   209   247 0.98 -
PC3A_TRINITY_DN42804_c3_g1_i6.p1PC3A_TRINITY_DN42804_c3_g1  -            199 143161at3193         -            223   3.4e-14   54.6   0.0   1   1   5.6e-17   5.5e-14   53.8   0.0   117   216    87   186    76   197 0.86 -
PC3A_TRINITY_DN37447_c3_g1_i7.p1PC3A_TRINITY_DN37447_c3_g1  -            149 143161at3193         -            223   1.4e-13   52.5   0.4   1   2     0.039        39    5.3   0.0   132   156    20    44    17    51 0.84 -
PC3A_TRINITY_DN37447_c3_g1_i7.p1PC3A_TRINITY_DN37447_c3_g1  -            149 143161at3193         -            223   1.4e-13   52.5   0.4   2   2   1.2e-14   1.2e-11   46.2   0.0   127   213    52   134    43   141 0.88 -
PC3A_TRINITY_DN42466_c0_g2_i6.p1PC3A_TRINITY_DN42466_c0_g2  -            148 143161at3193         -            223   3.5e-13   51.2   0.0   1   1   4.3e-16   4.3e-13   50.9   0.0   124   213    42   126    17   135 0.82 -
PC2A_TRINITY_DN34001_c1_g3_i1.p1PC2A_TRINITY_DN34001_c1_g3  -            218 143161at3193         -            223   8.2e-13   50.0   0.0   1   2   1.2e-09   1.2e-06   29.8   0.0   117   176    87   146    76   152 0.84 -
PC2A_TRINITY_DN34001_c1_g3_i1.p1PC2A_TRINITY_DN34001_c1_g3  -            218 143161at3193         -            223   8.2e-13   50.0   0.0   2   2   4.4e-06    0.0044   18.2   0.0    59   103   163   207   153   216 0.86 -
PC1J_TRINITY_DN40709_c0_g1_i11.p1PC1J_TRINITY_DN40709_c0_g1 -            125 143161at3193         -            223     1e-12   49.7   0.0   1   1   1.2e-15   1.2e-12   49.4   0.0   116   199    28   111    18   120 0.89 -
PC2A_TRINITY_DN32291_c4_g1_i1.p1PC2A_TRINITY_DN32291_c4_g1  -            105 143161at3193         -            223   2.2e-12   48.6   0.0   1   1   2.5e-15   2.5e-12   48.4   0.0   127   215     7    91     1    97 0.89 -
PC1A_TRINITY_DN42746_c4_g1_i9.p1PC1A_TRINITY_DN42746_c4_g1  -            145 143161at3193         -            223   4.1e-12   47.7   0.0   1   1   4.9e-15   4.9e-12   47.5   0.0   111   213    29   130    14   139 0.83 -
PC1J_TRINITY_DN38474_c2_g1_i2.p1PC1J_TRINITY_DN38474_c2_g1  -            137 143161at3193         -            223   9.8e-12   46.5   0.0   1   1   1.2e-14   1.2e-11   46.3   0.0   112   211    22   120     9   133 0.81 -
PC3A_TRINITY_DN42466_c0_g2_i4.p1PC3A_TRINITY_DN42466_c0_g2  -            138 143161at3193         -            223   1.2e-10   43.0   0.1   1   1   1.4e-13   1.4e-10   42.7   0.1   132   213    39   116    27   126 0.89 -
PC3J_TRINITY_DN41794_c2_g6_i3.p1PC3J_TRINITY_DN41794_c2_g6  -            106 143161at3193         -            223   3.8e-10   41.3   0.1   1   1   4.7e-13   4.7e-10   41.0   0.1   132   213    14    91    11    98 0.90 -
PC1A_TRINITY_DN42718_c1_g2_i4.p1PC1A_TRINITY_DN42718_c1_g2  -            252 143161at3193         -            223   2.3e-09   38.7   0.0   1   1   3.3e-12   3.2e-09   38.3   0.0     4    87   111   195   109   207 0.88 -
PC1A_TRINITY_DN34486_c0_g1_i1.p1PC1A_TRINITY_DN34486_c0_g1  -            137 143161at3193         -            223   3.3e-09   38.2   0.0   1   1   4.2e-12   4.2e-09   37.9   0.0   111   218    26   132    16   135 0.83 -
PC1A_TRINITY_DN41279_c1_g1_i2.p1PC1A_TRINITY_DN41279_c1_g1  -            124 143161at3193         -            223   3.9e-09   38.0   0.0   1   1   4.5e-12   4.5e-09   37.8   0.0   113   210    10   106     3   116 0.81 -
PC1A_TRINITY_DN43445_c1_g4_i8.p1PC1A_TRINITY_DN43445_c1_g4  -            191 143161at3193         -            223   3.9e-08   34.7   0.4   1   1   6.4e-11   6.3e-08   34.0   0.4   128   214   100   183    74   188 0.87 -
PC2A_TRINITY_DN34001_c1_g3_i3.p1PC2A_TRINITY_DN34001_c1_g3  -            112 143161at3193         -            223   5.5e-08   34.2   0.0   1   1   6.4e-11   6.4e-08   34.0   0.0   115   180    22    87     8    95 0.85 -
PC1A_TRINITY_DN40146_c2_g2_i7.p1PC1A_TRINITY_DN40146_c2_g2  -            118 143161at3193         -            223   2.3e-07   32.2   0.0   1   1   2.6e-10   2.6e-07   32.0   0.0   116   174    25    83    15   106 0.82 -
PC1J_TRINITY_DN38049_c0_g2_i18.p1PC1J_TRINITY_DN38049_c0_g2 -            197 143161at3193         -            223   4.2e-07   31.3   0.1   1   1   6.3e-10   6.3e-07   30.8   0.1   128   200   104   173    79   190 0.85 -
PC3J_TRINITY_DN44159_c0_g3_i1.p1PC3J_TRINITY_DN44159_c0_g3  -            198 143161at3193         -            223   2.9e-06   28.6   0.2   1   1   7.1e-09   7.1e-06   27.3   0.2     4    85    65   147    62   152 0.71 -
PC1J_TRINITY_DN31650_c0_g1_i1.p1PC1J_TRINITY_DN31650_c0_g1  -            170 143161at3193         -            223   4.6e-06   27.9   0.1   1   1   7.1e-09   7.1e-06   27.3   0.1   112   200    71   166    59   170 0.82 -
PC3A_TRINITY_DN36312_c7_g1_i1.p1PC3A_TRINITY_DN36312_c7_g1  -            102 143161at3193         -            223   5.3e-06   27.7   1.1   1   1   8.3e-09   8.2e-06   27.1   1.1   112   196     2    97     1   101 0.83 -
PC1A_TRINITY_DN43730_c3_g1_i12.p1PC1A_TRINITY_DN43730_c3_g1 -            327 143161at3193         -            223   6.8e-06   27.4   0.0   1   1   1.6e-08   1.6e-05   26.2   0.0     4    85   131   213   126   218 0.67 -
PC3A_TRINITY_DN37447_c3_g1_i6.p3PC3A_TRINITY_DN37447_c3_g1  -            106 143161at3193         -            223   8.2e-06   27.1   0.0   1   1   2.2e-08   2.2e-05   25.8   0.0   132   214    20    94    17   100 0.86 -
PC1J_TRINITY_DN38440_c0_g3_i2.p1PC1J_TRINITY_DN38440_c0_g3  -            248 143161at3193         -            223   3.9e-05   24.9   0.0   1   2   9.8e-08   9.8e-05   23.6   0.0     4   106    34   135    31   145 0.82 -
PC1J_TRINITY_DN38440_c0_g3_i2.p1PC1J_TRINITY_DN38440_c0_g3  -            248 143161at3193         -            223   3.9e-05   24.9   0.0   2   2       6.1   6.1e+03   -1.9   0.0   151   196   157   201   154   222 0.59 -
PC1A_TRINITY_DN40146_c2_g2_i6.p1PC1A_TRINITY_DN40146_c2_g2  -            115 143161at3193         -            223   5.8e-05   24.4   0.1   1   1   6.9e-08   6.9e-05   24.1   0.1   132   174    21    62    17    86 0.87 -
PC2J_TRINITY_DN41765_c1_g3_i1.p1PC2J_TRINITY_DN41765_c1_g3  -            186 143161at3193         -            223   7.6e-05   24.0   0.0   1   2       2.4   2.4e+03   -0.5   0.0   140   158     7    25     1    31 0.78 -
PC2J_TRINITY_DN41765_c1_g3_i1.p1PC2J_TRINITY_DN41765_c1_g3  -            186 143161at3193         -            223   7.6e-05   24.0   0.0   2   2     3e-07    0.0003   22.0   0.0   119   209    84   171    72   184 0.83 -
PC1J_TRINITY_DN38807_c1_g2_i21.p1PC1J_TRINITY_DN38807_c1_g2 -            133 143161at3193         -            223   7.9e-05   23.9   0.0   1   1   9.5e-08   9.4e-05   23.7   0.0   120   217    34   129    22   131 0.84 -
PC1A_TRINITY_DN43057_c1_g2_i1.p1PC1A_TRINITY_DN43057_c1_g2  -            148 143161at3193         -            223   9.8e-05   23.6   0.0   1   1   1.2e-07   0.00012   23.4   0.0   101   213    26   131    13   140 0.78 -
PC2A_TRINITY_DN34082_c0_g1_i19.p1PC2A_TRINITY_DN34082_c0_g1 -            494 143161at3193         -            223    0.0001   23.6   0.0   1   2    0.0015       1.5    9.9   0.0   130   218    47   138    24   144 0.80 -
PC2A_TRINITY_DN34082_c0_g1_i19.p1PC2A_TRINITY_DN34082_c0_g1 -            494 143161at3193         -            223    0.0001   23.6   0.0   2   2   0.00074      0.74   10.9   0.1   118   209   380   470   368   482 0.74 -
PC1A_TRINITY_DN42317_c2_g2_i5.p1PC1A_TRINITY_DN42317_c2_g2  -            150 143161at3193         -            223   0.00025   22.3   0.0   1   1   3.1e-07   0.00031   22.0   0.0   121   217    52   146    35   148 0.86 -
PC2A_TRINITY_DN34604_c5_g1_i6.p2PC2A_TRINITY_DN34604_c5_g1  -            206 143161at3193         -            223   0.00026   22.2   0.0   1   2      0.21   2.1e+02    2.9   0.0   121   154    23    56     8    69 0.81 -
PC2A_TRINITY_DN34604_c5_g1_i6.p2PC2A_TRINITY_DN34604_c5_g1  -            206 143161at3193         -            223   0.00026   22.2   0.0   2   2   8.1e-06     0.008   17.3   0.0   121   204   105   185    89   195 0.85 -
PC2A_TRINITY_DN28315_c1_g4_i6.p1PC2A_TRINITY_DN28315_c1_g4  -            139 143161at3193         -            223    0.0003   22.0   0.0   1   1   3.4e-07   0.00034   21.8   0.0     9   102     4    96     1   108 0.79 -
PC1A_TRINITY_DN42933_c4_g2_i6.p1PC1A_TRINITY_DN42933_c4_g2  -            200 143161at3193         -            223   0.00038   21.7   0.0   1   1   4.9e-07   0.00049   21.3   0.0   115   196    96   174    87   197 0.82 -
PC1J_TRINITY_DN38515_c1_g1_i3.p1PC1J_TRINITY_DN38515_c1_g1  -            195 143161at3193         -            223   0.00045   21.4   0.0   1   1   6.2e-07   0.00062   21.0   0.0   119   206    81   165    69   175 0.85 -
PC1A_TRINITY_DN43195_c4_g1_i3.p1PC1A_TRINITY_DN43195_c4_g1  -            517 143161at3193         -            223   0.00051   21.3   0.0   1   1   8.2e-07   0.00082   20.6   0.0     3   102    16   116    14   128 0.81 -
PC1A_TRINITY_DN40892_c3_g1_i12.p1PC1A_TRINITY_DN40892_c3_g1 -            129 143161at3193         -            223   0.00076   20.7   0.0   1   1   1.3e-06    0.0013   19.9   0.0     3   103    11   114     9   123 0.83 -
PC1A_TRINITY_DN42317_c2_g2_i6.p1PC1A_TRINITY_DN42317_c2_g2  -            107 143161at3193         -            223   0.00083   20.6   0.0   1   1     1e-06     0.001   20.3   0.0   133   217    21   103    18   105 0.86 -
PC3A_TRINITY_DN40018_c2_g2_i3.p1PC3A_TRINITY_DN40018_c2_g2  -            129 143161at3193         -            223    0.0013   19.9   0.0   1   2    0.0046       4.6    8.3   0.0     3    65    11    79     9    82 0.72 -
PC3A_TRINITY_DN40018_c2_g2_i3.p1PC3A_TRINITY_DN40018_c2_g2  -            129 143161at3193         -            223    0.0013   19.9   0.0   2   2   0.00068      0.68   11.0   0.0   181   214    80   113    75   122 0.86 -
PC2J_TRINITY_DN44872_c2_g1_i1.p1PC2J_TRINITY_DN44872_c2_g1  -            161 143161at3193         -            223    0.0015   19.7   0.0   1   1     2e-06     0.002   19.3   0.0   109   158    77   127    72   139 0.88 -
PC2J_TRINITY_DN37662_c0_g1_i10.p1PC2J_TRINITY_DN37662_c0_g1 -            100 143161at3193         -            223    0.0019   19.4   0.0   1   1   2.3e-06    0.0022   19.2   0.0   175   213    47    85    18    92 0.82 -
PC3A_TRINITY_DN40055_c0_g1_i3.p1PC3A_TRINITY_DN40055_c0_g1  -            360 143161at3193         -            223    0.0019   19.4   0.0   1   1   3.4e-06    0.0034   18.6   0.0    28   194    49   222    23   244 0.77 -
PC2J_TRINITY_DN44872_c2_g1_i3.p1PC2J_TRINITY_DN44872_c2_g1  -            188 143161at3193         -            223    0.0022   19.2   0.4   1   1   1.1e-05     0.011   16.9   0.4    20   193    23    85    14    91 0.49 -
PC2J_TRINITY_DN44749_c0_g2_i10.p1PC2J_TRINITY_DN44749_c0_g2 -            199 143161at3193         -            223    0.0023   19.1   0.0   1   1     3e-06     0.003   18.8   0.0   111   217    89   195    81   197 0.82 -
PC2J_TRINITY_DN44586_c0_g1_i5.p1PC2J_TRINITY_DN44586_c0_g1  -            203 143161at3193         -            223     0.003   18.8   0.0   1   1     4e-06     0.004   18.3   0.0     7   103   104   199    99   203 0.77 -
PC3J_TRINITY_DN45728_c0_g3_i1.p1PC3J_TRINITY_DN45728_c0_g3  -            107 143161at3193         -            223    0.0037   18.4   0.0   1   1   4.4e-06    0.0044   18.2   0.0   114   174    11    73     3    82 0.70 -
PC2J_TRINITY_DN42286_c0_g3_i1.p1PC2J_TRINITY_DN42286_c0_g3  -            144 143161at3193         -            223     0.004   18.3   0.0   1   1     5e-06     0.005   18.0   0.0     4    91    35   121    32   131 0.82 -
PC3J_TRINITY_DN46991_c0_g2_i2.p1PC3J_TRINITY_DN46991_c0_g2  -            114 143161at3193         -            223    0.0054   17.9   0.0   1   1   9.5e-06    0.0095   17.1   0.0     4    43    67   110    64   114 0.79 -
PC2A_TRINITY_DN34604_c5_g1_i3.p1PC2A_TRINITY_DN34604_c5_g1  -            209 143161at3193         -            223    0.0061   17.7   0.0   1   1   8.2e-06    0.0082   17.3   0.0   121   204   108   188    91   198 0.85 -
PC2J_TRINITY_DN45899_c1_g2_i16.p1PC2J_TRINITY_DN45899_c1_g2 -            123 143161at3193         -            223    0.0093   17.1   0.0   1   1     1e-05      0.01   17.0   0.0    36    99    51   112    22   118 0.86 -
PC3J_TRINITY_DN46991_c0_g2_i3.p1PC3J_TRINITY_DN46991_c0_g2  -            181 143161at3193         -            223     0.014   16.6   0.0   1   1   1.8e-05     0.018   16.2   0.0     4    47   111   158   108   166 0.78 -
PC1J_TRINITY_DN33865_c2_g1_i3.p1PC1J_TRINITY_DN33865_c2_g1  -            134 143161at3193         -            223     0.028   15.6   0.0   1   1   3.2e-05     0.032   15.4   0.0   138   210    40   112    19   123 0.69 -
PC1J_TRINITY_DN34833_c0_g2_i1.p2PC1J_TRINITY_DN34833_c0_g2  -            108 143161at3193         -            223     0.058   14.5   0.0   1   1     9e-05      0.09   13.9   0.0     4    30    77   103    75   106 0.91 -
PC3A_TRINITY_DN43559_c0_g4_i16.p1PC3A_TRINITY_DN43559_c0_g4 -            179 143161at3193         -            223     0.072   14.2   0.0   1   1   8.6e-05     0.085   14.0   0.0   138   204    64   130    43   164 0.63 -
PC1J_TRINITY_DN33865_c2_g1_i2.p1PC1J_TRINITY_DN33865_c2_g1  -            122 143161at3193         -            223     0.087   14.0   0.0   1   1   0.00011      0.11   13.7   0.0    13    82    24    95    17   108 0.65 -
PC1J_TRINITY_DN4333_c0_g1_i1.p1PC1J_TRINITY_DN4333_c0_g1    -            200 143161at3193         -            223      0.13   13.4   0.0   1   2    0.0015       1.5    9.9   0.0   117   172   115   170   101   176 0.86 -
PC1J_TRINITY_DN4333_c0_g1_i1.p1PC1J_TRINITY_DN4333_c0_g1    -            200 143161at3193         -            223      0.13   13.4   0.0   2   2      0.35   3.4e+02    2.2   0.0    65    90   172   197   167   200 0.82 -
PC2J_TRINITY_DN41553_c1_g1_i5.p1PC2J_TRINITY_DN41553_c1_g1  -            303 143161at3193         -            223      0.15   13.2   0.0   1   2     0.067        66    4.5   0.0   121   214    82   172    66   183 0.81 -
PC2J_TRINITY_DN41553_c1_g1_i5.p1PC2J_TRINITY_DN41553_c1_g1  -            303 143161at3193         -            223      0.15   13.2   0.0   2   2     0.013        13    6.9   0.0   113   191   204   278   178   301 0.77 -
PC1A_TRINITY_DN40892_c3_g1_i8.p1PC1A_TRINITY_DN40892_c3_g1  -            102 143161at3193         -            223      0.16   13.1   0.1   1   1    0.0013       1.3   10.1   0.0    28    82    42    93    31   101 0.74 -
PC3A_TRINITY_DN40018_c2_g2_i4.p1PC3A_TRINITY_DN40018_c2_g2  -            111 143161at3193         -            223      0.18   12.9   0.0   1   1   0.00028      0.28   12.3   0.0   179   214    24    59    15    69 0.83 -
PC1J_TRINITY_DN35413_c0_g2_i1.p1PC1J_TRINITY_DN35413_c0_g2  -            206 143161at3193         -            223      0.25   12.5   0.0   1   1   0.00034      0.34   12.0   0.0   123   199   104   177    92   194 0.80 -
PC2J_TRINITY_DN38142_c0_g3_i1.p1PC2J_TRINITY_DN38142_c0_g3  -            183 143161at3193         -            223      0.38   11.9   0.0   1   1   0.00052      0.52   11.4   0.0    60   109     4    55     2    90 0.79 -
PC3A_TRINITY_DN14796_c0_g1_i1.p1PC3A_TRINITY_DN14796_c0_g1  -            121 143161at3193         -            223       0.7   11.0   0.0   1   1    0.0018       1.8    9.6   0.0     7   163    59   110    52   119 0.49 -
PC2A_TRINITY_DN34891_c2_g1_i2.p1PC2A_TRINITY_DN34891_c2_g1  -            134 143161at3193         -            223      0.79   10.8   0.0   1   1   0.00096      0.95   10.6   0.0    50    87    43    77    27    91 0.75 -
#
# Program:         hmmsearch
# Version:         3.2.1 (June 2018)
# Pipeline mode:   SEARCH
# Query file:      /isg/shared/databases/BUSCO/odb10/embryophyta_odb10/hmms/143161at3193.hmm
# Target file:     Pine_final_annotations_no_contam_lvl0.faa
# Option settings: /usr/local/bin/hmmsearch --domtblout /labs/Wegrzyn/Juniper_Pine/BUSCO/NEW/busco_pine/run_embryophyta_odb10/hmmer_output/143161at3193.out --cpu 1 /isg/shared/databases/BUSCO/odb10/embryophyta_odb10/hmms/143161at3193.hmm Pine_final_annotations_no_contam_lvl0.faa 
# Current dir:     /labs/Wegrzyn/Juniper_Pine/BUSCO/NEW
# Date:            Thu Aug  6 14:43:31 2020
# [ok]
