#                                                                                                                  --- full sequence --- -------------- this domain -------------   hmm coord   ali coord   env coord
# target name                                              accession   tlen query name           accession   qlen   E-value  score  bias   #  of  c-Evalue  i-Evalue  score  bias  from    to  from    to  from    to  acc description of target
#                                      ------------------- ---------- ----- -------------------- ---------- ----- --------- ------ ----- --- --- --------- --------- ------ ----- ----- ----- ----- ----- ----- ----- ---- ---------------------
PC1A_TRINITY_DN4457_c0_g1_i1.p1PC1A_TRINITY_DN4457_c0_g1   -            131 146337at3193         -            231       0.1   13.9   0.1   1   2   1.5e-05      0.47   11.7   0.0   120   147    46    73    18    78 0.73 -
PC1A_TRINITY_DN4457_c0_g1_i1.p1PC1A_TRINITY_DN4457_c0_g1   -            131 146337at3193         -            231       0.1   13.9   0.1   2   2     0.048   1.5e+03    0.2   0.0   120   138   112   130    86   131 0.64 -
PC2A_TRINITY_DN33261_c2_g5_i2.p1PC2A_TRINITY_DN33261_c2_g5 -            103 146337at3193         -            231      0.15   13.3   0.3   1   1   5.3e-06      0.17   13.2   0.3    84   137    46    99    38   102 0.88 -
#
# Program:         hmmsearch
# Version:         3.2.1 (June 2018)
# Pipeline mode:   SEARCH
# Query file:      /isg/shared/databases/BUSCO/odb10/embryophyta_odb10/hmms/146337at3193.hmm
# Target file:     Pine_final_annotations_no_contam_lvl0.faa
# Option settings: /usr/local/bin/hmmsearch --domtblout /labs/Wegrzyn/Juniper_Pine/BUSCO/NEW/busco_pine/run_embryophyta_odb10/hmmer_output/146337at3193.out --cpu 1 /isg/shared/databases/BUSCO/odb10/embryophyta_odb10/hmms/146337at3193.hmm Pine_final_annotations_no_contam_lvl0.faa 
# Current dir:     /labs/Wegrzyn/Juniper_Pine/BUSCO/NEW
# Date:            Thu Aug  6 14:43:49 2020
# [ok]
