#                                                                                                                  --- full sequence --- -------------- this domain -------------   hmm coord   ali coord   env coord
# target name                                              accession   tlen query name           accession   qlen   E-value  score  bias   #  of  c-Evalue  i-Evalue  score  bias  from    to  from    to  from    to  acc description of target
#                                      ------------------- ---------- ----- -------------------- ---------- ----- --------- ------ ----- --- --- --------- --------- ------ ----- ----- ----- ----- ----- ----- ----- ---- ---------------------
PC1J_TRINITY_DN26365_c0_g1_i1.p1PC1J_TRINITY_DN26365_c0_g1 -            187 147649at3193         -            272   7.2e-46  158.6  18.9   1   2   1.2e-30   1.2e-26   95.5   0.6    87   155     7    82     2    86 0.84 -
PC1J_TRINITY_DN26365_c0_g1_i1.p1PC1J_TRINITY_DN26365_c0_g1 -            187 147649at3193         -            272   7.2e-46  158.6  18.9   2   2   3.8e-22     4e-18   67.6  11.9   156   230   107   186   104   187 0.88 -
PC3J_TRINITY_DN42252_c4_g3_i1.p1PC3J_TRINITY_DN42252_c4_g3 -            105 147649at3193         -            272   2.2e-28  101.2   0.3   1   1   2.6e-32   2.8e-28  100.9   0.3    87   164    11    96     2   102 0.81 -
PC3A_TRINITY_DN41953_c7_g1_i4.p1PC3A_TRINITY_DN41953_c7_g1 -            163 147649at3193         -            272   0.00033   22.0   0.2   1   1   3.8e-08    0.0004   21.6   0.2    20    52   126   158    98   163 0.81 -
PC1J_TRINITY_DN34436_c4_g3_i5.p1PC1J_TRINITY_DN34436_c4_g3 -            177 147649at3193         -            272     0.064   14.4   0.4   1   1   8.8e-06     0.093   13.9   0.4   192   255    32    94    26   101 0.86 -
PC1A_TRINITY_DN42590_c0_g3_i4.p1PC1A_TRINITY_DN42590_c0_g3 -            291 147649at3193         -            272       1.1   10.4   5.7   1   2   0.00045       4.7    8.3   0.6   164   205    94   135    85   142 0.87 -
PC1A_TRINITY_DN42590_c0_g3_i4.p1PC1A_TRINITY_DN42590_c0_g3 -            291 147649at3193         -            272       1.1   10.4   5.7   2   2    0.0061        65    4.6   0.3   165   202   142   179   136   188 0.83 -
PC2A_TRINITY_DN34207_c1_g3_i3.p1PC2A_TRINITY_DN34207_c1_g3 -            309 147649at3193         -            272       1.2   10.2   5.6   1   2   0.00047         5    8.2   0.6   164   205   132   173   122   180 0.87 -
PC2A_TRINITY_DN34207_c1_g3_i3.p1PC2A_TRINITY_DN34207_c1_g3 -            309 147649at3193         -            272       1.2   10.2   5.6   2   2    0.0059        63    4.6   0.3   165   202   180   217   172   226 0.83 -
#
# Program:         hmmsearch
# Version:         3.2.1 (June 2018)
# Pipeline mode:   SEARCH
# Query file:      /isg/shared/databases/BUSCO/odb10/embryophyta_odb10/hmms/147649at3193.hmm
# Target file:     Pine_final_annotations_no_contam_lvl0.faa
# Option settings: /usr/local/bin/hmmsearch --domtblout /labs/Wegrzyn/Juniper_Pine/BUSCO/NEW/busco_pine/run_embryophyta_odb10/hmmer_output/147649at3193.out --cpu 1 /isg/shared/databases/BUSCO/odb10/embryophyta_odb10/hmms/147649at3193.hmm Pine_final_annotations_no_contam_lvl0.faa 
# Current dir:     /labs/Wegrzyn/Juniper_Pine/BUSCO/NEW
# Date:            Thu Aug  6 14:43:56 2020
# [ok]
