#                                                                                                                  --- full sequence --- -------------- this domain -------------   hmm coord   ali coord   env coord
# target name                                              accession   tlen query name           accession   qlen   E-value  score  bias   #  of  c-Evalue  i-Evalue  score  bias  from    to  from    to  from    to  acc description of target
#                                      ------------------- ---------- ----- -------------------- ---------- ----- --------- ------ ----- --- --- --------- --------- ------ ----- ----- ----- ----- ----- ----- ----- ---- ---------------------
PC2J_TRINITY_DN46570_c0_g1_i1.p1PC2J_TRINITY_DN46570_c0_g1 -            112 148068at3193         -            193   1.6e-58  199.3   4.0   1   1   3.9e-62   1.8e-58  199.2   4.0    87   193     1   111     1   111 0.95 -
PC1A_TRINITY_DN41487_c1_g2_i3.p1PC1A_TRINITY_DN41487_c1_g2 -            312 148068at3193         -            193   9.8e-55  187.0   1.1   1   2   6.3e-40   2.9e-36  126.7   0.2     5   139    50   197    47   209 0.82 -
PC1A_TRINITY_DN41487_c1_g2_i3.p1PC1A_TRINITY_DN41487_c1_g2 -            312 148068at3193         -            193   9.8e-55  187.0   1.1   2   2   3.3e-19   1.5e-15   59.1   0.0   124   192   240   310   220   311 0.84 -
PC2A_TRINITY_DN34832_c2_g1_i3.p1PC2A_TRINITY_DN34832_c2_g1 -            104 148068at3193         -            193   7.5e-26   92.7   0.6   1   1     2e-29   9.1e-26   92.5   0.6     5    69    22    92    18    99 0.85 -
PC3A_TRINITY_DN38144_c1_g3_i8.p1PC3A_TRINITY_DN38144_c1_g3 -            110 148068at3193         -            193   1.1e-14   56.3   0.0   1   1   2.8e-18   1.3e-14   56.1   0.0   123   182    27    88     7    97 0.80 -
PC1A_TRINITY_DN37222_c0_g2_i3.p1PC1A_TRINITY_DN37222_c0_g2 -            190 148068at3193         -            193   1.3e-14   56.0   2.7   1   1   4.3e-18   1.9e-14   55.5   2.7    50   143     1    97     1   104 0.85 -
PC2A_TRINITY_DN30086_c0_g1_i1.p1PC2A_TRINITY_DN30086_c0_g1 -            212 148068at3193         -            193   0.00034   22.1   0.7   1   2   7.5e-08   0.00034   22.1   0.7     8    47    71   113    66   126 0.83 -
PC2A_TRINITY_DN30086_c0_g1_i1.p1PC2A_TRINITY_DN30086_c0_g1 -            212 148068at3193         -            193   0.00034   22.1   0.7   2   2       3.1   1.4e+04   -2.8   0.2     8    20   193   205   189   207 0.77 -
PC2J_TRINITY_DN7842_c0_g1_i1.p1PC2J_TRINITY_DN7842_c0_g1   -            115 148068at3193         -            193   0.00091   20.7   3.9   1   1   2.9e-07    0.0013   20.2   3.9     6    52    57   106    54   111 0.76 -
PC1J_TRINITY_DN39329_c1_g2_i1.p1PC1J_TRINITY_DN39329_c1_g2 -            257 148068at3193         -            193    0.0012   20.2   1.5   1   1   4.3e-07     0.002   19.6   1.5     8    48    83   126    78   143 0.80 -
PC2J_TRINITY_DN40161_c0_g2_i4.p1PC2J_TRINITY_DN40161_c0_g2 -            326 148068at3193         -            193    0.0019   19.6   1.7   1   1   6.6e-07     0.003   19.0   1.7     8    48   108   151   103   161 0.78 -
PC1J_TRINITY_DN33935_c0_g7_i6.p1PC1J_TRINITY_DN33935_c0_g7 -            182 148068at3193         -            193    0.0058   18.1   0.1   1   1   1.6e-06    0.0073   17.7   0.1     6    52    47    97    42   127 0.74 -
PC2A_TRINITY_DN35932_c2_g2_i4.p1PC2A_TRINITY_DN35932_c2_g2 -            108 148068at3193         -            193     0.051   15.0   0.2   1   1   1.8e-05     0.081   14.3   0.2     8    42    48    87    41    93 0.78 -
PC1A_TRINITY_DN3199_c0_g1_i1.p1PC1A_TRINITY_DN3199_c0_g1   -            345 148068at3193         -            193     0.088   14.2   0.6   1   2   1.9e-05     0.088   14.2   0.6     7    65   179   234   173   251 0.68 -
PC1A_TRINITY_DN3199_c0_g1_i1.p1PC1A_TRINITY_DN3199_c0_g1   -            345 148068at3193         -            193     0.088   14.2   0.6   2   2      0.28   1.3e+03    0.6   0.2   127   148   274   295   263   298 0.84 -
PC3A_TRINITY_DN32372_c0_g1_i1.p1PC3A_TRINITY_DN32372_c0_g1 -            127 148068at3193         -            193       1.2   10.5   3.6   1   1   0.00032       1.5   10.2   3.6    86   145    40    97    12   102 0.76 -
PC1A_TRINITY_DN28633_c0_g1_i2.p1PC1A_TRINITY_DN28633_c0_g1 -            189 148068at3193         -            193       2.2    9.7   3.1   1   1   0.00057       2.6    9.4   2.0    98   142   107   150    88   163 0.72 -
#
# Program:         hmmsearch
# Version:         3.2.1 (June 2018)
# Pipeline mode:   SEARCH
# Query file:      /isg/shared/databases/BUSCO/odb10/embryophyta_odb10/hmms/148068at3193.hmm
# Target file:     Pine_final_annotations_no_contam_lvl0.faa
# Option settings: /usr/local/bin/hmmsearch --domtblout /labs/Wegrzyn/Juniper_Pine/BUSCO/NEW/busco_pine/run_embryophyta_odb10/hmmer_output/148068at3193.out --cpu 1 /isg/shared/databases/BUSCO/odb10/embryophyta_odb10/hmms/148068at3193.hmm Pine_final_annotations_no_contam_lvl0.faa 
# Current dir:     /labs/Wegrzyn/Juniper_Pine/BUSCO/NEW
# Date:            Thu Aug  6 14:43:58 2020
# [ok]
