#                                                                                                                   --- full sequence --- -------------- this domain -------------   hmm coord   ali coord   env coord
# target name                                               accession   tlen query name           accession   qlen   E-value  score  bias   #  of  c-Evalue  i-Evalue  score  bias  from    to  from    to  from    to  acc description of target
#                                       ------------------- ---------- ----- -------------------- ---------- ----- --------- ------ ----- --- --- --------- --------- ------ ----- ----- ----- ----- ----- ----- ----- ---- ---------------------
PC1J_TRINITY_DN34749_c1_g8_i1.p1PC1J_TRINITY_DN34749_c1_g8  -            195 150913at3193         -            196     4e-86  289.3   0.0   1   1   2.1e-89     5e-86  289.0   0.0    23   194    11   187     5   189 0.95 -
PC1A_TRINITY_DN43195_c4_g1_i3.p1PC1A_TRINITY_DN43195_c4_g1  -            517 150913at3193         -            196   2.6e-85  286.6   0.0   1   3   4.1e-31   9.6e-28   98.8   0.0    97   195   165   260   125   261 0.93 -
PC1A_TRINITY_DN43195_c4_g1_i3.p1PC1A_TRINITY_DN43195_c4_g1  -            517 150913at3193         -            196   2.6e-85  286.6   0.0   2   3   1.9e-26   4.4e-23   83.6   0.0    92   195   305   405   286   406 0.93 -
PC1A_TRINITY_DN43195_c4_g1_i3.p1PC1A_TRINITY_DN43195_c4_g1  -            517 150913at3193         -            196   2.6e-85  286.6   0.0   3   3   1.1e-31   2.6e-28  100.6   0.0    97   195   417   512   410   513 0.95 -
PC3A_TRINITY_DN39948_c4_g2_i2.p1PC3A_TRINITY_DN39948_c4_g2  -            335 150913at3193         -            196   5.3e-84  282.4   0.0   1   3     1e-27   2.4e-24   87.7   0.0   115   196     1    79     1    79 0.96 -
PC3A_TRINITY_DN39948_c4_g2_i2.p1PC3A_TRINITY_DN39948_c4_g2  -            335 150913at3193         -            196   5.3e-84  282.4   0.0   2   3   1.4e-28   3.3e-25   90.5   0.0    94   195   125   223    97   224 0.90 -
PC3A_TRINITY_DN39948_c4_g2_i2.p1PC3A_TRINITY_DN39948_c4_g2  -            335 150913at3193         -            196   5.3e-84  282.4   0.0   3   3   8.2e-32   1.9e-28  101.1   0.0    96   194   234   329   223   331 0.93 -
PC2A_TRINITY_DN8049_c0_g1_i1.p2PC2A_TRINITY_DN8049_c0_g1    -            105 150913at3193         -            196   6.6e-45  154.8   0.2   1   1   3.1e-48   7.3e-45  154.7   0.2    27   121     6   105     2   105 0.94 -
PC1A_TRINITY_DN41717_c1_g1_i1.p1PC1A_TRINITY_DN41717_c1_g1  -            194 150913at3193         -            196   6.7e-30  105.8   0.0   1   1   3.9e-33   9.2e-30  105.4   0.0    92   196    85   186    76   186 0.94 -
PC1A_TRINITY_DN41628_c1_g1_i13.p1PC1A_TRINITY_DN41628_c1_g1 -            168 150913at3193         -            196   3.2e-28  100.3   0.0   1   1   1.7e-31     4e-28  100.0   0.0    99   196    64   158    45   158 0.94 -
PC3A_TRINITY_DN37030_c1_g2_i5.p1PC3A_TRINITY_DN37030_c1_g2  -            118 150913at3193         -            196   5.8e-25   89.7   0.0   1   1   3.8e-28   9.1e-25   89.1   0.0     4    73    34   110    31   118 0.90 -
PC2J_TRINITY_DN45686_c0_g3_i1.p1PC2J_TRINITY_DN45686_c0_g3  -            155 150913at3193         -            196   5.4e-24   86.6   0.0   1   1   2.6e-27   6.1e-24   86.4   0.0    87   173    72   155    41   155 0.92 -
PC3A_TRINITY_DN37030_c1_g2_i4.p1PC3A_TRINITY_DN37030_c1_g2  -            114 150913at3193         -            196   4.1e-22   80.4   0.7   1   1   1.2e-24   2.9e-21   77.6   0.7    33    90    50   112    31   113 0.89 -
PC3A_TRINITY_DN31346_c0_g1_i1.p1PC3A_TRINITY_DN31346_c0_g1  -            101 150913at3193         -            196   6.1e-18   66.8   0.0   1   1   3.2e-21   7.5e-18   66.5   0.0   130   195    34    96    26    97 0.93 -
PC2A_TRINITY_DN28315_c1_g4_i9.p1PC2A_TRINITY_DN28315_c1_g4  -            109 150913at3193         -            196   2.8e-15   58.1   0.0   1   1   1.5e-18   3.6e-15   57.8   0.0    97   170    28    98    17   100 0.92 -
PC1J_TRINITY_DN38440_c0_g3_i2.p1PC1J_TRINITY_DN38440_c0_g3  -            248 150913at3193         -            196   6.3e-10   40.6   0.0   1   2       4.8   1.1e+04   -2.6   0.0    18    38    15    35     4    61 0.66 -
PC1J_TRINITY_DN38440_c0_g3_i2.p1PC1J_TRINITY_DN38440_c0_g3  -            248 150913at3193         -            196   6.3e-10   40.6   0.0   2   2   8.6e-13     2e-09   39.0   0.0    97   157   180   241   169   246 0.88 -
PC2A_TRINITY_DN29526_c0_g1_i14.p1PC2A_TRINITY_DN29526_c0_g1 -            235 150913at3193         -            196   5.3e-09   37.6   0.0   1   1   3.2e-12   7.6e-09   37.1   0.0    99   164   159   221   141   226 0.91 -
PC1J_TRINITY_DN39995_c3_g1_i22.p1PC1J_TRINITY_DN39995_c3_g1 -            137 150913at3193         -            196   4.6e-06   28.0   0.1   1   1   2.7e-09   6.5e-06   27.6   0.0    99   193    37   126    14   129 0.82 -
PC1J_TRINITY_DN38931_c1_g3_i2.p1PC1J_TRINITY_DN38931_c1_g3  -            118 150913at3193         -            196   2.2e-05   25.8   0.0   1   1   9.9e-09   2.3e-05   25.7   0.0    94   193     6   105     1   108 0.76 -
PC3J_TRINITY_DN48485_c3_g1_i1.p1PC3J_TRINITY_DN48485_c3_g1  -            164 150913at3193         -            196   0.00016   23.0   0.0   1   1   8.7e-08   0.00021   22.7   0.0   121   193    79   152    60   155 0.85 -
PC3J_TRINITY_DN48213_c6_g2_i2.p1PC3J_TRINITY_DN48213_c6_g2  -            119 150913at3193         -            196   0.00029   22.2   0.0   1   1   1.4e-07   0.00034   21.9   0.0   100   196    17   108     9   108 0.72 -
PC2J_TRINITY_DN36582_c1_g4_i1.p1PC2J_TRINITY_DN36582_c1_g4  -            186 150913at3193         -            196   0.00063   21.1   0.0   1   1   3.4e-07   0.00081   20.7   0.0    98   194    82   174    71   176 0.86 -
PC2A_TRINITY_DN20426_c0_g1_i1.p1PC2A_TRINITY_DN20426_c0_g1  -            153 150913at3193         -            196   0.00085   20.6   0.0   1   1   4.4e-07     0.001   20.4   0.0   100   193    49   140    19   143 0.75 -
PC2J_TRINITY_DN45159_c1_g1_i2.p1PC2J_TRINITY_DN45159_c1_g1  -            186 150913at3193         -            196    0.0011   20.2   0.0   1   1   6.5e-07    0.0015   19.8   0.0   129   195    57   121    35   122 0.81 -
PC2J_TRINITY_DN4094_c0_g1_i1.p1PC2J_TRINITY_DN4094_c0_g1    -            133 150913at3193         -            196    0.0061   17.8   0.0   1   1   3.2e-06    0.0076   17.5   0.0   155   196    75   118    50   118 0.79 -
PC2A_TRINITY_DN37799_c0_g1_i1.p1PC2A_TRINITY_DN37799_c0_g1  -            110 150913at3193         -            196     0.011   17.0   0.0   1   1   5.5e-06     0.013   16.8   0.0    98   192    10   108     5   110 0.87 -
PC2A_TRINITY_DN20426_c0_g1_i2.p1PC2A_TRINITY_DN20426_c0_g1  -            110 150913at3193         -            196     0.042   15.1   0.1   1   2       2.6   6.1e+03   -1.7   0.0    17    34     9    27     6    46 0.76 -
PC2A_TRINITY_DN20426_c0_g1_i2.p1PC2A_TRINITY_DN20426_c0_g1  -            110 150913at3193         -            196     0.042   15.1   0.1   2   2   4.1e-05     0.097   13.9   0.0   164   193    68    97    54   100 0.87 -
PC1J_TRINITY_DN13006_c0_g1_i2.p1PC1J_TRINITY_DN13006_c0_g1  -            112 150913at3193         -            196     0.043   15.1   0.0   1   1   2.2e-05     0.052   14.8   0.0   115   161    19    66    11    73 0.81 -
PC2J_TRINITY_DN42981_c1_g6_i3.p1PC2J_TRINITY_DN42981_c1_g6  -            242 150913at3193         -            196     0.092   14.0   0.1   1   2    0.0001      0.24   12.7   0.0   116   160    49    94    38   101 0.81 -
PC2J_TRINITY_DN42981_c1_g6_i3.p1PC2J_TRINITY_DN42981_c1_g6  -            242 150913at3193         -            196     0.092   14.0   0.1   2   2       3.9   9.3e+03   -2.3   0.0    46    90   161   201   157   223 0.57 -
PC2J_TRINITY_DN41399_c0_g4_i5.p1PC2J_TRINITY_DN41399_c0_g4  -            286 150913at3193         -            196      0.38   12.0   0.0   1   1   0.00027      0.64   11.3   0.0   109   143    73   111    59   155 0.79 -
PC1J_TRINITY_DN39606_c0_g1_i11.p1PC1J_TRINITY_DN39606_c0_g1 -            184 150913at3193         -            196      0.47   11.7   0.0   1   1   0.00027      0.65   11.2   0.0   144   194    69   120    55   122 0.81 -
#
# Program:         hmmsearch
# Version:         3.2.1 (June 2018)
# Pipeline mode:   SEARCH
# Query file:      /isg/shared/databases/BUSCO/odb10/embryophyta_odb10/hmms/150913at3193.hmm
# Target file:     Pine_final_annotations_no_contam_lvl0.faa
# Option settings: /usr/local/bin/hmmsearch --domtblout /labs/Wegrzyn/Juniper_Pine/BUSCO/NEW/busco_pine/run_embryophyta_odb10/hmmer_output/150913at3193.out --cpu 1 /isg/shared/databases/BUSCO/odb10/embryophyta_odb10/hmms/150913at3193.hmm Pine_final_annotations_no_contam_lvl0.faa 
# Current dir:     /labs/Wegrzyn/Juniper_Pine/BUSCO/NEW
# Date:            Thu Aug  6 14:44:07 2020
# [ok]
