#                                                                                                                  --- full sequence --- -------------- this domain -------------   hmm coord   ali coord   env coord
# target name                                              accession   tlen query name           accession   qlen   E-value  score  bias   #  of  c-Evalue  i-Evalue  score  bias  from    to  from    to  from    to  acc description of target
#                                      ------------------- ---------- ----- -------------------- ---------- ----- --------- ------ ----- --- --- --------- --------- ------ ----- ----- ----- ----- ----- ----- ----- ---- ---------------------
PC3J_TRINITY_DN26064_c0_g1_i1.p1PC3J_TRINITY_DN26064_c0_g1 -            153 151619at3193         -            204   1.4e-10   43.1   0.0   1   1   6.1e-14   2.4e-10   42.3   0.0    68   163     5    96     2   104 0.85 -
PC2A_TRINITY_DN22673_c0_g1_i1.p1PC2A_TRINITY_DN22673_c0_g1 -            147 151619at3193         -            204   1.6e-10   42.9   0.0   1   1   5.8e-14   2.3e-10   42.4   0.0    81   163     8    85     1    91 0.79 -
PC1J_TRINITY_DN40732_c1_g8_i1.p1PC1J_TRINITY_DN40732_c1_g8 -            104 151619at3193         -            204   2.4e-08   35.8   0.0   1   1   7.4e-12   2.9e-08   35.5   0.0   116   163    30    78    19    84 0.85 -
PC3J_TRINITY_DN22500_c0_g1_i1.p1PC3J_TRINITY_DN22500_c0_g1 -            135 151619at3193         -            204   2.6e-06   29.2   0.1   1   1     1e-09   4.2e-06   28.5   0.1     4    56    67   129    65   135 0.82 -
PC3A_TRINITY_DN32289_c0_g1_i1.p1PC3A_TRINITY_DN32289_c0_g1 -            108 151619at3193         -            204   3.1e-06   28.9   0.0   1   1   9.2e-10   3.7e-06   28.7   0.0   123   163    35    77    18    84 0.87 -
PC2J_TRINITY_DN45892_c2_g4_i4.p2PC2J_TRINITY_DN45892_c2_g4 -            123 151619at3193         -            204   1.3e-05   26.9   1.5   1   1   3.4e-08   0.00014   23.5   1.5     8    74    18   103    12   123 0.60 -
PC2J_TRINITY_DN7425_c0_g1_i1.p1PC2J_TRINITY_DN7425_c0_g1   -            164 151619at3193         -            204    0.0089   17.6   0.0   1   1   2.8e-06     0.011   17.3   0.0    37   144    23   134    20   163 0.76 -
PC2J_TRINITY_DN45446_c2_g1_i1.p1PC2J_TRINITY_DN45446_c2_g1 -            106 151619at3193         -            204     0.019   16.5   0.1   1   1   7.5e-06      0.03   15.9   0.1     5    36    62    94    59   100 0.82 -
PC1J_TRINITY_DN35125_c1_g6_i1.p1PC1J_TRINITY_DN35125_c1_g6 -            122 151619at3193         -            204     0.051   15.1   0.0   1   1   1.4e-05     0.055   15.0   0.0    36    93    22    76    10   105 0.89 -
PC1A_TRINITY_DN42072_c1_g2_i1.p1PC1A_TRINITY_DN42072_c1_g2 -            182 151619at3193         -            204       0.2   13.2   0.1   1   2   0.00012      0.47   12.0   0.0    33    93    14    79     2    92 0.73 -
PC1A_TRINITY_DN42072_c1_g2_i1.p1PC1A_TRINITY_DN42072_c1_g2 -            182 151619at3193         -            204       0.2   13.2   0.1   2   2       2.1   8.5e+03   -1.9   0.2    17    28   121   133   103   145 0.69 -
PC1J_TRINITY_DN35676_c0_g1_i2.p1PC1J_TRINITY_DN35676_c0_g1 -            362 151619at3193         -            204      0.23   13.0   0.2   1   2   0.00013       0.5   11.9   0.0     9    92   113   198   108   211 0.72 -
PC1J_TRINITY_DN35676_c0_g1_i2.p1PC1J_TRINITY_DN35676_c0_g1 -            362 151619at3193         -            204      0.23   13.0   0.2   2   2       4.9     2e+04   -3.1   0.2    17    27   255   266   238   277 0.63 -
PC1J_TRINITY_DN35125_c1_g6_i3.p1PC1J_TRINITY_DN35125_c1_g6 -            336 151619at3193         -            204      0.31   12.6   0.0   1   1   0.00014      0.56   11.7   0.0    36    93    22    76    11    97 0.90 -
PC3A_TRINITY_DN43149_c3_g1_i1.p1PC3A_TRINITY_DN43149_c3_g1 -            185 151619at3193         -            204      0.35   12.4   0.0   1   2     0.007        28    6.2   0.0    70   134    30    94     7   104 0.80 -
PC3A_TRINITY_DN43149_c3_g1_i1.p1PC3A_TRINITY_DN43149_c3_g1 -            185 151619at3193         -            204      0.35   12.4   0.0   2   2     0.024        96    4.5   0.0    46   104   125   183   120   184 0.92 -
PC3J_TRINITY_DN44217_c1_g3_i2.p1PC3J_TRINITY_DN44217_c1_g3 -            343 151619at3193         -            204      0.47   12.0   0.0   1   1    0.0002      0.79   11.3   0.0    20    76   155   212   144   234 0.84 -
PC1A_TRINITY_DN18715_c0_g1_i1.p1PC1A_TRINITY_DN18715_c0_g1 -            191 151619at3193         -            204      0.49   11.9   0.0   1   1   0.00015      0.61   11.6   0.0   119   144   108   133    50   145 0.90 -
PC2J_TRINITY_DN42021_c1_g2_i5.p1PC2J_TRINITY_DN42021_c1_g2 -            331 151619at3193         -            204      0.54   11.8   0.0   1   1   0.00021      0.84   11.2   0.0    20    76   143   200   132   222 0.85 -
#
# Program:         hmmsearch
# Version:         3.2.1 (June 2018)
# Pipeline mode:   SEARCH
# Query file:      /isg/shared/databases/BUSCO/odb10/embryophyta_odb10/hmms/151619at3193.hmm
# Target file:     Pine_final_annotations_no_contam_lvl0.faa
# Option settings: /usr/local/bin/hmmsearch --domtblout /labs/Wegrzyn/Juniper_Pine/BUSCO/NEW/busco_pine/run_embryophyta_odb10/hmmer_output/151619at3193.out --cpu 1 /isg/shared/databases/BUSCO/odb10/embryophyta_odb10/hmms/151619at3193.hmm Pine_final_annotations_no_contam_lvl0.faa 
# Current dir:     /labs/Wegrzyn/Juniper_Pine/BUSCO/NEW
# Date:            Thu Aug  6 14:44:10 2020
# [ok]
