#                                                                                                                   --- full sequence --- -------------- this domain -------------   hmm coord   ali coord   env coord
# target name                                               accession   tlen query name           accession   qlen   E-value  score  bias   #  of  c-Evalue  i-Evalue  score  bias  from    to  from    to  from    to  acc description of target
#                                       ------------------- ---------- ----- -------------------- ---------- ----- --------- ------ ----- --- --- --------- --------- ------ ----- ----- ----- ----- ----- ----- ----- ---- ---------------------
PC1J_TRINITY_DN6164_c0_g1_i2.p1PC1J_TRINITY_DN6164_c0_g1    -            203 151650at3193         -            193   6.9e-36  125.3   0.2   1   1   1.9e-38   1.1e-35  124.6   0.2    56   183     1   148     1   151 0.84 -
PC2J_TRINITY_DN46114_c4_g2_i9.p1PC2J_TRINITY_DN46114_c4_g2  -            109 151650at3193         -            193   3.3e-08   35.0   2.7   1   1   6.9e-11   4.1e-08   34.7   2.7     2    45    11    55    10    66 0.91 -
PC1J_TRINITY_DN37583_c4_g1_i1.p1PC1J_TRINITY_DN37583_c4_g1  -            248 151650at3193         -            193   6.8e-07   30.8   3.6   1   1   1.7e-09     1e-06   30.2   3.6     2    50    55   105    54   125 0.76 -
PC1A_TRINITY_DN42564_c1_g1_i8.p1PC1A_TRINITY_DN42564_c1_g1  -            215 151650at3193         -            193   1.5e-06   29.6   4.0   1   1   3.6e-09   2.1e-06   29.1   4.0     2    43    29    71    28    79 0.92 -
PC1A_TRINITY_DN26030_c0_g1_i1.p1PC1A_TRINITY_DN26030_c0_g1  -            248 151650at3193         -            193   1.7e-06   29.5   5.7   1   1     5e-09   2.9e-06   28.7   5.7     2    41    38    75    37    98 0.87 -
PC2J_TRINITY_DN9271_c0_g1_i1.p1PC2J_TRINITY_DN9271_c0_g1    -            143 151650at3193         -            193   1.9e-06   29.3   2.5   1   1   5.1e-09     3e-06   28.6   2.5     2    44    77   119    76   140 0.87 -
PC1J_TRINITY_DN40900_c2_g1_i4.p1PC1J_TRINITY_DN40900_c2_g1  -            342 151650at3193         -            193   2.4e-06   28.9   3.2   1   1   8.3e-09   4.9e-06   28.0   3.2     2    50    72   121    71   138 0.81 -
PC2J_TRINITY_DN40450_c2_g3_i5.p1PC2J_TRINITY_DN40450_c2_g3  -            239 151650at3193         -            193   3.1e-05   25.3   2.0   1   1   7.1e-08   4.2e-05   24.9   2.0     2    43    44    86    43   100 0.88 -
PC2A_TRINITY_DN30925_c1_g1_i1.p1PC2A_TRINITY_DN30925_c1_g1  -            101 151650at3193         -            193   4.1e-05   24.9   2.3   1   1     9e-08   5.3e-05   24.6   2.3     2    43    28    70    27    80 0.82 -
PC2A_TRINITY_DN33043_c5_g1_i1.p1PC2A_TRINITY_DN33043_c5_g1  -            117 151650at3193         -            193     5e-05   24.7   0.3   1   1   1.3e-07   7.6e-05   24.1   0.3    10    45    10    46     5    57 0.84 -
PC1J_TRINITY_DN33758_c0_g4_i1.p1PC1J_TRINITY_DN33758_c0_g4  -            184 151650at3193         -            193   6.2e-05   24.3   1.3   1   1   1.4e-07   8.5e-05   23.9   1.3     2    43    28    70    27    86 0.83 -
PC1J_TRINITY_DN33932_c0_g1_i3.p1PC1J_TRINITY_DN33932_c0_g1  -            281 151650at3193         -            193   0.00036   21.9   0.5   1   1   1.1e-06   0.00064   21.0   0.5     2    49    22    71    21    90 0.86 -
PC1J_TRINITY_DN38448_c1_g2_i4.p1PC1J_TRINITY_DN38448_c1_g2  -            292 151650at3193         -            193   0.00045   21.5   1.2   1   1   1.2e-06   0.00068   21.0   1.2     1    45   229   274   229   286 0.87 -
PC1J_TRINITY_DN33965_c3_g2_i5.p1PC1J_TRINITY_DN33965_c3_g2  -            200 151650at3193         -            193   0.00055   21.3   1.5   1   1   1.4e-06   0.00081   20.7   1.5     2    47   130   179   129   193 0.80 -
PC3J_TRINITY_DN21733_c0_g2_i1.p1PC3J_TRINITY_DN21733_c0_g2  -            106 151650at3193         -            193   0.00062   21.1   5.2   1   1   1.3e-06   0.00076   20.8   5.2     2    43    63   105    62   106 0.81 -
PC1A_TRINITY_DN23644_c0_g1_i1.p1PC1A_TRINITY_DN23644_c0_g1  -            101 151650at3193         -            193   0.00064   21.1   5.0   1   1   1.4e-06   0.00084   20.7   5.0     1    43    29    77    29    97 0.67 -
PC2A_TRINITY_DN30003_c0_g3_i1.p1PC2A_TRINITY_DN30003_c0_g3  -            112 151650at3193         -            193   0.00069   20.9   3.6   1   1   1.5e-06   0.00091   20.6   3.6     1    46    51   102    51   110 0.81 -
PC1J_TRINITY_DN35855_c0_g1_i2.p1PC1J_TRINITY_DN35855_c0_g1  -            179 151650at3193         -            193   0.00075   20.8   3.3   1   1   2.1e-06    0.0012   20.1   3.3     1    42    65   107    65   112 0.85 -
PC2J_TRINITY_DN46569_c0_g1_i1.p1PC2J_TRINITY_DN46569_c0_g1  -            255 151650at3193         -            193   0.00087   20.6   1.4   1   1   2.7e-06    0.0016   19.8   1.4     2    45    67   112    66   128 0.85 -
PC1J_TRINITY_DN32592_c0_g1_i1.p1PC1J_TRINITY_DN32592_c0_g1  -            187 151650at3193         -            193   0.00092   20.5   0.5   1   2     0.052        31    5.8   0.0    24    47     1    22     1    35 0.77 -
PC1J_TRINITY_DN32592_c0_g1_i1.p1PC1J_TRINITY_DN32592_c0_g1  -            187 151650at3193         -            193   0.00092   20.5   0.5   2   2   0.00027      0.16   13.2   0.1    95   128   146   179   127   187 0.82 -
PC2J_TRINITY_DN40572_c4_g2_i1.p1PC2J_TRINITY_DN40572_c4_g2  -            117 151650at3193         -            193   0.00094   20.5   2.0   1   1   2.1e-06    0.0012   20.1   2.0     2    44    18    61    17    68 0.83 -
PC1J_TRINITY_DN38084_c0_g2_i2.p1PC1J_TRINITY_DN38084_c0_g2  -            147 151650at3193         -            193   0.00096   20.5   3.4   1   1   2.6e-06    0.0015   19.8   3.4     2    43    71   110    70   121 0.92 -
PC1A_TRINITY_DN37362_c0_g1_i1.p1PC1A_TRINITY_DN37362_c0_g1  -            251 151650at3193         -            193    0.0011   20.3   1.0   1   1   2.8e-06    0.0016   19.7   1.0    15    45     4    35     2    45 0.87 -
PC1A_TRINITY_DN15973_c0_g1_i1.p1PC1A_TRINITY_DN15973_c0_g1  -            181 151650at3193         -            193    0.0014   19.9   1.4   1   1   3.3e-06    0.0019   19.5   1.4     2    43   131   174   130   178 0.83 -
PC3J_TRINITY_DN48839_c4_g2_i5.p1PC3J_TRINITY_DN48839_c4_g2  -            105 151650at3193         -            193    0.0015   19.9   3.2   1   1   3.1e-06    0.0018   19.6   3.2     2    44    42    85    41    95 0.85 -
PC1A_TRINITY_DN42469_c7_g1_i6.p1PC1A_TRINITY_DN42469_c7_g1  -            265 151650at3193         -            193    0.0018   19.5   6.8   1   1   4.6e-06    0.0027   19.0   6.8     1    50   207   255   207   258 0.85 -
PC1A_TRINITY_DN16237_c0_g1_i1.p1PC1A_TRINITY_DN16237_c0_g1  -            184 151650at3193         -            193    0.0019   19.5   2.0   1   1   5.1e-06     0.003   18.8   2.0     2    44    24    67    23    74 0.83 -
PC2J_TRINITY_DN44455_c2_g1_i11.p1PC2J_TRINITY_DN44455_c2_g1 -            341 151650at3193         -            193    0.0021   19.3   3.3   1   1   5.8e-06    0.0034   18.7   3.3     1    42    97   139    97   144 0.85 -
PC1A_TRINITY_DN41250_c0_g5_i3.p1PC1A_TRINITY_DN41250_c0_g5  -            202 151650at3193         -            193    0.0021   19.3   1.5   1   1   5.1e-06     0.003   18.8   1.5     2    47    64   111    63   118 0.84 -
PC3J_TRINITY_DN41900_c2_g2_i1.p1PC3J_TRINITY_DN41900_c2_g2  -            114 151650at3193         -            193    0.0023   19.2   2.0   1   1   4.8e-06    0.0028   19.0   2.0     2    44    45    89    44   106 0.83 -
PC1J_TRINITY_DN34958_c1_g2_i1.p1PC1J_TRINITY_DN34958_c1_g2  -            120 151650at3193         -            193    0.0031   18.8   2.3   1   1   8.5e-06     0.005   18.1   2.3     2    43    67   107    66   110 0.90 -
PC2A_TRINITY_DN30543_c1_g2_i1.p1PC2A_TRINITY_DN30543_c1_g2  -            276 151650at3193         -            193    0.0068   17.7   1.2   1   1   1.7e-05    0.0098   17.2   1.2     2    51   112   163   111   172 0.81 -
PC1J_TRINITY_DN32365_c0_g1_i1.p1PC1J_TRINITY_DN32365_c0_g1  -            150 151650at3193         -            193    0.0068   17.7   1.3   1   1   1.5e-05     0.009   17.3   1.3     2    44    74   117    73   127 0.88 -
PC2J_TRINITY_DN35607_c1_g2_i8.p1PC2J_TRINITY_DN35607_c1_g2  -            243 151650at3193         -            193    0.0077   17.5   3.5   1   1     2e-05     0.012   16.9   3.5     2    44   171   214   170   222 0.85 -
PC3A_TRINITY_DN40324_c6_g1_i1.p1PC3A_TRINITY_DN40324_c6_g1  -            111 151650at3193         -            193    0.0079   17.5   3.5   1   1   1.7e-05    0.0099   17.2   3.5     2    44    32    77    31    94 0.85 -
PC1J_TRINITY_DN37780_c1_g8_i1.p1PC1J_TRINITY_DN37780_c1_g8  -            141 151650at3193         -            193    0.0085   17.4   2.5   1   1     2e-05     0.012   16.9   2.5     2    45    90   134    89   136 0.84 -
PC1A_TRINITY_DN42402_c0_g1_i3.p1PC1A_TRINITY_DN42402_c0_g1  -            156 151650at3193         -            193    0.0091   17.3   3.2   1   1   1.9e-05     0.011   17.0   3.2     2    44    65   110    64   134 0.86 -
PC3J_TRINITY_DN22146_c0_g1_i1.p1PC3J_TRINITY_DN22146_c0_g1  -            151 151650at3193         -            193    0.0096   17.2   2.5   1   1   2.3e-05     0.013   16.7   2.5     2    43    28    71    27    75 0.83 -
PC2A_TRINITY_DN29461_c0_g2_i8.p1PC2A_TRINITY_DN29461_c0_g2  -            144 151650at3193         -            193      0.01   17.2   1.6   1   1     2e-05     0.012   16.9   1.6     2    44    55    95    54   127 0.88 -
PC2A_TRINITY_DN31492_c1_g5_i3.p1PC2A_TRINITY_DN31492_c1_g5  -            213 151650at3193         -            193      0.01   17.2   1.0   1   1   2.2e-05     0.013   16.8   1.0     2    44    72   115    71   130 0.88 -
PC1A_TRINITY_DN45913_c0_g1_i1.p1PC1A_TRINITY_DN45913_c0_g1  -            139 151650at3193         -            193      0.01   17.1   2.0   1   1   2.6e-05     0.015   16.6   2.0     1    44    84   130    84   134 0.81 -
PC1A_TRINITY_DN44561_c4_g7_i1.p1PC1A_TRINITY_DN44561_c4_g7  -            131 151650at3193         -            193     0.013   16.8   4.2   1   1   2.9e-05     0.017   16.4   4.2     2    43    38    77    37    90 0.90 -
PC3A_TRINITY_DN38787_c1_g1_i1.p1PC3A_TRINITY_DN38787_c1_g1  -            232 151650at3193         -            193     0.015   16.6   0.7   1   1   3.2e-05     0.019   16.2   0.7     2    45   155   200   154   224 0.80 -
PC3J_TRINITY_DN38438_c0_g1_i2.p1PC3J_TRINITY_DN38438_c0_g1  -            111 151650at3193         -            193     0.015   16.6   4.2   1   1   4.1e-05     0.024   15.9   4.2    15    44    73   102    57   106 0.82 -
PC3A_TRINITY_DN43507_c3_g5_i1.p1PC3A_TRINITY_DN43507_c3_g5  -            127 151650at3193         -            193     0.015   16.5   2.4   1   1   4.3e-05     0.025   15.8   2.4     1    44    61   106    61   111 0.81 -
PC1J_TRINITY_DN37923_c1_g1_i1.p1PC1J_TRINITY_DN37923_c1_g1  -            201 151650at3193         -            193     0.016   16.5   4.1   1   1   3.7e-05     0.022   16.0   4.1     1    44    29    76    29    84 0.81 -
PC3J_TRINITY_DN41229_c0_g3_i1.p1PC3J_TRINITY_DN41229_c0_g3  -            187 151650at3193         -            193     0.016   16.5   4.0   1   1   4.1e-05     0.024   15.9   4.0     2    43    86   125    85   138 0.89 -
PC2A_TRINITY_DN35585_c2_g1_i2.p1PC2A_TRINITY_DN35585_c2_g1  -            346 151650at3193         -            193     0.016   16.5   3.7   1   1   4.1e-05     0.024   15.9   3.7     2    44   274   317   273   324 0.85 -
PC1A_TRINITY_DN39891_c1_g6_i2.p1PC1A_TRINITY_DN39891_c1_g6  -            102 151650at3193         -            193     0.016   16.5   2.1   1   1   3.7e-05     0.022   16.0   2.1     2    44    24    64    23    67 0.92 -
PC1J_TRINITY_DN39997_c1_g1_i1.p1PC1J_TRINITY_DN39997_c1_g1  -            236 151650at3193         -            193     0.022   16.0   3.9   1   1     5e-05      0.03   15.6   3.9     1    44   183   232   183   235 0.81 -
PC1J_TRINITY_DN20868_c0_g1_i3.p1PC1J_TRINITY_DN20868_c0_g1  -            187 151650at3193         -            193     0.023   16.0   4.4   1   1   5.3e-05     0.031   15.5   4.4     1    49    91   142    91   160 0.82 -
PC1J_TRINITY_DN41413_c1_g2_i3.p1PC1J_TRINITY_DN41413_c1_g2  -            140 151650at3193         -            193     0.024   15.9   2.1   1   1   5.8e-05     0.034   15.4   2.1     2    44    26    70    25    74 0.83 -
PC2J_TRINITY_DN41111_c0_g4_i2.p1PC2J_TRINITY_DN41111_c0_g4  -            110 151650at3193         -            193     0.025   15.8   0.7   1   1     5e-05     0.029   15.6   0.7     1    44    21    69    21    92 0.80 -
PC2J_TRINITY_DN41060_c1_g1_i6.p1PC2J_TRINITY_DN41060_c1_g1  -            341 151650at3193         -            193     0.029   15.7   2.3   1   1   4.9e-05     0.029   15.7   2.3     2    43   288   328   287   331 0.90 -
PC3J_TRINITY_DN49140_c2_g3_i1.p1PC3J_TRINITY_DN49140_c2_g3  -            111 151650at3193         -            193      0.03   15.6   0.0   1   1     6e-05     0.035   15.4   0.0    13    49    20    54    13    74 0.87 -
PC1A_TRINITY_DN26359_c0_g1_i1.p1PC1A_TRINITY_DN26359_c0_g1  -            202 151650at3193         -            193     0.038   15.3   7.3   1   1   9.4e-05     0.056   14.7   7.3     2    44   149   192   148   196 0.84 -
PC1J_TRINITY_DN33436_c0_g1_i1.p1PC1J_TRINITY_DN33436_c0_g1  -            225 151650at3193         -            193     0.038   15.3   8.9   1   1   9.4e-05     0.056   14.7   8.9     1    44   177   218   177   224 0.89 -
PC2A_TRINITY_DN34638_c1_g5_i2.p1PC2A_TRINITY_DN34638_c1_g5  -            159 151650at3193         -            193     0.038   15.3   5.0   1   1   8.8e-05     0.052   14.8   5.0     2    43    94   138    93   145 0.84 -
PC1J_TRINITY_DN39120_c0_g3_i3.p1PC1J_TRINITY_DN39120_c0_g3  -            221 151650at3193         -            193      0.04   15.2   1.1   1   1   9.4e-05     0.055   14.7   1.1     2    44   168   212   167   216 0.82 -
PC2J_TRINITY_DN36760_c1_g4_i2.p1PC2J_TRINITY_DN36760_c1_g4  -            202 151650at3193         -            193     0.041   15.2   1.7   1   1   0.00011     0.063   14.6   1.7     2    44   144   188   143   200 0.84 -
PC3J_TRINITY_DN43471_c0_g2_i2.p1PC3J_TRINITY_DN43471_c0_g2  -            196 151650at3193         -            193     0.041   15.1   2.5   1   1   0.00011     0.064   14.5   2.5     1    44   119   164   119   168 0.81 -
PC1J_TRINITY_DN39997_c1_g2_i2.p1PC1J_TRINITY_DN39997_c1_g2  -            232 151650at3193         -            193     0.043   15.1   4.7   1   1   0.00011     0.064   14.5   4.7     1    44   172   221   172   227 0.79 -
PC1A_TRINITY_DN40770_c2_g1_i10.p1PC1A_TRINITY_DN40770_c2_g1 -            435 151650at3193         -            193     0.048   14.9   6.7   1   1   0.00012      0.07   14.4   6.7     1    41    32    73    32    79 0.85 -
PC1J_TRINITY_DN34831_c2_g7_i1.p1PC1J_TRINITY_DN34831_c2_g7  -            191 151650at3193         -            193      0.05   14.9   1.9   1   1   0.00013     0.076   14.3   1.9     2    43   111   154   110   165 0.83 -
PC2J_TRINITY_DN36989_c1_g1_i5.p1PC2J_TRINITY_DN36989_c1_g1  -            184 151650at3193         -            193     0.054   14.8   7.6   1   1   0.00012     0.068   14.4   7.6     1    43    40    85    40   116 0.85 -
PC2J_TRINITY_DN39917_c1_g1_i1.p1PC2J_TRINITY_DN39917_c1_g1  -            130 151650at3193         -            193     0.055   14.7   8.1   1   1   0.00013     0.074   14.3   8.1     2    42    45    88    44    92 0.83 -
PC1J_TRINITY_DN37923_c1_g1_i7.p1PC1J_TRINITY_DN37923_c1_g1  -            528 151650at3193         -            193     0.057   14.7   4.1   1   1   0.00016     0.094   14.0   4.1     1    44    15    62    15    70 0.81 -
PC3A_TRINITY_DN39549_c0_g1_i12.p1PC3A_TRINITY_DN39549_c0_g1 -            486 151650at3193         -            193     0.063   14.6   1.7   1   1   0.00018       0.1   13.8   1.7     2    44   199   239   198   270 0.90 -
PC1J_TRINITY_DN34831_c2_g3_i1.p1PC1J_TRINITY_DN34831_c2_g3  -            211 151650at3193         -            193     0.071   14.4   4.0   1   1   0.00018      0.11   13.8   4.0     2    44   108   152   107   155 0.83 -
PC3A_TRINITY_DN1504_c0_g1_i1.p1PC3A_TRINITY_DN1504_c0_g1    -            131 151650at3193         -            193     0.077   14.3   3.6   1   2     0.014         8    7.7   0.3    16    44     7    37     4    45 0.82 -
PC3A_TRINITY_DN1504_c0_g1_i1.p1PC3A_TRINITY_DN1504_c0_g1    -            131 151650at3193         -            193     0.077   14.3   3.6   2   2     0.013       7.8    7.7   0.3    16    44    69    99    65   107 0.83 -
PC2J_TRINITY_DN44491_c1_g1_i14.p1PC2J_TRINITY_DN44491_c1_g1 -            406 151650at3193         -            193     0.081   14.2   1.7   1   1   0.00022      0.13   13.5   1.7     1    44    80   127    80   131 0.80 -
PC1J_TRINITY_DN31433_c0_g2_i1.p1PC1J_TRINITY_DN31433_c0_g2  -            305 151650at3193         -            193     0.084   14.1   2.5   1   1   0.00022      0.13   13.5   2.5     1    44    59   104    59   108 0.81 -
PC3J_TRINITY_DN42434_c2_g3_i1.p1PC3J_TRINITY_DN42434_c2_g3  -            148 151650at3193         -            193     0.099   13.9   2.5   1   1   0.00022      0.13   13.5   2.5     1    44    30    75    30    78 0.79 -
PC3J_TRINITY_DN24146_c0_g1_i1.p1PC3J_TRINITY_DN24146_c0_g1  -            204 151650at3193         -            193       0.1   13.9   1.1   1   2   0.00017       0.1   13.9   1.1     2    44    16    66    15    97 0.71 -
PC3J_TRINITY_DN24146_c0_g1_i1.p1PC3J_TRINITY_DN24146_c0_g1  -            204 151650at3193         -            193       0.1   13.9   1.1   2   2      0.86   5.1e+02    1.8   3.9     3    28   109   135   104   154 0.82 -
PC3A_TRINITY_DN15639_c0_g1_i2.p1PC3A_TRINITY_DN15639_c0_g1  -            138 151650at3193         -            193      0.11   13.8   3.9   1   1   0.00024      0.14   13.4   3.9     2    43    92   135    91   138 0.82 -
PC3A_TRINITY_DN45053_c0_g1_i1.p1PC3A_TRINITY_DN45053_c0_g1  -            158 151650at3193         -            193      0.11   13.7   6.9   1   1   0.00033      0.19   13.0   6.9     2    43   107   155   106   157 0.79 -
PC3J_TRINITY_DN51150_c0_g1_i1.p1PC3J_TRINITY_DN51150_c0_g1  -            114 151650at3193         -            193      0.14   13.4   3.5   1   1   0.00028      0.17   13.2   3.5     2    44    13    57    12    69 0.81 -
PC2J_TRINITY_DN41015_c0_g5_i1.p1PC2J_TRINITY_DN41015_c0_g5  -            167 151650at3193         -            193      0.16   13.2   1.8   1   1   0.00039      0.23   12.7   1.8     2    44   103   146   102   149 0.85 -
PC1A_TRINITY_DN43122_c0_g1_i3.p1PC1A_TRINITY_DN43122_c0_g1  -            125 151650at3193         -            193      0.17   13.1   0.1   1   1   0.00041      0.24   12.6   0.1    24    62    67   106    63   120 0.72 -
PC2J_TRINITY_DN45584_c1_g1_i19.p1PC2J_TRINITY_DN45584_c1_g1 -            245 151650at3193         -            193      0.19   13.0   0.2   1   1   0.00051       0.3   12.3   0.2    13    49   189   223   179   232 0.83 -
PC1A_TRINITY_DN40243_c5_g1_i1.p1PC1A_TRINITY_DN40243_c5_g1  -            156 151650at3193         -            193      0.21   12.9   2.3   1   1   0.00059      0.35   12.1   2.3     2    43   108   150   107   154 0.81 -
PC2J_TRINITY_DN41427_c6_g1_i1.p1PC2J_TRINITY_DN41427_c6_g1  -            160 151650at3193         -            193      0.21   12.8   0.0   1   1   0.00046      0.27   12.5   0.0    24    63     7    47     5    89 0.72 -
PC2J_TRINITY_DN45789_c2_g4_i3.p1PC2J_TRINITY_DN45789_c2_g4  -            157 151650at3193         -            193      0.22   12.8   1.6   1   1    0.0005      0.29   12.4   1.6     2    44    79   124    78   136 0.82 -
PC3A_TRINITY_DN38750_c2_g3_i1.p1PC3A_TRINITY_DN38750_c2_g3  -            151 151650at3193         -            193      0.31   12.3   6.6   1   1   0.00069      0.41   11.9   6.6     2    43    98   141    97   144 0.84 -
PC3J_TRINITY_DN35460_c0_g1_i1.p1PC3J_TRINITY_DN35460_c0_g1  -            139 151650at3193         -            193      0.32   12.2   0.9   1   1   0.00082      0.48   11.7   0.9     2    31   107   136   106   139 0.92 -
PC3A_TRINITY_DN34554_c0_g1_i1.p1PC3A_TRINITY_DN34554_c0_g1  -            123 151650at3193         -            193      0.32   12.2   3.6   1   1   0.00071      0.42   11.9   3.6     2    41    57   100    56   118 0.77 -
PC1A_TRINITY_DN42961_c2_g1_i1.p1PC1A_TRINITY_DN42961_c2_g1  -            173 151650at3193         -            193      0.34   12.2   0.4   1   1   0.00085       0.5   11.6   0.4     1    46    17    65    17    78 0.83 -
PC2A_TRINITY_DN28751_c1_g1_i1.p1PC2A_TRINITY_DN28751_c1_g1  -            107 151650at3193         -            193       0.4   11.9   0.4   1   1    0.0011      0.66   11.2   0.0    24    48     2    27     1    43 0.87 -
PC3J_TRINITY_DN15404_c0_g1_i1.p1PC3J_TRINITY_DN15404_c0_g1  -            138 151650at3193         -            193      0.48   11.7   2.2   1   1    0.0011      0.64   11.3   2.2     2    43    92   134    91   137 0.79 -
PC3J_TRINITY_DN33628_c0_g1_i1.p1PC3J_TRINITY_DN33628_c0_g1  -            118 151650at3193         -            193      0.57   11.4   4.4   1   1    0.0014       0.8   10.9   4.4     2    46    65   109    64   117 0.89 -
PC1A_TRINITY_DN44521_c1_g4_i1.p1PC1A_TRINITY_DN44521_c1_g4  -            534 151650at3193         -            193      0.61   11.3   1.8   1   1    0.0016      0.95   10.7   1.8     2    44   470   513   469   516 0.85 -
PC1J_TRINITY_DN39035_c3_g1_i1.p1PC1J_TRINITY_DN39035_c3_g1  -            325 151650at3193         -            193      0.68   11.2   6.8   1   1    0.0019       1.1   10.5   6.8     2    44   270   313   269   320 0.82 -
PC3A_TRINITY_DN40973_c6_g1_i1.p1PC3A_TRINITY_DN40973_c6_g1  -            190 151650at3193         -            193      0.69   11.1   5.7   1   1    0.0018       1.1   10.5   5.7     1    31    36    67    36    84 0.90 -
PC2A_TRINITY_DN28794_c0_g1_i8.p1PC2A_TRINITY_DN28794_c0_g1  -            163 151650at3193         -            193      0.72   11.1   2.8   1   1    0.0018         1   10.6   2.8     2    42    54    93    53   102 0.83 -
PC3A_TRINITY_DN42043_c3_g1_i1.p1PC3A_TRINITY_DN42043_c3_g1  -            360 151650at3193         -            193      0.99   10.6   5.2   1   1    0.0028       1.7    9.9   5.2     2    33    99   131    98   154 0.72 -
PC1J_TRINITY_DN37402_c0_g2_i2.p1PC1J_TRINITY_DN37402_c0_g2  -            181 151650at3193         -            193         1   10.6   2.8   1   1    0.0026       1.5   10.0   2.8     2    42   137   178   136   180 0.78 -
PC2J_TRINITY_DN38736_c1_g6_i6.p1PC2J_TRINITY_DN38736_c1_g6  -            108 151650at3193         -            193       1.1   10.5   5.4   1   1    0.0022       1.3   10.2   5.4     2    43    43    87    42    96 0.83 -
PC1J_TRINITY_DN40874_c1_g5_i1.p1PC1J_TRINITY_DN40874_c1_g5  -            243 151650at3193         -            193       1.1   10.5  12.4   1   2       6.8     4e+03   -1.1   0.1     6    30    12    35     9    48 0.76 -
PC1J_TRINITY_DN40874_c1_g5_i1.p1PC1J_TRINITY_DN40874_c1_g5  -            243 151650at3193         -            193       1.1   10.5  12.4   2   2   0.00069      0.41   11.9   9.2     1    43    65   110    65   127 0.84 -
PC2J_TRINITY_DN36403_c4_g1_i4.p1PC2J_TRINITY_DN36403_c4_g1  -            188 151650at3193         -            193       1.1   10.5   4.5   1   1    0.0034         2    9.6   4.5     2    53   121   177   120   184 0.70 -
PC1J_TRINITY_DN39131_c2_g1_i2.p1PC1J_TRINITY_DN39131_c2_g1  -            452 151650at3193         -            193       1.2   10.4   0.6   1   1    0.0034         2    9.6   0.6     2    43   193   236   192   241 0.88 -
PC3J_TRINITY_DN37235_c0_g1_i1.p1PC3J_TRINITY_DN37235_c0_g1  -            101 151650at3193         -            193       1.9    9.8   2.3   1   1    0.0042       2.5    9.4   2.3     2    42    41    82    40    86 0.84 -
PC2J_TRINITY_DN3_c0_g1_i1.p1PC2J_TRINITY_DN3_c0_g1          -            120 151650at3193         -            193       2.1    9.6   7.3   1   1    0.0048       2.8    9.1   7.3     2    38    40    76    39    85 0.76 -
PC3J_TRINITY_DN48619_c4_g1_i10.p1PC3J_TRINITY_DN48619_c4_g1 -            369 151650at3193         -            193       2.4    9.4   2.8   1   1    0.0067       3.9    8.7   2.8     2    42    96   135    95   143 0.83 -
PC3J_TRINITY_DN31585_c0_g1_i1.p1PC3J_TRINITY_DN31585_c0_g1  -            112 151650at3193         -            193       2.5    9.3   5.0   1   1    0.0055       3.3    8.9   5.0     1    28    76   106    76   111 0.78 -
PC3J_TRINITY_DN39202_c1_g5_i8.p1PC3J_TRINITY_DN39202_c1_g5  -            332 151650at3193         -            193       2.5    9.3   7.6   1   1    0.0063       3.7    8.8   7.6     2    42   291   332   290   332 0.84 -
PC3J_TRINITY_DN49362_c0_g1_i40.p1PC3J_TRINITY_DN49362_c0_g1 -            113 151650at3193         -            193       2.8    9.2   8.8   1   1    0.0067       3.9    8.7   8.8     2    41    55    94    54   108 0.75 -
PC2J_TRINITY_DN33886_c0_g1_i1.p1PC2J_TRINITY_DN33886_c0_g1  -            111 151650at3193         -            193       3.6    8.8   3.6   1   1    0.0074       4.4    8.5   3.6     2    44     9    52     8    60 0.84 -
PC2J_TRINITY_DN34525_c0_g1_i1.p1PC2J_TRINITY_DN34525_c0_g1  -            231 151650at3193         -            193       9.3    7.5  22.5   1   3     0.001      0.61   11.3   3.3     2    31    16    46    15    67 0.83 -
PC2J_TRINITY_DN34525_c0_g1_i1.p1PC2J_TRINITY_DN34525_c0_g1  -            231 151650at3193         -            193       9.3    7.5  22.5   2   3       7.1   4.2e+03   -1.2   0.4    10    31   124   145   118   154 0.72 -
PC2J_TRINITY_DN34525_c0_g1_i1.p1PC2J_TRINITY_DN34525_c0_g1  -            231 151650at3193         -            193       9.3    7.5  22.5   3   3     0.021        12    7.1   4.5    15    43   197   225   179   230 0.85 -
#
# Program:         hmmsearch
# Version:         3.2.1 (June 2018)
# Pipeline mode:   SEARCH
# Query file:      /isg/shared/databases/BUSCO/odb10/embryophyta_odb10/hmms/151650at3193.hmm
# Target file:     Pine_final_annotations_no_contam_lvl0.faa
# Option settings: /usr/local/bin/hmmsearch --domtblout /labs/Wegrzyn/Juniper_Pine/BUSCO/NEW/busco_pine/run_embryophyta_odb10/hmmer_output/151650at3193.out --cpu 1 /isg/shared/databases/BUSCO/odb10/embryophyta_odb10/hmms/151650at3193.hmm Pine_final_annotations_no_contam_lvl0.faa 
# Current dir:     /labs/Wegrzyn/Juniper_Pine/BUSCO/NEW
# Date:            Thu Aug  6 14:44:10 2020
# [ok]
