#                                                                                                                  --- full sequence --- -------------- this domain -------------   hmm coord   ali coord   env coord
# target name                                              accession   tlen query name           accession   qlen   E-value  score  bias   #  of  c-Evalue  i-Evalue  score  bias  from    to  from    to  from    to  acc description of target
#                                      ------------------- ---------- ----- -------------------- ---------- ----- --------- ------ ----- --- --- --------- --------- ------ ----- ----- ----- ----- ----- ----- ----- ---- ---------------------
PC1J_TRINITY_DN42873_c0_g1_i1.p2PC1J_TRINITY_DN42873_c0_g1 -            107 152036at3193         -            236     4e-27   97.1   0.1   1   1     3e-31   4.9e-27   96.8   0.1    54   141     1   100     1   105 0.89 -
PC3J_TRINITY_DN6802_c0_g1_i1.p1PC3J_TRINITY_DN6802_c0_g1   -            111 152036at3193         -            236   6.3e-07   31.0   0.0   1   1   4.7e-11   7.5e-07   30.8   0.0    52   155     3   107     1   110 0.85 -
PC1J_TRINITY_DN42299_c0_g1_i1.p1PC1J_TRINITY_DN42299_c0_g1 -            150 152036at3193         -            236      0.26   12.6   0.0   1   2       0.5     8e+03   -2.1   0.0   208   233    34    59    30    62 0.82 -
PC1J_TRINITY_DN42299_c0_g1_i1.p1PC1J_TRINITY_DN42299_c0_g1 -            150 152036at3193         -            236      0.26   12.6   0.0   2   2   3.5e-05      0.56   11.5   0.0    51   120    66   139    51   142 0.80 -
PC2A_TRINITY_DN34050_c3_g1_i3.p1PC2A_TRINITY_DN34050_c3_g1 -            101 152036at3193         -            236      0.73   11.1   0.0   1   2       0.4   6.5e+03   -1.8   0.0    27    45     5    23     2    30 0.73 -
PC2A_TRINITY_DN34050_c3_g1_i3.p1PC2A_TRINITY_DN34050_c3_g1 -            101 152036at3193         -            236      0.73   11.1   0.0   2   2   0.00011       1.7    9.9   0.0     9    52    44    87    38    96 0.87 -
#
# Program:         hmmsearch
# Version:         3.2.1 (June 2018)
# Pipeline mode:   SEARCH
# Query file:      /isg/shared/databases/BUSCO/odb10/embryophyta_odb10/hmms/152036at3193.hmm
# Target file:     Pine_final_annotations_no_contam_lvl0.faa
# Option settings: /usr/local/bin/hmmsearch --domtblout /labs/Wegrzyn/Juniper_Pine/BUSCO/NEW/busco_pine/run_embryophyta_odb10/hmmer_output/152036at3193.out --cpu 1 /isg/shared/databases/BUSCO/odb10/embryophyta_odb10/hmms/152036at3193.hmm Pine_final_annotations_no_contam_lvl0.faa 
# Current dir:     /labs/Wegrzyn/Juniper_Pine/BUSCO/NEW
# Date:            Thu Aug  6 14:44:17 2020
# [ok]
