#                                                                                                                  --- full sequence --- -------------- this domain -------------   hmm coord   ali coord   env coord
# target name                                              accession   tlen query name           accession   qlen   E-value  score  bias   #  of  c-Evalue  i-Evalue  score  bias  from    to  from    to  from    to  acc description of target
#                                      ------------------- ---------- ----- -------------------- ---------- ----- --------- ------ ----- --- --- --------- --------- ------ ----- ----- ----- ----- ----- ----- ----- ---- ---------------------
PC1A_TRINITY_DN34116_c1_g1_i1.p1PC1A_TRINITY_DN34116_c1_g1 -            377 152399at3193         -            330  6.3e-127  425.1   0.0   1   1  1.3e-130  9.2e-127  424.6   0.0    22   329     1   360     1   361 0.91 -
PC1J_TRINITY_DN40172_c4_g1_i2.p1PC1J_TRINITY_DN40172_c4_g1 -            173 152399at3193         -            330   2.2e-60  206.4   0.1   1   1   3.8e-64   2.7e-60  206.1   0.1   108   233    10   135     5   146 0.95 -
PC3A_TRINITY_DN42684_c5_g2_i1.p1PC3A_TRINITY_DN42684_c5_g2 -            147 152399at3193         -            330   2.6e-32  114.2   0.0   1   1   4.6e-36   3.2e-32  113.8   0.0     1    80    44   133    44   140 0.92 -
PC2A_TRINITY_DN31310_c3_g1_i4.p1PC2A_TRINITY_DN31310_c3_g1 -            254 152399at3193         -            330   1.4e-09   39.5   0.1   1   1   2.7e-13   1.9e-09   39.0   0.1   103   229    85   215    10   222 0.76 -
PC1A_TRINITY_DN39493_c0_g1_i1.p1PC1A_TRINITY_DN39493_c0_g1 -            509 152399at3193         -            330   1.4e-08   36.2   0.0   1   3     0.014        97    3.8   0.0     1    25    30    54    30    73 0.82 -
PC1A_TRINITY_DN39493_c0_g1_i1.p1PC1A_TRINITY_DN39493_c0_g1 -            509 152399at3193         -            330   1.4e-08   36.2   0.0   2   3   2.8e-10     2e-06   29.1   0.0   104   188   137   214   101   231 0.82 -
PC1A_TRINITY_DN39493_c0_g1_i1.p1PC1A_TRINITY_DN39493_c0_g1 -            509 152399at3193         -            330   1.4e-08   36.2   0.0   3   3      0.52   3.7e+03   -1.4   0.0   289   307   384   402   374   422 0.78 -
PC3J_TRINITY_DN41843_c0_g7_i1.p1PC3J_TRINITY_DN41843_c0_g7 -            280 152399at3193         -            330   3.2e-08   35.0   0.0   1   1   1.7e-11   1.2e-07   33.1   0.0     1   188    36   224    36   235 0.74 -
PC2A_TRINITY_DN31310_c3_g1_i3.p1PC2A_TRINITY_DN31310_c3_g1 -            189 152399at3193         -            330   8.9e-05   23.6   0.0   1   1   1.6e-08   0.00011   23.3   0.0   165   229    87   150    62   161 0.86 -
PC1A_TRINITY_DN2961_c0_g2_i1.p1PC1A_TRINITY_DN2961_c0_g2   -            153 152399at3193         -            330      0.33   11.9   0.0   1   1   5.5e-05      0.39   11.7   0.0   127   188    39    99    23   120 0.81 -
PC2J_TRINITY_DN35591_c0_g1_i1.p1PC2J_TRINITY_DN35591_c0_g1 -            133 152399at3193         -            330      0.38   11.7   0.0   1   1   6.7e-05      0.47   11.4   0.0   181   242    12    73     5    89 0.89 -
#
# Program:         hmmsearch
# Version:         3.2.1 (June 2018)
# Pipeline mode:   SEARCH
# Query file:      /isg/shared/databases/BUSCO/odb10/embryophyta_odb10/hmms/152399at3193.hmm
# Target file:     Pine_final_annotations_no_contam_lvl0.faa
# Option settings: /usr/local/bin/hmmsearch --domtblout /labs/Wegrzyn/Juniper_Pine/BUSCO/NEW/busco_pine/run_embryophyta_odb10/hmmer_output/152399at3193.out --cpu 1 /isg/shared/databases/BUSCO/odb10/embryophyta_odb10/hmms/152399at3193.hmm Pine_final_annotations_no_contam_lvl0.faa 
# Current dir:     /labs/Wegrzyn/Juniper_Pine/BUSCO/NEW
# Date:            Thu Aug  6 14:44:39 2020
# [ok]
