#                                                                                                                  --- full sequence --- -------------- this domain -------------   hmm coord   ali coord   env coord
# target name                                              accession   tlen query name           accession   qlen   E-value  score  bias   #  of  c-Evalue  i-Evalue  score  bias  from    to  from    to  from    to  acc description of target
#                                      ------------------- ---------- ----- -------------------- ---------- ----- --------- ------ ----- --- --- --------- --------- ------ ----- ----- ----- ----- ----- ----- ----- ---- ---------------------
PC2J_TRINITY_DN43831_c0_g1_i9.p1PC2J_TRINITY_DN43831_c0_g1 -            199 154116at3193         -            200   8.9e-78  262.0   2.3   1   1   5.5e-81   1.2e-76  258.3   2.3    15   183     1   198     1   199 0.91 -
PC1A_TRINITY_DN12318_c0_g1_i1.p1PC1A_TRINITY_DN12318_c0_g1 -            103 154116at3193         -            200     0.061   14.4   1.0   1   2    0.0004       8.6    7.4   0.1     5    39    20    54    16    66 0.73 -
PC1A_TRINITY_DN12318_c0_g1_i1.p1PC1A_TRINITY_DN12318_c0_g1 -            103 154116at3193         -            200     0.061   14.4   1.0   2   2   0.00079        17    6.4   0.1     5    28    68    91    63   102 0.71 -
PC3A_TRINITY_DN5827_c0_g1_i1.p1PC3A_TRINITY_DN5827_c0_g1   -            154 154116at3193         -            200       0.3   12.2   0.4   1   2    0.0086   1.8e+02    3.1   0.0   148   176     3    31     2    42 0.83 -
PC3A_TRINITY_DN5827_c0_g1_i1.p1PC3A_TRINITY_DN5827_c0_g1   -            154 154116at3193         -            200       0.3   12.2   0.4   2   2   0.00046       9.8    7.2   0.1   142   176    55    89    44   101 0.82 -
#
# Program:         hmmsearch
# Version:         3.2.1 (June 2018)
# Pipeline mode:   SEARCH
# Query file:      /isg/shared/databases/BUSCO/odb10/embryophyta_odb10/hmms/154116at3193.hmm
# Target file:     Pine_final_annotations_no_contam_lvl0.faa
# Option settings: /usr/local/bin/hmmsearch --domtblout /labs/Wegrzyn/Juniper_Pine/BUSCO/NEW/busco_pine/run_embryophyta_odb10/hmmer_output/154116at3193.out --cpu 1 /isg/shared/databases/BUSCO/odb10/embryophyta_odb10/hmms/154116at3193.hmm Pine_final_annotations_no_contam_lvl0.faa 
# Current dir:     /labs/Wegrzyn/Juniper_Pine/BUSCO/NEW
# Date:            Thu Aug  6 14:44:52 2020
# [ok]
