#                                                                                                                  --- full sequence --- -------------- this domain -------------   hmm coord   ali coord   env coord
# target name                                              accession   tlen query name           accession   qlen   E-value  score  bias   #  of  c-Evalue  i-Evalue  score  bias  from    to  from    to  from    to  acc description of target
#                                      ------------------- ---------- ----- -------------------- ---------- ----- --------- ------ ----- --- --- --------- --------- ------ ----- ----- ----- ----- ----- ----- ----- ---- ---------------------
PC1A_TRINITY_DN38499_c0_g1_i1.p1PC1A_TRINITY_DN38499_c0_g1 -            280 155352at3193         -            244   5.5e-68  230.4   0.0   1   1   9.8e-72   7.8e-68  229.9   0.0    50   241    81   273    74   275 0.97 -
PC3A_TRINITY_DN4597_c0_g1_i1.p1PC3A_TRINITY_DN4597_c0_g1   -            124 155352at3193         -            244   7.5e-56  190.7   0.7   1   1     1e-59   8.2e-56  190.5   0.7   123   244     2   123     1   123 0.99 -
PC1J_TRINITY_DN12662_c0_g1_i1.p1PC1J_TRINITY_DN12662_c0_g1 -            111 155352at3193         -            244   5.9e-24   86.2   0.6   1   1   8.8e-28   7.1e-24   86.0   0.6     6    68    48   111    44   111 0.94 -
PC2A_TRINITY_DN29492_c5_g1_i3.p1PC2A_TRINITY_DN29492_c5_g1 -            195 155352at3193         -            244   0.00046   21.1   4.5   1   2    0.0003       2.4    8.9   0.2    20    79     6    62     1    73 0.82 -
PC2A_TRINITY_DN29492_c5_g1_i3.p1PC2A_TRINITY_DN29492_c5_g1 -            195 155352at3193         -            244   0.00046   21.1   4.5   2   2   6.5e-06     0.052   14.4   0.7    12    79    82   146    71   194 0.83 -
PC2J_TRINITY_DN42579_c1_g2_i5.p1PC2J_TRINITY_DN42579_c1_g2 -            254 155352at3193         -            244       0.1   13.4   1.1   1   1   1.9e-05      0.15   12.9   1.1    12    92   131   207   120   241 0.75 -
PC2J_TRINITY_DN42579_c1_g2_i6.p1PC2J_TRINITY_DN42579_c1_g2 -            167 155352at3193         -            244      0.15   12.8   0.7   1   1   2.6e-05       0.2   12.4   0.7    12    79    80   144    69   158 0.82 -
PC2J_TRINITY_DN35578_c0_g1_i3.p1PC2J_TRINITY_DN35578_c0_g1 -            166 155352at3193         -            244      0.23   12.3   2.2   1   1   3.7e-05       0.3   11.9   2.2    12    93    76   154    49   161 0.85 -
PC3A_TRINITY_DN37519_c1_g2_i6.p1PC3A_TRINITY_DN37519_c1_g2 -            298 155352at3193         -            244      0.78   10.5   2.2   1   1   0.00016       1.3    9.8   2.2    12    82   215   282   203   294 0.80 -
#
# Program:         hmmsearch
# Version:         3.2.1 (June 2018)
# Pipeline mode:   SEARCH
# Query file:      /isg/shared/databases/BUSCO/odb10/embryophyta_odb10/hmms/155352at3193.hmm
# Target file:     Pine_final_annotations_no_contam_lvl0.faa
# Option settings: /usr/local/bin/hmmsearch --domtblout /labs/Wegrzyn/Juniper_Pine/BUSCO/NEW/busco_pine/run_embryophyta_odb10/hmmer_output/155352at3193.out --cpu 1 /isg/shared/databases/BUSCO/odb10/embryophyta_odb10/hmms/155352at3193.hmm Pine_final_annotations_no_contam_lvl0.faa 
# Current dir:     /labs/Wegrzyn/Juniper_Pine/BUSCO/NEW
# Date:            Thu Aug  6 14:44:59 2020
# [ok]
