#                                                                                                                  --- full sequence --- -------------- this domain -------------   hmm coord   ali coord   env coord
# target name                                              accession   tlen query name           accession   qlen   E-value  score  bias   #  of  c-Evalue  i-Evalue  score  bias  from    to  from    to  from    to  acc description of target
#                                      ------------------- ---------- ----- -------------------- ---------- ----- --------- ------ ----- --- --- --------- --------- ------ ----- ----- ----- ----- ----- ----- ----- ---- ---------------------
PC3A_TRINITY_DN44118_c3_g1_i1.p1PC3A_TRINITY_DN44118_c3_g1 -            279 157013at3193         -            142   1.7e-77  259.8   1.3   1   1   2.4e-81   2.2e-77  259.5   0.8     9   142   132   265   124   265 0.96 -
PC1A_TRINITY_DN41580_c1_g2_i5.p1PC1A_TRINITY_DN41580_c1_g2 -            200 157013at3193         -            142   7.4e-59  199.4   2.7   1   1   1.3e-62   1.1e-58  198.8   2.3     9   116    40   147    16   156 0.94 -
PC2A_TRINITY_DN27957_c0_g1_i2.p1PC2A_TRINITY_DN27957_c0_g1 -            140 157013at3193         -            142   8.1e-58  196.1   0.2   1   1     1e-61   9.5e-58  195.8   0.2    47   140    33   126     3   128 0.90 -
PC2A_TRINITY_DN27957_c0_g1_i6.p1PC2A_TRINITY_DN27957_c0_g1 -            108 157013at3193         -            142   1.6e-53  182.1   0.1   1   1   2.1e-57   1.9e-53  181.9   0.1    59   142    21   104    17   104 0.99 -
PC3J_TRINITY_DN38972_c0_g1_i2.p1PC3J_TRINITY_DN38972_c0_g1 -            104 157013at3193         -            142   1.5e-52  179.0   0.1   1   1   1.9e-56   1.7e-52  178.8   0.1    60   142    18   100    12   100 0.97 -
PC1J_TRINITY_DN39206_c3_g1_i2.p1PC1J_TRINITY_DN39206_c3_g1 -            124 157013at3193         -            142     2e-38  133.2   6.5   1   2   5.1e-37   4.6e-33  115.8   4.6     9    79    32   102     8   103 0.94 -
PC1J_TRINITY_DN39206_c3_g1_i2.p1PC1J_TRINITY_DN39206_c3_g1 -            124 157013at3193         -            142     2e-38  133.2   6.5   2   2     6e-07    0.0054   18.3   0.0   124   142   102   120   102   120 0.96 -
PC2A_TRINITY_DN33676_c3_g1_i4.p1PC2A_TRINITY_DN33676_c3_g1 -            120 157013at3193         -            142     0.046   15.3   0.1   1   1     6e-06     0.055   15.1   0.1     8    73    21    87    14   104 0.76 -
#
# Program:         hmmsearch
# Version:         3.2.1 (June 2018)
# Pipeline mode:   SEARCH
# Query file:      /isg/shared/databases/BUSCO/odb10/embryophyta_odb10/hmms/157013at3193.hmm
# Target file:     Pine_final_annotations_no_contam_lvl0.faa
# Option settings: /usr/local/bin/hmmsearch --domtblout /labs/Wegrzyn/Juniper_Pine/BUSCO/NEW/busco_pine/run_embryophyta_odb10/hmmer_output/157013at3193.out --cpu 1 /isg/shared/databases/BUSCO/odb10/embryophyta_odb10/hmms/157013at3193.hmm Pine_final_annotations_no_contam_lvl0.faa 
# Current dir:     /labs/Wegrzyn/Juniper_Pine/BUSCO/NEW
# Date:            Thu Aug  6 14:45:09 2020
# [ok]
