#                                                                                                                  --- full sequence --- -------------- this domain -------------   hmm coord   ali coord   env coord
# target name                                              accession   tlen query name           accession   qlen   E-value  score  bias   #  of  c-Evalue  i-Evalue  score  bias  from    to  from    to  from    to  acc description of target
#                                      ------------------- ---------- ----- -------------------- ---------- ----- --------- ------ ----- --- --- --------- --------- ------ ----- ----- ----- ----- ----- ----- ----- ---- ---------------------
PC2A_TRINITY_DN30486_c0_g3_i1.p1PC2A_TRINITY_DN30486_c0_g3 -            273 157618at3193         -            212     7e-95  318.4  20.4   1   3   1.1e-12   3.4e-08   35.2   1.8     8    47    21    60    16    74 0.84 -
PC2A_TRINITY_DN30486_c0_g3_i1.p1PC2A_TRINITY_DN30486_c0_g3 -            273 157618at3193         -            212     7e-95  318.4  20.4   2   3   1.3e-84   4.3e-80  270.1   3.1    36   189    76   230    63   237 0.96 -
PC2A_TRINITY_DN30486_c0_g3_i1.p1PC2A_TRINITY_DN30486_c0_g3 -            273 157618at3193         -            212     7e-95  318.4  20.4   3   3   2.7e-09   8.8e-05   24.0   1.4   187   212   246   272   241   272 0.88 -
PC2J_TRINITY_DN38382_c0_g1_i8.p1PC2J_TRINITY_DN38382_c0_g1 -            155 157618at3193         -            212      0.55   11.6   0.0   1   2    0.0016        50    5.2   0.0    49    77    48    76    31    82 0.81 -
PC2J_TRINITY_DN38382_c0_g1_i8.p1PC2J_TRINITY_DN38382_c0_g1 -            155 157618at3193         -            212      0.55   11.6   0.0   2   2    0.0024        76    4.6   0.0    50    72   130   152   117   154 0.85 -
#
# Program:         hmmsearch
# Version:         3.2.1 (June 2018)
# Pipeline mode:   SEARCH
# Query file:      /isg/shared/databases/BUSCO/odb10/embryophyta_odb10/hmms/157618at3193.hmm
# Target file:     Pine_final_annotations_no_contam_lvl0.faa
# Option settings: /usr/local/bin/hmmsearch --domtblout /labs/Wegrzyn/Juniper_Pine/BUSCO/NEW/busco_pine/run_embryophyta_odb10/hmmer_output/157618at3193.out --cpu 1 /isg/shared/databases/BUSCO/odb10/embryophyta_odb10/hmms/157618at3193.hmm Pine_final_annotations_no_contam_lvl0.faa 
# Current dir:     /labs/Wegrzyn/Juniper_Pine/BUSCO/NEW
# Date:            Thu Aug  6 14:45:12 2020
# [ok]
