#                                                                                                                   --- full sequence --- -------------- this domain -------------   hmm coord   ali coord   env coord
# target name                                               accession   tlen query name           accession   qlen   E-value  score  bias   #  of  c-Evalue  i-Evalue  score  bias  from    to  from    to  from    to  acc description of target
#                                       ------------------- ---------- ----- -------------------- ---------- ----- --------- ------ ----- --- --- --------- --------- ------ ----- ----- ----- ----- ----- ----- ----- ---- ---------------------
PC3J_TRINITY_DN49258_c1_g2_i6.p1PC3J_TRINITY_DN49258_c1_g2  -            248 163007at3193         -            219   5.8e-98  328.7   1.0   1   1  5.8e-102   7.3e-98  328.3   1.0    12   215    17   230     7   233 0.95 -
PC3J_TRINITY_DN49258_c1_g2_i13.p1PC3J_TRINITY_DN49258_c1_g2 -            172 163007at3193         -            219   1.8e-55  189.8   6.4   1   2   2.9e-35   3.7e-31  110.3   1.4    12    90    17   100     8   100 0.91 -
PC3J_TRINITY_DN49258_c1_g2_i13.p1PC3J_TRINITY_DN49258_c1_g2 -            172 163007at3193         -            219   1.8e-55  189.8   6.4   2   2   2.6e-27   3.3e-23   84.3   0.1   161   215   100   154    98   157 0.97 -
PC3J_TRINITY_DN49258_c1_g2_i5.p1PC3J_TRINITY_DN49258_c1_g2  -            145 163007at3193         -            219   4.4e-52  178.7   0.6   1   2   1.7e-08   0.00022   22.8   0.1    82   101     1    20     1    21 0.91 -
PC3J_TRINITY_DN49258_c1_g2_i5.p1PC3J_TRINITY_DN49258_c1_g2  -            145 163007at3193         -            219   4.4e-52  178.7   0.6   2   2   3.7e-49   4.7e-45  155.7   0.1    52   161    20   139    18   143 0.91 -
PC2A_TRINITY_DN28458_c2_g1_i2.p1PC2A_TRINITY_DN28458_c2_g1  -            141 163007at3193         -            219   2.7e-47  163.0   0.1   1   1   2.7e-51   3.4e-47  162.7   0.1    42   154     5   125     3   130 0.94 -
PC3J_TRINITY_DN29720_c0_g1_i1.p1PC3J_TRINITY_DN29720_c0_g1  -            227 163007at3193         -            219   4.1e-06   28.4   0.0   1   1   4.4e-10   5.5e-06   28.0   0.0    15   169    65   225    51   227 0.73 -
#
# Program:         hmmsearch
# Version:         3.2.1 (June 2018)
# Pipeline mode:   SEARCH
# Query file:      /isg/shared/databases/BUSCO/odb10/embryophyta_odb10/hmms/163007at3193.hmm
# Target file:     Pine_final_annotations_no_contam_lvl0.faa
# Option settings: /usr/local/bin/hmmsearch --domtblout /labs/Wegrzyn/Juniper_Pine/BUSCO/NEW/busco_pine/run_embryophyta_odb10/hmmer_output/163007at3193.out --cpu 1 /isg/shared/databases/BUSCO/odb10/embryophyta_odb10/hmms/163007at3193.hmm Pine_final_annotations_no_contam_lvl0.faa 
# Current dir:     /labs/Wegrzyn/Juniper_Pine/BUSCO/NEW
# Date:            Thu Aug  6 14:45:45 2020
# [ok]
