#                                                                                                                   --- full sequence --- -------------- this domain -------------   hmm coord   ali coord   env coord
# target name                                               accession   tlen query name           accession   qlen   E-value  score  bias   #  of  c-Evalue  i-Evalue  score  bias  from    to  from    to  from    to  acc description of target
#                                       ------------------- ---------- ----- -------------------- ---------- ----- --------- ------ ----- --- --- --------- --------- ------ ----- ----- ----- ----- ----- ----- ----- ---- ---------------------
PC3J_TRINITY_DN43534_c0_g2_i6.p1PC3J_TRINITY_DN43534_c0_g2  -            193 167028at3193         -            184   2.5e-14   55.2   0.0   1   2   1.3e-07     9e-05   24.1   0.0     6    41    45    80    43    86 0.91 -
PC3J_TRINITY_DN43534_c0_g2_i6.p1PC3J_TRINITY_DN43534_c0_g2  -            193 167028at3193         -            184   2.5e-14   55.2   0.0   2   2   4.4e-09   3.2e-06   28.8   0.0     6    92    92   173    90   178 0.72 -
PC1J_TRINITY_DN41214_c1_g2_i2.p1PC1J_TRINITY_DN41214_c1_g2  -            276 167028at3193         -            184   3.4e-13   51.5   0.3   1   1   9.8e-16     7e-13   50.5   0.3     6    86    75   149    71   157 0.87 -
PC1A_TRINITY_DN42390_c3_g1_i1.p1PC1A_TRINITY_DN42390_c3_g1  -            105 167028at3193         -            184   3.6e-13   51.4   0.8   1   1   6.3e-16   4.5e-13   51.1   0.8     6    84    27    99    22   103 0.90 -
PC2A_TRINITY_DN26116_c0_g1_i1.p1PC2A_TRINITY_DN26116_c0_g1  -            278 167028at3193         -            184   4.9e-13   51.0   0.1   1   1   1.1e-15   7.7e-13   50.4   0.1     8    79    34    98    28   107 0.88 -
PC2A_TRINITY_DN29750_c0_g1_i1.p1PC2A_TRINITY_DN29750_c0_g1  -            142 167028at3193         -            184   9.5e-13   50.1   0.7   1   1   1.9e-15   1.3e-12   49.6   0.7     6    76    45   109    41   119 0.91 -
PC2A_TRINITY_DN9697_c0_g1_i1.p1PC2A_TRINITY_DN9697_c0_g1    -            122 167028at3193         -            184   1.5e-12   49.4   0.0   1   1   2.5e-15   1.8e-12   49.2   0.0     7    81     4    74     2   114 0.88 -
PC1J_TRINITY_DN40322_c1_g5_i2.p1PC1J_TRINITY_DN40322_c1_g5  -            230 167028at3193         -            184   2.6e-12   48.6   0.1   1   1   5.8e-15   4.2e-12   48.0   0.1     8    84   125   197   118   202 0.87 -
PC1A_TRINITY_DN43991_c1_g4_i3.p1PC1A_TRINITY_DN43991_c1_g4  -            113 167028at3193         -            184   2.8e-12   48.6   0.7   1   1   5.2e-15   3.7e-12   48.1   0.7     9    76     6    68     2    74 0.91 -
PC2A_TRINITY_DN33928_c2_g1_i1.p1PC2A_TRINITY_DN33928_c2_g1  -            145 167028at3193         -            184     3e-12   48.4   0.1   1   1   5.4e-15   3.9e-12   48.1   0.1     5    80    41   112    20   120 0.93 -
PC3A_TRINITY_DN39579_c0_g2_i2.p1PC3A_TRINITY_DN39579_c0_g2  -            179 167028at3193         -            184   4.2e-12   48.0   0.7   1   1   8.3e-15   5.9e-12   47.5   0.7     8    76    54   116    48   127 0.91 -
PC2J_TRINITY_DN37565_c2_g2_i8.p1PC2J_TRINITY_DN37565_c2_g2  -            449 167028at3193         -            184     5e-12   47.7   0.7   1   1   1.2e-14   8.9e-12   46.9   0.7     8    76    92   153    86   158 0.91 -
PC1J_TRINITY_DN34954_c4_g1_i4.p1PC1J_TRINITY_DN34954_c4_g1  -            149 167028at3193         -            184   5.1e-12   47.7   0.3   1   1   9.3e-15   6.7e-12   47.3   0.3     1    76     1    71     1    77 0.90 -
PC2J_TRINITY_DN36003_c1_g1_i2.p1PC2J_TRINITY_DN36003_c1_g1  -            203 167028at3193         -            184   5.9e-12   47.5   0.3   1   1   1.1e-14     8e-12   47.1   0.3     8    76    98   160    92   169 0.92 -
PC2J_TRINITY_DN41254_c0_g2_i5.p1PC2J_TRINITY_DN41254_c0_g2  -            141 167028at3193         -            184     6e-12   47.5   0.0   1   1   1.1e-14   7.7e-12   47.1   0.0     6   107    33   132    29   140 0.79 -
PC1J_TRINITY_DN40830_c2_g2_i3.p1PC1J_TRINITY_DN40830_c2_g2  -            218 167028at3193         -            184   7.3e-12   47.2   0.1   1   1     2e-14   1.4e-11   46.3   0.1     6    76    84   150    78   158 0.92 -
PC2A_TRINITY_DN36946_c0_g1_i1.p1PC2A_TRINITY_DN36946_c0_g1  -            117 167028at3193         -            184     1e-11   46.7   0.0   1   1   1.9e-14   1.4e-11   46.3   0.0     5    39    70   104    67   111 0.93 -
PC3A_TRINITY_DN35780_c0_g1_i4.p1PC3A_TRINITY_DN35780_c0_g1  -            201 167028at3193         -            184   1.1e-11   46.6   0.2   1   1   2.4e-14   1.7e-11   46.0   0.2     8    76     9    82     4    91 0.84 -
PC1A_TRINITY_DN43478_c0_g1_i1.p1PC1A_TRINITY_DN43478_c0_g1  -            218 167028at3193         -            184   1.9e-11   45.8   1.6   1   1   3.5e-14   2.5e-11   45.5   1.6     6   120    74   183    69   212 0.82 -
PC3A_TRINITY_DN39579_c0_g2_i4.p1PC3A_TRINITY_DN39579_c0_g2  -            219 167028at3193         -            184   1.9e-11   45.8   1.7   1   1   3.8e-14   2.7e-11   45.3   1.7     6    76    92   156    88   167 0.90 -
PC1A_TRINITY_DN39176_c0_g1_i1.p1PC1A_TRINITY_DN39176_c0_g1  -            197 167028at3193         -            184   1.9e-11   45.8   0.0   1   1   3.3e-14   2.4e-11   45.5   0.0     6   107    88   187    48   195 0.83 -
PC2A_TRINITY_DN29686_c3_g2_i8.p2PC2A_TRINITY_DN29686_c3_g2  -            119 167028at3193         -            184   3.4e-11   45.0   0.4   1   1   6.6e-14   4.8e-11   44.5   0.4     9    76     6    68     2    75 0.91 -
PC2A_TRINITY_DN29884_c0_g1_i1.p2PC2A_TRINITY_DN29884_c0_g1  -            131 167028at3193         -            184   3.9e-11   44.8   0.1   1   1   1.1e-13   7.7e-11   43.8   0.1     6    93    43   128    41   129 0.86 -
PC1A_TRINITY_DN38985_c0_g1_i4.p1PC1A_TRINITY_DN38985_c0_g1  -            132 167028at3193         -            184   1.1e-10   43.3   0.3   1   1   2.1e-13   1.5e-10   42.9   0.3     7    76    10    79     7    89 0.95 -
PC2A_TRINITY_DN32966_c2_g3_i4.p1PC2A_TRINITY_DN32966_c2_g3  -            171 167028at3193         -            184   1.8e-10   42.7   0.3   1   1   4.2e-13     3e-10   41.9   0.3     7    76    13    82    10    91 0.95 -
PC2A_TRINITY_DN32966_c2_g3_i3.p1PC2A_TRINITY_DN32966_c2_g3  -            175 167028at3193         -            184   2.1e-10   42.4   0.2   1   1   4.2e-13     3e-10   41.9   0.2     7    76    13    82    10    88 0.95 -
PC3A_TRINITY_DN27032_c0_g1_i2.p1PC3A_TRINITY_DN27032_c0_g1  -            168 167028at3193         -            184   2.9e-10   42.0   0.1   1   1   5.6e-13     4e-10   41.5   0.1     6    77    61   129    57   145 0.85 -
PC2J_TRINITY_DN44251_c1_g2_i2.p1PC2J_TRINITY_DN44251_c1_g2  -            117 167028at3193         -            184     5e-10   41.2   0.1   1   1     1e-12   7.4e-10   40.6   0.1     6    92    24   108    20   113 0.82 -
PC3J_TRINITY_DN42151_c2_g1_i5.p1PC3J_TRINITY_DN42151_c2_g1  -            145 167028at3193         -            184   5.1e-10   41.2   0.2   1   1   9.8e-13     7e-10   40.7   0.2     7    76    10    79     7    93 0.95 -
PC2J_TRINITY_DN41254_c0_g5_i1.p1PC2J_TRINITY_DN41254_c0_g5  -            152 167028at3193         -            184     8e-10   40.5   0.0   1   1   1.5e-12     1e-09   40.2   0.0     6    91    48   131    44   144 0.82 -
PC3J_TRINITY_DN38384_c0_g1_i2.p1PC3J_TRINITY_DN38384_c0_g1  -            141 167028at3193         -            184   8.8e-10   40.4   0.1   1   1   1.7e-12   1.2e-09   40.0   0.1     7    77    32    99    28   105 0.85 -
PC3J_TRINITY_DN10384_c0_g1_i1.p1PC3J_TRINITY_DN10384_c0_g1  -            276 167028at3193         -            184   8.8e-10   40.4   1.0   1   1   1.8e-12   1.3e-09   39.9   1.0     7    76     9    71     1    78 0.89 -
PC1J_TRINITY_DN38443_c0_g4_i1.p1PC1J_TRINITY_DN38443_c0_g4  -            119 167028at3193         -            184   8.9e-10   40.4   0.1   1   1   1.5e-12   1.1e-09   40.1   0.1     7    77    16    83    11   100 0.84 -
PC3A_TRINITY_DN37193_c1_g1_i4.p1PC3A_TRINITY_DN37193_c1_g1  -            180 167028at3193         -            184   1.5e-09   39.7   0.1   1   1     3e-12   2.2e-09   39.1   0.1     7    77    71   138    66   143 0.85 -
PC3J_TRINITY_DN44029_c0_g5_i1.p1PC3J_TRINITY_DN44029_c0_g5  -            134 167028at3193         -            184   2.1e-09   39.2   0.1   1   1   4.3e-12   3.1e-09   38.6   0.1     6    77    51   119    47   128 0.90 -
PC3J_TRINITY_DN44029_c0_g1_i4.p1PC3J_TRINITY_DN44029_c0_g1  -            109 167028at3193         -            184   9.4e-09   37.0   0.1   1   1   1.8e-11   1.3e-08   36.6   0.1     6    76    31    97    28   101 0.87 -
PC3J_TRINITY_DN46019_c0_g4_i1.p1PC3J_TRINITY_DN46019_c0_g4  -            113 167028at3193         -            184   1.3e-08   36.6   0.0   1   1     3e-11   2.2e-08   35.9   0.0     6    64    59   110    57   112 0.86 -
PC1A_TRINITY_DN39490_c1_g2_i2.p1PC1A_TRINITY_DN39490_c1_g2  -            149 167028at3193         -            184   1.4e-08   36.5   0.0   1   1   3.3e-11   2.3e-08   35.8   0.0     6    93    45   130    43   134 0.74 -
PC3J_TRINITY_DN44029_c0_g1_i3.p1PC3J_TRINITY_DN44029_c0_g1  -            130 167028at3193         -            184   1.5e-08   36.4   0.0   1   1   2.6e-11   1.9e-08   36.1   0.0     8    77    23    89    19   102 0.89 -
PC3J_TRINITY_DN44029_c0_g1_i5.p1PC3J_TRINITY_DN44029_c0_g1  -            128 167028at3193         -            184   1.5e-08   36.4   0.0   1   1   2.6e-11   1.9e-08   36.1   0.0     8    77    23    89    19   104 0.87 -
PC2J_TRINITY_DN44251_c1_g1_i1.p1PC2J_TRINITY_DN44251_c1_g1  -            103 167028at3193         -            184   2.2e-08   35.9   0.0   1   1   4.7e-11   3.4e-08   35.2   0.0     6    68    10    65     8    86 0.78 -
PC1A_TRINITY_DN39490_c1_g1_i2.p1PC1A_TRINITY_DN39490_c1_g1  -            195 167028at3193         -            184   2.8e-08   35.5   0.0   1   1   6.3e-11   4.5e-08   34.8   0.0     6    84    88   162    86   179 0.72 -
PC3J_TRINITY_DN44029_c0_g1_i2.p1PC3J_TRINITY_DN44029_c0_g1  -            163 167028at3193         -            184   3.1e-08   35.4   0.0   1   1     6e-11   4.3e-08   34.9   0.0     6    77    55   122    52   135 0.88 -
PC2J_TRINITY_DN37432_c2_g3_i2.p1PC2J_TRINITY_DN37432_c2_g3  -            101 167028at3193         -            184   4.1e-08   35.0   0.1   1   1   6.4e-11   4.6e-08   34.8   0.1     3    42    16    55    14    78 0.84 -
PC2J_TRINITY_DN38653_c1_g1_i16.p1PC2J_TRINITY_DN38653_c1_g1 -            134 167028at3193         -            184   4.5e-08   34.8   0.3   1   1   8.8e-11   6.3e-08   34.3   0.3     6    77    45   110    42   117 0.89 -
PC1J_TRINITY_DN34867_c1_g1_i1.p1PC1J_TRINITY_DN34867_c1_g1  -            239 167028at3193         -            184   9.5e-08   33.8   2.0   1   2   8.4e-06     0.006   18.1   0.1    16    55    16    57     2    61 0.77 -
PC1J_TRINITY_DN34867_c1_g1_i1.p1PC1J_TRINITY_DN34867_c1_g1  -            239 167028at3193         -            184   9.5e-08   33.8   2.0   2   2   7.3e-05     0.052   15.1   0.3    18    63    61    97    56   104 0.73 -
PC3A_TRINITY_DN41840_c0_g3_i1.p1PC3A_TRINITY_DN41840_c0_g3  -            130 167028at3193         -            184   1.1e-07   33.6   1.1   1   1   3.4e-10   2.5e-07   32.4   1.1     8    76    21    82    17    89 0.90 -
PC1J_TRINITY_DN38770_c5_g3_i1.p1PC1J_TRINITY_DN38770_c5_g3  -            156 167028at3193         -            184   1.4e-07   33.2   0.1   1   1   5.3e-10   3.8e-07   31.8   0.0     9    85    68   137    62   141 0.90 -
PC1A_TRINITY_DN43903_c1_g3_i2.p1PC1A_TRINITY_DN43903_c1_g3  -            168 167028at3193         -            184   1.7e-07   32.9   0.0   1   1   3.5e-10   2.5e-07   32.4   0.0     9    77    79   143    73   153 0.87 -
PC2A_TRINITY_DN29294_c2_g1_i1.p1PC2A_TRINITY_DN29294_c2_g1  -            205 167028at3193         -            184   2.4e-07   32.5   0.0   1   1   5.4e-10   3.9e-07   31.8   0.0     9    77   111   175   105   185 0.87 -
PC3A_TRINITY_DN37193_c1_g1_i2.p1PC3A_TRINITY_DN37193_c1_g1  -            107 167028at3193         -            184   7.9e-07   30.8   0.0   1   1   1.4e-09   9.9e-07   30.4   0.0     7    69    35    92    30   104 0.79 -
PC1J_TRINITY_DN41207_c2_g1_i22.p1PC1J_TRINITY_DN41207_c2_g1 -            101 167028at3193         -            184   9.1e-07   30.6   0.4   1   1   1.7e-09   1.2e-06   30.2   0.4    23    76     1    48     1    57 0.90 -
PC2A_TRINITY_DN34988_c1_g1_i1.p2PC2A_TRINITY_DN34988_c1_g1  -            145 167028at3193         -            184   9.4e-07   30.5   0.0   1   1   2.2e-09   1.6e-06   29.8   0.0     6    92    44   125    42   130 0.73 -
PC2A_TRINITY_DN34988_c1_g1_i14.p1PC2A_TRINITY_DN34988_c1_g1 -            190 167028at3193         -            184   1.1e-06   30.3   0.1   1   1   3.1e-09   2.2e-06   29.3   0.1     6    94    88   171    86   179 0.76 -
PC1A_TRINITY_DN43817_c4_g1_i12.p1PC1A_TRINITY_DN43817_c4_g1 -            180 167028at3193         -            184   1.6e-06   29.7   0.0   1   1   3.8e-09   2.7e-06   29.0   0.0     6    92    79   160    77   165 0.72 -
PC3A_TRINITY_DN42486_c1_g3_i1.p1PC3A_TRINITY_DN42486_c1_g3  -            131 167028at3193         -            184   4.4e-06   28.3   0.0   1   1   9.2e-09   6.6e-06   27.8   0.0     6    64    52   103    50   126 0.77 -
PC1A_TRINITY_DN41546_c0_g1_i14.p1PC1A_TRINITY_DN41546_c0_g1 -            458 167028at3193         -            184   4.4e-06   28.3   0.1   1   1   1.3e-08   9.2e-06   27.3   0.1     8    78    52   114    47   132 0.88 -
PC2J_TRINITY_DN43849_c2_g1_i19.p2PC2J_TRINITY_DN43849_c2_g1 -            105 167028at3193         -            184   4.8e-06   28.2   0.7   1   1   4.3e-08     3e-05   25.6   0.7     8    93    15    89     9    91 0.84 -
PC2J_TRINITY_DN41254_c0_g2_i2.p1PC2J_TRINITY_DN41254_c0_g2  -            130 167028at3193         -            184   5.9e-06   27.9   0.0   1   1   1.5e-08     1e-05   27.1   0.0     6    43    72   109    67   122 0.86 -
PC3J_TRINITY_DN45382_c0_g3_i1.p1PC3J_TRINITY_DN45382_c0_g3  -            100 167028at3193         -            184     7e-06   27.7   0.1   1   1   1.2e-08   8.6e-06   27.4   0.1     6    58    24    78    21    85 0.90 -
PC2A_TRINITY_DN30467_c4_g1_i1.p1PC2A_TRINITY_DN30467_c4_g1  -            215 167028at3193         -            184   7.2e-06   27.6   0.0   1   1     3e-08   2.1e-05   26.1   0.0     4    76    86   150    83   159 0.82 -
PC2A_TRINITY_DN35358_c1_g1_i1.p1PC2A_TRINITY_DN35358_c1_g1  -            114 167028at3193         -            184   1.1e-05   27.1   0.0   1   1   2.3e-08   1.6e-05   26.5   0.0     6    40    63    97    58   111 0.87 -
PC3A_TRINITY_DN35906_c2_g2_i8.p1PC3A_TRINITY_DN35906_c2_g2  -            154 167028at3193         -            184   1.5e-05   26.6   0.5   1   1     4e-08   2.8e-05   25.7   0.5     8    78     7    71     2    81 0.89 -
PC1A_TRINITY_DN42456_c3_g1_i1.p1PC1A_TRINITY_DN42456_c3_g1  -            110 167028at3193         -            184   3.3e-05   25.5   0.2   1   1   5.6e-08     4e-05   25.2   0.2     6    55    24    75    21    89 0.86 -
PC2J_TRINITY_DN42299_c0_g1_i2.p1PC2J_TRINITY_DN42299_c0_g1  -            236 167028at3193         -            184     4e-05   25.2   0.7   1   1   1.1e-07   8.1e-05   24.2   0.3     6    76   107   170   102   190 0.88 -
PC3J_TRINITY_DN44029_c0_g2_i1.p1PC3J_TRINITY_DN44029_c0_g2  -            121 167028at3193         -            184     4e-05   25.2   0.1   1   1   1.1e-07   8.2e-05   24.2   0.0     6    37    72   103    67   112 0.90 -
PC2A_TRINITY_DN32230_c0_g3_i3.p1PC2A_TRINITY_DN32230_c0_g3  -            119 167028at3193         -            184   4.8e-05   25.0   1.0   1   1   4.1e-07   0.00029   22.4   1.0     8    76    15    73     9    81 0.87 -
PC1A_TRINITY_DN44067_c3_g1_i3.p1PC1A_TRINITY_DN44067_c3_g1  -            350 167028at3193         -            184   5.7e-05   24.7   0.1   1   1     2e-07   0.00014   23.4   0.1     8    39    44    75    40   109 0.80 -
PC1J_TRINITY_DN34157_c2_g3_i1.p1PC1J_TRINITY_DN34157_c2_g3  -            130 167028at3193         -            184   6.4e-05   24.5   1.0   1   1   5.1e-07   0.00036   22.1   1.0     8    76    15    73     9    81 0.87 -
PC2J_TRINITY_DN35159_c0_g1_i2.p1PC2J_TRINITY_DN35159_c0_g1  -            187 167028at3193         -            184   7.8e-05   24.3   0.6   1   1   2.3e-07   0.00017   23.2   0.6    20    78    17    67    10    85 0.84 -
PC2A_TRINITY_DN29294_c2_g1_i7.p1PC2A_TRINITY_DN29294_c2_g1  -            184 167028at3193         -            184   9.7e-05   24.0   0.0   1   1   2.2e-07   0.00016   23.3   0.0     9    39   111   141   105   154 0.89 -
PC1A_TRINITY_DN41546_c0_g1_i15.p1PC1A_TRINITY_DN41546_c0_g1 -            113 167028at3193         -            184   0.00013   23.6   0.0   1   1   2.4e-07   0.00017   23.2   0.0     8    48    52    92    46    98 0.87 -
PC1A_TRINITY_DN41546_c0_g1_i9.p2PC1A_TRINITY_DN41546_c0_g1  -            110 167028at3193         -            184   0.00013   23.5   0.0   1   1   2.5e-07   0.00018   23.1   0.0     8    45    52    89    46    95 0.90 -
PC2A_TRINITY_DN35220_c0_g5_i2.p1PC2A_TRINITY_DN35220_c0_g5  -            104 167028at3193         -            184   0.00015   23.3   1.5   1   1   1.4e-06     0.001   20.6   1.5     8    76    14    72     8    80 0.87 -
PC2A_TRINITY_DN35358_c1_g2_i7.p1PC2A_TRINITY_DN35358_c1_g2  -            141 167028at3193         -            184   0.00022   22.8   0.1   1   1   4.7e-07   0.00033   22.2   0.1     6    38    74   106    70   112 0.92 -
PC2J_TRINITY_DN43849_c2_g1_i14.p1PC2J_TRINITY_DN43849_c2_g1 -            259 167028at3193         -            184   0.00034   22.2   1.0   1   1   2.2e-06    0.0016   20.0   1.0     8    76    15    73     9    80 0.87 -
PC2J_TRINITY_DN45607_c2_g1_i11.p1PC2J_TRINITY_DN45607_c2_g1 -            422 167028at3193         -            184   0.00095   20.7   1.2   1   1   6.3e-06    0.0045   18.5   1.2     8    76    14    72     9    80 0.87 -
PC3J_TRINITY_DN1597_c0_g1_i1.p1PC3J_TRINITY_DN1597_c0_g1    -            155 167028at3193         -            184     0.001   20.6   0.0   1   1   1.9e-06    0.0014   20.2   0.0     9    62    84   138    79   151 0.80 -
PC2J_TRINITY_DN41776_c0_g1_i16.p1PC2J_TRINITY_DN41776_c0_g1 -            107 167028at3193         -            184    0.0013   20.3   0.0   1   1   2.3e-06    0.0016   20.0   0.0    12    42    66    96    59   107 0.79 -
PC1A_TRINITY_DN40593_c5_g2_i1.p1PC1A_TRINITY_DN40593_c5_g2  -            399 167028at3193         -            184     0.003   19.1   0.4   1   1   8.6e-06    0.0061   18.1   0.4     8    79     7    72     2   157 0.74 -
PC2J_TRINITY_DN3592_c0_g1_i1.p1PC2J_TRINITY_DN3592_c0_g1    -            114 167028at3193         -            184    0.0039   18.7   0.1   1   1   7.6e-06    0.0054   18.3   0.1     8    36    86   114    78   114 0.90 -
PC2J_TRINITY_DN42253_c2_g2_i4.p1PC2J_TRINITY_DN42253_c2_g2  -            162 167028at3193         -            184    0.0065   18.0   0.0   1   1   1.4e-05      0.01   17.4   0.0    34    76    66   104    59   112 0.89 -
PC2A_TRINITY_DN35358_c1_g3_i2.p1PC2A_TRINITY_DN35358_c1_g3  -            138 167028at3193         -            184     0.011   17.3   0.0   1   1   2.1e-05     0.015   16.8   0.0     6    42    75   111    72   122 0.83 -
PC2A_TRINITY_DN35391_c1_g2_i2.p1PC2A_TRINITY_DN35391_c1_g2  -            100 167028at3193         -            184     0.013   17.0   0.0   1   1   2.8e-05      0.02   16.4   0.0     6    38    66    98    62   100 0.93 -
PC1A_TRINITY_DN42612_c4_g3_i1.p1PC1A_TRINITY_DN42612_c4_g3  -            163 167028at3193         -            184     0.018   16.5   0.3   1   1   3.7e-05     0.027   16.0   0.3    17    55   114   150    98   160 0.81 -
PC3A_TRINITY_DN17678_c0_g1_i1.p1PC3A_TRINITY_DN17678_c0_g1  -            135 167028at3193         -            184     0.033   15.7   0.0   1   1     9e-05     0.064   14.8   0.0     9    76    68   129    63   132 0.74 -
PC1A_TRINITY_DN44235_c3_g1_i6.p1PC1A_TRINITY_DN44235_c3_g1  -            663 167028at3193         -            184     0.084   14.4   0.1   1   1   0.00023      0.17   13.4   0.1    17    63   115   152   110   159 0.73 -
PC3J_TRINITY_DN43534_c0_g2_i3.p1PC3J_TRINITY_DN43534_c0_g2  -            100 167028at3193         -            184      0.15   13.6   0.0   1   1   0.00036      0.26   12.8   0.0     6    32    45    71    43    77 0.90 -
PC2J_TRINITY_DN37875_c0_g2_i3.p1PC2J_TRINITY_DN37875_c0_g2  -            365 167028at3193         -            184      0.17   13.4   0.0   1   1   0.00052      0.37   12.3   0.0     8    77   103   166    97   182 0.82 -
PC1J_TRINITY_DN34859_c3_g1_i5.p1PC1J_TRINITY_DN34859_c3_g1  -            130 167028at3193         -            184      0.31   12.5   1.0   1   2     0.052        37    5.8   0.1   112   131    12    31     2    51 0.81 -
PC1J_TRINITY_DN34859_c3_g1_i5.p1PC1J_TRINITY_DN34859_c3_g1  -            130 167028at3193         -            184      0.31   12.5   1.0   2   2     0.048        35    5.9   0.1   104   131    89   117    79   123 0.76 -
#
# Program:         hmmsearch
# Version:         3.2.1 (June 2018)
# Pipeline mode:   SEARCH
# Query file:      /isg/shared/databases/BUSCO/odb10/embryophyta_odb10/hmms/167028at3193.hmm
# Target file:     Pine_final_annotations_no_contam_lvl0.faa
# Option settings: /usr/local/bin/hmmsearch --domtblout /labs/Wegrzyn/Juniper_Pine/BUSCO/NEW/busco_pine/run_embryophyta_odb10/hmmer_output/167028at3193.out --cpu 1 /isg/shared/databases/BUSCO/odb10/embryophyta_odb10/hmms/167028at3193.hmm Pine_final_annotations_no_contam_lvl0.faa 
# Current dir:     /labs/Wegrzyn/Juniper_Pine/BUSCO/NEW
# Date:            Thu Aug  6 14:46:10 2020
# [ok]
