#                                                                                                                   --- full sequence --- -------------- this domain -------------   hmm coord   ali coord   env coord
# target name                                               accession   tlen query name           accession   qlen   E-value  score  bias   #  of  c-Evalue  i-Evalue  score  bias  from    to  from    to  from    to  acc description of target
#                                       ------------------- ---------- ----- -------------------- ---------- ----- --------- ------ ----- --- --- --------- --------- ------ ----- ----- ----- ----- ----- ----- ----- ---- ---------------------
PC1A_TRINITY_DN38572_c0_g2_i1.p1PC1A_TRINITY_DN38572_c0_g2  -            175 167614at3193         -            148   9.3e-59  199.4   6.5   1   2   1.7e-57   2.8e-54  184.9   1.8     1   126     1   131     1   147 0.94 -
PC1A_TRINITY_DN38572_c0_g2_i1.p1PC1A_TRINITY_DN38572_c0_g2  -            175 167614at3193         -            148   9.3e-59  199.4   6.5   2   2   5.8e-06    0.0097   17.7   0.3   124   148   148   174   130   174 0.76 -
PC1A_TRINITY_DN43478_c0_g1_i1.p1PC1A_TRINITY_DN43478_c0_g1  -            218 167614at3193         -            148   1.3e-05   27.0   0.2   1   1   1.3e-08   2.3e-05   26.2   0.2    11    78    71   139    64   159 0.84 -
PC3J_TRINITY_DN44029_c0_g1_i3.p1PC3J_TRINITY_DN44029_c0_g1  -            130 167614at3193         -            148   9.8e-05   24.2   0.0   1   1   7.3e-08   0.00012   23.8   0.0    28    82    38    90    20    94 0.85 -
PC2A_TRINITY_DN29686_c3_g2_i8.p2PC2A_TRINITY_DN29686_c3_g2  -            119 167614at3193         -            148   0.00015   23.6   0.4   1   1   1.1e-07   0.00019   23.2   0.4    13    78     2    66     1    72 0.81 -
PC3J_TRINITY_DN44029_c0_g1_i5.p1PC3J_TRINITY_DN44029_c0_g1  -            128 167614at3193         -            148   0.00029   22.6   0.0   1   1   2.1e-07   0.00036   22.3   0.0    28    84    38    92    20    96 0.85 -
PC3J_TRINITY_DN44029_c0_g5_i1.p1PC3J_TRINITY_DN44029_c0_g5  -            134 167614at3193         -            148   0.00083   21.2   0.5   1   1   7.6e-07    0.0013   20.5   0.5    24    79    64   117    39   122 0.81 -
PC1J_TRINITY_DN38443_c0_g4_i1.p1PC1J_TRINITY_DN38443_c0_g4  -            119 167614at3193         -            148    0.0012   20.7   0.2   1   1   7.8e-07    0.0013   20.5   0.2    26    78    30    80     3    86 0.84 -
PC3A_TRINITY_DN27032_c0_g1_i2.p1PC3A_TRINITY_DN27032_c0_g1  -            168 167614at3193         -            148    0.0016   20.2   0.2   1   1   1.4e-06    0.0023   19.7   0.2    24    78    74   126    48   132 0.84 -
PC3A_TRINITY_DN35780_c0_g1_i4.p1PC3A_TRINITY_DN35780_c0_g1  -            201 167614at3193         -            148    0.0018   20.0   0.1   1   1   1.5e-06    0.0024   19.6   0.1    16   122     9   122     5   144 0.69 -
PC1J_TRINITY_DN40830_c2_g2_i3.p1PC1J_TRINITY_DN40830_c2_g2  -            218 167614at3193         -            148    0.0025   19.6   0.0   1   1   2.1e-06    0.0036   19.1   0.0     8    78    78   148    70   161 0.82 -
PC3J_TRINITY_DN42151_c2_g1_i5.p1PC3J_TRINITY_DN42151_c2_g1  -            145 167614at3193         -            148    0.0039   19.0   0.3   1   1   2.9e-06    0.0049   18.7   0.3    15   127    10   126     5   135 0.64 -
PC1A_TRINITY_DN43991_c1_g4_i3.p1PC1A_TRINITY_DN43991_c1_g4  -            113 167614at3193         -            148    0.0043   18.8   0.8   1   1   3.1e-06    0.0053   18.5   0.8    13    78     2    66     1    72 0.80 -
PC3A_TRINITY_DN39579_c0_g2_i4.p1PC3A_TRINITY_DN39579_c0_g2  -            219 167614at3193         -            148    0.0054   18.5   1.1   1   1   4.9e-06    0.0083   17.9   1.1    13    78    91   154    86   160 0.83 -
PC3J_TRINITY_DN38384_c0_g1_i2.p1PC3J_TRINITY_DN38384_c0_g1  -            141 167614at3193         -            148    0.0063   18.3   0.1   1   1   5.3e-06    0.0089   17.8   0.1    15    78    32    96    22   103 0.80 -
PC3A_TRINITY_DN37193_c1_g1_i4.p1PC3A_TRINITY_DN37193_c1_g1  -            180 167614at3193         -            148     0.013   17.3   0.0   1   1   1.1e-05     0.018   16.8   0.0    17    78    73   135    58   142 0.81 -
PC2J_TRINITY_DN41254_c0_g2_i5.p1PC2J_TRINITY_DN41254_c0_g2  -            141 167614at3193         -            148     0.014   17.1   0.0   1   1   1.1e-05     0.019   16.7   0.0    16    82    35   102    30   107 0.77 -
PC3J_TRINITY_DN44029_c0_g1_i2.p1PC3J_TRINITY_DN44029_c0_g1  -            163 167614at3193         -            148     0.015   17.0   0.1   1   1   1.2e-05      0.02   16.7   0.1    27    82    71   123    35   127 0.83 -
PC2A_TRINITY_DN9697_c0_g1_i1.p1PC2A_TRINITY_DN9697_c0_g1    -            122 167614at3193         -            148      0.02   16.7   0.0   1   1   1.5e-05     0.025   16.3   0.0    27    78    19    67     4    89 0.79 -
PC2J_TRINITY_DN42299_c0_g1_i2.p1PC2J_TRINITY_DN42299_c0_g1  -            236 167614at3193         -            148     0.028   16.2   0.1   1   1   2.7e-05     0.045   15.5   0.1     5    74    98   164    93   181 0.73 -
PC1A_TRINITY_DN39176_c0_g1_i1.p1PC1A_TRINITY_DN39176_c0_g1  -            197 167614at3193         -            148     0.039   15.7   0.0   1   1   3.3e-05     0.056   15.2   0.0    16    82    90   157    84   162 0.77 -
PC3J_TRINITY_DN44029_c0_g1_i4.p1PC3J_TRINITY_DN44029_c0_g1  -            109 167614at3193         -            148     0.041   15.7   0.4   1   1   4.3e-05     0.071   14.9   0.3    27    78    47    95    29    97 0.82 -
PC1A_TRINITY_DN38985_c0_g1_i4.p1PC1A_TRINITY_DN38985_c0_g1  -            132 167614at3193         -            148     0.074   14.8   0.2   1   1   5.6e-05     0.094   14.5   0.2    15    78    10    77     5    96 0.73 -
PC2J_TRINITY_DN41254_c0_g5_i1.p1PC2J_TRINITY_DN41254_c0_g5  -            152 167614at3193         -            148     0.076   14.8   0.1   1   1   6.2e-05       0.1   14.3   0.1    24    84    61   119    45   123 0.78 -
PC3A_TRINITY_DN37193_c1_g1_i2.p1PC3A_TRINITY_DN37193_c1_g1  -            107 167614at3193         -            148      0.12   14.1   0.0   1   1     9e-05      0.15   13.8   0.0    15    74    35    93    21    98 0.85 -
PC1A_TRINITY_DN42390_c3_g1_i1.p1PC1A_TRINITY_DN42390_c3_g1  -            105 167614at3193         -            148      0.13   14.0   0.2   1   1   9.6e-05      0.16   13.7   0.2     8    78    18    89    14    99 0.75 -
PC3A_TRINITY_DN17678_c0_g1_i1.p1PC3A_TRINITY_DN17678_c0_g1  -            135 167614at3193         -            148      0.14   13.9   0.0   1   1   0.00015      0.24   13.1   0.0     8    85    59   134    55   135 0.72 -
PC1J_TRINITY_DN34954_c4_g1_i4.p1PC1J_TRINITY_DN34954_c4_g1  -            149 167614at3193         -            148      0.15   13.8   0.2   1   1   0.00012       0.2   13.4   0.2    27    78    22    69     5    74 0.82 -
PC1A_TRINITY_DN41546_c0_g1_i15.p1PC1A_TRINITY_DN41546_c0_g1 -            113 167614at3193         -            148      0.16   13.7   0.1   1   1   0.00014      0.23   13.2   0.0    14    47    50    86    41    93 0.81 -
PC1A_TRINITY_DN41546_c0_g1_i9.p2PC1A_TRINITY_DN41546_c0_g1  -            110 167614at3193         -            148      0.16   13.7   0.1   1   1   0.00016      0.27   13.0   0.0    14    47    50    86    41    88 0.80 -
PC2J_TRINITY_DN38653_c1_g1_i16.p1PC2J_TRINITY_DN38653_c1_g1 -            134 167614at3193         -            148      0.17   13.7   0.2   1   1   0.00014      0.23   13.2   0.2    13    80    44   109    39   125 0.78 -
PC2J_TRINITY_DN38084_c0_g1_i10.p1PC2J_TRINITY_DN38084_c0_g1 -            228 167614at3193         -            148      0.18   13.6   0.3   1   1   0.00016      0.26   13.0   0.3    52   125   147   218   143   225 0.78 -
PC2A_TRINITY_DN32966_c2_g3_i3.p1PC2A_TRINITY_DN32966_c2_g3  -            175 167614at3193         -            148      0.23   13.2   0.2   1   1   0.00019      0.31   12.8   0.2    15    78    13    80     8   100 0.79 -
PC3A_TRINITY_DN39579_c0_g2_i2.p1PC3A_TRINITY_DN39579_c0_g2  -            179 167614at3193         -            148      0.23   13.2   0.2   1   1    0.0002      0.34   12.7   0.2    15    78    53   114    49   120 0.82 -
PC1A_TRINITY_DN40593_c5_g2_i1.p1PC1A_TRINITY_DN40593_c5_g2  -            399 167614at3193         -            148      0.33   12.7   0.5   1   2   0.00074       1.2   10.8   0.0    16    80     7    69     2   113 0.74 -
PC1A_TRINITY_DN40593_c5_g2_i1.p1PC1A_TRINITY_DN40593_c5_g2  -            399 167614at3193         -            148      0.33   12.7   0.5   2   2       2.5   4.2e+03   -0.6   0.1    26    69   123   166    98   186 0.62 -
PC2J_TRINITY_DN36003_c1_g1_i2.p1PC2J_TRINITY_DN36003_c1_g1  -            203 167614at3193         -            148      0.36   12.6   0.3   1   1   0.00031      0.51   12.1   0.3    15    78    97   158    93   161 0.81 -
PC2A_TRINITY_DN29750_c0_g1_i1.p1PC2A_TRINITY_DN29750_c0_g1  -            142 167614at3193         -            148      0.41   12.4   0.2   1   1   0.00035      0.58   11.9   0.2     9    78    37   107    33   113 0.74 -
PC2A_TRINITY_DN33928_c2_g1_i1.p1PC2A_TRINITY_DN33928_c2_g1  -            145 167614at3193         -            148      0.64   11.8   0.2   1   1   0.00049      0.83   11.4   0.2    15    78    43   106    31   112 0.81 -
PC2A_TRINITY_DN30467_c4_g1_i1.p1PC2A_TRINITY_DN30467_c4_g1  -            215 167614at3193         -            148       0.7   11.7   0.1   1   1     0.001       1.7   10.4   0.1    14    78    88   148    74   161 0.76 -
#
# Program:         hmmsearch
# Version:         3.2.1 (June 2018)
# Pipeline mode:   SEARCH
# Query file:      /isg/shared/databases/BUSCO/odb10/embryophyta_odb10/hmms/167614at3193.hmm
# Target file:     Pine_final_annotations_no_contam_lvl0.faa
# Option settings: /usr/local/bin/hmmsearch --domtblout /labs/Wegrzyn/Juniper_Pine/BUSCO/NEW/busco_pine/run_embryophyta_odb10/hmmer_output/167614at3193.out --cpu 1 /isg/shared/databases/BUSCO/odb10/embryophyta_odb10/hmms/167614at3193.hmm Pine_final_annotations_no_contam_lvl0.faa 
# Current dir:     /labs/Wegrzyn/Juniper_Pine/BUSCO/NEW
# Date:            Thu Aug  6 14:46:15 2020
# [ok]
