#                                                                                                                  --- full sequence --- -------------- this domain -------------   hmm coord   ali coord   env coord
# target name                                              accession   tlen query name           accession   qlen   E-value  score  bias   #  of  c-Evalue  i-Evalue  score  bias  from    to  from    to  from    to  acc description of target
#                                      ------------------- ---------- ----- -------------------- ---------- ----- --------- ------ ----- --- --- --------- --------- ------ ----- ----- ----- ----- ----- ----- ----- ---- ---------------------
PC3J_TRINITY_DN39556_c1_g5_i1.p1PC3J_TRINITY_DN39556_c1_g5 -            212 167808at3193         -            271   3.3e-74  251.2  12.6   1   1   1.8e-78   3.8e-74  251.0  12.6    60   207    59   212    10   212 0.85 -
PC2J_TRINITY_DN38489_c1_g3_i2.p1PC2J_TRINITY_DN38489_c1_g3 -            148 167808at3193         -            271   6.2e-21   76.5   7.2   1   2     2e-08   0.00043   21.2   0.2    31    64    11    48     9    62 0.76 -
PC2J_TRINITY_DN38489_c1_g3_i2.p1PC2J_TRINITY_DN38489_c1_g3 -            148 167808at3193         -            271   6.2e-21   76.5   7.2   2   2   2.1e-19   4.4e-15   57.3   3.6    12    97    57   141    50   146 0.79 -
PC2J_TRINITY_DN32710_c0_g1_i2.p1PC2J_TRINITY_DN32710_c0_g1 -            114 167808at3193         -            271   3.5e-11   44.5   1.6   1   1   2.1e-15   4.5e-11   44.1   1.6   210   270     1    72     1    76 0.78 -
#
# Program:         hmmsearch
# Version:         3.2.1 (June 2018)
# Pipeline mode:   SEARCH
# Query file:      /isg/shared/databases/BUSCO/odb10/embryophyta_odb10/hmms/167808at3193.hmm
# Target file:     Pine_final_annotations_no_contam_lvl0.faa
# Option settings: /usr/local/bin/hmmsearch --domtblout /labs/Wegrzyn/Juniper_Pine/BUSCO/NEW/busco_pine/run_embryophyta_odb10/hmmer_output/167808at3193.out --cpu 1 /isg/shared/databases/BUSCO/odb10/embryophyta_odb10/hmms/167808at3193.hmm Pine_final_annotations_no_contam_lvl0.faa 
# Current dir:     /labs/Wegrzyn/Juniper_Pine/BUSCO/NEW
# Date:            Thu Aug  6 14:46:15 2020
# [ok]
