#                                                                                                                   --- full sequence --- -------------- this domain -------------   hmm coord   ali coord   env coord
# target name                                               accession   tlen query name           accession   qlen   E-value  score  bias   #  of  c-Evalue  i-Evalue  score  bias  from    to  from    to  from    to  acc description of target
#                                       ------------------- ---------- ----- -------------------- ---------- ----- --------- ------ ----- --- --- --------- --------- ------ ----- ----- ----- ----- ----- ----- ----- ---- ---------------------
PC2J_TRINITY_DN36286_c1_g1_i1.p1PC2J_TRINITY_DN36286_c1_g1  -            119 168457at3193         -            595   2.1e-68  233.4   8.8   1   1     1e-71   2.6e-68  233.1   8.8   463   572     9   118     8   118 0.99 -
PC3J_TRINITY_DN27610_c0_g1_i5.p1PC3J_TRINITY_DN27610_c0_g1  -            170 168457at3193         -            595   1.3e-43  151.5  25.3   1   1   6.4e-47   1.6e-43  151.3  25.3   280   446     6   164     1   165 0.62 -
PC2J_TRINITY_DN36444_c3_g1_i3.p1PC2J_TRINITY_DN36444_c3_g1  -            145 168457at3193         -            595   9.4e-24   86.0  25.0   1   1   4.9e-27   1.2e-23   85.6  25.0   294   422    15   135     6   138 0.55 -
PC2A_TRINITY_DN31517_c0_g1_i1.p1PC2A_TRINITY_DN31517_c0_g1  -            291 168457at3193         -            595   7.9e-07   30.1 127.6   1   2   5.1e-07    0.0013   19.5  60.8    72   236     8   172     1   173 0.49 -
PC2A_TRINITY_DN31517_c0_g1_i1.p1PC2A_TRINITY_DN31517_c0_g1  -            291 168457at3193         -            595   7.9e-07   30.1 127.6   2   2   2.3e-08   5.8e-05   23.9  58.8    55   204    72   224    66   265 0.80 -
PC3J_TRINITY_DN27610_c0_g1_i4.p1PC3J_TRINITY_DN27610_c0_g1  -            152 168457at3193         -            595     5e-05   24.1  41.7   1   1   2.3e-08   5.9e-05   23.9  41.7   280   405     6   123     1   125 0.50 -
PC1A_TRINITY_DN42865_c5_g2_i2.p1PC1A_TRINITY_DN42865_c5_g2  -            139 168457at3193         -            595    0.0022   18.7  11.1   1   1   9.7e-07    0.0025   18.5  11.1    90   178     5    96     1   110 0.66 -
PC1J_TRINITY_DN38343_c1_g4_i1.p1PC1J_TRINITY_DN38343_c1_g4  -            139 168457at3193         -            595    0.0029   18.3  48.3   1   1   1.3e-06    0.0032   18.2  48.3    10   136    11   138     1   139 0.43 -
PC3J_TRINITY_DN44290_c1_g3_i1.p1PC3J_TRINITY_DN44290_c1_g3  -            118 168457at3193         -            595    0.0051   17.5  22.6   1   1   2.5e-06    0.0063   17.2  22.6   105   203     5   103     2   116 0.55 -
PC2A_TRINITY_DN29835_c0_g1_i5.p1PC2A_TRINITY_DN29835_c0_g1  -            239 168457at3193         -            595     0.014   16.0  53.2   1   1   7.6e-06     0.019   15.6  53.2    31   211    23   185     3   199 0.23 -
PC1A_TRINITY_DN42359_c0_g1_i2.p1PC1A_TRINITY_DN42359_c0_g1  -            319 168457at3193         -            595     0.029   15.0 137.2   1   2   0.00022      0.57   10.7  58.5    95   237     5   135     1   138 0.63 -
PC1A_TRINITY_DN42359_c0_g1_i2.p1PC1A_TRINITY_DN42359_c0_g1  -            319 168457at3193         -            595     0.029   15.0 137.2   2   2   0.00095       2.4    8.7  81.4    74   306   116   302   112   317 0.37 -
PC3J_TRINITY_DN40512_c0_g2_i13.p1PC3J_TRINITY_DN40512_c0_g2 -            182 168457at3193         -            595     0.045   14.4  50.7   1   1   2.5e-05     0.063   13.9  50.7    42   211    14   176     6   181 0.42 -
PC2A_TRINITY_DN30733_c1_g9_i2.p1PC2A_TRINITY_DN30733_c1_g9  -            142 168457at3193         -            595      0.13   12.8  46.3   1   1   6.5e-05      0.17   12.5  46.3   184   319     2   137     1   141 0.64 -
PC1J_TRINITY_DN37152_c1_g3_i8.p1PC1J_TRINITY_DN37152_c1_g3  -            271 168457at3193         -            595      0.43   11.2  84.0   1   2     6e-05      0.15   12.6  62.0   136   273    50   196    10   199 0.66 -
PC1J_TRINITY_DN37152_c1_g3_i8.p1PC1J_TRINITY_DN37152_c1_g3  -            271 168457at3193         -            595      0.43   11.2  84.0   2   2       0.7   1.8e+03   -0.8  34.1     9   111   163   255   162   268 0.36 -
PC3A_TRINITY_DN20606_c0_g1_i1.p1PC3A_TRINITY_DN20606_c0_g1  -            197 168457at3193         -            595      0.56   10.8  84.1   1   1   0.00041         1    9.9  84.1    16   224     4   189     1   197 0.44 -
PC2J_TRINITY_DN43877_c1_g1_i9.p1PC2J_TRINITY_DN43877_c1_g1  -            403 168457at3193         -            595      0.63   10.6  25.6   1   1   0.00031       0.8   10.3  25.6    84   384   161   397    57   402 0.38 -
PC2J_TRINITY_DN42367_c0_g1_i1.p1PC2J_TRINITY_DN42367_c0_g1  -            141 168457at3193         -            595      0.87   10.1  33.3   1   1   0.00038      0.98   10.0  33.3    16   174    19   119     1   137 0.21 -
PC3A_TRINITY_DN42083_c1_g1_i4.p1PC3A_TRINITY_DN42083_c1_g1  -            120 168457at3193         -            595       2.2    8.8  17.5   1   1   0.00095       2.4    8.7  17.5   279   325    37    84     3   101 0.32 -
PC1J_TRINITY_DN37152_c1_g3_i7.p1PC1J_TRINITY_DN37152_c1_g3  -            443 168457at3193         -            595       2.3    8.8 167.9   1   2    0.0061        16    6.0  84.3    29   237    23   238     9   241 0.53 -
PC1J_TRINITY_DN37152_c1_g3_i7.p1PC1J_TRINITY_DN37152_c1_g3  -            443 168457at3193         -            595       2.3    8.8 167.9   2   2     0.027        68    3.9  87.5    74   309   219   409   216   432 0.27 -
PC2J_TRINITY_DN42367_c0_g1_i4.p1PC2J_TRINITY_DN42367_c0_g1  -            119 168457at3193         -            595       4.3    7.8  24.7   1   1    0.0019       4.9    7.7  24.7    45   140    19   104     1   114 0.34 -
PC1A_TRINITY_DN30828_c0_g1_i1.p2PC1A_TRINITY_DN30828_c0_g1  -            159 168457at3193         -            595       4.6    7.8  31.1   1   1     0.002       5.1    7.6  31.1   191   275    62   145    27   156 0.51 -
PC1J_TRINITY_DN35122_c0_g1_i5.p1PC1J_TRINITY_DN35122_c0_g1  -            299 168457at3193         -            595       5.2    7.6  17.4   1   1    0.0025       6.4    7.3  17.4    98   302    42   258     5   285 0.60 -
PC3J_TRINITY_DN45289_c1_g3_i1.p1PC3J_TRINITY_DN45289_c1_g3  -            114 168457at3193         -            595       5.9    7.4  10.4   1   1    0.0023         6    7.4  10.4   130   214     7    88     1   112 0.68 -
PC3A_TRINITY_DN43047_c1_g1_i2.p1PC3A_TRINITY_DN43047_c1_g1  -            585 168457at3193         -            595       6.8    7.2  15.5   1   1    0.0037       9.4    6.7  15.5     7   137    54   190    46   252 0.66 -
PC3A_TRINITY_DN39165_c1_g3_i7.p1PC3A_TRINITY_DN39165_c1_g3  -            150 168457at3193         -            595       7.2    7.1  48.8   1   1    0.0032         8    7.0  48.8     6   222     4   138     1   149 0.21 -
PC2A_TRINITY_DN33096_c1_g1_i8.p1PC2A_TRINITY_DN33096_c1_g1  -            488 168457at3193         -            595       9.9    6.7  22.5   1   1    0.0048        12    6.3  22.5   187   380   122   254     4   297 0.52 -
#
# Program:         hmmsearch
# Version:         3.2.1 (June 2018)
# Pipeline mode:   SEARCH
# Query file:      /isg/shared/databases/BUSCO/odb10/embryophyta_odb10/hmms/168457at3193.hmm
# Target file:     Pine_final_annotations_no_contam_lvl0.faa
# Option settings: /usr/local/bin/hmmsearch --domtblout /labs/Wegrzyn/Juniper_Pine/BUSCO/NEW/busco_pine/run_embryophyta_odb10/hmmer_output/168457at3193.out --cpu 1 /isg/shared/databases/BUSCO/odb10/embryophyta_odb10/hmms/168457at3193.hmm Pine_final_annotations_no_contam_lvl0.faa 
# Current dir:     /labs/Wegrzyn/Juniper_Pine/BUSCO/NEW
# Date:            Thu Aug  6 14:46:20 2020
# [ok]
