#                                                                                                                  --- full sequence --- -------------- this domain -------------   hmm coord   ali coord   env coord
# target name                                              accession   tlen query name           accession   qlen   E-value  score  bias   #  of  c-Evalue  i-Evalue  score  bias  from    to  from    to  from    to  acc description of target
#                                      ------------------- ---------- ----- -------------------- ---------- ----- --------- ------ ----- --- --- --------- --------- ------ ----- ----- ----- ----- ----- ----- ----- ---- ---------------------
PC1A_TRINITY_DN42030_c4_g1_i1.p1PC1A_TRINITY_DN42030_c4_g1 -            241 169009at3193         -            161   4.5e-80  268.8   0.0   1   1   8.5e-84   5.4e-80  268.5   0.0     2   161    66   234    65   234 0.94 -
PC3A_TRINITY_DN36401_c2_g1_i7.p1PC3A_TRINITY_DN36401_c2_g1 -            302 169009at3193         -            161   8.3e-80  268.0   0.0   1   1   1.7e-83   1.1e-79  267.6   0.0     2   161   127   295   126   295 0.94 -
PC2J_TRINITY_DN39860_c4_g3_i1.p1PC2J_TRINITY_DN39860_c4_g3 -            270 169009at3193         -            161   1.5e-25   91.5   0.1   1   1   9.5e-29   6.1e-25   89.6   0.1    19   161    99   262    86   262 0.83 -
PC1J_TRINITY_DN38572_c0_g8_i5.p1PC1J_TRINITY_DN38572_c0_g8 -            106 169009at3193         -            161   8.4e-24   85.9   0.1   1   1   1.6e-27     1e-23   85.6   0.1    58   104    19    65    15    98 0.80 -
PC2J_TRINITY_DN43367_c2_g1_i8.p1PC2J_TRINITY_DN43367_c2_g1 -            168 169009at3193         -            161   3.6e-15   57.8   0.4   1   1   7.6e-19   4.9e-15   57.4   0.4     2    49    64   114    63   127 0.93 -
PC3A_TRINITY_DN38072_c3_g1_i1.p1PC3A_TRINITY_DN38072_c3_g1 -            100 169009at3193         -            161   1.3e-08   36.4   0.1   1   1   1.2e-11   7.7e-08   34.0   0.1    81   149     2    90     1    95 0.74 -
PC3J_TRINITY_DN46974_c3_g2_i2.p1PC3J_TRINITY_DN46974_c3_g2 -            138 169009at3193         -            161   2.5e-07   32.3   0.1   1   2     0.092   5.9e+02    1.9   0.0    20    44     9    33     2    51 0.81 -
PC3J_TRINITY_DN46974_c3_g2_i2.p1PC3J_TRINITY_DN46974_c3_g2 -            138 169009at3193         -            161   2.5e-07   32.3   0.1   2   2     5e-10   3.2e-06   28.7   0.0    19    69    85   136    71   138 0.88 -
PC3J_TRINITY_DN46065_c1_g1_i2.p1PC3J_TRINITY_DN46065_c1_g1 -            197 169009at3193         -            161   0.00021   22.8   0.2   1   2   0.00048       3.1    9.3   0.0    18    63    78   123    67   130 0.79 -
PC3J_TRINITY_DN46065_c1_g1_i2.p1PC3J_TRINITY_DN46065_c1_g1 -            197 169009at3193         -            161   0.00021   22.8   0.2   2   2   0.00031         2    9.9   0.0   126   161   156   193   124   193 0.84 -
PC3J_TRINITY_DN39273_c2_g2_i1.p1PC3J_TRINITY_DN39273_c2_g2 -            155 169009at3193         -            161   0.00045   21.7   0.0   1   1   1.3e-07   0.00081   20.9   0.0    21    64    86   130    80   154 0.85 -
PC1A_TRINITY_DN39125_c0_g1_i3.p1PC1A_TRINITY_DN39125_c0_g1 -            115 169009at3193         -            161     0.006   18.1   0.3   1   2   0.00011      0.71   11.4   0.0    22    63     7    48     2    53 0.84 -
PC1A_TRINITY_DN39125_c0_g1_i3.p1PC1A_TRINITY_DN39125_c0_g1 -            115 169009at3193         -            161     0.006   18.1   0.3   2   2    0.0066        42    5.6   0.0    90   114    56    85    49   112 0.68 -
#
# Program:         hmmsearch
# Version:         3.2.1 (June 2018)
# Pipeline mode:   SEARCH
# Query file:      /isg/shared/databases/BUSCO/odb10/embryophyta_odb10/hmms/169009at3193.hmm
# Target file:     Pine_final_annotations_no_contam_lvl0.faa
# Option settings: /usr/local/bin/hmmsearch --domtblout /labs/Wegrzyn/Juniper_Pine/BUSCO/NEW/busco_pine/run_embryophyta_odb10/hmmer_output/169009at3193.out --cpu 1 /isg/shared/databases/BUSCO/odb10/embryophyta_odb10/hmms/169009at3193.hmm Pine_final_annotations_no_contam_lvl0.faa 
# Current dir:     /labs/Wegrzyn/Juniper_Pine/BUSCO/NEW
# Date:            Thu Aug  6 14:46:21 2020
# [ok]
