#                                                                                                                   --- full sequence --- -------------- this domain -------------   hmm coord   ali coord   env coord
# target name                                               accession   tlen query name           accession   qlen   E-value  score  bias   #  of  c-Evalue  i-Evalue  score  bias  from    to  from    to  from    to  acc description of target
#                                       ------------------- ---------- ----- -------------------- ---------- ----- --------- ------ ----- --- --- --------- --------- ------ ----- ----- ----- ----- ----- ----- ----- ---- ---------------------
PC1A_TRINITY_DN38136_c0_g1_i3.p1PC1A_TRINITY_DN38136_c0_g1  -            253 171230at3193         -            184  8.7e-103  343.2   0.5   1   1    5e-107  1.1e-102  343.0   0.5     3   184    71   252    65   252 0.95 -
PC2J_TRINITY_DN45537_c5_g2_i3.p2PC2J_TRINITY_DN45537_c5_g2  -            133 171230at3193         -            184   1.6e-64  218.5   0.1   1   1     9e-69   1.9e-64  218.3   0.1    23   134     2   113     1   121 0.98 -
PC3J_TRINITY_DN48347_c0_g1_i14.p1PC3J_TRINITY_DN48347_c0_g1 -            529 171230at3193         -            184     0.073   14.3   0.0   1   1   8.5e-06      0.18   13.0   0.0    13    67   287   341   275   369 0.83 -
#
# Program:         hmmsearch
# Version:         3.2.1 (June 2018)
# Pipeline mode:   SEARCH
# Query file:      /isg/shared/databases/BUSCO/odb10/embryophyta_odb10/hmms/171230at3193.hmm
# Target file:     Pine_final_annotations_no_contam_lvl0.faa
# Option settings: /usr/local/bin/hmmsearch --domtblout /labs/Wegrzyn/Juniper_Pine/BUSCO/NEW/busco_pine/run_embryophyta_odb10/hmmer_output/171230at3193.out --cpu 1 /isg/shared/databases/BUSCO/odb10/embryophyta_odb10/hmms/171230at3193.hmm Pine_final_annotations_no_contam_lvl0.faa 
# Current dir:     /labs/Wegrzyn/Juniper_Pine/BUSCO/NEW
# Date:            Thu Aug  6 14:46:32 2020
# [ok]
