#                                                                                                                  --- full sequence --- -------------- this domain -------------   hmm coord   ali coord   env coord
# target name                                              accession   tlen query name           accession   qlen   E-value  score  bias   #  of  c-Evalue  i-Evalue  score  bias  from    to  from    to  from    to  acc description of target
#                                      ------------------- ---------- ----- -------------------- ---------- ----- --------- ------ ----- --- --- --------- --------- ------ ----- ----- ----- ----- ----- ----- ----- ---- ---------------------
PC3A_TRINITY_DN30261_c0_g1_i2.p1PC3A_TRINITY_DN30261_c0_g1 -            145 173763at3193         -            212   1.2e-40  141.1   0.3   1   1   7.2e-45   1.5e-40  140.8   0.3     1   103    23   125    23   129 0.98 -
PC1A_TRINITY_DN40719_c5_g2_i1.p1PC1A_TRINITY_DN40719_c5_g2 -            167 173763at3193         -            212    0.0095   17.3   0.1   1   1   6.9e-07     0.015   16.7   0.1   127   179    69   121    63   125 0.85 -
PC3J_TRINITY_DN42880_c0_g1_i8.p1PC3J_TRINITY_DN42880_c0_g1 -            421 173763at3193         -            212       2.6    9.3   2.8   1   2    0.0046        99    4.2   0.2    72    96     3    27     1    29 0.90 -
PC3J_TRINITY_DN42880_c0_g1_i8.p1PC3J_TRINITY_DN42880_c0_g1 -            421 173763at3193         -            212       2.6    9.3   2.8   2   2    0.0024        51    5.1   0.3    71    96   248   273   231   275 0.89 -
#
# Program:         hmmsearch
# Version:         3.2.1 (June 2018)
# Pipeline mode:   SEARCH
# Query file:      /isg/shared/databases/BUSCO/odb10/embryophyta_odb10/hmms/173763at3193.hmm
# Target file:     Pine_final_annotations_no_contam_lvl0.faa
# Option settings: /usr/local/bin/hmmsearch --domtblout /labs/Wegrzyn/Juniper_Pine/BUSCO/NEW/busco_pine/run_embryophyta_odb10/hmmer_output/173763at3193.out --cpu 1 /isg/shared/databases/BUSCO/odb10/embryophyta_odb10/hmms/173763at3193.hmm Pine_final_annotations_no_contam_lvl0.faa 
# Current dir:     /labs/Wegrzyn/Juniper_Pine/BUSCO/NEW
# Date:            Thu Aug  6 14:46:50 2020
# [ok]
