#                                                                                                                   --- full sequence --- -------------- this domain -------------   hmm coord   ali coord   env coord
# target name                                               accession   tlen query name           accession   qlen   E-value  score  bias   #  of  c-Evalue  i-Evalue  score  bias  from    to  from    to  from    to  acc description of target
#                                       ------------------- ---------- ----- -------------------- ---------- ----- --------- ------ ----- --- --- --------- --------- ------ ----- ----- ----- ----- ----- ----- ----- ---- ---------------------
PC2A_TRINITY_DN28448_c0_g1_i7.p1PC2A_TRINITY_DN28448_c0_g1  -            241 175219at3193         -            162   5.4e-82  275.2   2.0   1   1   3.9e-85   3.6e-81  272.5   2.0     1   162    55   239    55   239 0.93 -
PC2A_TRINITY_DN28448_c0_g1_i3.p1PC2A_TRINITY_DN28448_c0_g1  -            126 175219at3193         -            162   1.5e-42  146.9   0.0   1   1   2.1e-46   1.9e-42  146.6   0.0    61   151    13   112     6   116 0.92 -
PC2J_TRINITY_DN45116_c0_g1_i10.p1PC2J_TRINITY_DN45116_c0_g1 -            117 175219at3193         -            162   2.1e-36  126.9   1.7   1   1   2.7e-39   2.4e-35  123.5   1.7     1    75    17   102    17   108 0.92 -
PC1A_TRINITY_DN39974_c4_g1_i4.p1PC1A_TRINITY_DN39974_c4_g1  -            145 175219at3193         -            162     1e-23   85.7   1.6   1   1   1.2e-26   1.1e-22   82.3   1.6     1    59    48   117    48   134 0.87 -
PC2A_TRINITY_DN28448_c0_g1_i9.p1PC2A_TRINITY_DN28448_c0_g1  -            104 175219at3193         -            162   1.1e-13   53.1   0.1   1   1   1.5e-17   1.3e-13   52.8   0.1   115   162    45   102    27   102 0.83 -
PC3J_TRINITY_DN46866_c0_g4_i9.p1PC3J_TRINITY_DN46866_c0_g4  -            104 175219at3193         -            162     0.083   14.5   0.3   1   2   8.9e-05      0.81   11.2   0.2    89   123    15    49     4    66 0.83 -
PC3J_TRINITY_DN46866_c0_g4_i9.p1PC3J_TRINITY_DN46866_c0_g4  -            104 175219at3193         -            162     0.083   14.5   0.3   2   2     0.075   6.8e+02    1.7   0.0    54    72    76    94    61   102 0.80 -
PC2J_TRINITY_DN44255_c5_g7_i1.p1PC2J_TRINITY_DN44255_c5_g7  -            120 175219at3193         -            162       6.3    8.3   4.3   1   2    0.0045        41    5.7   0.3    79    97    35    53    24    77 0.79 -
PC2J_TRINITY_DN44255_c5_g7_i1.p1PC2J_TRINITY_DN44255_c5_g7  -            120 175219at3193         -            162       6.3    8.3   4.3   2   2     0.012   1.1e+02    4.3   0.4    79    94    95   110    87   116 0.84 -
#
# Program:         hmmsearch
# Version:         3.2.1 (June 2018)
# Pipeline mode:   SEARCH
# Query file:      /isg/shared/databases/BUSCO/odb10/embryophyta_odb10/hmms/175219at3193.hmm
# Target file:     Pine_final_annotations_no_contam_lvl0.faa
# Option settings: /usr/local/bin/hmmsearch --domtblout /labs/Wegrzyn/Juniper_Pine/BUSCO/NEW/busco_pine/run_embryophyta_odb10/hmmer_output/175219at3193.out --cpu 1 /isg/shared/databases/BUSCO/odb10/embryophyta_odb10/hmms/175219at3193.hmm Pine_final_annotations_no_contam_lvl0.faa 
# Current dir:     /labs/Wegrzyn/Juniper_Pine/BUSCO/NEW
# Date:            Thu Aug  6 14:46:55 2020
# [ok]
