#                                                                                                                   --- full sequence --- -------------- this domain -------------   hmm coord   ali coord   env coord
# target name                                               accession   tlen query name           accession   qlen   E-value  score  bias   #  of  c-Evalue  i-Evalue  score  bias  from    to  from    to  from    to  acc description of target
#                                       ------------------- ---------- ----- -------------------- ---------- ----- --------- ------ ----- --- --- --------- --------- ------ ----- ----- ----- ----- ----- ----- ----- ---- ---------------------
PC1J_TRINITY_DN23230_c0_g1_i1.p1PC1J_TRINITY_DN23230_c0_g1  -            137 176969at3193         -            146   1.2e-33  117.7   0.0   1   1   1.4e-37   1.5e-33  117.4   0.0     2    68    66   132    65   136 0.97 -
PC2J_TRINITY_DN36465_c2_g4_i2.p1PC2J_TRINITY_DN36465_c2_g4  -            212 176969at3193         -            146   5.5e-24   86.3   0.0   1   1   8.7e-28   9.3e-24   85.6   0.0     6   118    97   212    92   212 0.92 -
PC2A_TRINITY_DN35847_c1_g1_i23.p1PC2A_TRINITY_DN35847_c1_g1 -            115 176969at3193         -            146      0.18   13.3   0.0   1   1     2e-05      0.21   13.1   0.0    64   109    64   111    35   113 0.85 -
PC1A_TRINITY_DN41498_c5_g1_i1.p1PC1A_TRINITY_DN41498_c5_g1  -            162 176969at3193         -            146      0.19   13.2   0.0   1   1   2.5e-05      0.27   12.7   0.0    64   133    81   156    48   159 0.75 -
PC2A_TRINITY_DN35847_c1_g1_i15.p1PC2A_TRINITY_DN35847_c1_g1 -            133 176969at3193         -            146      0.25   12.8   0.0   1   1   2.8e-05       0.3   12.6   0.0    64   109    60   107    35   113 0.86 -
PC1A_TRINITY_DN41498_c5_g1_i6.p1PC1A_TRINITY_DN41498_c5_g1  -            175 176969at3193         -            146      0.28   12.7   0.0   1   1   3.7e-05       0.4   12.2   0.0    79   133   112   169    75   172 0.75 -
#
# Program:         hmmsearch
# Version:         3.2.1 (June 2018)
# Pipeline mode:   SEARCH
# Query file:      /isg/shared/databases/BUSCO/odb10/embryophyta_odb10/hmms/176969at3193.hmm
# Target file:     Pine_final_annotations_no_contam_lvl0.faa
# Option settings: /usr/local/bin/hmmsearch --domtblout /labs/Wegrzyn/Juniper_Pine/BUSCO/NEW/busco_pine/run_embryophyta_odb10/hmmer_output/176969at3193.out --cpu 1 /isg/shared/databases/BUSCO/odb10/embryophyta_odb10/hmms/176969at3193.hmm Pine_final_annotations_no_contam_lvl0.faa 
# Current dir:     /labs/Wegrzyn/Juniper_Pine/BUSCO/NEW
# Date:            Thu Aug  6 14:47:04 2020
# [ok]
