#                                                                                                                  --- full sequence --- -------------- this domain -------------   hmm coord   ali coord   env coord
# target name                                              accession   tlen query name           accession   qlen   E-value  score  bias   #  of  c-Evalue  i-Evalue  score  bias  from    to  from    to  from    to  acc description of target
#                                      ------------------- ---------- ----- -------------------- ---------- ----- --------- ------ ----- --- --- --------- --------- ------ ----- ----- ----- ----- ----- ----- ----- ---- ---------------------
PC3J_TRINITY_DN48054_c2_g1_i5.p1PC3J_TRINITY_DN48054_c2_g1 -            158 177446at3193         -            161      0.45   12.3   0.2   1   3    0.0007        45    5.8   0.0     7    32     3    30     1    35 0.75 -
PC3J_TRINITY_DN48054_c2_g1_i5.p1PC3J_TRINITY_DN48054_c2_g1 -            158 177446at3193         -            161      0.45   12.3   0.2   2   3    0.0033   2.1e+02    3.6   0.0     8    27    46    65    39    72 0.79 -
PC3J_TRINITY_DN48054_c2_g1_i5.p1PC3J_TRINITY_DN48054_c2_g1 -            158 177446at3193         -            161      0.45   12.3   0.2   3   3       0.1   6.4e+03   -1.2   0.0    98   120   110   132    93   141 0.67 -
#
# Program:         hmmsearch
# Version:         3.2.1 (June 2018)
# Pipeline mode:   SEARCH
# Query file:      /isg/shared/databases/BUSCO/odb10/embryophyta_odb10/hmms/177446at3193.hmm
# Target file:     Pine_final_annotations_no_contam_lvl0.faa
# Option settings: /usr/local/bin/hmmsearch --domtblout /labs/Wegrzyn/Juniper_Pine/BUSCO/NEW/busco_pine/run_embryophyta_odb10/hmmer_output/177446at3193.out --cpu 1 /isg/shared/databases/BUSCO/odb10/embryophyta_odb10/hmms/177446at3193.hmm Pine_final_annotations_no_contam_lvl0.faa 
# Current dir:     /labs/Wegrzyn/Juniper_Pine/BUSCO/NEW
# Date:            Thu Aug  6 14:47:05 2020
# [ok]
