#                                                                                                                   --- full sequence --- -------------- this domain -------------   hmm coord   ali coord   env coord
# target name                                               accession   tlen query name           accession   qlen   E-value  score  bias   #  of  c-Evalue  i-Evalue  score  bias  from    to  from    to  from    to  acc description of target
#                                       ------------------- ---------- ----- -------------------- ---------- ----- --------- ------ ----- --- --- --------- --------- ------ ----- ----- ----- ----- ----- ----- ----- ---- ---------------------
PC3A_TRINITY_DN35713_c0_g1_i2.p1PC3A_TRINITY_DN35713_c0_g1  -            293 178095at3193         -            193     4e-91  305.9  18.0   1   1   1.5e-95   4.8e-91  305.6  18.0     1   193    92   293    92   293 0.97 -
PC1J_TRINITY_DN35146_c2_g1_i35.p1PC1J_TRINITY_DN35146_c2_g1 -            103 178095at3193         -            193      0.27   12.8   0.0   1   1   8.9e-06      0.28   12.8   0.0   119   166    48    96    25   102 0.77 -
#
# Program:         hmmsearch
# Version:         3.2.1 (June 2018)
# Pipeline mode:   SEARCH
# Query file:      /isg/shared/databases/BUSCO/odb10/embryophyta_odb10/hmms/178095at3193.hmm
# Target file:     Pine_final_annotations_no_contam_lvl0.faa
# Option settings: /usr/local/bin/hmmsearch --domtblout /labs/Wegrzyn/Juniper_Pine/BUSCO/NEW/busco_pine/run_embryophyta_odb10/hmmer_output/178095at3193.out --cpu 1 /isg/shared/databases/BUSCO/odb10/embryophyta_odb10/hmms/178095at3193.hmm Pine_final_annotations_no_contam_lvl0.faa 
# Current dir:     /labs/Wegrzyn/Juniper_Pine/BUSCO/NEW
# Date:            Thu Aug  6 14:47:09 2020
# [ok]
