#                                                                                                                  --- full sequence --- -------------- this domain -------------   hmm coord   ali coord   env coord
# target name                                              accession   tlen query name           accession   qlen   E-value  score  bias   #  of  c-Evalue  i-Evalue  score  bias  from    to  from    to  from    to  acc description of target
#                                      ------------------- ---------- ----- -------------------- ---------- ----- --------- ------ ----- --- --- --------- --------- ------ ----- ----- ----- ----- ----- ----- ----- ---- ---------------------
PC2A_TRINITY_DN24086_c0_g1_i2.p1PC2A_TRINITY_DN24086_c0_g1 -            141 178573at3193         -            104     1e-36  127.0   2.5   1   2      0.86   1.8e+04   -2.4   0.0    25    35     5    15     2    34 0.66 -
PC2A_TRINITY_DN24086_c0_g1_i2.p1PC2A_TRINITY_DN24086_c0_g1 -            141 178573at3193         -            104     1e-36  127.0   2.5   2   2   4.7e-41     1e-36  127.0   2.5     2    66    77   141    76   141 0.98 -
PC2A_TRINITY_DN34845_c0_g1_i1.p1PC2A_TRINITY_DN34845_c0_g1 -            195 178573at3193         -            104     0.026   16.4   0.0   1   2    0.0009        19    7.2   0.0     4    33    24    56    21    69 0.78 -
PC2A_TRINITY_DN34845_c0_g1_i1.p1PC2A_TRINITY_DN34845_c0_g1 -            195 178573at3193         -            104     0.026   16.4   0.0   2   2    0.0009        19    7.2   0.0     4    33   115   147   112   160 0.78 -
PC2J_TRINITY_DN39138_c3_g1_i7.p1PC2J_TRINITY_DN39138_c3_g1 -            138 178573at3193         -            104     0.077   14.9   0.1   1   2    0.0016        35    6.3   0.0    20    39    63    82    52   108 0.78 -
PC2J_TRINITY_DN39138_c3_g1_i7.p1PC2J_TRINITY_DN39138_c3_g1 -            138 178573at3193         -            104     0.077   14.9   0.1   2   2    0.0013        28    6.6   0.0    17    37   116   136    99   138 0.84 -
#
# Program:         hmmsearch
# Version:         3.2.1 (June 2018)
# Pipeline mode:   SEARCH
# Query file:      /isg/shared/databases/BUSCO/odb10/embryophyta_odb10/hmms/178573at3193.hmm
# Target file:     Pine_final_annotations_no_contam_lvl0.faa
# Option settings: /usr/local/bin/hmmsearch --domtblout /labs/Wegrzyn/Juniper_Pine/BUSCO/NEW/busco_pine/run_embryophyta_odb10/hmmer_output/178573at3193.out --cpu 1 /isg/shared/databases/BUSCO/odb10/embryophyta_odb10/hmms/178573at3193.hmm Pine_final_annotations_no_contam_lvl0.faa 
# Current dir:     /labs/Wegrzyn/Juniper_Pine/BUSCO/NEW
# Date:            Thu Aug  6 14:47:11 2020
# [ok]
