#                                                                                                                   --- full sequence --- -------------- this domain -------------   hmm coord   ali coord   env coord
# target name                                               accession   tlen query name           accession   qlen   E-value  score  bias   #  of  c-Evalue  i-Evalue  score  bias  from    to  from    to  from    to  acc description of target
#                                       ------------------- ---------- ----- -------------------- ---------- ----- --------- ------ ----- --- --- --------- --------- ------ ----- ----- ----- ----- ----- ----- ----- ---- ---------------------
PC3A_TRINITY_DN39951_c0_g3_i1.p1PC3A_TRINITY_DN39951_c0_g3  -            241 179211at3193         -            162   5.4e-96  320.8   3.9   1   2   1.2e-34   4.9e-31  109.6   0.2    25    80    36    91    13   106 0.90 -
PC3A_TRINITY_DN39951_c0_g3_i1.p1PC3A_TRINITY_DN39951_c0_g3  -            241 179211at3193         -            162   5.4e-96  320.8   3.9   2   2   2.6e-66     1e-62  212.6   0.4     8   131   117   241   112   241 0.96 -
PC3A_TRINITY_DN39951_c0_g3_i3.p1PC3A_TRINITY_DN39951_c0_g3  -            213 179211at3193         -            162   1.6e-88  296.5   2.1   1   2   2.7e-41   1.1e-37  131.3   0.3    10    80     5    75     1    90 0.95 -
PC3A_TRINITY_DN39951_c0_g3_i3.p1PC3A_TRINITY_DN39951_c0_g3  -            213 179211at3193         -            162   1.6e-88  296.5   2.1   2   2   1.1e-51   4.3e-48  165.1   0.1     8   105   101   195    96   206 0.92 -
PC2A_TRINITY_DN28628_c2_g2_i3.p1PC2A_TRINITY_DN28628_c2_g2  -            243 179211at3193         -            162   1.6e-76  257.5   0.5   1   1     6e-80   2.4e-76  256.9   0.5     8   153    97   243    92   243 0.98 -
PC3J_TRINITY_DN44732_c3_g1_i1.p1PC3J_TRINITY_DN44732_c3_g1  -            222 179211at3193         -            162   1.5e-38  134.0   1.6   1   2   9.7e-32   3.9e-28  100.2   0.2    13    96    72   154    61   158 0.91 -
PC3J_TRINITY_DN44732_c3_g1_i1.p1PC3J_TRINITY_DN44732_c3_g1  -            222 179211at3193         -            162   1.5e-38  134.0   1.6   2   2   2.5e-11   9.8e-08   33.9   0.1    17    81   157   218   154   220 0.79 -
PC1J_TRINITY_DN35617_c0_g2_i2.p1PC1J_TRINITY_DN35617_c0_g2  -            162 179211at3193         -            162     1e-36  128.1   0.9   1   1   2.1e-39   8.3e-36  125.1   0.9    17   155     9   150     5   160 0.90 -
PC3A_TRINITY_DN39388_c3_g1_i8.p1PC3A_TRINITY_DN39388_c3_g1  -            233 179211at3193         -            162   3.2e-36  126.5   0.6   1   2   2.5e-31     1e-27   98.8   0.2    17    95    30   107    20   111 0.92 -
PC3A_TRINITY_DN39388_c3_g1_i8.p1PC3A_TRINITY_DN39388_c3_g1  -            233 179211at3193         -            162   3.2e-36  126.5   0.6   2   2   4.7e-09   1.9e-05   26.4   0.0    17    70   111   166   107   174 0.79 -
PC1A_TRINITY_DN39673_c4_g2_i5.p1PC1A_TRINITY_DN39673_c4_g2  -            200 179211at3193         -            162   5.6e-34  119.2   0.9   1   2     9e-33   3.6e-29  103.6   0.2    14   105    27   120    15   132 0.86 -
PC1A_TRINITY_DN39673_c4_g2_i5.p1PC1A_TRINITY_DN39673_c4_g2  -            200 179211at3193         -            162   5.6e-34  119.2   0.9   2   2   2.3e-05      0.09   14.5   0.0    25    81   136   189   128   197 0.76 -
PC1A_TRINITY_DN39673_c4_g1_i2.p1PC1A_TRINITY_DN39673_c4_g1  -            178 179211at3193         -            162   3.1e-29  103.7   0.1   1   1     1e-32     4e-29  103.4   0.1    13   104    49   142    38   159 0.85 -
PC1A_TRINITY_DN39673_c4_g1_i6.p1PC1A_TRINITY_DN39673_c4_g1  -            182 179211at3193         -            162     4e-29  103.4   0.1   1   1   1.5e-32   5.9e-29  102.8   0.1    13   103    49   137    38   148 0.86 -
PC2J_TRINITY_DN36476_c0_g2_i2.p1PC2J_TRINITY_DN36476_c0_g2  -            101 179211at3193         -            162   1.8e-27   98.1   0.0   1   1   5.2e-31   2.1e-27   97.8   0.0    13    83    15    85     5    92 0.93 -
PC1A_TRINITY_DN39673_c4_g2_i1.p1PC1A_TRINITY_DN39673_c4_g2  -            100 179211at3193         -            162   3.5e-24   87.3   0.1   1   1     1e-27     4e-24   87.2   0.1    14    74    27    87    15    94 0.91 -
PC1J_TRINITY_DN34217_c3_g3_i1.p1PC1J_TRINITY_DN34217_c3_g3  -            250 179211at3193         -            162   3.8e-12   48.2   0.1   1   1   1.5e-15   5.9e-12   47.6   0.1    23    99   159   237   144   247 0.79 -
PC3A_TRINITY_DN43103_c5_g1_i2.p1PC3A_TRINITY_DN43103_c5_g1  -            101 179211at3193         -            162   2.2e-09   39.2   0.2   1   2      0.61   2.4e+03    0.1   0.0    76    96     6    26     3    30 0.79 -
PC3A_TRINITY_DN43103_c5_g1_i2.p1PC3A_TRINITY_DN43103_c5_g1  -            101 179211at3193         -            162   2.2e-09   39.2   0.2   2   2   1.4e-12   5.5e-09   37.9   0.3    14    81    26    90    14    98 0.79 -
PC2A_TRINITY_DN28628_c2_g2_i10.p1PC2A_TRINITY_DN28628_c2_g2 -            152 179211at3193         -            162     1e-08   37.0   0.0   1   1     5e-12     2e-08   36.1   0.0     8    46    97   135    92   142 0.90 -
PC2J_TRINITY_DN36476_c0_g2_i9.p1PC2J_TRINITY_DN36476_c0_g2  -            100 179211at3193         -            162   1.4e-08   36.6   0.1   1   1   4.3e-12   1.7e-08   36.3   0.1    12    59    38    86    27    97 0.82 -
PC2A_TRINITY_DN33070_c1_g1_i7.p1PC2A_TRINITY_DN33070_c1_g1  -            121 179211at3193         -            162      0.29   12.8   0.5   1   2     0.034   1.4e+02    4.1   0.1    51    70     5    24     1    30 0.77 -
PC2A_TRINITY_DN33070_c1_g1_i7.p1PC2A_TRINITY_DN33070_c1_g1  -            121 179211at3193         -            162      0.29   12.8   0.5   2   2    0.0027        11    7.7   0.0    48    76    51    81    26   108 0.71 -
#
# Program:         hmmsearch
# Version:         3.2.1 (June 2018)
# Pipeline mode:   SEARCH
# Query file:      /isg/shared/databases/BUSCO/odb10/embryophyta_odb10/hmms/179211at3193.hmm
# Target file:     Pine_final_annotations_no_contam_lvl0.faa
# Option settings: /usr/local/bin/hmmsearch --domtblout /labs/Wegrzyn/Juniper_Pine/BUSCO/NEW/busco_pine/run_embryophyta_odb10/hmmer_output/179211at3193.out --cpu 1 /isg/shared/databases/BUSCO/odb10/embryophyta_odb10/hmms/179211at3193.hmm Pine_final_annotations_no_contam_lvl0.faa 
# Current dir:     /labs/Wegrzyn/Juniper_Pine/BUSCO/NEW
# Date:            Thu Aug  6 14:47:12 2020
# [ok]
