#                                                                                                                   --- full sequence --- -------------- this domain -------------   hmm coord   ali coord   env coord
# target name                                               accession   tlen query name           accession   qlen   E-value  score  bias   #  of  c-Evalue  i-Evalue  score  bias  from    to  from    to  from    to  acc description of target
#                                       ------------------- ---------- ----- -------------------- ---------- ----- --------- ------ ----- --- --- --------- --------- ------ ----- ----- ----- ----- ----- ----- ----- ---- ---------------------
PC1J_TRINITY_DN42408_c0_g1_i1.p1PC1J_TRINITY_DN42408_c0_g1  -            163 1822at3193           -            867   5.1e-75  254.8   3.3   1   1     3e-78   6.1e-75  254.6   3.3   628   773    13   163     9   163 0.95 -
PC2J_TRINITY_DN39963_c0_g1_i16.p1PC2J_TRINITY_DN39963_c0_g1 -            241 1822at3193           -            867     6e-46  158.7   0.5   1   1   5.9e-49   1.2e-45  157.7   0.5   693   867    33   235    25   235 0.75 -
PC3J_TRINITY_DN32852_c0_g1_i1.p1PC3J_TRINITY_DN32852_c0_g1  -            208 1822at3193           -            867   3.6e-43  149.5   0.1   1   1     2e-46   4.2e-43  149.3   0.1   665   837    25   208    10   208 0.84 -
PC3J_TRINITY_DN27687_c0_g1_i2.p1PC3J_TRINITY_DN27687_c0_g1  -            206 1822at3193           -            867   1.7e-35  124.1  19.0   1   2   1.3e-23   2.7e-20   73.8  12.9   366   444    44   122    20   129 0.88 -
PC3J_TRINITY_DN27687_c0_g1_i2.p1PC3J_TRINITY_DN27687_c0_g1  -            206 1822at3193           -            867   1.7e-35  124.1  19.0   2   2   2.8e-17   5.8e-14   52.8   0.4   438   477   164   203   155   206 0.89 -
PC1A_TRINITY_DN21120_c0_g1_i1.p1PC1A_TRINITY_DN21120_c0_g1  -            272 1822at3193           -            867   1.2e-29  104.7   8.6   1   2     1e-21   2.1e-18   67.5   0.2   777   867    17   114     3   114 0.79 -
PC1A_TRINITY_DN21120_c0_g1_i1.p1PC1A_TRINITY_DN21120_c0_g1  -            272 1822at3193           -            867   1.2e-29  104.7   8.6   2   2   1.9e-13   3.9e-10   40.2   3.5   633   760   128   264   118   269 0.73 -
PC3J_TRINITY_DN48781_c3_g2_i1.p1PC3J_TRINITY_DN48781_c3_g2  -            213 1822at3193           -            867   3.1e-29  103.4   0.2   1   1   5.1e-30     1e-26   95.0   0.2   693   832    46   213    23   213 0.75 -
PC3J_TRINITY_DN3463_c0_g1_i1.p1PC3J_TRINITY_DN3463_c0_g1    -            144 1822at3193           -            867   6.9e-29  102.2   0.1   1   1   3.9e-32     8e-29  102.0   0.1   733   855     1   136     1   142 0.82 -
PC3J_TRINITY_DN48933_c0_g3_i1.p1PC3J_TRINITY_DN48933_c0_g3  -            436 1822at3193           -            867   7.8e-29  102.1   6.4   1   1   5.6e-32   1.2e-28  101.5   6.4   713   867   214   369   204   369 0.89 -
PC2J_TRINITY_DN45546_c2_g1_i1.p1PC2J_TRINITY_DN45546_c2_g1  -            125 1822at3193           -            867   1.7e-25   91.0   0.0   1   2   1.6e-28   3.2e-25   90.1   0.0   708   787     4    87     2    94 0.89 -
PC2J_TRINITY_DN45546_c2_g1_i1.p1PC2J_TRINITY_DN45546_c2_g1  -            125 1822at3193           -            867   1.7e-25   91.0   0.0   2   2       1.2   2.4e+03   -2.1   0.0   785   805   105   125    95   125 0.76 -
PC1A_TRINITY_DN28170_c0_g1_i1.p1PC1A_TRINITY_DN28170_c0_g1  -            157 1822at3193           -            867   1.7e-24   87.7   8.8   1   2   1.2e-12   2.5e-09   37.5   3.5   397   444     1    49     1    57 0.93 -
PC1A_TRINITY_DN28170_c0_g1_i1.p1PC1A_TRINITY_DN28170_c0_g1  -            157 1822at3193           -            867   1.7e-24   87.7   8.8   2   2   1.8e-17   3.8e-14   53.5   0.2   438   477   113   152   102   155 0.90 -
PC1A_TRINITY_DN39025_c0_g2_i1.p1PC1A_TRINITY_DN39025_c0_g2  -            120 1822at3193           -            867   2.6e-24   87.1   0.0   1   1   1.3e-27   2.8e-24   87.0   0.0   738   858     1   117     1   120 0.85 -
PC3J_TRINITY_DN5465_c0_g1_i2.p1PC3J_TRINITY_DN5465_c0_g1    -            123 1822at3193           -            867   1.5e-22   81.3   0.2   1   1   7.5e-26   1.6e-22   81.2   0.2   500   577    44   121    11   123 0.80 -
PC1J_TRINITY_DN676_c0_g1_i1.p1PC1J_TRINITY_DN676_c0_g1      -            107 1822at3193           -            867   6.1e-16   59.4   0.0   1   1   3.6e-19   7.5e-16   59.1   0.0   743   821     9    92     2    96 0.82 -
PC1A_TRINITY_DN48069_c0_g1_i1.p1PC1A_TRINITY_DN48069_c0_g1  -            145 1822at3193           -            867   1.2e-13   51.8   0.1   1   1   6.6e-17   1.4e-13   51.6   0.1   733   826    42   135    32   144 0.86 -
PC1A_TRINITY_DN45450_c0_g1_i1.p1PC1A_TRINITY_DN45450_c0_g1  -            109 1822at3193           -            867   1.3e-13   51.7   0.6   1   1   6.4e-17   1.3e-13   51.7   0.6   745   850     7   109     1   109 0.82 -
PC2J_TRINITY_DN10966_c0_g1_i1.p1PC2J_TRINITY_DN10966_c0_g1  -            179 1822at3193           -            867   2.1e-13   51.0   2.0   1   2    0.0072        15    5.2   0.1   193   214    33    54    17    60 0.78 -
PC2J_TRINITY_DN10966_c0_g1_i1.p1PC2J_TRINITY_DN10966_c0_g1  -            179 1822at3193           -            867   2.1e-13   51.0   2.0   2   2   4.1e-15   8.4e-12   45.7   0.3   159   241   100   179    67   179 0.82 -
PC2J_TRINITY_DN39687_c3_g5_i1.p1PC2J_TRINITY_DN39687_c3_g5  -            121 1822at3193           -            867   3.4e-13   50.3   0.0   1   1   1.9e-16   3.9e-13   50.1   0.0   794   867     3    75     1    75 0.85 -
PC1A_TRINITY_DN35628_c0_g2_i1.p1PC1A_TRINITY_DN35628_c0_g2  -            126 1822at3193           -            867   1.9e-10   41.2   6.2   1   2      0.44   9.1e+02   -0.7   0.2   634   666    12    43     7    54 0.64 -
PC1A_TRINITY_DN35628_c0_g2_i1.p1PC1A_TRINITY_DN35628_c0_g2  -            126 1822at3193           -            867   1.9e-10   41.2   6.2   2   2   1.5e-13   3.2e-10   40.5   5.6   706   773    56   125    24   126 0.82 -
PC2J_TRINITY_DN34741_c0_g1_i1.p1PC2J_TRINITY_DN34741_c0_g1  -            114 1822at3193           -            867   6.2e-09   36.2   0.9   1   1   3.4e-12   6.9e-09   36.0   0.9   664   732    34   108     3   110 0.76 -
PC1J_TRINITY_DN37424_c2_g1_i2.p1PC1J_TRINITY_DN37424_c2_g1  -            107 1822at3193           -            867   2.6e-08   34.1   0.0   1   1   1.5e-11     3e-08   33.9   0.0   806   867     1    61     1    61 0.83 -
PC2J_TRINITY_DN10966_c0_g2_i1.p1PC2J_TRINITY_DN10966_c0_g2  -            101 1822at3193           -            867   4.5e-08   33.3   0.8   1   1   2.6e-11   5.3e-08   33.1   0.8   243   278    16    51     6    58 0.87 -
PC3J_TRINITY_DN36386_c0_g1_i1.p1PC3J_TRINITY_DN36386_c0_g1  -            106 1822at3193           -            867   8.9e-07   29.1   8.0   1   2   1.6e-09   3.4e-06   27.1   7.5   713   772    33    95    25   100 0.82 -
PC3J_TRINITY_DN36386_c0_g1_i1.p1PC3J_TRINITY_DN36386_c0_g1  -            106 1822at3193           -            867   8.9e-07   29.1   8.0   2   2     0.024        49    3.4   1.0   715   739    82   106    81   106 0.96 -
PC2J_TRINITY_DN39883_c2_g1_i3.p1PC2J_TRINITY_DN39883_c2_g1  -            150 1822at3193           -            867   2.5e-06   27.6   3.0   1   2      0.39     8e+02   -0.5   0.2   621   662    15    57     7    63 0.81 -
PC2J_TRINITY_DN39883_c2_g1_i3.p1PC2J_TRINITY_DN39883_c2_g1  -            150 1822at3193           -            867   2.5e-06   27.6   3.0   2   2   1.2e-09   2.5e-06   27.6   3.0   711   777    78   147    70   149 0.86 -
PC1J_TRINITY_DN11506_c0_g1_i1.p1PC1J_TRINITY_DN11506_c0_g1  -            120 1822at3193           -            867   6.1e-06   26.3   0.1   1   1   3.6e-09   7.4e-06   26.0   0.1   307   377    22   104     7   110 0.74 -
PC2J_TRINITY_DN39626_c2_g1_i4.p1PC2J_TRINITY_DN39626_c2_g1  -            116 1822at3193           -            867   8.7e-05   22.5   0.1   1   1   4.3e-08   8.9e-05   22.4   0.1   607   665    53   114    31   116 0.84 -
PC2A_TRINITY_DN37488_c0_g1_i1.p1PC2A_TRINITY_DN37488_c0_g1  -            127 1822at3193           -            867   9.5e-05   22.4   0.8   1   1   5.4e-08   0.00011   22.1   0.8   805   867     1    66     1    66 0.74 -
PC3A_TRINITY_DN43819_c3_g2_i1.p1PC3A_TRINITY_DN43819_c3_g2  -            133 1822at3193           -            867    0.0008   19.3   0.4   1   2   3.9e-07    0.0008   19.3   0.4   833   867     9    48     3    48 0.78 -
PC3A_TRINITY_DN43819_c3_g2_i1.p1PC3A_TRINITY_DN43819_c3_g2  -            133 1822at3193           -            867    0.0008   19.3   0.4   2   2      0.48   9.8e+02   -0.8   0.1   485   525    70   110    59   128 0.71 -
PC3J_TRINITY_DN41876_c0_g4_i1.p1PC3J_TRINITY_DN41876_c0_g4  -            104 1822at3193           -            867    0.0016   18.3   0.7   1   1   9.1e-07    0.0019   18.1   0.7   386   444    33    98    24   102 0.83 -
PC1A_TRINITY_DN34110_c0_g2_i1.p1PC1A_TRINITY_DN34110_c0_g2  -            199 1822at3193           -            867    0.0032   17.3   1.0   1   1   1.6e-06    0.0032   17.3   1.0   383   444    67   135    51   139 0.77 -
PC3J_TRINITY_DN49480_c2_g1_i1.p1PC3J_TRINITY_DN49480_c2_g1  -            124 1822at3193           -            867     0.025   14.3   0.1   1   1   1.4e-05     0.028   14.2   0.1   322   369    70   117    41   121 0.82 -
PC2J_TRINITY_DN34551_c0_g2_i2.p1PC2J_TRINITY_DN34551_c0_g2  -            146 1822at3193           -            867      0.34   10.6   1.6   1   1   0.00018      0.37   10.5   1.6   420   486    45   111    22   130 0.86 -
#
# Program:         hmmsearch
# Version:         3.2.1 (June 2018)
# Pipeline mode:   SEARCH
# Query file:      /isg/shared/databases/BUSCO/odb10/embryophyta_odb10/hmms/1822at3193.hmm
# Target file:     Pine_final_annotations_no_contam_lvl0.faa
# Option settings: /usr/local/bin/hmmsearch --domtblout /labs/Wegrzyn/Juniper_Pine/BUSCO/NEW/busco_pine/run_embryophyta_odb10/hmmer_output/1822at3193.out --cpu 1 /isg/shared/databases/BUSCO/odb10/embryophyta_odb10/hmms/1822at3193.hmm Pine_final_annotations_no_contam_lvl0.faa 
# Current dir:     /labs/Wegrzyn/Juniper_Pine/BUSCO/NEW
# Date:            Thu Aug  6 14:47:27 2020
# [ok]
