#                                                                                                                   --- full sequence --- -------------- this domain -------------   hmm coord   ali coord   env coord
# target name                                               accession   tlen query name           accession   qlen   E-value  score  bias   #  of  c-Evalue  i-Evalue  score  bias  from    to  from    to  from    to  acc description of target
#                                       ------------------- ---------- ----- -------------------- ---------- ----- --------- ------ ----- --- --- --------- --------- ------ ----- ----- ----- ----- ----- ----- ----- ---- ---------------------
PC3J_TRINITY_DN43556_c4_g3_i1.p1PC3J_TRINITY_DN43556_c4_g3  -            331 185149at3193         -            375   1.6e-68  233.0   0.1   1   1   2.2e-71     3e-68  232.0   0.1     7   224    74   329    67   331 0.84 -
PC2J_TRINITY_DN35472_c2_g2_i4.p1PC2J_TRINITY_DN35472_c2_g2  -            180 185149at3193         -            375   9.4e-51  174.5   1.4   1   2   8.4e-54   1.1e-50  174.2   0.6   230   366     2   143     1   152 0.94 -
PC2J_TRINITY_DN35472_c2_g2_i4.p1PC2J_TRINITY_DN35472_c2_g2  -            180 185149at3193         -            375   9.4e-51  174.5   1.4   2   2       1.7   2.3e+03   -1.3   0.0   350   375   155   180   142   180 0.75 -
PC2A_TRINITY_DN30411_c3_g2_i1.p1PC2A_TRINITY_DN30411_c3_g2  -            104 185149at3193         -            375   2.6e-26   94.0   0.4   1   2     8e-22   1.1e-18   68.9   0.2    76   124     7    55     2    62 0.94 -
PC2A_TRINITY_DN30411_c3_g2_i1.p1PC2A_TRINITY_DN30411_c3_g2  -            104 185149at3193         -            375   2.6e-26   94.0   0.4   2   2     4e-08   5.4e-05   23.9   0.0    35    70    65   103    59   104 0.80 -
PC2A_TRINITY_DN30411_c3_g2_i2.p1PC2A_TRINITY_DN30411_c3_g2  -            101 185149at3193         -            375     1e-14   55.8   0.1   1   2   4.4e-10     6e-07   30.3   0.0    95   124    23    52    20    56 0.93 -
PC2A_TRINITY_DN30411_c3_g2_i2.p1PC2A_TRINITY_DN30411_c3_g2  -            101 185149at3193         -            375     1e-14   55.8   0.1   2   2   3.7e-08     5e-05   24.0   0.0    35    70    62   100    56   101 0.80 -
PC1A_TRINITY_DN43690_c2_g1_i12.p1PC1A_TRINITY_DN43690_c2_g1 -            426 185149at3193         -            375     5e-13   50.3   0.1   1   2     9e-05      0.12   12.8   0.0    74    98   277   301   264   306 0.79 -
PC1A_TRINITY_DN43690_c2_g1_i12.p1PC1A_TRINITY_DN43690_c2_g1 -            426 185149at3193         -            375     5e-13   50.3   0.1   2   2   1.3e-11   1.8e-08   35.3   0.0    70   124   355   409   337   416 0.77 -
PC2A_TRINITY_DN31098_c0_g3_i1.p1PC2A_TRINITY_DN31098_c0_g3  -            106 185149at3193         -            375   2.3e-06   28.4   0.0   1   1   1.8e-09   2.5e-06   28.3   0.0    66   121    13    68     3    94 0.81 -
PC2J_TRINITY_DN34735_c0_g1_i2.p1PC2J_TRINITY_DN34735_c0_g1  -            133 185149at3193         -            375   3.1e-06   27.9   0.0   1   1   2.9e-09     4e-06   27.6   0.0    74   121    34    81    24    93 0.85 -
PC2J_TRINITY_DN34735_c0_g1_i1.p1PC2J_TRINITY_DN34735_c0_g1  -            140 185149at3193         -            375   3.6e-06   27.7   0.0   1   1   3.3e-09   4.5e-06   27.4   0.0    74   121    34    81    24    93 0.85 -
PC3J_TRINITY_DN38587_c3_g4_i1.p1PC3J_TRINITY_DN38587_c3_g4  -            114 185149at3193         -            375   4.7e-06   27.3   0.1   1   2   8.5e-09   1.2e-05   26.1   0.0    78   119    17    59     7    65 0.87 -
PC3J_TRINITY_DN38587_c3_g4_i1.p1PC3J_TRINITY_DN38587_c3_g4  -            114 185149at3193         -            375   4.7e-06   27.3   0.1   2   2       2.2   2.9e+03   -1.6   0.0   171   186    88   103    73   110 0.80 -
PC1A_TRINITY_DN42711_c1_g1_i2.p1PC1A_TRINITY_DN42711_c1_g1  -            300 185149at3193         -            375   8.7e-06   26.5   0.0   1   1   9.1e-09   1.2e-05   26.0   0.0    69   124    87   141    81   151 0.88 -
PC2J_TRINITY_DN37147_c1_g4_i13.p1PC2J_TRINITY_DN37147_c1_g4 -            216 185149at3193         -            375   1.3e-05   26.0   0.0   1   1   1.4e-08   1.9e-05   25.3   0.0    63   120    10    67     3    84 0.89 -
PC3J_TRINITY_DN48501_c4_g3_i1.p1PC3J_TRINITY_DN48501_c4_g3  -            123 185149at3193         -            375   1.4e-05   25.8   0.0   1   1   1.1e-08   1.5e-05   25.7   0.0    66   120     3    57     1    88 0.92 -
PC2J_TRINITY_DN37147_c1_g4_i6.p1PC2J_TRINITY_DN37147_c1_g4  -            200 185149at3193         -            375   1.6e-05   25.6   0.0   1   1   2.1e-08   2.8e-05   24.8   0.0    66   120    22    76    11    85 0.89 -
PC1A_TRINITY_DN43470_c4_g4_i3.p1PC1A_TRINITY_DN43470_c4_g4  -            373 185149at3193         -            375   1.7e-05   25.5   0.1   1   2   4.7e-06    0.0063   17.0   0.0    81   119    31    70    18    79 0.88 -
PC1A_TRINITY_DN43470_c4_g4_i3.p1PC1A_TRINITY_DN43470_c4_g4  -            373 185149at3193         -            375   1.7e-05   25.5   0.1   2   2      0.01        14    6.1   0.0   298   341   318   362   314   370 0.84 -
PC1J_TRINITY_DN36871_c2_g2_i5.p1PC1J_TRINITY_DN36871_c2_g2  -            129 185149at3193         -            375   1.8e-05   25.5   0.0   1   1   1.4e-08   1.9e-05   25.3   0.0    65   120    11    66     6   103 0.92 -
PC1J_TRINITY_DN31990_c0_g1_i1.p1PC1J_TRINITY_DN31990_c0_g1  -            240 185149at3193         -            375   1.9e-05   25.3   0.0   1   1   2.4e-08   3.3e-05   24.6   0.0    67   120    23    76     9    91 0.88 -
PC1J_TRINITY_DN36871_c2_g2_i9.p1PC1J_TRINITY_DN36871_c2_g2  -            132 185149at3193         -            375     2e-05   25.3   0.0   1   1   1.8e-08   2.5e-05   25.0   0.0    65   120    11    66     6    82 0.91 -
PC3J_TRINITY_DN48806_c1_g3_i1.p1PC3J_TRINITY_DN48806_c1_g3  -            106 185149at3193         -            375   8.4e-05   23.2   0.0   1   1   7.6e-08    0.0001   22.9   0.0    79   118    14    53     3    63 0.90 -
PC3A_TRINITY_DN41451_c3_g1_i2.p1PC3A_TRINITY_DN41451_c3_g1  -            169 185149at3193         -            375   0.00016   22.3   0.0   1   1   1.8e-07   0.00024   21.7   0.0    71   119    83   131    73   144 0.89 -
PC2J_TRINITY_DN40618_c2_g1_i2.p1PC2J_TRINITY_DN40618_c2_g1  -            215 185149at3193         -            375   0.00026   21.6   0.0   1   1   2.8e-07   0.00038   21.1   0.0    71   119    33    81    23    94 0.89 -
PC1A_TRINITY_DN32710_c0_g1_i1.p1PC1A_TRINITY_DN32710_c0_g1  -            102 185149at3193         -            375   0.00027   21.6   0.0   1   1   2.3e-07   0.00032   21.3   0.0    78   120    14    56     2    70 0.87 -
PC1A_TRINITY_DN42161_c5_g1_i3.p1PC1A_TRINITY_DN42161_c5_g1  -            311 185149at3193         -            375   0.00028   21.5   0.0   1   1   2.7e-07   0.00037   21.1   0.0    65   120   129   184   101   206 0.84 -
PC1J_TRINITY_DN37228_c0_g1_i1.p1PC1J_TRINITY_DN37228_c0_g1  -            187 185149at3193         -            375   0.00028   21.5   0.0   1   1   2.7e-07   0.00037   21.1   0.0    78   119   137   179   117   183 0.86 -
PC3J_TRINITY_DN11874_c0_g1_i1.p1PC3J_TRINITY_DN11874_c0_g1  -            100 185149at3193         -            375   0.00031   21.4   0.0   1   1   2.7e-07   0.00036   21.1   0.0    42   109    22    89    13    93 0.90 -
PC1J_TRINITY_DN38798_c2_g2_i2.p1PC1J_TRINITY_DN38798_c2_g2  -            150 185149at3193         -            375   0.00042   20.9   0.0   1   1   3.4e-07   0.00046   20.8   0.0    77   121    10    53     3   107 0.86 -
PC2A_TRINITY_DN28979_c0_g1_i3.p2PC2A_TRINITY_DN28979_c0_g1  -            119 185149at3193         -            375   0.00045   20.8   0.0   1   1   6.9e-07   0.00093   19.8   0.0    73   121     9    57     3    70 0.89 -
PC1J_TRINITY_DN39010_c1_g4_i1.p1PC1J_TRINITY_DN39010_c1_g4  -            248 185149at3193         -            375   0.00064   20.3   0.0   1   2   1.4e-06    0.0019   18.7   0.0    65   120   100   155    76   176 0.86 -
PC1J_TRINITY_DN39010_c1_g4_i1.p1PC1J_TRINITY_DN39010_c1_g4  -            248 185149at3193         -            375   0.00064   20.3   0.0   2   2       1.8   2.4e+03   -1.3   0.0   193   208   196   214   176   216 0.71 -
PC1A_TRINITY_DN37292_c0_g2_i1.p1PC1A_TRINITY_DN37292_c0_g2  -            162 185149at3193         -            375   0.00076   20.1   0.0   1   1   6.6e-07    0.0009   19.8   0.0    41   109    41   109    12   113 0.86 -
PC3J_TRINITY_DN46706_c2_g1_i2.p1PC3J_TRINITY_DN46706_c2_g1  -            140 185149at3193         -            375     0.001   19.7   0.1   1   2   3.2e-06    0.0044   17.6   0.0    77   120     3    46     1    66 0.90 -
PC3J_TRINITY_DN46706_c2_g1_i2.p1PC3J_TRINITY_DN46706_c2_g1  -            140 185149at3193         -            375     0.001   19.7   0.1   2   2       0.7   9.4e+02    0.0   0.1   193   208    87   105    65   108 0.71 -
PC2J_TRINITY_DN43063_c1_g2_i1.p1PC2J_TRINITY_DN43063_c1_g2  -            209 185149at3193         -            375    0.0011   19.5   0.0   1   1   1.1e-06    0.0015   19.1   0.0    76   120    60   103    46   113 0.88 -
PC1A_TRINITY_DN43470_c4_g4_i2.p1PC1A_TRINITY_DN43470_c4_g4  -            169 185149at3193         -            375    0.0012   19.4   0.0   1   1   1.2e-06    0.0017   18.9   0.0    81   119    31    70    17    80 0.88 -
PC2A_TRINITY_DN28979_c0_g1_i13.p1PC2A_TRINITY_DN28979_c0_g1 -            262 185149at3193         -            375    0.0024   18.5   0.0   1   1   2.5e-06    0.0034   17.9   0.0    73   121     8    56     2    92 0.90 -
PC1J_TRINITY_DN37041_c0_g1_i1.p1PC1J_TRINITY_DN37041_c0_g1  -            304 185149at3193         -            375    0.0026   18.3   0.0   1   1   2.9e-06     0.004   17.7   0.0    80   119   145   185   111   194 0.89 -
PC3A_TRINITY_DN43043_c2_g4_i2.p1PC3A_TRINITY_DN43043_c2_g4  -            112 185149at3193         -            375    0.0038   17.8   0.0   1   1   4.2e-06    0.0057   17.2   0.0    68    99    50    81    34    91 0.72 -
PC1J_TRINITY_DN30355_c0_g1_i1.p1PC1J_TRINITY_DN30355_c0_g1  -            267 185149at3193         -            375    0.0048   17.4   0.0   1   1     6e-06    0.0081   16.7   0.0    72   118    51    96    32   107 0.91 -
PC1A_TRINITY_DN43754_c1_g1_i1.p1PC1A_TRINITY_DN43754_c1_g1  -            318 185149at3193         -            375    0.0059   17.2   0.0   1   2   1.6e-05     0.021   15.3   0.0    72   121    33    81    20    96 0.85 -
PC1A_TRINITY_DN43754_c1_g1_i1.p1PC1A_TRINITY_DN43754_c1_g1  -            318 185149at3193         -            375    0.0059   17.2   0.0   2   2       1.8   2.4e+03   -1.3   0.0   308   341   276   310   268   313 0.80 -
PC3A_TRINITY_DN41830_c4_g2_i3.p1PC3A_TRINITY_DN41830_c4_g2  -            177 185149at3193         -            375    0.0067   17.0   0.0   1   1   7.2e-06    0.0098   16.4   0.0    72   120   114   161    97   167 0.87 -
PC1A_TRINITY_DN31211_c0_g1_i3.p1PC1A_TRINITY_DN31211_c0_g1  -            170 185149at3193         -            375    0.0077   16.8   0.0   1   1     8e-06     0.011   16.3   0.0    66   120    97   150    89   165 0.82 -
PC1A_TRINITY_DN40117_c1_g4_i1.p1PC1A_TRINITY_DN40117_c1_g4  -            161 185149at3193         -            375     0.017   15.7   0.0   1   1   1.6e-05     0.021   15.3   0.0    56   120    26    88     8   101 0.81 -
PC2J_TRINITY_DN40264_c2_g1_i1.p1PC2J_TRINITY_DN40264_c2_g1  -            181 185149at3193         -            375     0.018   15.6   0.0   1   1   1.8e-05     0.024   15.2   0.0    76   120    21    65     5    96 0.86 -
PC3A_TRINITY_DN42796_c2_g3_i1.p1PC3A_TRINITY_DN42796_c2_g3  -            225 185149at3193         -            375      0.03   14.8   0.0   1   1   3.4e-05     0.046   14.2   0.0    76   120   173   217   162   224 0.90 -
PC2J_TRINITY_DN35844_c7_g1_i4.p1PC2J_TRINITY_DN35844_c7_g1  -            112 185149at3193         -            375     0.037   14.5   0.0   1   2    0.0062       8.4    6.8   0.0   103   123    25    45    17    61 0.80 -
PC2J_TRINITY_DN35844_c7_g1_i4.p1PC2J_TRINITY_DN35844_c7_g1  -            112 185149at3193         -            375     0.037   14.5   0.0   2   2      0.01        14    6.1   0.0   104   123    82   101    75   110 0.83 -
PC3A_TRINITY_DN34966_c0_g1_i1.p1PC3A_TRINITY_DN34966_c0_g1  -            301 185149at3193         -            375     0.055   13.9   0.0   1   1   6.1e-05     0.082   13.4   0.0    78   119    55    97    36   111 0.87 -
PC1J_TRINITY_DN30896_c0_g1_i3.p1PC1J_TRINITY_DN30896_c0_g1  -            195 185149at3193         -            375     0.068   13.7   0.0   1   1   6.8e-05     0.093   13.2   0.0    76   120    53    96    18   108 0.80 -
PC1A_TRINITY_DN43091_c2_g1_i10.p1PC1A_TRINITY_DN43091_c2_g1 -            479 185149at3193         -            375     0.073   13.6   0.2   1   2       4.1   5.6e+03   -2.5   0.1   197   260     5    73     2    85 0.61 -
PC1A_TRINITY_DN43091_c2_g1_i10.p1PC1A_TRINITY_DN43091_c2_g1 -            479 185149at3193         -            375     0.073   13.6   0.2   2   2   0.00012      0.17   12.4   0.0    78   119   123   165   106   177 0.87 -
PC2J_TRINITY_DN37147_c1_g4_i1.p1PC2J_TRINITY_DN37147_c1_g4  -            131 185149at3193         -            375      0.15   12.5   0.0   1   1   0.00012      0.17   12.4   0.0    91   120    37    66     7    82 0.90 -
PC3A_TRINITY_DN7852_c0_g1_i1.p1PC3A_TRINITY_DN7852_c0_g1    -            125 185149at3193         -            375      0.44   11.0   0.0   1   1   0.00037       0.5   10.8   0.0    72   124    34    88     8    98 0.79 -
#
# Program:         hmmsearch
# Version:         3.2.1 (June 2018)
# Pipeline mode:   SEARCH
# Query file:      /isg/shared/databases/BUSCO/odb10/embryophyta_odb10/hmms/185149at3193.hmm
# Target file:     Pine_final_annotations_no_contam_lvl0.faa
# Option settings: /usr/local/bin/hmmsearch --domtblout /labs/Wegrzyn/Juniper_Pine/BUSCO/NEW/busco_pine/run_embryophyta_odb10/hmmer_output/185149at3193.out --cpu 1 /isg/shared/databases/BUSCO/odb10/embryophyta_odb10/hmms/185149at3193.hmm Pine_final_annotations_no_contam_lvl0.faa 
# Current dir:     /labs/Wegrzyn/Juniper_Pine/BUSCO/NEW
# Date:            Thu Aug  6 14:47:41 2020
# [ok]
