#                                                                                                                  --- full sequence --- -------------- this domain -------------   hmm coord   ali coord   env coord
# target name                                              accession   tlen query name           accession   qlen   E-value  score  bias   #  of  c-Evalue  i-Evalue  score  bias  from    to  from    to  from    to  acc description of target
#                                      ------------------- ---------- ----- -------------------- ---------- ----- --------- ------ ----- --- --- --------- --------- ------ ----- ----- ----- ----- ----- ----- ----- ---- ---------------------
PC3A_TRINITY_DN40676_c2_g1_i1.p1PC3A_TRINITY_DN40676_c2_g1 -            174 187034at3193         -            106     5e-53  179.5   0.1   1   1   8.1e-57   8.6e-53  178.7   0.1     1   106    44   160    44   160 0.90 -
PC1J_TRINITY_DN38218_c0_g7_i3.p1PC1J_TRINITY_DN38218_c0_g7 -            222 187034at3193         -            106   7.9e-53  178.8   0.0   1   1   1.6e-56   1.7e-52  177.8   0.0     1   106    92   208    92   208 0.90 -
PC1J_TRINITY_DN38218_c0_g7_i5.p1PC1J_TRINITY_DN38218_c0_g7 -            158 187034at3193         -            106     2e-17   65.0   0.0   1   1   3.8e-21     4e-17   64.0   0.0     1    43    92   138    92   149 0.85 -
PC2A_TRINITY_DN30242_c5_g1_i4.p1PC2A_TRINITY_DN30242_c5_g1 -            142 187034at3193         -            106   6.1e-11   44.1   0.1   1   1   1.2e-14   1.3e-10   43.1   0.1     1    28    84   111    84   127 0.88 -
PC2J_TRINITY_DN6182_c0_g1_i1.p1PC2J_TRINITY_DN6182_c0_g1   -            109 187034at3193         -            106    0.0031   19.4   0.1   1   1   4.7e-07    0.0049   18.7   0.1     5    29    79   107    76   109 0.75 -
PC3A_TRINITY_DN42231_c0_g1_i1.p1PC3A_TRINITY_DN42231_c0_g1 -            120 187034at3193         -            106     0.049   15.5   0.0   1   2    0.0022        23    6.9   0.0    39    65    20    46    12    57 0.84 -
PC3A_TRINITY_DN42231_c0_g1_i1.p1PC3A_TRINITY_DN42231_c0_g1 -            120 187034at3193         -            106     0.049   15.5   0.0   2   2    0.0025        26    6.7   0.0    36    55    87   106    80   116 0.76 -
#
# Program:         hmmsearch
# Version:         3.2.1 (June 2018)
# Pipeline mode:   SEARCH
# Query file:      /isg/shared/databases/BUSCO/odb10/embryophyta_odb10/hmms/187034at3193.hmm
# Target file:     Pine_final_annotations_no_contam_lvl0.faa
# Option settings: /usr/local/bin/hmmsearch --domtblout /labs/Wegrzyn/Juniper_Pine/BUSCO/NEW/busco_pine/run_embryophyta_odb10/hmmer_output/187034at3193.out --cpu 1 /isg/shared/databases/BUSCO/odb10/embryophyta_odb10/hmms/187034at3193.hmm Pine_final_annotations_no_contam_lvl0.faa 
# Current dir:     /labs/Wegrzyn/Juniper_Pine/BUSCO/NEW
# Date:            Thu Aug  6 14:47:58 2020
# [ok]
