#                                                                                                                   --- full sequence --- -------------- this domain -------------   hmm coord   ali coord   env coord
# target name                                               accession   tlen query name           accession   qlen   E-value  score  bias   #  of  c-Evalue  i-Evalue  score  bias  from    to  from    to  from    to  acc description of target
#                                       ------------------- ---------- ----- -------------------- ---------- ----- --------- ------ ----- --- --- --------- --------- ------ ----- ----- ----- ----- ----- ----- ----- ---- ---------------------
PC1J_TRINITY_DN35316_c0_g1_i3.p1PC1J_TRINITY_DN35316_c0_g1  -            209 193818at3193         -            112   1.7e-65  219.6   0.1   1   1   3.2e-69   2.5e-65  219.1   0.1     1   111    98   208    98   208 0.99 -
PC2J_TRINITY_DN41966_c0_g1_i12.p1PC2J_TRINITY_DN41966_c0_g1 -            119 193818at3193         -            112   8.8e-61  204.4   0.2   1   1   1.3e-64     1e-60  204.2   0.2    12   111    19   118    10   118 0.97 -
PC3J_TRINITY_DN45154_c2_g2_i1.p1PC3J_TRINITY_DN45154_c2_g2  -            100 193818at3193         -            112   5.7e-22   79.4   0.2   1   1   7.7e-26   6.2e-22   79.3   0.2    13   110     4    98     1    99 0.90 -
PC2A_TRINITY_DN33553_c2_g1_i14.p1PC2A_TRINITY_DN33553_c2_g1 -            115 193818at3193         -            112   8.1e-22   79.0   0.1   1   1   1.4e-25   1.1e-21   78.5   0.1    42    90    56   104    49   112 0.93 -
PC1J_TRINITY_DN40400_c2_g6_i1.p1PC1J_TRINITY_DN40400_c2_g6  -            106 193818at3193         -            112   1.3e-18   68.7   0.2   1   1   1.7e-22   1.4e-18   68.5   0.2    23   111    17   104     5   105 0.88 -
PC3J_TRINITY_DN46620_c3_g1_i2.p1PC3J_TRINITY_DN46620_c3_g1  -            133 193818at3193         -            112     1e-16   62.5   0.1   1   1   1.9e-20   1.5e-16   62.0   0.1     1    41    75   115    75   129 0.90 -
PC2A_TRINITY_DN33553_c2_g1_i13.p1PC2A_TRINITY_DN33553_c2_g1 -            118 193818at3193         -            112   1.1e-08   36.7   1.2   1   1   1.9e-12   1.5e-08   36.2   1.2    87   111    93   117    80   117 0.91 -
PC3J_TRINITY_DN42471_c3_g2_i1.p1PC3J_TRINITY_DN42471_c3_g2  -            104 193818at3193         -            112     0.039   15.6   0.0   1   2     0.003        24    6.6   0.0    63    82     8    26     1    36 0.78 -
PC3J_TRINITY_DN42471_c3_g2_i1.p1PC3J_TRINITY_DN42471_c3_g2  -            104 193818at3193         -            112     0.039   15.6   0.0   2   2    0.0016        13    7.5   0.0    58    82    58    81    41    89 0.79 -
#
# Program:         hmmsearch
# Version:         3.2.1 (June 2018)
# Pipeline mode:   SEARCH
# Query file:      /isg/shared/databases/BUSCO/odb10/embryophyta_odb10/hmms/193818at3193.hmm
# Target file:     Pine_final_annotations_no_contam_lvl0.faa
# Option settings: /usr/local/bin/hmmsearch --domtblout /labs/Wegrzyn/Juniper_Pine/BUSCO/NEW/busco_pine/run_embryophyta_odb10/hmmer_output/193818at3193.out --cpu 1 /isg/shared/databases/BUSCO/odb10/embryophyta_odb10/hmms/193818at3193.hmm Pine_final_annotations_no_contam_lvl0.faa 
# Current dir:     /labs/Wegrzyn/Juniper_Pine/BUSCO/NEW
# Date:            Thu Aug  6 14:49:00 2020
# [ok]
