#                                                                                                                  --- full sequence --- -------------- this domain -------------   hmm coord   ali coord   env coord
# target name                                              accession   tlen query name           accession   qlen   E-value  score  bias   #  of  c-Evalue  i-Evalue  score  bias  from    to  from    to  from    to  acc description of target
#                                      ------------------- ---------- ----- -------------------- ---------- ----- --------- ------ ----- --- --- --------- --------- ------ ----- ----- ----- ----- ----- ----- ----- ---- ---------------------
PC2J_TRINITY_DN5228_c0_g1_i1.p1PC2J_TRINITY_DN5228_c0_g1   -            100 194233at3193         -            107     1e-16   62.8   0.0   1   1     5e-21   1.6e-16   62.2   0.0     4    48    49    99    46   100 0.90 -
PC1A_TRINITY_DN44213_c2_g3_i3.p1PC1A_TRINITY_DN44213_c2_g3 -            159 194233at3193         -            107       0.7   11.8   0.2   1   2     0.003        97    4.9   0.0    28    47    16    35     9    49 0.90 -
PC1A_TRINITY_DN44213_c2_g3_i3.p1PC1A_TRINITY_DN44213_c2_g3 -            159 194233at3193         -            107       0.7   11.8   0.2   2   2    0.0029        93    5.0   0.0    28    47    67    86    58    99 0.89 -
#
# Program:         hmmsearch
# Version:         3.2.1 (June 2018)
# Pipeline mode:   SEARCH
# Query file:      /isg/shared/databases/BUSCO/odb10/embryophyta_odb10/hmms/194233at3193.hmm
# Target file:     Pine_final_annotations_no_contam_lvl0.faa
# Option settings: /usr/local/bin/hmmsearch --domtblout /labs/Wegrzyn/Juniper_Pine/BUSCO/NEW/busco_pine/run_embryophyta_odb10/hmmer_output/194233at3193.out --cpu 1 /isg/shared/databases/BUSCO/odb10/embryophyta_odb10/hmms/194233at3193.hmm Pine_final_annotations_no_contam_lvl0.faa 
# Current dir:     /labs/Wegrzyn/Juniper_Pine/BUSCO/NEW
# Date:            Thu Aug  6 14:49:32 2020
# [ok]
