#                                                                                                                   --- full sequence --- -------------- this domain -------------   hmm coord   ali coord   env coord
# target name                                               accession   tlen query name           accession   qlen   E-value  score  bias   #  of  c-Evalue  i-Evalue  score  bias  from    to  from    to  from    to  acc description of target
#                                       ------------------- ---------- ----- -------------------- ---------- ----- --------- ------ ----- --- --- --------- --------- ------ ----- ----- ----- ----- ----- ----- ----- ---- ---------------------
PC2J_TRINITY_DN42364_c0_g1_i25.p1PC2J_TRINITY_DN42364_c0_g1 -            222 200301at3193         -            124   1.6e-60  204.5   0.7   1   1   1.8e-64   2.3e-60  203.9   0.7     1   123    61   190    61   191 0.94 -
PC3J_TRINITY_DN40784_c1_g3_i9.p1PC3J_TRINITY_DN40784_c1_g3  -            138 200301at3193         -            124   2.8e-30  106.7   0.4   1   1   3.2e-34     4e-30  106.2   0.4     1    60    54   114    54   120 0.95 -
PC2J_TRINITY_DN42364_c0_g1_i24.p1PC2J_TRINITY_DN42364_c0_g1 -            128 200301at3193         -            124   3.2e-17   64.5   0.1   1   1   3.8e-21   4.9e-17   64.0   0.1    67   123    34    96    24    97 0.89 -
PC2J_TRINITY_DN42364_c0_g1_i23.p1PC2J_TRINITY_DN42364_c0_g1 -            104 200301at3193         -            124   1.1e-06   30.6   0.5   1   1   1.3e-10   1.7e-06   29.9   0.5     1    23    61    83    61    97 0.92 -
PC1J_TRINITY_DN37515_c1_g2_i6.p2PC1J_TRINITY_DN37515_c1_g2  -            105 200301at3193         -            124       0.2   13.5   0.0   1   2    0.0031        39    6.1   0.0    18    38    23    43    15    48 0.85 -
PC1J_TRINITY_DN37515_c1_g2_i6.p2PC1J_TRINITY_DN37515_c1_g2  -            105 200301at3193         -            124       0.2   13.5   0.0   2   2    0.0046        59    5.5   0.0    14    38    64    88    58    94 0.81 -
#
# Program:         hmmsearch
# Version:         3.2.1 (June 2018)
# Pipeline mode:   SEARCH
# Query file:      /isg/shared/databases/BUSCO/odb10/embryophyta_odb10/hmms/200301at3193.hmm
# Target file:     Pine_final_annotations_no_contam_lvl0.faa
# Option settings: /usr/local/bin/hmmsearch --domtblout /labs/Wegrzyn/Juniper_Pine/BUSCO/NEW/busco_pine/run_embryophyta_odb10/hmmer_output/200301at3193.out --cpu 1 /isg/shared/databases/BUSCO/odb10/embryophyta_odb10/hmms/200301at3193.hmm Pine_final_annotations_no_contam_lvl0.faa 
# Current dir:     /labs/Wegrzyn/Juniper_Pine/BUSCO/NEW
# Date:            Thu Aug  6 14:50:01 2020
# [ok]
