#                                                                                                                  --- full sequence --- -------------- this domain -------------   hmm coord   ali coord   env coord
# target name                                              accession   tlen query name           accession   qlen   E-value  score  bias   #  of  c-Evalue  i-Evalue  score  bias  from    to  from    to  from    to  acc description of target
#                                      ------------------- ---------- ----- -------------------- ---------- ----- --------- ------ ----- --- --- --------- --------- ------ ----- ----- ----- ----- ----- ----- ----- ---- ---------------------
PC3J_TRINITY_DN35110_c0_g1_i1.p1PC3J_TRINITY_DN35110_c0_g1 -            162 201638at3193         -            133   2.6e-43  149.1   0.4   1   1   1.4e-46   2.2e-42  146.2   0.4     1   111     1   126     1   145 0.85 -
PC3J_TRINITY_DN46344_c4_g1_i1.p1PC3J_TRINITY_DN46344_c4_g1 -            142 201638at3193         -            133     4e-11   45.0   1.2   1   2   5.5e-10   8.7e-06   27.7   0.1    15    73    40   101    30   103 0.80 -
PC3J_TRINITY_DN46344_c4_g1_i1.p1PC3J_TRINITY_DN46344_c4_g1 -            142 201638at3193         -            133     4e-11   45.0   1.2   2   2     1e-06     0.016   17.1   0.1    11    49   101   137    96   140 0.85 -
PC1A_TRINITY_DN39254_c0_g1_i1.p1PC1A_TRINITY_DN39254_c0_g1 -            167 201638at3193         -            133   2.4e-06   29.5   0.0   1   1     2e-10   3.2e-06   29.1   0.0    15    77    56   121    46   162 0.83 -
PC1A_TRINITY_DN33263_c0_g1_i1.p1PC1A_TRINITY_DN33263_c0_g1 -            100 201638at3193         -            133      0.48   12.4   0.1   1   1   3.4e-05      0.54   12.2   0.1    80   126    37    83    12    89 0.87 -
#
# Program:         hmmsearch
# Version:         3.2.1 (June 2018)
# Pipeline mode:   SEARCH
# Query file:      /isg/shared/databases/BUSCO/odb10/embryophyta_odb10/hmms/201638at3193.hmm
# Target file:     Pine_final_annotations_no_contam_lvl0.faa
# Option settings: /usr/local/bin/hmmsearch --domtblout /labs/Wegrzyn/Juniper_Pine/BUSCO/NEW/busco_pine/run_embryophyta_odb10/hmmer_output/201638at3193.out --cpu 1 /isg/shared/databases/BUSCO/odb10/embryophyta_odb10/hmms/201638at3193.hmm Pine_final_annotations_no_contam_lvl0.faa 
# Current dir:     /labs/Wegrzyn/Juniper_Pine/BUSCO/NEW
# Date:            Thu Aug  6 14:50:04 2020
# [ok]
