#                                                                                                                  --- full sequence --- -------------- this domain -------------   hmm coord   ali coord   env coord
# target name                                              accession   tlen query name           accession   qlen   E-value  score  bias   #  of  c-Evalue  i-Evalue  score  bias  from    to  from    to  from    to  acc description of target
#                                      ------------------- ---------- ----- -------------------- ---------- ----- --------- ------ ----- --- --- --------- --------- ------ ----- ----- ----- ----- ----- ----- ----- ---- ---------------------
PC1A_TRINITY_DN40311_c8_g1_i1.p2PC1A_TRINITY_DN40311_c8_g1 -            101 207739at3193         -             83      0.43   12.6   0.1   1   1   2.1e-05      0.68   11.9   0.1     8    34    66    92    61   101 0.82 -
PC3J_TRINITY_DN41069_c1_g1_i9.p1PC3J_TRINITY_DN41069_c1_g1 -            147 207739at3193         -             83      0.48   12.4   0.0   1   2   0.00015       4.9    9.2   0.0     9    55    25    72    17    87 0.83 -
PC3J_TRINITY_DN41069_c1_g1_i9.p1PC3J_TRINITY_DN41069_c1_g1 -            147 207739at3193         -             83      0.48   12.4   0.0   2   2     0.053   1.7e+03    1.1   0.0    21    51   113   144   110   147 0.78 -
#
# Program:         hmmsearch
# Version:         3.2.1 (June 2018)
# Pipeline mode:   SEARCH
# Query file:      /isg/shared/databases/BUSCO/odb10/embryophyta_odb10/hmms/207739at3193.hmm
# Target file:     Pine_final_annotations_no_contam_lvl0.faa
# Option settings: /usr/local/bin/hmmsearch --domtblout /labs/Wegrzyn/Juniper_Pine/BUSCO/NEW/busco_pine/run_embryophyta_odb10/hmmer_output/207739at3193.out --cpu 1 /isg/shared/databases/BUSCO/odb10/embryophyta_odb10/hmms/207739at3193.hmm Pine_final_annotations_no_contam_lvl0.faa 
# Current dir:     /labs/Wegrzyn/Juniper_Pine/BUSCO/NEW
# Date:            Thu Aug  6 14:50:29 2020
# [ok]
