#                                                                                                                   --- full sequence --- -------------- this domain -------------   hmm coord   ali coord   env coord
# target name                                               accession   tlen query name           accession   qlen   E-value  score  bias   #  of  c-Evalue  i-Evalue  score  bias  from    to  from    to  from    to  acc description of target
#                                       ------------------- ---------- ----- -------------------- ---------- ----- --------- ------ ----- --- --- --------- --------- ------ ----- ----- ----- ----- ----- ----- ----- ---- ---------------------
PC3A_TRINITY_DN45824_c0_g1_i1.p1PC3A_TRINITY_DN45824_c0_g1  -            153 208235at3193         -            161   1.4e-32  114.5   4.0   1   2   1.5e-32   1.3e-28  101.6   0.1    60   149    10   111     5   120 0.86 -
PC3A_TRINITY_DN45824_c0_g1_i1.p1PC3A_TRINITY_DN45824_c0_g1  -            153 208235at3193         -            161   1.4e-32  114.5   4.0   2   2   1.3e-05      0.11   14.0   0.8   146   160   128   142   118   143 0.86 -
PC2A_TRINITY_DN10609_c0_g1_i1.p1PC2A_TRINITY_DN10609_c0_g1  -            137 208235at3193         -            161   3.7e-31  109.9   0.5   1   2   1.5e-24   1.4e-20   75.5   0.1    34   106     1    82     1    95 0.89 -
PC2A_TRINITY_DN10609_c0_g1_i1.p1PC2A_TRINITY_DN10609_c0_g1  -            137 208235at3193         -            161   3.7e-31  109.9   0.5   2   2   1.4e-11   1.3e-07   33.3   0.1    75   105    99   129    87   136 0.84 -
PC1A_TRINITY_DN42691_c5_g1_i2.p1PC1A_TRINITY_DN42691_c5_g1  -            101 208235at3193         -            161   4.4e-12   47.9   0.0   1   1   6.1e-16   5.6e-12   47.5   0.0   107   149    16    59     8    67 0.84 -
PC1A_TRINITY_DN15657_c0_g1_i2.p1PC1A_TRINITY_DN15657_c0_g1  -            104 208235at3193         -            161    0.0075   17.9   0.0   1   1   9.4e-07    0.0086   17.7   0.0    72   108    18    54     4    70 0.87 -
PC3J_TRINITY_DN26931_c0_g1_i1.p1PC3J_TRINITY_DN26931_c0_g1  -            223 208235at3193         -            161      0.18   13.4   0.0   1   1   3.1e-05      0.28   12.8   0.0    78   108   121   151    89   162 0.84 -
PC1J_TRINITY_DN39661_c3_g3_i15.p1PC1J_TRINITY_DN39661_c3_g3 -            183 208235at3193         -            161      0.32   12.6   0.4   1   2    0.0058        53    5.4   0.0    84   106    60    82    56    86 0.87 -
PC1J_TRINITY_DN39661_c3_g3_i15.p1PC1J_TRINITY_DN39661_c3_g3 -            183 208235at3193         -            161      0.32   12.6   0.4   2   2    0.0039        35    5.9   0.0    84   110    85   111    82   151 0.78 -
PC2A_TRINITY_DN35247_c1_g1_i19.p1PC2A_TRINITY_DN35247_c1_g1 -            107 208235at3193         -            161       0.9   11.1   1.0   1   1   0.00012       1.1   10.8   1.0    62   115     5    58     1    65 0.84 -
#
# Program:         hmmsearch
# Version:         3.2.1 (June 2018)
# Pipeline mode:   SEARCH
# Query file:      /isg/shared/databases/BUSCO/odb10/embryophyta_odb10/hmms/208235at3193.hmm
# Target file:     Pine_final_annotations_no_contam_lvl0.faa
# Option settings: /usr/local/bin/hmmsearch --domtblout /labs/Wegrzyn/Juniper_Pine/BUSCO/NEW/busco_pine/run_embryophyta_odb10/hmmer_output/208235at3193.out --cpu 1 /isg/shared/databases/BUSCO/odb10/embryophyta_odb10/hmms/208235at3193.hmm Pine_final_annotations_no_contam_lvl0.faa 
# Current dir:     /labs/Wegrzyn/Juniper_Pine/BUSCO/NEW
# Date:            Thu Aug  6 14:50:31 2020
# [ok]
