#                                                                                                                   --- full sequence --- -------------- this domain -------------   hmm coord   ali coord   env coord
# target name                                               accession   tlen query name           accession   qlen   E-value  score  bias   #  of  c-Evalue  i-Evalue  score  bias  from    to  from    to  from    to  acc description of target
#                                       ------------------- ---------- ----- -------------------- ---------- ----- --------- ------ ----- --- --- --------- --------- ------ ----- ----- ----- ----- ----- ----- ----- ---- ---------------------
PC2J_TRINITY_DN20776_c0_g1_i1.p1PC2J_TRINITY_DN20776_c0_g1  -            194 21873at3193          -            937   2.2e-50  173.3  19.9   1   2   1.1e-38   4.1e-35  122.7   5.1   309   398     2    96     1   104 0.89 -
PC2J_TRINITY_DN20776_c0_g1_i1.p1PC2J_TRINITY_DN20776_c0_g1  -            194 21873at3193          -            937   2.2e-50  173.3  19.9   2   2   7.4e-19   2.8e-15   57.1   6.7   389   446   109   167   101   186 0.87 -
PC1A_TRINITY_DN6994_c0_g1_i1.p1PC1A_TRINITY_DN6994_c0_g1    -            139 21873at3193          -            937   7.1e-49  168.3   0.2   1   1   2.1e-52   7.9e-49  168.1   0.2   753   888     1   139     1   139 0.97 -
PC3J_TRINITY_DN13539_c0_g1_i3.p1PC3J_TRINITY_DN13539_c0_g1  -            192 21873at3193          -            937   3.7e-47  162.6   0.0   1   1   1.1e-50   4.3e-47  162.4   0.0   469   630     2   173     1   187 0.85 -
PC3J_TRINITY_DN33847_c0_g1_i1.p1PC3J_TRINITY_DN33847_c0_g1  -            111 21873at3193          -            937   3.3e-39  136.3   1.2   1   1   1.1e-42     4e-39  136.0   1.2   131   226     5   100     3   108 0.97 -
PC1J_TRINITY_DN18055_c0_g1_i2.p1PC1J_TRINITY_DN18055_c0_g1  -            128 21873at3193          -            937   1.2e-34  121.2   0.2   1   1   3.7e-38   1.4e-34  121.0   0.2   426   520     1   106     1   123 0.86 -
PC3J_TRINITY_DN13539_c0_g1_i2.p1PC3J_TRINITY_DN13539_c0_g1  -            163 21873at3193          -            937   1.6e-23   84.3   0.0   1   1   5.1e-27   1.9e-23   84.1   0.0   469   592     2   135     1   144 0.81 -
PC1A_TRINITY_DN44263_c1_g1_i10.p1PC1A_TRINITY_DN44263_c1_g1 -            752 21873at3193          -            937   0.00023   21.0   0.7   1   2   5.1e-05      0.19   11.3   0.2   832   884   284   334   231   374 0.65 -
PC1A_TRINITY_DN44263_c1_g1_i10.p1PC1A_TRINITY_DN44263_c1_g1 -            752 21873at3193          -            937   0.00023   21.0   0.7   2   2   0.00056       2.1    7.9   0.0   714   799   580   662   574   687 0.59 -
PC3A_TRINITY_DN38023_c0_g1_i5.p1PC3A_TRINITY_DN38023_c0_g1  -            125 21873at3193          -            937   0.00048   19.9   0.9   1   2   5.9e-06     0.022   14.4   0.1   832   884    12    62     7    76 0.91 -
PC3A_TRINITY_DN38023_c0_g1_i5.p1PC3A_TRINITY_DN38023_c0_g1  -            125 21873at3193          -            937   0.00048   19.9   0.9   2   2    0.0001      0.38   10.3   0.0   819   873    34    89    33   102 0.83 -
PC2J_TRINITY_DN38080_c2_g1_i1.p1PC2J_TRINITY_DN38080_c2_g1  -            261 21873at3193          -            937    0.0016   18.2   0.4   1   2   1.4e-05     0.051   13.2   0.1   792   870    10    90     4   102 0.69 -
PC2J_TRINITY_DN38080_c2_g1_i1.p1PC2J_TRINITY_DN38080_c2_g1  -            261 21873at3193          -            937    0.0016   18.2   0.4   2   2    0.0082        31    4.0   0.1   140   178    94   132    89   146 0.73 -
PC3A_TRINITY_DN38023_c0_g1_i6.p1PC3A_TRINITY_DN38023_c0_g1  -            136 21873at3193          -            937     0.012   15.3   0.5   1   1   8.2e-06     0.031   13.9   0.1   832   884    12    62     7    66 0.91 -
PC3A_TRINITY_DN36111_c0_g3_i2.p1PC3A_TRINITY_DN36111_c0_g3  -            103 21873at3193          -            937     0.014   15.1   0.0   1   1   4.5e-06     0.017   14.8   0.0   837   895    32    89    25    94 0.88 -
PC3J_TRINITY_DN41792_c0_g2_i1.p1PC3J_TRINITY_DN41792_c0_g2  -            133 21873at3193          -            937     0.017   14.8   0.0   1   1   4.5e-06     0.017   14.8   0.0   578   639    65   125    38   133 0.73 -
PC1A_TRINITY_DN42043_c2_g8_i1.p1PC1A_TRINITY_DN42043_c2_g8  -            105 21873at3193          -            937     0.017   14.8   0.0   1   1   5.1e-06     0.019   14.6   0.0   574   635    18    83     6    92 0.80 -
PC1A_TRINITY_DN41626_c2_g1_i3.p1PC1A_TRINITY_DN41626_c2_g1  -            362 21873at3193          -            937     0.018   14.7   0.1   1   1   6.2e-06     0.023   14.3   0.1   184   270   267   347   241   358 0.84 -
PC3J_TRINITY_DN41146_c5_g4_i2.p1PC3J_TRINITY_DN41146_c5_g4  -            107 21873at3193          -            937      0.12   12.0   0.2   1   1   3.8e-05      0.14   11.7   0.2   832   880    16    62     7    69 0.90 -
PC1J_TRINITY_DN36736_c1_g5_i1.p1PC1J_TRINITY_DN36736_c1_g5  -            160 21873at3193          -            937      0.21   11.2   2.8   1   2   0.00021      0.79    9.3   2.4   834   895    23    81    11    85 0.82 -
PC1J_TRINITY_DN36736_c1_g5_i1.p1PC1J_TRINITY_DN36736_c1_g5  -            160 21873at3193          -            937      0.21   11.2   2.8   2   2     0.058   2.2e+02    1.2   0.0   606   630    81   105    79   141 0.64 -
PC1A_TRINITY_DN5650_c0_g1_i1.p1PC1A_TRINITY_DN5650_c0_g1    -            107 21873at3193          -            937      0.26   10.9   0.0   1   2     0.082   3.1e+02    0.7   0.0   834   858    17    44     7    54 0.78 -
PC1A_TRINITY_DN5650_c0_g1_i1.p1PC1A_TRINITY_DN5650_c0_g1    -            107 21873at3193          -            937      0.26   10.9   0.0   2   2   0.00037       1.4    8.5   0.0   591   627    64   101    47   104 0.85 -
#
# Program:         hmmsearch
# Version:         3.2.1 (June 2018)
# Pipeline mode:   SEARCH
# Query file:      /isg/shared/databases/BUSCO/odb10/embryophyta_odb10/hmms/21873at3193.hmm
# Target file:     Pine_final_annotations_no_contam_lvl0.faa
# Option settings: /usr/local/bin/hmmsearch --domtblout /labs/Wegrzyn/Juniper_Pine/BUSCO/NEW/busco_pine/run_embryophyta_odb10/hmmer_output/21873at3193.out --cpu 1 /isg/shared/databases/BUSCO/odb10/embryophyta_odb10/hmms/21873at3193.hmm Pine_final_annotations_no_contam_lvl0.faa 
# Current dir:     /labs/Wegrzyn/Juniper_Pine/BUSCO/NEW
# Date:            Thu Aug  6 14:51:00 2020
# [ok]
