#                                                                                                                   --- full sequence --- -------------- this domain -------------   hmm coord   ali coord   env coord
# target name                                               accession   tlen query name           accession   qlen   E-value  score  bias   #  of  c-Evalue  i-Evalue  score  bias  from    to  from    to  from    to  acc description of target
#                                       ------------------- ---------- ----- -------------------- ---------- ----- --------- ------ ----- --- --- --------- --------- ------ ----- ----- ----- ----- ----- ----- ----- ---- ---------------------
PC1J_TRINITY_DN33703_c0_g1_i13.p1PC1J_TRINITY_DN33703_c0_g1 -            340 23608at3193          -            689  2.8e-109  368.3   6.0   1   3   3.3e-23   8.8e-20   72.6   0.6    74   135     1    62     1    84 0.95 -
PC1J_TRINITY_DN33703_c0_g1_i13.p1PC1J_TRINITY_DN33703_c0_g1 -            340 23608at3193          -            689  2.8e-109  368.3   6.0   2   3      0.58   1.5e+03   -0.9   0.0   139   155   102   118    95   135 0.80 -
PC1J_TRINITY_DN33703_c0_g1_i13.p1PC1J_TRINITY_DN33703_c0_g1 -            340 23608at3193          -            689  2.8e-109  368.3   6.0   3   3   2.2e-91   5.9e-88  297.9   0.2   155   320   170   337   157   339 0.94 -
PC1A_TRINITY_DN34342_c0_g1_i3.p1PC1A_TRINITY_DN34342_c0_g1  -            280 23608at3193          -            689   4.3e-74  252.0   1.7   1   2   2.3e-20     6e-17   63.2   0.1   450   533     1    89     1    95 0.91 -
PC1A_TRINITY_DN34342_c0_g1_i3.p1PC1A_TRINITY_DN34342_c0_g1  -            280 23608at3193          -            689   4.3e-74  252.0   1.7   2   2   3.1e-58   8.1e-55  188.3   0.2   533   688   120   276   101   277 0.94 -
PC1A_TRINITY_DN42085_c1_g4_i2.p1PC1A_TRINITY_DN42085_c1_g4  -            171 23608at3193          -            689   1.4e-49  171.0   0.1   1   1   5.9e-53   1.6e-49  170.9   0.1   155   263    43   153    29   169 0.91 -
PC1J_TRINITY_DN33714_c3_g1_i8.p1PC1J_TRINITY_DN33714_c3_g1  -            177 23608at3193          -            689   4.7e-42  146.2   0.5   1   2      0.22   5.8e+02    0.4   0.0   512   533    12    33     2    42 0.80 -
PC1J_TRINITY_DN33714_c3_g1_i8.p1PC1J_TRINITY_DN33714_c3_g1  -            177 23608at3193          -            689   4.7e-42  146.2   0.5   2   2   7.9e-45   2.1e-41  144.0   0.1   533   636    64   167    40   174 0.90 -
PC2J_TRINITY_DN37917_c0_g1_i9.p1PC2J_TRINITY_DN37917_c0_g1  -            143 23608at3193          -            689     6e-42  145.8   0.2   1   1   2.5e-45   6.8e-42  145.6   0.2   535   637    40   142    24   143 0.94 -
PC2A_TRINITY_DN31542_c1_g2_i1.p1PC2A_TRINITY_DN31542_c1_g2  -            179 23608at3193          -            689   1.7e-31  111.2   0.2   1   2   1.5e-07    0.0004   20.8   0.0   484   533     1    55     1    64 0.85 -
PC2A_TRINITY_DN31542_c1_g2_i1.p1PC2A_TRINITY_DN31542_c1_g2  -            179 23608at3193          -            689   1.7e-31  111.2   0.2   2   2   4.2e-28   1.1e-24   88.7   0.2   533   596    86   149    61   163 0.87 -
PC3J_TRINITY_DN48373_c0_g5_i1.p1PC3J_TRINITY_DN48373_c0_g5  -            116 23608at3193          -            689   4.2e-26   93.5   0.2   1   1     2e-29   5.3e-26   93.1   0.2   318   384    16    82    13    88 0.96 -
PC2A_TRINITY_DN31542_c1_g3_i1.p1PC2A_TRINITY_DN31542_c1_g3  -            100 23608at3193          -            689   6.6e-15   56.5   0.2   1   1   2.8e-18   7.5e-15   56.3   0.2   613   688    20    96    13    97 0.96 -
PC2J_TRINITY_DN38327_c0_g2_i7.p1PC2J_TRINITY_DN38327_c0_g2  -            160 23608at3193          -            689   2.2e-14   54.7   0.4   1   1   5.3e-17   1.4e-13   52.1   0.4     2    71    69   160    68   160 0.81 -
PC1A_TRINITY_DN34342_c0_g1_i2.p1PC1A_TRINITY_DN34342_c0_g1  -            105 23608at3193          -            689   6.2e-13   49.9   0.0   1   1   2.6e-16   6.9e-13   49.8   0.0   450   524     1    80     1    90 0.88 -
PC1J_TRINITY_DN33714_c3_g1_i12.p1PC1J_TRINITY_DN33714_c3_g1 -            107 23608at3193          -            689     1e-10   42.6   0.0   1   1   4.7e-14   1.2e-10   42.3   0.0   594   652    22    80    19    90 0.93 -
PC2J_TRINITY_DN37917_c0_g1_i8.p1PC2J_TRINITY_DN37917_c0_g1  -            122 23608at3193          -            689   3.6e-09   37.5   1.8   1   2   3.2e-06    0.0084   16.4   0.0   498   533     9    44     3    53 0.87 -
PC2J_TRINITY_DN37917_c0_g1_i8.p1PC2J_TRINITY_DN37917_c0_g1  -            122 23608at3193          -            689   3.6e-09   37.5   1.8   2   2   1.7e-07   0.00046   20.6   0.4   533   564    75   106    53   110 0.82 -
PC2J_TRINITY_DN38327_c0_g2_i1.p1PC2J_TRINITY_DN38327_c0_g2  -            180 23608at3193          -            689   9.6e-09   36.1   0.1   1   1   2.4e-11   6.4e-08   33.3   0.1     2    63    85   168    84   171 0.78 -
PC2J_TRINITY_DN38327_c0_g2_i4.p1PC2J_TRINITY_DN38327_c0_g2  -            154 23608at3193          -            689   1.8e-05   25.3   0.0   1   1   8.6e-09   2.3e-05   24.9   0.0     2    30    85   113    84   125 0.90 -
PC2A_TRINITY_DN23733_c0_g1_i1.p1PC2A_TRINITY_DN23733_c0_g1  -            153 23608at3193          -            689     0.014   15.7   0.0   1   1   5.1e-06     0.014   15.7   0.0   203   234    79   109    17   133 0.82 -
PC2J_TRINITY_DN36651_c1_g1_i3.p1PC2J_TRINITY_DN36651_c1_g1  -            149 23608at3193          -            689     0.015   15.6   0.0   1   1   6.3e-06     0.017   15.5   0.0   204   234    74   103    43   127 0.78 -
PC2J_TRINITY_DN37847_c0_g1_i6.p1PC2J_TRINITY_DN37847_c0_g1  -            171 23608at3193          -            689     0.017   15.4   0.4   1   2    0.0039        10    6.2   0.1   206   243    23    64    18    72 0.79 -
PC2J_TRINITY_DN37847_c0_g1_i6.p1PC2J_TRINITY_DN37847_c0_g1  -            171 23608at3193          -            689     0.017   15.4   0.4   2   2    0.0013       3.4    7.8   0.0   274   356    72   160    65   165 0.78 -
PC3A_TRINITY_DN29796_c0_g1_i2.p1PC3A_TRINITY_DN29796_c0_g1  -            140 23608at3193          -            689     0.026   14.8   0.0   1   1   1.2e-05     0.032   14.5   0.0   267   369    12   121     6   129 0.77 -
PC2J_TRINITY_DN38830_c2_g3_i1.p1PC2J_TRINITY_DN38830_c2_g3  -            120 23608at3193          -            689     0.076   13.3   0.0   1   1   2.9e-05     0.076   13.3   0.0   206   252    36    82     4   106 0.78 -
PC3J_TRINITY_DN40407_c2_g2_i1.p1PC3J_TRINITY_DN40407_c2_g2  -            205 23608at3193          -            689      0.26   11.5   0.0   1   1   0.00011       0.3   11.3   0.0   206   251    36    81     4    99 0.80 -
PC2J_TRINITY_DN7543_c0_g1_i1.p1PC2J_TRINITY_DN7543_c0_g1    -            106 23608at3193          -            689      0.26   11.5   0.0   1   1    0.0001      0.27   11.4   0.0   207   237    38    66    17    80 0.81 -
PC1A_TRINITY_DN31651_c0_g1_i1.p1PC1A_TRINITY_DN31651_c0_g1  -            308 23608at3193          -            689      0.51   10.5   0.1   1   2     0.021        55    3.8   0.0    53    96    91   136    61   163 0.76 -
PC1A_TRINITY_DN31651_c0_g1_i1.p1PC1A_TRINITY_DN31651_c0_g1  -            308 23608at3193          -            689      0.51   10.5   0.1   2   2    0.0091        24    5.0   0.0   208   230   171   193   142   210 0.85 -
PC1J_TRINITY_DN36430_c0_g1_i4.p1PC1J_TRINITY_DN36430_c0_g1  -            143 23608at3193          -            689      0.52   10.5   0.0   1   1   0.00023      0.61   10.3   0.0   203   232    85   114    76   129 0.88 -
PC1A_TRINITY_DN39127_c0_g2_i1.p1PC1A_TRINITY_DN39127_c0_g2  -            158 23608at3193          -            689      0.54   10.5   0.0   1   1   0.00029      0.78    9.9   0.0   202   250    30    79     7    89 0.69 -
#
# Program:         hmmsearch
# Version:         3.2.1 (June 2018)
# Pipeline mode:   SEARCH
# Query file:      /isg/shared/databases/BUSCO/odb10/embryophyta_odb10/hmms/23608at3193.hmm
# Target file:     Pine_final_annotations_no_contam_lvl0.faa
# Option settings: /usr/local/bin/hmmsearch --domtblout /labs/Wegrzyn/Juniper_Pine/BUSCO/NEW/busco_pine/run_embryophyta_odb10/hmmer_output/23608at3193.out --cpu 1 /isg/shared/databases/BUSCO/odb10/embryophyta_odb10/hmms/23608at3193.hmm Pine_final_annotations_no_contam_lvl0.faa 
# Current dir:     /labs/Wegrzyn/Juniper_Pine/BUSCO/NEW
# Date:            Thu Aug  6 14:51:32 2020
# [ok]
