#                                                                                                                   --- full sequence --- -------------- this domain -------------   hmm coord   ali coord   env coord
# target name                                               accession   tlen query name           accession   qlen   E-value  score  bias   #  of  c-Evalue  i-Evalue  score  bias  from    to  from    to  from    to  acc description of target
#                                       ------------------- ---------- ----- -------------------- ---------- ----- --------- ------ ----- --- --- --------- --------- ------ ----- ----- ----- ----- ----- ----- ----- ---- ---------------------
PC2A_TRINITY_DN35394_c4_g2_i1.p1PC2A_TRINITY_DN35394_c4_g2  -            386 24314at3193          -            576   2.1e-17   64.6   9.6   1   2   1.4e-09   9.1e-07   29.5   2.2   485   564    46   125    41   136 0.85 -
PC2A_TRINITY_DN35394_c4_g2_i1.p1PC2A_TRINITY_DN35394_c4_g2  -            386 24314at3193          -            576   2.1e-17   64.6   9.6   2   2   3.3e-12   2.1e-09   38.3   1.3    21   201   128   313   124   329 0.85 -
PC3J_TRINITY_DN39358_c3_g2_i3.p1PC3J_TRINITY_DN39358_c3_g2  -            500 24314at3193          -            576   7.3e-16   59.6  14.4   1   4   1.1e-08   6.8e-06   26.6   0.2   479   552   228   300   214   302 0.88 -
PC3J_TRINITY_DN39358_c3_g2_i3.p1PC3J_TRINITY_DN39358_c3_g2  -            500 24314at3193          -            576   7.3e-16   59.6  14.4   2   4   1.2e-08   7.7e-06   26.5   0.3   503   560   292   349   289   366 0.89 -
PC3J_TRINITY_DN39358_c3_g2_i3.p1PC3J_TRINITY_DN39358_c3_g2  -            500 24314at3193          -            576   7.3e-16   59.6  14.4   3   4   5.4e-07   0.00034   21.0   0.3   502   567   374   438   356   449 0.86 -
PC3J_TRINITY_DN39358_c3_g2_i3.p1PC3J_TRINITY_DN39358_c3_g2  -            500 24314at3193          -            576   7.3e-16   59.6  14.4   4   4      0.98   6.2e+02    0.4   0.0   386   411   467   492   454   496 0.82 -
PC1J_TRINITY_DN36668_c2_g5_i1.p1PC1J_TRINITY_DN36668_c2_g5  -            218 24314at3193          -            576   3.5e-15   57.3   0.8   1   2   7.5e-07   0.00047   20.6   0.1   500   561     8    69     4    73 0.90 -
PC1J_TRINITY_DN36668_c2_g5_i1.p1PC1J_TRINITY_DN36668_c2_g5  -            218 24314at3193          -            576   3.5e-15   57.3   0.8   2   2   4.3e-08   2.7e-05   24.6   0.0   485   575   118   209   114   210 0.76 -
PC1A_TRINITY_DN21440_c0_g1_i1.p1PC1A_TRINITY_DN21440_c0_g1  -            195 24314at3193          -            576   1.3e-14   55.4   1.6   1   2   3.1e-09     2e-06   28.4   0.4   480   561    32   112     8   125 0.82 -
PC1A_TRINITY_DN21440_c0_g1_i1.p1PC1A_TRINITY_DN21440_c0_g1  -            195 24314at3193          -            576   1.3e-14   55.4   1.6   2   2   7.1e-09   4.5e-06   27.3   0.1   481   555   116   189   109   193 0.85 -
PC2A_TRINITY_DN28874_c7_g2_i5.p1PC2A_TRINITY_DN28874_c7_g2  -            359 24314at3193          -            576   2.3e-14   54.6   7.1   1   4   4.5e-06    0.0028   18.0   0.3   455   562    15   125     5   141 0.70 -
PC2A_TRINITY_DN28874_c7_g2_i5.p1PC2A_TRINITY_DN28874_c7_g2  -            359 24314at3193          -            576   2.3e-14   54.6   7.1   2   4   4.9e-05     0.031   14.6   0.1   505   561   109   166   100   184 0.61 -
PC2A_TRINITY_DN28874_c7_g2_i5.p1PC2A_TRINITY_DN28874_c7_g2  -            359 24314at3193          -            576   2.3e-14   54.6   7.1   3   4     0.016        10    6.3   0.1   492   552   138   199   128   202 0.68 -
PC2A_TRINITY_DN28874_c7_g2_i5.p1PC2A_TRINITY_DN28874_c7_g2  -            359 24314at3193          -            576   2.3e-14   54.6   7.1   4   4   1.1e-11   7.2e-09   36.5   1.2     5   201   157   352   153   355 0.83 -
PC1J_TRINITY_DN21426_c0_g1_i1.p1PC1J_TRINITY_DN21426_c0_g1  -            210 24314at3193          -            576   1.6e-12   48.5   4.0   1   2   3.5e-09   2.2e-06   28.2   3.5   466   552    65   150    62   150 0.91 -
PC1J_TRINITY_DN21426_c0_g1_i1.p1PC1J_TRINITY_DN21426_c0_g1  -            210 24314at3193          -            576   1.6e-12   48.5   4.0   2   2   2.4e-08   1.5e-05   25.5   0.0   503   559   142   198   139   206 0.92 -
PC2A_TRINITY_DN28874_c7_g1_i3.p1PC2A_TRINITY_DN28874_c7_g1  -            303 24314at3193          -            576   8.9e-12   46.1  11.8   1   3     0.071        45    4.1   0.4   131   195     7    77     4    87 0.76 -
PC2A_TRINITY_DN28874_c7_g1_i3.p1PC2A_TRINITY_DN28874_c7_g1  -            303 24314at3193          -            576   8.9e-12   46.1  11.8   2   3     0.044        28    4.8   0.1   499   537    88   126    77   130 0.85 -
PC2A_TRINITY_DN28874_c7_g1_i3.p1PC2A_TRINITY_DN28874_c7_g1  -            303 24314at3193          -            576   8.9e-12   46.1  11.8   3   3   2.7e-13   1.7e-10   41.8   3.7    38   180   130   273   126   299 0.86 -
PC2J_TRINITY_DN24080_c0_g1_i3.p1PC2J_TRINITY_DN24080_c0_g1  -            196 24314at3193          -            576   2.8e-11   44.4   1.3   1   3       1.8   1.2e+03   -0.5   0.0   325   356    43    73     8   101 0.53 -
PC2J_TRINITY_DN24080_c0_g1_i3.p1PC2J_TRINITY_DN24080_c0_g1  -            196 24314at3193          -            576   2.8e-11   44.4   1.3   2   3     0.003       1.9    8.7   0.1   481   540    60   118    50   121 0.90 -
PC2J_TRINITY_DN24080_c0_g1_i3.p1PC2J_TRINITY_DN24080_c0_g1  -            196 24314at3193          -            576   2.8e-11   44.4   1.3   3   3   9.5e-14     6e-11   43.3   0.4   481   561   101   182    90   194 0.87 -
PC1J_TRINITY_DN36187_c1_g3_i4.p1PC1J_TRINITY_DN36187_c1_g3  -            532 24314at3193          -            576   7.2e-11   43.1   8.4   1   4       3.6   2.3e+03   -1.5   0.2   370   444   118   192    62   197 0.69 -
PC1J_TRINITY_DN36187_c1_g3_i4.p1PC1J_TRINITY_DN36187_c1_g3  -            532 24314at3193          -            576   7.2e-11   43.1   8.4   2   4   2.2e-08   1.4e-05   25.6   0.3   479   552   331   403   317   409 0.86 -
PC1J_TRINITY_DN36187_c1_g3_i4.p1PC1J_TRINITY_DN36187_c1_g3  -            532 24314at3193          -            576   7.2e-11   43.1   8.4   3   4   8.9e-07   0.00056   20.3   0.3   504   567   408   470   402   481 0.88 -
PC1J_TRINITY_DN36187_c1_g3_i4.p1PC1J_TRINITY_DN36187_c1_g3  -            532 24314at3193          -            576   7.2e-11   43.1   8.4   4   4         1   6.5e+02    0.3   0.0   386   411   499   524   485   528 0.82 -
PC1J_TRINITY_DN40113_c0_g4_i3.p1PC1J_TRINITY_DN40113_c0_g4  -            162 24314at3193          -            576   8.6e-11   42.8   0.7   1   2   1.9e-05     0.012   15.9   0.2   482   550    20    88     8    88 0.83 -
PC1J_TRINITY_DN40113_c0_g4_i3.p1PC1J_TRINITY_DN40113_c0_g4  -            162 24314at3193          -            576   8.6e-11   42.8   0.7   2   2   2.8e-10   1.8e-07   31.9   0.0   494   571    73   151    72   154 0.90 -
PC2A_TRINITY_DN28874_c7_g2_i3.p1PC2A_TRINITY_DN28874_c7_g2  -            316 24314at3193          -            576   9.7e-11   42.6   6.9   1   2   0.00076      0.48   10.6   0.6   454   560    14   122     4   128 0.68 -
PC2A_TRINITY_DN28874_c7_g2_i3.p1PC2A_TRINITY_DN28874_c7_g2  -            316 24314at3193          -            576   9.7e-11   42.6   6.9   2   2   8.1e-12   5.1e-09   37.0   1.2     5   201   114   309   110   312 0.83 -
PC3A_TRINITY_DN40630_c2_g1_i2.p1PC3A_TRINITY_DN40630_c2_g1  -            392 24314at3193          -            576   1.6e-10   41.9   8.7   1   4     5e-06    0.0031   17.8   3.2    49   194     7   160     2   166 0.74 -
PC3A_TRINITY_DN40630_c2_g1_i2.p1PC3A_TRINITY_DN40630_c2_g1  -            392 24314at3193          -            576   1.6e-10   41.9   8.7   2   4    0.0016         1    9.6   0.1    50   162   137   251   131   253 0.88 -
PC3A_TRINITY_DN40630_c2_g1_i2.p1PC3A_TRINITY_DN40630_c2_g1  -            392 24314at3193          -            576   1.6e-10   41.9   8.7   3   4   4.7e-06    0.0029   17.9   0.0   475   565   228   318   223   330 0.84 -
PC3A_TRINITY_DN40630_c2_g1_i2.p1PC3A_TRINITY_DN40630_c2_g1  -            392 24314at3193          -            576   1.6e-10   41.9   8.7   4   4     0.027        17    5.5   0.1   485   537   322   374   318   384 0.88 -
PC3J_TRINITY_DN45907_c3_g4_i1.p1PC3J_TRINITY_DN45907_c3_g4  -            284 24314at3193          -            576   5.4e-10   40.2   3.9   1   2   1.9e-11   1.2e-08   35.7   0.1   480   565    45   131    34   144 0.88 -
PC3J_TRINITY_DN45907_c3_g4_i1.p1PC3J_TRINITY_DN45907_c3_g4  -            284 24314at3193          -            576   5.4e-10   40.2   3.9   2   2     0.061        38    4.4   0.5   383   424   196   240   164   269 0.68 -
PC1A_TRINITY_DN31785_c0_g1_i1.p1PC1A_TRINITY_DN31785_c0_g1  -            236 24314at3193          -            576   5.8e-10   40.1   0.3   1   2   0.00028      0.18   12.1   0.0   505   557     8    60     2    64 0.86 -
PC1A_TRINITY_DN31785_c0_g1_i1.p1PC1A_TRINITY_DN31785_c0_g1  -            236 24314at3193          -            576   5.8e-10   40.1   0.3   2   2   6.1e-09   3.8e-06   27.5   0.1    94   180    59   149    57   167 0.87 -
PC2J_TRINITY_DN40328_c2_g1_i2.p1PC2J_TRINITY_DN40328_c2_g1  -            259 24314at3193          -            576   8.8e-10   39.5   1.0   1   2       0.5   3.1e+02    1.3   0.2     7    78    86   155    82   162 0.68 -
PC2J_TRINITY_DN40328_c2_g1_i2.p1PC2J_TRINITY_DN40328_c2_g1  -            259 24314at3193          -            576   8.8e-10   39.5   1.0   2   2     1e-11   6.4e-09   36.6   0.0   481   555   180   255   165   259 0.85 -
PC2A_TRINITY_DN26600_c0_g1_i1.p1PC2A_TRINITY_DN26600_c0_g1  -            155 24314at3193          -            576   1.6e-09   38.6   0.5   1   1   1.6e-10   9.9e-08   32.7   0.5    51   180     7   135     7   151 0.90 -
PC2J_TRINITY_DN38520_c0_g1_i10.p1PC2J_TRINITY_DN38520_c0_g1 -            476 24314at3193          -            576   1.8e-09   38.5   0.0   1   4    0.0001     0.064   13.5   0.0   465   539    51   129    47   132 0.81 -
PC2J_TRINITY_DN38520_c0_g1_i10.p1PC2J_TRINITY_DN38520_c0_g1 -            476 24314at3193          -            576   1.8e-09   38.5   0.0   2   4    0.0073       4.6    7.4   0.0    81   179   134   233   129   270 0.83 -
PC2J_TRINITY_DN38520_c0_g1_i10.p1PC2J_TRINITY_DN38520_c0_g1 -            476 24314at3193          -            576   1.8e-09   38.5   0.0   3   4   0.00041      0.26   11.5   0.0    95   179   274   361   261   365 0.77 -
PC2J_TRINITY_DN38520_c0_g1_i10.p1PC2J_TRINITY_DN38520_c0_g1 -            476 24314at3193          -            576   1.8e-09   38.5   0.0   4   4       1.1   6.7e+02    0.3   0.0    73   118   392   435   369   448 0.80 -
PC1A_TRINITY_DN43774_c4_g3_i1.p1PC1A_TRINITY_DN43774_c4_g3  -            120 24314at3193          -            576   2.9e-09   37.8   2.7   1   1   2.4e-11   1.5e-08   35.4   2.6    52   158    10   116     5   119 0.86 -
PC1A_TRINITY_DN42654_c0_g8_i3.p1PC1A_TRINITY_DN42654_c0_g8  -            536 24314at3193          -            576   3.4e-09   37.6   0.1   1   4   0.00011     0.067   13.5   0.0   465   540   111   190   103   194 0.82 -
PC1A_TRINITY_DN42654_c0_g8_i3.p1PC1A_TRINITY_DN42654_c0_g8  -            536 24314at3193          -            576   3.4e-09   37.6   0.1   2   4     0.012       7.3    6.7   0.0    81   179   194   293   191   296 0.81 -
PC1A_TRINITY_DN42654_c0_g8_i3.p1PC1A_TRINITY_DN42654_c0_g8  -            536 24314at3193          -            576   3.4e-09   37.6   0.1   3   4   0.00013     0.079   13.2   0.0    34   178   273   420   262   424 0.57 -
PC1A_TRINITY_DN42654_c0_g8_i3.p1PC1A_TRINITY_DN42654_c0_g8  -            536 24314at3193          -            576   3.4e-09   37.6   0.1   4   4       1.3     8e+02   -0.0   0.0    73   118   452   495   429   508 0.80 -
PC1A_TRINITY_DN40367_c1_g5_i2.p1PC1A_TRINITY_DN40367_c1_g5  -            221 24314at3193          -            576   4.6e-09   37.1   0.3   1   3    0.0037       2.4    8.3   0.0   505   559    11    66     2    75 0.76 -
PC1A_TRINITY_DN40367_c1_g5_i2.p1PC1A_TRINITY_DN40367_c1_g5  -            221 24314at3193          -            576   4.6e-09   37.1   0.3   2   3     1e-05    0.0064   16.8   0.1   500   562    72   134    66   151 0.84 -
PC1A_TRINITY_DN40367_c1_g5_i2.p1PC1A_TRINITY_DN40367_c1_g5  -            221 24314at3193          -            576   4.6e-09   37.1   0.3   3   3    0.0016      0.98    9.6   0.1   492   559   147   215   136   220 0.72 -
PC3A_TRINITY_DN38669_c5_g1_i2.p1PC3A_TRINITY_DN38669_c5_g1  -            218 24314at3193          -            576   5.6e-09   36.8   1.1   1   3     0.011       7.1    6.8   0.1   303   340     2    39     1    55 0.88 -
PC3A_TRINITY_DN38669_c5_g1_i2.p1PC3A_TRINITY_DN38669_c5_g1  -            218 24314at3193          -            576   5.6e-09   36.8   1.1   2   3   1.8e-08   1.1e-05   25.9   0.0    79   177    69   176    48   180 0.80 -
PC3A_TRINITY_DN38669_c5_g1_i2.p1PC3A_TRINITY_DN38669_c5_g1  -            218 24314at3193          -            576   5.6e-09   36.8   1.1   3   3     0.053        34    4.5   0.0   134   166   174   206   170   216 0.84 -
PC3A_TRINITY_DN27007_c0_g1_i1.p1PC3A_TRINITY_DN27007_c0_g1  -            146 24314at3193          -            576   7.6e-09   36.4   0.8   1   1   2.2e-11   1.4e-08   35.6   0.8    91   204    15   131     2   138 0.76 -
PC1J_TRINITY_DN28759_c0_g1_i2.p1PC1J_TRINITY_DN28759_c0_g1  -            256 24314at3193          -            576   1.1e-08   35.9   0.9   1   2   6.6e-07   0.00042   20.7   0.2   500   564   103   167    70   173 0.79 -
PC1J_TRINITY_DN28759_c0_g1_i2.p1PC1J_TRINITY_DN28759_c0_g1  -            256 24314at3193          -            576   1.1e-08   35.9   0.9   2   2   7.1e-05     0.045   14.0   0.0   501   556   186   241   168   253 0.82 -
PC3J_TRINITY_DN43116_c5_g1_i2.p1PC3J_TRINITY_DN43116_c5_g1  -            370 24314at3193          -            576   1.3e-08   35.6   1.7   1   3     0.018        11    6.1   0.2   506   563    52   112    43   117 0.83 -
PC3J_TRINITY_DN43116_c5_g1_i2.p1PC3J_TRINITY_DN43116_c5_g1  -            370 24314at3193          -            576   1.3e-08   35.6   1.7   2   3    0.0019       1.2    9.3   0.0   316   370   130   191   117   218 0.79 -
PC3J_TRINITY_DN43116_c5_g1_i2.p1PC3J_TRINITY_DN43116_c5_g1  -            370 24314at3193          -            576   1.3e-08   35.6   1.7   3   3   4.8e-06     0.003   17.9   0.0    44   161   221   341   199   364 0.89 -
PC1A_TRINITY_DN44375_c3_g3_i1.p1PC1A_TRINITY_DN44375_c3_g3  -            154 24314at3193          -            576   1.5e-08   35.4   0.3   1   1   5.1e-11   3.2e-08   34.3   0.3    46   185     3   143     1   148 0.84 -
PC2J_TRINITY_DN45818_c3_g1_i9.p1PC2J_TRINITY_DN45818_c3_g1  -            545 24314at3193          -            576   2.6e-08   34.6   0.1   1   4   0.00045      0.28   11.4   0.0   481   544   131   193   100   220 0.67 -
PC2J_TRINITY_DN45818_c3_g1_i9.p1PC2J_TRINITY_DN45818_c3_g1  -            545 24314at3193          -            576   2.6e-08   34.6   0.1   2   4   4.7e-06    0.0029   17.9   0.1    17   179   255   420   247   423 0.76 -
PC2J_TRINITY_DN45818_c3_g1_i9.p1PC2J_TRINITY_DN45818_c3_g1  -            545 24314at3193          -            576   2.6e-08   34.6   0.1   3   4       2.8   1.7e+03   -1.1   0.0    73   115   451   491   428   503 0.80 -
PC2J_TRINITY_DN45818_c3_g1_i9.p1PC2J_TRINITY_DN45818_c3_g1  -            545 24314at3193          -            576   2.6e-08   34.6   0.1   4   4         4   2.5e+03   -1.6   0.0   167   185   517   535   510   538 0.87 -
PC3A_TRINITY_DN32053_c0_g1_i1.p1PC3A_TRINITY_DN32053_c0_g1  -            113 24314at3193          -            576   1.4e-07   32.3   3.2   1   1   2.4e-10   1.5e-07   32.1   3.2   477   563    20   106     8   111 0.84 -
PC3A_TRINITY_DN4255_c0_g1_i1.p1PC3A_TRINITY_DN4255_c0_g1    -            209 24314at3193          -            576   2.8e-07   31.2   2.6   1   2   8.9e-07   0.00056   20.3   0.2   496   562    98   169    83   171 0.75 -
PC3A_TRINITY_DN4255_c0_g1_i1.p1PC3A_TRINITY_DN4255_c0_g1    -            209 24314at3193          -            576   2.8e-07   31.2   2.6   2   2   0.00011     0.067   13.5   0.2   522   562   167   207   162   209 0.83 -
PC2J_TRINITY_DN43205_c0_g5_i1.p1PC2J_TRINITY_DN43205_c0_g5  -            111 24314at3193          -            576   7.2e-07   29.9   0.1   1   1   2.2e-09   1.4e-06   28.9   0.1    40   131     7    99     2   110 0.87 -
PC1J_TRINITY_DN35789_c5_g1_i3.p1PC1J_TRINITY_DN35789_c5_g1  -            518 24314at3193          -            576   7.2e-07   29.9   2.0   1   3       1.7   1.1e+03   -0.4   0.0   372   422    50   100    32   113 0.83 -
PC1J_TRINITY_DN35789_c5_g1_i3.p1PC1J_TRINITY_DN35789_c5_g1  -            518 24314at3193          -            576   7.2e-07   29.9   2.0   2   3   8.4e-07   0.00053   20.4   0.0   475   548   388   460   377   464 0.85 -
PC1J_TRINITY_DN35789_c5_g1_i3.p1PC1J_TRINITY_DN35789_c5_g1  -            518 24314at3193          -            576   7.2e-07   29.9   2.0   3   3     0.003       1.9    8.7   0.2    42    96   458   514   457   517 0.79 -
PC3J_TRINITY_DN27796_c0_g1_i1.p1PC3J_TRINITY_DN27796_c0_g1  -            172 24314at3193          -            576     1e-06   29.4   0.1   1   2   1.7e-06    0.0011   19.4   0.0   103   179    23   102     7   117 0.68 -
PC3J_TRINITY_DN27796_c0_g1_i1.p1PC3J_TRINITY_DN27796_c0_g1  -            172 24314at3193          -            576     1e-06   29.4   0.1   2   2    0.0088       5.5    7.1   0.1    26    71   114   159   105   170 0.64 -
PC3A_TRINITY_DN35939_c0_g5_i3.p1PC3A_TRINITY_DN35939_c0_g5  -            274 24314at3193          -            576     2e-06   28.4   7.2   1   2   5.7e-05     0.036   14.4   0.9   495   562    69   136    22   153 0.78 -
PC3A_TRINITY_DN35939_c0_g5_i3.p1PC3A_TRINITY_DN35939_c0_g5  -            274 24314at3193          -            576     2e-06   28.4   7.2   2   2   7.8e-06    0.0049   17.2   0.8    63   173   154   265   148   274 0.77 -
PC1A_TRINITY_DN31785_c0_g1_i2.p1PC1A_TRINITY_DN31785_c0_g1  -            208 24314at3193          -            576   5.3e-06   27.0   0.1   1   1   1.2e-08   7.6e-06   26.5   0.1    89   180    29   121    16   140 0.82 -
PC2A_TRINITY_DN29702_c1_g2_i3.p1PC2A_TRINITY_DN29702_c1_g2  -            128 24314at3193          -            576   7.1e-06   26.6   0.0   1   1   1.4e-08   8.7e-06   26.3   0.0    45   128    20   104     7   123 0.85 -
PC2A_TRINITY_DN37366_c0_g1_i1.p1PC2A_TRINITY_DN37366_c0_g1  -            107 24314at3193          -            576   8.1e-06   26.4   1.0   1   2    0.0059       3.7    7.7   0.1   528   563     3    39     1    54 0.72 -
PC2A_TRINITY_DN37366_c0_g1_i1.p1PC2A_TRINITY_DN37366_c0_g1  -            107 24314at3193          -            576   8.1e-06   26.4   1.0   2   2   3.7e-06    0.0023   18.3   0.2   498   548    55   106    40   107 0.79 -
PC3J_TRINITY_DN38912_c1_g2_i2.p1PC3J_TRINITY_DN38912_c1_g2  -            277 24314at3193          -            576   8.5e-06   26.3   3.7   1   3       1.6     1e+03   -0.3   0.0   499   522    31    54    13    74 0.70 -
PC3J_TRINITY_DN38912_c1_g2_i2.p1PC3J_TRINITY_DN38912_c1_g2  -            277 24314at3193          -            576   8.5e-06   26.3   3.7   2   3   4.6e-05     0.029   14.6   2.0   493   575    67   150    43   151 0.82 -
PC3J_TRINITY_DN38912_c1_g2_i2.p1PC3J_TRINITY_DN38912_c1_g2  -            277 24314at3193          -            576   8.5e-06   26.3   3.7   3   3    0.0011      0.67   10.2   0.0   503   566   202   267   194   272 0.79 -
PC1A_TRINITY_DN42654_c0_g8_i5.p1PC1A_TRINITY_DN42654_c0_g8  -            481 24314at3193          -            576   9.5e-06   26.2   0.0   1   4    0.0001     0.064   13.5   0.0   465   539   111   189   108   193 0.81 -
PC1A_TRINITY_DN42654_c0_g8_i5.p1PC1A_TRINITY_DN42654_c0_g8  -            481 24314at3193          -            576   9.5e-06   26.2   0.0   2   4    0.0078       4.9    7.3   0.0    81   179   194   293   191   330 0.82 -
PC1A_TRINITY_DN42654_c0_g8_i5.p1PC1A_TRINITY_DN42654_c0_g8  -            481 24314at3193          -            576   9.5e-06   26.2   0.0   3   4       2.1   1.3e+03   -0.7   0.0   494   541   343   390   334   423 0.72 -
PC1A_TRINITY_DN42654_c0_g8_i5.p1PC1A_TRINITY_DN42654_c0_g8  -            481 24314at3193          -            576   9.5e-06   26.2   0.0   4   4       1.3   8.1e+02   -0.0   0.0    74   118   398   440   388   453 0.78 -
PC2J_TRINITY_DN45658_c0_g2_i7.p1PC2J_TRINITY_DN45658_c0_g2  -            277 24314at3193          -            576   9.6e-06   26.2   0.6   1   2     1e-06   0.00064   20.1   0.2   503   564   171   232   139   235 0.79 -
PC2J_TRINITY_DN45658_c0_g2_i7.p1PC2J_TRINITY_DN45658_c0_g2  -            277 24314at3193          -            576   9.6e-06   26.2   0.6   2   2    0.0019       1.2    9.3   0.0   514   562   223   271   222   276 0.80 -
PC2J_TRINITY_DN39333_c4_g2_i1.p1PC2J_TRINITY_DN39333_c4_g2  -            245 24314at3193          -            576   1.1e-05   25.9   4.8   1   2     1e-05    0.0064   16.8   0.5    62   160    20   117     3   140 0.82 -
PC2J_TRINITY_DN39333_c4_g2_i1.p1PC2J_TRINITY_DN39333_c4_g2  -            245 24314at3193          -            576   1.1e-05   25.9   4.8   2   2    0.0016         1    9.6   0.3   486   559   152   223   140   230 0.71 -
PC3A_TRINITY_DN579_c0_g1_i1.p1PC3A_TRINITY_DN579_c0_g1      -            126 24314at3193          -            576   1.3e-05   25.7   1.2   1   1   4.2e-08   2.6e-05   24.7   1.2    38   150     7   121     2   126 0.74 -
PC1A_TRINITY_DN30051_c0_g1_i1.p1PC1A_TRINITY_DN30051_c0_g1  -            182 24314at3193          -            576   1.9e-05   25.1   4.9   1   2   1.8e-06    0.0012   19.3   3.0   466   542    58   133    55   139 0.86 -
PC1A_TRINITY_DN30051_c0_g1_i1.p1PC1A_TRINITY_DN30051_c0_g1  -            182 24314at3193          -            576   1.9e-05   25.1   4.9   2   2    0.0062       3.9    7.6   0.1   479   528   130   178   129   181 0.77 -
PC3A_TRINITY_DN44209_c2_g1_i1.p1PC3A_TRINITY_DN44209_c2_g1  -            214 24314at3193          -            576   2.4e-05   24.8   0.0   1   1   5.5e-08   3.5e-05   24.3   0.0   106   181     6    82     2   102 0.80 -
PC2A_TRINITY_DN30919_c3_g1_i1.p1PC2A_TRINITY_DN30919_c3_g1  -            154 24314at3193          -            576   3.2e-05   24.4   0.1   1   2     2e-07   0.00012   22.5   0.0   508   565     4    62     2    74 0.89 -
PC2A_TRINITY_DN30919_c3_g1_i1.p1PC2A_TRINITY_DN30919_c3_g1  -            154 24314at3193          -            576   3.2e-05   24.4   0.1   2   2     0.055        35    4.5   0.0   384   429    49    92    48   116 0.75 -
PC3J_TRINITY_DN47829_c7_g4_i2.p1PC3J_TRINITY_DN47829_c7_g4  -            334 24314at3193          -            576   6.7e-05   23.4   3.1   1   2   0.00059      0.37   11.0   0.1   504   548   114   158    94   181 0.77 -
PC3J_TRINITY_DN47829_c7_g4_i2.p1PC3J_TRINITY_DN47829_c7_g4  -            334 24314at3193          -            576   6.7e-05   23.4   3.1   2   2   0.00045      0.29   11.4   0.8   505   560   201   256   165   274 0.74 -
PC2J_TRINITY_DN37658_c2_g1_i4.p1PC2J_TRINITY_DN37658_c2_g1  -            210 24314at3193          -            576   8.1e-05   23.1   0.2   1   2   0.00018      0.11   12.7   0.0   134   206    23    99     5   104 0.50 -
PC2J_TRINITY_DN37658_c2_g1_i4.p1PC2J_TRINITY_DN37658_c2_g1  -            210 24314at3193          -            576   8.1e-05   23.1   0.2   2   2   2.9e-05     0.018   15.3   0.1   501   560    52   111    34   129 0.79 -
PC3A_TRINITY_DN38669_c5_g1_i6.p1PC3A_TRINITY_DN38669_c5_g1  -            181 24314at3193          -            576   8.2e-05   23.1   1.3   1   2    0.0083       5.2    7.2   0.1   303   340     2    39     1    55 0.88 -
PC3A_TRINITY_DN38669_c5_g1_i6.p1PC3A_TRINITY_DN38669_c5_g1  -            181 24314at3193          -            576   8.2e-05   23.1   1.3   2   2   3.3e-05     0.021   15.1   0.2    78   165    68   155    47   161 0.70 -
PC1A_TRINITY_DN39276_c0_g1_i2.p1PC1A_TRINITY_DN39276_c0_g1  -            311 24314at3193          -            576   8.3e-05   23.1   9.8   1   2   6.6e-06    0.0042   17.4   0.6   481   575    91   185    72   186 0.82 -
PC1A_TRINITY_DN39276_c0_g1_i2.p1PC1A_TRINITY_DN39276_c0_g1  -            311 24314at3193          -            576   8.3e-05   23.1   9.8   2   2   0.00036      0.23   11.7   0.7    42    97   242   297   236   308 0.84 -
PC1J_TRINITY_DN19289_c0_g1_i1.p1PC1J_TRINITY_DN19289_c0_g1  -            218 24314at3193          -            576   0.00011   22.7   1.9   1   1   1.7e-06    0.0011   19.4   1.9   353   552    12   216     3   218 0.72 -
PC2J_TRINITY_DN48304_c0_g1_i1.p1PC2J_TRINITY_DN48304_c0_g1  -            140 24314at3193          -            576   0.00013   22.4   0.1   1   1   2.4e-07   0.00015   22.2   0.1   474   554    56   139    43   140 0.74 -
PC2J_TRINITY_DN35535_c0_g1_i2.p1PC2J_TRINITY_DN35535_c0_g1  -            425 24314at3193          -            576   0.00013   22.4  15.8   1   5   3.6e-05     0.023   15.0   0.3   481   575    18   112     9   113 0.83 -
PC2J_TRINITY_DN35535_c0_g1_i2.p1PC2J_TRINITY_DN35535_c0_g1  -            425 24314at3193          -            576   0.00013   22.4  15.8   2   5      0.28   1.8e+02    2.2   0.3   121   177   116   172   112   188 0.76 -
PC2J_TRINITY_DN35535_c0_g1_i2.p1PC2J_TRINITY_DN35535_c0_g1  -            425 24314at3193          -            576   0.00013   22.4  15.8   3   5   0.00027      0.17   12.1   2.6    43   134   203   297   197   308 0.76 -
PC2J_TRINITY_DN35535_c0_g1_i2.p1PC2J_TRINITY_DN35535_c0_g1  -            425 24314at3193          -            576   0.00013   22.4  15.8   4   5    0.0081       5.1    7.2   0.3    39   158   240   372   237   377 0.73 -
PC2J_TRINITY_DN35535_c0_g1_i2.p1PC2J_TRINITY_DN35535_c0_g1  -            425 24314at3193          -            576   0.00013   22.4  15.8   5   5       1.8   1.1e+03   -0.5   0.0     7    69   347   410   341   420 0.63 -
PC2J_TRINITY_DN39934_c2_g1_i3.p1PC2J_TRINITY_DN39934_c2_g1  -            144 24314at3193          -            576   0.00016   22.1   0.0   1   1     3e-07   0.00019   21.9   0.0   482   553    18    88     7    99 0.81 -
PC1A_TRINITY_DN41550_c1_g6_i1.p1PC1A_TRINITY_DN41550_c1_g6  -            140 24314at3193          -            576   0.00027   21.3   1.0   1   3       1.6   9.9e+02   -0.3   0.0   166   182     1    17     1    27 0.66 -
PC1A_TRINITY_DN41550_c1_g6_i1.p1PC1A_TRINITY_DN41550_c1_g6  -            140 24314at3193          -            576   0.00027   21.3   1.0   2   3   6.2e-05     0.039   14.2   0.4   291   339    33    81    23    91 0.82 -
PC1A_TRINITY_DN41550_c1_g6_i1.p1PC1A_TRINITY_DN41550_c1_g6  -            140 24314at3193          -            576   0.00027   21.3   1.0   3   3     0.073        46    4.1   0.0   494   530    96   131    91   139 0.76 -
PC3J_TRINITY_DN47048_c2_g2_i2.p1PC3J_TRINITY_DN47048_c2_g2  -            252 24314at3193          -            576   0.00035   21.0   0.1   1   2   0.00033      0.21   11.8   0.0   132   201    26    99     9   108 0.51 -
PC3J_TRINITY_DN47048_c2_g2_i2.p1PC3J_TRINITY_DN47048_c2_g2  -            252 24314at3193          -            576   0.00035   21.0   0.1   2   2   5.7e-05     0.036   14.4   0.0   501   558    57   114    38   127 0.80 -
PC3A_TRINITY_DN38669_c6_g1_i1.p1PC3A_TRINITY_DN38669_c6_g1  -            251 24314at3193          -            576   0.00047   20.6   0.1   1   3     0.013       8.1    6.6   0.0   479   548     9    77     1    79 0.59 -
PC3A_TRINITY_DN38669_c6_g1_i1.p1PC3A_TRINITY_DN38669_c6_g1  -            251 24314at3193          -            576   0.00047   20.6   0.1   2   3   4.2e-05     0.026   14.8   0.1   501   560    71   130    53   148 0.79 -
PC3A_TRINITY_DN38669_c6_g1_i1.p1PC3A_TRINITY_DN38669_c6_g1  -            251 24314at3193          -            576   0.00047   20.6   0.1   3   3       2.2   1.4e+03   -0.8   0.0   291   327   158   194   149   204 0.67 -
PC1A_TRINITY_DN43881_c2_g3_i2.p1PC1A_TRINITY_DN43881_c2_g3  -            277 24314at3193          -            576   0.00059   20.3   0.4   1   2   0.00023      0.15   12.3   0.1   472   573    65   172    58   175 0.71 -
PC1A_TRINITY_DN43881_c2_g3_i2.p1PC1A_TRINITY_DN43881_c2_g3  -            277 24314at3193          -            576   0.00059   20.3   0.4   2   2    0.0067       4.2    7.5   0.1    16    74   159   216   146   230 0.62 -
PC1A_TRINITY_DN3254_c0_g1_i1.p1PC1A_TRINITY_DN3254_c0_g1    -            159 24314at3193          -            576   0.00066   20.1   2.5   1   1   1.7e-06     0.001   19.4   2.5    50   180    15   147     2   155 0.81 -
PC1J_TRINITY_DN20154_c0_g1_i1.p1PC1J_TRINITY_DN20154_c0_g1  -            191 24314at3193          -            576    0.0007   20.0   1.3   1   3       0.1        65    3.6   0.1   472   547    23   105    12   113 0.58 -
PC1J_TRINITY_DN20154_c0_g1_i1.p1PC1J_TRINITY_DN20154_c0_g1  -            191 24314at3193          -            576    0.0007   20.0   1.3   2   3     0.011       6.8    6.8   0.1   119   158    97   137    84   146 0.79 -
PC1J_TRINITY_DN20154_c0_g1_i1.p1PC1J_TRINITY_DN20154_c0_g1  -            191 24314at3193          -            576    0.0007   20.0   1.3   3   3   0.00087      0.55   10.4   0.1   503   539   148   184   140   187 0.88 -
PC3A_TRINITY_DN39388_c3_g4_i1.p1PC3A_TRINITY_DN39388_c3_g4  -            225 24314at3193          -            576   0.00073   19.9   0.0   1   1   1.6e-06     0.001   19.4   0.0   496   564    39   107    10   118 0.81 -
PC2J_TRINITY_DN43801_c0_g2_i4.p1PC2J_TRINITY_DN43801_c0_g2  -            132 24314at3193          -            576    0.0011   19.4   0.3   1   1   3.8e-06    0.0024   18.2   0.3    46   134    13   101     4   117 0.76 -
PC1J_TRINITY_DN36229_c2_g2_i1.p1PC1J_TRINITY_DN36229_c2_g2  -            309 24314at3193          -            576    0.0013   19.1   0.0   1   1   3.1e-06     0.002   18.5   0.0   496   564   103   171    74   182 0.81 -
PC2J_TRINITY_DN41746_c3_g1_i8.p1PC2J_TRINITY_DN41746_c3_g1  -            252 24314at3193          -            576    0.0015   18.9   0.2   1   1   3.4e-06    0.0022   18.4   0.2    93   179   156   245   143   251 0.71 -
PC1J_TRINITY_DN34223_c0_g1_i36.p1PC1J_TRINITY_DN34223_c0_g1 -            284 24314at3193          -            576    0.0015   18.9   0.2   1   1   5.2e-06    0.0033   17.8   0.2   100   169    52   122    43   159 0.86 -
PC3J_TRINITY_DN47482_c3_g2_i1.p2PC3J_TRINITY_DN47482_c3_g2  -            105 24314at3193          -            576    0.0015   18.9   0.3   1   1   2.9e-06    0.0018   18.6   0.3   482   541    45   103    39   104 0.86 -
PC3J_TRINITY_DN42392_c1_g2_i1.p1PC3J_TRINITY_DN42392_c1_g2  -            195 24314at3193          -            576    0.0019   18.6   0.3   1   1   4.3e-06    0.0027   18.1   0.3   485   573    38   128    13   189 0.56 -
PC2J_TRINITY_DN25683_c0_g1_i1.p1PC2J_TRINITY_DN25683_c0_g1  -            120 24314at3193          -            576     0.002   18.5   0.4   1   1   3.5e-06    0.0022   18.4   0.4   481   560    27   106     8   117 0.83 -
PC2J_TRINITY_DN36245_c4_g3_i6.p1PC2J_TRINITY_DN36245_c4_g3  -            175 24314at3193          -            576    0.0026   18.1   0.0   1   1   1.1e-05    0.0071   16.7   0.0    50   179    20   152    14   155 0.88 -
PC2J_TRINITY_DN43801_c0_g2_i1.p1PC2J_TRINITY_DN43801_c0_g2  -            115 24314at3193          -            576    0.0028   18.0   0.1   1   1   5.8e-06    0.0036   17.6   0.1    45   119    12    86     4   102 0.76 -
PC3J_TRINITY_DN41216_c0_g1_i2.p1PC3J_TRINITY_DN41216_c0_g1  -            167 24314at3193          -            576    0.0031   17.9   0.1   1   2    0.0032       2.1    8.6   0.0   501   536    31    66    21    82 0.84 -
PC3J_TRINITY_DN41216_c0_g1_i2.p1PC3J_TRINITY_DN41216_c0_g1  -            167 24314at3193          -            576    0.0031   17.9   0.1   2   2     0.014         9    6.4   0.0   480   536    98   151    84   160 0.68 -
PC2J_TRINITY_DN992_c0_g1_i1.p1PC2J_TRINITY_DN992_c0_g1      -            122 24314at3193          -            576    0.0041   17.5   0.1   1   1   6.9e-06    0.0044   17.4   0.1   480   549    47   115    24   122 0.81 -
PC1J_TRINITY_DN37152_c1_g1_i4.p1PC1J_TRINITY_DN37152_c1_g1  -            162 24314at3193          -            576    0.0052   17.1   0.3   1   1   1.2e-05    0.0075   16.6   0.3   485   542    69   125    64   129 0.83 -
PC2A_TRINITY_DN34291_c0_g3_i4.p1PC2A_TRINITY_DN34291_c0_g3  -            345 24314at3193          -            576    0.0056   17.0   0.6   1   2       5.8   3.7e+03   -2.2   0.3   372   444    25    97    22   102 0.80 -
PC2A_TRINITY_DN34291_c0_g3_i4.p1PC2A_TRINITY_DN34291_c0_g3  -            345 24314at3193          -            576    0.0056   17.0   0.6   2   2   1.6e-05      0.01   16.2   0.0    51   122   227   297   214   310 0.68 -
PC2J_TRINITY_DN35306_c6_g2_i3.p1PC2J_TRINITY_DN35306_c6_g2  -            250 24314at3193          -            576    0.0062   16.9   3.2   1   1   5.8e-05     0.037   14.3   3.4   341   544    22   230    17   245 0.74 -
PC3J_TRINITY_DN49115_c2_g1_i3.p1PC3J_TRINITY_DN49115_c2_g1  -            223 24314at3193          -            576    0.0068   16.7   0.0   1   2   3.6e-05     0.023   15.0   0.0   503   575    19    92     5    93 0.83 -
PC3J_TRINITY_DN49115_c2_g1_i3.p1PC3J_TRINITY_DN49115_c2_g1  -            223 24314at3193          -            576    0.0068   16.7   0.0   2   2       2.5   1.6e+03   -1.0   0.0   291   336   104   149    99   155 0.83 -
PC1J_TRINITY_DN9073_c0_g1_i1.p1PC1J_TRINITY_DN9073_c0_g1    -            116 24314at3193          -            576     0.007   16.7   0.0   1   1   1.9e-05     0.012   16.0   0.0    74   179     7   110     4   113 0.77 -
PC1A_TRINITY_DN42654_c0_g8_i4.p1PC1A_TRINITY_DN42654_c0_g8  -            252 24314at3193          -            576    0.0089   16.4   0.0   1   2    0.0064       4.1    7.6   0.0    63   117    61   120    35   185 0.56 -
PC1A_TRINITY_DN42654_c0_g8_i4.p1PC1A_TRINITY_DN42654_c0_g8  -            252 24314at3193          -            576    0.0089   16.4   0.0   2   2     0.017        11    6.1   0.0   136   182   201   248   187   252 0.68 -
PC1J_TRINITY_DN22762_c0_g1_i2.p1PC1J_TRINITY_DN22762_c0_g1  -            139 24314at3193          -            576     0.011   16.1   0.0   1   1   1.9e-05     0.012   16.0   0.0   114   560     6    76     1    95 0.54 -
PC2J_TRINITY_DN46451_c0_g1_i1.p1PC2J_TRINITY_DN46451_c0_g1  -            117 24314at3193          -            576     0.011   16.1   0.1   1   1   2.2e-05     0.014   15.7   0.1   495   538    32    75     8   117 0.69 -
PC2A_TRINITY_DN36214_c0_g1_i2.p1PC2A_TRINITY_DN36214_c0_g1  -            125 24314at3193          -            576     0.011   16.0   0.0   1   1   2.1e-05     0.013   15.8   0.0   495   566     1    73     1    85 0.83 -
PC1A_TRINITY_DN44317_c3_g4_i1.p1PC1A_TRINITY_DN44317_c3_g4  -            281 24314at3193          -            576     0.012   16.0   2.1   1   1   2.4e-05     0.015   15.6   2.1    77   200   147   267   107   275 0.81 -
PC1J_TRINITY_DN39482_c0_g3_i1.p1PC1J_TRINITY_DN39482_c0_g3  -            134 24314at3193          -            576     0.015   15.6   0.0   1   1   2.8e-05     0.018   15.4   0.0   505   557    12    63     3    88 0.80 -
PC2A_TRINITY_DN21909_c0_g1_i1.p1PC2A_TRINITY_DN21909_c0_g1  -            114 24314at3193          -            576     0.023   15.0   0.0   1   1     4e-05     0.025   14.9   0.0   510   561    36    89    20   103 0.70 -
PC1J_TRINITY_DN40574_c1_g3_i1.p1PC1J_TRINITY_DN40574_c1_g3  -            122 24314at3193          -            576     0.024   14.9   0.0   1   1   4.3e-05     0.027   14.7   0.0   475   547    46   120    36   121 0.82 -
PC1A_TRINITY_DN46806_c0_g1_i1.p1PC1A_TRINITY_DN46806_c0_g1  -            133 24314at3193          -            576     0.025   14.9   0.1   1   1   4.6e-05     0.029   14.7   0.1   429   551     8   132     2   133 0.67 -
PC3A_TRINITY_DN39830_c5_g2_i1.p1PC3A_TRINITY_DN39830_c5_g2  -            319 24314at3193          -            576     0.025   14.9   0.1   1   1   5.5e-05     0.035   14.4   0.1   463   533   248   318   243   319 0.86 -
PC1J_TRINITY_DN41224_c2_g3_i1.p1PC1J_TRINITY_DN41224_c2_g3  -            131 24314at3193          -            576     0.028   14.7   0.4   1   1   4.7e-05      0.03   14.6   0.4   488   563     5    80     1   102 0.80 -
PC2J_TRINITY_DN42753_c0_g5_i2.p1PC2J_TRINITY_DN42753_c0_g5  -            105 24314at3193          -            576     0.029   14.7   0.0   1   1   4.9e-05     0.031   14.6   0.0   500   542    38    80    14    99 0.71 -
PC2J_TRINITY_DN31666_c0_g1_i1.p1PC2J_TRINITY_DN31666_c0_g1  -            156 24314at3193          -            576     0.031   14.6   0.0   1   1   5.3e-05     0.033   14.5   0.0   506   576    55   134    15   134 0.74 -
PC3A_TRINITY_DN38669_c5_g1_i5.p1PC3A_TRINITY_DN38669_c5_g1  -            114 24314at3193          -            576     0.033   14.5   0.0   1   1   5.3e-05     0.034   14.5   0.0   500   542    44    86     9   105 0.73 -
PC1J_TRINITY_DN33420_c0_g1_i3.p1PC1J_TRINITY_DN33420_c0_g1  -            129 24314at3193          -            576     0.038   14.3   0.4   1   1   0.00011     0.069   13.4   0.4   481   561    27   106    10   123 0.52 -
PC1J_TRINITY_DN35789_c5_g1_i8.p1PC1J_TRINITY_DN35789_c5_g1  -            111 24314at3193          -            576     0.057   13.7   0.2   1   1   0.00011     0.066   13.5   0.2    42    97    51   108    28   110 0.83 -
PC3J_TRINITY_DN47943_c1_g3_i1.p1PC3J_TRINITY_DN47943_c1_g3  -            114 24314at3193          -            576     0.063   13.6   0.3   1   2     0.015       9.6    6.3   0.0    39    74    11    46     5    50 0.88 -
PC3J_TRINITY_DN47943_c1_g3_i1.p1PC3J_TRINITY_DN47943_c1_g3  -            114 24314at3193          -            576     0.063   13.6   0.3   2   2    0.0079         5    7.3   0.1   113   178    42   108    39   114 0.74 -
PC3A_TRINITY_DN42049_c0_g1_i1.p1PC3A_TRINITY_DN42049_c0_g1  -            191 24314at3193          -            576      0.07   13.4   0.2   1   1   0.00042      0.26   11.5   0.1   503   557    63   121    51   140 0.68 -
PC1A_TRINITY_DN33066_c0_g1_i1.p1PC1A_TRINITY_DN33066_c0_g1  -            183 24314at3193          -            576     0.082   13.2   0.2   1   2    0.0045       2.8    8.1   0.1    63   123    11    72     1    89 0.74 -
PC1A_TRINITY_DN33066_c0_g1_i1.p1PC1A_TRINITY_DN33066_c0_g1  -            183 24314at3193          -            576     0.082   13.2   0.2   2   2     0.084        53    3.9   0.0   302   335   107   140    79   183 0.72 -
PC2A_TRINITY_DN34122_c0_g4_i7.p1PC2A_TRINITY_DN34122_c0_g4  -            151 24314at3193          -            576     0.096   12.9   0.1   1   1   0.00018      0.11   12.7   0.1   102   179    25   106    13   122 0.79 -
PC1A_TRINITY_DN46725_c0_g1_i1.p1PC1A_TRINITY_DN46725_c0_g1  -            154 24314at3193          -            576     0.096   12.9   0.2   1   2       0.1        66    3.6   0.0   135   175    16    57     3    68 0.77 -
PC1A_TRINITY_DN46725_c0_g1_i1.p1PC1A_TRINITY_DN46725_c0_g1  -            154 24314at3193          -            576     0.096   12.9   0.2   2   2    0.0049       3.1    8.0   0.1   132   176   104   149    75   154 0.81 -
PC1J_TRINITY_DN41174_c2_g1_i2.p1PC1J_TRINITY_DN41174_c2_g1  -            140 24314at3193          -            576     0.098   12.9   0.0   1   1   0.00018      0.12   12.7   0.0   316   370    37    98    16   132 0.78 -
PC2J_TRINITY_DN42753_c0_g4_i1.p1PC2J_TRINITY_DN42753_c0_g4  -            120 24314at3193          -            576      0.15   12.3   0.0   1   1   0.00024      0.15   12.3   0.0   295   341    16    62     4   102 0.90 -
PC2A_TRINITY_DN33573_c1_g1_i6.p3PC2A_TRINITY_DN33573_c1_g1  -            102 24314at3193          -            576      0.17   12.1   0.0   1   1   0.00054      0.34   11.1   0.0    81   547    31    87     2    97 0.48 -
PC2J_TRINITY_DN40753_c0_g5_i1.p1PC2J_TRINITY_DN40753_c0_g5  -            211 24314at3193          -            576       0.2   11.9   3.2   1   2      0.11        72    3.5   0.1    99   158    35    95    27   107 0.74 -
PC2J_TRINITY_DN40753_c0_g5_i1.p1PC2J_TRINITY_DN40753_c0_g5  -            211 24314at3193          -            576       0.2   11.9   3.2   2   2    0.0012      0.78    9.9   2.8    50   175    70   197    59   201 0.76 -
PC3J_TRINITY_DN48054_c2_g1_i5.p1PC3J_TRINITY_DN48054_c2_g1  -            158 24314at3193          -            576      0.25   11.6   0.0   1   2     0.039        25    5.0   0.0   483   531     7    55     2    61 0.56 -
PC3J_TRINITY_DN48054_c2_g1_i5.p1PC3J_TRINITY_DN48054_c2_g1  -            158 24314at3193          -            576      0.25   11.6   0.0   2   2    0.0018       1.1    9.4   0.0   470   556    32   122    24   137 0.79 -
PC2A_TRINITY_DN24168_c1_g1_i2.p2PC2A_TRINITY_DN24168_c1_g1  -            107 24314at3193          -            576      0.56   10.4   0.0   1   1   0.00095       0.6   10.3   0.0   498   547    53   102    39   107 0.65 -
#
# Program:         hmmsearch
# Version:         3.2.1 (June 2018)
# Pipeline mode:   SEARCH
# Query file:      /isg/shared/databases/BUSCO/odb10/embryophyta_odb10/hmms/24314at3193.hmm
# Target file:     Pine_final_annotations_no_contam_lvl0.faa
# Option settings: /usr/local/bin/hmmsearch --domtblout /labs/Wegrzyn/Juniper_Pine/BUSCO/NEW/busco_pine/run_embryophyta_odb10/hmmer_output/24314at3193.out --cpu 1 /isg/shared/databases/BUSCO/odb10/embryophyta_odb10/hmms/24314at3193.hmm Pine_final_annotations_no_contam_lvl0.faa 
# Current dir:     /labs/Wegrzyn/Juniper_Pine/BUSCO/NEW
# Date:            Thu Aug  6 14:52:09 2020
# [ok]
