#                                                                                                                    --- full sequence --- -------------- this domain -------------   hmm coord   ali coord   env coord
# target name                                                accession   tlen query name           accession   qlen   E-value  score  bias   #  of  c-Evalue  i-Evalue  score  bias  from    to  from    to  from    to  acc description of target
#                                        ------------------- ---------- ----- -------------------- ---------- ----- --------- ------ ----- --- --- --------- --------- ------ ----- ----- ----- ----- ----- ----- ----- ---- ---------------------
PC1A_TRINITY_DN43395_c6_g1_i1.p1PC1A_TRINITY_DN43395_c6_g1   -            532 25543at3193          -            544  2.3e-126  424.3   5.8   1   3   7.6e-18   5.5e-15   56.7   0.1   138   220     1    94     1   122 0.78 -
PC1A_TRINITY_DN43395_c6_g1_i1.p1PC1A_TRINITY_DN43395_c6_g1   -            532 25543at3193          -            544  2.3e-126  424.3   5.8   2   3   1.3e-05     0.009   16.3   0.5   210   257   223   290   210   294 0.65 -
PC1A_TRINITY_DN43395_c6_g1_i1.p1PC1A_TRINITY_DN43395_c6_g1   -            532 25543at3193          -            544  2.3e-126  424.3   5.8   3   3  4.3e-106  3.1e-103  347.9   0.1   257   439   343   532   326   532 0.96 -
PC3A_TRINITY_DN37540_c3_g2_i1.p1PC3A_TRINITY_DN37540_c3_g2   -            189 25543at3193          -            544   8.8e-47  161.6   0.0   1   1   1.4e-49     1e-46  161.4   0.0     1    97    91   188    91   189 0.98 -
PC2A_TRINITY_DN35078_c1_g1_i1.p1PC2A_TRINITY_DN35078_c1_g1   -            110 25543at3193          -            544   6.5e-45  155.4   0.6   1   1   5.5e-46   3.9e-43  149.5   0.6   429   516     1   103     1   106 0.89 -
PC1J_TRINITY_DN34195_c1_g1_i11.p1PC1J_TRINITY_DN34195_c1_g1  -            268 25543at3193          -            544   9.5e-25   88.9   0.0   1   1   1.6e-27   1.2e-24   88.6   0.0   282   467    79   255    47   263 0.81 -
PC1A_TRINITY_DN42333_c0_g7_i1.p1PC1A_TRINITY_DN42333_c0_g7   -            291 25543at3193          -            544   1.6e-22   81.5   0.0   1   1   2.7e-25   1.9e-22   81.3   0.0   314   465    79   223    39   239 0.87 -
PC1J_TRINITY_DN34195_c1_g2_i2.p1PC1J_TRINITY_DN34195_c1_g2   -            238 25543at3193          -            544   7.6e-19   69.4   0.0   1   1   1.3e-21   9.6e-19   69.0   0.0   356   468    25   133    19   158 0.84 -
PC2J_TRINITY_DN37031_c0_g6_i1.p1PC2J_TRINITY_DN37031_c0_g6   -            349 25543at3193          -            544   2.6e-18   67.6   0.0   1   2     0.068        49    4.0   0.1   310   338   156   185   148   204 0.77 -
PC2J_TRINITY_DN37031_c0_g6_i1.p1PC2J_TRINITY_DN37031_c0_g6   -            349 25543at3193          -            544   2.6e-18   67.6   0.0   2   2   2.5e-19   1.8e-16   61.6   0.0   353   461   226   345   215   348 0.83 -
PC2A_TRINITY_DN13828_c0_g1_i1.p1PC2A_TRINITY_DN13828_c0_g1   -            156 25543at3193          -            544   2.4e-16   61.1   0.1   1   2   4.5e-10   3.2e-07   31.0   0.0    54   105    13    64     3    69 0.90 -
PC2A_TRINITY_DN13828_c0_g1_i1.p1PC2A_TRINITY_DN13828_c0_g1   -            156 25543at3193          -            544   2.4e-16   61.1   0.1   2   2   2.7e-09     2e-06   28.4   0.0    53   103    85   135    72   140 0.88 -
PC3A_TRINITY_DN44284_c2_g2_i2.p1PC3A_TRINITY_DN44284_c2_g2   -            228 25543at3193          -            544   7.1e-16   59.6   0.1   1   2   1.5e-09     1e-06   29.3   0.0    53   164    12   128     9   136 0.85 -
PC3A_TRINITY_DN44284_c2_g2_i2.p1PC3A_TRINITY_DN44284_c2_g2   -            228 25543at3193          -            544   7.1e-16   59.6   0.1   2   2   2.2e-09   1.6e-06   28.7   0.0    51   135   140   227   131   228 0.87 -
PC1A_TRINITY_DN40902_c0_g1_i7.p1PC1A_TRINITY_DN40902_c0_g1   -            537 25543at3193          -            544   1.1e-14   55.7   0.2   1   2   4.3e-14   3.1e-11   44.3   0.0    52   165   259   392   250   399 0.79 -
PC1A_TRINITY_DN40902_c0_g1_i7.p1PC1A_TRINITY_DN40902_c0_g1   -            537 25543at3193          -            544   1.1e-14   55.7   0.2   2   2    0.0015         1    9.5   0.0    73   162   435   535   419   536 0.72 -
PC2J_TRINITY_DN40976_c0_g1_i16.p1PC2J_TRINITY_DN40976_c0_g1  -            466 25543at3193          -            544   5.6e-14   53.3   0.1   1   2   4.9e-14   3.5e-11   44.1   0.0    52   145   199   303   189   338 0.78 -
PC2J_TRINITY_DN40976_c0_g1_i16.p1PC2J_TRINITY_DN40976_c0_g1  -            466 25543at3193          -            544   5.6e-14   53.3   0.1   2   2    0.0071       5.1    7.2   0.0    73   107   375   409   358   454 0.86 -
PC1J_TRINITY_DN37933_c8_g1_i1.p1PC1J_TRINITY_DN37933_c8_g1   -            116 25543at3193          -            544     1e-11   45.9   0.0   1   1   1.7e-14   1.2e-11   45.6   0.0    53   141    17   110    11   112 0.92 -
PC1A_TRINITY_DN39760_c1_g10_i1.p1PC1A_TRINITY_DN39760_c1_g10 -            273 25543at3193          -            544   1.4e-11   45.4   0.0   1   1   2.6e-14   1.8e-11   45.0   0.0    52   139   108   204   105   250 0.83 -
PC1A_TRINITY_DN4381_c0_g1_i1.p1PC1A_TRINITY_DN4381_c0_g1     -            131 25543at3193          -            544   1.3e-10   42.2   0.0   1   1     2e-13   1.4e-10   42.1   0.0   386   460    41   120    28   130 0.77 -
PC2A_TRINITY_DN32698_c1_g1_i4.p1PC2A_TRINITY_DN32698_c1_g1   -            273 25543at3193          -            544   1.7e-10   41.8   0.0   1   1   3.6e-13   2.6e-10   41.2   0.0   366   471    60   172    55   181 0.88 -
PC1J_TRINITY_DN36977_c1_g1_i4.p1PC1J_TRINITY_DN36977_c1_g1   -            176 25543at3193          -            544   6.1e-10   40.0   0.0   1   1   1.5e-12     1e-09   39.2   0.0   367   471    19   130    14   139 0.87 -
PC1J_TRINITY_DN42332_c0_g1_i1.p1PC1J_TRINITY_DN42332_c0_g1   -            104 25543at3193          -            544   6.1e-10   40.0   0.0   1   1     1e-12   7.4e-10   39.7   0.0   389   464     2    78     1    85 0.85 -
PC2A_TRINITY_DN32748_c2_g2_i6.p1PC2A_TRINITY_DN32748_c2_g2   -            102 25543at3193          -            544   2.2e-09   38.2   0.1   1   1   3.6e-12   2.6e-09   37.9   0.1    56   128     6    87     4    95 0.88 -
PC3A_TRINITY_DN41588_c1_g1_i2.p1PC3A_TRINITY_DN41588_c1_g1   -            298 25543at3193          -            544   3.6e-09   37.5   0.5   1   3   1.1e-08   7.9e-06   26.4   0.0   389   510    15   135     3   148 0.86 -
PC3A_TRINITY_DN41588_c1_g1_i2.p1PC3A_TRINITY_DN41588_c1_g1   -            298 25543at3193          -            544   3.6e-09   37.5   0.5   2   3       1.7   1.2e+03   -0.6   0.0   393   413   220   240   199   250 0.76 -
PC3A_TRINITY_DN41588_c1_g1_i2.p1PC3A_TRINITY_DN41588_c1_g1   -            298 25543at3193          -            544   3.6e-09   37.5   0.5   3   3    0.0038       2.7    8.2   0.3   388   413   246   271   233   281 0.79 -
PC3J_TRINITY_DN38611_c4_g4_i2.p1PC3J_TRINITY_DN38611_c4_g4   -            152 25543at3193          -            544   3.7e-09   37.4   0.0   1   1   6.7e-12   4.8e-09   37.0   0.0    72   137     6    77     3    87 0.89 -
PC3J_TRINITY_DN42475_c6_g1_i4.p1PC3J_TRINITY_DN42475_c6_g1   -            183 25543at3193          -            544   6.5e-09   36.6   0.0   1   1   1.2e-11   8.3e-09   36.3   0.0    48   135    14   107     5   121 0.88 -
PC3A_TRINITY_DN37811_c6_g2_i1.p1PC3A_TRINITY_DN37811_c6_g2   -            220 25543at3193          -            544     7e-09   36.5   0.0   1   1   1.3e-11   9.1e-09   36.1   0.0   312   431    86   220    70   220 0.77 -
PC2J_TRINITY_DN41715_c0_g1_i6.p1PC2J_TRINITY_DN41715_c0_g1   -            178 25543at3193          -            544   1.1e-08   35.8   0.0   1   1     2e-11   1.4e-08   35.5   0.0    50   107    66   122    53   147 0.84 -
PC3A_TRINITY_DN27097_c0_g2_i1.p1PC3A_TRINITY_DN27097_c0_g2   -            197 25543at3193          -            544   3.7e-08   34.1   0.0   1   1   6.5e-11   4.7e-08   33.8   0.0    50   107   140   196   122   197 0.91 -
PC2A_TRINITY_DN28975_c5_g4_i4.p1PC2A_TRINITY_DN28975_c5_g4   -            186 25543at3193          -            544   4.4e-08   33.9   0.1   1   1   7.5e-11   5.4e-08   33.6   0.1    51   166    39   172    21   181 0.76 -
PC1A_TRINITY_DN7880_c0_g1_i2.p1PC1A_TRINITY_DN7880_c0_g1     -            220 25543at3193          -            544   1.1e-07   32.5   0.1   1   2       6.1   4.4e+03   -2.4   0.0   135   165    16    51     1    54 0.60 -
PC1A_TRINITY_DN7880_c0_g1_i2.p1PC1A_TRINITY_DN7880_c0_g1     -            220 25543at3193          -            544   1.1e-07   32.5   0.1   2   2   2.6e-10   1.8e-07   31.8   0.0    47   159    93   213    59   216 0.81 -
PC1J_TRINITY_DN38463_c2_g1_i5.p1PC1J_TRINITY_DN38463_c2_g1   -            243 25543at3193          -            544   1.3e-07   32.3   0.0   1   1   2.1e-10   1.5e-07   32.1   0.0   349   510     4   167     1   180 0.81 -
PC3A_TRINITY_DN42490_c5_g1_i5.p1PC3A_TRINITY_DN42490_c5_g1   -            104 25543at3193          -            544   1.7e-07   31.9   0.0   1   1   2.5e-10   1.8e-07   31.8   0.0    48   115     2    75     1    90 0.81 -
PC1A_TRINITY_DN40951_c6_g1_i3.p1PC1A_TRINITY_DN40951_c6_g1   -            111 25543at3193          -            544   2.7e-07   31.3   0.1   1   1   3.9e-10   2.8e-07   31.2   0.1    48   107     2    62     1    96 0.82 -
PC3A_TRINITY_DN42148_c1_g3_i1.p1PC3A_TRINITY_DN42148_c1_g3   -            518 25543at3193          -            544   3.6e-07   30.9   0.1   1   1   9.2e-10   6.6e-07   30.0   0.1    51   166   294   427   289   454 0.76 -
PC2J_TRINITY_DN36346_c0_g1_i2.p1PC2J_TRINITY_DN36346_c0_g1   -            206 25543at3193          -            544   4.1e-07   30.7   0.0   1   1     9e-10   6.4e-07   30.0   0.0    54   105    20    71    11    88 0.92 -
PC2J_TRINITY_DN37278_c3_g1_i1.p1PC2J_TRINITY_DN37278_c3_g1   -            137 25543at3193          -            544   4.3e-07   30.6   0.0   1   1   7.5e-10   5.3e-07   30.3   0.0    48   107    20    80    18    99 0.85 -
PC2A_TRINITY_DN32748_c2_g2_i5.p1PC2A_TRINITY_DN32748_c2_g2   -            109 25543at3193          -            544   1.4e-06   28.9   0.3   1   1   2.3e-09   1.6e-06   28.7   0.3    56   108     6    61     4    77 0.87 -
PC3A_TRINITY_DN10585_c0_g1_i1.p1PC3A_TRINITY_DN10585_c0_g1   -            140 25543at3193          -            544   1.8e-06   28.6   0.0   1   1   3.2e-09   2.3e-06   28.2   0.0    54   103    72   121    63   126 0.90 -
PC3A_TRINITY_DN41857_c0_g6_i1.p1PC3A_TRINITY_DN41857_c0_g6   -            116 25543at3193          -            544   1.8e-06   28.5   0.0   1   1   2.7e-09     2e-06   28.4   0.0    67   140    24   103     6   112 0.80 -
PC3A_TRINITY_DN37283_c1_g1_i2.p1PC3A_TRINITY_DN37283_c1_g1   -            171 25543at3193          -            544   3.8e-06   27.5   0.0   1   1   6.1e-09   4.4e-06   27.3   0.0    52   105    15    69     5   110 0.89 -
PC1A_TRINITY_DN40902_c0_g1_i1.p1PC1A_TRINITY_DN40902_c0_g1   -            156 25543at3193          -            544   5.2e-06   27.0   0.0   1   1   8.6e-09   6.1e-06   26.8   0.0    72   165     4   117     2   136 0.77 -
PC1J_TRINITY_DN31492_c0_g1_i2.p1PC1J_TRINITY_DN31492_c0_g1   -            190 25543at3193          -            544   5.4e-06   27.0   0.0   1   1   8.1e-09   5.8e-06   26.9   0.0    47   135    38   132    24   169 0.82 -
PC2J_TRINITY_DN43881_c1_g4_i1.p1PC2J_TRINITY_DN43881_c1_g4   -            205 25543at3193          -            544   7.4e-06   26.5   0.0   1   1   1.4e-08   9.7e-06   26.1   0.0    52   108   106   165   102   185 0.86 -
PC3J_TRINITY_DN38544_c0_g1_i4.p1PC3J_TRINITY_DN38544_c0_g1   -            145 25543at3193          -            544   9.4e-06   26.2   0.0   1   1   1.4e-08     1e-05   26.1   0.0    54   107    52   105    26   127 0.86 -
PC1A_TRINITY_DN39178_c0_g2_i6.p1PC1A_TRINITY_DN39178_c0_g2   -            179 25543at3193          -            544   1.8e-05   25.3   0.0   1   1   2.9e-08   2.1e-05   25.0   0.0    52   111    32    92    25   129 0.81 -
PC1J_TRINITY_DN41184_c1_g7_i1.p1PC1J_TRINITY_DN41184_c1_g7   -            175 25543at3193          -            544   1.8e-05   25.2   0.0   1   1   2.8e-08     2e-05   25.1   0.0   376   458    69   152    20   158 0.81 -
PC1A_TRINITY_DN40904_c2_g1_i4.p1PC1A_TRINITY_DN40904_c2_g1   -            266 25543at3193          -            544   1.9e-05   25.1   0.0   1   1   3.5e-08   2.5e-05   24.8   0.0   389   498    22   133     6   161 0.74 -
PC1A_TRINITY_DN38889_c0_g1_i4.p1PC1A_TRINITY_DN38889_c0_g1   -            291 25543at3193          -            544   2.8e-05   24.6   0.0   1   1   4.7e-08   3.4e-05   24.3   0.0    65   160    65   170    38   181 0.74 -
PC1A_TRINITY_DN40904_c2_g1_i5.p1PC1A_TRINITY_DN40904_c2_g1   -            148 25543at3193          -            544   5.8e-05   23.6   0.0   1   1   9.6e-08   6.9e-05   23.3   0.0   389   459    22    92     5   104 0.81 -
PC3A_TRINITY_DN41588_c1_g1_i11.p1PC3A_TRINITY_DN41588_c1_g1  -            192 25543at3193          -            544   6.6e-05   23.4   0.0   1   2   2.1e-06    0.0015   18.9   0.0   389   459    15    85     3   104 0.78 -
PC3A_TRINITY_DN41588_c1_g1_i11.p1PC3A_TRINITY_DN41588_c1_g1  -            192 25543at3193          -            544   6.6e-05   23.4   0.0   2   2      0.17   1.2e+02    2.7   0.0   392   427   129   162   103   178 0.76 -
PC2J_TRINITY_DN42609_c0_g1_i1.p1PC2J_TRINITY_DN42609_c0_g1   -            106 25543at3193          -            544   0.00011   22.7   0.0   1   1   1.7e-07   0.00012   22.5   0.0   346   431    20   106    12   106 0.78 -
PC1A_TRINITY_DN43660_c2_g1_i3.p1PC1A_TRINITY_DN43660_c2_g1   -            214 25543at3193          -            544   0.00014   22.3   0.0   1   1   2.2e-07   0.00016   22.1   0.0   389   459   123   193    73   203 0.75 -
PC2A_TRINITY_DN29892_c0_g1_i1.p1PC2A_TRINITY_DN29892_c0_g1   -            141 25543at3193          -            544   0.00017   22.1   0.0   1   1   2.6e-07   0.00019   21.9   0.0    54   106     5    57     2    91 0.85 -
PC1J_TRINITY_DN38425_c1_g5_i5.p1PC1J_TRINITY_DN38425_c1_g5   -            205 25543at3193          -            544   0.00019   21.9   0.0   1   1   4.7e-07   0.00034   21.0   0.0   389   459    31   101    10   126 0.79 -
PC1J_TRINITY_DN42101_c0_g1_i1.p1PC1J_TRINITY_DN42101_c0_g1   -            112 25543at3193          -            544    0.0002   21.8   0.0   1   1   3.3e-07   0.00024   21.6   0.0   391   459     7    77     2    94 0.90 -
PC3J_TRINITY_DN49214_c3_g5_i4.p1PC3J_TRINITY_DN49214_c3_g5   -            193 25543at3193          -            544   0.00026   21.4   0.0   1   1   3.7e-07   0.00027   21.4   0.0   353   459    37   146    22   189 0.72 -
PC3J_TRINITY_DN48103_c0_g2_i4.p1PC3J_TRINITY_DN48103_c0_g2   -            458 25543at3193          -            544   0.00038   20.9   0.0   1   1   7.2e-07   0.00052   20.4   0.0   346   457    53   163     5   178 0.73 -
PC3A_TRINITY_DN2575_c0_g1_i1.p1PC3A_TRINITY_DN2575_c0_g1     -            124 25543at3193          -            544   0.00045   20.6   0.0   1   1   6.3e-07   0.00045   20.6   0.0    56   115    20    75    12   123 0.82 -
PC1A_TRINITY_DN1343_c0_g1_i1.p1PC1A_TRINITY_DN1343_c0_g1     -            118 25543at3193          -            544   0.00054   20.4   0.0   1   1   8.9e-07   0.00064   20.1   0.0    53   108    10    65     8    81 0.92 -
PC2J_TRINITY_DN38079_c0_g1_i2.p1PC2J_TRINITY_DN38079_c0_g1   -            238 25543at3193          -            544   0.00063   20.1   0.0   1   1   9.8e-07    0.0007   20.0   0.0   380   459   112   194    18   199 0.73 -
PC1A_TRINITY_DN40904_c2_g1_i1.p1PC1A_TRINITY_DN40904_c2_g1   -            105 25543at3193          -            544   0.00066   20.1   0.0   1   1   1.4e-06   0.00097   19.5   0.0   389   438    37    84     2    98 0.78 -
PC2A_TRINITY_DN35872_c2_g1_i2.p1PC2A_TRINITY_DN35872_c2_g1   -            213 25543at3193          -            544   0.00073   19.9   0.0   1   1   1.3e-06   0.00094   19.6   0.0    72   107    88   124    77   161 0.88 -
PC3A_TRINITY_DN31179_c0_g1_i1.p1PC3A_TRINITY_DN31179_c0_g1   -            113 25543at3193          -            544    0.0012   19.2   0.1   1   1   2.1e-06    0.0015   18.9   0.1   309   409    11   101     7   109 0.83 -
PC2A_TRINITY_DN32698_c1_g1_i2.p1PC2A_TRINITY_DN32698_c1_g1   -            155 25543at3193          -            544    0.0014   19.0   0.0   1   1   2.6e-06    0.0019   18.6   0.0   366   414    60   109    54   122 0.88 -
PC3A_TRINITY_DN42686_c0_g3_i2.p1PC3A_TRINITY_DN42686_c0_g3   -            105 25543at3193          -            544    0.0019   18.5   0.1   1   1   3.4e-06    0.0024   18.2   0.1   228   257    23    52    16    61 0.89 -
PC3A_TRINITY_DN41588_c1_g1_i13.p1PC3A_TRINITY_DN41588_c1_g1  -            298 25543at3193          -            544    0.0026   18.1   0.0   1   1   4.9e-06    0.0035   17.7   0.0   349   459    72   185    60   239 0.71 -
PC1A_TRINITY_DN42551_c0_g1_i8.p1PC1A_TRINITY_DN42551_c0_g1   -            548 25543at3193          -            544    0.0027   18.1   0.0   1   1   5.2e-06    0.0037   17.6   0.0   385   459   110   188    35   208 0.75 -
PC2A_TRINITY_DN25486_c0_g1_i1.p1PC2A_TRINITY_DN25486_c0_g1   -            150 25543at3193          -            544    0.0038   17.6   0.0   1   1   8.9e-06    0.0064   16.8   0.0   307   409    22   115    19   126 0.85 -
PC1A_TRINITY_DN41878_c2_g6_i1.p1PC1A_TRINITY_DN41878_c2_g6   -            123 25543at3193          -            544     0.004   17.5   0.0   1   1     6e-06    0.0043   17.4   0.0   420   486    11    84     3   106 0.83 -
PC1A_TRINITY_DN40056_c6_g2_i2.p1PC1A_TRINITY_DN40056_c6_g2   -            177 25543at3193          -            544    0.0054   17.1   0.0   1   1   9.1e-06    0.0065   16.8   0.0   346   434    86   175    79   177 0.75 -
PC2J_TRINITY_DN42609_c0_g3_i1.p1PC2J_TRINITY_DN42609_c0_g3   -            165 25543at3193          -            544     0.015   15.6   0.1   1   1   2.8e-05      0.02   15.2   0.1   349   413    89   156    76   162 0.68 -
PC1A_TRINITY_DN42022_c2_g1_i3.p1PC1A_TRINITY_DN42022_c2_g1   -            311 25543at3193          -            544     0.018   15.3   0.0   1   1   4.4e-05     0.032   14.5   0.0    51   107   214   275   209   283 0.79 -
PC2J_TRINITY_DN37862_c0_g2_i1.p1PC2J_TRINITY_DN37862_c0_g2   -            285 25543at3193          -            544     0.025   14.9   0.2   1   2     0.047        34    4.6   0.0    76   107    83   115    28   142 0.84 -
PC2J_TRINITY_DN37862_c0_g2_i1.p1PC2J_TRINITY_DN37862_c0_g2   -            285 25543at3193          -            544     0.025   14.9   0.2   2   2    0.0028         2    8.6   0.1    68   107   239   278   226   279 0.91 -
PC1A_TRINITY_DN40056_c6_g2_i1.p1PC1A_TRINITY_DN40056_c6_g2   -            190 25543at3193          -            544     0.028   14.7   0.0   1   1   4.5e-05     0.033   14.5   0.0   347   434   100   188    78   190 0.72 -
PC3J_TRINITY_DN42051_c2_g1_i5.p1PC3J_TRINITY_DN42051_c2_g1   -            171 25543at3193          -            544     0.036   14.4   0.0   1   1     5e-05     0.036   14.4   0.0   388   457    30    99     2   143 0.71 -
PC3A_TRINITY_DN41588_c1_g1_i15.p1PC3A_TRINITY_DN41588_c1_g1  -            124 25543at3193          -            544     0.036   14.3   0.0   1   1   6.4e-05     0.046   14.0   0.0   348   413     8    76     3    85 0.70 -
PC1J_TRINITY_DN41174_c2_g7_i1.p1PC1J_TRINITY_DN41174_c2_g7   -            110 25543at3193          -            544     0.044   14.1   0.1   1   1   6.2e-05     0.044   14.1   0.1   299   336    53    92    15    99 0.81 -
PC3A_TRINITY_DN31179_c0_g1_i2.p1PC3A_TRINITY_DN31179_c0_g1   -            103 25543at3193          -            544     0.046   14.0   0.0   1   1   6.7e-05     0.048   13.9   0.0   354   409    37    91    16    99 0.82 -
PC3A_TRINITY_DN41588_c1_g1_i5.p1PC3A_TRINITY_DN41588_c1_g1   -            115 25543at3193          -            544     0.058   13.7   0.0   1   1   8.9e-05     0.064   13.5   0.0   389   437    60   106     7   113 0.84 -
PC2J_TRINITY_DN40976_c0_g1_i21.p1PC2J_TRINITY_DN40976_c0_g1  -            124 25543at3193          -            544     0.071   13.4   0.0   1   1    0.0001     0.072   13.4   0.0    52    83    91   122    57   124 0.94 -
PC3J_TRINITY_DN11327_c0_g1_i1.p2PC3J_TRINITY_DN11327_c0_g1   -            132 25543at3193          -            544      0.11   12.7   0.0   1   1   0.00018      0.13   12.5   0.0    54    98    62   106    50   129 0.82 -
PC1J_TRINITY_DN37139_c1_g3_i2.p1PC1J_TRINITY_DN37139_c1_g3   -            162 25543at3193          -            544      0.15   12.3   0.0   1   1   0.00026      0.18   12.0   0.0    60   101    68   111    34   122 0.84 -
PC3J_TRINITY_DN41030_c1_g4_i6.p4PC3J_TRINITY_DN41030_c1_g4   -            137 25543at3193          -            544      0.19   12.0   0.1   1   1   0.00028       0.2   11.9   0.1    64   107    43    86    12    99 0.92 -
PC2J_TRINITY_DN39638_c0_g1_i2.p1PC2J_TRINITY_DN39638_c0_g1   -            124 25543at3193          -            544      0.21   11.8   0.0   1   1    0.0003      0.21   11.8   0.0   384   415    69   100     6   109 0.80 -
PC3J_TRINITY_DN39028_c1_g2_i1.p1PC3J_TRINITY_DN39028_c1_g2   -            107 25543at3193          -            544      0.25   11.6   0.0   1   1   0.00037      0.26   11.5   0.0   385   413    46    74    18    84 0.76 -
PC2A_TRINITY_DN31262_c0_g2_i7.p1PC2A_TRINITY_DN31262_c0_g2   -            149 25543at3193          -            544      0.29   11.4   0.0   1   1   0.00057       0.4   10.9   0.0   355   405    91   147    63   148 0.68 -
PC2A_TRINITY_DN32698_c1_g1_i5.p1PC2A_TRINITY_DN32698_c1_g1   -            148 25543at3193          -            544      0.35   11.1   0.0   1   1   0.00063      0.45   10.7   0.0   417   471    11    67     3    84 0.85 -
PC3J_TRINITY_DN38544_c0_g2_i1.p1PC3J_TRINITY_DN38544_c0_g2   -            147 25543at3193          -            544      0.47   10.7   0.1   1   1   0.00086      0.61   10.3   0.1    68   107    97   136    82   138 0.91 -
PC3J_TRINITY_DN40675_c1_g1_i6.p1PC3J_TRINITY_DN40675_c1_g1   -            140 25543at3193          -            544      0.57   10.4   0.0   1   1   0.00092      0.66   10.2   0.0   350   406    79   134    69   140 0.73 -
PC1A_TRINITY_DN41234_c5_g1_i2.p1PC1A_TRINITY_DN41234_c5_g1   -            478 25543at3193          -            544      0.59   10.3   2.0   1   2     0.026        19    5.4   0.1   203   296    48   140    37   148 0.81 -
PC1A_TRINITY_DN41234_c5_g1_i2.p1PC1A_TRINITY_DN41234_c5_g1   -            478 25543at3193          -            544      0.59   10.3   2.0   2   2     0.068        48    4.0   0.0   451   498   342   391   339   406 0.84 -
PC2A_TRINITY_DN30372_c4_g1_i6.p1PC2A_TRINITY_DN30372_c4_g1   -            297 25543at3193          -            544      0.73   10.0   0.0   1   1    0.0013      0.91    9.7   0.0   382   412   223   253   145   264 0.69 -
PC2J_TRINITY_DN45300_c5_g1_i2.p1PC2J_TRINITY_DN45300_c5_g1   -            171 25543at3193          -            544      0.77   10.0   0.1   1   1    0.0029       2.1    8.5   0.1   315   411    24   115    15   131 0.65 -
PC2J_TRINITY_DN44977_c4_g1_i16.p1PC2J_TRINITY_DN44977_c4_g1  -            610 25543at3193          -            544      0.81    9.9   0.2   1   2      0.62   4.5e+02    0.8   0.0    76   105    58    88    11    93 0.82 -
PC2J_TRINITY_DN44977_c4_g1_i16.p1PC2J_TRINITY_DN44977_c4_g1  -            610 25543at3193          -            544      0.81    9.9   0.2   2   2     0.011       7.6    6.7   0.0    67   107   215   255   203   268 0.91 -
#
# Program:         hmmsearch
# Version:         3.2.1 (June 2018)
# Pipeline mode:   SEARCH
# Query file:      /isg/shared/databases/BUSCO/odb10/embryophyta_odb10/hmms/25543at3193.hmm
# Target file:     Pine_final_annotations_no_contam_lvl0.faa
# Option settings: /usr/local/bin/hmmsearch --domtblout /labs/Wegrzyn/Juniper_Pine/BUSCO/NEW/busco_pine/run_embryophyta_odb10/hmmer_output/25543at3193.out --cpu 1 /isg/shared/databases/BUSCO/odb10/embryophyta_odb10/hmms/25543at3193.hmm Pine_final_annotations_no_contam_lvl0.faa 
# Current dir:     /labs/Wegrzyn/Juniper_Pine/BUSCO/NEW
# Date:            Thu Aug  6 14:52:39 2020
# [ok]
