#                                                                                                                  --- full sequence --- -------------- this domain -------------   hmm coord   ali coord   env coord
# target name                                              accession   tlen query name           accession   qlen   E-value  score  bias   #  of  c-Evalue  i-Evalue  score  bias  from    to  from    to  from    to  acc description of target
#                                      ------------------- ---------- ----- -------------------- ---------- ----- --------- ------ ----- --- --- --------- --------- ------ ----- ----- ----- ----- ----- ----- ----- ---- ---------------------
PC1J_TRINITY_DN36730_c2_g1_i2.p1PC1J_TRINITY_DN36730_c2_g1 -            392 27037at3193          -            568  1.8e-188  629.3   0.2   1   1  1.3e-192  2.1e-188  629.1   0.2     1   327    47   392    47   392 0.95 -
PC2J_TRINITY_DN37851_c3_g1_i1.p1PC2J_TRINITY_DN37851_c3_g1 -            194 27037at3193          -            568  9.8e-105  352.8   0.2   1   1  7.6e-109  1.2e-104  352.5   0.2   120   290     8   188     3   193 0.96 -
PC2J_TRINITY_DN41240_c5_g2_i3.p1PC2J_TRINITY_DN41240_c5_g2 -            222 27037at3193          -            568  2.2e-101  341.8   3.0   1   2   1.3e-99   2.1e-95  322.0   0.9   371   527     1   160     1   172 0.96 -
PC2J_TRINITY_DN41240_c5_g2_i3.p1PC2J_TRINITY_DN41240_c5_g2 -            222 27037at3193          -            568  2.2e-101  341.8   3.0   2   2   3.6e-08   0.00058   20.1   0.0   522   547   197   222   184   222 0.87 -
PC1A_TRINITY_DN43925_c0_g2_i1.p1PC1A_TRINITY_DN43925_c0_g2 -            112 27037at3193          -            568   2.3e-10   41.2   0.0   1   1   1.6e-14   2.5e-10   41.1   0.0   521   561    50    90    19    97 0.90 -
#
# Program:         hmmsearch
# Version:         3.2.1 (June 2018)
# Pipeline mode:   SEARCH
# Query file:      /isg/shared/databases/BUSCO/odb10/embryophyta_odb10/hmms/27037at3193.hmm
# Target file:     Pine_final_annotations_no_contam_lvl0.faa
# Option settings: /usr/local/bin/hmmsearch --domtblout /labs/Wegrzyn/Juniper_Pine/BUSCO/NEW/busco_pine/run_embryophyta_odb10/hmmer_output/27037at3193.out --cpu 1 /isg/shared/databases/BUSCO/odb10/embryophyta_odb10/hmms/27037at3193.hmm Pine_final_annotations_no_contam_lvl0.faa 
# Current dir:     /labs/Wegrzyn/Juniper_Pine/BUSCO/NEW
# Date:            Thu Aug  6 14:53:42 2020
# [ok]
