#                                                                                                                   --- full sequence --- -------------- this domain -------------   hmm coord   ali coord   env coord
# target name                                               accession   tlen query name           accession   qlen   E-value  score  bias   #  of  c-Evalue  i-Evalue  score  bias  from    to  from    to  from    to  acc description of target
#                                       ------------------- ---------- ----- -------------------- ---------- ----- --------- ------ ----- --- --- --------- --------- ------ ----- ----- ----- ----- ----- ----- ----- ---- ---------------------
PC2J_TRINITY_DN34533_c0_g3_i1.p1PC2J_TRINITY_DN34533_c0_g3  -            134 27663at3193          -            556   1.7e-37  131.1   0.0   1   1   2.8e-41     2e-37  130.9   0.0     6    96    44   134    40   134 0.98 -
PC3J_TRINITY_DN40889_c2_g1_i3.p1PC3J_TRINITY_DN40889_c2_g1  -            307 27663at3193          -            556   4.8e-29  103.2   0.0   1   1   8.8e-33   6.2e-29  102.9   0.0     7   209    76   284    72   294 0.84 -
PC2J_TRINITY_DN34524_c0_g1_i2.p1PC2J_TRINITY_DN34524_c0_g1  -            276 27663at3193          -            556     8e-24   86.0   0.0   1   1   1.4e-27   9.8e-24   85.7   0.0   432   555   147   271   131   272 0.91 -
PC3A_TRINITY_DN36522_c6_g1_i5.p1PC3A_TRINITY_DN36522_c6_g1  -            135 27663at3193          -            556     2e-14   55.0   0.0   1   1   3.4e-18   2.4e-14   54.7   0.0    42   138     9   108     4   119 0.86 -
PC3J_TRINITY_DN40889_c2_g1_i11.p1PC3J_TRINITY_DN40889_c2_g1 -            296 27663at3193          -            556   2.6e-13   51.3   0.0   1   1   4.7e-17   3.3e-13   50.9   0.0     7   129    76   201    72   222 0.84 -
PC3J_TRINITY_DN29188_c0_g1_i2.p1PC3J_TRINITY_DN29188_c0_g1  -            238 27663at3193          -            556   1.8e-12   48.5   0.0   1   1   3.5e-16   2.5e-12   48.1   0.0   432   497    60   126    44   138 0.91 -
PC3A_TRINITY_DN36522_c6_g1_i2.p1PC3A_TRINITY_DN36522_c6_g1  -            105 27663at3193          -            556   4.4e-07   30.7   0.0   1   1   6.2e-11   4.4e-07   30.7   0.0    80   117    64   101    22   105 0.80 -
PC3A_TRINITY_DN31798_c0_g1_i1.p1PC3A_TRINITY_DN31798_c0_g1  -            171 27663at3193          -            556     0.052   14.0   0.2   1   2    0.0021        15    5.9   0.1   284   335     2    68     1    91 0.62 -
PC3A_TRINITY_DN31798_c0_g1_i1.p1PC3A_TRINITY_DN31798_c0_g1  -            171 27663at3193          -            556     0.052   14.0   0.2   2   2     0.003        21    5.4   0.0   349   373   107   131    85   140 0.85 -
PC2J_TRINITY_DN35836_c1_g1_i1.p1PC2J_TRINITY_DN35836_c1_g1  -            183 27663at3193          -            556      0.56   10.6   0.0   1   1   0.00011      0.78   10.1   0.0   153   216   106   168    91   175 0.86 -
#
# Program:         hmmsearch
# Version:         3.2.1 (June 2018)
# Pipeline mode:   SEARCH
# Query file:      /isg/shared/databases/BUSCO/odb10/embryophyta_odb10/hmms/27663at3193.hmm
# Target file:     Pine_final_annotations_no_contam_lvl0.faa
# Option settings: /usr/local/bin/hmmsearch --domtblout /labs/Wegrzyn/Juniper_Pine/BUSCO/NEW/busco_pine/run_embryophyta_odb10/hmmer_output/27663at3193.out --cpu 1 /isg/shared/databases/BUSCO/odb10/embryophyta_odb10/hmms/27663at3193.hmm Pine_final_annotations_no_contam_lvl0.faa 
# Current dir:     /labs/Wegrzyn/Juniper_Pine/BUSCO/NEW
# Date:            Thu Aug  6 14:53:45 2020
# [ok]
