#                                                                                                                  --- full sequence --- -------------- this domain -------------   hmm coord   ali coord   env coord
# target name                                              accession   tlen query name           accession   qlen   E-value  score  bias   #  of  c-Evalue  i-Evalue  score  bias  from    to  from    to  from    to  acc description of target
#                                      ------------------- ---------- ----- -------------------- ---------- ----- --------- ------ ----- --- --- --------- --------- ------ ----- ----- ----- ----- ----- ----- ----- ---- ---------------------
PC3J_TRINITY_DN42327_c1_g6_i1.p1PC3J_TRINITY_DN42327_c1_g6 -            248 27810at3193          -            574     1e-26   95.0   0.0   1   2   4.6e-28   4.9e-24   86.2   0.0   142   237    26   122     9   128 0.90 -
PC3J_TRINITY_DN42327_c1_g6_i1.p1PC3J_TRINITY_DN42327_c1_g6 -            248 27810at3193          -            574     1e-26   95.0   0.0   2   2   0.00044       4.7    7.0   0.0   192   227   193   228   135   235 0.77 -
PC3J_TRINITY_DN9348_c0_g1_i1.p1PC3J_TRINITY_DN9348_c0_g1   -            106 27810at3193          -            574   1.9e-17   64.4   0.0   1   1     2e-21   2.1e-17   64.3   0.0   265   359     3   106     1   106 0.86 -
PC3A_TRINITY_DN40823_c1_g5_i4.p1PC3A_TRINITY_DN40823_c1_g5 -            115 27810at3193          -            574   0.00043   20.4   0.0   1   2      0.17   1.8e+03   -1.6   0.0   344   367    16    39    14    51 0.78 -
PC3A_TRINITY_DN40823_c1_g5_i4.p1PC3A_TRINITY_DN40823_c1_g5 -            115 27810at3193          -            574   0.00043   20.4   0.0   2   2   9.5e-08     0.001   19.1   0.0   183   224    57    97    51   111 0.86 -
PC3J_TRINITY_DN14996_c0_g1_i1.p1PC3J_TRINITY_DN14996_c0_g1 -            136 27810at3193          -            574    0.0023   17.9   0.1   1   2    0.0007       7.5    6.3   0.0   185   223    15    52     6    62 0.80 -
PC3J_TRINITY_DN14996_c0_g1_i1.p1PC3J_TRINITY_DN14996_c0_g1 -            136 27810at3193          -            574    0.0023   17.9   0.1   2   2   6.9e-05      0.73    9.7   0.0   184   226    69   111    63   114 0.93 -
PC3J_TRINITY_DN45695_c0_g3_i1.p1PC3J_TRINITY_DN45695_c0_g3 -            221 27810at3193          -            574     0.047   13.6   0.0   1   1   7.4e-06     0.079   12.9   0.0   183   223    43    82    36    93 0.87 -
PC1J_TRINITY_DN42989_c0_g1_i1.p1PC1J_TRINITY_DN42989_c0_g1 -            110 27810at3193          -            574      0.24   11.3   0.1   1   1   2.6e-05      0.28   11.1   0.1   367   402    36    73    16    79 0.76 -
#
# Program:         hmmsearch
# Version:         3.2.1 (June 2018)
# Pipeline mode:   SEARCH
# Query file:      /isg/shared/databases/BUSCO/odb10/embryophyta_odb10/hmms/27810at3193.hmm
# Target file:     Pine_final_annotations_no_contam_lvl0.faa
# Option settings: /usr/local/bin/hmmsearch --domtblout /labs/Wegrzyn/Juniper_Pine/BUSCO/NEW/busco_pine/run_embryophyta_odb10/hmmer_output/27810at3193.out --cpu 1 /isg/shared/databases/BUSCO/odb10/embryophyta_odb10/hmms/27810at3193.hmm Pine_final_annotations_no_contam_lvl0.faa 
# Current dir:     /labs/Wegrzyn/Juniper_Pine/BUSCO/NEW
# Date:            Thu Aug  6 14:54:06 2020
# [ok]
