#                                                                                                                   --- full sequence --- -------------- this domain -------------   hmm coord   ali coord   env coord
# target name                                               accession   tlen query name           accession   qlen   E-value  score  bias   #  of  c-Evalue  i-Evalue  score  bias  from    to  from    to  from    to  acc description of target
#                                       ------------------- ---------- ----- -------------------- ---------- ----- --------- ------ ----- --- --- --------- --------- ------ ----- ----- ----- ----- ----- ----- ----- ---- ---------------------
PC1A_TRINITY_DN25099_c0_g1_i2.p1PC1A_TRINITY_DN25099_c0_g1  -            162 2834at3193           -           1546   1.4e-46  160.3   0.0   1   1   1.1e-49   1.6e-46  160.1   0.0  1372  1517     4   148     1   154 0.96 -
PC3A_TRINITY_DN28177_c0_g1_i2.p1PC3A_TRINITY_DN28177_c0_g1  -            171 2834at3193           -           1546     5e-41  141.9   0.1   1   1   4.9e-44   7.3e-41  141.4   0.1   481   624     3   163     1   170 0.89 -
PC1J_TRINITY_DN42353_c0_g1_i1.p1PC1J_TRINITY_DN42353_c0_g1  -            144 2834at3193           -           1546     6e-40  138.3   0.1   1   1   5.2e-43   7.7e-40  138.0   0.1  1253  1371    15   141     8   143 0.90 -
PC2A_TRINITY_DN30594_c1_g4_i1.p1PC2A_TRINITY_DN30594_c1_g4  -            318 2834at3193           -           1546   1.6e-36  127.0   0.0   1   2   7.9e-16   1.2e-12   47.9   0.0  1253  1347     5    97     2   108 0.93 -
PC2A_TRINITY_DN30594_c1_g4_i1.p1PC2A_TRINITY_DN30594_c1_g4  -            318 2834at3193           -           1546   1.6e-36  127.0   0.0   2   2   1.2e-24   1.8e-21   77.1   0.0  1369  1507   142   274   133   283 0.91 -
PC3A_TRINITY_DN11932_c0_g1_i1.p1PC3A_TRINITY_DN11932_c0_g1  -            205 2834at3193           -           1546   6.9e-34  118.3   1.8   1   2   7.3e-16   1.1e-12   48.0   0.2  1068  1137    36   103    31   111 0.85 -
PC3A_TRINITY_DN11932_c0_g1_i1.p1PC3A_TRINITY_DN11932_c0_g1  -            205 2834at3193           -           1546   6.9e-34  118.3   1.8   2   2   1.8e-22   2.6e-19   69.9   0.1  1209  1306   121   205   114   205 0.88 -
PC3A_TRINITY_DN43529_c2_g1_i1.p1PC3A_TRINITY_DN43529_c2_g1  -            117 2834at3193           -           1546   5.9e-33  115.2   0.1   1   1   4.4e-36   6.5e-33  115.0   0.1   123   237     1   117     1   117 0.96 -
PC1A_TRINITY_DN39448_c0_g6_i1.p1PC1A_TRINITY_DN39448_c0_g6  -            515 2834at3193           -           1546   4.1e-30  105.8   0.0   1   1   3.7e-33   5.5e-30  105.3   0.0  1360  1515    12   165     9   176 0.91 -
PC2A_TRINITY_DN17639_c0_g1_i1.p1PC2A_TRINITY_DN17639_c0_g1  -            110 2834at3193           -           1546   8.8e-29  101.3   0.0   1   1   6.5e-32   9.6e-29  101.2   0.0   868   964     2   110     1   110 0.89 -
PC1J_TRINITY_DN43994_c0_g1_i1.p1PC1J_TRINITY_DN43994_c0_g1  -            138 2834at3193           -           1546   7.3e-21   75.1   0.1   1   1   7.7e-24   1.1e-20   74.4   0.1  1206  1351     7   137     2   138 0.84 -
PC2A_TRINITY_DN1843_c0_g1_i1.p1PC2A_TRINITY_DN1843_c0_g1    -            101 2834at3193           -           1546   8.6e-19   68.2   0.9   1   1   6.6e-22   9.7e-19   68.0   0.9    16    69    38   100    14   100 0.72 -
PC2J_TRINITY_DN40444_c2_g2_i7.p1PC2J_TRINITY_DN40444_c2_g2  -            192 2834at3193           -           1546   6.2e-18   65.4   0.0   1   1   5.2e-21   7.7e-18   65.1   0.0  1445  1515    14    84     9    97 0.95 -
PC2A_TRINITY_DN37577_c0_g1_i1.p1PC2A_TRINITY_DN37577_c0_g1  -            131 2834at3193           -           1546     5e-13   49.1   1.6   1   1   5.3e-16   7.8e-13   48.5   1.6  1180  1306    16   125     2   129 0.76 -
PC3J_TRINITY_DN30673_c0_g1_i1.p1PC3J_TRINITY_DN30673_c0_g1  -            118 2834at3193           -           1546   8.5e-11   41.7   0.0   1   1   6.5e-14   9.7e-11   41.5   0.0  1253  1338    12   103     2   110 0.85 -
PC3A_TRINITY_DN37953_c1_g1_i1.p1PC3A_TRINITY_DN37953_c1_g1  -            193 2834at3193           -           1546   1.6e-10   40.8   0.2   1   1   1.6e-13   2.4e-10   40.2   0.2   849   989    20   175    15   185 0.71 -
PC1J_TRINITY_DN36641_c4_g3_i5.p1PC1J_TRINITY_DN36641_c4_g3  -            122 2834at3193           -           1546   2.7e-10   40.1   0.0   1   1   2.1e-13     3e-10   39.9   0.0  1462  1515    13    66     7    81 0.91 -
PC2A_TRINITY_DN34519_c0_g4_i4.p1PC2A_TRINITY_DN34519_c0_g4  -            155 2834at3193           -           1546     6e-10   38.9   2.2   1   2   2.9e-09   4.3e-06   26.1   0.4  1002  1044    27    66    23    71 0.88 -
PC2A_TRINITY_DN34519_c0_g4_i4.p1PC2A_TRINITY_DN34519_c0_g4  -            155 2834at3193           -           1546     6e-10   38.9   2.2   2   2   2.1e-05     0.031   13.4   0.0  1070  1097    68    95    64    99 0.89 -
PC3A_TRINITY_DN36783_c4_g1_i2.p1PC3A_TRINITY_DN36783_c4_g1  -            421 2834at3193           -           1546   6.6e-10   38.8   1.4   1   3       0.4     6e+02   -0.9   0.0  1190  1249   177   234   171   239 0.73 -
PC3A_TRINITY_DN36783_c4_g1_i2.p1PC3A_TRINITY_DN36783_c4_g1  -            421 2834at3193           -           1546   6.6e-10   38.8   1.4   2   3   2.2e-07   0.00032   19.9   0.0   992  1038   234   280   226   288 0.80 -
PC3A_TRINITY_DN36783_c4_g1_i2.p1PC3A_TRINITY_DN36783_c4_g1  -            421 2834at3193           -           1546   6.6e-10   38.8   1.4   3   3   1.8e-06    0.0026   16.9   0.3  1071  1148   288   357   282   390 0.80 -
PC3J_TRINITY_DN41849_c1_g2_i4.p2PC3J_TRINITY_DN41849_c1_g2  -            125 2834at3193           -           1546   8.5e-10   38.4   0.1   1   1   6.8e-13     1e-09   38.2   0.1  1078  1137     1    58     1    65 0.87 -
PC1A_TRINITY_DN3539_c0_g1_i1.p1PC1A_TRINITY_DN3539_c0_g1    -            125 2834at3193           -           1546   1.1e-09   38.1   0.1   1   1   8.4e-13   1.2e-09   37.9   0.1   823   901    47   125    42   125 0.86 -
PC3J_TRINITY_DN39452_c3_g3_i2.p1PC3J_TRINITY_DN39452_c3_g3  -            201 2834at3193           -           1546   1.4e-09   37.7   0.1   1   1   1.2e-12   1.8e-09   37.3   0.1  1071  1230     7   192     1   196 0.66 -
PC1A_TRINITY_DN39448_c0_g2_i1.p1PC1A_TRINITY_DN39448_c0_g2  -            597 2834at3193           -           1546   1.7e-08   34.1   2.1   1   2   2.4e-08   3.5e-05   23.1   0.5  1002  1043   475   513   472   518 0.88 -
PC1A_TRINITY_DN39448_c0_g2_i1.p1PC1A_TRINITY_DN39448_c0_g2  -            597 2834at3193           -           1546   1.7e-08   34.1   2.1   2   2   0.00012      0.18   10.8   0.0  1070  1097   516   543   512   548 0.90 -
PC3A_TRINITY_DN24737_c0_g1_i1.p1PC3A_TRINITY_DN24737_c0_g1  -            191 2834at3193           -           1546     7e-08   32.1   0.0   1   1   6.1e-11   9.1e-08   31.7   0.0  1439  1492    13    63     6    74 0.91 -
PC2J_TRINITY_DN21987_c0_g1_i1.p1PC2J_TRINITY_DN21987_c0_g1  -            151 2834at3193           -           1546   1.5e-07   30.9   0.0   1   1   1.3e-10   1.9e-07   30.6   0.0  1321  1426    23   140     2   150 0.78 -
PC3A_TRINITY_DN30492_c0_g1_i1.p1PC3A_TRINITY_DN30492_c0_g1  -            234 2834at3193           -           1546   1.2e-06   27.9   0.0   1   1   1.1e-09   1.6e-06   27.6   0.0   996  1061    22    84     6    96 0.83 -
PC2J_TRINITY_DN45239_c1_g3_i1.p1PC2J_TRINITY_DN45239_c1_g3  -            130 2834at3193           -           1546   4.1e-06   26.2   0.0   1   1   3.3e-09   4.8e-06   26.0   0.0   992  1045     5    55     1    59 0.84 -
PC3J_TRINITY_DN9457_c0_g1_i2.p1PC3J_TRINITY_DN9457_c0_g1    -            138 2834at3193           -           1546   4.7e-06   26.0   2.7   1   1   4.8e-09   7.1e-06   25.4   2.7  1174  1273    13    99     1   112 0.72 -
PC3J_TRINITY_DN37860_c0_g1_i3.p1PC3J_TRINITY_DN37860_c0_g1  -            121 2834at3193           -           1546   7.7e-06   25.3   0.3   1   1   6.4e-09   9.5e-06   25.0   0.3  1457  1507    27    77    24    86 0.93 -
PC2A_TRINITY_DN31442_c5_g1_i1.p1PC2A_TRINITY_DN31442_c5_g1  -            167 2834at3193           -           1546   2.1e-05   23.8   0.0   1   1   1.6e-08   2.3e-05   23.7   0.0   827   879     2    56     1    88 0.72 -
PC1A_TRINITY_DN47164_c0_g1_i1.p1PC1A_TRINITY_DN47164_c0_g1  -            114 2834at3193           -           1546   0.00024   20.3   0.0   1   1   1.9e-07   0.00029   20.1   0.0   994  1041     4    65     1    76 0.64 -
PC1A_TRINITY_DN39448_c0_g6_i2.p1PC1A_TRINITY_DN39448_c0_g6  -            113 2834at3193           -           1546   0.00024   20.3   0.0   1   1   2.1e-07   0.00031   20.0   0.0  1360  1443    12    93     9    96 0.86 -
PC2A_TRINITY_DN35432_c0_g6_i2.p1PC2A_TRINITY_DN35432_c0_g6  -            341 2834at3193           -           1546   0.00027   20.1   0.0   1   1   2.2e-07   0.00033   19.9   0.0  1463  1509    17    64     1    73 0.80 -
PC2J_TRINITY_DN44137_c1_g3_i1.p1PC2J_TRINITY_DN44137_c1_g3  -            103 2834at3193           -           1546    0.0027   16.9   0.1   1   1   2.2e-06    0.0033   16.6   0.1  1059  1097     9    46     2    50 0.83 -
PC3J_TRINITY_DN10321_c0_g1_i1.p1PC3J_TRINITY_DN10321_c0_g1  -            100 2834at3193           -           1546     0.011   14.8   0.0   1   1   7.5e-06     0.011   14.8   0.0  1013  1050    11    48     3    71 0.81 -
PC2J_TRINITY_DN47996_c0_g1_i1.p2PC2J_TRINITY_DN47996_c0_g1  -            102 2834at3193           -           1546     0.012   14.7   0.2   1   1   8.7e-06     0.013   14.6   0.2  1207  1275    25    93     6   101 0.74 -
PC2J_TRINITY_DN30062_c0_g1_i1.p1PC2J_TRINITY_DN30062_c0_g1  -            120 2834at3193           -           1546     0.015   14.4   0.0   1   1   1.1e-05     0.016   14.3   0.0  1010  1049    58    97    47   109 0.79 -
PC2J_TRINITY_DN36827_c0_g4_i4.p2PC2J_TRINITY_DN36827_c0_g4  -            129 2834at3193           -           1546     0.018   14.2   0.0   1   1   1.5e-05     0.022   13.9   0.0  1369  1427    67   122    60   127 0.86 -
PC1J_TRINITY_DN41202_c5_g2_i3.p1PC1J_TRINITY_DN41202_c5_g2  -            222 2834at3193           -           1546     0.046   12.8   0.0   1   1   3.6e-05     0.053   12.6   0.0   800   853   163   217   146   222 0.86 -
PC1A_TRINITY_DN37575_c0_g1_i1.p1PC1A_TRINITY_DN37575_c0_g1  -            117 2834at3193           -           1546     0.084   11.9   0.0   1   1   5.7e-05     0.084   11.9   0.0  1369  1439    29    96    14   117 0.75 -
PC1A_TRINITY_DN43525_c4_g2_i2.p1PC1A_TRINITY_DN43525_c4_g2  -            333 2834at3193           -           1546     0.086   11.9   0.3   1   2   9.4e-05      0.14   11.2   0.1  1006  1048    93   132    78   146 0.78 -
PC1A_TRINITY_DN43525_c4_g2_i2.p1PC1A_TRINITY_DN43525_c4_g2  -            333 2834at3193           -           1546     0.086   11.9   0.3   2   2       2.2   3.3e+03   -3.3   0.0  1463  1481   298   316   296   317 0.79 -
PC2J_TRINITY_DN29651_c0_g1_i1.p1PC2J_TRINITY_DN29651_c0_g1  -            149 2834at3193           -           1546      0.22   10.6   0.0   1   1   0.00017      0.25   10.3   0.0  1005  1062    26    80    12    98 0.74 -
PC3J_TRINITY_DN47685_c2_g3_i1.p1PC3J_TRINITY_DN47685_c2_g3  -            113 2834at3193           -           1546      0.38    9.8   3.1   1   1   0.00029      0.43    9.6   3.1  1136  1213     7    86     2    96 0.75 -
PC2A_TRINITY_DN35014_c2_g1_i14.p1PC2A_TRINITY_DN35014_c2_g1 -            255 2834at3193           -           1546      0.64    9.0   0.0   1   1   0.00044      0.66    8.9   0.0  1007  1049   137   177    58   185 0.87 -
PC1J_TRINITY_DN35322_c1_g5_i4.p2PC1J_TRINITY_DN35322_c1_g5  -            111 2834at3193           -           1546       0.7    8.8   0.0   1   1   0.00055      0.82    8.6   0.0   990  1034    29    74    22    85 0.80 -
#
# Program:         hmmsearch
# Version:         3.2.1 (June 2018)
# Pipeline mode:   SEARCH
# Query file:      /isg/shared/databases/BUSCO/odb10/embryophyta_odb10/hmms/2834at3193.hmm
# Target file:     Pine_final_annotations_no_contam_lvl0.faa
# Option settings: /usr/local/bin/hmmsearch --domtblout /labs/Wegrzyn/Juniper_Pine/BUSCO/NEW/busco_pine/run_embryophyta_odb10/hmmer_output/2834at3193.out --cpu 1 /isg/shared/databases/BUSCO/odb10/embryophyta_odb10/hmms/2834at3193.hmm Pine_final_annotations_no_contam_lvl0.faa 
# Current dir:     /labs/Wegrzyn/Juniper_Pine/BUSCO/NEW
# Date:            Thu Aug  6 14:54:12 2020
# [ok]
