#                                                                                                                    --- full sequence --- -------------- this domain -------------   hmm coord   ali coord   env coord
# target name                                                accession   tlen query name           accession   qlen   E-value  score  bias   #  of  c-Evalue  i-Evalue  score  bias  from    to  from    to  from    to  acc description of target
#                                        ------------------- ---------- ----- -------------------- ---------- ----- --------- ------ ----- --- --- --------- --------- ------ ----- ----- ----- ----- ----- ----- ----- ---- ---------------------
PC1A_TRINITY_DN42200_c6_g3_i2.p1PC1A_TRINITY_DN42200_c6_g3   -            222 3052at3193           -            910   4.8e-98  330.7   0.3   1   1  8.6e-101   5.5e-98  330.4   0.3   619   793    42   222    20   222 0.93 -
PC1A_TRINITY_DN41274_c1_g1_i8.p1PC1A_TRINITY_DN41274_c1_g1   -            658 3052at3193           -            910     2e-75  255.8   3.9   1   3     7e-19   4.5e-16   59.4   0.1   438   600    41   198    26   202 0.87 -
PC1A_TRINITY_DN41274_c1_g1_i8.p1PC1A_TRINITY_DN41274_c1_g1   -            658 3052at3193           -            910     2e-75  255.8   3.9   2   3   9.6e-39   6.2e-36  125.1   0.2   635   820   214   391   209   423 0.93 -
PC1A_TRINITY_DN41274_c1_g1_i8.p1PC1A_TRINITY_DN41274_c1_g1   -            658 3052at3193           -            910     2e-75  255.8   3.9   3   3   2.1e-22   1.4e-19   71.0   0.0   635   753   550   658   545   658 0.93 -
PC3J_TRINITY_DN10366_c0_g1_i1.p1PC3J_TRINITY_DN10366_c0_g1   -            170 3052at3193           -            910   1.5e-67  229.7   6.8   1   2   4.1e-12   2.7e-09   37.0   3.1   223   260     2    39     1    44 0.93 -
PC3J_TRINITY_DN10366_c0_g1_i1.p1PC3J_TRINITY_DN10366_c0_g1   -            170 3052at3193           -            910   1.5e-67  229.7   6.8   2   2   9.4e-60   6.1e-57  194.6   0.1   247   362    55   170    47   170 0.95 -
PC1A_TRINITY_DN43513_c0_g5_i3.p1PC1A_TRINITY_DN43513_c0_g5   -            602 3052at3193           -            910   8.7e-58  197.4  11.3   1   1   6.5e-59   4.2e-56  191.9  11.3   351   862     7   500     4   544 0.73 -
PC1A_TRINITY_DN41274_c1_g1_i4.p1PC1A_TRINITY_DN41274_c1_g1   -            652 3052at3193           -            910   3.4e-54  185.6   1.7   1   2   6.9e-19   4.5e-16   59.4   0.1   438   600    41   198    26   202 0.87 -
PC1A_TRINITY_DN41274_c1_g1_i4.p1PC1A_TRINITY_DN41274_c1_g1   -            652 3052at3193           -            910   3.4e-54  185.6   1.7   2   2   9.4e-39   6.1e-36  125.1   0.2   635   820   214   391   209   423 0.93 -
PC1A_TRINITY_DN40688_c2_g1_i7.p1PC1A_TRINITY_DN40688_c2_g1   -           1023 3052at3193           -            910     1e-43  150.8   1.3   1   1   1.5e-45     1e-42  147.6   0.8   250   772   501   995   459  1010 0.79 -
PC2A_TRINITY_DN26467_c0_g1_i1.p1PC2A_TRINITY_DN26467_c0_g1   -            204 3052at3193           -            910   9.4e-41  141.1   0.2   1   1   1.9e-43   1.2e-40  140.7   0.2   644   820     9   174     7   193 0.93 -
PC1J_TRINITY_DN31635_c0_g1_i1.p1PC1J_TRINITY_DN31635_c0_g1   -            241 3052at3193           -            910   6.3e-36  125.1   0.1   1   1   1.1e-38   7.3e-36  124.9   0.1   635   810    67   232    23   240 0.93 -
PC2J_TRINITY_DN37102_c4_g3_i1.p1PC2J_TRINITY_DN37102_c4_g3   -            187 3052at3193           -            910   8.2e-32  111.5   1.0   1   1   8.5e-33   5.5e-30  105.4   1.0    34   146    13   164     1   174 0.79 -
PC1A_TRINITY_DN41322_c1_g4_i1.p1PC1A_TRINITY_DN41322_c1_g4   -            526 3052at3193           -            910   4.2e-31  109.1   1.9   1   2   6.5e-34   4.2e-31  109.1   1.9   633   798   187   341   180   370 0.89 -
PC1A_TRINITY_DN41322_c1_g4_i1.p1PC1A_TRINITY_DN41322_c1_g4   -            526 3052at3193           -            910   4.2e-31  109.1   1.9   2   2      0.46     3e+02    0.4   0.2   223   270   352   400   344   414 0.81 -
PC2A_TRINITY_DN8549_c0_g1_i2.p1PC2A_TRINITY_DN8549_c0_g1     -            142 3052at3193           -            910   1.8e-30  107.0   0.1   1   2   6.3e-09     4e-06   26.4   0.0   702   757     1    54     1    57 0.87 -
PC2A_TRINITY_DN8549_c0_g1_i2.p1PC2A_TRINITY_DN8549_c0_g1     -            142 3052at3193           -            910   1.8e-30  107.0   0.1   2   2   4.3e-25   2.8e-22   79.9   0.0   690   778    56   142    51   142 0.93 -
PC1A_TRINITY_DN38943_c0_g1_i1.p1PC1A_TRINITY_DN38943_c0_g1   -            228 3052at3193           -            910   2.8e-29  103.1   0.0   1   1   5.4e-32   3.5e-29  102.8   0.0   638   799    42   192    35   210 0.92 -
PC2J_TRINITY_DN11672_c0_g1_i1.p1PC2J_TRINITY_DN11672_c0_g1   -            148 3052at3193           -            910   6.7e-29  101.8   0.0   1   1   1.2e-31   7.9e-29  101.6   0.0   719   847     6   133     2   139 0.84 -
PC2J_TRINITY_DN44032_c0_g2_i1.p1PC2J_TRINITY_DN44032_c0_g2   -            270 3052at3193           -            910   3.6e-27   96.1   0.0   1   1   2.4e-27   1.5e-24   87.4   0.0   438   671    52   270    41   270 0.87 -
PC2A_TRINITY_DN8549_c0_g1_i1.p1PC2A_TRINITY_DN8549_c0_g1     -            124 3052at3193           -            910     3e-26   93.0   0.0   1   1   5.4e-29   3.5e-26   92.8   0.0   649   778     6   124     2   124 0.92 -
PC3A_TRINITY_DN42237_c3_g3_i1.p1PC3A_TRINITY_DN42237_c3_g3   -            151 3052at3193           -            910   7.1e-25   88.5   0.1   1   1   1.2e-27   7.6e-25   88.4   0.1   649   801     7   148     1   151 0.91 -
PC3A_TRINITY_DN2993_c0_g1_i1.p1PC3A_TRINITY_DN2993_c0_g1     -            152 3052at3193           -            910   8.3e-24   85.0   0.0   1   1   1.5e-26   9.3e-24   84.8   0.0   633   766     7   130     1   149 0.91 -
PC2J_TRINITY_DN37584_c0_g4_i4.p1PC2J_TRINITY_DN37584_c0_g4   -            184 3052at3193           -            910   3.6e-23   82.9   0.0   1   1   7.4e-26   4.7e-23   82.5   0.0   625   766    50   182    23   184 0.91 -
PC1A_TRINITY_DN44125_c2_g2_i2.p1PC1A_TRINITY_DN44125_c2_g2   -            274 3052at3193           -            910   5.1e-23   82.4   0.1   1   1   9.1e-26   5.8e-23   82.2   0.1   651   815   115   271    75   273 0.87 -
PC2J_TRINITY_DN40535_c1_g1_i8.p1PC2J_TRINITY_DN40535_c1_g1   -            116 3052at3193           -            910   1.7e-21   77.3   0.1   1   2   1.7e-19   1.1e-16   61.4   0.0   718   782    15    79     1    88 0.88 -
PC2J_TRINITY_DN40535_c1_g1_i8.p1PC2J_TRINITY_DN40535_c1_g1   -            116 3052at3193           -            910   1.7e-21   77.3   0.1   2   2   2.6e-05     0.017   14.5   0.0   745   771    90   116    86   116 0.91 -
PC1A_TRINITY_DN41590_c2_g1_i6.p1PC1A_TRINITY_DN41590_c2_g1   -            212 3052at3193           -            910   3.6e-21   76.2   0.3   1   1   7.2e-24   4.6e-21   75.9   0.3   318   504     5   182     2   197 0.88 -
PC1J_TRINITY_DN38469_c1_g1_i9.p1PC1J_TRINITY_DN38469_c1_g1   -            148 3052at3193           -            910   8.4e-21   75.0   0.1   1   2   5.2e-20   3.3e-17   63.1   0.1   721   805     2    86     1    97 0.90 -
PC1J_TRINITY_DN38469_c1_g1_i9.p1PC1J_TRINITY_DN38469_c1_g1   -            148 3052at3193           -            910   8.4e-21   75.0   0.1   2   2   0.00038      0.25   10.6   0.0   689   714   100   125    82   134 0.86 -
PC1A_TRINITY_DN3053_c0_g1_i1.p1PC1A_TRINITY_DN3053_c0_g1     -            151 3052at3193           -            910   1.1e-19   71.4   0.4   1   1   1.8e-22   1.1e-19   71.3   0.4   455   596     6   150     1   151 0.80 -
PC3A_TRINITY_DN7254_c0_g1_i1.p1PC3A_TRINITY_DN7254_c0_g1     -            106 3052at3193           -            910   6.2e-19   68.9   0.0   1   1     1e-21   6.7e-19   68.7   0.0   686   775    10    97     2   105 0.91 -
PC3J_TRINITY_DN47273_c0_g1_i1.p1PC3J_TRINITY_DN47273_c0_g1   -            327 3052at3193           -            910   1.5e-18   67.6   0.0   1   1   1.2e-20   7.5e-18   65.3   0.0   279   508   119   326    92   327 0.82 -
PC3J_TRINITY_DN40944_c3_g2_i1.p1PC3J_TRINITY_DN40944_c3_g2   -            164 3052at3193           -            910   1.4e-17   64.3   0.0   1   1   2.5e-20   1.6e-17   64.2   0.0   727   826     1   106     1   126 0.84 -
PC1J_TRINITY_DN38469_c1_g1_i10.p1PC1J_TRINITY_DN38469_c1_g1  -            262 3052at3193           -            910   7.4e-17   62.0   0.1   1   1   1.2e-19     8e-17   61.9   0.1   721   810     2    91     1   152 0.84 -
PC2A_TRINITY_DN34641_c1_g4_i10.p1PC2A_TRINITY_DN34641_c1_g4  -            201 3052at3193           -            910   3.5e-16   59.7   0.1   1   1     9e-19   5.8e-16   59.0   0.1   438   574    35   159    23   179 0.92 -
PC3A_TRINITY_DN33675_c0_g1_i1.p1PC3A_TRINITY_DN33675_c0_g1   -            150 3052at3193           -            910   1.7e-15   57.5   0.0   1   1   3.3e-18   2.1e-15   57.1   0.0   468   574     7   113     3   122 0.96 -
PC1J_TRINITY_DN38807_c1_g5_i2.p1PC1J_TRINITY_DN38807_c1_g5   -            180 3052at3193           -            910   5.6e-15   55.8   0.0   1   1   1.9e-17   1.2e-14   54.6   0.0   351   510    19   165    12   174 0.83 -
PC1A_TRINITY_DN41274_c1_g1_i5.p1PC1A_TRINITY_DN41274_c1_g1   -            210 3052at3193           -            910     9e-14   51.8   0.0   1   1     2e-16   1.3e-13   51.2   0.0   438   574    41   165    25   199 0.83 -
PC2J_TRINITY_DN44147_c4_g3_i1.p1PC2J_TRINITY_DN44147_c4_g3   -            116 3052at3193           -            910   2.1e-13   50.6   0.0   1   2   3.6e-10   2.3e-07   30.6   0.0   437   502     9    74     3    75 0.96 -
PC2J_TRINITY_DN44147_c4_g3_i1.p1PC2J_TRINITY_DN44147_c4_g3   -            116 3052at3193           -            910   2.1e-13   50.6   0.0   2   2   5.8e-08   3.7e-05   23.3   0.0   461   508    69   116    66   116 0.96 -
PC1A_TRINITY_DN39741_c0_g1_i3.p1PC1A_TRINITY_DN39741_c0_g1   -            179 3052at3193           -            910   2.5e-13   50.3   0.0   1   1   4.5e-16   2.9e-13   50.1   0.0   274   372    76   162    41   171 0.86 -
PC3J_TRINITY_DN47489_c2_g2_i9.p1PC3J_TRINITY_DN47489_c2_g2   -            103 3052at3193           -            910   7.8e-13   48.7   0.0   1   1   1.4e-15   8.8e-13   48.5   0.0   436   504    33   101    24   103 0.95 -
PC3J_TRINITY_DN45644_c0_g2_i1.p1PC3J_TRINITY_DN45644_c0_g2   -            107 3052at3193           -            910   1.5e-11   44.4   0.0   1   1     3e-14   1.9e-11   44.1   0.0   646   741     9    94     5    98 0.88 -
PC1J_TRINITY_DN5119_c0_g1_i2.p1PC1J_TRINITY_DN5119_c0_g1     -            161 3052at3193           -            910   4.1e-11   43.0   0.0   1   1   1.2e-12   7.9e-10   38.7   0.0   351   506    16   157    13   160 0.79 -
PC3J_TRINITY_DN50572_c0_g1_i1.p1PC3J_TRINITY_DN50572_c0_g1   -            132 3052at3193           -            910   9.5e-11   41.8   0.0   1   1   1.8e-13   1.2e-10   41.5   0.0   438   552     6   120     3   127 0.87 -
PC1J_TRINITY_DN19913_c0_g1_i1.p1PC1J_TRINITY_DN19913_c0_g1   -            148 3052at3193           -            910   1.5e-10   41.1   0.0   1   1     3e-13     2e-10   40.7   0.0   350   488    11   139     7   143 0.86 -
PC3A_TRINITY_DN41599_c0_g4_i2.p1PC3A_TRINITY_DN41599_c0_g4   -            213 3052at3193           -            910   1.9e-10   40.8   0.0   1   1   3.7e-13   2.4e-10   40.4   0.0   353   489     1   135     1   153 0.77 -
PC1A_TRINITY_DN22248_c1_g1_i3.p1PC1A_TRINITY_DN22248_c1_g1   -            305 3052at3193           -            910   3.7e-10   39.8   0.0   1   1   7.9e-13   5.1e-10   39.4   0.0   317   371   241   294   212   301 0.84 -
PC1A_TRINITY_DN3053_c0_g2_i1.p1PC1A_TRINITY_DN3053_c0_g2     -            112 3052at3193           -            910   8.1e-10   38.7   0.2   1   1   1.4e-12     9e-10   38.5   0.2   313   372    26    84    20   103 0.86 -
PC3J_TRINITY_DN47172_c0_g1_i1.p2PC3J_TRINITY_DN47172_c0_g1   -            102 3052at3193           -            910   1.3e-09   38.0   0.0   1   1   2.3e-12   1.5e-09   37.8   0.0   468   544     6    82     4    98 0.93 -
PC2J_TRINITY_DN36581_c1_g2_i4.p1PC2J_TRINITY_DN36581_c1_g2   -            142 3052at3193           -            910   1.1e-08   35.0   0.0   1   1   1.9e-11   1.2e-08   34.8   0.0   436   499    77   140    62   142 0.89 -
PC2J_TRINITY_DN40198_c0_g5_i5.p1PC2J_TRINITY_DN40198_c0_g5   -            353 3052at3193           -            910   1.1e-08   34.9   0.4   1   2       1.5   9.7e+02   -1.3   0.5   187   260    26    94     9   122 0.48 -
PC2J_TRINITY_DN40198_c0_g5_i5.p1PC2J_TRINITY_DN40198_c0_g5   -            353 3052at3193           -            910   1.1e-08   34.9   0.4   2   2   4.5e-11   2.9e-08   33.5   0.0   277   372   208   292   149   299 0.83 -
PC1A_TRINITY_DN7359_c0_g1_i3.p1PC1A_TRINITY_DN7359_c0_g1     -            406 3052at3193           -            910     3e-08   33.5   0.0   1   3      0.13        87    2.2   0.0   314   336   111   133    94   137 0.86 -
PC1A_TRINITY_DN7359_c0_g1_i3.p1PC1A_TRINITY_DN7359_c0_g1     -            406 3052at3193           -            910     3e-08   33.5   0.0   2   3      0.17   1.1e+02    1.8   0.0   350   389   205   243   197   259 0.79 -
PC1A_TRINITY_DN7359_c0_g1_i3.p1PC1A_TRINITY_DN7359_c0_g1     -            406 3052at3193           -            910     3e-08   33.5   0.0   3   3   1.3e-08   8.6e-06   25.4   0.0   438   507   331   400   320   403 0.94 -
PC3J_TRINITY_DN23582_c0_g1_i1.p1PC3J_TRINITY_DN23582_c0_g1   -            139 3052at3193           -            910   3.3e-08   33.4   0.0   1   1     6e-11   3.9e-08   33.1   0.0   751   828     8    86     5    98 0.86 -
PC1A_TRINITY_DN43420_c0_g2_i5.p1PC1A_TRINITY_DN43420_c0_g2   -            190 3052at3193           -            910   5.2e-08   32.7   0.0   1   1   1.6e-09     1e-06   28.4   0.0   529   714    13   182     7   189 0.84 -
PC2A_TRINITY_DN30003_c0_g2_i2.p1PC2A_TRINITY_DN30003_c0_g2   -            117 3052at3193           -            910   4.6e-07   29.6   0.1   1   1   7.5e-10   4.8e-07   29.5   0.1   748   813    10    76     6   107 0.87 -
PC2J_TRINITY_DN41391_c2_g1_i1.p1PC2J_TRINITY_DN41391_c2_g1   -            146 3052at3193           -            910   7.1e-07   28.9   0.0   1   1   1.6e-09   1.1e-06   28.4   0.0   438   507    71   140    54   143 0.94 -
PC1J_TRINITY_DN40872_c1_g1_i2.p1PC1J_TRINITY_DN40872_c1_g1   -            126 3052at3193           -            910     9e-07   28.6   0.0   1   2       1.5   9.9e+02   -1.3   0.0   324   336     1    13     1    24 0.80 -
PC1J_TRINITY_DN40872_c1_g1_i2.p1PC1J_TRINITY_DN40872_c1_g1   -            126 3052at3193           -            910     9e-07   28.6   0.0   2   2   3.3e-09   2.1e-06   27.4   0.0   439   474    91   126    72   126 0.93 -
PC3A_TRINITY_DN31274_c0_g1_i1.p1PC3A_TRINITY_DN31274_c0_g1   -            152 3052at3193           -            910   9.6e-07   28.5   0.0   1   1   1.7e-09   1.1e-06   28.4   0.0   281   372    44   124     8   146 0.80 -
PC2J_TRINITY_DN2071_c0_g1_i1.p1PC2J_TRINITY_DN2071_c0_g1     -            125 3052at3193           -            910   3.6e-06   26.6   0.2   1   1   6.7e-09   4.3e-06   26.4   0.2   278   373    19    99     9   119 0.75 -
PC1J_TRINITY_DN23362_c0_g1_i2.p1PC1J_TRINITY_DN23362_c0_g1   -            109 3052at3193           -            910   3.7e-06   26.6   0.0   1   1     7e-09   4.5e-06   26.3   0.0   456   508     5    57     2    73 0.87 -
PC1A_TRINITY_DN43246_c0_g11_i1.p1PC1A_TRINITY_DN43246_c0_g11 -            138 3052at3193           -            910   3.8e-06   26.6   0.0   1   1   6.5e-09   4.2e-06   26.4   0.0   704   786     3    86     1   102 0.89 -
PC1A_TRINITY_DN1435_c0_g2_i1.p1PC1A_TRINITY_DN1435_c0_g2     -            107 3052at3193           -            910   4.2e-06   26.4   0.0   1   1   8.5e-09   5.5e-06   26.0   0.0   273   342    37    96    27   100 0.87 -
PC3A_TRINITY_DN10931_c0_g1_i1.p1PC3A_TRINITY_DN10931_c0_g1   -            119 3052at3193           -            910   4.7e-06   26.2   0.0   1   1   8.2e-09   5.3e-06   26.1   0.0   439   504    37   103    30   118 0.88 -
PC1A_TRINITY_DN43355_c2_g1_i1.p1PC1A_TRINITY_DN43355_c2_g1   -            129 3052at3193           -            910   8.5e-06   25.4   0.0   1   1     2e-08   1.3e-05   24.8   0.0     1    26   104   129   104   129 0.98 -
PC3A_TRINITY_DN41833_c1_g1_i7.p1PC3A_TRINITY_DN41833_c1_g1   -            101 3052at3193           -            910   1.2e-05   24.9   0.0   1   1   2.2e-08   1.4e-05   24.6   0.0   453   511    13    71     5    82 0.89 -
PC2J_TRINITY_DN43631_c1_g1_i3.p1PC2J_TRINITY_DN43631_c1_g1   -            147 3052at3193           -            910   1.4e-05   24.7   0.0   1   1   4.5e-08   2.9e-05   23.6   0.0   655   782     5   120     1   125 0.81 -
PC2J_TRINITY_DN36936_c1_g1_i3.p1PC2J_TRINITY_DN36936_c1_g1   -            155 3052at3193           -            910   1.9e-05   24.2   0.0   1   1     3e-08   1.9e-05   24.2   0.0   309   371    57   118    11   141 0.83 -
PC3J_TRINITY_DN38564_c3_g4_i1.p1PC3J_TRINITY_DN38564_c3_g4   -            105 3052at3193           -            910   3.1e-05   23.5   0.0   1   1   5.6e-08   3.6e-05   23.3   0.0   438   488    42    94    31   101 0.87 -
PC2A_TRINITY_DN34269_c6_g4_i1.p1PC2A_TRINITY_DN34269_c6_g4   -            102 3052at3193           -            910   3.9e-05   23.2   0.0   1   1   6.6e-08   4.3e-05   23.1   0.0   438   487    45    96    23    99 0.88 -
PC2J_TRINITY_DN35079_c1_g1_i1.p1PC2J_TRINITY_DN35079_c1_g1   -            105 3052at3193           -            910   4.9e-05   22.9   0.0   1   1   8.7e-08   5.6e-05   22.7   0.0   267   337    25    85     6   105 0.79 -
PC3A_TRINITY_DN35569_c0_g1_i2.p1PC3A_TRINITY_DN35569_c0_g1   -            115 3052at3193           -            910   0.00023   20.6   0.0   1   1   4.1e-07   0.00027   20.4   0.0   720   781    22    83     6    92 0.91 -
PC1J_TRINITY_DN38896_c2_g2_i2.p1PC1J_TRINITY_DN38896_c2_g2   -            100 3052at3193           -            910   0.00025   20.5   0.1   1   1   4.5e-07   0.00029   20.3   0.1   632   676    42    86    31    96 0.90 -
PC1A_TRINITY_DN43842_c0_g8_i1.p1PC1A_TRINITY_DN43842_c0_g8   -            264 3052at3193           -            910   0.00031   20.2   1.3   1   1   5.1e-07   0.00033   20.1   1.3   118   185    22    95    13   201 0.74 -
PC2J_TRINITY_DN38972_c2_g2_i11.p1PC2J_TRINITY_DN38972_c2_g2  -            104 3052at3193           -            910   0.00041   19.8   0.1   1   1   7.6e-07   0.00049   19.6   0.1   632   675    41    84    30    91 0.91 -
PC3J_TRINITY_DN30157_c0_g1_i1.p1PC3J_TRINITY_DN30157_c0_g1   -            169 3052at3193           -            910   0.00076   18.9   0.0   1   1   1.5e-06   0.00094   18.6   0.0   439   510    44   115    38   138 0.90 -
PC3A_TRINITY_DN44012_c2_g7_i1.p1PC3A_TRINITY_DN44012_c2_g7   -            173 3052at3193           -            910     0.001   18.5   1.5   1   1   1.7e-06    0.0011   18.4   1.5   163   225    88   150    16   154 0.81 -
PC2A_TRINITY_DN34455_c0_g4_i1.p1PC2A_TRINITY_DN34455_c0_g4   -            206 3052at3193           -            910    0.0015   17.9   1.2   1   1   3.3e-06    0.0021   17.5   1.2   174   227    77   130    69   142 0.90 -
PC1A_TRINITY_DN42523_c0_g5_i2.p1PC1A_TRINITY_DN42523_c0_g5   -            255 3052at3193           -            910    0.0016   17.8   1.2   1   1     3e-06    0.0019   17.6   1.2   172   227   125   180    44   191 0.82 -
PC2J_TRINITY_DN42928_c1_g1_i1.p1PC2J_TRINITY_DN42928_c1_g1   -            124 3052at3193           -            910    0.0027   17.1   1.0   1   2       0.3   1.9e+02    1.0   0.0   357   372     2    17     1    47 0.87 -
PC2J_TRINITY_DN42928_c1_g1_i1.p1PC2J_TRINITY_DN42928_c1_g1   -            124 3052at3193           -            910    0.0027   17.1   1.0   2   2   1.6e-05      0.01   15.2   0.2   313   337    78   103    49   113 0.80 -
PC2J_TRINITY_DN44370_c0_g1_i15.p1PC2J_TRINITY_DN44370_c0_g1  -            102 3052at3193           -            910    0.0039   16.6   0.0   1   1   7.8e-06    0.0051   16.2   0.0   260   336    25    92     3    98 0.72 -
PC2J_TRINITY_DN39724_c1_g2_i10.p1PC2J_TRINITY_DN39724_c1_g2  -            101 3052at3193           -            910    0.0089   15.4   0.0   1   1   1.4e-05    0.0093   15.3   0.0   692   729    65   101    37   101 0.81 -
PC1A_TRINITY_DN43832_c5_g1_i5.p1PC1A_TRINITY_DN43832_c5_g1   -            295 3052at3193           -            910     0.013   14.8   0.1   1   1   2.8e-05     0.018   14.4   0.1   309   336   236   263   117   269 0.64 -
PC1J_TRINITY_DN34271_c1_g1_i4.p1PC1J_TRINITY_DN34271_c1_g1   -            221 3052at3193           -            910     0.021   14.2   1.2   1   2       1.9   1.2e+03   -1.6   0.2    96   126    66    96    50   120 0.71 -
PC1J_TRINITY_DN34271_c1_g1_i4.p1PC1J_TRINITY_DN34271_c1_g1   -            221 3052at3193           -            910     0.021   14.2   1.2   2   2   4.2e-05     0.027   13.8   0.0   313   337   181   206   146   213 0.81 -
PC2J_TRINITY_DN45800_c0_g6_i2.p1PC2J_TRINITY_DN45800_c0_g6   -            107 3052at3193           -            910     0.049   12.9   0.0   1   1   9.8e-05     0.063   12.6   0.0   316   339    72    95    56   104 0.81 -
PC3J_TRINITY_DN43826_c1_g4_i4.p1PC3J_TRINITY_DN43826_c1_g4   -            219 3052at3193           -            910      0.05   12.9   0.0   1   1   8.4e-05     0.054   12.8   0.0   316   378   109   177    72   207 0.78 -
PC3J_TRINITY_DN49679_c0_g1_i1.p1PC3J_TRINITY_DN49679_c0_g1   -            101 3052at3193           -            910      0.08   12.2   0.1   1   1   0.00014     0.093   12.0   0.1   546   599    29    92     7    98 0.67 -
PC2J_TRINITY_DN39294_c1_g2_i6.p1PC2J_TRINITY_DN39294_c1_g2   -            385 3052at3193           -            910       0.1   11.9   0.0   1   2       0.1        64    2.6   0.0   314   347     6    39     2    47 0.88 -
PC2J_TRINITY_DN39294_c1_g2_i6.p1PC2J_TRINITY_DN39294_c1_g2   -            385 3052at3193           -            910       0.1   11.9   0.0   2   2    0.0047         3    7.0   0.0   635   751   213   322   207   334 0.78 -
PC1J_TRINITY_DN28145_c0_g1_i3.p1PC1J_TRINITY_DN28145_c0_g1   -            133 3052at3193           -            910      0.16   11.2   0.0   1   1   0.00025      0.16   11.2   0.0   651   710    49    99    11   124 0.84 -
PC2J_TRINITY_DN42828_c4_g3_i3.p1PC2J_TRINITY_DN42828_c4_g3   -            265 3052at3193           -            910      0.21   10.8   0.0   1   1   0.00044      0.29   10.4   0.0   318   381   172   230   152   238 0.82 -
PC3J_TRINITY_DN48147_c4_g3_i1.p1PC3J_TRINITY_DN48147_c4_g3   -            151 3052at3193           -            910      0.24   10.7   4.9   1   1   0.00045      0.29   10.4   4.9   170   228    21    80    17    99 0.75 -
PC3J_TRINITY_DN32890_c0_g2_i1.p1PC3J_TRINITY_DN32890_c0_g2   -            231 3052at3193           -            910      0.28   10.4   0.8   1   1   0.00049      0.31   10.3   0.8   172   218   117   163    82   210 0.77 -
PC3A_TRINITY_DN44135_c2_g2_i1.p1PC3A_TRINITY_DN44135_c2_g2   -            136 3052at3193           -            910      0.45    9.7   2.7   1   1   0.00071      0.46    9.7   2.7   150   218    33    99     2   114 0.71 -
PC1J_TRINITY_DN40106_c2_g1_i3.p1PC1J_TRINITY_DN40106_c2_g1   -            258 3052at3193           -            910      0.51    9.6   0.0   1   1   0.00097      0.63    9.3   0.0   643   704     5    57     1    71 0.82 -
PC2A_TRINITY_DN28794_c0_g1_i8.p1PC2A_TRINITY_DN28794_c0_g1   -            163 3052at3193           -            910      0.55    9.5   2.6   1   1     0.001      0.67    9.2   2.6   124   192    21    94     5   109 0.74 -
PC2J_TRINITY_DN46006_c6_g1_i6.p1PC2J_TRINITY_DN46006_c6_g1   -            120 3052at3193           -            910      0.56    9.4   5.5   1   1    0.0011      0.68    9.2   5.5   147   207    38    99    32   107 0.82 -
PC1J_TRINITY_DN39044_c2_g3_i1.p1PC1J_TRINITY_DN39044_c2_g3   -            144 3052at3193           -            910       0.7    9.1   0.1   1   1    0.0013      0.85    8.8   0.1   314   356    95   136    73   140 0.89 -
PC2J_TRINITY_DN41753_c1_g4_i2.p1PC2J_TRINITY_DN41753_c1_g4   -            498 3052at3193           -            910       0.7    9.1   1.7   1   1    0.0016         1    8.6   1.7   162   212    34    83    20    94 0.87 -
PC3J_TRINITY_DN48321_c1_g2_i2.p2PC3J_TRINITY_DN48321_c1_g2   -            109 3052at3193           -            910      0.73    9.1   2.7   1   1    0.0012      0.79    8.9   2.7   175   225    57   105    40   109 0.77 -
PC2J_TRINITY_DN39428_c3_g1_i2.p1PC2J_TRINITY_DN39428_c3_g1   -            121 3052at3193           -            910       0.8    8.9   2.4   1   1    0.0011      0.71    9.1   2.4   169   219    59   106    15   119 0.75 -
PC3J_TRINITY_DN48204_c1_g4_i1.p1PC3J_TRINITY_DN48204_c1_g4   -            111 3052at3193           -            910         1    8.5   0.0   1   1    0.0018       1.1    8.4   0.0   316   338    48    70    25    78 0.78 -
PC2J_TRINITY_DN39097_c4_g2_i2.p1PC2J_TRINITY_DN39097_c4_g2   -            221 3052at3193           -            910       1.4    8.1   3.0   1   1    0.0023       1.5    8.0   3.0   150   218    99   165    36   176 0.75 -
PC1J_TRINITY_DN34958_c1_g2_i1.p1PC1J_TRINITY_DN34958_c1_g2   -            120 3052at3193           -            910       1.9    7.7   4.8   1   1    0.0031         2    7.6   4.8   155   210    39   102    23   115 0.67 -
PC1J_TRINITY_DN38939_c0_g6_i1.p1PC1J_TRINITY_DN38939_c0_g6   -            170 3052at3193           -            910       2.8    7.1   5.9   1   1    0.0052       3.3    6.9   5.9   154   229    78   153    72   165 0.81 -
PC1A_TRINITY_DN35471_c0_g1_i1.p1PC1A_TRINITY_DN35471_c0_g1   -            176 3052at3193           -            910       3.9    6.6   8.2   1   1    0.0071       4.6    6.4   8.2   127   217    80   169    53   175 0.51 -
PC3A_TRINITY_DN46115_c0_g1_i1.p1PC3A_TRINITY_DN46115_c0_g1   -            106 3052at3193           -            910         5    6.3   3.7   1   1    0.0082       5.3    6.2   3.7   183   218    61    96    35   102 0.88 -
PC3J_TRINITY_DN36826_c0_g1_i9.p1PC3J_TRINITY_DN36826_c0_g1   -            214 3052at3193           -            910         9    5.4   5.3   1   1     0.018        12    5.1   5.3   171   218    56   103    17   114 0.73 -
#
# Program:         hmmsearch
# Version:         3.2.1 (June 2018)
# Pipeline mode:   SEARCH
# Query file:      /isg/shared/databases/BUSCO/odb10/embryophyta_odb10/hmms/3052at3193.hmm
# Target file:     Pine_final_annotations_no_contam_lvl0.faa
# Option settings: /usr/local/bin/hmmsearch --domtblout /labs/Wegrzyn/Juniper_Pine/BUSCO/NEW/busco_pine/run_embryophyta_odb10/hmmer_output/3052at3193.out --cpu 1 /isg/shared/databases/BUSCO/odb10/embryophyta_odb10/hmms/3052at3193.hmm Pine_final_annotations_no_contam_lvl0.faa 
# Current dir:     /labs/Wegrzyn/Juniper_Pine/BUSCO/NEW
# Date:            Thu Aug  6 14:55:28 2020
# [ok]
