#                                                                                                                   --- full sequence --- -------------- this domain -------------   hmm coord   ali coord   env coord
# target name                                               accession   tlen query name           accession   qlen   E-value  score  bias   #  of  c-Evalue  i-Evalue  score  bias  from    to  from    to  from    to  acc description of target
#                                       ------------------- ---------- ----- -------------------- ---------- ----- --------- ------ ----- --- --- --------- --------- ------ ----- ----- ----- ----- ----- ----- ----- ---- ---------------------
PC1J_TRINITY_DN35945_c1_g1_i1.p1PC1J_TRINITY_DN35945_c1_g1  -            398 30808at3193          -            464   9.9e-68  230.6   6.2   1   3    0.0021       7.9    6.7   0.0     2    27    61    86    60   104 0.87 -
PC1J_TRINITY_DN35945_c1_g1_i1.p1PC1J_TRINITY_DN35945_c1_g1  -            398 30808at3193          -            464   9.9e-68  230.6   6.2   2   3   2.2e-41   8.2e-38  131.9   0.5    34   146   137   249   119   257 0.93 -
PC1J_TRINITY_DN35945_c1_g1_i1.p1PC1J_TRINITY_DN35945_c1_g1  -            398 30808at3193          -            464   9.9e-68  230.6   6.2   3   3   7.1e-30   2.7e-26   94.0   0.5   134   242   256   366   252   391 0.89 -
PC2J_TRINITY_DN42139_c0_g2_i18.p1PC2J_TRINITY_DN42139_c0_g2 -            133 30808at3193          -            464   5.2e-55  188.6  24.7   1   1   1.6e-58     6e-55  188.4  24.7   352   463    14   125     9   126 0.97 -
PC1J_TRINITY_DN35945_c1_g1_i3.p1PC1J_TRINITY_DN35945_c1_g1  -            216 30808at3193          -            464   2.5e-47  163.3   6.9   1   2   1.2e-21   4.4e-18   66.9   1.0    49   146    10    91     4    99 0.94 -
PC1J_TRINITY_DN35945_c1_g1_i3.p1PC1J_TRINITY_DN35945_c1_g1  -            216 30808at3193          -            464   2.5e-47  163.3   6.9   2   2   3.7e-30   1.4e-26   94.9   0.7   134   241    98   207    94   211 0.92 -
PC3A_TRINITY_DN40228_c1_g3_i3.p1PC3A_TRINITY_DN40228_c1_g3  -            190 30808at3193          -            464   5.4e-41  142.4   2.0   1   2   4.1e-41   1.5e-37  131.0   0.5    24   146    31   154    22   161 0.90 -
PC3A_TRINITY_DN40228_c1_g3_i3.p1PC3A_TRINITY_DN40228_c1_g3  -            190 30808at3193          -            464   5.4e-41  142.4   2.0   2   2   8.7e-05      0.33   11.3   0.0   134   163   161   190   157   190 0.91 -
PC1A_TRINITY_DN35223_c0_g2_i3.p1PC1A_TRINITY_DN35223_c0_g2  -            132 30808at3193          -            464   6.2e-20   73.0   0.7   1   2   8.2e-22   3.1e-18   67.4   0.0    23   100    30   108    22   110 0.86 -
PC1A_TRINITY_DN35223_c0_g2_i3.p1PC1A_TRINITY_DN35223_c0_g2  -            132 30808at3193          -            464   6.2e-20   73.0   0.7   2   2    0.0036        13    5.9   0.3   123   145   108   130   105   132 0.91 -
PC1J_TRINITY_DN37674_c0_g3_i2.p1PC1J_TRINITY_DN37674_c0_g3  -            102 30808at3193          -            464   1.1e-16   62.3  21.0   1   2   3.1e-11   1.1e-07   32.5   9.8   343   392     3    52     1    54 0.96 -
PC1J_TRINITY_DN37674_c0_g3_i2.p1PC1J_TRINITY_DN37674_c0_g3  -            102 30808at3193          -            464   1.1e-16   62.3  21.0   2   2   1.5e-13   5.5e-10   40.2   7.2   339   391    45    97    44    99 0.97 -
PC3A_TRINITY_DN40055_c0_g4_i1.p1PC3A_TRINITY_DN40055_c0_g4  -            358 30808at3193          -            464   4.8e-16   60.2   0.0   1   1   1.7e-19   6.5e-16   59.7   0.0    20   200   161   355   147   358 0.85 -
PC1J_TRINITY_DN40938_c6_g1_i6.p1PC1J_TRINITY_DN40938_c6_g1  -            465 30808at3193          -            464   8.3e-16   59.4   0.0   1   1   4.5e-19   1.7e-15   58.4   0.0    16   235   171   404   159   437 0.84 -
PC3A_TRINITY_DN43984_c2_g2_i6.p1PC3A_TRINITY_DN43984_c2_g2  -            167 30808at3193          -            464   1.7e-12   48.5   0.0   1   1   4.9e-16   1.9e-12   48.3   0.0    36   155     6   136     1   150 0.82 -
PC2J_TRINITY_DN25338_c0_g1_i1.p1PC2J_TRINITY_DN25338_c0_g1  -            164 30808at3193          -            464   2.2e-10   41.5   0.0   1   1   7.7e-14   2.9e-10   41.1   0.0    23   108    71   156    53   161 0.80 -
PC2J_TRINITY_DN25338_c0_g1_i2.p1PC2J_TRINITY_DN25338_c0_g1  -            280 30808at3193          -            464   8.9e-10   39.5   0.0   1   1   3.7e-13   1.4e-09   38.9   0.0    31   108   193   272   182   277 0.80 -
PC3J_TRINITY_DN46219_c1_g3_i12.p1PC3J_TRINITY_DN46219_c1_g3 -            100 30808at3193          -            464   3.8e-08   34.1   0.0   1   1   1.1e-11   4.2e-08   34.0   0.0    16    96    10    90     3    97 0.89 -
PC1J_TRINITY_DN40938_c6_g1_i7.p2PC1J_TRINITY_DN40938_c6_g1  -            143 30808at3193          -            464   1.1e-05   26.0   0.0   1   1   3.6e-09   1.3e-05   25.7   0.0    16    81    59   124    46   130 0.89 -
PC2J_TRINITY_DN39994_c1_g1_i6.p1PC2J_TRINITY_DN39994_c1_g1  -            343 30808at3193          -            464    0.0063   16.9   3.1   1   1   2.8e-06     0.011   16.2   3.1   358   395     1    38     1    45 0.69 -
PC2J_TRINITY_DN45497_c1_g2_i8.p1PC2J_TRINITY_DN45497_c1_g2  -            215 30808at3193          -            464     0.017   15.5   0.1   1   1   5.9e-06     0.022   15.1   0.1   349   393    87   132    69   140 0.57 -
PC1A_TRINITY_DN39393_c8_g2_i4.p1PC1A_TRINITY_DN39393_c8_g2  -            222 30808at3193          -            464     0.017   15.5   0.1   1   1   6.2e-06     0.023   15.0   0.1   349   393   120   165   102   173 0.57 -
PC1A_TRINITY_DN39393_c8_g2_i2.p1PC1A_TRINITY_DN39393_c8_g2  -            295 30808at3193          -            464     0.028   14.8   0.1   1   1     1e-05     0.039   14.3   0.1   349   393   190   235   173   243 0.58 -
#
# Program:         hmmsearch
# Version:         3.2.1 (June 2018)
# Pipeline mode:   SEARCH
# Query file:      /isg/shared/databases/BUSCO/odb10/embryophyta_odb10/hmms/30808at3193.hmm
# Target file:     Pine_final_annotations_no_contam_lvl0.faa
# Option settings: /usr/local/bin/hmmsearch --domtblout /labs/Wegrzyn/Juniper_Pine/BUSCO/NEW/busco_pine/run_embryophyta_odb10/hmmer_output/30808at3193.out --cpu 1 /isg/shared/databases/BUSCO/odb10/embryophyta_odb10/hmms/30808at3193.hmm Pine_final_annotations_no_contam_lvl0.faa 
# Current dir:     /labs/Wegrzyn/Juniper_Pine/BUSCO/NEW
# Date:            Thu Aug  6 14:55:29 2020
# [ok]
