#                                                                                                                   --- full sequence --- -------------- this domain -------------   hmm coord   ali coord   env coord
# target name                                               accession   tlen query name           accession   qlen   E-value  score  bias   #  of  c-Evalue  i-Evalue  score  bias  from    to  from    to  from    to  acc description of target
#                                       ------------------- ---------- ----- -------------------- ---------- ----- --------- ------ ----- --- --- --------- --------- ------ ----- ----- ----- ----- ----- ----- ----- ---- ---------------------
PC2J_TRINITY_DN39659_c3_g1_i3.p1PC2J_TRINITY_DN39659_c3_g1  -            492 31517at3193          -            554    3e-170  569.3  17.3   1   3   2.3e-91   7.5e-89  300.6   3.9   182   337     1   156     1   173 0.98 -
PC2J_TRINITY_DN39659_c3_g1_i3.p1PC2J_TRINITY_DN39659_c3_g1  -            492 31517at3193          -            554    3e-170  569.3  17.3   2   3   1.5e-26   5.1e-24   86.6   0.1   341   409   191   259   171   262 0.93 -
PC2J_TRINITY_DN39659_c3_g1_i3.p1PC2J_TRINITY_DN39659_c3_g1  -            492 31517at3193          -            554    3e-170  569.3  17.3   3   3   1.4e-56   4.7e-54  185.8   1.8   409   547   303   464   296   474 0.85 -
PC1J_TRINITY_DN40310_c0_g2_i3.p1PC1J_TRINITY_DN40310_c0_g2  -            155 31517at3193          -            554   2.2e-68  233.1   1.8   1   1   7.4e-71   2.5e-68  232.9   1.8   213   338     1   129     1   147 0.95 -
PC2J_TRINITY_DN43315_c1_g3_i1.p1PC2J_TRINITY_DN43315_c1_g3  -            206 31517at3193          -            554   2.2e-63  216.5   2.2   1   1   8.4e-66   2.8e-63  216.2   2.2     2   126    82   206    81   206 0.98 -
PC1J_TRINITY_DN31442_c0_g1_i1.p1PC1J_TRINITY_DN31442_c0_g1  -            179 31517at3193          -            554     3e-58  199.6   2.3   1   1   1.1e-60   3.5e-58  199.4   2.3    34   196     1   164     1   173 0.98 -
PC3J_TRINITY_DN26913_c0_g1_i1.p1PC3J_TRINITY_DN26913_c0_g1  -            150 31517at3193          -            554   1.2e-47  164.6   0.7   1   1   4.2e-50   1.4e-47  164.4   0.7    21   154     1   134     1   141 0.97 -
PC2J_TRINITY_DN45559_c0_g3_i1.p1PC2J_TRINITY_DN45559_c0_g3  -            172 31517at3193          -            554   1.4e-44  154.5   1.6   1   2   1.1e-08   3.7e-06   27.7   0.1   299   344     1    43     1    66 0.79 -
PC2J_TRINITY_DN45559_c0_g3_i1.p1PC2J_TRINITY_DN45559_c0_g3  -            172 31517at3193          -            554   1.4e-44  154.5   1.6   2   2     1e-38   3.5e-36  126.8   0.2   339   432    78   172    50   172 0.88 -
PC1A_TRINITY_DN42536_c0_g5_i1.p1PC1A_TRINITY_DN42536_c0_g5  -            103 31517at3193          -            554   2.7e-40  140.4   7.4   1   2   9.1e-32     3e-29  103.9   0.5   444   513     2    71     1    72 0.98 -
PC1A_TRINITY_DN42536_c0_g5_i1.p1PC1A_TRINITY_DN42536_c0_g5  -            103 31517at3193          -            554   2.7e-40  140.4   7.4   2   2   9.2e-13   3.1e-10   41.1   1.6    87   118    72   103    71   103 0.97 -
PC3J_TRINITY_DN44875_c0_g1_i4.p1PC3J_TRINITY_DN44875_c0_g1  -            291 31517at3193          -            554     6e-40  139.2   0.1   1   1   2.1e-40     7e-38  132.4   0.1   234   495     2   291     1   291 0.73 -
PC1A_TRINITY_DN35448_c0_g1_i2.p1PC1A_TRINITY_DN35448_c0_g1  -            114 31517at3193          -            554   8.6e-31  109.0   3.4   1   2   7.3e-25   2.4e-22   81.1   1.2    30   106     2    78     1    79 0.98 -
PC1A_TRINITY_DN35448_c0_g1_i2.p1PC1A_TRINITY_DN35448_c0_g1  -            114 31517at3193          -            554   8.6e-31  109.0   3.4   2   2   3.9e-09   1.3e-06   29.2   0.1    37    71    79   113    78   114 0.96 -
PC1A_TRINITY_DN44627_c0_g1_i3.p1PC1A_TRINITY_DN44627_c0_g1  -           1543 31517at3193          -            554   1.2e-30  108.4   1.1   1   2   4.6e-14   1.5e-11   45.4   0.0   345   534   638   822   579   837 0.80 -
PC1A_TRINITY_DN44627_c0_g1_i3.p1PC1A_TRINITY_DN44627_c0_g1  -           1543 31517at3193          -            554   1.2e-30  108.4   1.1   2   2   8.7e-19   2.9e-16   61.0   0.0   345   534  1294  1489  1281  1504 0.87 -
PC3J_TRINITY_DN48023_c0_g1_i1.p1PC3J_TRINITY_DN48023_c0_g1  -            108 31517at3193          -            554   6.7e-30  106.0   0.1   1   1   2.1e-32   7.1e-30  105.9   0.1   443   514    24    95     4   103 0.91 -
PC2A_TRINITY_DN35689_c0_g1_i1.p1PC2A_TRINITY_DN35689_c0_g1  -            716 31517at3193          -            554   1.2e-27   98.6   0.9   1   3   7.6e-06    0.0025   18.3   0.1   345   469   121   247   109   261 0.75 -
PC2A_TRINITY_DN35689_c0_g1_i1.p1PC2A_TRINITY_DN35689_c0_g1  -            716 31517at3193          -            554   1.2e-27   98.6   0.9   2   3   4.2e-06    0.0014   19.1   0.0   455   535   259   340   240   354 0.75 -
PC2A_TRINITY_DN35689_c0_g1_i1.p1PC2A_TRINITY_DN35689_c0_g1  -            716 31517at3193          -            554   1.2e-27   98.6   0.9   3   3   1.7e-16   5.5e-14   53.5   0.1   337   547   440   638   437   644 0.76 -
PC2J_TRINITY_DN38772_c0_g2_i5.p1PC2J_TRINITY_DN38772_c0_g2  -            140 31517at3193          -            554     1e-25   92.2   0.0   1   1   5.6e-27   1.9e-24   88.1   0.0   408   553     3   134     1   135 0.92 -
PC3J_TRINITY_DN39410_c4_g2_i3.p1PC3J_TRINITY_DN39410_c4_g2  -            123 31517at3193          -            554   1.1e-22   82.3   0.0   1   1   3.5e-25   1.2e-22   82.1   0.0   352   446    12   109     6   122 0.86 -
PC1J_TRINITY_DN39490_c1_g1_i1.p1PC1J_TRINITY_DN39490_c1_g1  -            324 31517at3193          -            554   1.1e-20   75.6   0.2   1   1   4.1e-23   1.4e-20   75.3   0.2    48   246   123   323   100   324 0.82 -
PC1J_TRINITY_DN38405_c0_g1_i13.p1PC1J_TRINITY_DN38405_c0_g1 -            757 31517at3193          -            554   2.8e-20   74.3   0.3   1   3    0.0021      0.69   10.3   0.0   468   521    21    74     3   104 0.77 -
PC1J_TRINITY_DN38405_c0_g1_i13.p1PC1J_TRINITY_DN38405_c0_g1 -            757 31517at3193          -            554   2.8e-20   74.3   0.3   2   3      0.76   2.5e+02    1.8   0.7   139   182   320   364   295   374 0.87 -
PC1J_TRINITY_DN38405_c0_g1_i13.p1PC1J_TRINITY_DN38405_c0_g1 -            757 31517at3193          -            554   2.8e-20   74.3   0.3   3   3   7.6e-18   2.5e-15   57.9   0.0   346   535   532   727   490   743 0.85 -
PC3A_TRINITY_DN42974_c2_g6_i6.p1PC3A_TRINITY_DN42974_c2_g6  -            385 31517at3193          -            554   2.5e-19   71.1   2.4   1   2   1.5e-21     5e-19   70.1   0.4    62   255    33   228     7   256 0.81 -
PC3A_TRINITY_DN42974_c2_g6_i6.p1PC3A_TRINITY_DN42974_c2_g6  -            385 31517at3193          -            554   2.5e-19   71.1   2.4   2   2       2.5   8.4e+02    0.1   0.0   339   376   347   383   327   385 0.86 -
PC2J_TRINITY_DN46120_c0_g1_i4.p1PC2J_TRINITY_DN46120_c0_g1  -            508 31517at3193          -            554   2.6e-19   71.1   0.0   1   2   1.6e-08   5.4e-06   27.1   0.0   362   535     5   209     2   223 0.67 -
PC2J_TRINITY_DN46120_c0_g1_i4.p1PC2J_TRINITY_DN46120_c0_g1  -            508 31517at3193          -            554   2.6e-19   71.1   0.0   2   2   1.7e-10   5.8e-08   33.6   0.0   337   407   309   377   306   389 0.91 -
PC1A_TRINITY_DN43396_c2_g1_i2.p1PC1A_TRINITY_DN43396_c2_g1  -            241 31517at3193          -            554   2.1e-18   68.1   0.0   1   1   7.5e-21   2.5e-18   67.8   0.0   350   535     3   194     1   209 0.87 -
PC3A_TRINITY_DN42409_c0_g1_i5.p1PC3A_TRINITY_DN42409_c0_g1  -            729 31517at3193          -            554   1.3e-17   65.4   0.1   1   4   0.00074      0.25   11.7   0.0   340   393   177   233   157   245 0.79 -
PC3A_TRINITY_DN42409_c0_g1_i5.p1PC3A_TRINITY_DN42409_c0_g1  -            729 31517at3193          -            554   1.3e-17   65.4   0.1   2   4   7.1e-06    0.0024   18.4   0.0   476   535   352   411   332   427 0.87 -
PC3A_TRINITY_DN42409_c0_g1_i5.p1PC3A_TRINITY_DN42409_c0_g1  -            729 31517at3193          -            554   1.3e-17   65.4   0.1   3   4   0.00019     0.064   13.7   0.0   360   405   532   577   510   606 0.87 -
PC3A_TRINITY_DN42409_c0_g1_i5.p1PC3A_TRINITY_DN42409_c0_g1  -            729 31517at3193          -            554   1.3e-17   65.4   0.1   4   4     3e-05      0.01   16.3   0.0   477   518   636   677   610   696 0.83 -
PC1A_TRINITY_DN42303_c6_g1_i8.p1PC1A_TRINITY_DN42303_c6_g1  -            176 31517at3193          -            554   1.3e-14   55.6   1.7   1   2   0.00066      0.22   11.9   0.1   471   506     9    44     2    49 0.86 -
PC1A_TRINITY_DN42303_c6_g1_i8.p1PC1A_TRINITY_DN42303_c6_g1  -            176 31517at3193          -            554   1.3e-14   55.6   1.7   2   2   1.9e-13   6.4e-11   43.4   0.2   440   535    50   149    46   166 0.86 -
PC1J_TRINITY_DN40226_c1_g2_i16.p1PC1J_TRINITY_DN40226_c1_g2 -            738 31517at3193          -            554   1.5e-14   55.3   0.2   1   1   7.4e-17   2.5e-14   54.6   0.2   313   519   531   732   519   736 0.80 -
PC1J_TRINITY_DN37910_c0_g4_i5.p1PC1J_TRINITY_DN37910_c0_g4  -            365 31517at3193          -            554   3.1e-14   54.3   0.0   1   1   1.4e-16   4.6e-14   53.7   0.0   344   539   129   330   117   343 0.86 -
PC3A_TRINITY_DN42123_c2_g2_i1.p1PC3A_TRINITY_DN42123_c2_g2  -            307 31517at3193          -            554   7.5e-14   53.1   0.0   1   2   6.8e-08   2.3e-05   25.1   0.0   471   548    18    97     4   103 0.82 -
PC3A_TRINITY_DN42123_c2_g2_i1.p1PC3A_TRINITY_DN42123_c2_g2  -            307 31517at3193          -            554   7.5e-14   53.1   0.0   2   2   3.8e-08   1.3e-05   25.9   0.0   469   548   181   262   140   268 0.82 -
PC3J_TRINITY_DN36308_c0_g2_i1.p1PC3J_TRINITY_DN36308_c0_g2  -            192 31517at3193          -            554     6e-13   50.1   0.0   1   1   2.2e-15   7.4e-13   49.8   0.0   374   537     5   176     1   188 0.72 -
PC1A_TRINITY_DN44546_c1_g2_i1.p1PC1A_TRINITY_DN44546_c1_g2  -            155 31517at3193          -            554   1.3e-12   49.0   0.0   1   1   4.2e-15   1.4e-12   48.9   0.0   444   543     9   112     1   120 0.81 -
PC3A_TRINITY_DN41106_c0_g2_i2.p1PC3A_TRINITY_DN41106_c0_g2  -            471 31517at3193          -            554   1.6e-12   48.6   0.0   1   1   7.1e-15   2.4e-12   48.1   0.0   344   537   217   416   114   429 0.82 -
PC3A_TRINITY_DN30850_c0_g1_i2.p1PC3A_TRINITY_DN30850_c0_g1  -            186 31517at3193          -            554   1.8e-12   48.5   0.1   1   1   1.9e-14   6.5e-12   46.7   0.1   356   514     9   164     3   183 0.80 -
PC3J_TRINITY_DN12909_c0_g2_i1.p1PC3J_TRINITY_DN12909_c0_g2  -            112 31517at3193          -            554   1.2e-11   45.8   0.1   1   1   4.1e-14   1.4e-11   45.6   0.1   475   545    21    93    11    99 0.86 -
PC3J_TRINITY_DN49203_c1_g7_i1.p1PC3J_TRINITY_DN49203_c1_g7  -            127 31517at3193          -            554   1.5e-11   45.4   0.1   1   1   7.2e-14   2.4e-11   44.8   0.0   475   545    17    89     8    96 0.84 -
PC2J_TRINITY_DN35676_c2_g4_i1.p1PC2J_TRINITY_DN35676_c2_g4  -            229 31517at3193          -            554   2.7e-11   44.6   0.0   1   1   1.1e-13   3.6e-11   44.2   0.0   466   543    12    92     4   100 0.82 -
PC3A_TRINITY_DN43166_c1_g1_i1.p1PC3A_TRINITY_DN43166_c1_g1  -            478 31517at3193          -            554   3.1e-11   44.4   0.1   1   2   2.2e-06   0.00073   20.1   0.0   476   535    87   146    69   164 0.86 -
PC3A_TRINITY_DN43166_c1_g1_i1.p1PC3A_TRINITY_DN43166_c1_g1  -            478 31517at3193          -            554   3.1e-11   44.4   0.1   2   2   9.6e-06    0.0032   18.0   0.0   359   532   269   429   255   442 0.76 -
PC2J_TRINITY_DN37087_c2_g2_i1.p1PC2J_TRINITY_DN37087_c2_g2  -            209 31517at3193          -            554   4.1e-11   44.0   0.0   1   1   1.9e-13   6.4e-11   43.4   0.0   355   533    27   199    12   203 0.83 -
PC3J_TRINITY_DN19818_c0_g1_i1.p1PC3J_TRINITY_DN19818_c0_g1  -            156 31517at3193          -            554   4.4e-11   43.9   0.0   1   1   1.6e-13   5.5e-11   43.6   0.0   444   539    16   115     6   128 0.80 -
PC2J_TRINITY_DN29427_c0_g1_i1.p1PC2J_TRINITY_DN29427_c0_g1  -            198 31517at3193          -            554   5.6e-11   43.6   0.0   1   1   2.2e-13   7.3e-11   43.2   0.0   412   545    29   157    17   163 0.78 -
PC2J_TRINITY_DN13499_c0_g1_i1.p1PC2J_TRINITY_DN13499_c0_g1  -            112 31517at3193          -            554   6.2e-11   43.4   0.0   1   1   2.1e-13   6.8e-11   43.3   0.0   477   536    19    80     5    96 0.84 -
PC1J_TRINITY_DN34844_c2_g1_i1.p1PC1J_TRINITY_DN34844_c2_g1  -            229 31517at3193          -            554   6.7e-11   43.3   0.0   1   1   2.5e-13   8.4e-11   43.0   0.0   471   539    37   107     9   119 0.82 -
PC2A_TRINITY_DN26297_c0_g1_i1.p1PC2A_TRINITY_DN26297_c0_g1  -            217 31517at3193          -            554     9e-11   42.9   0.0   1   1   4.1e-13   1.4e-10   42.3   0.0   377   536     1   166     1   180 0.79 -
PC3J_TRINITY_DN47313_c0_g4_i1.p1PC3J_TRINITY_DN47313_c0_g4  -            107 31517at3193          -            554   9.1e-11   42.9   0.1   1   1     3e-13     1e-10   42.7   0.1   478   536     3    63     1    77 0.87 -
PC3A_TRINITY_DN40774_c1_g2_i1.p1PC3A_TRINITY_DN40774_c1_g2  -            120 31517at3193          -            554   9.2e-11   42.9   0.1   1   1   3.2e-13   1.1e-10   42.7   0.1   475   538    10    75     2    87 0.84 -
PC1A_TRINITY_DN37230_c0_g1_i1.p1PC1A_TRINITY_DN37230_c0_g1  -            242 31517at3193          -            554   1.1e-10   42.6   0.0   1   1   4.6e-13   1.5e-10   42.1   0.0   315   523    13   231    10   236 0.74 -
PC2J_TRINITY_DN38075_c3_g2_i1.p1PC2J_TRINITY_DN38075_c3_g2  -            181 31517at3193          -            554   1.1e-10   42.6   0.0   1   1   3.7e-13   1.2e-10   42.4   0.0   471   537    66   134     6   147 0.73 -
PC3J_TRINITY_DN44875_c0_g1_i5.p1PC3J_TRINITY_DN44875_c0_g1  -            202 31517at3193          -            554   2.5e-10   41.4   0.8   1   1   1.2e-10     4e-08   34.1   0.8   234   389     2   183     1   191 0.66 -
PC1A_TRINITY_DN40216_c2_g2_i3.p1PC1A_TRINITY_DN40216_c2_g2  -            401 31517at3193          -            554   2.8e-10   41.3   0.0   1   1   1.1e-12   3.7e-10   40.9   0.0   354   518   228   383   100   396 0.83 -
PC1A_TRINITY_DN42303_c6_g1_i2.p1PC1A_TRINITY_DN42303_c6_g1  -            236 31517at3193          -            554   3.5e-10   40.9   0.0   1   2   1.1e-07   3.8e-05   24.3   0.0   374   495     3   128     1   134 0.86 -
PC1A_TRINITY_DN42303_c6_g1_i2.p1PC1A_TRINITY_DN42303_c6_g1  -            236 31517at3193          -            554   3.5e-10   40.9   0.0   2   2   5.9e-05      0.02   15.4   0.0   361   462   132   235   128   236 0.87 -
PC2J_TRINITY_DN37182_c3_g5_i2.p1PC2J_TRINITY_DN37182_c3_g5  -            244 31517at3193          -            554   3.7e-10   40.9   0.1   1   1   1.4e-12   4.8e-10   40.5   0.1   475   538    44   109    11   121 0.78 -
PC2J_TRINITY_DN44319_c6_g3_i12.p1PC2J_TRINITY_DN44319_c6_g3 -            674 31517at3193          -            554   9.6e-10   39.5   0.0   1   1   5.4e-12   1.8e-09   38.6   0.0   336   525   218   409   209   424 0.84 -
PC2J_TRINITY_DN38772_c0_g2_i19.p1PC2J_TRINITY_DN38772_c0_g2 -            183 31517at3193          -            554   9.7e-10   39.5   0.0   1   2         8   2.7e+03   -1.6   0.0   315   338    66    89    38   108 0.76 -
PC2J_TRINITY_DN38772_c0_g2_i19.p1PC2J_TRINITY_DN38772_c0_g2 -            183 31517at3193          -            554   9.7e-10   39.5   0.0   2   2   6.2e-12   2.1e-09   38.4   0.0   339   397   114   171    94   176 0.89 -
PC3J_TRINITY_DN45882_c4_g1_i2.p1PC3J_TRINITY_DN45882_c4_g1  -            198 31517at3193          -            554   1.3e-09   39.0   0.0   1   1   5.4e-12   1.8e-09   38.6   0.0   412   537    40   159    28   173 0.82 -
PC3J_TRINITY_DN44066_c0_g1_i6.p1PC3J_TRINITY_DN44066_c0_g1  -            155 31517at3193          -            554   1.5e-09   38.9   0.0   1   1   5.2e-12   1.7e-09   38.6   0.0   334   408    51   123    36   138 0.88 -
PC2A_TRINITY_DN28427_c4_g2_i1.p1PC2A_TRINITY_DN28427_c4_g2  -            119 31517at3193          -            554   3.3e-09   37.7   0.0   1   1   1.2e-11     4e-09   37.5   0.0   428   510    33   117    20   119 0.85 -
PC3J_TRINITY_DN42881_c0_g1_i2.p1PC3J_TRINITY_DN42881_c0_g1  -            490 31517at3193          -            554   3.6e-09   37.6   0.2   1   1   3.2e-11   1.1e-08   36.0   0.2   334   522    81   279    72   302 0.66 -
PC3J_TRINITY_DN45341_c3_g1_i3.p1PC3J_TRINITY_DN45341_c3_g1  -            540 31517at3193          -            554   3.6e-09   37.6   0.1   1   1   4.4e-11   1.5e-08   35.6   0.1   343   520    14   201     3   221 0.67 -
PC2J_TRINITY_DN44861_c1_g2_i1.p1PC2J_TRINITY_DN44861_c1_g2  -            563 31517at3193          -            554     4e-09   37.5   0.0   1   1   2.2e-11   7.5e-09   36.6   0.0   345   500   397   556   382   558 0.86 -
PC1J_TRINITY_DN33581_c0_g1_i1.p1PC1J_TRINITY_DN33581_c0_g1  -            396 31517at3193          -            554   4.8e-09   37.2   0.0   1   1     2e-11   6.5e-09   36.8   0.0   353   530    87   266    53   279 0.77 -
PC3J_TRINITY_DN48769_c1_g1_i1.p1PC3J_TRINITY_DN48769_c1_g1  -            217 31517at3193          -            554   1.3e-08   35.8   0.1   1   1   4.9e-11   1.6e-08   35.4   0.1    47   139   108   201    87   215 0.77 -
PC3A_TRINITY_DN40217_c1_g4_i1.p1PC3A_TRINITY_DN40217_c1_g4  -            128 31517at3193          -            554   4.7e-08   33.9   0.0   1   1   1.5e-10   4.9e-08   33.8   0.0   361   434    23    95     4   115 0.89 -
PC2J_TRINITY_DN40144_c1_g3_i2.p1PC2J_TRINITY_DN40144_c1_g3  -            202 31517at3193          -            554   7.7e-08   33.2   0.1   1   1   4.5e-10   1.5e-07   32.3   0.1   375   518    34   185     4   199 0.72 -
PC2J_TRINITY_DN41835_c1_g1_i2.p1PC2J_TRINITY_DN41835_c1_g1  -            460 31517at3193          -            554     1e-07   32.8   0.8   1   1   5.1e-10   1.7e-07   32.1   0.0   357   536   182   372   171   385 0.76 -
PC1A_TRINITY_DN39729_c0_g1_i6.p1PC1A_TRINITY_DN39729_c0_g1  -            140 31517at3193          -            554   1.5e-07   32.3   0.0   1   1   5.2e-10   1.8e-07   32.0   0.0   330   404    20    95    14   111 0.85 -
PC1J_TRINITY_DN41328_c1_g1_i14.p1PC1J_TRINITY_DN41328_c1_g1 -            200 31517at3193          -            554   1.5e-07   32.2   0.0   1   1   5.4e-10   1.8e-07   32.0   0.0   354   492    37   166     9   195 0.77 -
PC1J_TRINITY_DN35909_c1_g1_i5.p1PC1J_TRINITY_DN35909_c1_g1  -            130 31517at3193          -            554   1.7e-07   32.1   0.0   1   1   5.9e-10     2e-07   31.9   0.0   330   400    20    91    14   105 0.85 -
PC1J_TRINITY_DN40555_c1_g2_i4.p1PC1J_TRINITY_DN40555_c1_g2  -            558 31517at3193          -            554   1.9e-07   31.9   0.0   1   1   1.1e-09   3.5e-07   31.0   0.0   359   535    27   214     4   226 0.76 -
PC2J_TRINITY_DN41835_c1_g1_i5.p1PC2J_TRINITY_DN41835_c1_g1  -            621 31517at3193          -            554   2.3e-07   31.6   0.9   1   1   9.8e-10   3.3e-07   31.1   0.0   357   536   343   533   333   546 0.76 -
PC1J_TRINITY_DN29270_c0_g1_i1.p1PC1J_TRINITY_DN29270_c0_g1  -            124 31517at3193          -            554   2.6e-07   31.5   0.0   1   1   8.6e-10   2.9e-07   31.3   0.0   466   544     9    91     1    97 0.83 -
PC1A_TRINITY_DN40779_c2_g4_i8.p1PC1A_TRINITY_DN40779_c2_g4  -            499 31517at3193          -            554   3.1e-07   31.2   0.1   1   2   0.00043      0.14   12.5   0.0   330   393   107   169    85   173 0.73 -
PC1A_TRINITY_DN40779_c2_g4_i8.p1PC1A_TRINITY_DN40779_c2_g4  -            499 31517at3193          -            554   3.1e-07   31.2   0.1   2   2   2.6e-05    0.0086   16.6   0.0   478   535   275   332   239   349 0.89 -
PC2J_TRINITY_DN35898_c2_g5_i1.p1PC2J_TRINITY_DN35898_c2_g5  -            136 31517at3193          -            554   4.6e-07   30.6   0.1   1   1   1.7e-09   5.8e-07   30.3   0.1   434   514    50   132    32   135 0.84 -
PC1A_TRINITY_DN44546_c1_g1_i4.p1PC1A_TRINITY_DN44546_c1_g1  -            867 31517at3193          -            554   5.1e-07   30.5   0.8   1   1   2.6e-09   8.6e-07   29.8   0.0   372   535   521   695   501   708 0.73 -
PC2J_TRINITY_DN33353_c0_g1_i2.p1PC2J_TRINITY_DN33353_c0_g1  -            248 31517at3193          -            554   5.9e-07   30.3   0.8   1   1     2e-08   6.7e-06   26.8   0.8   361   520     6   168     3   186 0.75 -
PC3J_TRINITY_DN34158_c0_g1_i1.p1PC3J_TRINITY_DN34158_c0_g1  -            120 31517at3193          -            554   7.1e-07   30.0   0.0   1   1   2.1e-09   7.1e-07   30.0   0.0   470   508    82   120    23   120 0.80 -
PC1J_TRINITY_DN41328_c1_g1_i9.p1PC1J_TRINITY_DN41328_c1_g1  -            113 31517at3193          -            554   1.1e-06   29.4   0.0   1   1   3.6e-09   1.2e-06   29.3   0.0   468   534    14    83     5   100 0.85 -
PC1A_TRINITY_DN44482_c3_g1_i8.p1PC1A_TRINITY_DN44482_c3_g1  -            964 31517at3193          -            554   1.6e-06   28.9   0.0   1   1   9.7e-09   3.2e-06   27.9   0.0   361   534   390   574   379   586 0.72 -
PC3A_TRINITY_DN41495_c3_g2_i1.p1PC3A_TRINITY_DN41495_c3_g2  -            115 31517at3193          -            554   2.4e-06   28.3   0.0   1   1   8.4e-09   2.8e-06   28.1   0.0   344   402     9    66     2    80 0.84 -
PC3A_TRINITY_DN43994_c1_g1_i1.p1PC3A_TRINITY_DN43994_c1_g1  -            539 31517at3193          -            554   3.3e-06   27.8   0.7   1   2     0.019       6.2    7.1   0.3   361   403   281   325   269   411 0.79 -
PC3A_TRINITY_DN43994_c1_g1_i1.p1PC3A_TRINITY_DN43994_c1_g1  -            539 31517at3193          -            554   3.3e-06   27.8   0.7   2   2   3.7e-06    0.0012   19.3   0.0   423   526   410   509   387   530 0.75 -
PC3J_TRINITY_DN47462_c0_g1_i7.p1PC3J_TRINITY_DN47462_c0_g1  -            225 31517at3193          -            554   3.3e-06   27.8   0.1   1   1   3.6e-07   0.00012   22.7   0.1   355   533    10   175     1   195 0.76 -
PC3J_TRINITY_DN40161_c2_g1_i6.p1PC3J_TRINITY_DN40161_c2_g1  -            131 31517at3193          -            554   3.8e-06   27.6   0.1   1   1   1.4e-08   4.6e-06   27.4   0.1   487   540     1    56     1    67 0.83 -
PC2J_TRINITY_DN42368_c6_g2_i3.p1PC2J_TRINITY_DN42368_c6_g2  -            145 31517at3193          -            554     4e-06   27.5   0.0   1   1   1.3e-08   4.5e-06   27.4   0.0   478   543    34   102     6   109 0.82 -
PC3A_TRINITY_DN44379_c2_g1_i2.p1PC3A_TRINITY_DN44379_c2_g1  -            102 31517at3193          -            554   5.1e-06   27.2   0.1   1   1   1.6e-08   5.2e-06   27.2   0.1   432   507     8    85     1    99 0.84 -
PC3J_TRINITY_DN38571_c0_g1_i2.p1PC3J_TRINITY_DN38571_c0_g1  -            279 31517at3193          -            554   6.3e-06   26.9   0.1   1   2   7.3e-07   0.00024   21.7   0.0   335   395    21    81    13   105 0.86 -
PC3J_TRINITY_DN38571_c0_g1_i2.p1PC3J_TRINITY_DN38571_c0_g1  -            279 31517at3193          -            554   6.3e-06   26.9   0.1   2   2      0.24        81    3.4   0.0   478   520   177   219   158   254 0.76 -
PC1A_TRINITY_DN3232_c0_g1_i1.p1PC1A_TRINITY_DN3232_c0_g1    -            208 31517at3193          -            554   6.3e-06   26.9   0.0   1   1   1.9e-08   6.4e-06   26.9   0.0   344   397   146   200    79   208 0.83 -
PC2J_TRINITY_DN42275_c2_g4_i2.p1PC2J_TRINITY_DN42275_c2_g4  -            135 31517at3193          -            554   6.5e-06   26.9   0.0   1   1   2.3e-08   7.8e-06   26.6   0.0   403   530     5   129     3   134 0.82 -
PC1A_TRINITY_DN42316_c0_g1_i6.p1PC1A_TRINITY_DN42316_c0_g1  -            715 31517at3193          -            554     7e-06   26.8   0.0   1   2   3.5e-07   0.00012   22.7   0.1   341   417   173   252   161   261 0.81 -
PC1A_TRINITY_DN42316_c0_g1_i6.p1PC1A_TRINITY_DN42316_c0_g1  -            715 31517at3193          -            554     7e-06   26.8   0.0   2   2       1.3   4.3e+02    1.0   0.0   478   522   349   393   325   402 0.89 -
PC1J_TRINITY_DN41039_c0_g1_i3.p1PC1J_TRINITY_DN41039_c0_g1  -            237 31517at3193          -            554   1.2e-05   25.9   0.1   1   1   1.3e-06   0.00044   20.8   0.1   359   533    36   197    22   217 0.77 -
PC3J_TRINITY_DN41989_c1_g2_i2.p1PC3J_TRINITY_DN41989_c1_g2  -            406 31517at3193          -            554   1.2e-05   25.9   0.2   1   2   0.00016     0.053   13.9   0.3   376   522    72   226    64   252 0.61 -
PC3J_TRINITY_DN41989_c1_g2_i2.p1PC3J_TRINITY_DN41989_c1_g2  -            406 31517at3193          -            554   1.2e-05   25.9   0.2   2   2    0.0055       1.8    8.9   0.0   371   397   338   364   322   387 0.78 -
PC3A_TRINITY_DN43904_c0_g1_i4.p1PC3A_TRINITY_DN43904_c0_g1  -            554 31517at3193          -            554   1.4e-05   25.7   0.2   1   1     1e-07   3.4e-05   24.5   0.0   422   535    52   164     1   177 0.75 -
PC2A_TRINITY_DN11292_c0_g1_i2.p1PC2A_TRINITY_DN11292_c0_g1  -            107 31517at3193          -            554   1.9e-05   25.3   0.1   1   1     7e-08   2.3e-05   25.0   0.1     9    51    38    80    30    85 0.87 -
PC3J_TRINITY_DN46063_c3_g1_i1.p1PC3J_TRINITY_DN46063_c3_g1  -            156 31517at3193          -            554   1.9e-05   25.3   0.0   1   1     6e-08     2e-05   25.2   0.0   421   535    27   152     1   155 0.65 -
PC2A_TRINITY_DN35078_c0_g1_i23.p1PC2A_TRINITY_DN35078_c0_g1 -            645 31517at3193          -            554   2.3e-05   25.0   0.4   1   2     0.049        16    5.7   0.2   371   404   159   194   136   297 0.62 -
PC2A_TRINITY_DN35078_c0_g1_i23.p1PC2A_TRINITY_DN35078_c0_g1 -            645 31517at3193          -            554   2.3e-05   25.0   0.4   2   2   1.6e-05    0.0055   17.2   0.0   451   534   314   396   291   408 0.79 -
PC1A_TRINITY_DN38445_c0_g2_i1.p1PC1A_TRINITY_DN38445_c0_g2  -            350 31517at3193          -            554   2.7e-05   24.8   0.0   1   1   1.1e-07   3.8e-05   24.3   0.0   362   522    81   246    63   274 0.74 -
PC1J_TRINITY_DN37304_c3_g2_i1.p1PC1J_TRINITY_DN37304_c3_g2  -            109 31517at3193          -            554   4.6e-05   24.0   0.0   1   1   1.6e-07   5.4e-05   23.8   0.0   478   540    13    79     7    91 0.82 -
PC3A_TRINITY_DN40774_c1_g2_i8.p1PC3A_TRINITY_DN40774_c1_g2  -            136 31517at3193          -            554   4.6e-05   24.0   0.0   1   1   1.6e-07   5.4e-05   23.8   0.0   489   538    40    91    23   103 0.84 -
PC2J_TRINITY_DN46258_c2_g1_i3.p1PC2J_TRINITY_DN46258_c2_g1  -            507 31517at3193          -            554   5.6e-05   23.8   0.0   1   2   3.2e-05     0.011   16.2   0.0   356   417   169   234   157   247 0.79 -
PC2J_TRINITY_DN46258_c2_g1_i3.p1PC2J_TRINITY_DN46258_c2_g1  -            507 31517at3193          -            554   5.6e-05   23.8   0.0   2   2     0.069        23    5.2   0.0   478   521   331   374   307   386 0.87 -
PC1J_TRINITY_DN37671_c0_g1_i5.p1PC1J_TRINITY_DN37671_c0_g1  -            152 31517at3193          -            554   6.4e-05   23.6   0.0   1   1   2.3e-07   7.7e-05   23.3   0.0   423   548    31   148    25   151 0.77 -
PC3J_TRINITY_DN25455_c0_g1_i1.p1PC3J_TRINITY_DN25455_c0_g1  -            210 31517at3193          -            554   7.4e-05   23.4   0.1   1   1   1.2e-06   0.00041   20.9   0.1   357   512    41   205    30   210 0.72 -
PC2A_TRINITY_DN35000_c2_g1_i2.p1PC2A_TRINITY_DN35000_c2_g1  -            141 31517at3193          -            554   8.7e-05   23.1   0.0   1   1   2.6e-07   8.7e-05   23.1   0.0   353   397    64   108    16   137 0.77 -
PC3J_TRINITY_DN49114_c1_g1_i23.p1PC3J_TRINITY_DN49114_c1_g1 -            390 31517at3193          -            554   9.3e-05   23.0   0.1   1   2   1.5e-05     0.005   17.3   0.0   350   416    96   167    86   178 0.75 -
PC3J_TRINITY_DN49114_c1_g1_i23.p1PC3J_TRINITY_DN49114_c1_g1 -            390 31517at3193          -            554   9.3e-05   23.0   0.1   2   2      0.21        72    3.6   0.0   478   527   265   314   237   324 0.87 -
PC3J_TRINITY_DN49247_c2_g2_i10.p1PC3J_TRINITY_DN49247_c2_g2 -            661 31517at3193          -            554   9.6e-05   23.0   0.0   1   1   5.9e-07    0.0002   22.0   0.0   381   534     2   166     1   178 0.70 -
PC2J_TRINITY_DN41551_c1_g3_i7.p1PC2J_TRINITY_DN41551_c1_g3  -            258 31517at3193          -            554   0.00011   22.9   0.0   1   2   2.5e-05    0.0083   16.6   0.0   360   417     4    65     1    89 0.81 -
PC2J_TRINITY_DN41551_c1_g3_i7.p1PC2J_TRINITY_DN41551_c1_g3  -            258 31517at3193          -            554   0.00011   22.9   0.0   2   2      0.11        38    4.5   0.0   478   520   162   204   128   218 0.86 -
PC1J_TRINITY_DN31167_c0_g1_i1.p1PC1J_TRINITY_DN31167_c0_g1  -            174 31517at3193          -            554   0.00013   22.6   0.1   1   2       4.9   1.6e+03   -0.9   0.1    34    66    55    87    49    93 0.86 -
PC1J_TRINITY_DN31167_c0_g1_i1.p1PC1J_TRINITY_DN31167_c0_g1  -            174 31517at3193          -            554   0.00013   22.6   0.1   2   2   1.2e-06   0.00038   21.0   0.0   344   403   114   172    99   174 0.87 -
PC3J_TRINITY_DN38571_c0_g1_i1.p1PC3J_TRINITY_DN38571_c0_g1  -            211 31517at3193          -            554   0.00014   22.5   0.2   1   2     1e-05    0.0034   17.9   0.0   335   388    21    74    13    82 0.92 -
PC3J_TRINITY_DN38571_c0_g1_i1.p1PC3J_TRINITY_DN38571_c0_g1  -            211 31517at3193          -            554   0.00014   22.5   0.2   2   2      0.39   1.3e+02    2.7   0.0   478   512   103   137    87   145 0.89 -
PC3J_TRINITY_DN9095_c0_g1_i1.p1PC3J_TRINITY_DN9095_c0_g1    -            139 31517at3193          -            554   0.00014   22.5   0.0   1   1   4.4e-07   0.00015   22.4   0.0   466   523    40    98     5   117 0.75 -
PC3A_TRINITY_DN41915_c0_g1_i2.p1PC3A_TRINITY_DN41915_c0_g1  -            115 31517at3193          -            554   0.00014   22.4   0.2   1   1   4.5e-07   0.00015   22.4   0.2   461   536    18    90     4   107 0.76 -
PC3A_TRINITY_DN2302_c0_g1_i1.p1PC3A_TRINITY_DN2302_c0_g1    -            107 31517at3193          -            554   0.00016   22.3   0.0   1   1   5.3e-07   0.00018   22.1   0.0   490   539     1    52     1    64 0.82 -
PC2A_TRINITY_DN34837_c1_g3_i1.p1PC2A_TRINITY_DN34837_c1_g3  -            112 31517at3193          -            554   0.00017   22.2   0.0   1   1     5e-07   0.00017   22.2   0.0   366   403     3    40     1    82 0.86 -
PC3J_TRINITY_DN45218_c0_g3_i5.p1PC3J_TRINITY_DN45218_c0_g3  -            315 31517at3193          -            554   0.00018   22.1   0.0   1   2   5.5e-05     0.018   15.5   0.0   375   417    23    69     5    78 0.76 -
PC3J_TRINITY_DN45218_c0_g3_i5.p1PC3J_TRINITY_DN45218_c0_g3  -            315 31517at3193          -            554   0.00018   22.1   0.0   2   2      0.11        35    4.6   0.0   478   524   166   212   139   231 0.86 -
PC3J_TRINITY_DN42347_c2_g1_i1.p1PC3J_TRINITY_DN42347_c2_g1  -            136 31517at3193          -            554   0.00018   22.1   0.0   1   1   6.5e-07   0.00022   21.8   0.0   423   523    36   132    28   135 0.85 -
PC1J_TRINITY_DN32510_c0_g1_i2.p1PC1J_TRINITY_DN32510_c0_g1  -            140 31517at3193          -            554   0.00019   22.0   0.0   1   1   6.1e-07    0.0002   21.9   0.0   353   395    73   115    38   127 0.82 -
PC1A_TRINITY_DN39275_c0_g4_i1.p1PC1A_TRINITY_DN39275_c0_g4  -            125 31517at3193          -            554   0.00022   21.8   0.0   1   1   7.5e-07   0.00025   21.6   0.0   367   444    22    96    11   119 0.80 -
PC2J_TRINITY_DN46258_c2_g1_i9.p1PC2J_TRINITY_DN46258_c2_g1  -            293 31517at3193          -            554   0.00023   21.7   0.0   1   2   1.3e-05    0.0044   17.5   0.0   356   417    91   156    79   170 0.79 -
PC2J_TRINITY_DN46258_c2_g1_i9.p1PC2J_TRINITY_DN46258_c2_g1  -            293 31517at3193          -            554   0.00023   21.7   0.0   2   2      0.64   2.1e+02    2.0   0.0   478   510   253   285   228   290 0.89 -
PC3A_TRINITY_DN42409_c0_g1_i8.p1PC3A_TRINITY_DN42409_c0_g1  -            192 31517at3193          -            554   0.00024   21.7   0.0   1   1     9e-07    0.0003   21.4   0.0   476   535    21    80    12    97 0.87 -
PC1A_TRINITY_DN42303_c6_g1_i6.p1PC1A_TRINITY_DN42303_c6_g1  -            555 31517at3193          -            554   0.00026   21.6   0.3   1   3       2.8   9.4e+02   -0.1   0.0   373   404   148   179   140   185 0.85 -
PC1A_TRINITY_DN42303_c6_g1_i6.p1PC1A_TRINITY_DN42303_c6_g1  -            555 31517at3193          -            554   0.00026   21.6   0.3   2   3      0.64   2.1e+02    2.0   0.8   139   182   224   268   215   278 0.88 -
PC1A_TRINITY_DN42303_c6_g1_i6.p1PC1A_TRINITY_DN42303_c6_g1  -            555 31517at3193          -            554   0.00026   21.6   0.3   3   3   8.5e-05     0.028   14.8   0.0   345   462   435   554   393   555 0.83 -
PC2J_TRINITY_DN46249_c1_g1_i9.p1PC2J_TRINITY_DN46249_c1_g1  -            867 31517at3193          -            554   0.00027   21.5   0.2   1   3   0.00043      0.15   12.5   0.0   361   416    21    80    11    90 0.75 -
PC2J_TRINITY_DN46249_c1_g1_i9.p1PC2J_TRINITY_DN46249_c1_g1  -            867 31517at3193          -            554   0.00027   21.5   0.2   2   3       1.4   4.8e+02    0.9   0.0   478   524   178   224   153   238 0.86 -
PC2J_TRINITY_DN46249_c1_g1_i9.p1PC2J_TRINITY_DN46249_c1_g1  -            867 31517at3193          -            554   0.00027   21.5   0.2   3   3      0.18        61    3.8   0.1   374   399   768   793   743   805 0.75 -
PC3A_TRINITY_DN43166_c1_g1_i10.p1PC3A_TRINITY_DN43166_c1_g1 -            336 31517at3193          -            554   0.00029   21.4   0.0   1   1   1.2e-06   0.00042   20.9   0.0   476   535    87   146    68   164 0.86 -
PC1A_TRINITY_DN48046_c0_g1_i1.p1PC1A_TRINITY_DN48046_c0_g1  -            127 31517at3193          -            554   0.00031   21.3   0.0   1   1   1.2e-06    0.0004   20.9   0.0   359   428    31   112     6   123 0.74 -
PC3J_TRINITY_DN35806_c0_g1_i2.p1PC3J_TRINITY_DN35806_c0_g1  -            109 31517at3193          -            554   0.00034   21.2   0.1   1   1     1e-06   0.00035   21.1   0.1   375   399    34    58     5    72 0.84 -
PC2J_TRINITY_DN46120_c0_g1_i9.p1PC2J_TRINITY_DN46120_c0_g1  -            203 31517at3193          -            554   0.00037   21.0   0.0   1   1   1.9e-06   0.00063   20.3   0.0   373   409    82   118    78   192 0.94 -
PC3J_TRINITY_DN12909_c0_g1_i1.p1PC3J_TRINITY_DN12909_c0_g1  -            176 31517at3193          -            554   0.00047   20.7   0.0   1   1   1.4e-06   0.00048   20.7   0.0   314   405    39   132    11   162 0.80 -
PC3J_TRINITY_DN41961_c3_g3_i1.p1PC3J_TRINITY_DN41961_c3_g3  -            159 31517at3193          -            554   0.00048   20.7   0.0   1   1   1.5e-06   0.00051   20.6   0.0   449   522    25    98     4   128 0.76 -
PC3A_TRINITY_DN44323_c1_g1_i12.p1PC3A_TRINITY_DN44323_c1_g1 -            987 31517at3193          -            554   0.00049   20.7   0.8   1   3   0.00049      0.16   12.3   0.0   361   416   170   229   158   239 0.76 -
PC3A_TRINITY_DN44323_c1_g1_i12.p1PC3A_TRINITY_DN44323_c1_g1 -            987 31517at3193          -            554   0.00049   20.7   0.8   2   3       1.9   6.4e+02    0.5   0.0   478   523   327   372   303   387 0.86 -
PC3A_TRINITY_DN44323_c1_g1_i12.p1PC3A_TRINITY_DN44323_c1_g1 -            987 31517at3193          -            554   0.00049   20.7   0.8   3   3      0.21        71    3.6   0.1   374   399   911   936   886   948 0.75 -
PC3J_TRINITY_DN42453_c0_g4_i1.p1PC3J_TRINITY_DN42453_c0_g4  -            357 31517at3193          -            554    0.0005   20.6   0.0   1   1   2.8e-06   0.00093   19.7   0.0   345   436   236   340   204   354 0.75 -
PC3A_TRINITY_DN30850_c0_g1_i1.p1PC3A_TRINITY_DN30850_c0_g1  -            129 31517at3193          -            554    0.0005   20.6   0.0   1   1   1.5e-06    0.0005   20.6   0.0   464   514    56   107     6   126 0.71 -
PC3J_TRINITY_DN45341_c3_g1_i7.p1PC3J_TRINITY_DN45341_c3_g1  -            121 31517at3193          -            554   0.00052   20.6   0.1   1   1   1.8e-06   0.00061   20.3   0.1   343   395    55   110    34   115 0.82 -
PC2J_TRINITY_DN47154_c0_g1_i1.p1PC2J_TRINITY_DN47154_c0_g1  -            126 31517at3193          -            554   0.00053   20.6   0.0   1   1   1.8e-06    0.0006   20.4   0.0   359   396    64   101    50   115 0.88 -
PC1J_TRINITY_DN41328_c1_g1_i4.p1PC1J_TRINITY_DN41328_c1_g1  -            138 31517at3193          -            554    0.0006   20.4   0.0   1   1   2.4e-06   0.00081   19.9   0.0   400   518    17   126     8   132 0.75 -
PC3J_TRINITY_DN37211_c0_g1_i1.p1PC3J_TRINITY_DN37211_c0_g1  -            206 31517at3193          -            554    0.0007   20.2   0.0   1   1   2.9e-06   0.00097   19.7   0.0   357   417   126   190   114   200 0.80 -
PC2J_TRINITY_DN43111_c1_g1_i10.p1PC2J_TRINITY_DN43111_c1_g1 -            281 31517at3193          -            554   0.00093   19.7   0.3   1   2   9.9e-06    0.0033   17.9   0.0   456   536     4    83     1    96 0.74 -
PC2J_TRINITY_DN43111_c1_g1_i10.p1PC2J_TRINITY_DN43111_c1_g1 -            281 31517at3193          -            554   0.00093   19.7   0.3   2   2       3.2   1.1e+03   -0.3   0.1    12    44   199   231   147   241 0.70 -
PC2J_TRINITY_DN43646_c0_g4_i1.p1PC2J_TRINITY_DN43646_c0_g4  -            185 31517at3193          -            554   0.00095   19.7   0.0   1   1   3.3e-06    0.0011   19.5   0.0   477   518    92   133    61   153 0.82 -
PC2J_TRINITY_DN46249_c1_g1_i14.p2PC2J_TRINITY_DN46249_c1_g1 -            101 31517at3193          -            554   0.00097   19.7   0.0   1   1   3.2e-06    0.0011   19.5   0.0   478   537    15    77    11    91 0.80 -
PC1A_TRINITY_DN15196_c0_g1_i2.p1PC1A_TRINITY_DN15196_c0_g1  -            255 31517at3193          -            554    0.0011   19.5   0.0   1   1   4.6e-06    0.0015   19.0   0.0   314   396   126   210   100   230 0.78 -
PC3A_TRINITY_DN43090_c0_g4_i1.p1PC3A_TRINITY_DN43090_c0_g4  -            198 31517at3193          -            554    0.0013   19.2   0.0   1   1   4.6e-06    0.0015   19.0   0.0   477   535    93   151    56   168 0.88 -
PC2J_TRINITY_DN37087_c2_g2_i3.p1PC2J_TRINITY_DN37087_c2_g2  -            119 31517at3193          -            554    0.0014   19.1   0.0   1   1   4.6e-06    0.0015   19.0   0.0   477   533    50   109    15   113 0.79 -
PC2J_TRINITY_DN42173_c5_g1_i1.p1PC2J_TRINITY_DN42173_c5_g1  -            165 31517at3193          -            554    0.0014   19.1   0.1   1   1   5.9e-06     0.002   18.7   0.1   368   526     3   159     1   164 0.68 -
PC3J_TRINITY_DN49114_c1_g1_i25.p1PC3J_TRINITY_DN49114_c1_g1 -            247 31517at3193          -            554    0.0016   19.0   0.1   1   1   6.6e-06    0.0022   18.5   0.1   350   416    60   131    50   144 0.75 -
PC3J_TRINITY_DN48589_c1_g2_i1.p1PC3J_TRINITY_DN48589_c1_g2  -            103 31517at3193          -            554    0.0018   18.8   0.0   1   1   5.9e-06     0.002   18.7   0.0   428   497    17    88     8    99 0.84 -
PC1J_TRINITY_DN40843_c1_g1_i8.p1PC1J_TRINITY_DN40843_c1_g1  -            254 31517at3193          -            554    0.0018   18.8   0.0   1   1   7.1e-06    0.0024   18.4   0.0   350   416    82   153    72   164 0.75 -
PC3J_TRINITY_DN48045_c0_g1_i4.p1PC3J_TRINITY_DN48045_c0_g1  -            172 31517at3193          -            554     0.002   18.7   0.0   1   1   7.1e-06    0.0024   18.4   0.0   358   417     7    70     1    88 0.80 -
PC3J_TRINITY_DN46615_c0_g1_i3.p1PC3J_TRINITY_DN46615_c0_g1  -            208 31517at3193          -            554     0.002   18.6   0.0   1   1   7.7e-06    0.0026   18.3   0.0   478   535    18    75    10    93 0.89 -
PC3J_TRINITY_DN46668_c2_g1_i2.p1PC3J_TRINITY_DN46668_c2_g1  -            145 31517at3193          -            554    0.0021   18.6   0.0   1   1   6.5e-06    0.0022   18.5   0.0   342   405    33    97    13   127 0.83 -
PC1J_TRINITY_DN33695_c0_g3_i5.p1PC1J_TRINITY_DN33695_c0_g3  -            119 31517at3193          -            554    0.0023   18.4   0.0   1   1   8.4e-06    0.0028   18.2   0.0   344   404    54   114    47   118 0.92 -
PC2A_TRINITY_DN35014_c2_g1_i27.p1PC2A_TRINITY_DN35014_c2_g1 -            355 31517at3193          -            554    0.0025   18.3   0.0   1   1   1.1e-05    0.0036   17.8   0.0   360   416   143   203   132   213 0.77 -
PC2A_TRINITY_DN35014_c2_g1_i23.p1PC2A_TRINITY_DN35014_c2_g1 -            361 31517at3193          -            554    0.0026   18.3   0.0   1   1   1.1e-05    0.0037   17.7   0.0   360   416   169   229   158   239 0.77 -
PC3A_TRINITY_DN31849_c0_g1_i1.p1PC3A_TRINITY_DN31849_c0_g1  -            156 31517at3193          -            554    0.0027   18.2   0.0   1   1   8.1e-06    0.0027   18.2   0.0   341   405    57   120    25   154 0.77 -
PC2J_TRINITY_DN42275_c2_g4_i1.p1PC2J_TRINITY_DN42275_c2_g4  -            114 31517at3193          -            554    0.0027   18.2   0.0   1   1   8.2e-06    0.0027   18.2   0.0   444   530    23   108     6   113 0.73 -
PC1A_TRINITY_DN42714_c1_g4_i6.p1PC1A_TRINITY_DN42714_c1_g4  -            104 31517at3193          -            554    0.0029   18.1   0.0   1   1   9.1e-06     0.003   18.0   0.0   359   416    19    78    13    98 0.83 -
PC2J_TRINITY_DN40928_c1_g1_i2.p1PC2J_TRINITY_DN40928_c1_g1  -            119 31517at3193          -            554    0.0032   18.0   0.1   1   1   1.1e-05    0.0037   17.8   0.1   340   393    67   119    54   119 0.84 -
PC2A_TRINITY_DN21663_c0_g1_i1.p1PC2A_TRINITY_DN21663_c0_g1  -            128 31517at3193          -            554    0.0037   17.8   0.0   1   1   1.3e-05    0.0043   17.5   0.0   360   394    91   125    77   128 0.89 -
PC3J_TRINITY_DN45218_c0_g3_i4.p1PC3J_TRINITY_DN45218_c0_g3  -            182 31517at3193          -            554    0.0048   17.4   0.0   1   1   1.7e-05    0.0057   17.1   0.0   370   417     7    58     1    68 0.75 -
PC1J_TRINITY_DN40926_c2_g9_i1.p1PC1J_TRINITY_DN40926_c2_g9  -            113 31517at3193          -            554     0.006   17.1   0.0   1   1   2.1e-05     0.007   16.9   0.0   359   395    10    46     4    64 0.88 -
PC3A_TRINITY_DN41878_c4_g1_i1.p1PC3A_TRINITY_DN41878_c4_g1  -            113 31517at3193          -            554    0.0068   16.9   0.0   1   1   2.1e-05     0.007   16.8   0.0   471   519    30    78     4   101 0.77 -
PC3J_TRINITY_DN32082_c1_g1_i1.p1PC3J_TRINITY_DN32082_c1_g1  -            159 31517at3193          -            554     0.007   16.8   0.0   1   1   2.3e-05    0.0077   16.7   0.0   476   532    72   130    21   139 0.74 -
PC1A_TRINITY_DN20750_c0_g1_i2.p1PC1A_TRINITY_DN20750_c0_g1  -            105 31517at3193          -            554    0.0071   16.8   0.0   1   1   2.5e-05    0.0084   16.6   0.0   478   532    21    77    10    83 0.84 -
PC2A_TRINITY_DN1642_c0_g1_i2.p1PC2A_TRINITY_DN1642_c0_g1    -            162 31517at3193          -            554    0.0088   16.5   0.0   1   1   2.9e-05    0.0096   16.4   0.0   358   395    50    87    19   103 0.86 -
PC2J_TRINITY_DN41419_c0_g1_i1.p1PC2J_TRINITY_DN41419_c0_g1  -            181 31517at3193          -            554    0.0097   16.4   0.0   1   1   2.9e-05    0.0097   16.4   0.0   354   416   118   179    47   181 0.76 -
PC3J_TRINITY_DN46640_c0_g1_i8.p1PC3J_TRINITY_DN46640_c0_g1  -            182 31517at3193          -            554     0.013   16.0   0.1   1   2      0.06        20    5.4   0.0   485   534     1    53     1    69 0.76 -
PC3J_TRINITY_DN46640_c0_g1_i8.p1PC3J_TRINITY_DN46640_c0_g1  -            182 31517at3193          -            554     0.013   16.0   0.1   2   2    0.0058       1.9    8.8   0.0   478   507   147   176   138   181 0.89 -
PC2J_TRINITY_DN40778_c0_g1_i11.p1PC2J_TRINITY_DN40778_c0_g1 -            245 31517at3193          -            554     0.016   15.7   0.1   1   1   5.5e-05     0.018   15.5   0.1   417   522     8   118     1   144 0.67 -
PC2A_TRINITY_DN35014_c2_g1_i14.p1PC2A_TRINITY_DN35014_c2_g1 -            255 31517at3193          -            554     0.016   15.6   0.0   1   1     7e-05     0.023   15.1   0.0   361   416   136   195   124   205 0.76 -
PC2A_TRINITY_DN32525_c2_g1_i1.p1PC2A_TRINITY_DN32525_c2_g1  -            148 31517at3193          -            554     0.016   15.6   0.0   1   1   5.2e-05     0.017   15.5   0.0   477   533    43    99    15   119 0.86 -
PC2J_TRINITY_DN36566_c0_g1_i2.p1PC2J_TRINITY_DN36566_c0_g1  -            232 31517at3193          -            554     0.017   15.5   0.0   1   1   6.4e-05     0.021   15.3   0.0   470   521    43    94    19   123 0.81 -
PC3A_TRINITY_DN39153_c1_g2_i5.p1PC3A_TRINITY_DN39153_c1_g2  -            265 31517at3193          -            554     0.019   15.4   0.0   1   1   6.5e-05     0.022   15.2   0.0   467   521    49   103     4   132 0.81 -
PC2J_TRINITY_DN43646_c0_g1_i11.p1PC2J_TRINITY_DN43646_c0_g1 -            115 31517at3193          -            554      0.02   15.3   0.0   1   1   7.3e-05     0.024   15.1   0.0   476   510    26    60    11    67 0.88 -
PC3J_TRINITY_DN37616_c0_g1_i1.p1PC3J_TRINITY_DN37616_c0_g1  -            365 31517at3193          -            554      0.02   15.3   0.0   1   2   0.00081      0.27   11.6   0.0   358   416    15    77     3    88 0.79 -
PC3J_TRINITY_DN37616_c0_g1_i1.p1PC3J_TRINITY_DN37616_c0_g1  -            365 31517at3193          -            554      0.02   15.3   0.0   2   2       1.1   3.6e+02    1.3   0.0   478   523   176   221   149   233 0.85 -
PC1J_TRINITY_DN33113_c1_g1_i1.p1PC1J_TRINITY_DN33113_c1_g1  -            303 31517at3193          -            554     0.021   15.3   0.7   1   1     9e-05      0.03   14.8   0.1   353   398   122   167   110   196 0.81 -
PC2J_TRINITY_DN43362_c0_g2_i1.p1PC2J_TRINITY_DN43362_c0_g2  -            254 31517at3193          -            554     0.024   15.1   0.0   1   1   0.00012     0.039   14.4   0.0   354   503    97   254    71   254 0.72 -
PC2J_TRINITY_DN44855_c0_g1_i1.p1PC2J_TRINITY_DN44855_c0_g1  -            499 31517at3193          -            554     0.032   14.7   0.0   1   1   0.00015     0.049   14.1   0.0   478   532    64   121    29   136 0.78 -
PC2A_TRINITY_DN30287_c4_g1_i4.p1PC2A_TRINITY_DN30287_c4_g1  -            120 31517at3193          -            554     0.034   14.6   0.0   1   1    0.0001     0.034   14.6   0.0   352   435     4    88     1   117 0.78 -
PC2J_TRINITY_DN43362_c0_g2_i2.p1PC2J_TRINITY_DN43362_c0_g2  -            284 31517at3193          -            554     0.043   14.2   0.0   1   1   0.00023     0.077   13.4   0.0   355   503   128   284   116   284 0.72 -
PC2A_TRINITY_DN30348_c1_g1_i4.p1PC2A_TRINITY_DN30348_c1_g1  -            209 31517at3193          -            554     0.046   14.1   0.1   1   1   0.00018     0.059   13.8   0.1   451   522    28   103     9   129 0.67 -
PC1A_TRINITY_DN37548_c0_g2_i1.p1PC1A_TRINITY_DN37548_c0_g2  -            103 31517at3193          -            554     0.046   14.1   0.0   1   1   0.00016     0.054   13.9   0.0   378   398     1    21     1    47 0.78 -
PC1J_TRINITY_DN41039_c0_g1_i13.p1PC1J_TRINITY_DN41039_c0_g1 -            109 31517at3193          -            554     0.064   13.7   0.0   1   1   0.00023     0.078   13.4   0.0   342   392    24    72     8    75 0.86 -
PC1J_TRINITY_DN43239_c0_g1_i1.p1PC1J_TRINITY_DN43239_c0_g1  -            156 31517at3193          -            554     0.075   13.4   0.0   1   1   0.00028     0.092   13.2   0.0   503   553     1    52     1    53 0.94 -
PC2J_TRINITY_DN44319_c6_g3_i6.p1PC2J_TRINITY_DN44319_c6_g3  -            287 31517at3193          -            554      0.11   12.9   0.0   1   1   0.00048      0.16   12.4   0.0   459   525    52   118    33   133 0.76 -
PC1A_TRINITY_DN42598_c6_g1_i1.p1PC1A_TRINITY_DN42598_c6_g1  -            143 31517at3193          -            554      0.12   12.8   0.0   1   1   0.00037      0.12   12.7   0.0   358   422    43   107    15   141 0.88 -
PC2A_TRINITY_DN35459_c2_g1_i3.p1PC2A_TRINITY_DN35459_c2_g1  -            149 31517at3193          -            554      0.12   12.8   0.0   1   1   0.00046      0.15   12.4   0.0   342   392    33    81    12    84 0.86 -
PC1A_TRINITY_DN42430_c0_g1_i4.p1PC1A_TRINITY_DN42430_c0_g1  -            203 31517at3193          -            554      0.13   12.6   0.1   1   1   0.00061       0.2   12.0   0.1   340   394   125   180    86   188 0.79 -
PC3A_TRINITY_DN43090_c0_g3_i6.p1PC3A_TRINITY_DN43090_c0_g3  -            123 31517at3193          -            554      0.15   12.5   0.0   1   1   0.00075      0.25   11.7   0.0   357   393    10    46     2    51 0.89 -
PC1J_TRINITY_DN41039_c0_g1_i15.p1PC1J_TRINITY_DN41039_c0_g1 -            203 31517at3193          -            554       0.2   12.1   0.0   1   1   0.00076      0.25   11.7   0.0   342   392    72   120    48   123 0.84 -
PC2J_TRINITY_DN41533_c4_g4_i2.p1PC2J_TRINITY_DN41533_c4_g4  -            156 31517at3193          -            554      0.22   11.9   0.0   1   1   0.00077      0.26   11.7   0.0   364   395    52    80    31    95 0.84 -
PC2J_TRINITY_DN37087_c2_g2_i2.p1PC2J_TRINITY_DN37087_c2_g2  -            103 31517at3193          -            554      0.23   11.8   0.0   1   1    0.0007      0.23   11.8   0.0   355   391    27    63    10    93 0.83 -
PC1A_TRINITY_DN41416_c0_g2_i1.p1PC1A_TRINITY_DN41416_c0_g2  -            211 31517at3193          -            554      0.25   11.7   0.2   1   1    0.0013      0.44   10.9   0.1   357   405    38    88    28   173 0.65 -
PC2J_TRINITY_DN45813_c0_g2_i17.p1PC2J_TRINITY_DN45813_c0_g2 -            100 31517at3193          -            554       0.4   11.0   0.0   1   1    0.0014      0.47   10.8   0.0   423   506    18    97    11    98 0.80 -
PC3A_TRINITY_DN41911_c0_g2_i1.p1PC3A_TRINITY_DN41911_c0_g2  -            137 31517at3193          -            554      0.41   11.0   0.7   1   3      0.36   1.2e+02    2.9   0.0   375   393     5    23     2    42 0.91 -
PC3A_TRINITY_DN41911_c0_g2_i1.p1PC3A_TRINITY_DN41911_c0_g2  -            137 31517at3193          -            554      0.41   11.0   0.7   2   3      0.12        41    4.4   0.0   373   393    52    72    30    88 0.80 -
PC3A_TRINITY_DN41911_c0_g2_i1.p1PC3A_TRINITY_DN41911_c0_g2  -            137 31517at3193          -            554      0.41   11.0   0.7   3   3       1.4   4.6e+02    0.9   0.0   481   510    93   125    82   133 0.78 -
PC1A_TRINITY_DN42062_c0_g4_i1.p1PC1A_TRINITY_DN42062_c0_g4  -            139 31517at3193          -            554      0.44   10.9   0.0   1   1    0.0015      0.51   10.7   0.0   371   397    92   118    72   134 0.83 -
PC2A_TRINITY_DN25911_c0_g1_i1.p1PC2A_TRINITY_DN25911_c0_g1  -            124 31517at3193          -            554      0.44   10.9   0.6   1   2    0.0078       2.6    8.4   0.3   377   407     3    33     1    76 0.77 -
PC2A_TRINITY_DN25911_c0_g1_i1.p1PC2A_TRINITY_DN25911_c0_g1  -            124 31517at3193          -            554      0.44   10.9   0.6   2   2      0.75   2.5e+02    1.8   0.0   374   411    54    91    47   115 0.80 -
PC3J_TRINITY_DN26092_c0_g1_i2.p1PC3J_TRINITY_DN26092_c0_g1  -            143 31517at3193          -            554      0.45   10.9   0.0   1   1    0.0014      0.46   10.8   0.0   370   409    53    92    17   128 0.85 -
PC3A_TRINITY_DN45175_c0_g1_i1.p1PC3A_TRINITY_DN45175_c0_g1  -            166 31517at3193          -            554      0.48   10.8   0.0   1   1    0.0014      0.48   10.8   0.0   330   385   111   166    49   166 0.82 -
PC2J_TRINITY_DN38400_c3_g1_i2.p1PC2J_TRINITY_DN38400_c3_g1  -            168 31517at3193          -            554      0.57   10.5   0.0   1   1    0.0017      0.57   10.5   0.0   356   404    58   106    36   151 0.86 -
PC3J_TRINITY_DN45882_c4_g1_i4.p1PC3J_TRINITY_DN45882_c4_g1  -            102 31517at3193          -            554      0.58   10.5   0.0   1   1    0.0025      0.84   10.0   0.0   377   427    12    74     5    86 0.74 -
PC1J_TRINITY_DN37597_c4_g2_i2.p1PC1J_TRINITY_DN37597_c4_g2  -            328 31517at3193          -            554      0.58   10.5   0.0   1   1    0.0027      0.89    9.9   0.0   369   395    91   117    74   132 0.84 -
PC3J_TRINITY_DN41813_c2_g2_i1.p1PC3J_TRINITY_DN41813_c2_g2  -            145 31517at3193          -            554      0.64   10.4   0.1   1   1    0.0025      0.83   10.0   0.1   374   395    92   113    75   119 0.84 -
PC2A_TRINITY_DN25257_c0_g1_i1.p2PC2A_TRINITY_DN25257_c0_g1  -            129 31517at3193          -            554      0.83   10.0   0.0   1   1    0.0031       1.1    9.7   0.0   368   392    27    51    19    58 0.85 -
PC1J_TRINITY_DN37866_c1_g2_i2.p1PC1J_TRINITY_DN37866_c1_g2  -            178 31517at3193          -            554      0.89    9.9   0.0   1   2       5.3   1.8e+03   -1.0   0.0   378   395     1    18     1    39 0.76 -
PC1J_TRINITY_DN37866_c1_g2_i2.p1PC1J_TRINITY_DN37866_c1_g2  -            178 31517at3193          -            554      0.89    9.9   0.0   2   2     0.008       2.7    8.3   0.0   360   395   108   143    94   166 0.79 -
#
# Program:         hmmsearch
# Version:         3.2.1 (June 2018)
# Pipeline mode:   SEARCH
# Query file:      /isg/shared/databases/BUSCO/odb10/embryophyta_odb10/hmms/31517at3193.hmm
# Target file:     Pine_final_annotations_no_contam_lvl0.faa
# Option settings: /usr/local/bin/hmmsearch --domtblout /labs/Wegrzyn/Juniper_Pine/BUSCO/NEW/busco_pine/run_embryophyta_odb10/hmmer_output/31517at3193.out --cpu 1 /isg/shared/databases/BUSCO/odb10/embryophyta_odb10/hmms/31517at3193.hmm Pine_final_annotations_no_contam_lvl0.faa 
# Current dir:     /labs/Wegrzyn/Juniper_Pine/BUSCO/NEW
# Date:            Thu Aug  6 14:56:00 2020
# [ok]
