#                                                                                                                   --- full sequence --- -------------- this domain -------------   hmm coord   ali coord   env coord
# target name                                               accession   tlen query name           accession   qlen   E-value  score  bias   #  of  c-Evalue  i-Evalue  score  bias  from    to  from    to  from    to  acc description of target
#                                       ------------------- ---------- ----- -------------------- ---------- ----- --------- ------ ----- --- --- --------- --------- ------ ----- ----- ----- ----- ----- ----- ----- ---- ---------------------
PC1A_TRINITY_DN46840_c0_g1_i1.p1PC1A_TRINITY_DN46840_c0_g1  -            110 33695at3193          -            460   5.6e-46  158.9   0.2   1   1   1.9e-49   6.1e-46  158.8   0.2   357   458     3   110     1   110 0.94 -
PC3J_TRINITY_DN1885_c0_g1_i1.p1PC3J_TRINITY_DN1885_c0_g1    -            125 33695at3193          -            460   4.7e-32  113.0   0.0   1   1   1.8e-35   5.8e-32  112.7   0.0   253   338     4    97     2   104 0.92 -
PC1A_TRINITY_DN19361_c0_g1_i1.p1PC1A_TRINITY_DN19361_c0_g1  -            218 33695at3193          -            460   6.1e-27   96.1   2.2   1   2   0.00071       2.3    8.5   1.4    54    88    36    68     1    95 0.68 -
PC1A_TRINITY_DN19361_c0_g1_i1.p1PC1A_TRINITY_DN19361_c0_g1  -            218 33695at3193          -            460   6.1e-27   96.1   2.2   2   2   4.6e-26   1.5e-22   81.7   0.0    76   162   125   217    95   218 0.82 -
PC2J_TRINITY_DN41663_c1_g1_i2.p1PC2J_TRINITY_DN41663_c1_g1  -            324 33695at3193          -            460   2.1e-10   41.6   0.0   1   3    0.0013       4.1    7.7   0.0    15    48     2    35     1    53 0.90 -
PC2J_TRINITY_DN41663_c1_g1_i2.p1PC2J_TRINITY_DN41663_c1_g1  -            324 33695at3193          -            460   2.1e-10   41.6   0.0   2   3   8.3e-10   2.6e-06   28.1   0.0   134   242    78   192    41   222 0.81 -
PC2J_TRINITY_DN41663_c1_g1_i2.p1PC2J_TRINITY_DN41663_c1_g1  -            324 33695at3193          -            460   2.1e-10   41.6   0.0   3   3     0.053   1.7e+02    2.4   0.0   344   390   274   319   253   322 0.87 -
PC1A_TRINITY_DN40675_c2_g1_i6.p1PC1A_TRINITY_DN40675_c2_g1  -            401 33695at3193          -            460   5.4e-10   40.2   0.0   1   3      0.87   2.8e+03   -1.7   0.0    22    51    34    64    26    94 0.79 -
PC1A_TRINITY_DN40675_c2_g1_i6.p1PC1A_TRINITY_DN40675_c2_g1  -            401 33695at3193          -            460   5.4e-10   40.2   0.0   2   3   2.4e-05     0.078   13.4   0.0   137   243   104   216    74   232 0.83 -
PC1A_TRINITY_DN40675_c2_g1_i6.p1PC1A_TRINITY_DN40675_c2_g1  -            401 33695at3193          -            460   5.4e-10   40.2   0.0   3   3   1.4e-08   4.6e-05   24.0   0.0   342   439   295   392   276   400 0.81 -
PC3A_TRINITY_DN42731_c0_g6_i2.p1PC3A_TRINITY_DN42731_c0_g6  -            294 33695at3193          -            460   7.1e-08   33.3   0.0   1   1   4.8e-09   1.5e-05   25.6   0.0   339   439   185   285    21   293 0.79 -
PC3J_TRINITY_DN48135_c0_g2_i2.p1PC3J_TRINITY_DN48135_c0_g2  -            165 33695at3193          -            460     1e-06   29.4   0.0   1   1   3.6e-10   1.2e-06   29.3   0.0   331   438    48   155    34   164 0.80 -
PC2J_TRINITY_DN41973_c1_g3_i2.p1PC2J_TRINITY_DN41973_c1_g3  -            285 33695at3193          -            460   1.2e-06   29.3   0.0   1   2   3.8e-06     0.012   16.0   0.0   137   244    36   149    11   192 0.85 -
PC2J_TRINITY_DN41973_c1_g3_i2.p1PC2J_TRINITY_DN41973_c1_g3  -            285 33695at3193          -            460   1.2e-06   29.3   0.0   2   2   8.3e-05      0.27   11.6   0.0   339   397   224   281   203   285 0.83 -
PC1J_TRINITY_DN37842_c1_g2_i2.p1PC1J_TRINITY_DN37842_c1_g2  -            134 33695at3193          -            460   5.9e-06   26.9   0.1   1   1   2.1e-09   6.8e-06   26.7   0.1   338   438     8   102     2   124 0.79 -
PC1J_TRINITY_DN40022_c2_g1_i5.p1PC1J_TRINITY_DN40022_c2_g1  -            120 33695at3193          -            460   6.2e-06   26.9   0.0   1   1   2.3e-09   7.2e-06   26.7   0.0   343   434    23   114    14   119 0.82 -
PC2A_TRINITY_DN24327_c0_g1_i1.p1PC2A_TRINITY_DN24327_c0_g1  -            104 33695at3193          -            460   8.4e-05   23.1   0.0   1   1   2.9e-08   9.4e-05   23.0   0.0   342   424     6    84     2   100 0.84 -
PC3A_TRINITY_DN37848_c2_g1_i3.p1PC3A_TRINITY_DN37848_c2_g1  -            348 33695at3193          -            460   9.9e-05   22.9   0.0   1   2      0.28     9e+02   -0.0   0.0   153   183   109   139   102   149 0.83 -
PC3A_TRINITY_DN37848_c2_g1_i3.p1PC3A_TRINITY_DN37848_c2_g1  -            348 33695at3193          -            460   9.9e-05   22.9   0.0   2   2   1.9e-07   0.00061   20.3   0.0   327   423   230   322   218   330 0.84 -
PC3J_TRINITY_DN48996_c3_g4_i2.p1PC3J_TRINITY_DN48996_c3_g4  -            256 33695at3193          -            460    0.0014   19.1   0.0   1   2   1.2e-06    0.0038   17.7   0.0   137   244    35   148    10   178 0.84 -
PC3J_TRINITY_DN48996_c3_g4_i2.p1PC3J_TRINITY_DN48996_c3_g4  -            256 33695at3193          -            460    0.0014   19.1   0.0   2   2      0.63     2e+03   -1.2   0.0   342   372   226   255   208   256 0.81 -
PC3J_TRINITY_DN48671_c0_g1_i8.p1PC3J_TRINITY_DN48671_c0_g1  -            218 33695at3193          -            460    0.0038   17.7   0.0   1   2   2.7e-05     0.085   13.2   0.0   339   403    18    81     9    87 0.86 -
PC3J_TRINITY_DN48671_c0_g1_i8.p1PC3J_TRINITY_DN48671_c0_g1  -            218 33695at3193          -            460    0.0038   17.7   0.0   2   2     0.069   2.2e+02    2.0   0.0   201   243    89   134    85   142 0.83 -
PC1J_TRINITY_DN40022_c2_g1_i30.p1PC1J_TRINITY_DN40022_c2_g1 -            187 33695at3193          -            460    0.0093   16.4   0.0   1   1   3.3e-06      0.01   16.2   0.0   137   244    57   170    17   180 0.82 -
PC1J_TRINITY_DN40022_c2_g1_i17.p1PC1J_TRINITY_DN40022_c2_g1 -            112 33695at3193          -            460    0.0098   16.3   0.0   1   1   3.4e-06     0.011   16.2   0.0   343   404    23    83    14   102 0.84 -
PC1J_TRINITY_DN40022_c2_g1_i23.p1PC1J_TRINITY_DN40022_c2_g1 -            215 33695at3193          -            460     0.012   16.0   0.0   1   2     0.012        39    4.5   0.0   196   244    19    70    13    91 0.84 -
PC1J_TRINITY_DN40022_c2_g1_i23.p1PC1J_TRINITY_DN40022_c2_g1 -            215 33695at3193          -            460     0.012   16.0   0.0   2   2   0.00033         1    9.6   0.0   341   387   147   192   127   201 0.84 -
PC3J_TRINITY_DN40829_c1_g3_i1.p1PC3J_TRINITY_DN40829_c1_g3  -            155 33695at3193          -            460     0.023   15.1   0.0   1   1   9.3e-06      0.03   14.7   0.0   338   403    77   141    57   144 0.84 -
PC2A_TRINITY_DN35106_c1_g3_i18.p1PC2A_TRINITY_DN35106_c1_g3 -            224 33695at3193          -            460     0.053   13.9   0.0   1   2      0.54   1.7e+03   -1.0   0.0    22    50    11    40     7    56 0.78 -
PC2A_TRINITY_DN35106_c1_g3_i18.p1PC2A_TRINITY_DN35106_c1_g3 -            224 33695at3193          -            460     0.053   13.9   0.0   2   2   5.9e-05      0.19   12.1   0.0   137   230    81   177    52   186 0.85 -
PC1J_TRINITY_DN35227_c4_g5_i1.p2PC1J_TRINITY_DN35227_c4_g5  -            157 33695at3193          -            460      0.56   10.5   0.0   1   1   0.00022      0.71   10.2   0.0    15   136    17   139     6   151 0.64 -
#
# Program:         hmmsearch
# Version:         3.2.1 (June 2018)
# Pipeline mode:   SEARCH
# Query file:      /isg/shared/databases/BUSCO/odb10/embryophyta_odb10/hmms/33695at3193.hmm
# Target file:     Pine_final_annotations_no_contam_lvl0.faa
# Option settings: /usr/local/bin/hmmsearch --domtblout /labs/Wegrzyn/Juniper_Pine/BUSCO/NEW/busco_pine/run_embryophyta_odb10/hmmer_output/33695at3193.out --cpu 1 /isg/shared/databases/BUSCO/odb10/embryophyta_odb10/hmms/33695at3193.hmm Pine_final_annotations_no_contam_lvl0.faa 
# Current dir:     /labs/Wegrzyn/Juniper_Pine/BUSCO/NEW
# Date:            Thu Aug  6 14:56:38 2020
# [ok]
