#                                                                                                                   --- full sequence --- -------------- this domain -------------   hmm coord   ali coord   env coord
# target name                                               accession   tlen query name           accession   qlen   E-value  score  bias   #  of  c-Evalue  i-Evalue  score  bias  from    to  from    to  from    to  acc description of target
#                                       ------------------- ---------- ----- -------------------- ---------- ----- --------- ------ ----- --- --- --------- --------- ------ ----- ----- ----- ----- ----- ----- ----- ---- ---------------------
PC1A_TRINITY_DN42223_c1_g2_i5.p1PC1A_TRINITY_DN42223_c1_g2  -            545 36176at3193          -            483  1.7e-211  704.7  15.4   1   2   8.4e-13   1.4e-09   38.9   0.5    14    53    44    93    38    96 0.90 -
PC1A_TRINITY_DN42223_c1_g2_i5.p1PC1A_TRINITY_DN42223_c1_g2  -            545 36176at3193          -            483  1.7e-211  704.7  15.4   2   2  7.9e-203  1.3e-199  665.6   8.7    51   415   127   539   114   541 0.92 -
PC1J_TRINITY_DN34559_c1_g1_i1.p1PC1J_TRINITY_DN34559_c1_g1  -            240 36176at3193          -            483  2.6e-108  364.4   0.0   1   1  1.9e-111  3.1e-108  364.2   0.0   279   483    12   222     4   222 0.96 -
PC1A_TRINITY_DN43748_c2_g2_i3.p1PC1A_TRINITY_DN43748_c2_g2  -            286 36176at3193          -            483  2.2e-105  354.8   0.1   1   1  1.5e-108  2.4e-105  354.7   0.1   223   483     4   265     1   265 0.94 -
PC1A_TRINITY_DN43029_c4_g5_i1.p1PC1A_TRINITY_DN43029_c4_g5  -            327 36176at3193          -            483   2.9e-55  189.5   0.1   1   1   2.2e-58   3.7e-55  189.2   0.1    65   235   147   327   133   327 0.90 -
PC2J_TRINITY_DN42705_c0_g2_i8.p1PC2J_TRINITY_DN42705_c0_g2  -            175 36176at3193          -            483   3.5e-50  172.7   1.2   1   1   4.8e-53   7.8e-50  171.6   1.2    51   159    29   160    23   168 0.86 -
PC1A_TRINITY_DN42699_c0_g2_i7.p1PC1A_TRINITY_DN42699_c0_g2  -            506 36176at3193          -            483     8e-23   82.5   4.2   1   2   1.3e-14   2.1e-11   44.8   0.0    92   202    99   218    82   254 0.82 -
PC1A_TRINITY_DN42699_c0_g2_i7.p1PC1A_TRINITY_DN42699_c0_g2  -            506 36176at3193          -            483     8e-23   82.5   4.2   2   2   2.5e-12     4e-09   37.3   2.0   310   415   389   502   383   505 0.80 -
PC1A_TRINITY_DN41149_c3_g1_i7.p1PC1A_TRINITY_DN41149_c3_g1  -            509 36176at3193          -            483   1.2e-21   78.6   0.2   1   2     1e-15   1.7e-12   48.5   0.0    90   201    68   188    61   194 0.85 -
PC1A_TRINITY_DN41149_c3_g1_i7.p1PC1A_TRINITY_DN41149_c3_g1  -            509 36176at3193          -            483   1.2e-21   78.6   0.2   2   2   1.7e-09   2.7e-06   28.0   0.0   298   417   351   482   329   492 0.79 -
PC3J_TRINITY_DN46663_c1_g1_i1.p1PC3J_TRINITY_DN46663_c1_g1  -            199 36176at3193          -            483   5.6e-18   66.5   4.9   1   2   3.9e-13   6.4e-10   40.0   0.4    14    53    37    86    31    90 0.87 -
PC3J_TRINITY_DN46663_c1_g1_i1.p1PC3J_TRINITY_DN46663_c1_g1  -            199 36176at3193          -            483   5.6e-18   66.5   4.9   2   2     2e-09   3.2e-06   27.8   0.4    51    87   120   169   105   174 0.78 -
PC1A_TRINITY_DN44087_c2_g4_i1.p1PC1A_TRINITY_DN44087_c2_g4  -            131 36176at3193          -            483   3.4e-15   57.4   0.3   1   1   2.6e-18   4.3e-15   57.0   0.3   315   414     3   113     1   121 0.82 -
PC1A_TRINITY_DN43204_c3_g5_i4.p1PC1A_TRINITY_DN43204_c3_g5  -            319 36176at3193          -            483   1.6e-14   55.2   0.0   1   1   1.4e-17   2.2e-14   54.7   0.0    90   196    77   192    66   202 0.84 -
PC1J_TRINITY_DN36457_c1_g3_i1.p1PC1J_TRINITY_DN36457_c1_g3  -            302 36176at3193          -            483   2.9e-14   54.3   0.0   1   1   2.1e-17   3.4e-14   54.1   0.0    91   202    88   208    57   244 0.85 -
PC3A_TRINITY_DN36936_c1_g1_i2.p1PC3A_TRINITY_DN36936_c1_g1  -            163 36176at3193          -            483   5.4e-14   53.4   0.0   1   1   3.9e-17   6.3e-14   53.2   0.0    90   201    28   148    19   159 0.85 -
PC3A_TRINITY_DN43027_c0_g1_i4.p1PC3A_TRINITY_DN43027_c0_g1  -            111 36176at3193          -            483   3.5e-12   47.4   4.4   1   2   4.3e-10     7e-07   29.9   0.3   348   408    10    72     3    83 0.75 -
PC3A_TRINITY_DN43027_c0_g1_i4.p1PC3A_TRINITY_DN43027_c0_g1  -            111 36176at3193          -            483   3.5e-12   47.4   4.4   2   2   1.6e-07   0.00027   21.4   0.6   351   391    69   111    61   111 0.73 -
PC1A_TRINITY_DN38686_c0_g2_i1.p1PC1A_TRINITY_DN38686_c0_g2  -            168 36176at3193          -            483   6.1e-12   46.6   0.0   1   1   4.4e-15   7.2e-12   46.4   0.0    91   202    42   163    33   167 0.83 -
PC2J_TRINITY_DN43274_c0_g2_i31.p1PC2J_TRINITY_DN43274_c0_g2 -            238 36176at3193          -            483   1.4e-11   45.4   0.0   1   1   1.6e-14   2.6e-11   44.5   0.0    99   202    53   165    49   202 0.81 -
PC3A_TRINITY_DN42294_c1_g1_i1.p1PC3A_TRINITY_DN42294_c1_g1  -            139 36176at3193          -            483   2.5e-10   41.3   1.3   1   2   1.9e-13     3e-10   41.0   0.4    14    53    25    74    18    78 0.88 -
PC3A_TRINITY_DN42294_c1_g1_i1.p1PC3A_TRINITY_DN42294_c1_g1  -            139 36176at3193          -            483   2.5e-10   41.3   1.3   2   2       2.9   4.8e+03   -2.5   0.0    51    64   108   121    96   123 0.72 -
PC1J_TRINITY_DN30214_c0_g1_i2.p1PC1J_TRINITY_DN30214_c0_g1  -            180 36176at3193          -            483   3.7e-10   40.7   0.0   1   1   2.8e-13   4.6e-10   40.4   0.0    90   200    61   180    53   180 0.86 -
PC3A_TRINITY_DN42409_c0_g1_i4.p1PC3A_TRINITY_DN42409_c0_g1  -            269 36176at3193          -            483   1.4e-09   38.9   0.2   1   2      0.95   1.6e+03   -0.9   0.0   276   303    82   109    74   121 0.68 -
PC3A_TRINITY_DN42409_c0_g1_i4.p1PC3A_TRINITY_DN42409_c0_g1  -            269 36176at3193          -            483   1.4e-09   38.9   0.2   2   2     3e-12     5e-09   37.0   0.1   309   414   137   253   128   263 0.73 -
PC1A_TRINITY_DN43276_c4_g1_i9.p1PC1A_TRINITY_DN43276_c4_g1  -            373 36176at3193          -            483   1.9e-09   38.4   0.4   1   3    0.0001      0.16   12.2   0.0   152   202    10    63     2   100 0.84 -
PC1A_TRINITY_DN43276_c4_g1_i9.p1PC1A_TRINITY_DN43276_c4_g1  -            373 36176at3193          -            483   1.9e-09   38.4   0.4   2   3       0.8   1.3e+03   -0.6   0.0   271   286   174   189   154   201 0.83 -
PC1A_TRINITY_DN43276_c4_g1_i9.p1PC1A_TRINITY_DN43276_c4_g1  -            373 36176at3193          -            483   1.9e-09   38.4   0.4   3   3   6.3e-08    0.0001   22.8   0.2   355   411   289   347   224   355 0.70 -
PC1J_TRINITY_DN23639_c0_g1_i1.p1PC1J_TRINITY_DN23639_c0_g1  -            214 36176at3193          -            483   9.8e-09   36.1   0.4   1   2      0.16   2.6e+02    1.7   0.0   274   288    58    72    32    97 0.77 -
PC1J_TRINITY_DN23639_c0_g1_i1.p1PC1J_TRINITY_DN23639_c0_g1  -            214 36176at3193          -            483   9.8e-09   36.1   0.4   2   2   8.4e-11   1.4e-07   32.3   0.3   310   395   114   212   107   214 0.83 -
PC1J_TRINITY_DN35397_c5_g1_i1.p1PC1J_TRINITY_DN35397_c5_g1  -            108 36176at3193          -            483   1.1e-08   36.0   0.0   1   1   7.3e-12   1.2e-08   35.8   0.0   353   406    35    87    13    93 0.80 -
PC2J_TRINITY_DN33576_c0_g2_i2.p1PC2J_TRINITY_DN33576_c0_g2  -            110 36176at3193          -            483   2.1e-08   35.0   0.1   1   1   1.4e-11   2.4e-08   34.8   0.1   345   422    12    91     7   102 0.90 -
PC2J_TRINITY_DN35884_c1_g3_i3.p1PC2J_TRINITY_DN35884_c1_g3  -            100 36176at3193          -            483   3.1e-08   34.4   0.1   1   1   1.9e-11   3.1e-08   34.4   0.1   360   409    47    98    20   100 0.84 -
PC1J_TRINITY_DN39999_c1_g2_i3.p1PC1J_TRINITY_DN39999_c1_g2  -            102 36176at3193          -            483   3.8e-07   30.8   0.0   1   1   2.8e-10   4.5e-07   30.6   0.0    98   169     9    87     4    95 0.84 -
PC3J_TRINITY_DN14848_c0_g1_i1.p1PC3J_TRINITY_DN14848_c0_g1  -            102 36176at3193          -            483   4.9e-07   30.5   0.1   1   1   3.4e-10   5.6e-07   30.3   0.1   139   202     7    74     3    85 0.87 -
PC1J_TRINITY_DN32398_c0_g1_i2.p1PC1J_TRINITY_DN32398_c0_g1  -            106 36176at3193          -            483   9.8e-07   29.5   0.2   1   1   6.8e-10   1.1e-06   29.3   0.2   345   411    24    92    10    99 0.90 -
PC3A_TRINITY_DN36797_c2_g2_i1.p1PC3A_TRINITY_DN36797_c2_g2  -            130 36176at3193          -            483     1e-06   29.4   0.0   1   1   6.4e-10     1e-06   29.4   0.0   119   199     7    94     2   125 0.77 -
PC3A_TRINITY_DN18744_c0_g1_i1.p1PC3A_TRINITY_DN18744_c0_g1  -            127 36176at3193          -            483   1.5e-06   28.9   0.0   1   1   9.4e-10   1.5e-06   28.8   0.0   123   201     3    89     1   125 0.81 -
PC2J_TRINITY_DN31255_c0_g1_i1.p1PC2J_TRINITY_DN31255_c0_g1  -            140 36176at3193          -            483   1.7e-06   28.7   0.1   1   1   1.2e-09     2e-06   28.4   0.1   137   213    20   100     2   128 0.71 -
PC3A_TRINITY_DN43027_c0_g1_i3.p1PC3A_TRINITY_DN43027_c0_g1  -            337 36176at3193          -            483   0.00012   22.6   0.8   1   3       1.2     2e+03   -1.3   0.0   182   202     2    22     1    58 0.73 -
PC3A_TRINITY_DN43027_c0_g1_i3.p1PC3A_TRINITY_DN43027_c0_g1  -            337 36176at3193          -            483   0.00012   22.6   0.8   2   3       4.7   7.6e+03   -3.2   0.0   273   286   135   148   107   157 0.76 -
PC3A_TRINITY_DN43027_c0_g1_i3.p1PC3A_TRINITY_DN43027_c0_g1  -            337 36176at3193          -            483   0.00012   22.6   0.8   3   3     7e-08   0.00012   22.6   0.8   310   391   247   337   240   337 0.77 -
PC1A_TRINITY_DN43204_c3_g1_i1.p1PC1A_TRINITY_DN43204_c3_g1  -            254 36176at3193          -            483   0.00013   22.4   0.1   1   1   1.5e-07   0.00024   21.6   0.1   364   411   193   240   182   247 0.91 -
PC3A_TRINITY_DN18998_c0_g1_i1.p1PC3A_TRINITY_DN18998_c0_g1  -            135 36176at3193          -            483    0.0005   20.5   0.1   1   1   4.2e-07   0.00069   20.1   0.1   139   199    13    77     7   117 0.85 -
PC2A_TRINITY_DN31947_c0_g2_i1.p1PC2A_TRINITY_DN31947_c0_g2  -            290 36176at3193          -            483   0.00057   20.3   0.2   1   1   5.8e-07   0.00095   19.6   0.2   302   396   179   284   165   288 0.78 -
PC1A_TRINITY_DN34347_c0_g2_i2.p1PC1A_TRINITY_DN34347_c0_g2  -            232 36176at3193          -            483    0.0006   20.3   0.0   1   2      0.75   1.2e+03   -0.5   0.0   276   303    84   111    75   123 0.68 -
PC1A_TRINITY_DN34347_c0_g2_i2.p1PC1A_TRINITY_DN34347_c0_g2  -            232 36176at3193          -            483    0.0006   20.3   0.0   2   2   1.6e-06    0.0026   18.2   0.0    91   148   167   229   159   231 0.84 -
PC3A_TRINITY_DN35501_c1_g1_i3.p1PC3A_TRINITY_DN35501_c1_g1  -            195 36176at3193          -            483   0.00065   20.2   0.3   1   2   0.00049      0.81   10.0   0.0    90   134    29    75    22    85 0.85 -
PC3A_TRINITY_DN35501_c1_g1_i3.p1PC3A_TRINITY_DN35501_c1_g1  -            195 36176at3193          -            483   0.00065   20.2   0.3   2   2    0.0013       2.1    8.6   0.2   175   202    87   114    74   126 0.90 -
PC2J_TRINITY_DN37155_c6_g1_i1.p1PC2J_TRINITY_DN37155_c6_g1  -            102 36176at3193          -            483     0.056   13.8   0.0   1   1   3.8e-05     0.061   13.6   0.0    89   133    29    75    21    88 0.86 -
PC2J_TRINITY_DN43274_c0_g2_i21.p1PC2J_TRINITY_DN43274_c0_g2 -            176 36176at3193          -            483     0.094   13.0   0.1   1   1   0.00011      0.18   12.1   0.0    91   132    98   141    80   147 0.84 -
PC2J_TRINITY_DN7250_c0_g1_i1.p1PC2J_TRINITY_DN7250_c0_g1    -            126 36176at3193          -            483      0.39   11.0   0.0   1   1   0.00033      0.54   10.5   0.0    90   116    88   114    75   122 0.89 -
PC3J_TRINITY_DN34851_c0_g1_i2.p1PC3J_TRINITY_DN34851_c0_g1  -            149 36176at3193          -            483      0.47   10.7   0.0   1   1   0.00035      0.58   10.4   0.0    90   131   101   147    92   149 0.80 -
#
# Program:         hmmsearch
# Version:         3.2.1 (June 2018)
# Pipeline mode:   SEARCH
# Query file:      /isg/shared/databases/BUSCO/odb10/embryophyta_odb10/hmms/36176at3193.hmm
# Target file:     Pine_final_annotations_no_contam_lvl0.faa
# Option settings: /usr/local/bin/hmmsearch --domtblout /labs/Wegrzyn/Juniper_Pine/BUSCO/NEW/busco_pine/run_embryophyta_odb10/hmmer_output/36176at3193.out --cpu 1 /isg/shared/databases/BUSCO/odb10/embryophyta_odb10/hmms/36176at3193.hmm Pine_final_annotations_no_contam_lvl0.faa 
# Current dir:     /labs/Wegrzyn/Juniper_Pine/BUSCO/NEW
# Date:            Thu Aug  6 14:57:01 2020
# [ok]
