#                                                                                                                   --- full sequence --- -------------- this domain -------------   hmm coord   ali coord   env coord
# target name                                               accession   tlen query name           accession   qlen   E-value  score  bias   #  of  c-Evalue  i-Evalue  score  bias  from    to  from    to  from    to  acc description of target
#                                       ------------------- ---------- ----- -------------------- ---------- ----- --------- ------ ----- --- --- --------- --------- ------ ----- ----- ----- ----- ----- ----- ----- ---- ---------------------
PC2J_TRINITY_DN37936_c3_g3_i3.p1PC2J_TRINITY_DN37936_c3_g3  -            502 37548at3193          -            571  3.7e-260  865.9   2.9   1   2   6.1e-85     3e-81  275.2   0.1   238   366    17   145    12   145 0.98 -
PC2J_TRINITY_DN37936_c3_g3_i3.p1PC2J_TRINITY_DN37936_c3_g3  -            502 37548at3193          -            571  3.7e-260  865.9   2.9   2   2  1.1e-179  5.5e-176  588.0   0.8   251   563   144   494   143   500 0.91 -
PC2J_TRINITY_DN37936_c3_g1_i2.p1PC2J_TRINITY_DN37936_c3_g1  -            232 37548at3193          -            571  7.3e-139  465.4   0.0   1   1  1.7e-142  8.2e-139  465.3   0.0    30   258     1   232     1   232 1.00 -
PC3A_TRINITY_DN34461_c0_g1_i3.p1PC3A_TRINITY_DN34461_c0_g1  -            183 37548at3193          -            571   5.4e-66  224.9   0.2   1   1   1.3e-69   6.2e-66  224.7   0.2   103   232    51   183    28   183 0.92 -
PC1J_TRINITY_DN28452_c0_g1_i1.p1PC1J_TRINITY_DN28452_c0_g1  -            107 37548at3193          -            571   6.4e-15   56.2   0.0   1   1   1.5e-18   7.1e-15   56.1   0.0   474   522    40    91     5   101 0.82 -
PC3A_TRINITY_DN35653_c3_g1_i4.p1PC3A_TRINITY_DN35653_c3_g1  -            125 37548at3193          -            571     0.013   15.6   0.5   1   1   3.5e-06     0.017   15.2   0.5     3    31    15    43    13    57 0.93 -
PC2A_TRINITY_DN35442_c1_g1_i4.p1PC2A_TRINITY_DN35442_c1_g1  -            454 37548at3193          -            571     0.037   14.1   0.4   1   1   1.3e-05     0.063   13.3   0.4     3    31    15    43    13    51 0.93 -
PC1A_TRINITY_DN40992_c1_g1_i1.p1PC1A_TRINITY_DN40992_c1_g1  -            214 37548at3193          -            571       0.1   12.6   0.0   1   1   2.7e-05      0.13   12.3   0.0   258   309    76   128    61   138 0.81 -
PC3J_TRINITY_DN41922_c1_g1_i4.p1PC3J_TRINITY_DN41922_c1_g1  -            133 37548at3193          -            571      0.11   12.6   0.3   1   1   2.2e-05      0.11   12.6   0.3     2    30    29    57    28   104 0.85 -
PC3J_TRINITY_DN47962_c2_g3_i6.p1PC3J_TRINITY_DN47962_c2_g3  -            174 37548at3193          -            571      0.18   11.9   0.0   1   1   4.9e-05      0.24   11.4   0.0   402   446   118   162   102   167 0.90 -
PC2J_TRINITY_DN43056_c1_g1_i1.p1PC2J_TRINITY_DN43056_c1_g1  -            381 37548at3193          -            571      0.19   11.8   0.3   1   2    0.0023        12    5.9   0.2     1    32    43    74    43    78 0.93 -
PC2J_TRINITY_DN43056_c1_g1_i1.p1PC2J_TRINITY_DN43056_c1_g1  -            381 37548at3193          -            571      0.19   11.8   0.3   2   2    0.0085        42    4.0   0.0   116   151   291   325   277   336 0.84 -
PC2J_TRINITY_DN44778_c1_g2_i8.p1PC2J_TRINITY_DN44778_c1_g2  -            117 37548at3193          -            571      0.27   11.3   0.1   1   1   7.2e-05      0.35   10.9   0.1     2    35    68   101    67   105 0.93 -
PC3A_TRINITY_DN43823_c0_g1_i15.p1PC3A_TRINITY_DN43823_c0_g1 -            510 37548at3193          -            571      0.48   10.4   0.3   1   1   0.00018       0.9    9.5   0.3     2    30    45    73    44   116 0.89 -
PC3A_TRINITY_DN45742_c0_g1_i1.p1PC3A_TRINITY_DN45742_c0_g1  -            166 37548at3193          -            571       0.5   10.4   0.4   1   1   0.00014      0.67   10.0   0.4     5    31    25    51    21    60 0.92 -
#
# Program:         hmmsearch
# Version:         3.2.1 (June 2018)
# Pipeline mode:   SEARCH
# Query file:      /isg/shared/databases/BUSCO/odb10/embryophyta_odb10/hmms/37548at3193.hmm
# Target file:     Pine_final_annotations_no_contam_lvl0.faa
# Option settings: /usr/local/bin/hmmsearch --domtblout /labs/Wegrzyn/Juniper_Pine/BUSCO/NEW/busco_pine/run_embryophyta_odb10/hmmer_output/37548at3193.out --cpu 1 /isg/shared/databases/BUSCO/odb10/embryophyta_odb10/hmms/37548at3193.hmm Pine_final_annotations_no_contam_lvl0.faa 
# Current dir:     /labs/Wegrzyn/Juniper_Pine/BUSCO/NEW
# Date:            Thu Aug  6 14:57:17 2020
# [ok]
