#                                                                                                                   --- full sequence --- -------------- this domain -------------   hmm coord   ali coord   env coord
# target name                                               accession   tlen query name           accession   qlen   E-value  score  bias   #  of  c-Evalue  i-Evalue  score  bias  from    to  from    to  from    to  acc description of target
#                                       ------------------- ---------- ----- -------------------- ---------- ----- --------- ------ ----- --- --- --------- --------- ------ ----- ----- ----- ----- ----- ----- ----- ---- ---------------------
PC1A_TRINITY_DN36402_c0_g1_i1.p1PC1A_TRINITY_DN36402_c0_g1  -            223 3755at3193           -            920   1.7e-83  282.8   0.0   1   1   7.1e-87   1.9e-83  282.6   0.0   399   586     3   223     1   223 0.89 -
PC2J_TRINITY_DN31120_c0_g1_i1.p1PC2J_TRINITY_DN31120_c0_g1  -            143 3755at3193           -            920   1.4e-55  190.4   0.3   1   1   5.7e-59   1.5e-55  190.3   0.3    89   221     1   143     1   143 0.93 -
PC1A_TRINITY_DN44548_c1_g6_i2.p1PC1A_TRINITY_DN44548_c1_g6  -            202 3755at3193           -            920   2.9e-42  146.3   0.6   1   1   1.3e-45   3.3e-42  146.1   0.6   758   919     3   175     1   176 0.88 -
PC2J_TRINITY_DN8436_c0_g1_i1.p1PC2J_TRINITY_DN8436_c0_g1    -            100 3755at3193           -            920     3e-40  139.7   0.1   1   1   1.2e-43   3.2e-40  139.6   0.1   577   649     3    75     1    87 0.97 -
PC3J_TRINITY_DN49383_c0_g1_i1.p1PC3J_TRINITY_DN49383_c0_g1  -           1113 3755at3193           -            920   6.1e-38  132.0   0.9   1   5     0.001       2.7    7.4   0.0   346   401   390   448   319   464 0.77 -
PC3J_TRINITY_DN49383_c0_g1_i1.p1PC3J_TRINITY_DN49383_c0_g1  -           1113 3755at3193           -            920   6.1e-38  132.0   0.9   2   5     0.056   1.5e+02    1.7   0.0   526   563   521   558   516   563 0.90 -
PC3J_TRINITY_DN49383_c0_g1_i1.p1PC3J_TRINITY_DN49383_c0_g1  -           1113 3755at3193           -            920   6.1e-38  132.0   0.9   3   5   0.00099       2.6    7.5   0.0   601   672   653   724   642   736 0.86 -
PC3J_TRINITY_DN49383_c0_g1_i1.p1PC3J_TRINITY_DN49383_c0_g1  -           1113 3755at3193           -            920   6.1e-38  132.0   0.9   4   5     4e-25   1.1e-21   78.3   0.2   693   860   815  1002   801  1004 0.81 -
PC3J_TRINITY_DN49383_c0_g1_i1.p1PC3J_TRINITY_DN49383_c0_g1  -           1113 3755at3193           -            920   6.1e-38  132.0   0.9   5   5   2.8e-10   7.4e-07   29.2   0.0   823   889  1002  1067   998  1074 0.87 -
PC3A_TRINITY_DN37030_c1_g6_i3.p1PC3A_TRINITY_DN37030_c1_g6  -            189 3755at3193           -            920   2.3e-36  126.8   0.5   1   1     1e-39   2.8e-36  126.5   0.5   521   642    58   179    36   184 0.95 -
PC3A_TRINITY_DN11784_c0_g1_i1.p1PC3A_TRINITY_DN11784_c0_g1  -            103 3755at3193           -            920   9.9e-36  124.7   0.4   1   1     8e-39   2.1e-35  123.6   0.4   772   845    26   103     1   103 0.81 -
PC2J_TRINITY_DN46352_c1_g1_i2.p1PC2J_TRINITY_DN46352_c1_g1  -            311 3755at3193           -            920   1.2e-28  101.2   0.1   1   1   7.9e-31   2.1e-27   97.2   0.1   692   889    49   265    39   273 0.81 -
PC1J_TRINITY_DN35413_c0_g6_i1.p1PC1J_TRINITY_DN35413_c0_g6  -            129 3755at3193           -            920   3.1e-26   93.3   0.0   1   1   1.3e-29   3.5e-26   93.1   0.0    22   102    19   111     7   124 0.87 -
PC3A_TRINITY_DN36685_c2_g1_i1.p2PC3A_TRINITY_DN36685_c2_g1  -            143 3755at3193           -            920   4.1e-24   86.3   0.1   1   1   1.7e-27   4.6e-24   86.1   0.1   663   764    31   138     8   141 0.85 -
PC3A_TRINITY_DN14127_c0_g1_i1.p1PC3A_TRINITY_DN14127_c0_g1  -            122 3755at3193           -            920     6e-24   85.7   1.7   1   1   2.6e-27   6.9e-24   85.5   1.7   551   642     1    92     1   102 0.96 -
PC1A_TRINITY_DN32430_c0_g2_i1.p1PC1A_TRINITY_DN32430_c0_g2  -            109 3755at3193           -            920   8.5e-23   81.9   0.8   1   1   7.8e-26   2.1e-22   80.6   0.8   136   218     5    94     2   107 0.87 -
PC3J_TRINITY_DN11318_c0_g1_i1.p1PC3J_TRINITY_DN11318_c0_g1  -            124 3755at3193           -            920   1.8e-19   70.9   0.1   1   1     8e-23   2.1e-19   70.7   0.1   823   919     8   109     5   110 0.89 -
PC2A_TRINITY_DN36814_c0_g1_i1.p1PC2A_TRINITY_DN36814_c0_g1  -            102 3755at3193           -            920   2.5e-19   70.4   0.4   1   1   1.7e-22   4.5e-19   69.6   0.4   646   714    12   102     2   102 0.78 -
PC3J_TRINITY_DN49383_c0_g1_i11.p1PC3J_TRINITY_DN49383_c0_g1 -            199 3755at3193           -            920   1.7e-18   67.7   0.2   1   2   3.8e-12     1e-08   35.4   0.1   795   860    46   111    29   113 0.89 -
PC3J_TRINITY_DN49383_c0_g1_i11.p1PC3J_TRINITY_DN49383_c0_g1 -            199 3755at3193           -            920   1.7e-18   67.7   0.2   2   2   4.6e-11   1.2e-07   31.7   0.0   823   875   111   163   108   178 0.91 -
PC2A_TRINITY_DN35943_c0_g1_i18.p2PC2A_TRINITY_DN35943_c0_g1 -            226 3755at3193           -            920   1.8e-14   54.4   0.1   1   2    0.0079        21    4.5   0.0   795   833    49    87    33    96 0.82 -
PC2A_TRINITY_DN35943_c0_g1_i18.p2PC2A_TRINITY_DN35943_c0_g1 -            226 3755at3193           -            920   1.8e-14   54.4   0.1   2   2   3.4e-16   8.9e-13   48.8   0.0   800   889    92   180    87   189 0.88 -
PC1A_TRINITY_DN44776_c0_g1_i2.p1PC1A_TRINITY_DN44776_c0_g1  -            151 3755at3193           -            920   1.8e-09   37.9   0.0   1   1   7.8e-13   2.1e-09   37.6   0.0   795   858    76   139    60   150 0.87 -
PC3A_TRINITY_DN37690_c0_g6_i2.p1PC3A_TRINITY_DN37690_c0_g6  -            362 3755at3193           -            920   4.9e-07   29.8   0.0   1   1   2.5e-10   6.6e-07   29.3   0.0    44   178    59   202    33   210 0.70 -
PC3J_TRINITY_DN49383_c0_g1_i15.p1PC3J_TRINITY_DN49383_c0_g1 -            105 3755at3193           -            920   3.7e-06   26.9   0.1   1   1   1.6e-09   4.2e-06   26.7   0.1   795   849    30    84    16    91 0.89 -
PC2J_TRINITY_DN43624_c0_g2_i2.p1PC2J_TRINITY_DN43624_c0_g2  -            215 3755at3193           -            920     9e-06   25.6   0.0   1   1   4.2e-09   1.1e-05   25.3   0.0    45    94     7    58     3    87 0.85 -
PC2J_TRINITY_DN38159_c0_g1_i1.p1PC2J_TRINITY_DN38159_c0_g1  -            220 3755at3193           -            920   4.8e-05   23.2   0.0   1   1   1.8e-08   4.8e-05   23.2   0.0   295   389   129   220    11   220 0.84 -
PC2J_TRINITY_DN36100_c4_g3_i1.p1PC2J_TRINITY_DN36100_c4_g3  -            125 3755at3193           -            920   0.00016   21.4   0.0   1   1   6.4e-08   0.00017   21.3   0.0   377   457     2    86     1   108 0.79 -
PC1A_TRINITY_DN41540_c0_g2_i3.p1PC1A_TRINITY_DN41540_c0_g2  -            284 3755at3193           -            920     0.026   14.1   0.1   1   2    0.0013       3.4    7.1   0.0   137   175    75   113    65   120 0.82 -
PC1A_TRINITY_DN41540_c0_g2_i3.p1PC1A_TRINITY_DN41540_c0_g2  -            284 3755at3193           -            920     0.026   14.1   0.1   2   2    0.0071        19    4.7   0.0   139   177   137   174   130   179 0.82 -
PC3J_TRINITY_DN46641_c0_g1_i1.p1PC3J_TRINITY_DN46641_c0_g1  -            191 3755at3193           -            920      0.16   11.5   0.0   1   1   7.2e-05      0.19   11.2   0.0   722   763    80   123    65   144 0.80 -
#
# Program:         hmmsearch
# Version:         3.2.1 (June 2018)
# Pipeline mode:   SEARCH
# Query file:      /isg/shared/databases/BUSCO/odb10/embryophyta_odb10/hmms/3755at3193.hmm
# Target file:     Pine_final_annotations_no_contam_lvl0.faa
# Option settings: /usr/local/bin/hmmsearch --domtblout /labs/Wegrzyn/Juniper_Pine/BUSCO/NEW/busco_pine/run_embryophyta_odb10/hmmer_output/3755at3193.out --cpu 1 /isg/shared/databases/BUSCO/odb10/embryophyta_odb10/hmms/3755at3193.hmm Pine_final_annotations_no_contam_lvl0.faa 
# Current dir:     /labs/Wegrzyn/Juniper_Pine/BUSCO/NEW
# Date:            Thu Aug  6 14:57:18 2020
# [ok]
