#                                                                                                                  --- full sequence --- -------------- this domain -------------   hmm coord   ali coord   env coord
# target name                                              accession   tlen query name           accession   qlen   E-value  score  bias   #  of  c-Evalue  i-Evalue  score  bias  from    to  from    to  from    to  acc description of target
#                                      ------------------- ---------- ----- -------------------- ---------- ----- --------- ------ ----- --- --- --------- --------- ------ ----- ----- ----- ----- ----- ----- ----- ---- ---------------------
PC2J_TRINITY_DN42120_c1_g1_i1.p1PC2J_TRINITY_DN42120_c1_g1 -            769 4115at3193           -            946         0 1046.4  10.3   1   3   2.6e-24   8.7e-21   75.5   0.5    36   134     1   126     1   151 0.76 -
PC2J_TRINITY_DN42120_c1_g1_i1.p1PC2J_TRINITY_DN42120_c1_g1 -            769 4115at3193           -            946         0 1046.4  10.3   2   3  2.5e-202  8.5e-199  664.6   0.2   134   503   183   576   173   599 0.95 -
PC2J_TRINITY_DN42120_c1_g1_i1.p1PC2J_TRINITY_DN42120_c1_g1 -            769 4115at3193           -            946         0 1046.4  10.3   3   3   4.6e-95   1.6e-91  309.6   0.4   498   661   599   769   585   769 0.94 -
PC2J_TRINITY_DN42120_c1_g1_i7.p1PC2J_TRINITY_DN42120_c1_g1 -            425 4115at3193           -            946  7.3e-129  433.2  10.0   1   3   9.7e-25   3.2e-21   76.9   0.6    36   135     1   127     1   152 0.76 -
PC2J_TRINITY_DN42120_c1_g1_i7.p1PC2J_TRINITY_DN42120_c1_g1 -            425 4115at3193           -            946  7.3e-129  433.2  10.0   2   3     2e-20   6.8e-17   62.6   0.2   134   201   183   263   173   263 0.90 -
PC2J_TRINITY_DN42120_c1_g1_i7.p1PC2J_TRINITY_DN42120_c1_g1 -            425 4115at3193           -            946  7.3e-129  433.2  10.0   3   3   6.3e-91   2.1e-87  295.9   0.4   507   661   264   425   264   425 0.96 -
PC1A_TRINITY_DN37778_c0_g1_i1.p1PC1A_TRINITY_DN37778_c0_g1 -            215 4115at3193           -            946     1e-77  263.9   3.5   1   1   3.7e-81   1.2e-77  263.6   3.5   779   946    32   207    22   207 0.92 -
PC3J_TRINITY_DN39754_c5_g1_i1.p1PC3J_TRINITY_DN39754_c5_g1 -            106 4115at3193           -            946   1.2e-45  157.8   0.7   1   1   3.9e-49   1.3e-45  157.6   0.7   831   928     5    98     1   101 0.95 -
PC1J_TRINITY_DN39286_c0_g4_i3.p1PC1J_TRINITY_DN39286_c0_g4 -            155 4115at3193           -            946   8.9e-40  138.3   1.6   1   2   2.6e-25   8.7e-22   78.8   0.2   447   503     1    60     1    82 0.91 -
PC1J_TRINITY_DN39286_c0_g4_i3.p1PC1J_TRINITY_DN39286_c0_g4 -            155 4115at3193           -            946   8.9e-40  138.3   1.6   2   2   1.8e-19   6.1e-16   59.4   0.1   498   546    83   132    67   140 0.89 -
PC3A_TRINITY_DN32571_c0_g1_i3.p1PC3A_TRINITY_DN32571_c0_g1 -            139 4115at3193           -            946   6.7e-30  105.6   0.0   1   1   2.3e-33   7.7e-30  105.4   0.0     1    87    37   127    37   136 0.91 -
PC1J_TRINITY_DN39286_c0_g4_i4.p1PC1J_TRINITY_DN39286_c0_g4 -            113 4115at3193           -            946   7.5e-21   75.7   1.2   1   2     5e-06     0.017   14.9   0.1   517   541     1    26     1    37 0.85 -
PC1J_TRINITY_DN39286_c0_g4_i4.p1PC1J_TRINITY_DN39286_c0_g4 -            113 4115at3193           -            946   7.5e-21   75.7   1.2   2   2   1.2e-19     4e-16   60.1   0.1   499   546    42    90    34    98 0.90 -
PC2J_TRINITY_DN42120_c1_g1_i3.p1PC2J_TRINITY_DN42120_c1_g1 -            105 4115at3193           -            946   3.7e-16   60.2   0.1   1   1   1.3e-19   4.4e-16   59.9   0.1   455   501    40    89    30    97 0.90 -
PC3J_TRINITY_DN40636_c1_g1_i7.p1PC3J_TRINITY_DN40636_c1_g1 -            285 4115at3193           -            946   0.00081   19.3   0.0   1   2   0.00087       2.9    7.5   0.0   347   378    24    56     6    61 0.85 -
PC3J_TRINITY_DN40636_c1_g1_i7.p1PC3J_TRINITY_DN40636_c1_g1 -            285 4115at3193           -            946   0.00081   19.3   0.0   2   2   0.00018      0.62    9.8   0.0   347   381   244   279   202   283 0.90 -
PC1J_TRINITY_DN34732_c0_g1_i7.p1PC1J_TRINITY_DN34732_c0_g1 -            171 4115at3193           -            946     0.037   13.8   0.0   1   1   1.3e-05     0.044   13.6   0.0   203   238   103   138    78   151 0.79 -
PC3A_TRINITY_DN39296_c2_g1_i3.p1PC3A_TRINITY_DN39296_c2_g1 -            175 4115at3193           -            946     0.067   13.0   0.2   1   1   2.4e-05     0.082   12.7   0.2   203   237   102   136    77   148 0.83 -
PC3A_TRINITY_DN36903_c2_g3_i2.p1PC3A_TRINITY_DN36903_c2_g3 -            171 4115at3193           -            946      0.17   11.6   0.0   1   2     0.011        36    3.9   0.0   158   193    53    88    13    95 0.75 -
PC3A_TRINITY_DN36903_c2_g3_i2.p1PC3A_TRINITY_DN36903_c2_g3 -            171 4115at3193           -            946      0.17   11.6   0.0   2   2    0.0022       7.2    6.2   0.0   341   369    93   121    89   136 0.80 -
PC3A_TRINITY_DN36903_c2_g3_i1.p1PC3A_TRINITY_DN36903_c2_g3 -            204 4115at3193           -            946      0.28   10.9   0.0   1   2     0.017        57    3.3   0.0   159   193    54    88    15    94 0.76 -
PC3A_TRINITY_DN36903_c2_g3_i1.p1PC3A_TRINITY_DN36903_c2_g3 -            204 4115at3193           -            946      0.28   10.9   0.0   2   2    0.0027       8.9    5.9   0.0   341   369    93   121    88   136 0.80 -
PC1A_TRINITY_DN44957_c0_g1_i1.p1PC1A_TRINITY_DN44957_c0_g1 -            100 4115at3193           -            946      0.29   10.9   1.4   1   1    0.0001      0.34   10.6   1.4   164   247    11    88     6    98 0.88 -
PC3J_TRINITY_DN44867_c1_g4_i1.p1PC3J_TRINITY_DN44867_c1_g4 -            135 4115at3193           -            946       0.3   10.8   0.1   1   1   9.7e-05      0.32   10.7   0.1   206   244    75   113    45   124 0.84 -
PC3A_TRINITY_DN11718_c0_g1_i1.p1PC3A_TRINITY_DN11718_c0_g1 -            186 4115at3193           -            946       0.5   10.1   0.0   1   1    0.0002      0.68    9.6   0.0   370   412    85   126    59   133 0.85 -
PC3J_TRINITY_DN44867_c1_g4_i3.p1PC3J_TRINITY_DN44867_c1_g4 -            181 4115at3193           -            946      0.51   10.1   0.1   1   1   0.00018      0.61    9.8   0.1   206   244   121   159    92   170 0.85 -
PC1A_TRINITY_DN43246_c0_g1_i2.p1PC1A_TRINITY_DN43246_c0_g1 -            332 4115at3193           -            946      0.62    9.8   0.0   1   2      0.11   3.7e+02    0.6   0.0   157   190   158   190   135   199 0.83 -
PC1A_TRINITY_DN43246_c0_g1_i2.p1PC1A_TRINITY_DN43246_c0_g1 -            332 4115at3193           -            946      0.62    9.8   0.0   2   2    0.0015         5    6.8   0.0   167   232   255   320   243   327 0.84 -
PC1J_TRINITY_DN35913_c5_g1_i1.p1PC1J_TRINITY_DN35913_c5_g1 -            218 4115at3193           -            946       1.9    8.2   3.1   1   3   0.00068       2.3    7.9   1.5   173   246    37   104    31   118 0.66 -
PC1J_TRINITY_DN35913_c5_g1_i1.p1PC1J_TRINITY_DN35913_c5_g1 -            218 4115at3193           -            946       1.9    8.2   3.1   2   3      0.51   1.7e+03   -1.6   0.0   209   236   150   177   102   181 0.83 -
PC1J_TRINITY_DN35913_c5_g1_i1.p1PC1J_TRINITY_DN35913_c5_g1 -            218 4115at3193           -            946       1.9    8.2   3.1   3   3       1.2   4.2e+03   -2.9   0.0   206   221   189   204   186   209 0.84 -
#
# Program:         hmmsearch
# Version:         3.2.1 (June 2018)
# Pipeline mode:   SEARCH
# Query file:      /isg/shared/databases/BUSCO/odb10/embryophyta_odb10/hmms/4115at3193.hmm
# Target file:     Pine_final_annotations_no_contam_lvl0.faa
# Option settings: /usr/local/bin/hmmsearch --domtblout /labs/Wegrzyn/Juniper_Pine/BUSCO/NEW/busco_pine/run_embryophyta_odb10/hmmer_output/4115at3193.out --cpu 1 /isg/shared/databases/BUSCO/odb10/embryophyta_odb10/hmms/4115at3193.hmm Pine_final_annotations_no_contam_lvl0.faa 
# Current dir:     /labs/Wegrzyn/Juniper_Pine/BUSCO/NEW
# Date:            Thu Aug  6 14:58:48 2020
# [ok]
