#                                                                                                                  --- full sequence --- -------------- this domain -------------   hmm coord   ali coord   env coord
# target name                                              accession   tlen query name           accession   qlen   E-value  score  bias   #  of  c-Evalue  i-Evalue  score  bias  from    to  from    to  from    to  acc description of target
#                                      ------------------- ---------- ----- -------------------- ---------- ----- --------- ------ ----- --- --- --------- --------- ------ ----- ----- ----- ----- ----- ----- ----- ---- ---------------------
PC3J_TRINITY_DN39458_c6_g4_i1.p1PC3J_TRINITY_DN39458_c6_g4 -            380 44042at3193          -            514     8e-92  310.0   3.1   1   1   9.5e-91   1.5e-86  292.6   3.1   157   410     1   342     1   357 0.81 -
PC2J_TRINITY_DN47566_c0_g1_i1.p1PC2J_TRINITY_DN47566_c0_g1 -            170 44042at3193          -            514   2.7e-74  252.2   0.4   1   2   1.3e-58   2.1e-54  186.6   0.1    38   134     5   102     2   106 0.97 -
PC2J_TRINITY_DN47566_c0_g1_i1.p1PC2J_TRINITY_DN47566_c0_g1 -            170 44042at3193          -            514   2.7e-74  252.2   0.4   2   2   1.8e-21   2.9e-17   64.1   0.0   117   164   112   159   110   166 0.91 -
PC1J_TRINITY_DN30198_c0_g1_i2.p1PC1J_TRINITY_DN30198_c0_g1 -            134 44042at3193          -            514   2.5e-45  156.7   0.1   1   1   1.8e-49   2.8e-45  156.5   0.1   313   427     3   119     1   130 0.90 -
PC2A_TRINITY_DN4217_c0_g1_i1.p1PC2A_TRINITY_DN4217_c0_g1   -            100 44042at3193          -            514   7.5e-29  102.3   0.0   1   1   5.6e-33   8.8e-29  102.0   0.0   425   494     2    79     1    85 0.86 -
#
# Program:         hmmsearch
# Version:         3.2.1 (June 2018)
# Pipeline mode:   SEARCH
# Query file:      /isg/shared/databases/BUSCO/odb10/embryophyta_odb10/hmms/44042at3193.hmm
# Target file:     Pine_final_annotations_no_contam_lvl0.faa
# Option settings: /usr/local/bin/hmmsearch --domtblout /labs/Wegrzyn/Juniper_Pine/BUSCO/NEW/busco_pine/run_embryophyta_odb10/hmmer_output/44042at3193.out --cpu 1 /isg/shared/databases/BUSCO/odb10/embryophyta_odb10/hmms/44042at3193.hmm Pine_final_annotations_no_contam_lvl0.faa 
# Current dir:     /labs/Wegrzyn/Juniper_Pine/BUSCO/NEW
# Date:            Thu Aug  6 14:59:56 2020
# [ok]
