#                                                                                                                   --- full sequence --- -------------- this domain -------------   hmm coord   ali coord   env coord
# target name                                               accession   tlen query name           accession   qlen   E-value  score  bias   #  of  c-Evalue  i-Evalue  score  bias  from    to  from    to  from    to  acc description of target
#                                       ------------------- ---------- ----- -------------------- ---------- ----- --------- ------ ----- --- --- --------- --------- ------ ----- ----- ----- ----- ----- ----- ----- ---- ---------------------
PC2J_TRINITY_DN40289_c5_g2_i1.p1PC2J_TRINITY_DN40289_c5_g2  -            314 44473at3193          -            434   4.8e-87  294.1   1.7   1   2   5.6e-15     1e-11   45.8   0.2    38   110     6   114     2   117 0.68 -
PC2J_TRINITY_DN40289_c5_g2_i1.p1PC2J_TRINITY_DN40289_c5_g2  -            314 44473at3193          -            434   4.8e-87  294.1   1.7   2   2   8.7e-75   1.6e-71  242.9   0.1   115   260   160   314   135   314 0.92 -
PC2J_TRINITY_DN37059_c1_g6_i2.p1PC2J_TRINITY_DN37059_c1_g6  -            180 44473at3193          -            434   3.3e-77  261.7   0.1   1   1   2.3e-80   4.2e-77  261.3   0.1   259   420     1   175     1   178 0.94 -
PC2J_TRINITY_DN40289_c5_g2_i4.p1PC2J_TRINITY_DN40289_c5_g2  -            181 44473at3193          -            434   6.3e-71  241.0   0.0   1   1   3.9e-74   7.1e-71  240.8   0.0   118   260    30   181    11   181 0.93 -
PC3J_TRINITY_DN47301_c0_g4_i1.p1PC3J_TRINITY_DN47301_c0_g4  -            252 44473at3193          -            434   1.4e-39  137.7   0.0   1   1   9.6e-43   1.7e-39  137.3   0.0   128   294    39   215    30   225 0.91 -
PC3J_TRINITY_DN44778_c0_g1_i5.p1PC3J_TRINITY_DN44778_c0_g1  -            557 44473at3193          -            434   3.2e-39  136.5   0.2   1   2       2.5   4.6e+03   -2.4   0.0   130   182    11    63     7    71 0.78 -
PC3J_TRINITY_DN44778_c0_g1_i5.p1PC3J_TRINITY_DN44778_c0_g1  -            557 44473at3193          -            434   3.2e-39  136.5   0.2   2   2     4e-42   7.3e-39  135.3   0.1   132   416   253   546   203   554 0.79 -
PC2A_TRINITY_DN27485_c0_g2_i1.p1PC2A_TRINITY_DN27485_c0_g2  -            181 44473at3193          -            434   6.5e-29  102.5   0.0   1   1   4.6e-32   8.3e-29  102.2   0.0   129   262    14   157    11   170 0.89 -
PC1J_TRINITY_DN39933_c0_g1_i5.p1PC1J_TRINITY_DN39933_c0_g1  -            141 44473at3193          -            434   1.1e-24   88.6   0.0   1   1   7.3e-28   1.3e-24   88.3   0.0   176   284     9   123     3   132 0.91 -
PC2J_TRINITY_DN41203_c0_g2_i1.p1PC2J_TRINITY_DN41203_c0_g2  -            153 44473at3193          -            434   2.1e-09   38.2   0.0   1   1   8.2e-12   1.5e-08   35.4   0.0   150   285    11   142     1   150 0.84 -
PC1A_TRINITY_DN39724_c0_g6_i1.p1PC1A_TRINITY_DN39724_c0_g6  -            251 44473at3193          -            434   3.4e-09   37.5   0.0   1   1   2.6e-12   4.7e-09   37.1   0.0   316   389    72   144    60   152 0.83 -
PC2J_TRINITY_DN38875_c3_g2_i2.p1PC2J_TRINITY_DN38875_c3_g2  -            134 44473at3193          -            434   9.8e-09   36.0   0.0   1   1   6.7e-12   1.2e-08   35.7   0.0   314   384    47   117    38   122 0.83 -
PC3J_TRINITY_DN43468_c2_g1_i6.p1PC3J_TRINITY_DN43468_c2_g1  -            114 44473at3193          -            434   5.2e-08   33.6   0.0   1   1   3.1e-11   5.7e-08   33.5   0.0     2    56     2    56     1    74 0.94 -
PC2A_TRINITY_DN32622_c4_g1_i11.p1PC2A_TRINITY_DN32622_c4_g1 -            240 44473at3193          -            434   1.3e-07   32.4   0.0   1   1     8e-11   1.5e-07   32.2   0.0     2    56    61   115    60   184 0.81 -
PC3A_TRINITY_DN42162_c1_g1_i2.p1PC3A_TRINITY_DN42162_c1_g1  -            337 44473at3193          -            434   1.3e-07   32.3   0.0   1   1   9.7e-11   1.8e-07   31.9   0.0     2    56   121   176   120   196 0.89 -
PC3A_TRINITY_DN42162_c1_g1_i14.p1PC3A_TRINITY_DN42162_c1_g1 -            262 44473at3193          -            434   1.6e-07   32.1   0.0   1   1     1e-10   1.8e-07   31.8   0.0     2    56   121   175   120   242 0.82 -
PC1J_TRINITY_DN41269_c2_g1_i3.p1PC1J_TRINITY_DN41269_c2_g1  -            114 44473at3193          -            434   1.8e-07   31.8   0.0   1   1   1.2e-10   2.2e-07   31.6   0.0   311   387     2    81     1    86 0.83 -
PC2A_TRINITY_DN32622_c4_g1_i19.p1PC2A_TRINITY_DN32622_c4_g1 -            311 44473at3193          -            434   2.1e-07   31.6   0.0   1   1   1.4e-10   2.5e-07   31.4   0.0     2    56    60   114    59   182 0.82 -
PC1J_TRINITY_DN39577_c1_g1_i9.p1PC1J_TRINITY_DN39577_c1_g1  -            384 44473at3193          -            434   2.9e-07   31.2   0.0   1   1     2e-10   3.7e-07   30.8   0.0     2    56   133   187   132   254 0.83 -
PC1A_TRINITY_DN43108_c0_g1_i5.p1PC1A_TRINITY_DN43108_c0_g1  -            231 44473at3193          -            434   4.9e-07   30.4   0.0   1   1   3.5e-10   6.4e-07   30.0   0.0     2    51   132   181   131   221 0.93 -
PC1A_TRINITY_DN44548_c1_g5_i3.p1PC1A_TRINITY_DN44548_c1_g5  -            268 44473at3193          -            434     7e-07   29.9   0.0   1   1   6.1e-10   1.1e-06   29.2   0.0   311   387    23   102    11   109 0.84 -
PC2A_TRINITY_DN30673_c2_g1_i11.p1PC2A_TRINITY_DN30673_c2_g1 -            212 44473at3193          -            434   1.1e-06   29.3   0.0   1   2   6.5e-05      0.12   12.7   0.0     9    48    86   124    81   126 0.89 -
PC2A_TRINITY_DN30673_c2_g1_i11.p1PC2A_TRINITY_DN30673_c2_g1 -            212 44473at3193          -            434   1.1e-06   29.3   0.0   2   2   1.3e-05     0.024   15.0   0.0     8    52   128   171   121   179 0.86 -
PC2J_TRINITY_DN36595_c6_g2_i1.p1PC2J_TRINITY_DN36595_c6_g2  -            186 44473at3193          -            434   3.2e-06   27.8   0.0   1   1   2.4e-09   4.3e-06   27.3   0.0     7    56    70   119    67   130 0.92 -
PC1A_TRINITY_DN40464_c3_g1_i2.p1PC1A_TRINITY_DN40464_c3_g1  -            186 44473at3193          -            434   3.4e-06   27.6   0.0   1   1   2.5e-09   4.5e-06   27.2   0.0     7    56    82   131    79   146 0.92 -
PC2J_TRINITY_DN42781_c1_g1_i3.p1PC2J_TRINITY_DN42781_c1_g1  -            186 44473at3193          -            434   3.8e-06   27.5   0.3   1   1   3.4e-09   6.2e-06   26.8   0.3   235   276   135   176    50   183 0.91 -
PC2A_TRINITY_DN35342_c3_g2_i11.p1PC2A_TRINITY_DN35342_c3_g2 -            182 44473at3193          -            434     2e-05   25.1   0.1   1   1   1.2e-08   2.3e-05   24.9   0.1   130   178   127   176    72   180 0.80 -
PC2A_TRINITY_DN35076_c0_g2_i1.p1PC2A_TRINITY_DN35076_c0_g2  -            213 44473at3193          -            434   4.5e-05   24.0   0.0   1   2       2.8     5e+03   -2.6   0.0   157   184    52    80    49    86 0.76 -
PC2A_TRINITY_DN35076_c0_g2_i1.p1PC2A_TRINITY_DN35076_c0_g2  -            213 44473at3193          -            434   4.5e-05   24.0   0.0   2   2   4.9e-08   8.9e-05   23.0   0.0   225   277   108   160    93   181 0.81 -
PC3A_TRINITY_DN35873_c0_g1_i5.p1PC3A_TRINITY_DN35873_c0_g1  -            392 44473at3193          -            434   0.00073   20.0   0.0   1   1   6.7e-07    0.0012   19.2   0.0   201   271   111   180   102   191 0.87 -
PC2A_TRINITY_DN34515_c2_g1_i6.p1PC2A_TRINITY_DN34515_c2_g1  -            136 44473at3193          -            434    0.0025   18.2   0.0   1   1   1.7e-06     0.003   17.9   0.0   347   387    22    62     1    71 0.85 -
PC1J_TRINITY_DN39216_c1_g1_i5.p1PC1J_TRINITY_DN39216_c1_g1  -            117 44473at3193          -            434    0.0074   16.6   0.0   1   1   5.2e-06    0.0095   16.3   0.0     9    53    39    82    34    91 0.87 -
PC2J_TRINITY_DN43028_c1_g1_i8.p1PC2J_TRINITY_DN43028_c1_g1  -            139 44473at3193          -            434     0.013   15.9   0.0   1   1   7.6e-06     0.014   15.8   0.0   303   369    51   121    18   137 0.70 -
PC1J_TRINITY_DN39216_c1_g1_i11.p1PC1J_TRINITY_DN39216_c1_g1 -            157 44473at3193          -            434     0.014   15.8   0.0   1   1     1e-05     0.019   15.3   0.0     9    52    73   115    68   123 0.87 -
PC1J_TRINITY_DN35465_c2_g1_i9.p1PC1J_TRINITY_DN35465_c2_g1  -            135 44473at3193          -            434      0.02   15.2   0.0   1   1   1.3e-05     0.023   15.0   0.0   308   369    52   117    38   133 0.71 -
PC3A_TRINITY_DN43121_c1_g1_i7.p1PC3A_TRINITY_DN43121_c1_g1  -            204 44473at3193          -            434      0.02   15.2   0.0   1   1   1.6e-05     0.029   14.7   0.0     9    52    86   128    81   137 0.87 -
PC3A_TRINITY_DN43121_c1_g1_i9.p1PC3A_TRINITY_DN43121_c1_g1  -            270 44473at3193          -            434     0.032   14.6   0.0   1   1   2.5e-05     0.046   14.0   0.0     9    52    86   128    81   137 0.87 -
PC1J_TRINITY_DN35465_c2_g1_i3.p1PC1J_TRINITY_DN35465_c2_g1  -            216 44473at3193          -            434     0.052   13.8   0.0   1   1   4.1e-05     0.074   13.4   0.0   308   369   133   198   120   214 0.71 -
PC3A_TRINITY_DN38413_c3_g1_i1.p1PC3A_TRINITY_DN38413_c3_g1  -            370 44473at3193          -            434      0.39   11.0   0.0   1   1   0.00029      0.53   10.5   0.0   238   304   158   220   119   228 0.86 -
#
# Program:         hmmsearch
# Version:         3.2.1 (June 2018)
# Pipeline mode:   SEARCH
# Query file:      /isg/shared/databases/BUSCO/odb10/embryophyta_odb10/hmms/44473at3193.hmm
# Target file:     Pine_final_annotations_no_contam_lvl0.faa
# Option settings: /usr/local/bin/hmmsearch --domtblout /labs/Wegrzyn/Juniper_Pine/BUSCO/NEW/busco_pine/run_embryophyta_odb10/hmmer_output/44473at3193.out --cpu 1 /isg/shared/databases/BUSCO/odb10/embryophyta_odb10/hmms/44473at3193.hmm Pine_final_annotations_no_contam_lvl0.faa 
# Current dir:     /labs/Wegrzyn/Juniper_Pine/BUSCO/NEW
# Date:            Thu Aug  6 14:59:57 2020
# [ok]
