#                                                                                                                    --- full sequence --- -------------- this domain -------------   hmm coord   ali coord   env coord
# target name                                                accession   tlen query name           accession   qlen   E-value  score  bias   #  of  c-Evalue  i-Evalue  score  bias  from    to  from    to  from    to  acc description of target
#                                        ------------------- ---------- ----- -------------------- ---------- ----- --------- ------ ----- --- --- --------- --------- ------ ----- ----- ----- ----- ----- ----- ----- ---- ---------------------
PC1A_TRINITY_DN41082_c1_g2_i5.p1PC1A_TRINITY_DN41082_c1_g2   -            474 47310at3193          -            427    1e-157  527.4   1.7   1   1  4.4e-160  1.2e-157  527.2   1.7     7   427     1   467     1   467 0.90 -
PC3J_TRINITY_DN43914_c1_g1_i1.p1PC3J_TRINITY_DN43914_c1_g1   -            529 47310at3193          -            427  1.5e-115  388.4   0.0   1   1  3.1e-116  8.2e-114  382.8   0.0     1   426    28   520    28   521 0.81 -
PC3A_TRINITY_DN42718_c1_g3_i1.p1PC3A_TRINITY_DN42718_c1_g3   -            295 47310at3193          -            427   1.5e-96  325.9   0.4   1   1     7e-99   1.9e-96  325.6   0.4   174   427     2   290     1   290 0.89 -
PC3A_TRINITY_DN42718_c1_g1_i1.p1PC3A_TRINITY_DN42718_c1_g1   -            184 47310at3193          -            427     7e-66  224.8   1.2   1   2   5.1e-15   1.4e-12   49.3   0.1    82   127     1    46     1    54 0.91 -
PC3A_TRINITY_DN42718_c1_g1_i1.p1PC3A_TRINITY_DN42718_c1_g1   -            184 47310at3193          -            427     7e-66  224.8   1.2   2   2   2.7e-53   7.2e-51  175.4   0.2   311   427    53   177    48   177 0.91 -
PC2J_TRINITY_DN45315_c0_g5_i1.p1PC2J_TRINITY_DN45315_c0_g5   -            298 47310at3193          -            427   3.3e-62  212.7   0.0   1   2     0.052        14    6.4   0.0   185   218     3    36     1    43 0.91 -
PC2J_TRINITY_DN45315_c0_g5_i1.p1PC2J_TRINITY_DN45315_c0_g5   -            298 47310at3193          -            427   3.3e-62  212.7   0.0   2   2   3.8e-62     1e-59  204.5   0.0   217   427    55   290    47   290 0.82 -
PC2J_TRINITY_DN45959_c6_g1_i1.p1PC2J_TRINITY_DN45959_c6_g1   -            288 47310at3193          -            427   4.8e-60  205.6   0.2   1   1   2.2e-62   5.8e-60  205.3   0.2     7   240    26   287    21   288 0.88 -
PC2J_TRINITY_DN45315_c0_g5_i2.p1PC2J_TRINITY_DN45315_c0_g5   -            253 47310at3193          -            427   5.1e-59  202.2   0.0   1   1   2.2e-61   5.9e-59  202.0   0.0   230   427    32   245    10   245 0.84 -
PC1A_TRINITY_DN39696_c0_g1_i1.p1PC1A_TRINITY_DN39696_c0_g1   -            245 47310at3193          -            427   6.1e-57  195.4   0.1   1   1     3e-59   7.9e-57  195.0   0.1    44   228    13   211     7   218 0.90 -
PC3J_TRINITY_DN37545_c0_g1_i2.p1PC3J_TRINITY_DN37545_c0_g1   -            211 47310at3193          -            427   1.5e-54  187.5   0.0   1   1   6.2e-57   1.7e-54  187.4   0.0     7   181    25   211    19   211 0.91 -
PC3J_TRINITY_DN22744_c0_g1_i1.p1PC3J_TRINITY_DN22744_c0_g1   -            259 47310at3193          -            427   2.3e-51  177.0   0.0   1   1   1.2e-53   3.3e-51  176.5   0.0    44   270     6   258     1   259 0.85 -
PC3A_TRINITY_DN42718_c1_g3_i2.p1PC3A_TRINITY_DN42718_c1_g3   -            129 47310at3193          -            427   3.7e-50  173.0   0.2   1   1   1.5e-52     4e-50  172.9   0.2   312   426     2   124     1   125 0.89 -
PC2J_TRINITY_DN45315_c0_g1_i1.p1PC2J_TRINITY_DN45315_c0_g1   -            227 47310at3193          -            427     1e-48  168.3   0.0   1   2     1e-39   2.8e-37  130.6   0.0    41   177    37   180    20   182 0.91 -
PC2J_TRINITY_DN45315_c0_g1_i1.p1PC2J_TRINITY_DN45315_c0_g1   -            227 47310at3193          -            427     1e-48  168.3   0.0   2   2   1.5e-11   4.1e-09   37.8   0.0   123   169   180   226   176   227 0.95 -
PC3J_TRINITY_DN43914_c1_g3_i8.p1PC3J_TRINITY_DN43914_c1_g3   -            248 47310at3193          -            427   1.6e-46  161.1   0.0   1   1   7.7e-49   2.1e-46  160.7   0.0     1   185    28   234    28   245 0.86 -
PC1A_TRINITY_DN38539_c0_g1_i2.p1PC1A_TRINITY_DN38539_c0_g1   -            143 47310at3193          -            427   1.2e-45  158.2   0.1   1   1   5.1e-48   1.4e-45  158.0   0.1   319   426    23   138    11   139 0.88 -
PC2J_TRINITY_DN45797_c0_g6_i1.p1PC2J_TRINITY_DN45797_c0_g6   -            250 47310at3193          -            427   2.2e-44  154.0   0.0   1   1     1e-46   2.7e-44  153.7   0.0   220   405    30   237     5   244 0.82 -
PC2J_TRINITY_DN39270_c3_g2_i3.p1PC2J_TRINITY_DN39270_c3_g2   -            549 47310at3193          -            427   2.3e-39  137.5   0.0   1   1   8.9e-41   2.4e-38  134.1   0.0    40   415   139   540   130   547 0.81 -
PC3A_TRINITY_DN44146_c1_g5_i1.p1PC3A_TRINITY_DN44146_c1_g5   -            144 47310at3193          -            427   2.7e-38  134.0   0.0   1   1   1.2e-40   3.2e-38  133.7   0.0   237   366     2   138     1   141 0.90 -
PC2J_TRINITY_DN39985_c0_g3_i1.p1PC2J_TRINITY_DN39985_c0_g3   -            132 47310at3193          -            427   6.2e-36  126.2   0.0   1   1   3.1e-38   8.4e-36  125.7   0.0   246   359     1   125     1   128 0.89 -
PC3J_TRINITY_DN48415_c1_g5_i2.p1PC3J_TRINITY_DN48415_c1_g5   -            187 47310at3193          -            427   2.5e-35  124.1   0.0   1   1   1.7e-37   4.5e-35  123.3   0.0   185   348     2   183     1   186 0.88 -
PC3J_TRINITY_DN35627_c0_g1_i1.p1PC3J_TRINITY_DN35627_c0_g1   -            140 47310at3193          -            427     4e-35  123.5   0.0   1   1   1.8e-37   4.9e-35  123.2   0.0   289   407    11   134     4   138 0.88 -
PC2J_TRINITY_DN45315_c0_g2_i4.p1PC2J_TRINITY_DN45315_c0_g2   -            271 47310at3193          -            427     1e-34  122.2   0.0   1   1   4.1e-35   1.1e-32  115.5   0.0   121   275    48   233    33   239 0.82 -
PC3J_TRINITY_DN41460_c0_g2_i1.p1PC3J_TRINITY_DN41460_c0_g2   -            126 47310at3193          -            427   9.3e-33  115.7   0.1   1   1   3.7e-35   9.9e-33  115.6   0.1   305   423     1   126     1   126 0.89 -
PC2J_TRINITY_DN32360_c0_g1_i1.p1PC2J_TRINITY_DN32360_c0_g1   -            201 47310at3193          -            427   4.6e-32  113.4   0.0   1   1   2.2e-34     6e-32  113.0   0.0    66   228     9   188     5   194 0.82 -
PC3J_TRINITY_DN44644_c2_g1_i3.p1PC3J_TRINITY_DN44644_c2_g1   -            430 47310at3193          -            427   1.1e-31  112.2   0.0   1   1   1.2e-32   3.3e-30  107.3   0.0   124   427    24   351    10   351 0.81 -
PC3J_TRINITY_DN3827_c0_g1_i1.p1PC3J_TRINITY_DN3827_c0_g1     -            177 47310at3193          -            427   5.3e-29  103.3   0.1   1   1   2.4e-31   6.3e-29  103.1   0.1   125   262    23   176     9   177 0.89 -
PC2A_TRINITY_DN36335_c0_g1_i1.p1PC2A_TRINITY_DN36335_c0_g1   -            113 47310at3193          -            427   2.3e-27   97.9   0.0   1   1   9.6e-30   2.6e-27   97.8   0.0     6   108     2   112     1   113 0.88 -
PC3A_TRINITY_DN36092_c0_g1_i3.p1PC3A_TRINITY_DN36092_c0_g1   -            512 47310at3193          -            427   2.7e-27   97.7   0.0   1   1   1.5e-28     4e-26   93.8   0.0    19   363   108   489    92   496 0.74 -
PC1J_TRINITY_DN35753_c0_g1_i2.p1PC1J_TRINITY_DN35753_c0_g1   -            162 47310at3193          -            427   4.5e-26   93.7   0.1   1   1   2.2e-28     6e-26   93.3   0.1   219   323    38   162    33   162 0.86 -
PC3A_TRINITY_DN43608_c1_g1_i4.p1PC3A_TRINITY_DN43608_c1_g1   -            538 47310at3193          -            427   5.3e-26   93.4   0.0   1   2      0.31        84    3.8   0.0    76   122   134   181    55   191 0.62 -
PC3A_TRINITY_DN43608_c1_g1_i4.p1PC3A_TRINITY_DN43608_c1_g1   -            538 47310at3193          -            427   5.3e-26   93.4   0.0   2   2   1.4e-26   3.7e-24   87.4   0.0   232   405   324   501   307   512 0.90 -
PC3A_TRINITY_DN36092_c0_g1_i1.p1PC3A_TRINITY_DN36092_c0_g1   -            454 47310at3193          -            427   3.8e-25   90.6   0.0   1   2   3.6e-10   9.7e-08   33.3   0.0    19   157   108   258    91   264 0.76 -
PC3A_TRINITY_DN36092_c0_g1_i1.p1PC3A_TRINITY_DN36092_c0_g1   -            454 47310at3193          -            427   3.8e-25   90.6   0.0   2   2   9.1e-17   2.4e-14   55.0   0.0   230   363   295   431   277   438 0.82 -
PC1J_TRINITY_DN40239_c0_g1_i11.p1PC1J_TRINITY_DN40239_c0_g1  -            110 47310at3193          -            427     4e-25   90.6   0.1   1   1   1.7e-27   4.5e-25   90.4   0.1    68   153     6    97     2   109 0.87 -
PC1A_TRINITY_DN42378_c3_g1_i1.p1PC1A_TRINITY_DN42378_c3_g1   -            351 47310at3193          -            427     5e-25   90.2   0.5   1   2   4.7e-17   1.3e-14   56.0   1.1    40   269     4   257     2   264 0.75 -
PC1A_TRINITY_DN42378_c3_g1_i1.p1PC1A_TRINITY_DN42378_c3_g1   -            351 47310at3193          -            427     5e-25   90.2   0.5   2   2   2.1e-09   5.6e-07   30.8   0.0   349   416   251   323   247   337 0.77 -
PC1A_TRINITY_DN44156_c0_g3_i5.p1PC1A_TRINITY_DN44156_c0_g3   -            305 47310at3193          -            427   6.9e-25   89.8   0.0   1   1   4.4e-27   1.2e-24   89.0   0.0    59   149   209   305   204   305 0.94 -
PC2A_TRINITY_DN33895_c1_g1_i1.p1PC2A_TRINITY_DN33895_c1_g1   -            153 47310at3193          -            427   5.1e-24   86.9   0.0   1   1   2.5e-26   6.6e-24   86.5   0.0   286   360    78   152    30   153 0.86 -
PC2J_TRINITY_DN45600_c1_g3_i1.p1PC2J_TRINITY_DN45600_c1_g3   -            106 47310at3193          -            427   1.5e-23   85.4   0.0   1   1     6e-26   1.6e-23   85.3   0.0     4    99     3   105     1   106 0.87 -
PC3A_TRINITY_DN43570_c2_g2_i2.p1PC3A_TRINITY_DN43570_c2_g2   -            340 47310at3193          -            427   1.3e-22   82.3   0.0   1   2       5.3   1.4e+03   -0.2   0.0    79    99    11    31     5    45 0.75 -
PC3A_TRINITY_DN43570_c2_g2_i2.p1PC3A_TRINITY_DN43570_c2_g2   -            340 47310at3193          -            427   1.3e-22   82.3   0.0   2   2   2.6e-24   6.9e-22   79.9   0.0   233   405   129   305   122   315 0.91 -
PC1J_TRINITY_DN37176_c3_g1_i7.p1PC1J_TRINITY_DN37176_c3_g1   -            223 47310at3193          -            427   5.5e-22   80.2   0.0   1   1   2.6e-24   6.9e-22   79.9   0.0   240   405    36   205    25   214 0.91 -
PC2A_TRINITY_DN33700_c1_g1_i3.p1PC2A_TRINITY_DN33700_c1_g1   -            114 47310at3193          -            427   8.2e-22   79.6   0.1   1   1   3.4e-24   9.2e-22   79.5   0.1    60   144     2    93     1   106 0.88 -
PC2A_TRINITY_DN21522_c0_g1_i1.p1PC2A_TRINITY_DN21522_c0_g1   -            122 47310at3193          -            427   1.1e-21   79.2   0.0   1   1   4.8e-24   1.3e-21   79.0   0.0   216   317     7   122     3   122 0.81 -
PC1A_TRINITY_DN43183_c3_g4_i6.p1PC1A_TRINITY_DN43183_c3_g4   -            478 47310at3193          -            427   1.1e-20   75.9   0.1   1   2   7.9e-07   0.00021   22.3   0.0    40   146    93   207    79   270 0.80 -
PC1A_TRINITY_DN43183_c3_g4_i6.p1PC1A_TRINITY_DN43183_c3_g4   -            478 47310at3193          -            427   1.1e-20   75.9   0.1   2   2     8e-16   2.2e-13   51.9   0.0   233   396   310   473   283   475 0.85 -
PC2J_TRINITY_DN45315_c0_g2_i9.p1PC2J_TRINITY_DN45315_c0_g2   -            176 47310at3193          -            427   1.5e-20   75.5   0.0   1   1   1.3e-21   3.6e-19   70.9   0.0   116   222     8   109     1   167 0.82 -
PC3J_TRINITY_DN48415_c1_g5_i1.p1PC3J_TRINITY_DN48415_c1_g5   -            138 47310at3193          -            427   1.6e-20   75.4   0.0   1   2   5.6e-07   0.00015   22.8   0.0   306   348    10    53     5    67 0.92 -
PC3J_TRINITY_DN48415_c1_g5_i1.p1PC3J_TRINITY_DN48415_c1_g5   -            138 47310at3193          -            427   1.6e-20   75.4   0.0   2   2   8.2e-16   2.2e-13   51.9   0.0   284   348    68   134    51   137 0.82 -
PC3A_TRINITY_DN42948_c3_g2_i5.p1PC3A_TRINITY_DN42948_c3_g2   -            556 47310at3193          -            427   8.1e-20   73.1   0.0   1   2      0.16        43    4.8   0.0    69   147   119   204    48   215 0.75 -
PC3A_TRINITY_DN42948_c3_g2_i5.p1PC3A_TRINITY_DN42948_c3_g2   -            556 47310at3193          -            427   8.1e-20   73.1   0.0   2   2   3.2e-20   8.5e-18   66.4   0.0   231   406   302   480   290   501 0.86 -
PC1A_TRINITY_DN43041_c0_g1_i7.p1PC1A_TRINITY_DN43041_c0_g1   -            423 47310at3193          -            427   1.6e-19   72.1   0.0   1   1   9.8e-21   2.6e-18   68.1   0.0    50   406     4   387     1   391 0.72 -
PC2A_TRINITY_DN35051_c4_g1_i4.p1PC2A_TRINITY_DN35051_c4_g1   -            496 47310at3193          -            427   4.5e-19   70.6   0.0   1   2       1.8   4.7e+02    1.4   0.0    44   101    17    76     6   101 0.75 -
PC2A_TRINITY_DN35051_c4_g1_i4.p1PC2A_TRINITY_DN35051_c4_g1   -            496 47310at3193          -            427   4.5e-19   70.6   0.0   2   2   1.8e-19   4.8e-17   63.9   0.0    80   406   103   454    92   457 0.73 -
PC3J_TRINITY_DN44644_c2_g1_i6.p1PC3J_TRINITY_DN44644_c2_g1   -            230 47310at3193          -            427   1.4e-18   69.0   0.0   1   1   6.1e-21   1.6e-18   68.8   0.0   230   368    34   167     8   179 0.89 -
PC2J_TRINITY_DN24227_c0_g1_i1.p1PC2J_TRINITY_DN24227_c0_g1   -            122 47310at3193          -            427     3e-18   67.9   0.0   1   1   1.3e-20   3.6e-18   67.7   0.0   226   309    35   121    24   122 0.83 -
PC3J_TRINITY_DN32157_c0_g1_i1.p1PC3J_TRINITY_DN32157_c0_g1   -            138 47310at3193          -            427   5.4e-18   67.1   0.0   1   1   2.6e-20   6.9e-18   66.7   0.0    63   179    12   135     6   137 0.83 -
PC1J_TRINITY_DN40277_c2_g1_i5.p1PC1J_TRINITY_DN40277_c2_g1   -            418 47310at3193          -            427   1.8e-17   65.4   0.0   1   2      0.11        29    5.4   0.0    75   147    69   148    26   159 0.77 -
PC1J_TRINITY_DN40277_c2_g1_i5.p1PC1J_TRINITY_DN40277_c2_g1   -            418 47310at3193          -            427   1.8e-17   65.4   0.0   2   2   1.2e-17   3.1e-15   58.0   0.0   231   362   246   375   234   380 0.89 -
PC2J_TRINITY_DN45156_c3_g1_i6.p1PC2J_TRINITY_DN45156_c3_g1   -            198 47310at3193          -            427   3.8e-17   64.3   0.0   1   1   1.7e-19   4.6e-17   64.0   0.0   252   424     3   179     1   181 0.86 -
PC2A_TRINITY_DN29394_c2_g2_i2.p1PC2A_TRINITY_DN29394_c2_g2   -            136 47310at3193          -            427   4.7e-17   63.9   0.0   1   1   2.6e-19   6.9e-17   63.4   0.0   332   421     3    86     1    89 0.83 -
PC2A_TRINITY_DN28911_c0_g6_i1.p1PC2A_TRINITY_DN28911_c0_g6   -            225 47310at3193          -            427   1.5e-16   62.3   0.0   1   1   6.9e-19   1.9e-16   62.0   0.0   231   355   102   223    44   225 0.87 -
PC3A_TRINITY_DN36473_c6_g1_i1.p1PC3A_TRINITY_DN36473_c6_g1   -            341 47310at3193          -            427   6.7e-16   60.1   0.0   1   1   2.9e-18   7.8e-16   59.9   0.0   201   408   114   314    54   332 0.82 -
PC2A_TRINITY_DN31243_c1_g1_i6.p1PC2A_TRINITY_DN31243_c1_g1   -            448 47310at3193          -            427   7.8e-16   59.9   0.0   1   2   0.00013     0.036   14.9   0.0    44   147    91   202    79   215 0.76 -
PC2A_TRINITY_DN31243_c1_g1_i6.p1PC2A_TRINITY_DN31243_c1_g1   -            448 47310at3193          -            427   7.8e-16   59.9   0.0   2   2   4.1e-13   1.1e-10   43.0   0.0   232   365   298   428   260   435 0.89 -
PC1A_TRINITY_DN44223_c0_g1_i7.p1PC1A_TRINITY_DN44223_c0_g1   -            339 47310at3193          -            427   8.5e-16   59.8   0.0   1   2     0.014       3.7    8.3   0.0    66   121   119   173   110   190 0.79 -
PC1A_TRINITY_DN44223_c0_g1_i7.p1PC1A_TRINITY_DN44223_c0_g1   -            339 47310at3193          -            427   8.5e-16   59.8   0.0   2   2   4.4e-15   1.2e-12   49.5   0.0   230   328   224   319   179   325 0.84 -
PC2J_TRINITY_DN42514_c2_g1_i1.p1PC2J_TRINITY_DN42514_c2_g1   -            120 47310at3193          -            427   8.5e-16   59.8   0.0   1   1   3.4e-18   9.2e-16   59.7   0.0   251   345    16   120     2   120 0.80 -
PC2A_TRINITY_DN35237_c1_g2_i19.p1PC2A_TRINITY_DN35237_c1_g2  -            429 47310at3193          -            427     1e-15   59.6   0.0   1   1   4.8e-18   1.3e-15   59.2   0.0    84   403    41   387     2   402 0.69 -
PC1A_TRINITY_DN43396_c4_g1_i5.p1PC1A_TRINITY_DN43396_c4_g1   -            701 47310at3193          -            427   1.5e-15   59.0   0.0   1   3      0.73   1.9e+02    2.6   0.0    75   146    92   171    47   185 0.69 -
PC1A_TRINITY_DN43396_c4_g1_i5.p1PC1A_TRINITY_DN43396_c4_g1   -            701 47310at3193          -            427   1.5e-15   59.0   0.0   2   3       1.4   3.7e+02    1.7   0.0    78   147   308   382   298   395 0.71 -
PC1A_TRINITY_DN43396_c4_g1_i5.p1PC1A_TRINITY_DN43396_c4_g1   -            701 47310at3193          -            427   1.5e-15   59.0   0.0   3   3   1.9e-15   5.2e-13   50.6   0.0   232   406   478   657   440   673 0.86 -
PC1A_TRINITY_DN40226_c0_g1_i3.p1PC1A_TRINITY_DN40226_c0_g1   -            343 47310at3193          -            427   1.5e-15   59.0   0.0   1   1   8.5e-18   2.3e-15   58.4   0.0   230   409   140   318   127   327 0.91 -
PC2J_TRINITY_DN39497_c0_g2_i4.p1PC2J_TRINITY_DN39497_c0_g2   -            261 47310at3193          -            427   2.9e-15   58.0   0.1   1   2   4.5e-17   1.2e-14   56.0   0.0   232   363    83   217    46   224 0.81 -
PC2J_TRINITY_DN39497_c0_g2_i4.p1PC2J_TRINITY_DN39497_c0_g2   -            261 47310at3193          -            427   2.9e-15   58.0   0.1   2   2       5.4   1.5e+03   -0.3   0.0   363   382   242   261   225   261 0.86 -
PC1A_TRINITY_DN40226_c0_g3_i1.p1PC1A_TRINITY_DN40226_c0_g3   -            183 47310at3193          -            427   3.2e-15   57.9   0.0   1   1   1.3e-17   3.5e-15   57.8   0.0   230   390    15   174     1   182 0.90 -
PC2A_TRINITY_DN35322_c0_g1_i3.p1PC2A_TRINITY_DN35322_c0_g1   -            514 47310at3193          -            427   4.5e-15   57.4   0.0   1   2   0.00039       0.1   13.4   0.0     4   125    14   140    11   188 0.77 -
PC2A_TRINITY_DN35322_c0_g1_i3.p1PC2A_TRINITY_DN35322_c0_g1   -            514 47310at3193          -            427   4.5e-15   57.4   0.0   2   2     8e-13   2.1e-10   42.0   0.0   232   404   268   441   263   447 0.90 -
PC3J_TRINITY_DN43023_c1_g1_i1.p1PC3J_TRINITY_DN43023_c1_g1   -            210 47310at3193          -            427   4.7e-15   57.4   0.0   1   1   2.2e-17     6e-15   57.0   0.0   239   408     7   178     3   188 0.87 -
PC1A_TRINITY_DN43396_c4_g1_i3.p1PC1A_TRINITY_DN43396_c4_g1   -            591 47310at3193          -            427   9.1e-15   56.4   0.0   1   2      0.46   1.2e+02    3.3   0.0    47   146   102   211    87   226 0.68 -
PC1A_TRINITY_DN43396_c4_g1_i3.p1PC1A_TRINITY_DN43396_c4_g1   -            591 47310at3193          -            427   9.1e-15   56.4   0.0   2   2   1.6e-15   4.2e-13   50.9   0.0   233   406   369   547   356   563 0.85 -
PC3J_TRINITY_DN41070_c0_g2_i4.p1PC3J_TRINITY_DN41070_c0_g2   -            316 47310at3193          -            427   1.5e-14   55.7   0.0   1   2   4.6e-08   1.2e-05   26.3   0.0    39    89   211   260   196   262 0.90 -
PC3J_TRINITY_DN41070_c0_g2_i4.p1PC3J_TRINITY_DN41070_c0_g2   -            316 47310at3193          -            427   1.5e-14   55.7   0.0   2   2     2e-08   5.4e-06   27.5   0.0    44    93   263   311   260   314 0.93 -
PC2J_TRINITY_DN37658_c2_g4_i1.p1PC2J_TRINITY_DN37658_c2_g4   -            116 47310at3193          -            427   2.4e-14   55.0   0.0   1   1   9.5e-17   2.6e-14   54.9   0.0   232   312     8    86     2   109 0.92 -
PC1A_TRINITY_DN44283_c1_g1_i3.p1PC1A_TRINITY_DN44283_c1_g1   -            338 47310at3193          -            427   2.9e-14   54.8   0.0   1   1   1.8e-16   4.9e-14   54.0   0.0   233   405   117   294   110   304 0.85 -
PC1A_TRINITY_DN44283_c1_g2_i5.p1PC1A_TRINITY_DN44283_c1_g2   -            151 47310at3193          -            427     3e-14   54.7   0.0   1   1   1.3e-16   3.4e-14   54.5   0.0   267   398    13   149     5   151 0.79 -
PC1J_TRINITY_DN38870_c0_g3_i1.p1PC1J_TRINITY_DN38870_c0_g3   -            122 47310at3193          -            427   3.2e-14   54.6   0.0   1   1   1.4e-16   3.8e-14   54.4   0.0   249   364     1   114     1   118 0.92 -
PC1J_TRINITY_DN32902_c1_g1_i6.p1PC1J_TRINITY_DN32902_c1_g1   -            375 47310at3193          -            427   5.9e-14   53.8   0.0   1   1   2.9e-16   7.9e-14   53.3   0.0   230   406   154   335   100   342 0.85 -
PC1J_TRINITY_DN38420_c1_g1_i1.p1PC1J_TRINITY_DN38420_c1_g1   -            223 47310at3193          -            427   7.6e-14   53.4   0.0   1   1   3.6e-16   9.7e-14   53.0   0.0   232   406     9   185     2   191 0.86 -
PC3A_TRINITY_DN38639_c1_g2_i1.p1PC3A_TRINITY_DN38639_c1_g2   -            222 47310at3193          -            427     8e-14   53.3   0.1   1   2   3.6e-11   9.6e-09   36.6   0.0   267   364     7   102     1   118 0.77 -
PC3A_TRINITY_DN38639_c1_g2_i1.p1PC3A_TRINITY_DN38639_c1_g2   -            222 47310at3193          -            427     8e-14   53.3   0.1   2   2   0.00013     0.035   15.0   0.0   339   364   174   199   159   210 0.85 -
PC1J_TRINITY_DN35414_c1_g1_i13.p1PC1J_TRINITY_DN35414_c1_g1  -            142 47310at3193          -            427   8.3e-14   53.3   0.0   1   1   3.7e-16   9.8e-14   53.0   0.0   230   332    10   108     3   128 0.85 -
PC3A_TRINITY_DN41877_c1_g2_i2.p1PC3A_TRINITY_DN41877_c1_g2   -            353 47310at3193          -            427   1.1e-13   52.8   0.0   1   2   5.8e-05     0.016   16.1   0.0    42   118    12    87     6   144 0.75 -
PC3A_TRINITY_DN41877_c1_g2_i2.p1PC3A_TRINITY_DN41877_c1_g2   -            353 47310at3193          -            427   1.1e-13   52.8   0.0   2   2   1.2e-10   3.3e-08   34.8   0.0   233   361   228   352   208   353 0.82 -
PC1A_TRINITY_DN40599_c4_g2_i2.p1PC1A_TRINITY_DN40599_c4_g2   -            406 47310at3193          -            427   1.3e-13   52.6   0.0   1   1   7.2e-16   1.9e-13   52.1   0.0   231   408   204   380   158   398 0.89 -
PC1A_TRINITY_DN43744_c1_g3_i9.p1PC1A_TRINITY_DN43744_c1_g3   -            503 47310at3193          -            427   2.4e-13   51.8   0.0   1   2      0.08        21    5.8   0.0     2   106    24   134    23   169 0.71 -
PC1A_TRINITY_DN43744_c1_g3_i9.p1PC1A_TRINITY_DN43744_c1_g3   -            503 47310at3193          -            427   2.4e-13   51.8   0.0   2   2   2.1e-13   5.5e-11   44.0   0.0   231   406   283   459   275   473 0.88 -
PC1A_TRINITY_DN43141_c1_g4_i1.p1PC1A_TRINITY_DN43141_c1_g4   -            312 47310at3193          -            427   6.8e-13   50.2   0.0   1   1   3.4e-15   9.2e-13   49.8   0.0   237   407   112   283    99   298 0.86 -
PC2A_TRINITY_DN35237_c1_g2_i8.p1PC2A_TRINITY_DN35237_c1_g2   -            221 47310at3193          -            427   6.9e-13   50.2   0.0   1   1   3.1e-15   8.3e-13   50.0   0.0   233   393    46   211    22   217 0.83 -
PC2A_TRINITY_DN35499_c0_g1_i15.p1PC2A_TRINITY_DN35499_c0_g1  -            316 47310at3193          -            427   8.9e-13   49.9   0.0   1   1   4.1e-15   1.1e-12   49.6   0.0   234   403   100   273    50   278 0.84 -
PC2A_TRINITY_DN34063_c2_g3_i1.p1PC2A_TRINITY_DN34063_c2_g3   -            213 47310at3193          -            427   2.2e-12   48.6   0.0   1   1   1.2e-14   3.3e-12   48.0   0.0   230   322    68   157     6   173 0.86 -
PC1J_TRINITY_DN34381_c1_g4_i2.p1PC1J_TRINITY_DN34381_c1_g4   -            488 47310at3193          -            427   2.3e-12   48.5   0.0   1   1     1e-13   2.7e-11   45.0   0.0     6   408    44   457    40   474 0.75 -
PC1J_TRINITY_DN38346_c1_g3_i1.p1PC1J_TRINITY_DN38346_c1_g3   -            457 47310at3193          -            427   2.3e-12   48.5   0.0   1   1   1.3e-14   3.6e-12   47.9   0.0   233   385   238   391   205   410 0.85 -
PC3A_TRINITY_DN30358_c0_g1_i1.p1PC3A_TRINITY_DN30358_c0_g1   -            317 47310at3193          -            427   2.9e-12   48.2   0.0   1   1   2.4e-14   6.6e-12   47.0   0.0   231   384   162   315   103   316 0.86 -
PC2A_TRINITY_DN34816_c0_g1_i4.p1PC2A_TRINITY_DN34816_c0_g1   -            492 47310at3193          -            427   4.4e-12   47.6   0.0   1   1   3.8e-14     1e-11   46.4   0.0    32   406    94   463    55   474 0.75 -
PC2J_TRINITY_DN43821_c0_g1_i1.p1PC2J_TRINITY_DN43821_c0_g1   -            306 47310at3193          -            427   6.7e-12   47.0   0.0   1   1   3.2e-14   8.6e-12   46.6   0.0   212   406    51   254    26   263 0.79 -
PC1J_TRINITY_DN35323_c0_g4_i1.p1PC1J_TRINITY_DN35323_c0_g4   -            387 47310at3193          -            427   6.9e-12   46.9   0.1   1   2     1e-13   2.7e-11   45.0   0.0   229   400   187   360     4   365 0.81 -
PC1J_TRINITY_DN35323_c0_g4_i1.p1PC1J_TRINITY_DN35323_c0_g4   -            387 47310at3193          -            427   6.9e-12   46.9   0.1   2   2       9.1   2.4e+03   -1.0   0.1   345   364   364   383   358   386 0.82 -
PC2A_TRINITY_DN28911_c0_g5_i1.p1PC2A_TRINITY_DN28911_c0_g5   -            203 47310at3193          -            427   7.4e-12   46.8   0.1   1   1   3.9e-14   1.1e-11   46.3   0.1   232   320   105   191    93   198 0.90 -
PC1J_TRINITY_DN37176_c3_g1_i14.p1PC1J_TRINITY_DN37176_c3_g1  -            113 47310at3193          -            427   1.1e-11   46.3   0.0   1   1   4.5e-14   1.2e-11   46.2   0.0   286   364     8    86     2    98 0.91 -
PC3J_TRINITY_DN46538_c0_g1_i1.p1PC3J_TRINITY_DN46538_c0_g1   -            195 47310at3193          -            427   2.7e-11   45.0   0.0   1   2   3.9e-13   1.1e-10   43.0   0.0   245   377     4   135     1   139 0.85 -
PC3J_TRINITY_DN46538_c0_g1_i1.p1PC3J_TRINITY_DN46538_c0_g1   -            195 47310at3193          -            427   2.7e-11   45.0   0.0   2   2       6.5   1.7e+03   -0.5   0.0   370   384   172   186   162   190 0.83 -
PC2A_TRINITY_DN35499_c0_g1_i17.p1PC2A_TRINITY_DN35499_c0_g1  -            385 47310at3193          -            427   2.8e-11   44.9   0.0   1   1   1.9e-13     5e-11   44.1   0.0    47   384     7   373     2   384 0.68 -
PC2J_TRINITY_DN44010_c1_g1_i11.p1PC2J_TRINITY_DN44010_c1_g1  -            367 47310at3193          -            427   3.6e-11   44.6   0.2   1   2   0.00063      0.17   12.7   0.0     6   108    10   118     5   136 0.72 -
PC2J_TRINITY_DN44010_c1_g1_i11.p1PC2J_TRINITY_DN44010_c1_g1  -            367 47310at3193          -            427   3.6e-11   44.6   0.2   2   2   3.7e-09   9.8e-07   30.0   0.0   235   311   268   342   260   348 0.92 -
PC2A_TRINITY_DN32206_c0_g2_i7.p1PC2A_TRINITY_DN32206_c0_g2   -            418 47310at3193          -            427   3.7e-11   44.5   0.1   1   1   1.3e-12   3.5e-10   41.3   0.1     2   312    44   378    43   417 0.70 -
PC3J_TRINITY_DN3687_c0_g1_i1.p1PC3J_TRINITY_DN3687_c0_g1     -            104 47310at3193          -            427   3.7e-11   44.5   0.0   1   2       2.6   6.9e+02    0.8   0.0   216   236     8    28     3    37 0.81 -
PC3J_TRINITY_DN3687_c0_g1_i1.p1PC3J_TRINITY_DN3687_c0_g1     -            104 47310at3193          -            427   3.7e-11   44.5   0.0   2   2   8.3e-13   2.2e-10   42.0   0.0   227   274    42    89    32    98 0.92 -
PC3A_TRINITY_DN41877_c1_g3_i7.p1PC3A_TRINITY_DN41877_c1_g3   -            361 47310at3193          -            427     5e-11   44.1   0.0   1   2   4.8e-05     0.013   16.4   0.0    42   147    18   131    12   193 0.81 -
PC3A_TRINITY_DN41877_c1_g3_i7.p1PC3A_TRINITY_DN41877_c1_g3   -            361 47310at3193          -            427     5e-11   44.1   0.0   2   2   6.9e-08   1.8e-05   25.8   0.0   233   361   233   357   205   360 0.77 -
PC3J_TRINITY_DN47260_c0_g1_i12.p1PC3J_TRINITY_DN47260_c0_g1  -            327 47310at3193          -            427   7.3e-11   43.6   0.0   1   1   3.6e-13   9.7e-11   43.2   0.0   205   405    86   293    74   299 0.82 -
PC2A_TRINITY_DN35237_c1_g2_i10.p1PC2A_TRINITY_DN35237_c1_g2  -            188 47310at3193          -            427   7.9e-11   43.5   0.0   1   1   3.8e-13     1e-10   43.1   0.0   241   401    16   180     6   183 0.84 -
PC3A_TRINITY_DN38546_c0_g1_i3.p1PC3A_TRINITY_DN38546_c0_g1   -            224 47310at3193          -            427   8.4e-11   43.4   0.1   1   2   2.5e-10   6.8e-08   33.8   0.0   232   338    49   153     6   165 0.79 -
PC3A_TRINITY_DN38546_c0_g1_i3.p1PC3A_TRINITY_DN38546_c0_g1   -            224 47310at3193          -            427   8.4e-11   43.4   0.1   2   2     0.008       2.2    9.1   0.0   287   338   161   212   149   224 0.68 -
PC2J_TRINITY_DN45315_c0_g1_i6.p2PC2J_TRINITY_DN45315_c0_g1   -            108 47310at3193          -            427   8.7e-11   43.3   0.0   1   2   1.4e-06   0.00038   21.4   0.0     1    31    28    58    28    71 0.90 -
PC2J_TRINITY_DN45315_c0_g1_i6.p2PC2J_TRINITY_DN45315_c0_g1   -            108 47310at3193          -            427   8.7e-11   43.3   0.0   2   2   3.2e-06   0.00086   20.3   0.0     1    30    78   107    78   108 0.93 -
PC2J_TRINITY_DN36309_c1_g3_i1.p1PC2J_TRINITY_DN36309_c1_g3   -            153 47310at3193          -            427   2.7e-10   41.7   0.0   1   1   1.2e-12   3.2e-10   41.4   0.0   288   406    24   145     4   148 0.90 -
PC1J_TRINITY_DN33521_c0_g1_i5.p1PC1J_TRINITY_DN33521_c0_g1   -            327 47310at3193          -            427   4.4e-10   41.0   0.0   1   1   3.8e-12     1e-09   39.8   0.0   224   403   119   297    77   308 0.82 -
PC1A_TRINITY_DN41082_c0_g1_i1.p1PC1A_TRINITY_DN41082_c0_g1   -            108 47310at3193          -            427   6.2e-10   40.5   0.4   1   1   1.5e-11   3.9e-09   37.9   0.4     7    91    33   108    28   108 0.86 -
PC2J_TRINITY_DN39712_c1_g1_i2.p1PC2J_TRINITY_DN39712_c1_g1   -            143 47310at3193          -            427   9.4e-10   39.9   0.0   1   1   4.4e-12   1.2e-09   39.6   0.0   236   363    12   136     4   140 0.88 -
PC3J_TRINITY_DN45117_c0_g1_i8.p1PC3J_TRINITY_DN45117_c0_g1   -            438 47310at3193          -            427   9.7e-10   39.9   0.0   1   1   6.8e-12   1.8e-09   39.0   0.0   207   403   195   404   185   415 0.75 -
PC2A_TRINITY_DN28865_c2_g7_i1.p1PC2A_TRINITY_DN28865_c2_g7   -            165 47310at3193          -            427   1.1e-09   39.7   0.7   1   3    0.0017      0.46   11.3   0.0   288   318    19    49     3    55 0.83 -
PC2A_TRINITY_DN28865_c2_g7_i1.p1PC2A_TRINITY_DN28865_c2_g7   -            165 47310at3193          -            427   1.1e-09   39.7   0.7   2   3   4.7e-08   1.3e-05   26.3   0.0   236   318    48   128    42   134 0.88 -
PC2A_TRINITY_DN28865_c2_g7_i1.p1PC2A_TRINITY_DN28865_c2_g7   -            165 47310at3193          -            427   1.1e-09   39.7   0.7   3   3      0.67   1.8e+02    2.7   0.0   236   273   127   164   122   165 0.87 -
PC2A_TRINITY_DN30332_c1_g3_i1.p1PC2A_TRINITY_DN30332_c1_g3   -            190 47310at3193          -            427   1.1e-09   39.7   0.0   1   1   5.3e-12   1.4e-09   39.3   0.0   261   406    12   162     9   179 0.82 -
PC1J_TRINITY_DN36190_c5_g2_i2.p1PC1J_TRINITY_DN36190_c5_g2   -            151 47310at3193          -            427   1.4e-09   39.3   0.0   1   1   6.1e-12   1.6e-09   39.1   0.0   293   403     1   115     1   121 0.83 -
PC3J_TRINITY_DN40682_c2_g1_i2.p1PC3J_TRINITY_DN40682_c2_g1   -            241 47310at3193          -            427   1.8e-09   39.0   0.0   1   1   7.8e-12   2.1e-09   38.8   0.0   230   313   140   221    20   229 0.77 -
PC2J_TRINITY_DN44133_c0_g2_i1.p1PC2J_TRINITY_DN44133_c0_g2   -            185 47310at3193          -            427   1.8e-09   38.9   0.0   1   1   9.1e-12   2.4e-09   38.5   0.0   239   397    26   184    19   185 0.70 -
PC1J_TRINITY_DN37293_c7_g2_i3.p1PC1J_TRINITY_DN37293_c7_g2   -            169 47310at3193          -            427     2e-09   38.8   0.0   1   1   9.2e-12   2.5e-09   38.5   0.0   230   364    31   163    27   167 0.92 -
PC2A_TRINITY_DN34592_c1_g4_i1.p1PC2A_TRINITY_DN34592_c1_g4   -            173 47310at3193          -            427   2.1e-09   38.8   0.0   1   1   8.7e-12   2.3e-09   38.6   0.0   234   379    28   173     9   173 0.82 -
PC3A_TRINITY_DN36441_c0_g1_i9.p1PC3A_TRINITY_DN36441_c0_g1   -            423 47310at3193          -            427   2.6e-09   38.5   0.0   1   1   2.4e-11   6.3e-09   37.2   0.0   198   408   174   393   166   400 0.80 -
PC3J_TRINITY_DN40837_c10_g2_i1.p1PC3J_TRINITY_DN40837_c10_g2 -            145 47310at3193          -            427     3e-09   38.3   0.0   1   1   1.4e-11   3.6e-09   38.0   0.0   288   404     6   129     2   141 0.83 -
PC2J_TRINITY_DN44676_c4_g1_i7.p1PC2J_TRINITY_DN44676_c4_g1   -            315 47310at3193          -            427   3.2e-09   38.1   0.0   1   1   1.5e-11   4.1e-09   37.8   0.0   179   367   118   313     6   315 0.63 -
PC3A_TRINITY_DN37493_c0_g2_i1.p1PC3A_TRINITY_DN37493_c0_g2   -            210 47310at3193          -            427   3.6e-09   38.0   0.0   1   2      0.43   1.2e+02    3.4   0.0   356   393     1    40     1    45 0.79 -
PC3A_TRINITY_DN37493_c0_g2_i1.p1PC3A_TRINITY_DN37493_c0_g2   -            210 47310at3193          -            427   3.6e-09   38.0   0.0   2   2   2.2e-10   5.8e-08   34.0   0.0   234   394    42   203    31   207 0.83 -
PC2J_TRINITY_DN45248_c2_g2_i2.p1PC2J_TRINITY_DN45248_c2_g2   -            177 47310at3193          -            427     1e-08   36.5   0.0   1   1   4.5e-11   1.2e-08   36.3   0.0   287   408    30   158     7   173 0.82 -
PC1A_TRINITY_DN40226_c0_g1_i2.p1PC1A_TRINITY_DN40226_c0_g1   -            140 47310at3193          -            427     1e-08   36.5   0.0   1   1   4.7e-11   1.3e-08   36.2   0.0   232   329    33   130    28   138 0.86 -
PC3A_TRINITY_DN42578_c2_g1_i4.p1PC3A_TRINITY_DN42578_c2_g1   -            190 47310at3193          -            427   1.1e-08   36.4   0.0   1   1     9e-11   2.4e-08   35.3   0.0   282   408    39   164    27   171 0.87 -
PC2A_TRINITY_DN32238_c3_g3_i1.p1PC2A_TRINITY_DN32238_c3_g3   -            116 47310at3193          -            427   1.2e-08   36.2   0.0   1   1   5.7e-11   1.5e-08   35.9   0.0   233   309    19    93    12    98 0.88 -
PC2J_TRINITY_DN40722_c1_g1_i10.p1PC2J_TRINITY_DN40722_c1_g1  -            309 47310at3193          -            427   1.5e-08   36.0   0.0   1   1   7.8e-11   2.1e-08   35.5   0.0   230   363   155   285   147   292 0.90 -
PC3J_TRINITY_DN39261_c0_g2_i4.p1PC3J_TRINITY_DN39261_c0_g2   -            160 47310at3193          -            427   1.6e-08   35.9   0.0   1   1   7.4e-11     2e-08   35.5   0.0   235   308    50   120    40   126 0.88 -
PC3J_TRINITY_DN39023_c0_g1_i5.p1PC3J_TRINITY_DN39023_c0_g1   -            147 47310at3193          -            427   1.7e-08   35.7   0.0   1   1   7.8e-11   2.1e-08   35.5   0.0   321   407    16   107     7   117 0.85 -
PC2A_TRINITY_DN31285_c7_g1_i5.p1PC2A_TRINITY_DN31285_c7_g1   -            207 47310at3193          -            427   1.8e-08   35.7   0.0   1   1   1.1e-10   2.8e-08   35.0   0.0   194   311    51   183    18   189 0.74 -
PC2A_TRINITY_DN33700_c1_g5_i1.p1PC2A_TRINITY_DN33700_c1_g5   -            143 47310at3193          -            427   2.5e-08   35.2   0.0   1   1   1.1e-10   2.8e-08   35.0   0.0   127   220     9   100     3   117 0.86 -
PC1A_TRINITY_DN37138_c0_g1_i1.p1PC1A_TRINITY_DN37138_c0_g1   -            137 47310at3193          -            427   2.5e-08   35.2   0.1   1   1   1.5e-10   4.1e-08   34.5   0.0   233   311    51   127    35   132 0.87 -
PC3J_TRINITY_DN39023_c0_g1_i1.p1PC3J_TRINITY_DN39023_c0_g1   -            112 47310at3193          -            427   2.8e-08   35.1   0.0   1   1   1.2e-10   3.1e-08   34.9   0.0   236   312     3    77     1    91 0.85 -
PC2A_TRINITY_DN35499_c0_g1_i21.p1PC2A_TRINITY_DN35499_c0_g1  -            207 47310at3193          -            427   3.8e-08   34.6   0.0   1   1   1.7e-10   4.7e-08   34.3   0.0   233   365    41   170    25   180 0.87 -
PC2J_TRINITY_DN40419_c1_g1_i10.p1PC2J_TRINITY_DN40419_c1_g1  -            359 47310at3193          -            427   4.3e-08   34.4   0.0   1   2   5.5e-05     0.015   16.2   0.0    46   148     3   113     1   186 0.77 -
PC2J_TRINITY_DN40419_c1_g1_i10.p1PC2J_TRINITY_DN40419_c1_g1  -            359 47310at3193          -            427   4.3e-08   34.4   0.0   2   2   5.1e-05     0.014   16.3   0.0   301   406   215   323   206   327 0.85 -
PC2A_TRINITY_DN31285_c7_g1_i6.p1PC2A_TRINITY_DN31285_c7_g1   -            147 47310at3193          -            427   4.9e-08   34.2   0.0   1   1   2.3e-10   6.1e-08   33.9   0.0   232   311    45   123    40   131 0.88 -
PC2J_TRINITY_DN36585_c6_g3_i6.p2PC2J_TRINITY_DN36585_c6_g3   -            106 47310at3193          -            427     7e-08   33.7   0.0   1   1   2.9e-10   7.8e-08   33.6   0.0    38    93    43    97    26   103 0.88 -
PC2A_TRINITY_DN35051_c4_g1_i3.p1PC2A_TRINITY_DN35051_c4_g1   -            149 47310at3193          -            427   7.1e-08   33.7   0.0   1   1   2.8e-10   7.5e-08   33.6   0.0   242   311     6    73     1   102 0.87 -
PC2A_TRINITY_DN35237_c1_g2_i5.p1PC2A_TRINITY_DN35237_c1_g2   -            118 47310at3193          -            427   7.8e-08   33.6   0.0   1   1   3.1e-10   8.3e-08   33.5   0.0   233   312    23   100     3   107 0.84 -
PC2J_TRINITY_DN45977_c0_g1_i1.p1PC2J_TRINITY_DN45977_c0_g1   -            208 47310at3193          -            427   1.1e-07   33.1   0.0   1   1   4.9e-10   1.3e-07   32.8   0.0   235   361    75   200    60   207 0.81 -
PC1A_TRINITY_DN41663_c0_g6_i3.p1PC1A_TRINITY_DN41663_c0_g6   -            222 47310at3193          -            427   1.7e-07   32.5   0.0   1   1   8.5e-10   2.3e-07   32.0   0.0    38    93   149   203   133   212 0.89 -
PC2J_TRINITY_DN36585_c6_g3_i1.p1PC2J_TRINITY_DN36585_c6_g3   -            294 47310at3193          -            427   1.9e-07   32.3   0.0   1   1   9.8e-10   2.6e-07   31.8   0.0    38    95   228   284   213   292 0.88 -
PC3A_TRINITY_DN37506_c0_g1_i6.p1PC3A_TRINITY_DN37506_c0_g1   -            189 47310at3193          -            427     2e-07   32.2   0.0   1   1     1e-09   2.8e-07   31.8   0.0   235   311   101   175    93   180 0.92 -
PC1A_TRINITY_DN26319_c0_g1_i1.p1PC1A_TRINITY_DN26319_c0_g1   -            104 47310at3193          -            427   2.2e-07   32.1   0.0   1   1   8.9e-10   2.4e-07   32.0   0.0   252   357     1   104     1   104 0.95 -
PC2A_TRINITY_DN35395_c1_g1_i1.p1PC2A_TRINITY_DN35395_c1_g1   -            262 47310at3193          -            427   3.4e-07   31.5   0.0   1   1   1.9e-09     5e-07   30.9   0.0    19   111   108   199    91   222 0.82 -
PC2A_TRINITY_DN28043_c3_g5_i1.p1PC2A_TRINITY_DN28043_c3_g5   -            128 47310at3193          -            427     4e-07   31.3   0.0   1   1   1.7e-09   4.4e-07   31.1   0.0   237   314    27   102    18   124 0.84 -
PC3A_TRINITY_DN44137_c0_g1_i5.p1PC3A_TRINITY_DN44137_c0_g1   -            116 47310at3193          -            427   5.7e-07   30.7   0.0   1   1   2.2e-09   5.9e-07   30.7   0.0   233   311    27   103     3   113 0.89 -
PC3J_TRINITY_DN43023_c1_g3_i8.p1PC3J_TRINITY_DN43023_c1_g3   -            142 47310at3193          -            427   6.6e-07   30.5   0.0   1   1     3e-09     8e-07   30.2   0.0   239   309    47   115    38   123 0.86 -
PC2J_TRINITY_DN38335_c1_g1_i5.p1PC2J_TRINITY_DN38335_c1_g1   -            114 47310at3193          -            427     7e-07   30.4   0.0   1   1     3e-09   7.9e-07   30.3   0.0   292   366     4    77     1    87 0.92 -
PC1J_TRINITY_DN29143_c0_g1_i1.p1PC1J_TRINITY_DN29143_c0_g1   -            136 47310at3193          -            427   7.5e-07   30.3   0.0   1   1   2.8e-09   7.6e-07   30.3   0.0   231   311    52   130    10   132 0.88 -
PC2J_TRINITY_DN39497_c0_g2_i1.p1PC2J_TRINITY_DN39497_c0_g2   -            263 47310at3193          -            427     1e-06   29.9   0.0   1   1   1.2e-08   3.3e-06   28.2   0.0    19    94    76   151    60   168 0.87 -
PC3A_TRINITY_DN44137_c0_g1_i6.p1PC3A_TRINITY_DN44137_c0_g1   -            234 47310at3193          -            427   1.2e-06   29.6   0.0   1   1   5.7e-09   1.5e-06   29.3   0.0   218   311   132   229    81   232 0.73 -
PC2A_TRINITY_DN14034_c0_g1_i1.p1PC2A_TRINITY_DN14034_c0_g1   -            102 47310at3193          -            427   1.8e-06   29.1   0.0   1   1   7.7e-09   2.1e-06   28.9   0.0   241   311    19    88     6    94 0.90 -
PC3J_TRINITY_DN48310_c2_g1_i1.p1PC3J_TRINITY_DN48310_c2_g1   -            136 47310at3193          -            427   2.9e-06   28.4   0.0   1   1   1.2e-08   3.3e-06   28.2   0.0   287   397    20   134     2   136 0.77 -
PC1J_TRINITY_DN39110_c2_g2_i4.p1PC1J_TRINITY_DN39110_c2_g2   -            377 47310at3193          -            427   3.5e-06   28.1   0.0   1   2       3.6   9.7e+02    0.3   0.0    58   109    91   144    33   180 0.77 -
PC1J_TRINITY_DN39110_c2_g2_i4.p1PC1J_TRINITY_DN39110_c2_g2   -            377 47310at3193          -            427   3.5e-06   28.1   0.0   2   2   7.8e-08   2.1e-05   25.6   0.0   231   320   270   360   216   374 0.83 -
PC1J_TRINITY_DN34068_c3_g3_i2.p1PC1J_TRINITY_DN34068_c3_g3   -            142 47310at3193          -            427     4e-06   27.9   0.0   1   1   1.6e-08   4.3e-06   27.8   0.0   235   312    18    93     7   128 0.87 -
PC3A_TRINITY_DN35000_c0_g2_i2.p1PC3A_TRINITY_DN35000_c0_g2   -            146 47310at3193          -            427   5.3e-06   27.5   0.0   1   2      0.95   2.5e+02    2.2   0.0    57    88     4    34     1    73 0.81 -
PC3A_TRINITY_DN35000_c0_g2_i2.p1PC3A_TRINITY_DN35000_c0_g2   -            146 47310at3193          -            427   5.3e-06   27.5   0.0   2   2   2.7e-07   7.3e-05   23.8   0.0   230   271   103   144    82   146 0.84 -
PC2A_TRINITY_DN32782_c3_g2_i1.p1PC2A_TRINITY_DN32782_c3_g2   -            154 47310at3193          -            427   5.8e-06   27.4   0.0   1   1   2.6e-08   6.8e-06   27.2   0.0   234   312    45   121    32   138 0.89 -
PC3J_TRINITY_DN47228_c4_g1_i4.p1PC3J_TRINITY_DN47228_c4_g1   -            135 47310at3193          -            427   7.3e-06   27.1   0.0   1   1   3.4e-08   9.1e-06   26.8   0.0   299   405     9   121     3   126 0.86 -
PC2J_TRINITY_DN43221_c1_g1_i2.p1PC2J_TRINITY_DN43221_c1_g1   -            221 47310at3193          -            427   7.5e-06   27.1   0.0   1   1   2.8e-08   7.5e-06   27.0   0.0   231   358    97   220    27   220 0.86 -
PC3J_TRINITY_DN49186_c1_g1_i1.p1PC3J_TRINITY_DN49186_c1_g1   -            179 47310at3193          -            427   7.5e-06   27.0   0.0   1   1   3.1e-08   8.4e-06   26.9   0.0   287   403    15   137     1   152 0.79 -
PC2A_TRINITY_DN25308_c0_g1_i2.p1PC2A_TRINITY_DN25308_c0_g1   -            142 47310at3193          -            427   8.1e-06   26.9   0.1   1   2     9e-08   2.4e-05   25.4   0.1   231   323     4    97     1   119 0.76 -
PC2A_TRINITY_DN25308_c0_g1_i2.p1PC2A_TRINITY_DN25308_c0_g1   -            142 47310at3193          -            427   8.1e-06   26.9   0.1   2   2       3.5   9.4e+02    0.4   0.0   377   402   106   131   100   137 0.82 -
PC3J_TRINITY_DN45620_c0_g2_i5.p1PC3J_TRINITY_DN45620_c0_g2   -            254 47310at3193          -            427   1.3e-05   26.2   0.0   1   1   7.3e-08     2e-05   25.7   0.0   235   312   136   211   122   239 0.89 -
PC3J_TRINITY_DN45752_c0_g1_i1.p1PC3J_TRINITY_DN45752_c0_g1   -            170 47310at3193          -            427   1.5e-05   26.1   0.0   1   1   6.8e-08   1.8e-05   25.8   0.0   236   311    14    87     3    98 0.85 -
PC2J_TRINITY_DN37669_c1_g2_i3.p1PC2J_TRINITY_DN37669_c1_g2   -            178 47310at3193          -            427   1.7e-05   25.9   0.0   1   1     7e-08   1.9e-05   25.7   0.0   232   308   104   178    50   178 0.88 -
PC2J_TRINITY_DN29196_c0_g1_i1.p1PC2J_TRINITY_DN29196_c0_g1   -            116 47310at3193          -            427   1.9e-05   25.7   0.0   1   1     8e-08   2.1e-05   25.6   0.0     2    82    29   112    28   116 0.82 -
PC2J_TRINITY_DN44029_c0_g1_i2.p1PC2J_TRINITY_DN44029_c0_g1   -            143 47310at3193          -            427   2.3e-05   25.4   0.0   1   1     1e-07   2.8e-05   25.2   0.0   249   370     8   126     3   134 0.90 -
PC3A_TRINITY_DN31056_c0_g1_i1.p1PC3A_TRINITY_DN31056_c0_g1   -            111 47310at3193          -            427   3.2e-05   25.0   0.0   1   1   1.4e-07   3.8e-05   24.7   0.0   233   298    37   100    30   106 0.76 -
PC2A_TRINITY_DN35499_c0_g1_i8.p1PC2A_TRINITY_DN35499_c0_g1   -            283 47310at3193          -            427   3.2e-05   25.0   0.3   1   1   2.3e-07   6.1e-05   24.1   0.3    82   306    40   282    27   283 0.68 -
PC2J_TRINITY_DN45705_c0_g1_i7.p1PC2J_TRINITY_DN45705_c0_g1   -            183 47310at3193          -            427   4.5e-05   24.5   0.2   1   1   2.7e-07   7.2e-05   23.8   0.1   232   297    87   150    70   158 0.83 -
PC3J_TRINITY_DN40300_c1_g2_i3.p1PC3J_TRINITY_DN40300_c1_g2   -            143 47310at3193          -            427   4.9e-05   24.4   0.0   1   1   2.1e-07   5.7e-05   24.2   0.0   192   306    18   142     4   143 0.73 -
PC2A_TRINITY_DN30040_c1_g6_i1.p1PC2A_TRINITY_DN30040_c1_g6   -            158 47310at3193          -            427   4.9e-05   24.4   0.0   1   1     2e-07   5.5e-05   24.2   0.0   290   409    14   139     6   158 0.81 -
PC2J_TRINITY_DN31130_c0_g1_i2.p1PC2J_TRINITY_DN31130_c0_g1   -            127 47310at3193          -            427   6.3e-05   24.0   0.0   1   1     3e-07   8.1e-05   23.6   0.0     4    62    61   127    58   127 0.75 -
PC2J_TRINITY_DN37934_c3_g1_i7.p1PC2J_TRINITY_DN37934_c3_g1   -            190 47310at3193          -            427   6.4e-05   24.0   0.0   1   1     3e-07   7.9e-05   23.7   0.0   290   399    75   185    56   189 0.80 -
PC2J_TRINITY_DN45156_c3_g1_i8.p1PC2J_TRINITY_DN45156_c3_g1   -            116 47310at3193          -            427   6.9e-05   23.9   0.0   1   1   2.7e-07   7.3e-05   23.8   0.0   252   311     3    60     1    81 0.86 -
PC3A_TRINITY_DN44137_c0_g4_i5.p1PC3A_TRINITY_DN44137_c0_g4   -            164 47310at3193          -            427   7.3e-05   23.8   0.0   1   1   3.5e-07   9.5e-05   23.4   0.0   296   404     8   122     4   128 0.87 -
PC1J_TRINITY_DN38751_c2_g1_i1.p1PC1J_TRINITY_DN38751_c2_g1   -            284 47310at3193          -            427   7.4e-05   23.8   0.2   1   1   1.3e-06   0.00036   21.5   0.2    83   309    35   283    22   284 0.68 -
PC3J_TRINITY_DN48310_c4_g1_i10.p1PC3J_TRINITY_DN48310_c4_g1  -            108 47310at3193          -            427   7.7e-05   23.7   0.0   1   1   3.4e-07   9.2e-05   23.5   0.0   336   406    27   102    16   105 0.83 -
PC2A_TRINITY_DN29645_c1_g1_i2.p1PC2A_TRINITY_DN29645_c1_g1   -            124 47310at3193          -            427   8.2e-05   23.6   0.0   1   1   3.7e-07   9.9e-05   23.4   0.0   299   392     9   100     5   112 0.84 -
PC1A_TRINITY_DN43782_c1_g2_i1.p1PC1A_TRINITY_DN43782_c1_g2   -            139 47310at3193          -            427   9.1e-05   23.5   0.0   1   2   2.1e-06   0.00055   20.9   0.0   246   311     2    65     1    77 0.87 -
PC1A_TRINITY_DN43782_c1_g2_i1.p1PC1A_TRINITY_DN43782_c1_g2   -            139 47310at3193          -            427   9.1e-05   23.5   0.0   2   2       2.9   7.9e+02    0.6   0.0   287   306    88   107    74   116 0.83 -
PC1J_TRINITY_DN37645_c5_g1_i1.p1PC1J_TRINITY_DN37645_c5_g1   -            104 47310at3193          -            427    0.0001   23.3   0.0   1   1   4.2e-07   0.00011   23.2   0.0   348   406     2    68     1    86 0.80 -
PC2J_TRINITY_DN34935_c0_g3_i1.p1PC2J_TRINITY_DN34935_c0_g3   -            301 47310at3193          -            427   0.00011   23.2   0.0   1   1   5.1e-06    0.0014   19.6   0.0    80   275    47   261    10   270 0.66 -
PC1A_TRINITY_DN8738_c0_g1_i1.p1PC1A_TRINITY_DN8738_c0_g1     -            101 47310at3193          -            427   0.00016   22.7   0.0   1   1   6.4e-07   0.00017   22.6   0.0   237   310     2    79     1    94 0.81 -
PC2J_TRINITY_DN44931_c0_g1_i12.p1PC2J_TRINITY_DN44931_c0_g1  -            228 47310at3193          -            427    0.0002   22.3   0.0   1   1   1.1e-06   0.00029   21.8   0.0   232   310   146   222   141   227 0.91 -
PC1J_TRINITY_DN37424_c2_g3_i8.p1PC1J_TRINITY_DN37424_c2_g3   -            361 47310at3193          -            427   0.00029   21.8   0.0   1   1   5.6e-06    0.0015   19.5   0.0    73   298   118   360    75   361 0.63 -
PC2A_TRINITY_DN18260_c0_g1_i2.p1PC2A_TRINITY_DN18260_c0_g1   -            116 47310at3193          -            427   0.00037   21.5   0.0   1   2   8.4e-05     0.022   15.6   0.0    53   107     4    59     1    79 0.78 -
PC2A_TRINITY_DN18260_c0_g1_i2.p1PC2A_TRINITY_DN18260_c0_g1   -            116 47310at3193          -            427   0.00037   21.5   0.0   2   2      0.17        44    4.7   0.0    76   105    81   110    68   116 0.79 -
PC2A_TRINITY_DN35176_c2_g3_i1.p1PC2A_TRINITY_DN35176_c2_g3   -            256 47310at3193          -            427   0.00086   20.3   0.3   1   1   3.1e-05    0.0082   17.0   0.3    80   273    45   256    10   256 0.70 -
PC3J_TRINITY_DN45117_c0_g2_i5.p1PC3J_TRINITY_DN45117_c0_g2   -            125 47310at3193          -            427    0.0011   20.0   0.1   1   1   4.5e-06    0.0012   19.8   0.1   293   407     3   116     1   123 0.83 -
PC2J_TRINITY_DN29196_c0_g1_i2.p1PC2J_TRINITY_DN29196_c0_g1   -            129 47310at3193          -            427    0.0012   19.8   0.0   1   1   4.8e-06    0.0013   19.7   0.0     2    64    29    96    28   125 0.80 -
PC2J_TRINITY_DN42592_c1_g3_i5.p1PC2J_TRINITY_DN42592_c1_g3   -            108 47310at3193          -            427    0.0014   19.5   0.0   1   1   5.5e-06    0.0015   19.5   0.0   302   402     1   104     1   108 0.77 -
PC1J_TRINITY_DN32902_c1_g2_i1.p1PC1J_TRINITY_DN32902_c1_g2   -            135 47310at3193          -            427    0.0015   19.5   0.0   1   1   5.8e-06    0.0016   19.4   0.0   267   381    11   129     2   135 0.72 -
PC1A_TRINITY_DN42597_c2_g5_i1.p1PC1A_TRINITY_DN42597_c2_g5   -            137 47310at3193          -            427    0.0017   19.3   0.0   1   1   7.4e-06     0.002   19.1   0.0    62   104    85   127    56   135 0.80 -
PC2J_TRINITY_DN45156_c3_g2_i2.p1PC2J_TRINITY_DN45156_c3_g2   -            116 47310at3193          -            427    0.0018   19.2   0.0   1   1   8.5e-06    0.0023   18.9   0.0   233   302    36   103    29   108 0.85 -
PC3A_TRINITY_DN44137_c0_g1_i12.p1PC3A_TRINITY_DN44137_c0_g1  -            290 47310at3193          -            427    0.0026   18.7   0.4   1   1   1.6e-05    0.0042   18.0   0.4    76   299    44   286     2   288 0.64 -
PC2J_TRINITY_DN43953_c2_g1_i2.p1PC2J_TRINITY_DN43953_c2_g1   -            181 47310at3193          -            427    0.0029   18.5   0.0   1   1   1.4e-05    0.0038   18.1   0.0    44   146    38   149    32   155 0.77 -
PC2J_TRINITY_DN41864_c0_g1_i13.p1PC2J_TRINITY_DN41864_c0_g1  -            112 47310at3193          -            427    0.0033   18.4   0.0   1   1   1.3e-05    0.0035   18.3   0.0    42   106    32    95    14   108 0.88 -
PC3J_TRINITY_DN39445_c0_g1_i6.p1PC3J_TRINITY_DN39445_c0_g1   -            224 47310at3193          -            427    0.0041   18.0   0.0   1   1     2e-05    0.0053   17.7   0.0   352   408   137   193   129   211 0.87 -
PC2J_TRINITY_DN43953_c2_g1_i10.p1PC2J_TRINITY_DN43953_c2_g1  -            250 47310at3193          -            427    0.0043   18.0   0.0   1   1   2.2e-05    0.0059   17.5   0.0    44   146    38   149    32   160 0.78 -
PC3J_TRINITY_DN4657_c0_g1_i1.p2PC3J_TRINITY_DN4657_c0_g1     -            100 47310at3193          -            427    0.0045   17.9   0.1   1   1   9.9e-05     0.027   15.4   0.1   174   245     7   100     3   100 0.66 -
PC1J_TRINITY_DN37424_c2_g3_i6.p1PC1J_TRINITY_DN37424_c2_g3   -            160 47310at3193          -            427    0.0055   17.6   0.0   1   1   2.5e-05    0.0067   17.3   0.0   231   298    94   159    75   160 0.81 -
PC2A_TRINITY_DN30332_c1_g3_i5.p1PC2A_TRINITY_DN30332_c1_g3   -            108 47310at3193          -            427    0.0068   17.3   0.0   1   1   2.5e-05    0.0068   17.3   0.0   260   310    11    59     8    99 0.78 -
PC2J_TRINITY_DN43204_c0_g3_i2.p1PC2J_TRINITY_DN43204_c0_g3   -            113 47310at3193          -            427    0.0073   17.2   0.1   1   1   3.1e-05    0.0082   17.0   0.1   123   219    10   106     3   112 0.78 -
PC2A_TRINITY_DN34588_c0_g2_i3.p1PC2A_TRINITY_DN34588_c0_g2   -            105 47310at3193          -            427    0.0074   17.2   0.0   1   1   2.8e-05    0.0076   17.2   0.0   230   275    50    95    26   103 0.92 -
PC2A_TRINITY_DN34588_c0_g2_i2.p1PC2A_TRINITY_DN34588_c0_g2   -            154 47310at3193          -            427    0.0086   17.0   0.0   1   1   3.7e-05      0.01   16.8   0.0   230   275    99   144    39   152 0.81 -
PC1A_TRINITY_DN44283_c1_g4_i1.p1PC1A_TRINITY_DN44283_c1_g4   -            183 47310at3193          -            427    0.0096   16.8   0.0   1   1   4.3e-05     0.011   16.6   0.0    44   147    59   168    30   175 0.71 -
PC3A_TRINITY_DN42370_c4_g3_i3.p1PC3A_TRINITY_DN42370_c4_g3   -            158 47310at3193          -            427     0.011   16.6   0.0   1   2    0.0027      0.72   10.6   0.0   353   404    12    70     4    79 0.76 -
PC3A_TRINITY_DN42370_c4_g3_i3.p1PC3A_TRINITY_DN42370_c4_g3   -            158 47310at3193          -            427     0.011   16.6   0.0   2   2      0.23        62    4.3   0.0   369   403    81   115    74   132 0.85 -
PC2J_TRINITY_DN40483_c0_g2_i3.p1PC2J_TRINITY_DN40483_c0_g2   -            163 47310at3193          -            427     0.015   16.2   0.0   1   1   7.2e-05     0.019   15.8   0.0   339   406    44   118    30   133 0.81 -
PC2J_TRINITY_DN44416_c5_g1_i2.p1PC2J_TRINITY_DN44416_c5_g1   -            160 47310at3193          -            427     0.017   16.0   0.0   1   1   0.00011     0.029   15.2   0.0   193   275    46   144    11   150 0.72 -
PC3J_TRINITY_DN47539_c0_g1_i2.p1PC3J_TRINITY_DN47539_c0_g1   -            132 47310at3193          -            427     0.019   15.8   0.0   1   1   8.1e-05     0.022   15.7   0.0   253   351     2    98     1   104 0.84 -
PC2A_TRINITY_DN29645_c1_g1_i3.p1PC2A_TRINITY_DN29645_c1_g1   -            110 47310at3193          -            427      0.02   15.8   0.0   1   1   7.7e-05     0.021   15.7   0.0   345   392    39    86     7    99 0.76 -
PC1J_TRINITY_DN39110_c2_g1_i4.p1PC1J_TRINITY_DN39110_c2_g1   -            103 47310at3193          -            427      0.02   15.7   0.0   1   1   7.8e-05     0.021   15.7   0.0   282   361    18    96     5   103 0.82 -
PC2A_TRINITY_DN18260_c0_g1_i1.p1PC2A_TRINITY_DN18260_c0_g1   -            116 47310at3193          -            427     0.021   15.7   0.0   1   1   8.4e-05     0.022   15.6   0.0    53   107     4    59     1    79 0.78 -
PC2J_TRINITY_DN44931_c0_g1_i5.p1PC2J_TRINITY_DN44931_c0_g1   -            105 47310at3193          -            427     0.022   15.6   0.0   1   1   9.7e-05     0.026   15.4   0.0   236   305    21    88     5    92 0.89 -
PC1J_TRINITY_DN35735_c1_g1_i6.p1PC1J_TRINITY_DN35735_c1_g1   -            156 47310at3193          -            427     0.028   15.3   0.0   1   2      0.14        36    5.0   0.0     2    57    38    95    37    98 0.81 -
PC1J_TRINITY_DN35735_c1_g1_i6.p1PC1J_TRINITY_DN35735_c1_g1   -            156 47310at3193          -            427     0.028   15.3   0.0   2   2    0.0093       2.5    8.8   0.0   240   276   102   138    95   156 0.79 -
PC3J_TRINITY_DN38969_c0_g2_i2.p1PC3J_TRINITY_DN38969_c0_g2   -            143 47310at3193          -            427     0.032   15.1   0.0   1   1   0.00014     0.038   14.8   0.0   348   406    39   102    28   112 0.84 -
PC3A_TRINITY_DN42370_c4_g2_i1.p1PC3A_TRINITY_DN42370_c4_g2   -            217 47310at3193          -            427     0.036   14.9   0.1   1   1   0.00018     0.048   14.5   0.1    83   264     9   211     4   216 0.71 -
PC3J_TRINITY_DN45117_c0_g2_i4.p1PC3J_TRINITY_DN45117_c0_g2   -            100 47310at3193          -            427     0.037   14.9   0.0   1   1   0.00014     0.037   14.9   0.0   355   407    20    74    10    95 0.82 -
PC2A_TRINITY_DN35472_c1_g2_i1.p1PC2A_TRINITY_DN35472_c1_g2   -            103 47310at3193          -            427     0.038   14.8   0.0   1   1   0.00015     0.041   14.7   0.0   237   275    32    70    16    89 0.84 -
PC1J_TRINITY_DN39051_c6_g1_i22.p1PC1J_TRINITY_DN39051_c6_g1  -            280 47310at3193          -            427     0.047   14.5   0.1   1   2      0.68   1.8e+02    2.7   0.0    32    95    89   152    51   178 0.63 -
PC1J_TRINITY_DN39051_c6_g1_i22.p1PC1J_TRINITY_DN39051_c6_g1  -            280 47310at3193          -            427     0.047   14.5   0.1   2   2    0.0047       1.3    9.8   0.0   207   272   200   271   186   277 0.82 -
PC3A_TRINITY_DN39887_c1_g2_i1.p1PC3A_TRINITY_DN39887_c1_g2   -            128 47310at3193          -            427     0.051   14.4   0.0   1   1   0.00022      0.06   14.2   0.0   340   405    22    90     6    99 0.80 -
PC2A_TRINITY_DN35395_c1_g1_i9.p1PC2A_TRINITY_DN35395_c1_g1   -            258 47310at3193          -            427     0.053   14.4   0.0   1   1   0.00032     0.085   13.7   0.0    66   160   119   225   109   251 0.70 -
PC1J_TRINITY_DN41069_c0_g1_i10.p1PC1J_TRINITY_DN41069_c0_g1  -            130 47310at3193          -            427     0.057   14.3   0.0   1   1   0.00024     0.065   14.1   0.0   285   372    11    97     2   110 0.89 -
PC2J_TRINITY_DN44010_c1_g1_i19.p1PC2J_TRINITY_DN44010_c1_g1  -            182 47310at3193          -            427     0.074   13.9   0.2   1   1   0.00039       0.1   13.4   0.1    21   109    17   109     4   125 0.73 -
PC2J_TRINITY_DN44010_c1_g1_i28.p1PC2J_TRINITY_DN44010_c1_g1  -            302 47310at3193          -            427     0.082   13.7   0.0   1   1   0.00042      0.11   13.3   0.0     6   109    10   119     5   137 0.72 -
PC2J_TRINITY_DN16747_c0_g1_i1.p1PC2J_TRINITY_DN16747_c0_g1   -            161 47310at3193          -            427     0.089   13.6   0.0   1   1   0.00044      0.12   13.2   0.0   234   308    88   159    68   161 0.77 -
PC2J_TRINITY_DN37658_c2_g2_i1.p1PC2J_TRINITY_DN37658_c2_g2   -            119 47310at3193          -            427     0.093   13.6   0.1   1   1   0.00035     0.093   13.6   0.1   233   277    71   115    13   118 0.84 -
PC1J_TRINITY_DN38647_c0_g2_i13.p1PC1J_TRINITY_DN38647_c0_g2  -            116 47310at3193          -            427     0.097   13.5   0.1   1   1   0.00055      0.15   12.9   0.1   280   311    82   113    51   114 0.73 -
PC1A_TRINITY_DN43782_c1_g6_i8.p1PC1A_TRINITY_DN43782_c1_g6   -            103 47310at3193          -            427     0.099   13.5   0.0   1   1   0.00038       0.1   13.4   0.0   278   350    25    97     5   102 0.77 -
PC2J_TRINITY_DN39040_c2_g1_i9.p1PC2J_TRINITY_DN39040_c2_g1   -            204 47310at3193          -            427      0.11   13.3   1.2   1   1   0.00067      0.18   12.6   1.2   196   297    48   165    17   176 0.66 -
PC1J_TRINITY_DN40175_c1_g2_i1.p1PC1J_TRINITY_DN40175_c1_g2   -            134 47310at3193          -            427      0.12   13.1   0.0   1   1   0.00058      0.16   12.8   0.0   340   404    22    92     8    98 0.76 -
PC2A_TRINITY_DN26945_c0_g1_i1.p1PC2A_TRINITY_DN26945_c0_g1   -            124 47310at3193          -            427      0.13   13.0   0.0   1   1   0.00059      0.16   12.8   0.0   328   405     5    88     2    98 0.75 -
PC1J_TRINITY_DN35886_c3_g3_i1.p1PC1J_TRINITY_DN35886_c3_g3   -            114 47310at3193          -            427      0.14   13.0   0.0   1   1    0.0006      0.16   12.8   0.0   352   403    12    70     5    85 0.79 -
PC1J_TRINITY_DN35323_c0_g4_i8.p1PC1J_TRINITY_DN35323_c0_g4   -            114 47310at3193          -            427      0.15   12.9   0.1   1   1   0.00055      0.15   12.9   0.1   230   279    38    87     6   113 0.79 -
PC3J_TRINITY_DN40918_c0_g8_i1.p1PC3J_TRINITY_DN40918_c0_g8   -            166 47310at3193          -            427      0.15   12.8   0.0   1   1   0.00068      0.18   12.6   0.0     2   123    33   159    32   163 0.75 -
PC2J_TRINITY_DN44931_c0_g1_i19.p1PC2J_TRINITY_DN44931_c0_g1  -            190 47310at3193          -            427      0.15   12.8   0.0   1   1   0.00085      0.23   12.3   0.0   230   274   130   174   127   183 0.92 -
PC3A_TRINITY_DN39502_c1_g1_i3.p1PC3A_TRINITY_DN39502_c1_g1   -            146 47310at3193          -            427      0.16   12.8   0.1   1   2    0.0038         1   10.1   0.0   233   275    38    80    20    89 0.89 -
PC3A_TRINITY_DN39502_c1_g1_i3.p1PC3A_TRINITY_DN39502_c1_g1   -            146 47310at3193          -            427      0.16   12.8   0.1   2   2       2.6   6.9e+02    0.8   0.0   338   366   118   145   105   146 0.79 -
PC1A_TRINITY_DN43430_c2_g5_i1.p1PC1A_TRINITY_DN43430_c2_g5   -            123 47310at3193          -            427      0.16   12.8   0.0   1   1    0.0006      0.16   12.8   0.0   351   404    62   115    20   119 0.86 -
PC1A_TRINITY_DN43041_c0_g1_i8.p1PC1A_TRINITY_DN43041_c0_g1   -            158 47310at3193          -            427      0.16   12.7   0.0   1   1   0.00075       0.2   12.5   0.0   340   406    53   122    32   127 0.82 -
PC2A_TRINITY_DN33839_c1_g1_i2.p1PC2A_TRINITY_DN33839_c1_g1   -            103 47310at3193          -            427       0.2   12.4   0.0   1   1    0.0008      0.21   12.4   0.0   355   406     7    62     2    81 0.84 -
PC1J_TRINITY_DN35735_c1_g1_i3.p1PC1J_TRINITY_DN35735_c1_g1   -            147 47310at3193          -            427      0.21   12.4   0.0   1   1   0.00097      0.26   12.1   0.0   233   278    88   133    64   141 0.86 -
PC2J_TRINITY_DN40676_c0_g1_i4.p1PC2J_TRINITY_DN40676_c0_g1   -            206 47310at3193          -            427      0.22   12.3   0.0   1   1    0.0011      0.29   11.9   0.0     2    99    80   182    79   188 0.77 -
PC2J_TRINITY_DN39040_c2_g1_i10.p1PC2J_TRINITY_DN39040_c2_g1  -            285 47310at3193          -            427      0.27   12.0   0.5   1   1    0.0017      0.45   11.3   0.5   224   297   172   246   122   258 0.70 -
PC2J_TRINITY_DN42592_c1_g3_i1.p1PC2J_TRINITY_DN42592_c1_g3   -            139 47310at3193          -            427      0.32   11.8   0.1   1   1    0.0021      0.56   11.0   0.1   233   263   105   135    83   138 0.86 -
PC2J_TRINITY_DN46071_c0_g4_i4.p1PC2J_TRINITY_DN46071_c0_g4   -            173 47310at3193          -            427      0.32   11.8   0.1   1   1    0.0014      0.38   11.5   0.1   207   274    60   133    44   158 0.79 -
PC2J_TRINITY_DN42247_c1_g1_i3.p1PC2J_TRINITY_DN42247_c1_g1   -            107 47310at3193          -            427      0.36   11.6   0.0   1   1    0.0014      0.37   11.6   0.0   290   365     7    81     1   102 0.79 -
PC2J_TRINITY_DN40173_c0_g3_i1.p1PC2J_TRINITY_DN40173_c0_g3   -            111 47310at3193          -            427      0.45   11.3   0.0   1   1    0.0019      0.51   11.1   0.0   293   365    30   101    17   108 0.81 -
#
# Program:         hmmsearch
# Version:         3.2.1 (June 2018)
# Pipeline mode:   SEARCH
# Query file:      /isg/shared/databases/BUSCO/odb10/embryophyta_odb10/hmms/47310at3193.hmm
# Target file:     Pine_final_annotations_no_contam_lvl0.faa
# Option settings: /usr/local/bin/hmmsearch --domtblout /labs/Wegrzyn/Juniper_Pine/BUSCO/NEW/busco_pine/run_embryophyta_odb10/hmmer_output/47310at3193.out --cpu 1 /isg/shared/databases/BUSCO/odb10/embryophyta_odb10/hmms/47310at3193.hmm Pine_final_annotations_no_contam_lvl0.faa 
# Current dir:     /labs/Wegrzyn/Juniper_Pine/BUSCO/NEW
# Date:            Thu Aug  6 15:01:32 2020
# [ok]
