#                                                                                                                  --- full sequence --- -------------- this domain -------------   hmm coord   ali coord   env coord
# target name                                              accession   tlen query name           accession   qlen   E-value  score  bias   #  of  c-Evalue  i-Evalue  score  bias  from    to  from    to  from    to  acc description of target
#                                      ------------------- ---------- ----- -------------------- ---------- ----- --------- ------ ----- --- --- --------- --------- ------ ----- ----- ----- ----- ----- ----- ----- ---- ---------------------
PC3J_TRINITY_DN48478_c3_g1_i1.p1PC3J_TRINITY_DN48478_c3_g1 -            241 51348at3193          -            558   2.4e-80  272.5   0.3   1   1   1.3e-83   2.5e-80  272.5   0.3   211   358     1   149     1   238 0.91 -
PC2J_TRINITY_DN43526_c1_g1_i4.p1PC2J_TRINITY_DN43526_c1_g1 -            433 51348at3193          -            558   9.1e-23   82.5   0.0   1   2   6.2e-15   1.2e-11   45.8   0.0   127   254     2   121     1   126 0.88 -
PC2J_TRINITY_DN43526_c1_g1_i4.p1PC2J_TRINITY_DN43526_c1_g1 -            433 51348at3193          -            558   9.1e-23   82.5   0.0   2   2     5e-11   9.6e-08   32.9   0.0   106   197   133   221   125   225 0.86 -
PC2A_TRINITY_DN30332_c1_g5_i3.p1PC2A_TRINITY_DN30332_c1_g5 -            295 51348at3193          -            558   2.8e-19   70.9   0.0   1   2   6.9e-05      0.13   12.6   0.0   134   205    76   144    63   147 0.69 -
PC2A_TRINITY_DN30332_c1_g5_i3.p1PC2A_TRINITY_DN30332_c1_g5 -            295 51348at3193          -            558   2.8e-19   70.9   0.0   2   2   2.7e-18   5.3e-15   56.8   0.0   102   254   146   290   142   294 0.87 -
PC2A_TRINITY_DN27811_c0_g1_i5.p1PC2A_TRINITY_DN27811_c0_g1 -            218 51348at3193          -            558   5.9e-19   69.9   0.0   1   2   3.9e-08   7.6e-05   23.3   0.0   128   198     5    70     1    75 0.83 -
PC2A_TRINITY_DN27811_c0_g1_i5.p1PC2A_TRINITY_DN27811_c0_g1 -            218 51348at3193          -            558   5.9e-19   69.9   0.0   2   2   1.9e-14   3.8e-11   44.1   0.0   154   254    75   173    70   179 0.89 -
PC3J_TRINITY_DN43250_c1_g2_i5.p1PC3J_TRINITY_DN43250_c1_g2 -            424 51348at3193          -            558   1.6e-18   68.4   0.0   1   3      0.53     1e+03   -0.2   0.0   363   397   113   147    88   152 0.81 -
PC3J_TRINITY_DN43250_c1_g2_i5.p1PC3J_TRINITY_DN43250_c1_g2 -            424 51348at3193          -            558   1.6e-18   68.4   0.0   2   3   1.8e-09   3.5e-06   27.7   0.0   166   313   152   291   147   294 0.88 -
PC3J_TRINITY_DN43250_c1_g2_i5.p1PC3J_TRINITY_DN43250_c1_g2 -            424 51348at3193          -            558   1.6e-18   68.4   0.0   3   3   1.4e-14   2.6e-11   44.6   0.0   105   259   253   399   250   423 0.79 -
PC3J_TRINITY_DN39635_c2_g2_i4.p1PC3J_TRINITY_DN39635_c2_g2 -            511 51348at3193          -            558   3.2e-16   60.9   0.0   1   2   1.5e-07   0.00029   21.4   0.0   179   313    18   150     5   152 0.67 -
PC3J_TRINITY_DN39635_c2_g2_i4.p1PC3J_TRINITY_DN39635_c2_g2 -            511 51348at3193          -            558   3.2e-16   60.9   0.0   2   2   3.3e-13   6.4e-10   40.1   0.0    83   256   144   310   139   331 0.77 -
PC2J_TRINITY_DN41098_c1_g4_i1.p1PC2J_TRINITY_DN41098_c1_g4 -            206 51348at3193          -            558   5.2e-16   60.2   0.0   1   2   6.6e-09   1.3e-05   25.9   0.0   164   256     4    93     1    99 0.83 -
PC2J_TRINITY_DN41098_c1_g4_i1.p1PC2J_TRINITY_DN41098_c1_g4 -            206 51348at3193          -            558   5.2e-16   60.2   0.0   2   2   7.1e-11   1.4e-07   32.4   0.0   102   198   100   193    97   202 0.83 -
PC2J_TRINITY_DN43526_c1_g1_i8.p1PC2J_TRINITY_DN43526_c1_g1 -            158 51348at3193          -            558   8.1e-13   49.6   0.0   1   1   2.8e-14   5.5e-11   43.6   0.0   121   253     6   128     2   128 0.69 -
PC3A_TRINITY_DN44941_c0_g1_i1.p1PC3A_TRINITY_DN44941_c0_g1 -            100 51348at3193          -            558   1.4e-10   42.3   0.0   1   1   7.8e-14   1.5e-10   42.1   0.0   106   206     1    97     1   100 0.88 -
PC2J_TRINITY_DN40489_c1_g5_i1.p1PC2J_TRINITY_DN40489_c1_g5 -            161 51348at3193          -            558     6e-10   40.2   0.2   1   2   0.00018      0.34   11.3   0.0   177   221     5    46     1    56 0.62 -
PC2J_TRINITY_DN40489_c1_g5_i1.p1PC2J_TRINITY_DN40489_c1_g5 -            161 51348at3193          -            558     6e-10   40.2   0.2   2   2   2.6e-09   4.9e-06   27.2   0.1   121   224    61   156    56   160 0.82 -
PC1J_TRINITY_DN35943_c0_g5_i2.p1PC1J_TRINITY_DN35943_c0_g5 -            127 51348at3193          -            558   3.7e-09   37.6   0.2   1   2     0.014        27    5.0   0.0   118   143    10    35     1    44 0.76 -
PC1J_TRINITY_DN35943_c0_g5_i2.p1PC1J_TRINITY_DN35943_c0_g5 -            127 51348at3193          -            558   3.7e-09   37.6   0.2   2   2   1.8e-10   3.5e-07   31.0   0.1   102   186    44   123    38   126 0.80 -
PC2J_TRINITY_DN39894_c0_g4_i2.p1PC2J_TRINITY_DN39894_c0_g4 -            170 51348at3193          -            558   4.8e-09   37.2   0.0   1   2    0.0048       9.3    6.5   0.0   166   215    24    73     3    77 0.69 -
PC2J_TRINITY_DN39894_c0_g4_i2.p1PC2J_TRINITY_DN39894_c0_g4 -            170 51348at3193          -            558   4.8e-09   37.2   0.0   2   2   1.8e-11   3.5e-08   34.3   0.0    83   197    48   166    30   168 0.80 -
PC3J_TRINITY_DN32381_c0_g1_i1.p1PC3J_TRINITY_DN32381_c0_g1 -            100 51348at3193          -            558   2.1e-08   35.0   0.0   1   1   1.9e-11   3.7e-08   34.3   0.0   159   254     1    92     1   100 0.63 -
PC2A_TRINITY_DN21854_c0_g1_i2.p1PC2A_TRINITY_DN21854_c0_g1 -            172 51348at3193          -            558   1.8e-07   32.0   0.0   1   1   1.4e-10   2.8e-07   31.4   0.0   206   315    13   113     1   164 0.50 -
PC2J_TRINITY_DN43214_c5_g5_i1.p1PC2J_TRINITY_DN43214_c5_g5 -            187 51348at3193          -            558   2.4e-06   28.3   0.0   1   1   5.9e-09   1.1e-05   26.0   0.0   101   226    51   174    46   178 0.78 -
PC1J_TRINITY_DN39458_c1_g2_i4.p1PC1J_TRINITY_DN39458_c1_g2 -            103 51348at3193          -            558   3.3e-06   27.8   0.0   1   1     2e-09   3.9e-06   27.6   0.0   136   218    19    94     7   100 0.67 -
PC2J_TRINITY_DN43667_c1_g1_i2.p1PC2J_TRINITY_DN43667_c1_g1 -            340 51348at3193          -            558   0.00018   22.1   0.0   1   1   1.5e-07   0.00028   21.4   0.0    95   228   183   315   177   338 0.74 -
PC1J_TRINITY_DN13652_c0_g1_i2.p1PC1J_TRINITY_DN13652_c0_g1 -            101 51348at3193          -            558   0.00028   21.4   0.2   1   2     0.021        40    4.4   0.2   271   295     7    33     4    41 0.77 -
PC1J_TRINITY_DN13652_c0_g1_i2.p1PC1J_TRINITY_DN13652_c0_g1 -            101 51348at3193          -            558   0.00028   21.4   0.2   2   2   8.6e-06     0.017   15.6   0.0    98   142    42    87    34    92 0.84 -
PC3A_TRINITY_DN44774_c0_g1_i1.p1PC3A_TRINITY_DN44774_c0_g1 -            155 51348at3193          -            558   0.00043   20.8   0.0   1   2       1.6   3.2e+03   -1.9   0.0   176   193    40    57    34    59 0.89 -
PC3A_TRINITY_DN44774_c0_g1_i1.p1PC3A_TRINITY_DN44774_c0_g1 -            155 51348at3193          -            558   0.00043   20.8   0.0   2   2   4.7e-07   0.00091   19.8   0.0    81   143    79   140    66   155 0.84 -
PC1J_TRINITY_DN38995_c1_g1_i3.p1PC1J_TRINITY_DN38995_c1_g1 -            126 51348at3193          -            558    0.0012   19.4   0.0   1   1   4.8e-06    0.0093   16.4   0.0   116   146    15    45     6   108 0.77 -
PC2J_TRINITY_DN40489_c1_g1_i1.p1PC2J_TRINITY_DN40489_c1_g1 -            164 51348at3193          -            558    0.0036   17.8   0.0   1   1   2.3e-06    0.0044   17.5   0.0   168   225     1    62     1    78 0.84 -
PC2A_TRINITY_DN30153_c3_g1_i1.p1PC2A_TRINITY_DN30153_c3_g1 -            213 51348at3193          -            558    0.0047   17.4   0.0   1   1   1.6e-05     0.031   14.7   0.0   157   314    31   195     2   211 0.64 -
PC2J_TRINITY_DN45620_c1_g3_i2.p1PC2J_TRINITY_DN45620_c1_g3 -            116 51348at3193          -            558     0.014   15.8   0.0   1   1     8e-06     0.015   15.7   0.0   101   166    51   112    23   116 0.82 -
PC1J_TRINITY_DN37337_c2_g3_i1.p1PC1J_TRINITY_DN37337_c2_g3 -            126 51348at3193          -            558     0.073   13.5   0.0   1   1     5e-05     0.097   13.1   0.0   101   142    71   113    66   118 0.88 -
PC2J_TRINITY_DN42579_c1_g2_i4.p1PC2J_TRINITY_DN42579_c1_g2 -            122 51348at3193          -            558      0.11   12.9   0.0   1   1   6.2e-05      0.12   12.8   0.0   135   179    34    78    25    94 0.83 -
PC3A_TRINITY_DN42748_c2_g2_i7.p1PC3A_TRINITY_DN42748_c2_g2 -            347 51348at3193          -            558       0.3   11.4   1.2   1   4       0.1     2e+02    2.1   0.0   278   312    13    47     4    55 0.68 -
PC3A_TRINITY_DN42748_c2_g2_i7.p1PC3A_TRINITY_DN42748_c2_g2 -            347 51348at3193          -            558       0.3   11.4   1.2   2   4     0.058   1.1e+02    2.9   0.1   272   295    58    83    51   106 0.78 -
PC3A_TRINITY_DN42748_c2_g2_i7.p1PC3A_TRINITY_DN42748_c2_g2 -            347 51348at3193          -            558       0.3   11.4   1.2   3   4     0.071   1.4e+02    2.7   0.0   112   144   125   156   113   195 0.68 -
PC3A_TRINITY_DN42748_c2_g2_i7.p1PC3A_TRINITY_DN42748_c2_g2 -            347 51348at3193          -            558       0.3   11.4   1.2   4   4       1.9   3.6e+03   -2.0   0.0   369   384   214   229   203   241 0.59 -
PC3A_TRINITY_DN28917_c0_g1_i2.p1PC3A_TRINITY_DN28917_c0_g1 -            141 51348at3193          -            558      0.35   11.2   0.0   1   2     0.021        40    4.4   0.0   271   296     4    31     2    55 0.76 -
PC3A_TRINITY_DN28917_c0_g1_i2.p1PC3A_TRINITY_DN28917_c0_g1 -            141 51348at3193          -            558      0.35   11.2   0.0   2   2     0.011        22    5.3   0.0   112   145    72   104    58   139 0.60 -
PC1J_TRINITY_DN43190_c0_g1_i1.p1PC1J_TRINITY_DN43190_c0_g1 -            204 51348at3193          -            558      0.54   10.6   0.0   1   2    0.0009       1.7    8.9   0.0   194   231     7    45     3    72 0.84 -
PC1J_TRINITY_DN43190_c0_g1_i1.p1PC1J_TRINITY_DN43190_c0_g1 -            204 51348at3193          -            558      0.54   10.6   0.0   2   2       1.4   2.7e+03   -1.6   0.0   158   169    83    94    76   126 0.80 -
PC3A_TRINITY_DN44395_c7_g3_i1.p1PC3A_TRINITY_DN44395_c7_g3 -            185 51348at3193          -            558       1.5    9.1   4.5   1   1    0.0011       2.2    8.6   4.5   421   465    12    53     2    75 0.55 -
PC2J_TRINITY_DN44412_c1_g4_i5.p1PC2J_TRINITY_DN44412_c1_g4 -            122 51348at3193          -            558         2    8.7   9.0   1   1    0.0012       2.2    8.6   9.0   414   462    53   104    34   115 0.54 -
PC2J_TRINITY_DN45998_c3_g1_i1.p1PC2J_TRINITY_DN45998_c3_g1 -            118 51348at3193          -            558       2.5    8.4   4.9   1   1   0.00085       1.6    9.0   3.8   426   461     7    43     1    64 0.72 -
PC1J_TRINITY_DN35555_c1_g2_i3.p1PC1J_TRINITY_DN35555_c1_g2 -            233 51348at3193          -            558       2.6    8.3   7.4   1   1    0.0021       4.1    7.7   7.4   418   463    53   100    32   123 0.54 -
PC1J_TRINITY_DN34624_c3_g1_i1.p2PC1J_TRINITY_DN34624_c3_g1 -            132 51348at3193          -            558       7.5    6.8   4.6   1   1    0.0043       8.4    6.7   4.6   413   441    85   115    59   129 0.71 -
#
# Program:         hmmsearch
# Version:         3.2.1 (June 2018)
# Pipeline mode:   SEARCH
# Query file:      /isg/shared/databases/BUSCO/odb10/embryophyta_odb10/hmms/51348at3193.hmm
# Target file:     Pine_final_annotations_no_contam_lvl0.faa
# Option settings: /usr/local/bin/hmmsearch --domtblout /labs/Wegrzyn/Juniper_Pine/BUSCO/NEW/busco_pine/run_embryophyta_odb10/hmmer_output/51348at3193.out --cpu 1 /isg/shared/databases/BUSCO/odb10/embryophyta_odb10/hmms/51348at3193.hmm Pine_final_annotations_no_contam_lvl0.faa 
# Current dir:     /labs/Wegrzyn/Juniper_Pine/BUSCO/NEW
# Date:            Thu Aug  6 15:02:33 2020
# [ok]
