#                                                                                                                  --- full sequence --- -------------- this domain -------------   hmm coord   ali coord   env coord
# target name                                              accession   tlen query name           accession   qlen   E-value  score  bias   #  of  c-Evalue  i-Evalue  score  bias  from    to  from    to  from    to  acc description of target
#                                      ------------------- ---------- ----- -------------------- ---------- ----- --------- ------ ----- --- --- --------- --------- ------ ----- ----- ----- ----- ----- ----- ----- ---- ---------------------
PC3A_TRINITY_DN5362_c0_g1_i1.p1PC3A_TRINITY_DN5362_c0_g1   -            110 51750at3193          -            346   3.8e-66  225.1   2.9   1   1   7.8e-70   4.1e-66  225.0   2.9   127   236     1   110     1   110 0.99 -
PC2J_TRINITY_DN39097_c4_g3_i1.p1PC2J_TRINITY_DN39097_c4_g3 -            115 51750at3193          -            346   2.1e-36  127.3   9.9   1   1   1.8e-37   9.4e-34  118.6   9.9    40   127     1   113     1   115 0.86 -
PC3J_TRINITY_DN47597_c1_g4_i1.p1PC3J_TRINITY_DN47597_c1_g4 -            171 51750at3193          -            346    0.0014   19.4   0.0   1   1   3.1e-07    0.0016   19.1   0.0   199   248    70   119    35   138 0.83 -
PC3A_TRINITY_DN37441_c1_g1_i2.p1PC3A_TRINITY_DN37441_c1_g1 -            181 51750at3193          -            346    0.0019   18.9   0.0   1   1   4.5e-07    0.0024   18.6   0.0   202   248    54    99    29   119 0.82 -
PC2A_TRINITY_DN33245_c3_g1_i1.p1PC2A_TRINITY_DN33245_c3_g1 -            160 51750at3193          -            346     0.014   16.1   0.0   1   2   0.00057         3    8.4   0.0   179   215    49    82    31    88 0.78 -
PC2A_TRINITY_DN33245_c3_g1_i1.p1PC2A_TRINITY_DN33245_c3_g1 -            160 51750at3193          -            346     0.014   16.1   0.0   2   2    0.0034        18    5.8   0.0   189   215   121   146   100   147 0.80 -
PC2J_TRINITY_DN37107_c1_g3_i3.p1PC2J_TRINITY_DN37107_c1_g3 -            111 51750at3193          -            346     0.017   15.8   0.0   1   1   3.4e-06     0.018   15.7   0.0     8    47    17    59    11    93 0.85 -
PC2A_TRINITY_DN35023_c3_g2_i6.p1PC2A_TRINITY_DN35023_c3_g2 -            152 51750at3193          -            346     0.039   14.6   0.0   1   1   7.4e-06     0.039   14.6   0.0   202   253    41    91    16   137 0.76 -
PC3A_TRINITY_DN16995_c0_g1_i1.p1PC3A_TRINITY_DN16995_c0_g1 -            101 51750at3193          -            346     0.058   14.0   0.0   1   1   1.2e-05     0.066   13.9   0.0    15    89    23    97    16   100 0.83 -
PC2A_TRINITY_DN29755_c2_g1_i6.p1PC2A_TRINITY_DN29755_c2_g1 -            238 51750at3193          -            346      0.14   12.8   0.0   1   1   3.5e-05      0.18   12.4   0.0   251   340   125   220   116   225 0.73 -
PC2J_TRINITY_DN37356_c5_g1_i2.p1PC2J_TRINITY_DN37356_c5_g1 -            148 51750at3193          -            346      0.15   12.7   0.1   1   1   3.3e-05      0.18   12.4   0.1   233   315    10    94     4   131 0.64 -
PC1A_TRINITY_DN47232_c0_g1_i1.p1PC1A_TRINITY_DN47232_c0_g1 -            104 51750at3193          -            346      0.18   12.4   0.0   1   1   3.7e-05       0.2   12.3   0.0    20    87     4    80     2    99 0.74 -
PC2J_TRINITY_DN43200_c2_g2_i4.p1PC2J_TRINITY_DN43200_c2_g2 -            389 51750at3193          -            346      0.22   12.1   0.0   1   1   5.5e-05      0.29   11.7   0.0   205   253   127   174    99   213 0.78 -
#
# Program:         hmmsearch
# Version:         3.2.1 (June 2018)
# Pipeline mode:   SEARCH
# Query file:      /isg/shared/databases/BUSCO/odb10/embryophyta_odb10/hmms/51750at3193.hmm
# Target file:     Pine_final_annotations_no_contam_lvl0.faa
# Option settings: /usr/local/bin/hmmsearch --domtblout /labs/Wegrzyn/Juniper_Pine/BUSCO/NEW/busco_pine/run_embryophyta_odb10/hmmer_output/51750at3193.out --cpu 1 /isg/shared/databases/BUSCO/odb10/embryophyta_odb10/hmms/51750at3193.hmm Pine_final_annotations_no_contam_lvl0.faa 
# Current dir:     /labs/Wegrzyn/Juniper_Pine/BUSCO/NEW
# Date:            Thu Aug  6 15:02:41 2020
# [ok]
