#                                                                                                                  --- full sequence --- -------------- this domain -------------   hmm coord   ali coord   env coord
# target name                                              accession   tlen query name           accession   qlen   E-value  score  bias   #  of  c-Evalue  i-Evalue  score  bias  from    to  from    to  from    to  acc description of target
#                                      ------------------- ---------- ----- -------------------- ---------- ----- --------- ------ ----- --- --- --------- --------- ------ ----- ----- ----- ----- ----- ----- ----- ---- ---------------------
PC2J_TRINITY_DN29625_c0_g1_i2.p1PC2J_TRINITY_DN29625_c0_g1 -            222 54811at3193          -            407   4.1e-70  238.3   0.1   1   1     1e-73   6.4e-70  237.6   0.1   212   384    12   220     4   222 0.88 -
PC1J_TRINITY_DN29917_c0_g1_i1.p1PC1J_TRINITY_DN29917_c0_g1 -            123 54811at3193          -            407   3.7e-37  129.8   0.0   1   1   6.7e-41   4.3e-37  129.5   0.0   142   236     2   109     1   123 0.84 -
PC2A_TRINITY_DN34176_c0_g3_i2.p1PC2A_TRINITY_DN34176_c0_g3 -            171 54811at3193          -            407     2e-36  127.3   0.1   1   1   3.9e-40   2.5e-36  127.0   0.1     1    83    75   161    75   170 0.92 -
PC1A_TRINITY_DN38833_c0_g1_i1.p1PC1A_TRINITY_DN38833_c0_g1 -            511 54811at3193          -            407   1.4e-19   71.9   0.0   1   1     6e-23   3.8e-19   70.4   0.0   177   369   220   445   168   458 0.72 -
PC3J_TRINITY_DN44322_c6_g1_i1.p1PC3J_TRINITY_DN44322_c6_g1 -            122 54811at3193          -            407   1.4e-18   68.6   0.0   1   1   2.5e-22   1.6e-18   68.4   0.0     1    55    64   122    64   122 0.89 -
PC1A_TRINITY_DN37345_c0_g1_i3.p1PC1A_TRINITY_DN37345_c0_g1 -            182 54811at3193          -            407   3.6e-10   40.9   0.0   1   1   6.4e-14     4e-10   40.7   0.0   207   296    93   181    46   182 0.88 -
PC1A_TRINITY_DN37345_c0_g1_i1.p1PC1A_TRINITY_DN37345_c0_g1 -            149 54811at3193          -            407   2.7e-08   34.7   0.0   1   1   5.1e-12   3.3e-08   34.4   0.0   242   296    94   148    59   149 0.85 -
PC1A_TRINITY_DN34449_c0_g1_i1.p1PC1A_TRINITY_DN34449_c0_g1 -            124 54811at3193          -            407   1.9e-06   28.6   0.0   1   1   3.4e-10   2.1e-06   28.4   0.0   248   295     3    50     1    65 0.91 -
PC3J_TRINITY_DN39843_c1_g4_i1.p1PC3J_TRINITY_DN39843_c1_g4 -            200 54811at3193          -            407   4.9e-05   24.0   0.0   1   1   1.1e-08   6.8e-05   23.5   0.0   290   367    10    87     6   101 0.86 -
PC3A_TRINITY_DN43521_c5_g5_i1.p1PC3A_TRINITY_DN43521_c5_g5 -            113 54811at3193          -            407    0.0046   17.4   0.0   1   1   7.5e-07    0.0048   17.4   0.0   314   369     1    59     1    94 0.82 -
#
# Program:         hmmsearch
# Version:         3.2.1 (June 2018)
# Pipeline mode:   SEARCH
# Query file:      /isg/shared/databases/BUSCO/odb10/embryophyta_odb10/hmms/54811at3193.hmm
# Target file:     Pine_final_annotations_no_contam_lvl0.faa
# Option settings: /usr/local/bin/hmmsearch --domtblout /labs/Wegrzyn/Juniper_Pine/BUSCO/NEW/busco_pine/run_embryophyta_odb10/hmmer_output/54811at3193.out --cpu 1 /isg/shared/databases/BUSCO/odb10/embryophyta_odb10/hmms/54811at3193.hmm Pine_final_annotations_no_contam_lvl0.faa 
# Current dir:     /labs/Wegrzyn/Juniper_Pine/BUSCO/NEW
# Date:            Thu Aug  6 15:03:32 2020
# [ok]
