#                                                                                                                  --- full sequence --- -------------- this domain -------------   hmm coord   ali coord   env coord
# target name                                              accession   tlen query name           accession   qlen   E-value  score  bias   #  of  c-Evalue  i-Evalue  score  bias  from    to  from    to  from    to  acc description of target
#                                      ------------------- ---------- ----- -------------------- ---------- ----- --------- ------ ----- --- --- --------- --------- ------ ----- ----- ----- ----- ----- ----- ----- ---- ---------------------
PC1A_TRINITY_DN40917_c6_g2_i1.p1PC1A_TRINITY_DN40917_c6_g2 -            191 55581at3193          -            437   3.7e-20   73.8   0.1   1   2   2.4e-19     3e-15   57.6   0.0    77   184    15   132     2   153 0.83 -
PC1A_TRINITY_DN40917_c6_g2_i1.p1PC1A_TRINITY_DN40917_c6_g2 -            191 55581at3193          -            437   3.7e-20   73.8   0.1   2   2   1.9e-06     0.024   15.1   0.1   136   176   151   191   144   191 0.92 -
PC2J_TRINITY_DN26224_c0_g1_i2.p1PC2J_TRINITY_DN26224_c0_g1 -            205 55581at3193          -            437   2.9e-15   57.7   0.0   1   1   2.9e-19   3.7e-15   57.4   0.0    77   183    37   153     5   193 0.87 -
PC3A_TRINITY_DN37803_c5_g1_i1.p1PC3A_TRINITY_DN37803_c5_g1 -            117 55581at3193          -            437   1.4e-06   29.1   0.0   1   1   1.3e-10   1.7e-06   28.8   0.0    87   181     1   104     1   115 0.80 -
PC1J_TRINITY_DN40996_c0_g7_i1.p1PC1J_TRINITY_DN40996_c0_g7 -            217 55581at3193          -            437      0.05   14.1   0.0   1   1   5.2e-06     0.067   13.7   0.0   341   403    53   115    31   120 0.87 -
PC1J_TRINITY_DN34080_c4_g1_i1.p1PC1J_TRINITY_DN34080_c4_g1 -            105 55581at3193          -            437      0.06   13.8   0.2   1   1   4.7e-06      0.06   13.8   0.2   265   342    22   101     2   105 0.66 -
#
# Program:         hmmsearch
# Version:         3.2.1 (June 2018)
# Pipeline mode:   SEARCH
# Query file:      /isg/shared/databases/BUSCO/odb10/embryophyta_odb10/hmms/55581at3193.hmm
# Target file:     Pine_final_annotations_no_contam_lvl0.faa
# Option settings: /usr/local/bin/hmmsearch --domtblout /labs/Wegrzyn/Juniper_Pine/BUSCO/NEW/busco_pine/run_embryophyta_odb10/hmmer_output/55581at3193.out --cpu 1 /isg/shared/databases/BUSCO/odb10/embryophyta_odb10/hmms/55581at3193.hmm Pine_final_annotations_no_contam_lvl0.faa 
# Current dir:     /labs/Wegrzyn/Juniper_Pine/BUSCO/NEW
# Date:            Thu Aug  6 15:03:40 2020
# [ok]
