#                                                                                                                   --- full sequence --- -------------- this domain -------------   hmm coord   ali coord   env coord
# target name                                               accession   tlen query name           accession   qlen   E-value  score  bias   #  of  c-Evalue  i-Evalue  score  bias  from    to  from    to  from    to  acc description of target
#                                       ------------------- ---------- ----- -------------------- ---------- ----- --------- ------ ----- --- --- --------- --------- ------ ----- ----- ----- ----- ----- ----- ----- ---- ---------------------
PC2J_TRINITY_DN42572_c1_g1_i1.p1PC2J_TRINITY_DN42572_c1_g1  -            329 59555at3193          -            391  1.2e-128  431.7   3.5   1   2   1.6e-80   5.2e-77  261.7   0.4   134   276     1   143     1   151 0.96 -
PC2J_TRINITY_DN42572_c1_g1_i1.p1PC2J_TRINITY_DN42572_c1_g1  -            329 59555at3193          -            391  1.2e-128  431.7   3.5   2   2   5.5e-53   1.7e-49  171.0   0.2   273   391   180   314   176   314 0.89 -
PC3A_TRINITY_DN20888_c0_g1_i1.p1PC3A_TRINITY_DN20888_c0_g1  -            167 59555at3193          -            391   4.9e-82  278.2   0.6   1   1   1.8e-85   5.7e-82  278.0   0.6   124   260     1   137     1   148 0.98 -
PC1A_TRINITY_DN39873_c0_g1_i1.p1PC1A_TRINITY_DN39873_c0_g1  -            365 59555at3193          -            391   6.3e-06   27.6   9.7   1   2   5.9e-09   1.9e-05   26.1   7.1    76   245    64   243    51   251 0.75 -
PC1A_TRINITY_DN39873_c0_g1_i1.p1PC1A_TRINITY_DN39873_c0_g1  -            365 59555at3193          -            391   6.3e-06   27.6   9.7   2   2      0.17   5.3e+02    1.5   0.0   214   248   317   352   265   362 0.67 -
PC3A_TRINITY_DN36903_c2_g3_i1.p1PC3A_TRINITY_DN36903_c2_g3  -            204 59555at3193          -            391    0.0026   19.0   0.6   1   2     0.052   1.7e+02    3.2   0.1   221   248    55    82    36    95 0.77 -
PC3A_TRINITY_DN36903_c2_g3_i1.p1PC3A_TRINITY_DN36903_c2_g3  -            204 59555at3193          -            391    0.0026   19.0   0.6   2   2   2.4e-05     0.078   14.2   0.2   115   247    80   203    77   204 0.71 -
PC2A_TRINITY_DN27927_c0_g1_i3.p1PC2A_TRINITY_DN27927_c0_g1  -            146 59555at3193          -            391    0.0038   18.5   0.1   1   1   1.5e-06    0.0049   18.1   0.1    14   105    20   116    12   133 0.69 -
PC1A_TRINITY_DN41112_c0_g6_i1.p1PC1A_TRINITY_DN41112_c0_g6  -            207 59555at3193          -            391    0.0063   17.8   0.1   1   3    0.0068        22    6.1   0.0    94   146    27    79     3    86 0.66 -
PC1A_TRINITY_DN41112_c0_g6_i1.p1PC1A_TRINITY_DN41112_c0_g6  -            207 59555at3193          -            391    0.0063   17.8   0.1   2   3   0.00048       1.5    9.9   0.0   194   263    81   149    67   160 0.72 -
PC1A_TRINITY_DN41112_c0_g6_i1.p1PC1A_TRINITY_DN41112_c0_g6  -            207 59555at3193          -            391    0.0063   17.8   0.1   3   3      0.58   1.9e+03   -0.2   0.0   287   330   145   187   140   194 0.70 -
PC2A_TRINITY_DN34172_c1_g1_i3.p1PC2A_TRINITY_DN34172_c1_g1  -            105 59555at3193          -            391    0.0073   17.5   0.7   1   2   0.00082       2.6    9.1   0.2   216   247    20    51     3    65 0.84 -
PC2A_TRINITY_DN34172_c1_g1_i3.p1PC2A_TRINITY_DN34172_c1_g1  -            105 59555at3193          -            391    0.0073   17.5   0.7   2   2    0.0028       8.8    7.4   0.0   222   248    71    97    55   100 0.84 -
PC1A_TRINITY_DN41897_c3_g1_i2.p1PC1A_TRINITY_DN41897_c3_g1  -            263 59555at3193          -            391     0.014   16.6   0.6   1   2     0.051   1.6e+02    3.2   0.0   226   247    42    63    34    67 0.86 -
PC1A_TRINITY_DN41897_c3_g1_i2.p1PC1A_TRINITY_DN41897_c3_g1  -            263 59555at3193          -            391     0.014   16.6   0.6   2   2    0.0026       8.2    7.5   0.2   213   250    88   125    78   257 0.84 -
PC1J_TRINITY_DN38958_c0_g2_i12.p1PC1J_TRINITY_DN38958_c0_g2 -            464 59555at3193          -            391     0.021   16.1   0.1   1   1   1.5e-05     0.047   14.9   0.1    13   105   277   374   264   388 0.64 -
PC2A_TRINITY_DN26277_c0_g2_i2.p1PC2A_TRINITY_DN26277_c0_g2  -            257 59555at3193          -            391     0.055   14.7   0.0   1   1   2.6e-05     0.084   14.1   0.0    12   151   101   242    92   254 0.81 -
PC2A_TRINITY_DN7647_c0_g1_i1.p1PC2A_TRINITY_DN7647_c0_g1    -            139 59555at3193          -            391      0.08   14.1   0.1   1   1     4e-05      0.13   13.5   0.1    95   126    10    40     4    60 0.78 -
PC3J_TRINITY_DN48359_c2_g1_i3.p2PC3J_TRINITY_DN48359_c2_g1  -            139 59555at3193          -            391     0.085   14.0   0.0   1   2    0.0084        27    5.8   0.0   224   251     5    32     3    44 0.86 -
PC3J_TRINITY_DN48359_c2_g1_i3.p2PC3J_TRINITY_DN48359_c2_g1  -            139 59555at3193          -            391     0.085   14.0   0.0   2   2    0.0048        15    6.6   0.0   224   250    79   105    47   115 0.86 -
PC2J_TRINITY_DN32630_c0_g2_i2.p1PC2J_TRINITY_DN32630_c0_g2  -            112 59555at3193          -            391      0.11   13.7   0.1   1   2    0.0012       3.8    8.6   0.0   213   249    18    54     9    66 0.87 -
PC2J_TRINITY_DN32630_c0_g2_i2.p1PC2J_TRINITY_DN32630_c0_g2  -            112 59555at3193          -            391      0.11   13.7   0.1   2   2     0.037   1.2e+02    3.7   0.1   366   385    68    87    52    96 0.85 -
PC3J_TRINITY_DN47409_c0_g5_i1.p1PC3J_TRINITY_DN47409_c0_g5  -            103 59555at3193          -            391      0.17   13.1   0.0   1   2   0.00013      0.42   11.7   0.0   223   248    26    51     3    57 0.84 -
PC3J_TRINITY_DN47409_c0_g5_i1.p1PC3J_TRINITY_DN47409_c0_g5  -            103 59555at3193          -            391      0.17   13.1   0.0   2   2       1.3   4.2e+03   -1.4   0.0   217   249    61    93    53    99 0.71 -
PC3A_TRINITY_DN36112_c5_g2_i1.p1PC3A_TRINITY_DN36112_c5_g2  -            225 59555at3193          -            391      0.24   12.5   0.0   1   2     0.016        50    4.9   0.0   223   248   101   126    81   134 0.81 -
PC3A_TRINITY_DN36112_c5_g2_i1.p1PC3A_TRINITY_DN36112_c5_g2  -            225 59555at3193          -            391      0.24   12.5   0.0   2   2     0.014        43    5.1   0.0   224   250   144   170   133   181 0.85 -
PC3A_TRINITY_DN39284_c6_g1_i1.p1PC3A_TRINITY_DN39284_c6_g1  -            543 59555at3193          -            391      0.26   12.4   0.0   1   3      0.21   6.6e+02    1.2   0.0    42    74    95   130    55   152 0.60 -
PC3A_TRINITY_DN39284_c6_g1_i1.p1PC3A_TRINITY_DN39284_c6_g1  -            543 59555at3193          -            391      0.26   12.4   0.0   2   3    0.0097        31    5.6   0.0    86   110   229   254   185   274 0.70 -
PC3A_TRINITY_DN39284_c6_g1_i1.p1PC3A_TRINITY_DN39284_c6_g1  -            543 59555at3193          -            391      0.26   12.4   0.0   3   3      0.21   6.8e+02    1.2   0.0   186   255   458   526   438   539 0.78 -
PC1A_TRINITY_DN5031_c0_g1_i1.p1PC1A_TRINITY_DN5031_c0_g1    -            133 59555at3193          -            391      0.28   12.3   0.0   1   1   0.00012      0.37   12.0   0.0    78   152    41   117    36   128 0.76 -
PC1J_TRINITY_DN20665_c0_g1_i2.p1PC1J_TRINITY_DN20665_c0_g1  -            119 59555at3193          -            391       0.3   12.2   0.3   1   1   0.00026      0.82   10.8   0.2    70   149    20    97    11   104 0.80 -
PC3J_TRINITY_DN44162_c4_g3_i2.p1PC3J_TRINITY_DN44162_c4_g3  -            232 59555at3193          -            391      0.37   11.9   0.3   1   1   0.00043       1.4   10.1   0.1    47   119   103   173    91   193 0.81 -
PC3J_TRINITY_DN25489_c0_g1_i1.p1PC3J_TRINITY_DN25489_c0_g1  -            168 59555at3193          -            391      0.64   11.2   0.1   1   2      0.01        32    5.6   0.0   213   243    42    72    35    83 0.79 -
PC3J_TRINITY_DN25489_c0_g1_i1.p1PC3J_TRINITY_DN25489_c0_g1  -            168 59555at3193          -            391      0.64   11.2   0.1   2   2   0.00076       2.4    9.3   0.1     9   105    52   149    46   160 0.74 -
#
# Program:         hmmsearch
# Version:         3.2.1 (June 2018)
# Pipeline mode:   SEARCH
# Query file:      /isg/shared/databases/BUSCO/odb10/embryophyta_odb10/hmms/59555at3193.hmm
# Target file:     Pine_final_annotations_no_contam_lvl0.faa
# Option settings: /usr/local/bin/hmmsearch --domtblout /labs/Wegrzyn/Juniper_Pine/BUSCO/NEW/busco_pine/run_embryophyta_odb10/hmmer_output/59555at3193.out --cpu 1 /isg/shared/databases/BUSCO/odb10/embryophyta_odb10/hmms/59555at3193.hmm Pine_final_annotations_no_contam_lvl0.faa 
# Current dir:     /labs/Wegrzyn/Juniper_Pine/BUSCO/NEW
# Date:            Thu Aug  6 15:04:59 2020
# [ok]
