#                                                                                                                  --- full sequence --- -------------- this domain -------------   hmm coord   ali coord   env coord
# target name                                              accession   tlen query name           accession   qlen   E-value  score  bias   #  of  c-Evalue  i-Evalue  score  bias  from    to  from    to  from    to  acc description of target
#                                      ------------------- ---------- ----- -------------------- ---------- ----- --------- ------ ----- --- --- --------- --------- ------ ----- ----- ----- ----- ----- ----- ----- ---- ---------------------
PC3A_TRINITY_DN30860_c0_g1_i1.p1PC3A_TRINITY_DN30860_c0_g1 -            276 61944at3193          -            410   3.2e-79  268.4   2.6   1   2   1.6e-30   2.5e-26   94.2   0.0    34   125     5   108     2   130 0.91 -
PC3A_TRINITY_DN30860_c0_g1_i1.p1PC3A_TRINITY_DN30860_c0_g1 -            276 61944at3193          -            410   3.2e-79  268.4   2.6   2   2   2.2e-54   3.5e-50  172.8   2.1   129   244   148   263   140   270 0.95 -
PC3A_TRINITY_DN41504_c6_g5_i1.p1PC3A_TRINITY_DN41504_c6_g5 -            157 61944at3193          -            410   1.8e-43  150.7   0.1   1   2    0.0029        47    4.4   0.0   238   255    31    48    16    49 0.82 -
PC3A_TRINITY_DN41504_c6_g5_i1.p1PC3A_TRINITY_DN41504_c6_g5 -            157 61944at3193          -            410   1.8e-43  150.7   0.1   2   2   4.9e-46   7.8e-42  145.3   0.0   312   410    50   149    47   149 0.97 -
PC2A_TRINITY_DN30295_c0_g2_i2.p1PC2A_TRINITY_DN30295_c0_g2 -            220 61944at3193          -            410   2.2e-40  140.5   0.4   1   3   5.8e-27   9.3e-23   82.4   0.0    46   125    16   107    13   130 0.90 -
PC2A_TRINITY_DN30295_c0_g2_i2.p1PC2A_TRINITY_DN30295_c0_g2 -            220 61944at3193          -            410   2.2e-40  140.5   0.4   2   3   1.7e-09   2.7e-05   24.9   0.3   129   155   147   173   139   174 0.90 -
PC2A_TRINITY_DN30295_c0_g2_i2.p1PC2A_TRINITY_DN30295_c0_g2 -            220 61944at3193          -            410   2.2e-40  140.5   0.4   3   3   2.7e-11   4.3e-07   30.9   0.0    52    90   174   220   173   220 0.90 -
PC1A_TRINITY_DN18486_c0_g1_i1.p1PC1A_TRINITY_DN18486_c0_g1 -            100 61944at3193          -            410       1.4    9.4   3.8   1   1   9.9e-05       1.6    9.2   3.8   176   258    13    94     5    98 0.86 -
#
# Program:         hmmsearch
# Version:         3.2.1 (June 2018)
# Pipeline mode:   SEARCH
# Query file:      /isg/shared/databases/BUSCO/odb10/embryophyta_odb10/hmms/61944at3193.hmm
# Target file:     Pine_final_annotations_no_contam_lvl0.faa
# Option settings: /usr/local/bin/hmmsearch --domtblout /labs/Wegrzyn/Juniper_Pine/BUSCO/NEW/busco_pine/run_embryophyta_odb10/hmmer_output/61944at3193.out --cpu 1 /isg/shared/databases/BUSCO/odb10/embryophyta_odb10/hmms/61944at3193.hmm Pine_final_annotations_no_contam_lvl0.faa 
# Current dir:     /labs/Wegrzyn/Juniper_Pine/BUSCO/NEW
# Date:            Thu Aug  6 15:05:48 2020
# [ok]
