#                                                                                                                   --- full sequence --- -------------- this domain -------------   hmm coord   ali coord   env coord
# target name                                               accession   tlen query name           accession   qlen   E-value  score  bias   #  of  c-Evalue  i-Evalue  score  bias  from    to  from    to  from    to  acc description of target
#                                       ------------------- ---------- ----- -------------------- ---------- ----- --------- ------ ----- --- --- --------- --------- ------ ----- ----- ----- ----- ----- ----- ----- ---- ---------------------
PC3A_TRINITY_DN35959_c7_g3_i1.p1PC3A_TRINITY_DN35959_c7_g3  -            148 66547at3193          -            394   1.7e-38  134.1   3.1   1   2   4.1e-10   8.8e-06   26.4   1.3     4    53     2    59     1    68 0.82 -
PC3A_TRINITY_DN35959_c7_g3_i1.p1PC3A_TRINITY_DN35959_c7_g3  -            148 66547at3193          -            394   1.7e-38  134.1   3.1   2   2   6.3e-35   1.3e-30  108.1   0.0    33   112    68   147    62   148 0.93 -
PC3J_TRINITY_DN40002_c0_g1_i2.p1PC3J_TRINITY_DN40002_c0_g1  -            171 66547at3193          -            394   3.8e-21   77.0   3.9   1   2   1.1e-10   2.3e-06   28.2   1.1     1    53    37    97    37   107 0.84 -
PC3J_TRINITY_DN40002_c0_g1_i2.p1PC3J_TRINITY_DN40002_c0_g1  -            171 66547at3193          -            394   3.8e-21   77.0   3.9   2   2   2.5e-17   5.3e-13   50.1   0.1    32    84   105   157    95   164 0.90 -
PC2A_TRINITY_DN29629_c0_g1_i16.p1PC2A_TRINITY_DN29629_c0_g1 -            166 66547at3193          -            394   4.4e-05   24.1   0.0   1   2   4.6e-05      0.98    9.7   0.0   219   264     9    55     3    68 0.82 -
PC2A_TRINITY_DN29629_c0_g1_i16.p1PC2A_TRINITY_DN29629_c0_g1 -            166 66547at3193          -            394   4.4e-05   24.1   0.0   2   2   6.3e-06      0.13   12.6   0.0   214   255    97   139    86   159 0.76 -
#
# Program:         hmmsearch
# Version:         3.2.1 (June 2018)
# Pipeline mode:   SEARCH
# Query file:      /isg/shared/databases/BUSCO/odb10/embryophyta_odb10/hmms/66547at3193.hmm
# Target file:     Pine_final_annotations_no_contam_lvl0.faa
# Option settings: /usr/local/bin/hmmsearch --domtblout /labs/Wegrzyn/Juniper_Pine/BUSCO/NEW/busco_pine/run_embryophyta_odb10/hmmer_output/66547at3193.out --cpu 1 /isg/shared/databases/BUSCO/odb10/embryophyta_odb10/hmms/66547at3193.hmm Pine_final_annotations_no_contam_lvl0.faa 
# Current dir:     /labs/Wegrzyn/Juniper_Pine/BUSCO/NEW
# Date:            Thu Aug  6 15:06:54 2020
# [ok]
