#                                                                                                                  --- full sequence --- -------------- this domain -------------   hmm coord   ali coord   env coord
# target name                                              accession   tlen query name           accession   qlen   E-value  score  bias   #  of  c-Evalue  i-Evalue  score  bias  from    to  from    to  from    to  acc description of target
#                                      ------------------- ---------- ----- -------------------- ---------- ----- --------- ------ ----- --- --- --------- --------- ------ ----- ----- ----- ----- ----- ----- ----- ---- ---------------------
PC3J_TRINITY_DN33861_c0_g1_i1.p1PC3J_TRINITY_DN33861_c0_g1 -            232 68939at3193          -            369   8.3e-83  279.9   0.8   1   2   4.6e-25   4.9e-21   76.6   0.8    62   132     5    76     2    81 0.88 -
PC3J_TRINITY_DN33861_c0_g1_i1.p1PC3J_TRINITY_DN33861_c0_g1 -            232 68939at3193          -            369   8.3e-83  279.9   0.8   2   2   5.1e-63   5.5e-59  201.5   0.0   121   262    85   232    82   232 0.95 -
PC2A_TRINITY_DN36889_c0_g1_i1.p1PC2A_TRINITY_DN36889_c0_g1 -            119 68939at3193          -            369     0.019   15.4   0.0   1   1   2.3e-06     0.025   15.1   0.0     9    45    81   117    76   119 0.94 -
PC1J_TRINITY_DN19767_c0_g1_i2.p1PC1J_TRINITY_DN19767_c0_g1 -            129 68939at3193          -            369      0.12   12.8   0.0   1   2   2.4e-05      0.26   11.7   0.0   109   155    29    74    17    84 0.86 -
PC1J_TRINITY_DN19767_c0_g1_i2.p1PC1J_TRINITY_DN19767_c0_g1 -            129 68939at3193          -            369      0.12   12.8   0.0   2   2      0.34   3.6e+03   -1.9   0.0   260   284    87   111    83   116 0.81 -
PC3J_TRINITY_DN26080_c0_g1_i1.p1PC3J_TRINITY_DN26080_c0_g1 -            186 68939at3193          -            369      0.22   11.9   0.0   1   1   2.8e-05      0.29   11.5   0.0    12    46   101   135    98   168 0.85 -
PC3A_TRINITY_DN34503_c0_g1_i1.p1PC3A_TRINITY_DN34503_c0_g1 -            109 68939at3193          -            369       0.3   11.5   0.0   1   1   2.9e-05      0.31   11.4   0.0    21    50     2    31     1    63 0.85 -
PC2J_TRINITY_DN864_c0_g1_i1.p1PC2J_TRINITY_DN864_c0_g1     -            108 68939at3193          -            369      0.33   11.4   0.0   1   1     4e-05      0.43   11.0   0.0     9    44    73   108    68   108 0.95 -
#
# Program:         hmmsearch
# Version:         3.2.1 (June 2018)
# Pipeline mode:   SEARCH
# Query file:      /isg/shared/databases/BUSCO/odb10/embryophyta_odb10/hmms/68939at3193.hmm
# Target file:     Pine_final_annotations_no_contam_lvl0.faa
# Option settings: /usr/local/bin/hmmsearch --domtblout /labs/Wegrzyn/Juniper_Pine/BUSCO/NEW/busco_pine/run_embryophyta_odb10/hmmer_output/68939at3193.out --cpu 1 /isg/shared/databases/BUSCO/odb10/embryophyta_odb10/hmms/68939at3193.hmm Pine_final_annotations_no_contam_lvl0.faa 
# Current dir:     /labs/Wegrzyn/Juniper_Pine/BUSCO/NEW
# Date:            Thu Aug  6 15:07:14 2020
# [ok]
