#                                                                                                                  --- full sequence --- -------------- this domain -------------   hmm coord   ali coord   env coord
# target name                                              accession   tlen query name           accession   qlen   E-value  score  bias   #  of  c-Evalue  i-Evalue  score  bias  from    to  from    to  from    to  acc description of target
#                                      ------------------- ---------- ----- -------------------- ---------- ----- --------- ------ ----- --- --- --------- --------- ------ ----- ----- ----- ----- ----- ----- ----- ---- ---------------------
PC3J_TRINITY_DN7124_c0_g1_i1.p1PC3J_TRINITY_DN7124_c0_g1   -            150 72761at3193          -            386   4.6e-53  182.2   3.4   1   1   2.7e-57   8.7e-53  181.3   3.4     1   121     6   138     6   148 0.90 -
PC1A_TRINITY_DN41775_c2_g4_i1.p1PC1A_TRINITY_DN41775_c2_g4 -            139 72761at3193          -            386      0.14   12.7   0.0   1   1   5.2e-06      0.16   12.5   0.0    64   130    55   117    37   128 0.83 -
#
# Program:         hmmsearch
# Version:         3.2.1 (June 2018)
# Pipeline mode:   SEARCH
# Query file:      /isg/shared/databases/BUSCO/odb10/embryophyta_odb10/hmms/72761at3193.hmm
# Target file:     Pine_final_annotations_no_contam_lvl0.faa
# Option settings: /usr/local/bin/hmmsearch --domtblout /labs/Wegrzyn/Juniper_Pine/BUSCO/NEW/busco_pine/run_embryophyta_odb10/hmmer_output/72761at3193.out --cpu 1 /isg/shared/databases/BUSCO/odb10/embryophyta_odb10/hmms/72761at3193.hmm Pine_final_annotations_no_contam_lvl0.faa 
# Current dir:     /labs/Wegrzyn/Juniper_Pine/BUSCO/NEW
# Date:            Thu Aug  6 15:08:04 2020
# [ok]
