#                                                                                                                  --- full sequence --- -------------- this domain -------------   hmm coord   ali coord   env coord
# target name                                              accession   tlen query name           accession   qlen   E-value  score  bias   #  of  c-Evalue  i-Evalue  score  bias  from    to  from    to  from    to  acc description of target
#                                      ------------------- ---------- ----- -------------------- ---------- ----- --------- ------ ----- --- --- --------- --------- ------ ----- ----- ----- ----- ----- ----- ----- ---- ---------------------
PC1A_TRINITY_DN43165_c0_g5_i1.p1PC1A_TRINITY_DN43165_c0_g5 -            287 74392at3193          -            370   3.5e-96  324.3  19.8   1   3   4.3e-36   2.5e-32  114.1   0.6   160   231     3    75     1    76 0.96 -
PC1A_TRINITY_DN43165_c0_g5_i1.p1PC1A_TRINITY_DN43165_c0_g5 -            287 74392at3193          -            370   3.5e-96  324.3  19.8   2   3   9.1e-13   5.3e-09   37.4   0.7   162   194    74   107    73   114 0.92 -
PC1A_TRINITY_DN43165_c0_g5_i1.p1PC1A_TRINITY_DN43165_c0_g5 -            287 74392at3193          -            370   3.5e-96  324.3  19.8   3   3   4.6e-57   2.7e-53  183.2   5.1   236   370   123   284   108   284 0.84 -
PC1A_TRINITY_DN43165_c0_g5_i2.p1PC1A_TRINITY_DN43165_c0_g5 -            246 74392at3193          -            370   9.9e-79  266.8   5.5   1   1   1.7e-81   9.6e-78  263.6   5.5   184   370    17   243     8   243 0.83 -
PC1A_TRINITY_DN43108_c0_g5_i1.p1PC1A_TRINITY_DN43108_c0_g5 -            250 74392at3193          -            370   3.3e-75  255.3   0.0   1   1   6.7e-79   3.9e-75  255.0   0.0     1   164    62   250    62   250 0.91 -
PC2J_TRINITY_DN43703_c1_g1_i3.p1PC2J_TRINITY_DN43703_c1_g1 -            205 74392at3193          -            370     4e-64  218.8   0.0   1   1   8.6e-68     5e-64  218.5   0.0    14   156    31   198    19   202 0.88 -
PC1A_TRINITY_DN30140_c0_g1_i1.p1PC1A_TRINITY_DN30140_c0_g1 -            205 74392at3193          -            370     2e-25   91.4   0.0   1   1   4.7e-29   2.7e-25   91.0   0.0     9   175    10   202     6   204 0.82 -
PC2J_TRINITY_DN41733_c0_g1_i2.p1PC2J_TRINITY_DN41733_c0_g1 -            222 74392at3193          -            370   1.3e-21   78.9   0.1   1   1     5e-25   2.9e-21   77.7   0.1   177   362    10   207     7   215 0.75 -
PC3J_TRINITY_DN37603_c0_g1_i2.p1PC3J_TRINITY_DN37603_c0_g1 -            120 74392at3193          -            370     1e-20   76.0   4.3   1   1   1.8e-23     1e-19   72.6   4.3   221   300     4   112     1   120 0.70 -
PC1J_TRINITY_DN37192_c3_g2_i6.p1PC1J_TRINITY_DN37192_c3_g2 -            377 74392at3193          -            370    0.0042   18.0   0.0   1   1   1.2e-06    0.0068   17.3   0.0   186   262   255   326   229   354 0.82 -
PC1A_TRINITY_DN43358_c0_g2_i1.p1PC1A_TRINITY_DN43358_c0_g2 -            277 74392at3193          -            370      0.03   15.2   0.0   1   1   8.3e-06     0.048   14.5   0.0   186   258   210   277   183   277 0.81 -
PC1A_TRINITY_DN38857_c1_g2_i1.p1PC1A_TRINITY_DN38857_c1_g2 -            165 74392at3193          -            370      0.15   12.9   0.0   1   1   3.7e-05      0.22   12.3   0.0   177   232    85   143    74   154 0.74 -
PC2A_TRINITY_DN28565_c2_g1_i2.p1PC2A_TRINITY_DN28565_c2_g1 -            102 74392at3193          -            370      0.43   11.4   0.0   1   1   7.6e-05      0.44   11.3   0.0   296   351    38    93    11    99 0.86 -
#
# Program:         hmmsearch
# Version:         3.2.1 (June 2018)
# Pipeline mode:   SEARCH
# Query file:      /isg/shared/databases/BUSCO/odb10/embryophyta_odb10/hmms/74392at3193.hmm
# Target file:     Pine_final_annotations_no_contam_lvl0.faa
# Option settings: /usr/local/bin/hmmsearch --domtblout /labs/Wegrzyn/Juniper_Pine/BUSCO/NEW/busco_pine/run_embryophyta_odb10/hmmer_output/74392at3193.out --cpu 1 /isg/shared/databases/BUSCO/odb10/embryophyta_odb10/hmms/74392at3193.hmm Pine_final_annotations_no_contam_lvl0.faa 
# Current dir:     /labs/Wegrzyn/Juniper_Pine/BUSCO/NEW
# Date:            Thu Aug  6 15:08:20 2020
# [ok]
