#                                                                                                                  --- full sequence --- -------------- this domain -------------   hmm coord   ali coord   env coord
# target name                                              accession   tlen query name           accession   qlen   E-value  score  bias   #  of  c-Evalue  i-Evalue  score  bias  from    to  from    to  from    to  acc description of target
#                                      ------------------- ---------- ----- -------------------- ---------- ----- --------- ------ ----- --- --- --------- --------- ------ ----- ----- ----- ----- ----- ----- ----- ---- ---------------------
PC2J_TRINITY_DN37142_c3_g1_i1.p1PC2J_TRINITY_DN37142_c3_g1 -            195 7510at3193           -            859   8.6e-78  264.0   9.0   1   2   2.2e-69   3.5e-65  222.3   7.4   216   347     1   134     1   140 0.95 -
PC2J_TRINITY_DN37142_c3_g1_i1.p1PC2J_TRINITY_DN37142_c3_g1 -            195 7510at3193           -            859   8.6e-78  264.0   9.0   2   2     1e-14   1.7e-10   41.4   0.0   333   372   151   190   146   193 0.92 -
PC3A_TRINITY_DN5470_c0_g1_i1.p1PC3A_TRINITY_DN5470_c0_g1   -            140 7510at3193           -            859   8.6e-47  161.5   1.5   1   1   6.5e-51     1e-46  161.2   1.5   557   674     1   137     1   140 0.89 -
PC2A_TRINITY_DN1442_c0_g1_i1.p1PC2A_TRINITY_DN1442_c0_g1   -            128 7510at3193           -            859   9.4e-39  134.9   3.2   1   1     7e-43   1.1e-38  134.6   3.2   266   347    14    96     8   104 0.92 -
PC2J_TRINITY_DN9788_c0_g1_i1.p1PC2J_TRINITY_DN9788_c0_g1   -            146 7510at3193           -            859      0.51   10.1   0.1   1   1   3.8e-05      0.61    9.8   0.1   758   807    11    58     3    82 0.78 -
#
# Program:         hmmsearch
# Version:         3.2.1 (June 2018)
# Pipeline mode:   SEARCH
# Query file:      /isg/shared/databases/BUSCO/odb10/embryophyta_odb10/hmms/7510at3193.hmm
# Target file:     Pine_final_annotations_no_contam_lvl0.faa
# Option settings: /usr/local/bin/hmmsearch --domtblout /labs/Wegrzyn/Juniper_Pine/BUSCO/NEW/busco_pine/run_embryophyta_odb10/hmmer_output/7510at3193.out --cpu 1 /isg/shared/databases/BUSCO/odb10/embryophyta_odb10/hmms/7510at3193.hmm Pine_final_annotations_no_contam_lvl0.faa 
# Current dir:     /labs/Wegrzyn/Juniper_Pine/BUSCO/NEW
# Date:            Thu Aug  6 15:08:31 2020
# [ok]
