#                                                                                                                  --- full sequence --- -------------- this domain -------------   hmm coord   ali coord   env coord
# target name                                              accession   tlen query name           accession   qlen   E-value  score  bias   #  of  c-Evalue  i-Evalue  score  bias  from    to  from    to  from    to  acc description of target
#                                      ------------------- ---------- ----- -------------------- ---------- ----- --------- ------ ----- --- --- --------- --------- ------ ----- ----- ----- ----- ----- ----- ----- ---- ---------------------
PC3A_TRINITY_DN41884_c2_g1_i6.p1PC3A_TRINITY_DN41884_c2_g1 -            208 77167at3193          -            356     1e-22   82.6   0.1   1   2   1.1e-26     1e-22   82.6   0.1   120   169     1    50     1    66 0.92 -
PC3A_TRINITY_DN41884_c2_g1_i6.p1PC3A_TRINITY_DN41884_c2_g1 -            208 77167at3193          -            356     1e-22   82.6   0.1   2   2       1.6   1.4e+04   -3.4   0.2   188   207   147   166   144   172 0.75 -
PC1J_TRINITY_DN24698_c0_g1_i1.p1PC1J_TRINITY_DN24698_c0_g1 -            131 77167at3193          -            356   7.3e-21   76.6   0.2   1   1   8.9e-25   8.1e-21   76.4   0.2    31   149     9   130     2   131 0.89 -
PC3A_TRINITY_DN39088_c2_g1_i1.p1PC3A_TRINITY_DN39088_c2_g1 -            183 77167at3193          -            356   1.7e-20   75.4   2.5   1   1   2.2e-24     2e-20   75.1   2.5    49   206    22   183    14   183 0.89 -
PC2J_TRINITY_DN27618_c0_g1_i1.p1PC2J_TRINITY_DN27618_c0_g1 -            123 77167at3193          -            356   3.6e-14   54.6   0.0   1   1   4.6e-18   4.2e-14   54.3   0.0    32   103    50   122    41   123 0.89 -
PC3A_TRINITY_DN7919_c0_g1_i1.p1PC3A_TRINITY_DN7919_c0_g1   -            137 77167at3193          -            356   8.3e-13   50.1   0.0   1   1   9.8e-17     9e-13   50.0   0.0   169   274     2   106     1   129 0.88 -
PC3A_TRINITY_DN1142_c0_g1_i1.p1PC3A_TRINITY_DN1142_c0_g1   -            180 77167at3193          -            356   5.4e-11   44.1   0.5   1   1   8.1e-13   7.4e-09   37.1   0.5    99   206     4    94     1   142 0.82 -
PC3A_TRINITY_DN40361_c2_g1_i1.p1PC3A_TRINITY_DN40361_c2_g1 -            191 77167at3193          -            356    0.0042   18.1   0.0   1   1   6.3e-07    0.0057   17.7   0.0    31    80   126   176   114   189 0.82 -
#
# Program:         hmmsearch
# Version:         3.2.1 (June 2018)
# Pipeline mode:   SEARCH
# Query file:      /isg/shared/databases/BUSCO/odb10/embryophyta_odb10/hmms/77167at3193.hmm
# Target file:     Pine_final_annotations_no_contam_lvl0.faa
# Option settings: /usr/local/bin/hmmsearch --domtblout /labs/Wegrzyn/Juniper_Pine/BUSCO/NEW/busco_pine/run_embryophyta_odb10/hmmer_output/77167at3193.out --cpu 1 /isg/shared/databases/BUSCO/odb10/embryophyta_odb10/hmms/77167at3193.hmm Pine_final_annotations_no_contam_lvl0.faa 
# Current dir:     /labs/Wegrzyn/Juniper_Pine/BUSCO/NEW
# Date:            Thu Aug  6 15:08:56 2020
# [ok]
