#                                                                                                                  --- full sequence --- -------------- this domain -------------   hmm coord   ali coord   env coord
# target name                                              accession   tlen query name           accession   qlen   E-value  score  bias   #  of  c-Evalue  i-Evalue  score  bias  from    to  from    to  from    to  acc description of target
#                                      ------------------- ---------- ----- -------------------- ---------- ----- --------- ------ ----- --- --- --------- --------- ------ ----- ----- ----- ----- ----- ----- ----- ---- ---------------------
PC1J_TRINITY_DN38095_c0_g1_i1.p1PC1J_TRINITY_DN38095_c0_g1 -            441 78142at3193          -            446  1.2e-185  619.2   9.3   1   1  2.1e-189  1.7e-185  618.8   9.3    19   333   124   438   107   440 0.98 -
PC1A_TRINITY_DN42708_c1_g5_i3.p1PC1A_TRINITY_DN42708_c1_g5 -            186 78142at3193          -            446   5.5e-92  310.6   1.4   1   1   8.1e-96   6.5e-92  310.3   1.4    74   228    15   169     3   179 0.97 -
PC1A_TRINITY_DN43268_c0_g1_i1.p1PC1A_TRINITY_DN43268_c0_g1 -            115 78142at3193          -            446   5.6e-63  215.0   0.3   1   1   7.8e-67   6.2e-63  214.8   0.3   339   446     1   108     1   108 0.99 -
PC1A_TRINITY_DN42300_c4_g2_i1.p1PC1A_TRINITY_DN42300_c4_g2 -            126 78142at3193          -            446   1.4e-55  190.6   2.0   1   1   2.1e-59   1.7e-55  190.3   2.0   228   334     8   114     3   119 0.97 -
PC3A_TRINITY_DN38073_c2_g2_i1.p1PC3A_TRINITY_DN38073_c2_g2 -            113 78142at3193          -            446   4.9e-54  185.5   2.9   1   1   7.2e-58   5.8e-54  185.2   2.9    27   121     1    95     1    99 0.98 -
PC1J_TRINITY_DN38095_c0_g1_i3.p1PC1J_TRINITY_DN38095_c0_g1 -            181 78142at3193          -            446   1.9e-06   28.7   0.0   1   1   3.3e-10   2.7e-06   28.2   0.0    19    41   124   146   105   153 0.86 -
PC3J_TRINITY_DN46942_c0_g2_i5.p1PC3J_TRINITY_DN46942_c0_g2 -            125 78142at3193          -            446      0.12   12.8   0.3   1   1   2.1e-05      0.17   12.3   0.3    92   170    39   120     5   124 0.74 -
PC1J_TRINITY_DN22666_c0_g1_i1.p1PC1J_TRINITY_DN22666_c0_g1 -            190 78142at3193          -            446      0.15   12.5   0.0   1   1   2.4e-05      0.19   12.2   0.0    19   101    84   165    69   182 0.81 -
#
# Program:         hmmsearch
# Version:         3.2.1 (June 2018)
# Pipeline mode:   SEARCH
# Query file:      /isg/shared/databases/BUSCO/odb10/embryophyta_odb10/hmms/78142at3193.hmm
# Target file:     Pine_final_annotations_no_contam_lvl0.faa
# Option settings: /usr/local/bin/hmmsearch --domtblout /labs/Wegrzyn/Juniper_Pine/BUSCO/NEW/busco_pine/run_embryophyta_odb10/hmmer_output/78142at3193.out --cpu 1 /isg/shared/databases/BUSCO/odb10/embryophyta_odb10/hmms/78142at3193.hmm Pine_final_annotations_no_contam_lvl0.faa 
# Current dir:     /labs/Wegrzyn/Juniper_Pine/BUSCO/NEW
# Date:            Thu Aug  6 15:09:16 2020
# [ok]
