#                                                                                                                   --- full sequence --- -------------- this domain -------------   hmm coord   ali coord   env coord
# target name                                               accession   tlen query name           accession   qlen   E-value  score  bias   #  of  c-Evalue  i-Evalue  score  bias  from    to  from    to  from    to  acc description of target
#                                       ------------------- ---------- ----- -------------------- ---------- ----- --------- ------ ----- --- --- --------- --------- ------ ----- ----- ----- ----- ----- ----- ----- ---- ---------------------
PC2J_TRINITY_DN43017_c1_g2_i1.p1PC2J_TRINITY_DN43017_c1_g2  -            350 7852at3193           -            781  1.7e-123  415.0  12.5   1   2   4.3e-18   2.7e-14   53.9   0.1   476   531    18    79    10    86 0.89 -
PC2J_TRINITY_DN43017_c1_g2_i1.p1PC2J_TRINITY_DN43017_c1_g2  -            350 7852at3193           -            781  1.7e-123  415.0  12.5   2   2    7e-110  4.5e-106  357.4   8.4   527   760   123   349   114   350 0.93 -
PC2J_TRINITY_DN36213_c3_g4_i1.p1PC2J_TRINITY_DN36213_c3_g4  -            281 7852at3193           -            781  2.2e-101  341.9   0.0   1   1  4.4e-105  2.8e-101  341.5   0.0    43   266     8   281     3   281 0.90 -
PC2J_TRINITY_DN43017_c1_g2_i5.p1PC2J_TRINITY_DN43017_c1_g2  -            274 7852at3193           -            781   1.3e-64  220.2   2.9   1   2   2.9e-18   1.8e-14   54.5   0.1   476   531    18    79    10    86 0.89 -
PC2J_TRINITY_DN43017_c1_g2_i5.p1PC2J_TRINITY_DN43017_c1_g2  -            274 7852at3193           -            781   1.3e-64  220.2   2.9   2   2   4.6e-52   2.9e-48  166.2   0.5   527   633   123   240   113   257 0.89 -
PC3A_TRINITY_DN5572_c0_g1_i1.p1PC3A_TRINITY_DN5572_c0_g1    -            109 7852at3193           -            781   2.2e-51  176.5   0.4   1   1   4.1e-55   2.6e-51  176.3   0.4   581   676     2   102     1   106 0.97 -
PC1A_TRINITY_DN47700_c0_g1_i1.p1PC1A_TRINITY_DN47700_c0_g1  -            108 7852at3193           -            781      0.27   10.9   0.0   1   1   4.5e-05      0.28   10.8   0.0   328   381    46   100    19   106 0.84 -
PC1J_TRINITY_DN35855_c0_g1_i2.p1PC1J_TRINITY_DN35855_c0_g1  -            179 7852at3193           -            781      0.31   10.7   0.8   1   1   6.1e-05      0.39   10.4   0.8   700   737    66   108    63   130 0.82 -
PC2J_TRINITY_DN34888_c1_g1_i3.p1PC2J_TRINITY_DN34888_c1_g1  -            292 7852at3193           -            781      0.57    9.8   3.9   1   2     0.029   1.9e+02    1.5   0.0   389   442     7    60     3   134 0.78 -
PC2J_TRINITY_DN34888_c1_g1_i3.p1PC2J_TRINITY_DN34888_c1_g1  -            292 7852at3193           -            781      0.57    9.8   3.9   2   2    0.0002       1.3    8.7   1.7   668   731   160   233   131   243 0.64 -
PC2J_TRINITY_DN44455_c2_g1_i11.p1PC2J_TRINITY_DN44455_c2_g1 -            341 7852at3193           -            781      0.73    9.5   0.6   1   1   0.00015      0.97    9.1   0.6   700   737    98   140    95   165 0.82 -
PC3J_TRINITY_DN38438_c0_g1_i2.p1PC3J_TRINITY_DN38438_c0_g1  -            111 7852at3193           -            781       2.5    7.7   4.0   1   1   0.00042       2.7    7.6   4.0   699   741    57   105    41   110 0.79 -
PC1A_TRINITY_DN40821_c1_g1_i1.p1PC1A_TRINITY_DN40821_c1_g1  -            230 7852at3193           -            781       7.2    6.2   3.6   1   1    0.0014       9.2    5.8   3.6   670   755    17    99     7   109 0.80 -
#
# Program:         hmmsearch
# Version:         3.2.1 (June 2018)
# Pipeline mode:   SEARCH
# Query file:      /isg/shared/databases/BUSCO/odb10/embryophyta_odb10/hmms/7852at3193.hmm
# Target file:     Pine_final_annotations_no_contam_lvl0.faa
# Option settings: /usr/local/bin/hmmsearch --domtblout /labs/Wegrzyn/Juniper_Pine/BUSCO/NEW/busco_pine/run_embryophyta_odb10/hmmer_output/7852at3193.out --cpu 1 /isg/shared/databases/BUSCO/odb10/embryophyta_odb10/hmms/7852at3193.hmm Pine_final_annotations_no_contam_lvl0.faa 
# Current dir:     /labs/Wegrzyn/Juniper_Pine/BUSCO/NEW
# Date:            Thu Aug  6 15:09:20 2020
# [ok]
