#                                                                                                                  --- full sequence --- -------------- this domain -------------   hmm coord   ali coord   env coord
# target name                                              accession   tlen query name           accession   qlen   E-value  score  bias   #  of  c-Evalue  i-Evalue  score  bias  from    to  from    to  from    to  acc description of target
#                                      ------------------- ---------- ----- -------------------- ---------- ----- --------- ------ ----- --- --- --------- --------- ------ ----- ----- ----- ----- ----- ----- ----- ---- ---------------------
PC1J_TRINITY_DN36663_c7_g4_i1.p1PC1J_TRINITY_DN36663_c7_g4 -            215 7975at3193           -            861     9e-83  280.6   1.1   1   1   2.8e-86   1.4e-82  280.0   1.1   682   861     1   208     1   208 0.89 -
PC1A_TRINITY_DN36681_c0_g1_i1.p1PC1A_TRINITY_DN36681_c0_g1 -            196 7975at3193           -            861   2.1e-66  226.4   0.1   1   1   5.1e-70   2.5e-66  226.2   0.1    75   235     1   177     1   188 0.94 -
PC2J_TRINITY_DN39748_c2_g1_i3.p1PC2J_TRINITY_DN39748_c2_g1 -            179 7975at3193           -            861   5.1e-60  205.3   0.2   1   1   1.2e-63   6.1e-60  205.0   0.2   260   397    29   178    25   179 0.92 -
PC3J_TRINITY_DN6701_c0_g1_i1.p1PC3J_TRINITY_DN6701_c0_g1   -            142 7975at3193           -            861   1.6e-50  173.9   0.0   1   1   3.6e-54   1.8e-50  173.7   0.0   415   548     1   142     1   142 0.94 -
PC3J_TRINITY_DN27539_c0_g1_i1.p1PC3J_TRINITY_DN27539_c0_g1 -            106 7975at3193           -            861   3.4e-37  129.8   0.3   1   1   8.1e-41     4e-37  129.6   0.3   548   644     3   100     1   102 0.94 -
PC1J_TRINITY_DN31101_c0_g1_i1.p1PC1J_TRINITY_DN31101_c0_g1 -            194 7975at3193           -            861   1.2e-25   91.6   0.3   1   1     3e-29   1.5e-25   91.3   0.3     1   177     3   185     3   191 0.89 -
PC1A_TRINITY_DN29584_c0_g1_i2.p1PC1A_TRINITY_DN29584_c0_g1 -            121 7975at3193           -            861   1.9e-24   87.6   0.3   1   1   4.9e-28   2.4e-24   87.3   0.3   758   835    20   101    15   108 0.90 -
PC1J_TRINITY_DN34780_c2_g1_i3.p1PC1J_TRINITY_DN34780_c2_g1 -            117 7975at3193           -            861   3.7e-24   86.7   0.2   1   1     1e-27     5e-24   86.2   0.2   568   625     1    59     1    80 0.93 -
PC3A_TRINITY_DN43225_c5_g2_i1.p1PC3A_TRINITY_DN43225_c5_g2 -            122 7975at3193           -            861   1.8e-16   61.2   0.3   1   2     5e-14   2.5e-10   40.9   0.1   207   260     1    63     1    70 0.90 -
PC3A_TRINITY_DN43225_c5_g2_i1.p1PC3A_TRINITY_DN43225_c5_g2 -            122 7975at3193           -            861   1.8e-16   61.2   0.3   2   2   2.6e-07    0.0013   18.7   0.0   260   281    86   107    82   113 0.89 -
PC2A_TRINITY_DN34706_c0_g1_i6.p1PC2A_TRINITY_DN34706_c0_g1 -            179 7975at3193           -            861   7.3e-12   46.0   0.1   1   1   1.5e-15   7.5e-12   45.9   0.1    53   158    14   119     4   167 0.89 -
PC3J_TRINITY_DN45151_c1_g2_i1.p1PC3J_TRINITY_DN45151_c1_g2 -            133 7975at3193           -            861   1.5e-10   41.6   0.0   1   1   3.6e-14   1.8e-10   41.4   0.0    37   121     3    88     1    92 0.91 -
PC1A_TRINITY_DN35584_c0_g1_i3.p1PC1A_TRINITY_DN35584_c0_g1 -            215 7975at3193           -            861   1.5e-06   28.4   0.1   1   1   3.8e-10   1.9e-06   28.1   0.1   372   504    49   198    38   209 0.71 -
PC2A_TRINITY_DN27084_c0_g1_i2.p1PC2A_TRINITY_DN27084_c0_g1 -            105 7975at3193           -            861    0.0072   16.2   0.0   1   1   1.7e-06    0.0085   16.0   0.0    10    78    20    87    15    96 0.89 -
#
# Program:         hmmsearch
# Version:         3.2.1 (June 2018)
# Pipeline mode:   SEARCH
# Query file:      /isg/shared/databases/BUSCO/odb10/embryophyta_odb10/hmms/7975at3193.hmm
# Target file:     Pine_final_annotations_no_contam_lvl0.faa
# Option settings: /usr/local/bin/hmmsearch --domtblout /labs/Wegrzyn/Juniper_Pine/BUSCO/NEW/busco_pine/run_embryophyta_odb10/hmmer_output/7975at3193.out --cpu 1 /isg/shared/databases/BUSCO/odb10/embryophyta_odb10/hmms/7975at3193.hmm Pine_final_annotations_no_contam_lvl0.faa 
# Current dir:     /labs/Wegrzyn/Juniper_Pine/BUSCO/NEW
# Date:            Thu Aug  6 15:09:55 2020
# [ok]
