#                                                                                                                  --- full sequence --- -------------- this domain -------------   hmm coord   ali coord   env coord
# target name                                              accession   tlen query name           accession   qlen   E-value  score  bias   #  of  c-Evalue  i-Evalue  score  bias  from    to  from    to  from    to  acc description of target
#                                      ------------------- ---------- ----- -------------------- ---------- ----- --------- ------ ----- --- --- --------- --------- ------ ----- ----- ----- ----- ----- ----- ----- ---- ---------------------
PC1A_TRINITY_DN41126_c2_g4_i1.p1PC1A_TRINITY_DN41126_c2_g4 -            375 81311at3193          -            426   6.6e-68  231.2   5.4   1   1   1.6e-71   1.7e-67  229.8   5.4    44   350     3   369     1   375 0.83 -
PC2A_TRINITY_DN29275_c0_g5_i2.p1PC2A_TRINITY_DN29275_c0_g5 -            264 81311at3193          -            426   6.4e-61  208.2   2.0   1   1   7.6e-65   8.1e-61  207.8   2.0   152   373     2   254     1   259 0.86 -
PC1A_TRINITY_DN41126_c2_g4_i3.p1PC1A_TRINITY_DN41126_c2_g4 -            146 81311at3193          -            426   4.2e-23   83.6   0.0   1   1     5e-27   5.3e-23   83.2   0.0     1    78    55   136    54   140 0.93 -
PC2J_TRINITY_DN34364_c0_g1_i2.p1PC2J_TRINITY_DN34364_c0_g1 -            122 81311at3193          -            426   3.6e-08   34.4   0.4   1   1   4.3e-12   4.6e-08   34.0   0.4   200   276     2    97     1   101 0.77 -
PC1J_TRINITY_DN41324_c1_g1_i1.p1PC1J_TRINITY_DN41324_c1_g1 -            119 81311at3193          -            426     0.039   14.5   0.1   1   1   4.2e-06     0.045   14.3   0.1   137   220     5    90     2   114 0.83 -
PC2J_TRINITY_DN40629_c4_g1_i7.p1PC2J_TRINITY_DN40629_c4_g1 -            112 81311at3193          -            426      0.47   10.9   0.1   1   1   4.7e-05       0.5   10.9   0.1   220   273     3    63     1    80 0.72 -
#
# Program:         hmmsearch
# Version:         3.2.1 (June 2018)
# Pipeline mode:   SEARCH
# Query file:      /isg/shared/databases/BUSCO/odb10/embryophyta_odb10/hmms/81311at3193.hmm
# Target file:     Pine_final_annotations_no_contam_lvl0.faa
# Option settings: /usr/local/bin/hmmsearch --domtblout /labs/Wegrzyn/Juniper_Pine/BUSCO/NEW/busco_pine/run_embryophyta_odb10/hmmer_output/81311at3193.out --cpu 1 /isg/shared/databases/BUSCO/odb10/embryophyta_odb10/hmms/81311at3193.hmm Pine_final_annotations_no_contam_lvl0.faa 
# Current dir:     /labs/Wegrzyn/Juniper_Pine/BUSCO/NEW
# Date:            Thu Aug  6 15:10:24 2020
# [ok]
