#                                                                                                                   --- full sequence --- -------------- this domain -------------   hmm coord   ali coord   env coord
# target name                                               accession   tlen query name           accession   qlen   E-value  score  bias   #  of  c-Evalue  i-Evalue  score  bias  from    to  from    to  from    to  acc description of target
#                                       ------------------- ---------- ----- -------------------- ---------- ----- --------- ------ ----- --- --- --------- --------- ------ ----- ----- ----- ----- ----- ----- ----- ---- ---------------------
PC1A_TRINITY_DN43053_c6_g1_i8.p1PC1A_TRINITY_DN43053_c6_g1  -            464 85331at3193          -            393  2.3e-135  453.5  17.0   1   2  2.4e-106  4.2e-103  347.3   9.0     1   181   161   341   161   350 0.99 -
PC1A_TRINITY_DN43053_c6_g1_i8.p1PC1A_TRINITY_DN43053_c6_g1  -            464 85331at3193          -            393  2.3e-135  453.5  17.0   2   2   1.1e-34   1.9e-31  111.4   1.0   183   253   394   464   385   464 0.92 -
PC3A_TRINITY_DN41953_c7_g1_i3.p1PC3A_TRINITY_DN41953_c7_g1  -            235 85331at3193          -            393  3.1e-111  374.1  12.8   1   2   1.2e-41   2.1e-38  134.3   1.0   255   337     9    92     1    93 0.94 -
PC3A_TRINITY_DN41953_c7_g1_i3.p1PC3A_TRINITY_DN41953_c7_g1  -            235 85331at3193          -            393  3.1e-111  374.1  12.8   2   2   1.4e-75   2.5e-72  246.0   4.9   255   393    92   231    91   231 0.99 -
PC1A_TRINITY_DN42042_c1_g2_i1.p1PC1A_TRINITY_DN42042_c1_g2  -            601 85331at3193          -            393  1.3e-109  368.7  23.9   1   2   2.6e-60   4.7e-57  195.7   9.4     5   181   185   362   181   376 0.96 -
PC1A_TRINITY_DN42042_c1_g2_i1.p1PC1A_TRINITY_DN42042_c1_g2  -            601 85331at3193          -            393  1.3e-109  368.7  23.9   2   2   3.1e-55   5.4e-52  179.0   6.5   181   388   391   595   386   598 0.94 -
PC2A_TRINITY_DN34801_c1_g3_i9.p1PC2A_TRINITY_DN34801_c1_g3  -            505 85331at3193          -            393  3.5e-105  354.1  22.5   1   2   2.5e-60   4.4e-57  195.8   9.8     5   181    76   253    72   267 0.95 -
PC2A_TRINITY_DN34801_c1_g3_i9.p1PC2A_TRINITY_DN34801_c1_g3  -            505 85331at3193          -            393  3.5e-105  354.1  22.5   2   2   8.6e-51   1.5e-47  164.4   4.7   181   378   282   476   277   485 0.92 -
PC1A_TRINITY_DN43053_c6_g1_i2.p1PC1A_TRINITY_DN43053_c6_g1  -            291 85331at3193          -            393    5e-102  343.7  24.8   1   3   7.7e-21   1.4e-17   65.7   3.0   183   227    20    64    11    65 0.88 -
PC1A_TRINITY_DN43053_c6_g1_i2.p1PC1A_TRINITY_DN43053_c6_g1  -            291 85331at3193          -            393    5e-102  343.7  24.8   2   3   6.2e-55   1.1e-51  178.0   6.2    77   181    64   168    63   178 0.98 -
PC1A_TRINITY_DN43053_c6_g1_i2.p1PC1A_TRINITY_DN43053_c6_g1  -            291 85331at3193          -            393    5e-102  343.7  24.8   3   3     5e-35   8.9e-32  112.4   1.0   183   253   221   291   212   291 0.92 -
PC3A_TRINITY_DN41953_c7_g1_i7.p1PC3A_TRINITY_DN41953_c7_g1  -            417 85331at3193          -            393  9.3e-100  336.3  14.1   1   3   4.3e-28   7.6e-25   89.6   0.1     1    49   161   209   161   211 0.97 -
PC3A_TRINITY_DN41953_c7_g1_i7.p1PC3A_TRINITY_DN41953_c7_g1  -            417 85331at3193          -            393  9.3e-100  336.3  14.1   2   3   2.9e-44   5.1e-41  142.9   2.6    96   180   209   293   208   301 0.98 -
PC3A_TRINITY_DN41953_c7_g1_i7.p1PC3A_TRINITY_DN41953_c7_g1  -            417 85331at3193          -            393  9.3e-100  336.3  14.1   3   3   9.1e-35   1.6e-31  111.6   1.0   183   253   347   417   338   417 0.92 -
PC1A_TRINITY_DN42042_c1_g2_i4.p1PC1A_TRINITY_DN42042_c1_g2  -            388 85331at3193          -            393   1.9e-95  322.1  25.2   1   3     1e-60   1.8e-57  197.0   9.4     5   181    12   189     8   203 0.95 -
PC1A_TRINITY_DN42042_c1_g2_i4.p1PC1A_TRINITY_DN42042_c1_g2  -            388 85331at3193          -            393   1.9e-95  322.1  25.2   2   3   1.2e-26   2.1e-23   84.9   1.4   181   276   218   313   213   318 0.96 -
PC1A_TRINITY_DN42042_c1_g2_i4.p1PC1A_TRINITY_DN42042_c1_g2  -            388 85331at3193          -            393   1.9e-95  322.1  25.2   3   3   1.9e-16   3.3e-13   51.3   0.9   194   267   314   387   312   387 0.97 -
PC2A_TRINITY_DN29640_c0_g1_i8.p1PC2A_TRINITY_DN29640_c0_g1  -            276 85331at3193          -            393   5.9e-83  280.9   7.1   1   2   2.1e-05     0.037   14.9   0.2   164   181    40    57    31    67 0.90 -
PC2A_TRINITY_DN29640_c0_g1_i8.p1PC2A_TRINITY_DN29640_c0_g1  -            276 85331at3193          -            393   5.9e-83  280.9   7.1   2   2     2e-82   3.5e-79  268.5   2.4   183   336   110   264   101   270 0.95 -
PC1A_TRINITY_DN43053_c6_g1_i1.p1PC1A_TRINITY_DN43053_c6_g1  -            142 85331at3193          -            393   1.8e-66  226.7   4.4   1   1   1.2e-69   2.2e-66  226.4   4.4   261   393     5   138     3   138 0.97 -
PC2J_TRINITY_DN44687_c7_g4_i4.p1PC2J_TRINITY_DN44687_c7_g4  -            404 85331at3193          -            393   9.9e-61  207.8  13.8   1   1   7.5e-64   1.3e-60  207.4  13.8     3   183   205   386   203   395 0.97 -
PC2A_TRINITY_DN30488_c4_g3_i4.p1PC2A_TRINITY_DN30488_c4_g3  -            219 85331at3193          -            393   2.6e-52  180.1   6.1   1   1   1.7e-55     3e-52  179.9   6.1   184   388    12   213     4   217 0.93 -
PC3A_TRINITY_DN43999_c6_g1_i5.p1PC3A_TRINITY_DN43999_c6_g1  -            232 85331at3193          -            393   1.4e-49  171.1   9.5   1   2   2.2e-18   3.9e-15   57.7   0.4   121   181     3    63     1    69 0.94 -
PC3A_TRINITY_DN43999_c6_g1_i5.p1PC3A_TRINITY_DN43999_c6_g1  -            232 85331at3193          -            393   1.4e-49  171.1   9.5   2   2     8e-37   1.4e-33  118.4   4.5   221   388    62   226    61   230 0.92 -
PC2J_TRINITY_DN41921_c0_g1_i7.p1PC2J_TRINITY_DN41921_c0_g1  -            101 85331at3193          -            393   2.1e-46  160.6  12.9   1   2   4.3e-28   7.7e-25   89.6   4.4   187   242     4    59     1    60 0.94 -
PC2J_TRINITY_DN41921_c0_g1_i7.p1PC2J_TRINITY_DN41921_c0_g1  -            101 85331at3193          -            393   2.1e-46  160.6  12.9   2   2   2.5e-25   4.4e-22   80.5   2.9   192   237    56   101    55   101 0.98 -
PC2J_TRINITY_DN39881_c1_g2_i1.p1PC2J_TRINITY_DN39881_c1_g2  -            290 85331at3193          -            393   1.7e-32  114.8   9.8   1   2    0.0031       5.4    7.8   0.2   144   182     2    40     1    59 0.90 -
PC2J_TRINITY_DN39881_c1_g2_i1.p1PC2J_TRINITY_DN39881_c1_g2  -            290 85331at3193          -            393   1.7e-32  114.8   9.8   2   2   1.5e-34   2.7e-31  110.8   4.3   184   361   103   280    45   285 0.87 -
PC1A_TRINITY_DN42292_c5_g1_i3.p2PC1A_TRINITY_DN42292_c5_g1  -            116 85331at3193          -            393   1.6e-31  111.6   6.3   1   1   1.1e-34   1.9e-31  111.4   6.3     3    91    21   109    19   113 0.97 -
PC1A_TRINITY_DN2234_c0_g1_i1.p1PC1A_TRINITY_DN2234_c0_g1    -            198 85331at3193          -            393     1e-19   72.7   9.9   1   2    0.0061        11    6.8   1.2   150   180     1    31     1    42 0.94 -
PC1A_TRINITY_DN2234_c0_g1_i1.p1PC1A_TRINITY_DN2234_c0_g1    -            198 85331at3193          -            393     1e-19   72.7   9.9   2   2   2.6e-22   4.6e-19   70.6   2.1   182   290    71   180    62   198 0.84 -
PC3J_TRINITY_DN29949_c0_g1_i2.p1PC3J_TRINITY_DN29949_c0_g1  -            101 85331at3193          -            393   4.5e-18   67.3   0.6   1   1   2.9e-21   5.1e-18   67.2   0.6    46   116    24    94     9    98 0.95 -
PC3J_TRINITY_DN45812_c1_g2_i5.p1PC3J_TRINITY_DN45812_c1_g2  -            101 85331at3193          -            393   6.2e-15   57.0   0.1   1   1   4.3e-18   7.6e-15   56.7   0.1    69   138    16    86    11    90 0.95 -
PC2J_TRINITY_DN45788_c0_g4_i1.p1PC2J_TRINITY_DN45788_c0_g4  -            130 85331at3193          -            393   7.2e-15   56.8   0.6   1   1   4.7e-18   8.3e-15   56.6   0.6   239   330    12   102     3   116 0.89 -
PC1J_TRINITY_DN37875_c0_g4_i7.p1PC1J_TRINITY_DN37875_c0_g4  -            153 85331at3193          -            393   1.3e-14   55.9   0.0   1   1   9.3e-18   1.7e-14   55.6   0.0   235   331    51   146    35   150 0.89 -
PC1J_TRINITY_DN37875_c0_g4_i2.p1PC1J_TRINITY_DN37875_c0_g4  -            106 85331at3193          -            393   1.4e-14   55.8   3.5   1   2   2.5e-17   4.5e-14   54.2   0.9   184   235    35    86    26    87 0.93 -
PC1J_TRINITY_DN37875_c0_g4_i2.p1PC1J_TRINITY_DN37875_c0_g4  -            106 85331at3193          -            393   1.4e-14   55.8   3.5   2   2     0.059     1e+02    3.6   0.1   374   388    86   100    85   103 0.86 -
PC1J_TRINITY_DN34718_c1_g1_i3.p1PC1J_TRINITY_DN34718_c1_g1  -            284 85331at3193          -            393   3.1e-11   44.8   7.5   1   2     2e-05     0.036   15.0   0.1     3    29   205   231   203   232 0.94 -
PC1J_TRINITY_DN34718_c1_g1_i3.p1PC1J_TRINITY_DN34718_c1_g1  -            284 85331at3193          -            393   3.1e-11   44.8   7.5   2   2   9.5e-11   1.7e-07   32.5   3.8    65   117   231   284   230   284 0.95 -
PC1J_TRINITY_DN27659_c0_g1_i2.p1PC1J_TRINITY_DN27659_c0_g1  -            154 85331at3193          -            393   5.3e-09   37.5   4.5   1   1   3.5e-12   6.1e-09   37.3   4.5    38   179     2   145     1   150 0.90 -
PC1J_TRINITY_DN39346_c1_g2_i6.p1PC1J_TRINITY_DN39346_c1_g2  -            112 85331at3193          -            393   1.5e-08   35.9   0.5   1   1   1.1e-11   1.9e-08   35.7   0.5   146   181     2    37     1    47 0.93 -
PC1A_TRINITY_DN37723_c0_g1_i2.p1PC1A_TRINITY_DN37723_c0_g1  -            278 85331at3193          -            393   1.2e-06   29.7   5.2   1   1   8.8e-10   1.6e-06   29.3   5.2    42   172    49   178    44   223 0.89 -
PC2J_TRINITY_DN35062_c0_g2_i2.p1PC2J_TRINITY_DN35062_c0_g2  -            239 85331at3193          -            393   2.2e-06   28.9   6.2   1   1   1.5e-09   2.7e-06   28.6   6.2    42   171    70   198    65   222 0.86 -
PC3A_TRINITY_DN36801_c2_g1_i2.p1PC3A_TRINITY_DN36801_c2_g1  -            141 85331at3193          -            393   3.8e-06   28.0   1.8   1   1   2.6e-09   4.5e-06   27.8   1.8    42   149    31   137    26   141 0.88 -
PC1A_TRINITY_DN41899_c7_g2_i6.p1PC1A_TRINITY_DN41899_c7_g2  -            229 85331at3193          -            393   0.00013   23.0   4.1   1   1   9.3e-08   0.00017   22.7   4.1    42   158   107   222    99   229 0.87 -
PC2A_TRINITY_DN11260_c0_g1_i1.p1PC2A_TRINITY_DN11260_c0_g1  -            152 85331at3193          -            393   0.00043   21.3   2.7   1   1   2.7e-07   0.00048   21.1   2.7    70   167    23   120     6   139 0.89 -
PC3A_TRINITY_DN35206_c0_g1_i5.p1PC3A_TRINITY_DN35206_c0_g1  -            115 85331at3193          -            393   0.00052   21.0   1.0   1   1   3.4e-07    0.0006   20.8   1.0    66   153    10    96     3   112 0.77 -
PC1J_TRINITY_DN36920_c1_g2_i2.p1PC1J_TRINITY_DN36920_c1_g2  -            372 85331at3193          -            393   0.00091   20.2   8.0   1   1   7.2e-07    0.0013   19.7   8.0    41   169   146   274   125   291 0.85 -
PC3J_TRINITY_DN41914_c0_g1_i2.p1PC3J_TRINITY_DN41914_c0_g1  -            341 85331at3193          -            393    0.0058   17.6   2.3   1   1   4.6e-06    0.0081   17.1   2.3    61   155    83   176    48   226 0.80 -
PC3A_TRINITY_DN38455_c2_g1_i4.p1PC3A_TRINITY_DN38455_c2_g1  -            202 85331at3193          -            393     0.067   14.1   4.3   1   1   4.6e-05     0.082   13.8   4.3    48   170    44   166    16   183 0.79 -
PC3A_TRINITY_DN42950_c2_g2_i5.p1PC3A_TRINITY_DN42950_c2_g2  -            292 85331at3193          -            393     0.088   13.7   0.0   1   1   7.2e-05      0.13   13.2   0.0     5    32   185   212   181   225 0.85 -
PC1A_TRINITY_DN38817_c1_g1_i2.p1PC1A_TRINITY_DN38817_c1_g1  -            296 85331at3193          -            393      0.17   12.8   3.9   1   1   0.00013      0.23   12.3   3.9    52   160    91   198    54   220 0.81 -
PC1A_TRINITY_DN43457_c1_g1_i18.p1PC1A_TRINITY_DN43457_c1_g1 -            127 85331at3193          -            393      0.32   11.9   0.1   1   1    0.0002      0.36   11.7   0.1    51   119    34   101    25   120 0.80 -
#
# Program:         hmmsearch
# Version:         3.2.1 (June 2018)
# Pipeline mode:   SEARCH
# Query file:      /isg/shared/databases/BUSCO/odb10/embryophyta_odb10/hmms/85331at3193.hmm
# Target file:     Pine_final_annotations_no_contam_lvl0.faa
# Option settings: /usr/local/bin/hmmsearch --domtblout /labs/Wegrzyn/Juniper_Pine/BUSCO/NEW/busco_pine/run_embryophyta_odb10/hmmer_output/85331at3193.out --cpu 1 /isg/shared/databases/BUSCO/odb10/embryophyta_odb10/hmms/85331at3193.hmm Pine_final_annotations_no_contam_lvl0.faa 
# Current dir:     /labs/Wegrzyn/Juniper_Pine/BUSCO/NEW
# Date:            Thu Aug  6 15:11:15 2020
# [ok]
