#                                                                                                                  --- full sequence --- -------------- this domain -------------   hmm coord   ali coord   env coord
# target name                                              accession   tlen query name           accession   qlen   E-value  score  bias   #  of  c-Evalue  i-Evalue  score  bias  from    to  from    to  from    to  acc description of target
#                                      ------------------- ---------- ----- -------------------- ---------- ----- --------- ------ ----- --- --- --------- --------- ------ ----- ----- ----- ----- ----- ----- ----- ---- ---------------------
PC1J_TRINITY_DN36076_c4_g1_i4.p1PC1J_TRINITY_DN36076_c4_g1 -            183 8566at3193           -            979   6.5e-88  297.5   5.8   1   1   1.9e-91   7.1e-88  297.4   5.8   633   811     3   183     1   183 0.97 -
PC2J_TRINITY_DN14447_c0_g1_i2.p1PC2J_TRINITY_DN14447_c0_g1 -            111 8566at3193           -            979   3.9e-50  172.5   0.0   1   1   1.1e-53   4.3e-50  172.3   0.0   131   238     1   111     1   111 0.95 -
PC1J_TRINITY_DN41322_c2_g4_i1.p1PC1J_TRINITY_DN41322_c2_g4 -            152 8566at3193           -            979   5.9e-45  155.3   0.7   1   1   1.9e-48     7e-45  155.1   0.7   826   964    12   152     7   152 0.96 -
PC1J_TRINITY_DN40478_c2_g2_i1.p1PC1J_TRINITY_DN40478_c2_g2 -            225 8566at3193           -            979   8.3e-41  141.6   0.0   1   1   2.5e-44   9.4e-41  141.4   0.0    35   211    37   223    15   225 0.87 -
PC1J_TRINITY_DN36138_c2_g1_i5.p1PC1J_TRINITY_DN36138_c2_g1 -            406 8566at3193           -            979   2.8e-35  123.3   0.0   1   1   9.7e-39   3.6e-35  122.9   0.0    36   286   111   376   103   386 0.86 -
PC2J_TRINITY_DN14447_c0_g1_i1.p1PC2J_TRINITY_DN14447_c0_g1 -            106 8566at3193           -            979   8.9e-34  118.3   0.0   1   1   2.6e-37   9.9e-34  118.2   0.0   131   208     1    81     1    93 0.91 -
PC2A_TRINITY_DN30318_c5_g1_i1.p1PC2A_TRINITY_DN30318_c5_g1 -            135 8566at3193           -            979   7.1e-33  115.3   1.8   1   1   2.3e-36   8.6e-33  115.1   1.8   805   924     2   131     1   133 0.90 -
PC2J_TRINITY_DN39034_c1_g2_i1.p1PC2J_TRINITY_DN39034_c1_g2 -            295 8566at3193           -            979   7.6e-29  102.0   0.5   1   1   2.9e-32   1.1e-28  101.5   0.5   340   424    50   132    38   135 0.93 -
PC3A_TRINITY_DN38292_c1_g2_i4.p1PC3A_TRINITY_DN38292_c1_g2 -            243 8566at3193           -            979   9.7e-27   95.0   0.0   1   1   3.1e-30   1.2e-26   94.8   0.0    36   180    84   238    76   243 0.88 -
PC1J_TRINITY_DN40478_c2_g2_i2.p1PC1J_TRINITY_DN40478_c2_g2 -            182 8566at3193           -            979   7.1e-21   75.6   0.0   1   2   1.9e-06     0.007   16.1   0.0    35    57    37    59    13    66 0.87 -
PC1J_TRINITY_DN40478_c2_g2_i2.p1PC1J_TRINITY_DN40478_c2_g2 -            182 8566at3193           -            979   7.1e-21   75.6   0.0   2   2   4.4e-19   1.6e-15   57.9   0.0   110   211    74   180    72   182 0.88 -
PC3J_TRINITY_DN41103_c7_g2_i1.p1PC3J_TRINITY_DN41103_c7_g2 -            129 8566at3193           -            979   1.3e-16   61.6   0.2   1   1   3.8e-20   1.4e-16   61.4   0.2   428   489    46   107    27   117 0.89 -
PC1J_TRINITY_DN42887_c0_g1_i1.p1PC1J_TRINITY_DN42887_c0_g1 -            166 8566at3193           -            979   1.4e-11   44.9   5.3   1   2     1e-06    0.0038   16.9   0.1   482   519    10    47     2    75 0.77 -
PC1J_TRINITY_DN42887_c0_g1_i1.p1PC1J_TRINITY_DN42887_c0_g1 -            166 8566at3193           -            979   1.4e-11   44.9   5.3   2   2   4.1e-10   1.5e-06   28.2   3.7   496   569    89   163    47   166 0.81 -
PC2J_TRINITY_DN37987_c4_g2_i3.p1PC2J_TRINITY_DN37987_c4_g2 -            211 8566at3193           -            979   3.3e-08   33.7   0.0   1   1     1e-11   3.8e-08   33.5   0.0    35   102    95   167    73   191 0.82 -
PC1J_TRINITY_DN41347_c2_g3_i1.p1PC1J_TRINITY_DN41347_c2_g3 -            210 8566at3193           -            979   3.1e-07   30.5   0.1   1   1   1.1e-10   4.1e-07   30.1   0.1     2    28   141   167   140   174 0.93 -
PC3J_TRINITY_DN51272_c0_g1_i1.p1PC3J_TRINITY_DN51272_c0_g1 -            131 8566at3193           -            979   2.6e-05   24.1   2.1   1   1   7.6e-09   2.9e-05   24.0   2.1   841   917    34   110    17   125 0.84 -
PC3A_TRINITY_DN42291_c2_g1_i1.p1PC3A_TRINITY_DN42291_c2_g1 -            194 8566at3193           -            979     0.004   16.9   0.4   1   1   1.3e-06    0.0048   16.6   0.4   850   935    93   181    69   189 0.80 -
PC2J_TRINITY_DN39034_c1_g7_i2.p1PC2J_TRINITY_DN39034_c1_g7 -            171 8566at3193           -            979     0.053   13.1   0.4   1   2     0.021        80    2.6   0.1   596   614     1    19     1    23 0.89 -
PC2J_TRINITY_DN39034_c1_g7_i2.p1PC2J_TRINITY_DN39034_c1_g7 -            171 8566at3193           -            979     0.053   13.1   0.4   2   2   0.00026      0.96    9.0   0.0   614   641    95   121    84   147 0.76 -
#
# Program:         hmmsearch
# Version:         3.2.1 (June 2018)
# Pipeline mode:   SEARCH
# Query file:      /isg/shared/databases/BUSCO/odb10/embryophyta_odb10/hmms/8566at3193.hmm
# Target file:     Pine_final_annotations_no_contam_lvl0.faa
# Option settings: /usr/local/bin/hmmsearch --domtblout /labs/Wegrzyn/Juniper_Pine/BUSCO/NEW/busco_pine/run_embryophyta_odb10/hmmer_output/8566at3193.out --cpu 1 /isg/shared/databases/BUSCO/odb10/embryophyta_odb10/hmms/8566at3193.hmm Pine_final_annotations_no_contam_lvl0.faa 
# Current dir:     /labs/Wegrzyn/Juniper_Pine/BUSCO/NEW
# Date:            Thu Aug  6 15:11:21 2020
# [ok]
