#                                                                                                                  --- full sequence --- -------------- this domain -------------   hmm coord   ali coord   env coord
# target name                                              accession   tlen query name           accession   qlen   E-value  score  bias   #  of  c-Evalue  i-Evalue  score  bias  from    to  from    to  from    to  acc description of target
#                                      ------------------- ---------- ----- -------------------- ---------- ----- --------- ------ ----- --- --- --------- --------- ------ ----- ----- ----- ----- ----- ----- ----- ---- ---------------------
PC3J_TRINITY_DN48425_c0_g1_i1.p1PC3J_TRINITY_DN48425_c0_g1 -            219 85734at3193          -            408   1.1e-61  210.9   0.0   1   1   9.8e-66   1.2e-61  210.8   0.0     1   169    47   217    47   219 0.98 -
PC1A_TRINITY_DN36903_c0_g1_i1.p1PC1A_TRINITY_DN36903_c0_g1 -            395 85734at3193          -            408   6.9e-40  139.1   3.2   1   4   0.00014       1.8    9.3   0.1   164   208    17    61    13    73 0.87 -
PC1A_TRINITY_DN36903_c0_g1_i1.p1PC1A_TRINITY_DN36903_c0_g1 -            395 85734at3193          -            408   6.9e-40  139.1   3.2   2   4   1.4e-23   1.8e-19   71.9   0.0   203   277    78   155    60   169 0.84 -
PC1A_TRINITY_DN36903_c0_g1_i1.p1PC1A_TRINITY_DN36903_c0_g1 -            395 85734at3193          -            408   6.9e-40  139.1   3.2   3   4     3e-06     0.038   14.8   0.1   286   320   238   277   231   294 0.81 -
PC1A_TRINITY_DN36903_c0_g1_i1.p1PC1A_TRINITY_DN36903_c0_g1 -            395 85734at3193          -            408   6.9e-40  139.1   3.2   4   4   2.7e-14   3.5e-10   41.3   0.0   286   367   300   379   287   389 0.82 -
PC2J_TRINITY_DN33764_c0_g2_i1.p1PC2J_TRINITY_DN33764_c0_g2 -            157 85734at3193          -            408   4.3e-30  106.9   0.5   1   2   1.3e-24   1.7e-20   75.3   0.0   204   275    34   108    18   117 0.84 -
PC2J_TRINITY_DN33764_c0_g2_i1.p1PC2J_TRINITY_DN33764_c0_g2 -            157 85734at3193          -            408   4.3e-30  106.9   0.5   2   2   5.9e-11   7.5e-07   30.3   0.1   239   264   119   144   112   151 0.90 -
PC1J_TRINITY_DN33460_c0_g1_i1.p1PC1J_TRINITY_DN33460_c0_g1 -            144 85734at3193          -            408   1.2e-18   69.2   0.1   1   2   2.5e-06     0.031   15.1   0.0   254   275     1    21     1    29 0.84 -
PC1J_TRINITY_DN33460_c0_g1_i1.p1PC1J_TRINITY_DN33460_c0_g1 -            144 85734at3193          -            408   1.2e-18   69.2   0.1   2   2   1.1e-17   1.5e-13   52.4   0.0   226   278    32    86    28   100 0.85 -
PC2J_TRINITY_DN38265_c1_g1_i1.p1PC2J_TRINITY_DN38265_c1_g1 -            147 85734at3193          -            408    0.0054   17.6   0.0   1   1   5.3e-07    0.0067   17.3   0.0   286   321    23    63    16    81 0.81 -
#
# Program:         hmmsearch
# Version:         3.2.1 (June 2018)
# Pipeline mode:   SEARCH
# Query file:      /isg/shared/databases/BUSCO/odb10/embryophyta_odb10/hmms/85734at3193.hmm
# Target file:     Pine_final_annotations_no_contam_lvl0.faa
# Option settings: /usr/local/bin/hmmsearch --domtblout /labs/Wegrzyn/Juniper_Pine/BUSCO/NEW/busco_pine/run_embryophyta_odb10/hmmer_output/85734at3193.out --cpu 1 /isg/shared/databases/BUSCO/odb10/embryophyta_odb10/hmms/85734at3193.hmm Pine_final_annotations_no_contam_lvl0.faa 
# Current dir:     /labs/Wegrzyn/Juniper_Pine/BUSCO/NEW
# Date:            Thu Aug  6 15:11:21 2020
# [ok]
