#                                                                                                                  --- full sequence --- -------------- this domain -------------   hmm coord   ali coord   env coord
# target name                                              accession   tlen query name           accession   qlen   E-value  score  bias   #  of  c-Evalue  i-Evalue  score  bias  from    to  from    to  from    to  acc description of target
#                                      ------------------- ---------- ----- -------------------- ---------- ----- --------- ------ ----- --- --- --------- --------- ------ ----- ----- ----- ----- ----- ----- ----- ---- ---------------------
PC1J_TRINITY_DN40655_c1_g1_i7.p1PC1J_TRINITY_DN40655_c1_g1 -            440 86302at3193          -            301  1.4e-182  607.5   3.2   1   1  1.2e-186  1.9e-182  607.1   3.2     1   301   118   439   118   439 0.97 -
PC3A_TRINITY_DN41956_c0_g3_i5.p1PC3A_TRINITY_DN41956_c0_g3 -            146 86302at3193          -            301   8.3e-61  207.7   1.0   1   1   6.7e-65   1.1e-60  207.3   1.0   140   241    11   114     3   119 0.96 -
PC2J_TRINITY_DN41313_c1_g1_i7.p1PC2J_TRINITY_DN41313_c1_g1 -            109 86302at3193          -            301   8.7e-44  151.8   2.2   1   1   6.8e-48   1.1e-43  151.5   2.2   191   272    15    98     8   100 0.94 -
PC2J_TRINITY_DN41313_c1_g1_i1.p1PC2J_TRINITY_DN41313_c1_g1 -            118 86302at3193          -            301   1.5e-37  131.3   0.5   1   1   1.1e-41   1.8e-37  131.1   0.5   229   301    41   117    29   117 0.95 -
#
# Program:         hmmsearch
# Version:         3.2.1 (June 2018)
# Pipeline mode:   SEARCH
# Query file:      /isg/shared/databases/BUSCO/odb10/embryophyta_odb10/hmms/86302at3193.hmm
# Target file:     Pine_final_annotations_no_contam_lvl0.faa
# Option settings: /usr/local/bin/hmmsearch --domtblout /labs/Wegrzyn/Juniper_Pine/BUSCO/NEW/busco_pine/run_embryophyta_odb10/hmmer_output/86302at3193.out --cpu 1 /isg/shared/databases/BUSCO/odb10/embryophyta_odb10/hmms/86302at3193.hmm Pine_final_annotations_no_contam_lvl0.faa 
# Current dir:     /labs/Wegrzyn/Juniper_Pine/BUSCO/NEW
# Date:            Thu Aug  6 15:11:40 2020
# [ok]
