#                                                                                                                   --- full sequence --- -------------- this domain -------------   hmm coord   ali coord   env coord
# target name                                               accession   tlen query name           accession   qlen   E-value  score  bias   #  of  c-Evalue  i-Evalue  score  bias  from    to  from    to  from    to  acc description of target
#                                       ------------------- ---------- ----- -------------------- ---------- ----- --------- ------ ----- --- --- --------- --------- ------ ----- ----- ----- ----- ----- ----- ----- ---- ---------------------
PC1J_TRINITY_DN37751_c0_g2_i2.p1PC1J_TRINITY_DN37751_c0_g2  -            233 87523at3193          -            422   2.9e-79  268.8   0.9   1   1   1.9e-82   4.8e-79  268.1   0.9   144   341     2   227     1   230 0.90 -
PC3A_TRINITY_DN15977_c0_g1_i1.p1PC3A_TRINITY_DN15977_c0_g1  -            116 87523at3193          -            422   7.1e-51  175.3  11.0   1   1   3.1e-54   7.8e-51  175.1  11.0   313   422     1   113     1   113 0.96 -
PC1J_TRINITY_DN37751_c0_g2_i4.p1PC1J_TRINITY_DN37751_c0_g2  -            129 87523at3193          -            422   4.7e-45  156.1   3.0   1   1   2.2e-48   5.6e-45  155.8   3.0    45   139    21   119     9   126 0.94 -
PC1A_TRINITY_DN6485_c0_g1_i1.p1PC1A_TRINITY_DN6485_c0_g1    -            113 87523at3193          -            422   2.2e-31  111.1  17.3   1   2   1.3e-18   3.3e-15   57.8   5.0   358   406     1    52     1    53 0.90 -
PC1A_TRINITY_DN6485_c0_g1_i1.p1PC1A_TRINITY_DN6485_c0_g1    -            113 87523at3193          -            422   2.2e-31  111.1  17.3   2   2   2.3e-19   5.8e-16   60.3   4.0   358   406    54   105    52   110 0.89 -
PC1J_TRINITY_DN39661_c3_g2_i2.p1PC1J_TRINITY_DN39661_c3_g2  -            629 87523at3193          -            422   3.2e-07   31.5   0.0   1   4   4.4e-07    0.0011   19.8   0.0    10    79   299   366   290   375 0.88 -
PC1J_TRINITY_DN39661_c3_g2_i2.p1PC1J_TRINITY_DN39661_c3_g2  -            629 87523at3193          -            422   3.2e-07   31.5   0.0   2   4       2.4   6.1e+03   -2.4   0.0    51    71   373   393   368   406 0.82 -
PC1J_TRINITY_DN39661_c3_g2_i2.p1PC1J_TRINITY_DN39661_c3_g2  -            629 87523at3193          -            422   3.2e-07   31.5   0.0   3   4    0.0029       7.3    7.2   0.0    40    91   435   483   420   487 0.84 -
PC1J_TRINITY_DN39661_c3_g2_i2.p1PC1J_TRINITY_DN39661_c3_g2  -            629 87523at3193          -            422   3.2e-07   31.5   0.0   4   4       1.4   3.7e+03   -1.7   0.0    51    78   583   610   549   625 0.76 -
PC1J_TRINITY_DN12802_c0_g1_i1.p1PC1J_TRINITY_DN12802_c0_g1  -            102 87523at3193          -            422    0.0012   19.7   0.0   1   2    0.0011       2.7    8.6   0.0    35    77     3    42     1    57 0.81 -
PC1J_TRINITY_DN12802_c0_g1_i1.p1PC1J_TRINITY_DN12802_c0_g1  -            102 87523at3193          -            422    0.0012   19.7   0.0   2   2    0.0005       1.3    9.7   0.0    30    64    68    99    53   102 0.84 -
PC2J_TRINITY_DN30936_c0_g1_i1.p1PC2J_TRINITY_DN30936_c0_g1  -            151 87523at3193          -            422    0.0017   19.2   0.0   1   2      0.15   3.8e+02    1.6   0.0    15    42    30    58    22    62 0.82 -
PC2J_TRINITY_DN30936_c0_g1_i1.p1PC2J_TRINITY_DN30936_c0_g1  -            151 87523at3193          -            422    0.0017   19.2   0.0   2   2   6.9e-06     0.018   15.8   0.0    20    79    70   127    58   136 0.79 -
PC1A_TRINITY_DN41512_c0_g8_i2.p1PC1A_TRINITY_DN41512_c0_g8  -            429 87523at3193          -            422    0.0048   17.7   0.3   1   6     0.086   2.2e+02    2.4   0.0    34    74    26    63     8    85 0.75 -
PC1A_TRINITY_DN41512_c0_g8_i2.p1PC1A_TRINITY_DN41512_c0_g8  -            429 87523at3193          -            422    0.0048   17.7   0.3   2   6     0.023        59    4.2   0.0    22    78    47   102    41   108 0.82 -
PC1A_TRINITY_DN41512_c0_g8_i2.p1PC1A_TRINITY_DN41512_c0_g8  -            429 87523at3193          -            422    0.0048   17.7   0.3   3   6     0.012        29    5.2   0.0    35    81    97   140    81   153 0.74 -
PC1A_TRINITY_DN41512_c0_g8_i2.p1PC1A_TRINITY_DN41512_c0_g8  -            429 87523at3193          -            422    0.0048   17.7   0.3   4   6      0.12     3e+02    1.9   0.0    52    95   146   194   142   227 0.69 -
PC1A_TRINITY_DN41512_c0_g8_i2.p1PC1A_TRINITY_DN41512_c0_g8  -            429 87523at3193          -            422    0.0048   17.7   0.3   5   6      0.19   4.7e+02    1.2   0.0    36    74   273   308   252   331 0.73 -
PC1A_TRINITY_DN41512_c0_g8_i2.p1PC1A_TRINITY_DN41512_c0_g8  -            429 87523at3193          -            422    0.0048   17.7   0.3   6   6      0.71   1.8e+03   -0.7   0.0    26    71   298   340   291   350 0.82 -
PC3J_TRINITY_DN49610_c0_g1_i1.p1PC3J_TRINITY_DN49610_c0_g1  -            111 87523at3193          -            422     0.009   16.8   0.0   1   2     0.018        46    4.6   0.0    52    77     5    30     3    36 0.92 -
PC3J_TRINITY_DN49610_c0_g1_i1.p1PC3J_TRINITY_DN49610_c0_g1  -            111 87523at3193          -            422     0.009   16.8   0.0   2   2   0.00033      0.85   10.3   0.0    33    82    59   105    41   109 0.80 -
PC3A_TRINITY_DN22329_c0_g1_i1.p1PC3A_TRINITY_DN22329_c0_g1  -            223 87523at3193          -            422     0.013   16.3   0.0   1   4   0.00061       1.6    9.4   0.0    29    78    49    95    35   119 0.74 -
PC3A_TRINITY_DN22329_c0_g1_i1.p1PC3A_TRINITY_DN22329_c0_g1  -            223 87523at3193          -            422     0.013   16.3   0.0   2   4     0.085   2.2e+02    2.4   0.0    49    86   101   138    89   147 0.78 -
PC3A_TRINITY_DN22329_c0_g1_i1.p1PC3A_TRINITY_DN22329_c0_g1  -            223 87523at3193          -            422     0.013   16.3   0.0   3   4     0.056   1.4e+02    3.0   0.0    32    65   122   154   117   173 0.85 -
PC3A_TRINITY_DN22329_c0_g1_i1.p1PC3A_TRINITY_DN22329_c0_g1  -            223 87523at3193          -            422     0.013   16.3   0.0   4   4      0.98   2.5e+03   -1.1   0.0    52    86   176   210   160   215 0.82 -
PC1A_TRINITY_DN47279_c0_g1_i1.p1PC1A_TRINITY_DN47279_c0_g1  -            159 87523at3193          -            422     0.063   14.0   0.0   1   2    0.0047        12    6.5   0.0    32    78     8    51     5    56 0.88 -
PC1A_TRINITY_DN47279_c0_g1_i1.p1PC1A_TRINITY_DN47279_c0_g1  -            159 87523at3193          -            422     0.063   14.0   0.0   2   2    0.0022       5.5    7.6   0.0    35    78    46    86    45   107 0.77 -
PC1J_TRINITY_DN24948_c0_g1_i2.p1PC1J_TRINITY_DN24948_c0_g1  -            133 87523at3193          -            422      0.09   13.5   0.0   1   3   0.00054       1.4    9.6   0.1    35   103    15    79     2    89 0.79 -
PC1J_TRINITY_DN24948_c0_g1_i2.p1PC1J_TRINITY_DN24948_c0_g1  -            133 87523at3193          -            422      0.09   13.5   0.0   2   3      0.02        52    4.4   0.0    53    81    57    85    53    99 0.79 -
PC1J_TRINITY_DN24948_c0_g1_i2.p1PC1J_TRINITY_DN24948_c0_g1  -            133 87523at3193          -            422      0.09   13.5   0.0   3   3     0.097   2.5e+02    2.2   0.0    50    75    89   114    70   131 0.77 -
PC2J_TRINITY_DN47831_c0_g1_i1.p1PC2J_TRINITY_DN47831_c0_g1  -            157 87523at3193          -            422     0.093   13.5   0.0   1   2   0.00011      0.28   11.9   0.0    42    93    21    75    11    91 0.75 -
PC2J_TRINITY_DN47831_c0_g1_i1.p1PC2J_TRINITY_DN47831_c0_g1  -            157 87523at3193          -            422     0.093   13.5   0.0   2   2      0.55   1.4e+03   -0.3   0.0    50    73    99   122    67   150 0.70 -
PC2A_TRINITY_DN9091_c0_g1_i1.p1PC2A_TRINITY_DN9091_c0_g1    -            100 87523at3193          -            422      0.12   13.1   0.0   1   2      0.12   3.2e+02    1.8   0.0    51    76     9    34     3    40 0.86 -
PC2A_TRINITY_DN9091_c0_g1_i1.p1PC2A_TRINITY_DN9091_c0_g1    -            100 87523at3193          -            422      0.12   13.1   0.0   2   2    0.0025       6.4    7.4   0.0    29    70    60    98    46   100 0.76 -
PC1J_TRINITY_DN37148_c2_g1_i2.p1PC1J_TRINITY_DN37148_c2_g1  -            269 87523at3193          -            422      0.12   13.1   0.6   1   1   7.3e-05      0.19   12.5   0.6    93   122   233   262   224   267 0.90 -
PC3J_TRINITY_DN48950_c3_g1_i2.p1PC3J_TRINITY_DN48950_c3_g1  -            208 87523at3193          -            422      0.17   12.6   0.0   1   2   0.00029      0.74   10.5   0.0    10    82    70   140    61   148 0.82 -
PC3J_TRINITY_DN48950_c3_g1_i2.p1PC3J_TRINITY_DN48950_c3_g1  -            208 87523at3193          -            422      0.17   12.6   0.0   2   2      0.43   1.1e+03    0.0   0.0    50    86   143   179   136   185 0.84 -
PC3A_TRINITY_DN14387_c0_g1_i1.p1PC3A_TRINITY_DN14387_c0_g1  -            109 87523at3193          -            422      0.24   12.1   0.0   1   1   0.00056       1.4    9.5   0.0    15    80    26    89    19   109 0.76 -
PC3J_TRINITY_DN39502_c0_g2_i1.p1PC3J_TRINITY_DN39502_c0_g2  -            315 87523at3193          -            422      0.26   12.0   0.0   1   3      0.25   6.4e+02    0.8   0.0    51    84    88   121    72   140 0.84 -
PC3J_TRINITY_DN39502_c0_g2_i1.p1PC3J_TRINITY_DN39502_c0_g2  -            315 87523at3193          -            422      0.26   12.0   0.0   2   3    0.0015       3.9    8.1   0.0    34    83   144   190   125   201 0.83 -
PC3J_TRINITY_DN39502_c0_g2_i1.p1PC3J_TRINITY_DN39502_c0_g2  -            315 87523at3193          -            422      0.26   12.0   0.0   3   3       2.4   6.2e+03   -2.4   0.0    51    80   193   222   192   226 0.83 -
PC2J_TRINITY_DN34231_c0_g1_i6.p1PC2J_TRINITY_DN34231_c0_g1  -            148 87523at3193          -            422      0.27   11.9   0.0   1   2   0.00034      0.86   10.3   0.0    33    84    28    76    21    88 0.82 -
PC2J_TRINITY_DN34231_c0_g1_i6.p1PC2J_TRINITY_DN34231_c0_g1  -            148 87523at3193          -            422      0.27   11.9   0.0   2   2       0.5   1.3e+03   -0.2   0.0    51    81    78   108    73   115 0.85 -
PC1J_TRINITY_DN32456_c0_g1_i2.p1PC1J_TRINITY_DN32456_c0_g1  -            359 87523at3193          -            422      0.39   11.4   0.0   1   4       0.6   1.5e+03   -0.4   0.0    50    77    99   126    73   135 0.78 -
PC1J_TRINITY_DN32456_c0_g1_i2.p1PC1J_TRINITY_DN32456_c0_g1  -            359 87523at3193          -            422      0.39   11.4   0.0   2   4    0.0052        13    6.4   0.0    23    76   178   230   171   245 0.78 -
PC1J_TRINITY_DN32456_c0_g1_i2.p1PC1J_TRINITY_DN32456_c0_g1  -            359 87523at3193          -            422      0.39   11.4   0.0   3   4       1.7   4.4e+03   -1.9   0.0    51    78   240   267   230   280 0.84 -
PC1J_TRINITY_DN32456_c0_g1_i2.p1PC1J_TRINITY_DN32456_c0_g1  -            359 87523at3193          -            422      0.39   11.4   0.0   4   4      0.55   1.4e+03   -0.3   0.0    51    82   310   341   301   347 0.83 -
PC3J_TRINITY_DN48950_c3_g1_i5.p1PC3J_TRINITY_DN48950_c3_g1  -            189 87523at3193          -            422      0.45   11.2   0.0   1   3    0.0016         4    8.1   0.0    32    82    15    62     5    67 0.87 -
PC3J_TRINITY_DN48950_c3_g1_i5.p1PC3J_TRINITY_DN48950_c3_g1  -            189 87523at3193          -            422      0.45   11.2   0.0   2   3       0.4     1e+03    0.1   0.0    49    85    64   100    57   113 0.81 -
PC3J_TRINITY_DN48950_c3_g1_i5.p1PC3J_TRINITY_DN48950_c3_g1  -            189 87523at3193          -            422      0.45   11.2   0.0   3   3         2   5.2e+03   -2.2   0.0    50    65   170   185   138   187 0.74 -
PC3A_TRINITY_DN42747_c0_g1_i10.p1PC3A_TRINITY_DN42747_c0_g1 -            376 87523at3193          -            422      0.46   11.2   0.0   1   3       2.4   6.1e+03   -2.4   0.0    31    65   169   201   165   207 0.72 -
PC3A_TRINITY_DN42747_c0_g1_i10.p1PC3A_TRINITY_DN42747_c0_g1 -            376 87523at3193          -            422      0.46   11.2   0.0   2   3    0.0027       6.9    7.3   0.0    35    79   279   320   264   327 0.84 -
PC3A_TRINITY_DN42747_c0_g1_i10.p1PC3A_TRINITY_DN42747_c0_g1 -            376 87523at3193          -            422      0.46   11.2   0.0   3   3      0.31   7.9e+02    0.5   0.0    52    80   328   356   326   371 0.85 -
PC2J_TRINITY_DN30972_c0_g1_i1.p2PC2J_TRINITY_DN30972_c0_g1  -            114 87523at3193          -            422      0.49   11.1   0.0   1   2   0.00058       1.5    9.5   0.0    39    79    15    52     5    62 0.80 -
PC2J_TRINITY_DN30972_c0_g1_i1.p2PC2J_TRINITY_DN30972_c0_g1  -            114 87523at3193          -            422      0.49   11.1   0.0   2   2      0.83   2.1e+03   -0.9   0.0    60    91    68   102    60   111 0.48 -
PC1A_TRINITY_DN39685_c7_g2_i2.p1PC1A_TRINITY_DN39685_c7_g2  -            118 87523at3193          -            422      0.53   11.0   0.0   1   1   0.00025      0.65   10.7   0.0    29    77    44    89    13    95 0.80 -
PC3A_TRINITY_DN28330_c0_g1_i1.p1PC3A_TRINITY_DN28330_c0_g1  -            121 87523at3193          -            422      0.75   10.5   0.0   1   1   0.00033      0.84   10.3   0.0    21    89    29    94    13   102 0.86 -
#
# Program:         hmmsearch
# Version:         3.2.1 (June 2018)
# Pipeline mode:   SEARCH
# Query file:      /isg/shared/databases/BUSCO/odb10/embryophyta_odb10/hmms/87523at3193.hmm
# Target file:     Pine_final_annotations_no_contam_lvl0.faa
# Option settings: /usr/local/bin/hmmsearch --domtblout /labs/Wegrzyn/Juniper_Pine/BUSCO/NEW/busco_pine/run_embryophyta_odb10/hmmer_output/87523at3193.out --cpu 1 /isg/shared/databases/BUSCO/odb10/embryophyta_odb10/hmms/87523at3193.hmm Pine_final_annotations_no_contam_lvl0.faa 
# Current dir:     /labs/Wegrzyn/Juniper_Pine/BUSCO/NEW
# Date:            Thu Aug  6 15:12:05 2020
# [ok]
