#                                                                                                                  --- full sequence --- -------------- this domain -------------   hmm coord   ali coord   env coord
# target name                                              accession   tlen query name           accession   qlen   E-value  score  bias   #  of  c-Evalue  i-Evalue  score  bias  from    to  from    to  from    to  acc description of target
#                                      ------------------- ---------- ----- -------------------- ---------- ----- --------- ------ ----- --- --- --------- --------- ------ ----- ----- ----- ----- ----- ----- ----- ---- ---------------------
PC3J_TRINITY_DN31662_c0_g1_i1.p1PC3J_TRINITY_DN31662_c0_g1 -            168 88195at3193          -            337   3.7e-13   50.8   0.0   1   1   3.6e-17   4.5e-13   50.5   0.0   170   313     1   140     1   144 0.86 -
PC1J_TRINITY_DN19684_c0_g1_i1.p1PC1J_TRINITY_DN19684_c0_g1 -            143 88195at3193          -            337   0.00019   22.2   0.7   1   2   2.4e-08    0.0003   21.5   0.7    43   119    19    97     5   109 0.86 -
PC1J_TRINITY_DN19684_c0_g1_i1.p1PC1J_TRINITY_DN19684_c0_g1 -            143 88195at3193          -            337   0.00019   22.2   0.7   2   2      0.95   1.2e+04   -3.5   0.0   117   134   119   136   113   138 0.77 -
PC2J_TRINITY_DN42964_c3_g1_i4.p1PC2J_TRINITY_DN42964_c3_g1 -            237 88195at3193          -            337   0.00028   21.6   0.6   1   1   3.2e-08   0.00041   21.1   0.6    34   117    84   170    47   180 0.73 -
PC3A_TRINITY_DN40748_c1_g2_i1.p1PC3A_TRINITY_DN40748_c1_g2 -            119 88195at3193          -            337   0.00071   20.3   0.1   1   1   6.3e-08    0.0008   20.1   0.1    41   117     9    87     2    97 0.85 -
PC1A_TRINITY_DN42522_c4_g3_i1.p1PC1A_TRINITY_DN42522_c4_g3 -            131 88195at3193          -            337    0.0018   19.0   1.0   1   1   1.7e-07    0.0022   18.7   1.0     7    98    23   125    20   131 0.71 -
#
# Program:         hmmsearch
# Version:         3.2.1 (June 2018)
# Pipeline mode:   SEARCH
# Query file:      /isg/shared/databases/BUSCO/odb10/embryophyta_odb10/hmms/88195at3193.hmm
# Target file:     Pine_final_annotations_no_contam_lvl0.faa
# Option settings: /usr/local/bin/hmmsearch --domtblout /labs/Wegrzyn/Juniper_Pine/BUSCO/NEW/busco_pine/run_embryophyta_odb10/hmmer_output/88195at3193.out --cpu 1 /isg/shared/databases/BUSCO/odb10/embryophyta_odb10/hmms/88195at3193.hmm Pine_final_annotations_no_contam_lvl0.faa 
# Current dir:     /labs/Wegrzyn/Juniper_Pine/BUSCO/NEW
# Date:            Thu Aug  6 15:12:16 2020
# [ok]
