#                                                                                                                  --- full sequence --- -------------- this domain -------------   hmm coord   ali coord   env coord
# target name                                              accession   tlen query name           accession   qlen   E-value  score  bias   #  of  c-Evalue  i-Evalue  score  bias  from    to  from    to  from    to  acc description of target
#                                      ------------------- ---------- ----- -------------------- ---------- ----- --------- ------ ----- --- --- --------- --------- ------ ----- ----- ----- ----- ----- ----- ----- ---- ---------------------
PC2J_TRINITY_DN45326_c0_g7_i1.p1PC2J_TRINITY_DN45326_c0_g7 -            103 88949at3193          -            362   4.7e-31  109.7   0.1   1   1   5.4e-35   5.7e-31  109.4   0.1     1    67    27    93    27    98 0.95 -
PC1A_TRINITY_DN32555_c0_g1_i1.p1PC1A_TRINITY_DN32555_c0_g1 -            133 88949at3193          -            362   7.7e-31  109.0   0.1   1   1   2.6e-34   2.8e-30  107.1   0.1    77   158     1   101     1   130 0.77 -
PC2J_TRINITY_DN41773_c1_g1_i1.p1PC2J_TRINITY_DN41773_c1_g1 -            144 88949at3193          -            362   2.7e-05   24.9   0.0   1   1   3.2e-09   3.4e-05   24.6   0.0   194   270    56   129    45   137 0.86 -
PC2J_TRINITY_DN31583_c0_g1_i1.p1PC2J_TRINITY_DN31583_c0_g1 -            253 88949at3193          -            362   0.00071   20.3   0.0   1   1   8.4e-08    0.0009   19.9   0.0   146   260    91   209    68   236 0.78 -
PC2A_TRINITY_DN31669_c1_g2_i4.p1PC2A_TRINITY_DN31669_c1_g2 -            192 88949at3193          -            362     0.095   13.2   0.0   1   1   1.2e-05      0.13   12.8   0.0   198   268    69   143    58   176 0.76 -
PC3A_TRINITY_DN44362_c1_g3_i3.p1PC3A_TRINITY_DN44362_c1_g3 -            262 88949at3193          -            362       0.5   10.9   0.0   1   1     6e-05      0.64   10.5   0.0   194   248   202   258   153   261 0.77 -
#
# Program:         hmmsearch
# Version:         3.2.1 (June 2018)
# Pipeline mode:   SEARCH
# Query file:      /isg/shared/databases/BUSCO/odb10/embryophyta_odb10/hmms/88949at3193.hmm
# Target file:     Pine_final_annotations_no_contam_lvl0.faa
# Option settings: /usr/local/bin/hmmsearch --domtblout /labs/Wegrzyn/Juniper_Pine/BUSCO/NEW/busco_pine/run_embryophyta_odb10/hmmer_output/88949at3193.out --cpu 1 /isg/shared/databases/BUSCO/odb10/embryophyta_odb10/hmms/88949at3193.hmm Pine_final_annotations_no_contam_lvl0.faa 
# Current dir:     /labs/Wegrzyn/Juniper_Pine/BUSCO/NEW
# Date:            Thu Aug  6 15:12:22 2020
# [ok]
