#                                                                                                                  --- full sequence --- -------------- this domain -------------   hmm coord   ali coord   env coord
# target name                                              accession   tlen query name           accession   qlen   E-value  score  bias   #  of  c-Evalue  i-Evalue  score  bias  from    to  from    to  from    to  acc description of target
#                                      ------------------- ---------- ----- -------------------- ---------- ----- --------- ------ ----- --- --- --------- --------- ------ ----- ----- ----- ----- ----- ----- ----- ---- ---------------------
PC1J_TRINITY_DN37458_c0_g1_i2.p1PC1J_TRINITY_DN37458_c0_g1 -            218 89669at3193          -            308   9.7e-83  279.4   0.0   1   1     9e-87   1.1e-82  279.2   0.0   103   296     1   202     1   212 0.95 -
PC3A_TRINITY_DN32507_c0_g1_i1.p1PC3A_TRINITY_DN32507_c0_g1 -            114 89669at3193          -            308   6.5e-44  151.9   0.0   1   1   5.6e-48   7.2e-44  151.8   0.0   204   308     2   109     1   109 0.97 -
PC1A_TRINITY_DN32264_c0_g1_i1.p1PC1A_TRINITY_DN32264_c0_g1 -            247 89669at3193          -            308   2.1e-25   91.1   0.0   1   1     2e-29   2.6e-25   90.8   0.0    85   267    11   194     5   216 0.82 -
PC2J_TRINITY_DN43815_c4_g4_i2.p1PC2J_TRINITY_DN43815_c4_g4 -            104 89669at3193          -            308   1.3e-10   42.6   0.1   1   1   1.1e-14   1.4e-10   42.4   0.1    84   152    12    80     4   104 0.83 -
PC2J_TRINITY_DN35272_c3_g4_i1.p1PC2J_TRINITY_DN35272_c3_g4 -            110 89669at3193          -            308      0.26   12.0   0.0   1   1   2.6e-05      0.33   11.7   0.0   131   199    17    84     9    87 0.92 -
#
# Program:         hmmsearch
# Version:         3.2.1 (June 2018)
# Pipeline mode:   SEARCH
# Query file:      /isg/shared/databases/BUSCO/odb10/embryophyta_odb10/hmms/89669at3193.hmm
# Target file:     Pine_final_annotations_no_contam_lvl0.faa
# Option settings: /usr/local/bin/hmmsearch --domtblout /labs/Wegrzyn/Juniper_Pine/BUSCO/NEW/busco_pine/run_embryophyta_odb10/hmmer_output/89669at3193.out --cpu 1 /isg/shared/databases/BUSCO/odb10/embryophyta_odb10/hmms/89669at3193.hmm Pine_final_annotations_no_contam_lvl0.faa 
# Current dir:     /labs/Wegrzyn/Juniper_Pine/BUSCO/NEW
# Date:            Thu Aug  6 15:12:50 2020
# [ok]
