#                                                                                                                   --- full sequence --- -------------- this domain -------------   hmm coord   ali coord   env coord
# target name                                               accession   tlen query name           accession   qlen   E-value  score  bias   #  of  c-Evalue  i-Evalue  score  bias  from    to  from    to  from    to  acc description of target
#                                       ------------------- ---------- ----- -------------------- ---------- ----- --------- ------ ----- --- --- --------- --------- ------ ----- ----- ----- ----- ----- ----- ----- ---- ---------------------
PC3A_TRINITY_DN39580_c2_g1_i1.p1PC3A_TRINITY_DN39580_c2_g1  -            413 90521at3193          -            317  3.2e-141  471.8   9.4   1   2      0.69   2.3e+03   -0.9   0.0     8    28    35    59    29    64 0.80 -
PC3A_TRINITY_DN39580_c2_g1_i1.p1PC3A_TRINITY_DN39580_c2_g1  -            413 90521at3193          -            317  3.2e-141  471.8   9.4   2   2  1.5e-144  5.2e-141  471.1   8.2    28   317    87   410    74   410 0.91 -
PC1J_TRINITY_DN41260_c0_g4_i3.p1PC1J_TRINITY_DN41260_c0_g4  -            271 90521at3193          -            317   1.8e-89  301.7  33.7   1   3     4e-79   1.3e-75  256.2   7.3    49   225     1   207     1   208 0.89 -
PC1J_TRINITY_DN41260_c0_g4_i3.p1PC1J_TRINITY_DN41260_c0_g4  -            271 90521at3193          -            317   1.8e-89  301.7  33.7   2   3   7.8e-08   0.00026   21.9   4.3   169   194   207   232   206   238 0.92 -
PC1J_TRINITY_DN41260_c0_g4_i3.p1PC1J_TRINITY_DN41260_c0_g4  -            271 90521at3193          -            317   1.8e-89  301.7  33.7   3   3   2.6e-12   8.9e-09   36.6   7.2   143   175   238   271   231   271 0.90 -
PC2A_TRINITY_DN31653_c2_g1_i6.p1PC2A_TRINITY_DN31653_c2_g1  -            122 90521at3193          -            317   1.1e-46  161.2   2.2   1   1   3.9e-50   1.3e-46  160.9   2.2   169   268     6   110     4   118 0.94 -
PC1A_TRINITY_DN42881_c1_g2_i1.p1PC1A_TRINITY_DN42881_c1_g2  -            139 90521at3193          -            317   1.2e-32  115.0   0.0   1   2       1.2     4e+03   -1.7   0.0    11    28     2    23     1    27 0.75 -
PC1A_TRINITY_DN42881_c1_g2_i1.p1PC1A_TRINITY_DN42881_c1_g2  -            139 90521at3193          -            317   1.2e-32  115.0   0.0   2   2   8.2e-36   2.7e-32  113.9   0.0    28    97    51   118    36   136 0.88 -
PC2A_TRINITY_DN31653_c2_g1_i4.p1PC2A_TRINITY_DN31653_c2_g1  -            104 90521at3193          -            317   2.1e-27   97.8   8.2   1   1   7.6e-31   2.6e-27   97.5   8.2   143   212    12    86     4    90 0.90 -
PC3J_TRINITY_DN33529_c0_g1_i2.p1PC3J_TRINITY_DN33529_c0_g1  -            133 90521at3193          -            317     4e-27   96.9   0.4   1   1   1.4e-30   4.8e-27   96.6   0.4   253   317    62   130    46   130 0.92 -
PC2A_TRINITY_DN29075_c3_g1_i3.p1PC2A_TRINITY_DN29075_c3_g1  -            211 90521at3193          -            317   0.00064   20.7   3.4   1   2   0.00013      0.42   11.4   0.7   169   212    67   110    47   127 0.81 -
PC2A_TRINITY_DN29075_c3_g1_i3.p1PC2A_TRINITY_DN29075_c3_g1  -            211 90521at3193          -            317   0.00064   20.7   3.4   2   2   0.00033       1.1   10.0   0.1   170   221   137   193   134   201 0.71 -
PC3A_TRINITY_DN42071_c0_g3_i4.p1PC3A_TRINITY_DN42071_c0_g3  -            104 90521at3193          -            317    0.0019   19.1   0.9   1   1   9.7e-07    0.0033   18.3   0.9   168   191    66    89    64    92 0.95 -
PC2J_TRINITY_DN42925_c0_g1_i2.p1PC2J_TRINITY_DN42925_c0_g1  -            311 90521at3193          -            317    0.0046   17.8   3.2   1   2   0.00027      0.91   10.3   0.8   169   212    44    87    27   103 0.81 -
PC2J_TRINITY_DN42925_c0_g1_i2.p1PC2J_TRINITY_DN42925_c0_g1  -            311 90521at3193          -            317    0.0046   17.8   3.2   2   2    0.0016       5.3    7.8   0.1   170   200   114   148   111   156 0.76 -
PC2J_TRINITY_DN42925_c0_g1_i3.p1PC2J_TRINITY_DN42925_c0_g1  -            357 90521at3193          -            317    0.0067   17.3   3.2   1   2   0.00033       1.1   10.0   0.8   169   212    44    87    27   103 0.81 -
PC2J_TRINITY_DN42925_c0_g1_i3.p1PC2J_TRINITY_DN42925_c0_g1  -            357 90521at3193          -            317    0.0067   17.3   3.2   2   2    0.0019       6.3    7.5   0.1   170   200   114   148   111   156 0.76 -
PC1J_TRINITY_DN39717_c0_g1_i3.p1PC1J_TRINITY_DN39717_c0_g1  -            114 90521at3193          -            317       0.1   13.4   6.8   1   2   0.00013      0.44   11.3   0.4   168   193    33    58    24    70 0.80 -
PC1J_TRINITY_DN39717_c0_g1_i3.p1PC1J_TRINITY_DN39717_c0_g1  -            114 90521at3193          -            317       0.1   13.4   6.8   2   2    0.0074        25    5.6   1.2   162   179    82    99    73   105 0.62 -
PC3J_TRINITY_DN47901_c0_g1_i2.p1PC3J_TRINITY_DN47901_c0_g1  -            116 90521at3193          -            317      0.12   13.2   0.6   1   1   4.6e-05      0.15   12.8   0.6   167   190    23    46     9    58 0.82 -
PC2J_TRINITY_DN45159_c1_g1_i2.p1PC2J_TRINITY_DN45159_c1_g1  -            186 90521at3193          -            317      0.57   11.0   8.7   1   1   0.00039       1.3    9.8   8.7    61   187    51   181    46   184 0.86 -
PC1J_TRINITY_DN25860_c0_g1_i2.p1PC1J_TRINITY_DN25860_c0_g1  -            174 90521at3193          -            317      0.72   10.6  13.4   1   2   0.00032       1.1   10.0   1.5   169   192    97   120    91   123 0.90 -
PC1J_TRINITY_DN25860_c0_g1_i2.p1PC1J_TRINITY_DN25860_c0_g1  -            174 90521at3193          -            317      0.72   10.6  13.4   2   2    0.0058        19    5.9   4.7   168   189   133   154   121   168 0.76 -
PC1J_TRINITY_DN39606_c0_g1_i11.p1PC1J_TRINITY_DN39606_c0_g1 -            184 90521at3193          -            317       1.3    9.8   6.7   1   1   0.00079       2.6    8.8   6.7    62   185    52   182    47   183 0.74 -
PC3A_TRINITY_DN43203_c4_g2_i6.p1PC3A_TRINITY_DN43203_c4_g2  -            165 90521at3193          -            317       1.7    9.4  11.5   1   2     0.002       6.6    7.5   2.7   169   197   101   129    90   135 0.83 -
PC3A_TRINITY_DN43203_c4_g2_i6.p1PC3A_TRINITY_DN43203_c4_g2  -            165 90521at3193          -            317       1.7    9.4  11.5   2   2    0.0022       7.4    7.3   1.4   170   196   135   161   131   164 0.85 -
PC2A_TRINITY_DN35680_c4_g6_i1.p1PC2A_TRINITY_DN35680_c4_g6  -            102 90521at3193          -            317       2.8    8.7  14.9   1   2   0.00039       1.3    9.8   2.1   170   193    44    67    33    80 0.71 -
PC2A_TRINITY_DN35680_c4_g6_i1.p1PC2A_TRINITY_DN35680_c4_g6  -            102 90521at3193          -            317       2.8    8.7  14.9   2   2    0.0062        21    5.8   4.8   168   191    78   101    66   101 0.74 -
PC3J_TRINITY_DN42878_c0_g1_i2.p1PC3J_TRINITY_DN42878_c0_g1  -            183 90521at3193          -            317       3.4    8.4  12.1   1   2    0.0047        16    6.2   0.9   169   192   113   136   104   140 0.85 -
PC3J_TRINITY_DN42878_c0_g1_i2.p1PC3J_TRINITY_DN42878_c0_g1  -            183 90521at3193          -            317       3.4    8.4  12.1   2   2    0.0032        11    6.8   4.4   170   189   148   167   139   169 0.78 -
PC3J_TRINITY_DN50947_c0_g1_i1.p1PC3J_TRINITY_DN50947_c0_g1  -            189 90521at3193          -            317       6.9    7.4   8.9   1   1    0.0032        11    6.8   8.9   144   194    15    64     5    86 0.81 -
#
# Program:         hmmsearch
# Version:         3.2.1 (June 2018)
# Pipeline mode:   SEARCH
# Query file:      /isg/shared/databases/BUSCO/odb10/embryophyta_odb10/hmms/90521at3193.hmm
# Target file:     Pine_final_annotations_no_contam_lvl0.faa
# Option settings: /usr/local/bin/hmmsearch --domtblout /labs/Wegrzyn/Juniper_Pine/BUSCO/NEW/busco_pine/run_embryophyta_odb10/hmmer_output/90521at3193.out --cpu 1 /isg/shared/databases/BUSCO/odb10/embryophyta_odb10/hmms/90521at3193.hmm Pine_final_annotations_no_contam_lvl0.faa 
# Current dir:     /labs/Wegrzyn/Juniper_Pine/BUSCO/NEW
# Date:            Thu Aug  6 15:12:54 2020
# [ok]
