#                                                                                                                   --- full sequence --- -------------- this domain -------------   hmm coord   ali coord   env coord
# target name                                               accession   tlen query name           accession   qlen   E-value  score  bias   #  of  c-Evalue  i-Evalue  score  bias  from    to  from    to  from    to  acc description of target
#                                       ------------------- ---------- ----- -------------------- ---------- ----- --------- ------ ----- --- --- --------- --------- ------ ----- ----- ----- ----- ----- ----- ----- ---- ---------------------
PC3J_TRINITY_DN46444_c4_g1_i11.p1PC3J_TRINITY_DN46444_c4_g1 -            445 91062at3193          -            311    2e-198  659.8   0.1   1   1  2.8e-201  2.4e-198  659.6   0.1     1   311   123   441   123   441 0.98 -
PC2A_TRINITY_DN34568_c0_g1_i3.p1PC2A_TRINITY_DN34568_c0_g1  -            367 91062at3193          -            311  3.3e-169  563.9   0.3   1   1  4.8e-172  4.2e-169  563.5   0.3     1   260    35   302    35   316 0.97 -
PC2A_TRINITY_DN34568_c0_g1_i16.p1PC2A_TRINITY_DN34568_c0_g1 -            324 91062at3193          -            311  2.1e-167  558.0   2.6   1   2   1.8e-32   1.6e-29  105.1   0.4     1    58    35    92    35    92 0.99 -
PC2A_TRINITY_DN34568_c0_g1_i16.p1PC2A_TRINITY_DN34568_c0_g1 -            324 91062at3193          -            311  2.1e-167  558.0   2.6   2   2  2.3e-139  1.9e-136  456.2   0.1    90   311    91   320    90   320 0.97 -
PC2J_TRINITY_DN45692_c2_g1_i14.p1PC2J_TRINITY_DN45692_c2_g1 -            256 91062at3193          -            311  1.4e-128  430.4   3.8   1   2   4.8e-23   4.1e-20   74.1   0.5     1    44    11    54    11    55 0.97 -
PC2J_TRINITY_DN45692_c2_g1_i14.p1PC2J_TRINITY_DN45692_c2_g1 -            256 91062at3193          -            311  1.4e-128  430.4   3.8   2   2  7.4e-110  6.4e-107  359.3   0.1   127   311    54   246    53   246 0.96 -
PC1A_TRINITY_DN42005_c1_g2_i16.p1PC1A_TRINITY_DN42005_c1_g2 -            181 91062at3193          -            311     2e-99  334.6   1.9   1   2     7e-08     6e-05   24.3   0.2    72    91     1    20     1    20 0.94 -
PC1A_TRINITY_DN42005_c1_g2_i16.p1PC1A_TRINITY_DN42005_c1_g2 -            181 91062at3193          -            311     2e-99  334.6   1.9   2   2     2e-95   1.7e-92  311.9   0.1    57   202    19   172    18   179 0.94 -
PC3J_TRINITY_DN46444_c4_g1_i9.p1PC3J_TRINITY_DN46444_c4_g1  -            156 91062at3193          -            311   3.7e-86  291.1   0.2   1   1     5e-89   4.3e-86  290.8   0.2    63   199     4   143     1   149 0.95 -
PC2A_TRINITY_DN34568_c0_g1_i13.p1PC2A_TRINITY_DN34568_c0_g1 -            212 91062at3193          -            311   1.7e-67  229.7   0.1   1   1   2.5e-70   2.2e-67  229.4   0.1     1   107    35   141    35   157 0.97 -
PC3J_TRINITY_DN46444_c4_g1_i12.p1PC3J_TRINITY_DN46444_c4_g1 -            121 91062at3193          -            311   1.9e-64  219.7   3.2   1   2   7.6e-50   6.5e-47  162.1   0.3     4    84     6    86     4    88 0.97 -
PC3J_TRINITY_DN46444_c4_g1_i12.p1PC3J_TRINITY_DN46444_c4_g1 -            121 91062at3193          -            311   1.9e-64  219.7   3.2   2   2   9.1e-19   7.8e-16   60.1   0.2    15    49    87   121    86   121 0.98 -
PC1J_TRINITY_DN38762_c3_g1_i9.p1PC1J_TRINITY_DN38762_c3_g1  -            120 91062at3193          -            311     9e-58  197.8   0.9   1   2   5.6e-34   4.8e-31  110.0   0.1   127   184    11    72     4    75 0.93 -
PC1J_TRINITY_DN38762_c3_g1_i9.p1PC1J_TRINITY_DN38762_c3_g1  -            120 91062at3193          -            311     9e-58  197.8   0.9   2   2   4.3e-27   3.7e-24   87.4   0.1   141   184    74   117    72   119 0.96 -
PC3J_TRINITY_DN46444_c4_g1_i13.p1PC3J_TRINITY_DN46444_c4_g1 -            126 91062at3193          -            311   2.4e-54  186.6   0.8   1   1   3.3e-57   2.8e-54  186.3   0.8     1    92    33   124    33   126 0.98 -
PC1J_TRINITY_DN38762_c3_g1_i11.p1PC1J_TRINITY_DN38762_c3_g1 -            123 91062at3193          -            311   8.3e-54  184.8   0.1   1   1   1.1e-56   9.6e-54  184.6   0.1   212   311    20   119    11   119 0.97 -
PC1J_TRINITY_DN38762_c3_g1_i4.p1PC1J_TRINITY_DN38762_c3_g1  -            106 91062at3193          -            311   2.2e-45  157.1   1.0   1   1     3e-48   2.6e-45  156.9   1.0   177   268     4   100     2   105 0.89 -
PC3A_TRINITY_DN39633_c0_g2_i12.p1PC3A_TRINITY_DN39633_c0_g2 -            242 91062at3193          -            311   2.9e-26   94.3   3.2   1   2   2.9e-06    0.0025   19.0   0.4     1    20   107   126   107   134 0.90 -
PC3A_TRINITY_DN39633_c0_g2_i12.p1PC3A_TRINITY_DN39633_c0_g2 -            242 91062at3193          -            311   2.9e-26   94.3   3.2   2   2   1.2e-23     1e-20   76.1   0.1     6    52   196   242   191   242 0.94 -
PC1J_TRINITY_DN36442_c3_g3_i7.p1PC1J_TRINITY_DN36442_c3_g3  -            128 91062at3193          -            311   1.2e-18   69.3   0.1   1   1   1.8e-21   1.6e-18   68.9   0.1     1    43    74   116    74   124 0.93 -
PC1J_TRINITY_DN39894_c4_g1_i5.p1PC1J_TRINITY_DN39894_c4_g1  -            121 91062at3193          -            311   3.9e-11   44.6   0.3   1   1     5e-14   4.3e-11   44.5   0.3     6    84    11    89     7   118 0.86 -
PC1A_TRINITY_DN44113_c0_g2_i13.p1PC1A_TRINITY_DN44113_c0_g2 -            607 91062at3193          -            311   7.1e-10   40.5   0.2   1   1   1.3e-12   1.1e-09   39.9   0.2     6    85   139   218   135   240 0.84 -
PC2A_TRINITY_DN35247_c0_g4_i3.p1PC2A_TRINITY_DN35247_c0_g4  -            366 91062at3193          -            311   1.4e-09   39.6   0.0   1   1   2.3e-12     2e-09   39.0   0.0     4   158    95   272    92   290 0.71 -
PC1J_TRINITY_DN33938_c0_g7_i3.p1PC1J_TRINITY_DN33938_c0_g7  -            310 91062at3193          -            311   4.1e-09   38.0   0.1   1   1   6.9e-12   5.9e-09   37.5   0.1     7   114    78   191    72   199 0.84 -
PC1A_TRINITY_DN42806_c4_g1_i5.p1PC1A_TRINITY_DN42806_c4_g1  -            228 91062at3193          -            311   5.5e-08   34.3   0.1   1   2   3.8e-08   3.3e-05   25.2   0.0     6    93    49   144    45   152 0.83 -
PC1A_TRINITY_DN42806_c4_g1_i5.p1PC1A_TRINITY_DN42806_c4_g1  -            228 91062at3193          -            311   5.5e-08   34.3   0.1   2   2     0.011       9.7    7.2   0.0     6    30   202   226   198   228 0.86 -
PC2J_TRINITY_DN43888_c3_g2_i2.p1PC2J_TRINITY_DN43888_c3_g2  -            162 91062at3193          -            311   1.1e-06   30.0   0.0   1   1   1.7e-09   1.4e-06   29.6   0.0     9   114    12   123     6   131 0.84 -
PC2A_TRINITY_DN2991_c0_g1_i1.p1PC2A_TRINITY_DN2991_c0_g1    -            151 91062at3193          -            311   2.1e-06   29.1   0.0   1   1   2.9e-09   2.5e-06   28.8   0.0     2   115    26   140    25   144 0.85 -
PC1J_TRINITY_DN37719_c1_g1_i5.p1PC1J_TRINITY_DN37719_c1_g1  -            171 91062at3193          -            311   2.5e-06   28.9   0.4   1   2   1.9e-06    0.0016   19.6   0.0     6    81    49   131    45   142 0.80 -
PC1J_TRINITY_DN37719_c1_g1_i5.p1PC1J_TRINITY_DN37719_c1_g1  -            171 91062at3193          -            311   2.5e-06   28.9   0.4   2   2    0.0076       6.5    7.8   0.1     6    30   145   169   140   171 0.86 -
PC2A_TRINITY_DN32898_c0_g1_i2.p1PC2A_TRINITY_DN32898_c0_g1  -            378 91062at3193          -            311   9.5e-06   26.9   0.0   1   1   1.5e-08   1.3e-05   26.5   0.0     4   118    74   202    71   262 0.74 -
PC2A_TRINITY_DN32898_c0_g1_i1.p1PC2A_TRINITY_DN32898_c0_g1  -            403 91062at3193          -            311   1.1e-05   26.8   0.0   1   1   1.8e-08   1.5e-05   26.3   0.0     4   118    74   202    71   262 0.74 -
PC1A_TRINITY_DN43793_c2_g1_i2.p1PC1A_TRINITY_DN43793_c2_g1  -            350 91062at3193          -            311   1.3e-05   26.4   0.0   1   1   1.9e-08   1.7e-05   26.1   0.0     6   136   100   239    96   350 0.67 -
PC1J_TRINITY_DN34285_c0_g1_i6.p1PC1J_TRINITY_DN34285_c0_g1  -            301 91062at3193          -            311   1.5e-05   26.2   0.0   1   1   2.3e-08     2e-05   25.9   0.0     6   143    95   240    90   288 0.73 -
PC3A_TRINITY_DN40592_c1_g3_i3.p1PC3A_TRINITY_DN40592_c1_g3  -            355 91062at3193          -            311   4.4e-05   24.8   0.0   1   1   8.4e-08   7.2e-05   24.0   0.0     6    93    49   144    45   152 0.83 -
PC2A_TRINITY_DN29866_c0_g1_i5.p1PC2A_TRINITY_DN29866_c0_g1  -            151 91062at3193          -            311   5.2e-05   24.5   0.0   1   1   7.2e-08   6.2e-05   24.2   0.0     8   122    12   134     6   144 0.75 -
PC1A_TRINITY_DN40783_c2_g3_i2.p1PC1A_TRINITY_DN40783_c2_g3  -            276 91062at3193          -            311   0.00017   22.8   0.0   1   1   2.3e-06     0.002   19.3   0.0     7   221     5   239     2   254 0.65 -
PC3A_TRINITY_DN37969_c6_g1_i1.p1PC3A_TRINITY_DN37969_c6_g1  -            329 91062at3193          -            311   0.00018   22.7   0.0   1   1   3.5e-07    0.0003   22.0   0.0     3   118    91   206    89   213 0.86 -
PC2A_TRINITY_DN34591_c0_g1_i18.p1PC2A_TRINITY_DN34591_c0_g1 -            285 91062at3193          -            311   0.00041   21.6   0.0   1   2   4.1e-05     0.035   15.2   0.0     6    81    45   127    41   146 0.80 -
PC2A_TRINITY_DN34591_c0_g1_i18.p1PC2A_TRINITY_DN34591_c0_g1 -            285 91062at3193          -            311   0.00041   21.6   0.0   2   2     0.081        70    4.4   0.0   163   228   215   285   199   285 0.80 -
PC2A_TRINITY_DN34591_c0_g1_i16.p1PC2A_TRINITY_DN34591_c0_g1 -            344 91062at3193          -            311   0.00084   20.5   0.0   1   1   2.2e-06    0.0019   19.4   0.0     6   197    40   244    36   286 0.68 -
PC1J_TRINITY_DN40615_c1_g2_i3.p1PC1J_TRINITY_DN40615_c1_g2  -            111 91062at3193          -            311   0.00094   20.4   0.0   1   1   1.2e-06     0.001   20.3   0.0     7    50    13    61     8   101 0.67 -
PC1J_TRINITY_DN33884_c3_g1_i3.p1PC1J_TRINITY_DN33884_c3_g1  -            325 91062at3193          -            311    0.0011   20.1   0.0   1   1   2.1e-06    0.0018   19.4   0.0     8   114    12   126     6   140 0.75 -
PC2J_TRINITY_DN35189_c3_g5_i2.p1PC2J_TRINITY_DN35189_c3_g5  -            139 91062at3193          -            311    0.0013   19.9   0.0   1   1   1.6e-06    0.0014   19.8   0.0     8    82    12    90     8   133 0.82 -
PC2A_TRINITY_DN34591_c0_g3_i1.p1PC2A_TRINITY_DN34591_c0_g3  -            279 91062at3193          -            311    0.0014   19.8   0.1   1   1   6.6e-06    0.0057   17.8   0.1     8   105     6   103     3   256 0.64 -
PC3J_TRINITY_DN48340_c1_g1_i10.p1PC3J_TRINITY_DN48340_c1_g1 -            239 91062at3193          -            311    0.0017   19.5   0.1   1   1   2.8e-06    0.0024   19.0   0.1     6   114    13   132     9   138 0.81 -
PC3J_TRINITY_DN47278_c3_g1_i8.p1PC3J_TRINITY_DN47278_c3_g1  -            158 91062at3193          -            311    0.0019   19.4   0.0   1   1   2.5e-06    0.0021   19.2   0.0     7    82     4    86     1   127 0.79 -
PC1J_TRINITY_DN36528_c2_g2_i6.p1PC1J_TRINITY_DN36528_c2_g2  -            386 91062at3193          -            311    0.0026   18.9   0.7   1   1     5e-05     0.043   14.9   0.7     9    91   103   186    96   242 0.80 -
PC1J_TRINITY_DN39894_c4_g1_i7.p1PC1J_TRINITY_DN39894_c4_g1  -            253 91062at3193          -            311    0.0029   18.7   0.0   1   1     5e-06    0.0043   18.2   0.0    30    92     8    72     6    91 0.81 -
PC2J_TRINITY_DN45282_c0_g2_i1.p1PC2J_TRINITY_DN45282_c0_g2  -            350 91062at3193          -            311    0.0031   18.7   0.0   1   1   6.2e-06    0.0054   17.9   0.0     6   114    13   132     9   150 0.80 -
PC3A_TRINITY_DN35819_c0_g6_i3.p1PC3A_TRINITY_DN35819_c0_g6  -            166 91062at3193          -            311    0.0042   18.2   0.0   1   1   6.2e-06    0.0053   17.9   0.0     6    81    24   106    20   126 0.80 -
PC3A_TRINITY_DN43901_c0_g1_i1.p1PC3A_TRINITY_DN43901_c0_g1  -            472 91062at3193          -            311    0.0043   18.2   0.0   1   1   8.2e-06    0.0071   17.5   0.0     6   114    13   132     9   150 0.80 -
PC3J_TRINITY_DN15086_c0_g1_i1.p1PC3J_TRINITY_DN15086_c0_g1  -            115 91062at3193          -            311    0.0043   18.2   0.0   1   1   5.5e-06    0.0047   18.1   0.0     7    81     6    88     2   113 0.83 -
PC3J_TRINITY_DN47687_c1_g1_i9.p1PC3J_TRINITY_DN47687_c1_g1  -            145 91062at3193          -            311    0.0045   18.2   0.3   1   1   6.9e-06     0.006   17.7   0.3     8    79     5    76     2    85 0.83 -
PC3A_TRINITY_DN43901_c0_g2_i4.p1PC3A_TRINITY_DN43901_c0_g2  -            135 91062at3193          -            311    0.0058   17.8   0.0   1   1   8.4e-06    0.0072   17.5   0.0     5    90    14   108    11   119 0.81 -
PC1A_TRINITY_DN42821_c1_g1_i2.p1PC1A_TRINITY_DN42821_c1_g1  -            352 91062at3193          -            311    0.0082   17.3   0.0   1   2   0.00013      0.12   13.5   0.0     6    76    32   111    27   132 0.73 -
PC1A_TRINITY_DN42821_c1_g1_i2.p1PC1A_TRINITY_DN42821_c1_g1  -            352 91062at3193          -            311    0.0082   17.3   0.0   2   2      0.56   4.8e+02    1.6   0.0   176   229   217   276   198   291 0.69 -
PC1J_TRINITY_DN40867_c1_g1_i10.p1PC1J_TRINITY_DN40867_c1_g1 -            237 91062at3193          -            311    0.0085   17.2   0.1   1   1   1.4e-05     0.012   16.8   0.1     7    79   127   199   122   218 0.84 -
PC1J_TRINITY_DN37719_c1_g1_i7.p1PC1J_TRINITY_DN37719_c1_g1  -            118 91062at3193          -            311     0.011   16.8   0.0   1   1   1.8e-05     0.015   16.4   0.0     6    43    49    86    45   111 0.82 -
PC1J_TRINITY_DN26872_c0_g1_i2.p1PC1J_TRINITY_DN26872_c0_g1  -            115 91062at3193          -            311     0.012   16.7   0.0   1   1   1.6e-05     0.014   16.6   0.0     2    82    17    97    16   112 0.80 -
PC3J_TRINITY_DN47446_c2_g4_i1.p1PC3J_TRINITY_DN47446_c2_g4  -            111 91062at3193          -            311     0.015   16.5   0.0   1   1   1.7e-05     0.015   16.5   0.0     6    42     6    42     2    95 0.83 -
PC2J_TRINITY_DN45322_c4_g5_i3.p1PC2J_TRINITY_DN45322_c4_g5  -            127 91062at3193          -            311     0.018   16.2   0.0   1   1   2.5e-05     0.022   15.9   0.0     6    77    22   100    18   106 0.77 -
PC1J_TRINITY_DN26872_c0_g1_i1.p1PC1J_TRINITY_DN26872_c0_g1  -            133 91062at3193          -            311     0.019   16.1   0.0   1   1   2.6e-05     0.022   15.9   0.0     2    82    35   115    34   129 0.80 -
PC1A_TRINITY_DN41465_c1_g3_i8.p1PC1A_TRINITY_DN41465_c1_g3  -            107 91062at3193          -            311      0.02   16.0   0.0   1   1   2.9e-05     0.025   15.7   0.0     4    44    37    77    31    89 0.85 -
PC3A_TRINITY_DN3988_c0_g1_i2.p1PC3A_TRINITY_DN3988_c0_g1    -            154 91062at3193          -            311     0.026   15.6   0.0   1   1   3.6e-05     0.031   15.4   0.0     4    56    25    83    22   128 0.74 -
PC3J_TRINITY_DN48340_c1_g1_i15.p1PC3J_TRINITY_DN48340_c1_g1 -            122 91062at3193          -            311     0.028   15.6   0.0   1   1   3.9e-05     0.033   15.3   0.0     5    88    12   104     9   121 0.80 -
PC3A_TRINITY_DN43523_c1_g1_i11.p1PC3A_TRINITY_DN43523_c1_g1 -            581 91062at3193          -            311     0.034   15.3   0.2   1   1   7.1e-05     0.061   14.4   0.2     7    78   115   186   110   196 0.82 -
PC3J_TRINITY_DN47278_c3_g3_i3.p1PC3J_TRINITY_DN47278_c3_g3  -            181 91062at3193          -            311     0.038   15.1   0.0   1   1   6.3e-05     0.054   14.6   0.0     6    77    26   104    22   111 0.77 -
PC1J_TRINITY_DN36442_c3_g3_i4.p1PC1J_TRINITY_DN36442_c3_g3  -            110 91062at3193          -            311     0.039   15.1   0.1   1   1     6e-05     0.051   14.7   0.1     1    20    74    93    74   105 0.86 -
PC1A_TRINITY_DN42971_c2_g2_i4.p1PC1A_TRINITY_DN42971_c2_g2  -            162 91062at3193          -            311     0.045   14.9   0.1   1   1   6.7e-05     0.058   14.5   0.1     7    78    17    88    12    98 0.82 -
PC2A_TRINITY_DN34877_c2_g2_i21.p1PC2A_TRINITY_DN34877_c2_g2 -            219 91062at3193          -            311     0.063   14.4   0.1   1   1   0.00065      0.56   11.3   0.1     6   116    48   178    45   215 0.61 -
PC3A_TRINITY_DN41055_c0_g2_i7.p1PC3A_TRINITY_DN41055_c0_g2  -            104 91062at3193          -            311     0.065   14.3   0.1   1   1    0.0001     0.088   13.9   0.1     4    40    20    56    14    67 0.89 -
PC3A_TRINITY_DN42611_c4_g5_i3.p1PC3A_TRINITY_DN42611_c4_g5  -            157 91062at3193          -            311      0.21   12.7   0.1   1   1   0.00031      0.27   12.3   0.1     8    46    96   134    89   147 0.84 -
PC2A_TRINITY_DN33619_c3_g1_i2.p1PC2A_TRINITY_DN33619_c3_g1  -            140 91062at3193          -            311      0.22   12.6   0.0   1   1   0.00032      0.27   12.3   0.0     7    41    65    99    57   132 0.80 -
PC1A_TRINITY_DN42079_c1_g2_i3.p1PC1A_TRINITY_DN42079_c1_g2  -            140 91062at3193          -            311      0.25   12.4   0.0   1   1    0.0003      0.26   12.3   0.0     8    39    44    75    38   133 0.82 -
PC3A_TRINITY_DN42782_c0_g1_i2.p1PC3A_TRINITY_DN42782_c0_g1  -            103 91062at3193          -            311      0.25   12.4   0.0   1   1   0.00037      0.32   12.1   0.0     8    39     6    37     3    49 0.89 -
PC2A_TRINITY_DN34877_c2_g2_i32.p1PC2A_TRINITY_DN34877_c2_g2 -            222 91062at3193          -            311      0.26   12.4   0.0   1   1   0.00094      0.81   10.7   0.0    88   155   121   199    44   217 0.70 -
PC3J_TRINITY_DN44639_c2_g1_i1.p1PC3J_TRINITY_DN44639_c2_g1  -            106 91062at3193          -            311      0.27   12.3   0.1   1   1    0.0004      0.34   12.0   0.1   206   239    22    55    11    57 0.86 -
PC3A_TRINITY_DN36369_c0_g1_i1.p1PC3A_TRINITY_DN36369_c0_g1  -            340 91062at3193          -            311      0.29   12.2   0.0   1   1   0.00066      0.57   11.2   0.0     5   114     9   131     5   139 0.77 -
PC2A_TRINITY_DN28532_c2_g1_i3.p1PC2A_TRINITY_DN28532_c2_g1  -            107 91062at3193          -            311      0.32   12.0   0.0   1   1   0.00047      0.41   11.7   0.0     8    39     6    37     3    51 0.89 -
PC3J_TRINITY_DN41408_c1_g1_i5.p1PC3J_TRINITY_DN41408_c1_g1  -            121 91062at3193          -            311      0.32   12.0   0.0   1   1   0.00049      0.43   11.7   0.0     8    39     6    37     3    51 0.89 -
PC1A_TRINITY_DN42581_c4_g1_i1.p1PC1A_TRINITY_DN42581_c4_g1  -            103 91062at3193          -            311      0.44   11.6   0.0   1   1   0.00051      0.44   11.6   0.0     8    77     2    69     1    99 0.77 -
PC2J_TRINITY_DN37908_c0_g2_i3.p1PC2J_TRINITY_DN37908_c0_g2  -            402 91062at3193          -            311      0.46   11.6   0.0   1   1   0.00083      0.71   10.9   0.0     9   237    71   320    62   373 0.70 -
PC1A_TRINITY_DN42420_c1_g7_i3.p1PC1A_TRINITY_DN42420_c1_g7  -            245 91062at3193          -            311      0.55   11.3   0.0   1   1     0.001      0.86   10.7   0.0     8   114    53   172    48   186 0.71 -
#
# Program:         hmmsearch
# Version:         3.2.1 (June 2018)
# Pipeline mode:   SEARCH
# Query file:      /isg/shared/databases/BUSCO/odb10/embryophyta_odb10/hmms/91062at3193.hmm
# Target file:     Pine_final_annotations_no_contam_lvl0.faa
# Option settings: /usr/local/bin/hmmsearch --domtblout /labs/Wegrzyn/Juniper_Pine/BUSCO/NEW/busco_pine/run_embryophyta_odb10/hmmer_output/91062at3193.out --cpu 1 /isg/shared/databases/BUSCO/odb10/embryophyta_odb10/hmms/91062at3193.hmm Pine_final_annotations_no_contam_lvl0.faa 
# Current dir:     /labs/Wegrzyn/Juniper_Pine/BUSCO/NEW
# Date:            Thu Aug  6 15:12:59 2020
# [ok]
