#                                                                                                                  --- full sequence --- -------------- this domain -------------   hmm coord   ali coord   env coord
# target name                                              accession   tlen query name           accession   qlen   E-value  score  bias   #  of  c-Evalue  i-Evalue  score  bias  from    to  from    to  from    to  acc description of target
#                                      ------------------- ---------- ----- -------------------- ---------- ----- --------- ------ ----- --- --- --------- --------- ------ ----- ----- ----- ----- ----- ----- ----- ---- ---------------------
PC2A_TRINITY_DN34220_c2_g2_i1.p1PC2A_TRINITY_DN34220_c2_g2 -            224 9250at3193           -            773  2.1e-129  435.0   1.7   1   1  2.7e-133  2.4e-129  434.8   1.7   561   765     1   206     1   213 0.96 -
PC2J_TRINITY_DN45773_c2_g3_i1.p1PC2J_TRINITY_DN45773_c2_g3 -            114 9250at3193           -            773   6.7e-49  168.8   0.6   1   1   8.7e-53     8e-49  168.5   0.6   393   495    12   114     8   114 0.98 -
PC2J_TRINITY_DN9348_c0_g1_i1.p1PC2J_TRINITY_DN9348_c0_g1   -            138 9250at3193           -            773   2.9e-12   47.6   1.5   1   1   5.4e-16   4.9e-12   46.9   1.5   540   655     3   133     1   136 0.79 -
PC3J_TRINITY_DN36062_c0_g1_i1.p1PC3J_TRINITY_DN36062_c0_g1 -            108 9250at3193           -            773   2.3e-10   41.3   0.0   1   1   2.6e-14   2.3e-10   41.3   0.0   239   306     4    71     1    91 0.74 -
PC2J_TRINITY_DN27685_c0_g1_i1.p1PC2J_TRINITY_DN27685_c0_g1 -            100 9250at3193           -            773   2.6e-05   24.6   0.0   1   1   3.2e-09   2.9e-05   24.4   0.0   348   392    33    78    22    85 0.86 -
PC3J_TRINITY_DN51182_c0_g1_i1.p1PC3J_TRINITY_DN51182_c0_g1 -            166 9250at3193           -            773   0.00036   20.8   0.0   1   1     4e-08   0.00036   20.8   0.0   314   355   121   166    44   166 0.88 -
PC2A_TRINITY_DN11705_c0_g1_i1.p1PC2A_TRINITY_DN11705_c0_g1 -            106 9250at3193           -            773    0.0019   18.5   0.5   1   1   2.2e-07     0.002   18.4   0.5   594   680    19   105     4   106 0.87 -
#
# Program:         hmmsearch
# Version:         3.2.1 (June 2018)
# Pipeline mode:   SEARCH
# Query file:      /isg/shared/databases/BUSCO/odb10/embryophyta_odb10/hmms/9250at3193.hmm
# Target file:     Pine_final_annotations_no_contam_lvl0.faa
# Option settings: /usr/local/bin/hmmsearch --domtblout /labs/Wegrzyn/Juniper_Pine/BUSCO/NEW/busco_pine/run_embryophyta_odb10/hmmer_output/9250at3193.out --cpu 1 /isg/shared/databases/BUSCO/odb10/embryophyta_odb10/hmms/9250at3193.hmm Pine_final_annotations_no_contam_lvl0.faa 
# Current dir:     /labs/Wegrzyn/Juniper_Pine/BUSCO/NEW
# Date:            Thu Aug  6 15:13:13 2020
# [ok]
