#                                                                                                                  --- full sequence --- -------------- this domain -------------   hmm coord   ali coord   env coord
# target name                                              accession   tlen query name           accession   qlen   E-value  score  bias   #  of  c-Evalue  i-Evalue  score  bias  from    to  from    to  from    to  acc description of target
#                                      ------------------- ---------- ----- -------------------- ---------- ----- --------- ------ ----- --- --- --------- --------- ------ ----- ----- ----- ----- ----- ----- ----- ---- ---------------------
PC1J_TRINITY_DN41807_c0_g1_i1.p1PC1J_TRINITY_DN41807_c0_g1 -            107 92659at3193          -            401   6.7e-38  132.7   0.1   1   1   1.7e-41   3.7e-37  130.2   0.1   201   290     1   107     1   107 0.89 -
PC3J_TRINITY_DN3094_c0_g1_i1.p1PC3J_TRINITY_DN3094_c0_g1   -            137 92659at3193          -            401   2.5e-30  107.7   0.0   1   2   9.3e-12     2e-07   32.3   0.0    13    50    10    55     5    62 0.84 -
PC3J_TRINITY_DN3094_c0_g1_i1.p1PC3J_TRINITY_DN3094_c0_g1   -            137 92659at3193          -            401   2.5e-30  107.7   0.0   2   2   2.5e-24   5.3e-20   73.7   0.0    49   108    74   133    63   136 0.95 -
PC1J_TRINITY_DN3417_c0_g1_i1.p1PC1J_TRINITY_DN3417_c0_g1   -            127 92659at3193          -            401     0.059   14.3   0.0   1   1   3.2e-06     0.068   14.1   0.0   319   354    76   111    43   118 0.74 -
#
# Program:         hmmsearch
# Version:         3.2.1 (June 2018)
# Pipeline mode:   SEARCH
# Query file:      /isg/shared/databases/BUSCO/odb10/embryophyta_odb10/hmms/92659at3193.hmm
# Target file:     Pine_final_annotations_no_contam_lvl0.faa
# Option settings: /usr/local/bin/hmmsearch --domtblout /labs/Wegrzyn/Juniper_Pine/BUSCO/NEW/busco_pine/run_embryophyta_odb10/hmmer_output/92659at3193.out --cpu 1 /isg/shared/databases/BUSCO/odb10/embryophyta_odb10/hmms/92659at3193.hmm Pine_final_annotations_no_contam_lvl0.faa 
# Current dir:     /labs/Wegrzyn/Juniper_Pine/BUSCO/NEW
# Date:            Thu Aug  6 15:13:13 2020
# [ok]
