#                                                                                                                   --- full sequence --- -------------- this domain -------------   hmm coord   ali coord   env coord
# target name                                               accession   tlen query name           accession   qlen   E-value  score  bias   #  of  c-Evalue  i-Evalue  score  bias  from    to  from    to  from    to  acc description of target
#                                       ------------------- ---------- ----- -------------------- ---------- ----- --------- ------ ----- --- --- --------- --------- ------ ----- ----- ----- ----- ----- ----- ----- ---- ---------------------
PC1A_TRINITY_DN40661_c1_g1_i2.p1PC1A_TRINITY_DN40661_c1_g1  -            127 95831at3193          -            258   8.4e-47  161.4   0.0   1   1   3.2e-49   9.4e-47  161.2   0.0     2    95    27   120    26   126 0.97 -
PC1A_TRINITY_DN42163_c0_g1_i3.p1PC1A_TRINITY_DN42163_c0_g1  -            385 95831at3193          -            258   2.8e-14   54.8   0.1   1   4     0.025       7.3    7.5   0.0     3    51    19    74    17    82 0.83 -
PC1A_TRINITY_DN42163_c0_g1_i3.p1PC1A_TRINITY_DN42163_c0_g1  -            385 95831at3193          -            258   2.8e-14   54.8   0.1   2   4   2.6e-07   7.4e-05   23.9   0.1     3    49   134   184   132   189 0.86 -
PC1A_TRINITY_DN42163_c0_g1_i3.p1PC1A_TRINITY_DN42163_c0_g1  -            385 95831at3193          -            258   2.8e-14   54.8   0.1   3   4     0.092        27    5.7   0.0     3    51   214   269   212   277 0.78 -
PC1A_TRINITY_DN42163_c0_g1_i3.p1PC1A_TRINITY_DN42163_c0_g1  -            385 95831at3193          -            258   2.8e-14   54.8   0.1   4   4   0.00085      0.25   12.3   0.0     3    49   311   361   309   368 0.85 -
PC1J_TRINITY_DN35604_c2_g1_i3.p1PC1J_TRINITY_DN35604_c2_g1  -            336 95831at3193          -            258   9.3e-13   49.8   1.2   1   3   7.8e-06    0.0023   19.0   0.0     2    56    43   103    42   109 0.81 -
PC1J_TRINITY_DN35604_c2_g1_i3.p1PC1J_TRINITY_DN35604_c2_g1  -            336 95831at3193          -            258   9.3e-13   49.8   1.2   2   3   1.5e-05    0.0043   18.1   0.0     2    76   138   214   137   235 0.86 -
PC1J_TRINITY_DN35604_c2_g1_i3.p1PC1J_TRINITY_DN35604_c2_g1  -            336 95831at3193          -            258   9.3e-13   49.8   1.2   3   3    0.0041       1.2   10.1   0.1     3    48   255   304   253   315 0.77 -
PC1A_TRINITY_DN43613_c5_g1_i12.p1PC1A_TRINITY_DN43613_c5_g1 -            349 95831at3193          -            258   2.6e-11   45.1   0.4   1   2   5.1e-06    0.0015   19.6   0.0     2    72   160   232   159   235 0.80 -
PC1A_TRINITY_DN43613_c5_g1_i12.p1PC1A_TRINITY_DN43613_c5_g1 -            349 95831at3193          -            258   2.6e-11   45.1   0.4   2   2     3e-07   8.8e-05   23.7   0.1     2    77   263   340   262   343 0.86 -
PC3A_TRINITY_DN43089_c0_g1_i5.p1PC3A_TRINITY_DN43089_c0_g1  -            661 95831at3193          -            258   3.8e-11   44.5   0.2   1   4     0.001      0.29   12.1   0.0     3    50    36    87    34   102 0.79 -
PC3A_TRINITY_DN43089_c0_g1_i5.p1PC3A_TRINITY_DN43089_c0_g1  -            661 95831at3193          -            258   3.8e-11   44.5   0.2   2   4       1.3   3.8e+02    1.9   0.0     3    56   124   182   122   187 0.76 -
PC3A_TRINITY_DN43089_c0_g1_i5.p1PC3A_TRINITY_DN43089_c0_g1  -            661 95831at3193          -            258   3.8e-11   44.5   0.2   3   4   8.7e-07   0.00025   22.2   0.0     3    52   215   267   213   295 0.83 -
PC3A_TRINITY_DN43089_c0_g1_i5.p1PC3A_TRINITY_DN43089_c0_g1  -            661 95831at3193          -            258   3.8e-11   44.5   0.2   4   4      0.54   1.6e+02    3.2   0.0     3    51   318   369   316   380 0.79 -
PC2J_TRINITY_DN45062_c0_g1_i5.p1PC2J_TRINITY_DN45062_c0_g1  -            311 95831at3193          -            258   1.2e-10   42.8   1.3   1   2   0.00026     0.074   14.1   0.1     2    45     7    54     6    63 0.83 -
PC2J_TRINITY_DN45062_c0_g1_i5.p1PC2J_TRINITY_DN45062_c0_g1  -            311 95831at3193          -            258   1.2e-10   42.8   1.3   2   2   1.6e-08   4.6e-06   27.8   0.1     2    56   102   158   101   167 0.78 -
PC1A_TRINITY_DN40911_c0_g3_i7.p1PC1A_TRINITY_DN40911_c0_g3  -            316 95831at3193          -            258   1.3e-10   42.7   1.3   1   2   0.00026     0.076   14.0   0.1     2    45     7    54     6    63 0.83 -
PC1A_TRINITY_DN40911_c0_g3_i7.p1PC1A_TRINITY_DN40911_c0_g3  -            316 95831at3193          -            258   1.3e-10   42.7   1.3   2   2   1.6e-08   4.7e-06   27.8   0.1     2    56   102   158   101   167 0.78 -
PC1A_TRINITY_DN41426_c2_g1_i4.p1PC1A_TRINITY_DN41426_c2_g1  -            409 95831at3193          -            258   3.4e-10   41.4   0.8   1   3      0.21        61    4.5   0.0     3    50     8    59     6    67 0.79 -
PC1A_TRINITY_DN41426_c2_g1_i4.p1PC1A_TRINITY_DN41426_c2_g1  -            409 95831at3193          -            258   3.4e-10   41.4   0.8   2   3   7.1e-05     0.021   15.9   0.0     1    59    94   154    94   164 0.86 -
PC1A_TRINITY_DN41426_c2_g1_i4.p1PC1A_TRINITY_DN41426_c2_g1  -            409 95831at3193          -            258   3.4e-10   41.4   0.8   3   3   1.5e-05    0.0045   18.0   0.1     2    46   272   320   271   325 0.85 -
PC3J_TRINITY_DN26959_c0_g1_i3.p1PC3J_TRINITY_DN26959_c0_g1  -            178 95831at3193          -            258   4.4e-10   41.0   0.3   1   2   0.00027     0.078   14.0   0.0     2    49     7    58     6    65 0.78 -
PC3J_TRINITY_DN26959_c0_g1_i3.p1PC3J_TRINITY_DN26959_c0_g1  -            178 95831at3193          -            258   4.4e-10   41.0   0.3   2   2     9e-08   2.6e-05   25.4   0.0     2    59   113   176   112   178 0.80 -
PC2J_TRINITY_DN35867_c2_g1_i1.p1PC2J_TRINITY_DN35867_c2_g1  -            264 95831at3193          -            258   5.1e-10   40.8   0.1   1   2     3e-06   0.00088   20.4   0.0     2    56    68   128    67   134 0.83 -
PC2J_TRINITY_DN35867_c2_g1_i1.p1PC2J_TRINITY_DN35867_c2_g1  -            264 95831at3193          -            258   5.1e-10   40.8   0.1   2   2   1.3e-05    0.0036   18.4   0.0     2    50   163   215   162   244 0.83 -
PC2J_TRINITY_DN36717_c2_g5_i1.p1PC2J_TRINITY_DN36717_c2_g5  -            345 95831at3193          -            258   7.9e-10   40.2   0.0   1   3      0.43   1.2e+02    3.5   0.0     3    38    47    83    45   110 0.78 -
PC2J_TRINITY_DN36717_c2_g5_i1.p1PC2J_TRINITY_DN36717_c2_g5  -            345 95831at3193          -            258   7.9e-10   40.2   0.0   2   3     0.024       7.1    7.6   0.0     3    48   141   191   139   218 0.69 -
PC2J_TRINITY_DN36717_c2_g5_i1.p1PC2J_TRINITY_DN36717_c2_g5  -            345 95831at3193          -            258   7.9e-10   40.2   0.0   3   3     7e-08     2e-05   25.7   0.0     2    61   258   317   257   320 0.93 -
PC1J_TRINITY_DN40990_c4_g2_i4.p1PC1J_TRINITY_DN40990_c4_g2  -            269 95831at3193          -            258   2.6e-09   38.5   3.9   1   3    0.0014      0.41   11.6   0.0     2    46    43    91    42   100 0.78 -
PC1J_TRINITY_DN40990_c4_g2_i4.p1PC1J_TRINITY_DN40990_c4_g2  -            269 95831at3193          -            258   2.6e-09   38.5   3.9   2   3     5e-06    0.0015   19.7   0.1     2    47   130   179   129   189 0.81 -
PC1J_TRINITY_DN40990_c4_g2_i4.p1PC1J_TRINITY_DN40990_c4_g2  -            269 95831at3193          -            258   2.6e-09   38.5   3.9   3   3     0.022       6.3    7.7   0.1     8    51   187   232   183   258 0.76 -
PC3J_TRINITY_DN41380_c1_g2_i1.p1PC3J_TRINITY_DN41380_c1_g2  -            246 95831at3193          -            258     3e-09   38.3   0.3   1   2    0.0004      0.12   13.4   0.0     2    47     7    56     6    66 0.81 -
PC3J_TRINITY_DN41380_c1_g2_i1.p1PC3J_TRINITY_DN41380_c1_g2  -            246 95831at3193          -            258     3e-09   38.3   0.3   2   2     4e-07   0.00012   23.2   0.1     2    55   105   160   104   169 0.78 -
PC1A_TRINITY_DN40493_c0_g3_i1.p1PC1A_TRINITY_DN40493_c0_g3  -            190 95831at3193          -            258     3e-09   38.3   0.1   1   2   1.8e-06   0.00052   21.1   0.0     2    37    50    85    49   111 0.93 -
PC1A_TRINITY_DN40493_c0_g3_i1.p1PC1A_TRINITY_DN40493_c0_g3  -            190 95831at3193          -            258     3e-09   38.3   0.1   2   2    0.0001      0.03   15.4   0.0     2    38   139   175   138   183 0.91 -
PC2J_TRINITY_DN39396_c2_g7_i1.p1PC2J_TRINITY_DN39396_c2_g7  -            317 95831at3193          -            258   3.7e-09   38.0   0.4   1   3       8.9   2.6e+03   -0.8   0.0    35    59    23    49    11    80 0.74 -
PC2J_TRINITY_DN39396_c2_g7_i1.p1PC2J_TRINITY_DN39396_c2_g7  -            317 95831at3193          -            258   3.7e-09   38.0   0.4   2   3   2.5e-05    0.0072   17.4   0.0     2    56   142   202   141   215 0.81 -
PC2J_TRINITY_DN39396_c2_g7_i1.p1PC2J_TRINITY_DN39396_c2_g7  -            317 95831at3193          -            258   3.7e-09   38.0   0.4   3   3   2.1e-05    0.0061   17.6   0.0     2    74   241   315   240   316 0.82 -
PC1J_TRINITY_DN40932_c3_g1_i22.p1PC1J_TRINITY_DN40932_c3_g1 -            466 95831at3193          -            258     5e-09   37.6   0.0   1   3   3.5e-08     1e-05   26.7   0.0     3    50   104   155   102   166 0.83 -
PC1J_TRINITY_DN40932_c3_g1_i22.p1PC1J_TRINITY_DN40932_c3_g1 -            466 95831at3193          -            258     5e-09   37.6   0.0   2   3       1.2   3.5e+02    2.0   0.0     3    48   184   236   182   248 0.77 -
PC1J_TRINITY_DN40932_c3_g1_i22.p1PC1J_TRINITY_DN40932_c3_g1 -            466 95831at3193          -            258     5e-09   37.6   0.0   3   3      0.15        44    5.0   0.0     3    50   281   332   279   340 0.83 -
PC1J_TRINITY_DN35430_c1_g2_i1.p1PC1J_TRINITY_DN35430_c1_g2  -            133 95831at3193          -            258     2e-08   35.6   0.0   1   2   0.00094      0.27   12.2   0.0     3    27    13    37    11    41 0.90 -
PC1J_TRINITY_DN35430_c1_g2_i1.p1PC1J_TRINITY_DN35430_c1_g2  -            133 95831at3193          -            258     2e-08   35.6   0.0   2   2   1.3e-06   0.00038   21.6   0.0     3    45    58    98    56   106 0.86 -
PC3A_TRINITY_DN37709_c2_g2_i1.p1PC3A_TRINITY_DN37709_c2_g2  -            312 95831at3193          -            258   2.1e-08   35.5   0.0   1   3    0.0014      0.41   11.6   0.0    13    50     3    44     1    49 0.83 -
PC3A_TRINITY_DN37709_c2_g2_i1.p1PC3A_TRINITY_DN37709_c2_g2  -            312 95831at3193          -            258   2.1e-08   35.5   0.0   2   3      0.02       5.8    7.9   0.0     3    51    73   128    71   136 0.83 -
PC3A_TRINITY_DN37709_c2_g2_i1.p1PC3A_TRINITY_DN37709_c2_g2  -            312 95831at3193          -            258   2.1e-08   35.5   0.0   3   3   0.00074      0.21   12.6   0.0     3    49   170   220   168   226 0.86 -
PC3A_TRINITY_DN38068_c1_g1_i1.p1PC3A_TRINITY_DN38068_c1_g1  -            107 95831at3193          -            258   2.1e-08   35.5   0.2   1   1   7.6e-11   2.2e-08   35.5   0.2   168   222    35    89    12   103 0.78 -
PC3J_TRINITY_DN39186_c1_g2_i5.p1PC3J_TRINITY_DN39186_c1_g2  -            284 95831at3193          -            258   4.2e-08   34.5   0.3   1   2   0.00073      0.21   12.6   0.0     2    46   102   150   101   159 0.81 -
PC3J_TRINITY_DN39186_c1_g2_i5.p1PC3J_TRINITY_DN39186_c1_g2  -            284 95831at3193          -            258   4.2e-08   34.5   0.3   2   2   3.6e-06     0.001   20.1   0.1     2    52   189   241   188   267 0.77 -
PC1J_TRINITY_DN40990_c4_g2_i2.p1PC1J_TRINITY_DN40990_c4_g2  -            242 95831at3193          -            258   4.4e-08   34.5   0.3   1   2    0.0012      0.35   11.9   0.0     2    46    43    91    42   100 0.78 -
PC1J_TRINITY_DN40990_c4_g2_i2.p1PC1J_TRINITY_DN40990_c4_g2  -            242 95831at3193          -            258   4.4e-08   34.5   0.3   2   2   2.3e-06   0.00066   20.8   0.0     2    58   130   188   129   207 0.78 -
PC3A_TRINITY_DN38220_c0_g2_i4.p1PC3A_TRINITY_DN38220_c0_g2  -            489 95831at3193          -            258   4.7e-08   34.4   1.0   1   4   0.00017     0.049   14.6   0.0     3    48    80   125    78   147 0.89 -
PC3A_TRINITY_DN38220_c0_g2_i4.p1PC3A_TRINITY_DN38220_c0_g2  -            489 95831at3193          -            258   4.7e-08   34.4   1.0   2   4      0.19        57    4.6   0.0     3    50   165   216   163   240 0.78 -
PC3A_TRINITY_DN38220_c0_g2_i4.p1PC3A_TRINITY_DN38220_c0_g2  -            489 95831at3193          -            258   4.7e-08   34.4   1.0   3   4       5.8   1.7e+03   -0.2   0.1   169   211   213   258   210   270 0.68 -
PC3A_TRINITY_DN38220_c0_g2_i4.p1PC3A_TRINITY_DN38220_c0_g2  -            489 95831at3193          -            258   4.7e-08   34.4   1.0   4   4    0.0014      0.41   11.6   0.0     3    54   307   358   305   368 0.83 -
PC3A_TRINITY_DN40405_c2_g3_i2.p1PC3A_TRINITY_DN40405_c2_g3  -            299 95831at3193          -            258   5.5e-08   34.2   1.1   1   2   6.5e-07   0.00019   22.6   0.0     2    73   113   186   112   188 0.80 -
PC3A_TRINITY_DN40405_c2_g3_i2.p1PC3A_TRINITY_DN40405_c2_g3  -            299 95831at3193          -            258   5.5e-08   34.2   1.1   2   2    0.0044       1.3   10.0   0.0     2    75   216   291   215   294 0.84 -
PC1A_TRINITY_DN41931_c2_g1_i2.p1PC1A_TRINITY_DN41931_c2_g1  -            459 95831at3193          -            258   7.5e-08   33.7   4.7   1   3   1.6e-06   0.00046   21.3   0.0     3    49   138   188   136   200 0.83 -
PC1A_TRINITY_DN41931_c2_g1_i2.p1PC1A_TRINITY_DN41931_c2_g1  -            459 95831at3193          -            258   7.5e-08   33.7   4.7   2   3     0.019       5.6    7.9   0.0     3    51   218   273   216   293 0.84 -
PC1A_TRINITY_DN41931_c2_g1_i2.p1PC1A_TRINITY_DN41931_c2_g1  -            459 95831at3193          -            258   7.5e-08   33.7   4.7   3   3      0.19        57    4.6   0.0     3    48   313   362   311   373 0.79 -
PC3J_TRINITY_DN39445_c0_g2_i8.p1PC3J_TRINITY_DN39445_c0_g2  -            406 95831at3193          -            258   9.1e-08   33.4   1.7   1   3    0.0029      0.83   10.6   0.0     3    63    98   160    96   163 0.82 -
PC3J_TRINITY_DN39445_c0_g2_i8.p1PC3J_TRINITY_DN39445_c0_g2  -            406 95831at3193          -            258   9.1e-08   33.4   1.7   2   3      0.37   1.1e+02    3.7   0.0     3    51   191   244   189   265 0.75 -
PC3J_TRINITY_DN39445_c0_g2_i8.p1PC3J_TRINITY_DN39445_c0_g2  -            406 95831at3193          -            258   9.1e-08   33.4   1.7   3   3   4.9e-05     0.014   16.4   0.0     2    58   301   357   300   360 0.92 -
PC2J_TRINITY_DN41525_c2_g1_i1.p1PC2J_TRINITY_DN41525_c2_g1  -            249 95831at3193          -            258   1.2e-07   33.1   0.0   1   2   1.4e-08   4.1e-06   28.0   0.0     3    50   110   161   108   173 0.85 -
PC2J_TRINITY_DN41525_c2_g1_i1.p1PC2J_TRINITY_DN41525_c2_g1  -            249 95831at3193          -            258   1.2e-07   33.1   0.0   2   2      0.68     2e+02    2.8   0.0     3    47   190   241   188   247 0.77 -
PC3A_TRINITY_DN43089_c0_g5_i1.p1PC3A_TRINITY_DN43089_c0_g5  -            271 95831at3193          -            258   1.6e-07   32.6   0.0   1   2   0.00015     0.044   14.8   0.0     2    50     8    59     7   102 0.88 -
PC3A_TRINITY_DN43089_c0_g5_i1.p1PC3A_TRINITY_DN43089_c0_g5  -            271 95831at3193          -            258   1.6e-07   32.6   0.0   2   2   6.2e-05     0.018   16.1   0.0     3    76   112   186   110   197 0.77 -
PC2J_TRINITY_DN41001_c0_g1_i16.p1PC2J_TRINITY_DN41001_c0_g1 -            303 95831at3193          -            258   1.7e-07   32.5   0.9   1   2    0.0017       0.5   11.3   0.0     2    46    43    91    42   100 0.78 -
PC2J_TRINITY_DN41001_c0_g1_i16.p1PC2J_TRINITY_DN41001_c0_g1 -            303 95831at3193          -            258   1.7e-07   32.5   0.9   2   2   6.5e-06    0.0019   19.3   0.1     2    51   130   181   129   189 0.79 -
PC3J_TRINITY_DN46134_c1_g1_i1.p1PC3J_TRINITY_DN46134_c1_g1  -            258 95831at3193          -            258   1.9e-07   32.4   0.0   1   3       9.6   2.8e+03   -0.9   0.0    11    33    22    44    18    52 0.83 -
PC3J_TRINITY_DN46134_c1_g1_i1.p1PC3J_TRINITY_DN46134_c1_g1  -            258 95831at3193          -            258   1.9e-07   32.4   0.0   2   3    0.0019      0.54   11.2   0.0     2    49    70   121    69   133 0.80 -
PC3J_TRINITY_DN46134_c1_g1_i1.p1PC3J_TRINITY_DN46134_c1_g1  -            258 95831at3193          -            258   1.9e-07   32.4   0.0   3   3     2e-05    0.0057   17.7   0.0     2    49   160   211   159   224 0.82 -
PC1A_TRINITY_DN40478_c4_g2_i5.p1PC1A_TRINITY_DN40478_c4_g2  -            354 95831at3193          -            258   2.7e-07   31.9   0.3   1   3       4.4   1.3e+03    0.2   0.0     4    56    19    76    17    81 0.72 -
PC1A_TRINITY_DN40478_c4_g2_i5.p1PC1A_TRINITY_DN40478_c4_g2  -            354 95831at3193          -            258   2.7e-07   31.9   0.3   2   3   3.5e-07    0.0001   23.5   0.1     3    52   109   161   107   190 0.82 -
PC1A_TRINITY_DN40478_c4_g2_i5.p1PC1A_TRINITY_DN40478_c4_g2  -            354 95831at3193          -            258   2.7e-07   31.9   0.3   3   3      0.23        68    4.4   0.0     3    51   212   263   210   274 0.79 -
PC2J_TRINITY_DN39927_c1_g5_i1.p1PC2J_TRINITY_DN39927_c1_g5  -            201 95831at3193          -            258   2.8e-07   31.8   0.9   1   2   2.5e-06   0.00074   20.6   0.5     3    52    26    78    24   129 0.89 -
PC2J_TRINITY_DN39927_c1_g5_i1.p1PC2J_TRINITY_DN39927_c1_g5  -            201 95831at3193          -            258   2.8e-07   31.8   0.9   2   2    0.0061       1.8    9.6   0.0     3    50   130   180   128   192 0.81 -
PC1J_TRINITY_DN40990_c4_g2_i1.p1PC1J_TRINITY_DN40990_c4_g2  -            173 95831at3193          -            258   2.9e-07   31.8   0.3   1   2   0.00063      0.18   12.8   0.0     2    46    43    91    42   101 0.78 -
PC1J_TRINITY_DN40990_c4_g2_i1.p1PC1J_TRINITY_DN40990_c4_g2  -            173 95831at3193          -            258   2.9e-07   31.8   0.3   2   2   2.9e-05    0.0084   17.2   0.0     2    36   124   158   123   171 0.86 -
PC1J_TRINITY_DN36011_c2_g2_i1.p1PC1J_TRINITY_DN36011_c2_g2  -            262 95831at3193          -            258   3.9e-07   31.3   0.0   1   2   0.00084      0.24   12.4   0.0     2    49    70   121    69   133 0.81 -
PC1J_TRINITY_DN36011_c2_g2_i1.p1PC1J_TRINITY_DN36011_c2_g2  -            262 95831at3193          -            258   3.9e-07   31.3   0.0   2   2   4.9e-05     0.014   16.4   0.0     2    49   160   211   159   221 0.80 -
PC1J_TRINITY_DN33460_c0_g2_i1.p1PC1J_TRINITY_DN33460_c0_g2  -            225 95831at3193          -            258   4.8e-07   31.1   0.0   1   2      0.35     1e+02    3.8   0.0     3    46    23    71    21    98 0.72 -
PC1J_TRINITY_DN33460_c0_g2_i1.p1PC1J_TRINITY_DN33460_c0_g2  -            225 95831at3193          -            258   4.8e-07   31.1   0.0   2   2   8.1e-08   2.4e-05   25.5   0.0     2    60   138   196   137   200 0.92 -
PC1J_TRINITY_DN36011_c2_g2_i3.p1PC1J_TRINITY_DN36011_c2_g2  -            306 95831at3193          -            258   6.7e-07   30.6   0.0   1   2    0.0025      0.72   10.8   0.0     2    49    70   121    69   133 0.80 -
PC1J_TRINITY_DN36011_c2_g2_i3.p1PC1J_TRINITY_DN36011_c2_g2  -            306 95831at3193          -            258   6.7e-07   30.6   0.0   2   2   2.6e-05    0.0076   17.3   0.0     2    49   160   211   159   223 0.82 -
PC3J_TRINITY_DN46155_c0_g1_i1.p1PC3J_TRINITY_DN46155_c0_g1  -            117 95831at3193          -            258   7.2e-07   30.5   0.1   1   1   3.3e-09   9.7e-07   30.1   0.1     3    50    36    87    34    96 0.85 -
PC2A_TRINITY_DN33105_c0_g1_i5.p1PC2A_TRINITY_DN33105_c0_g1  -            350 95831at3193          -            258   7.3e-07   30.5   0.1   1   2    0.0028      0.82   10.6   0.0     2    46   148   196   147   202 0.81 -
PC2A_TRINITY_DN33105_c0_g1_i5.p1PC2A_TRINITY_DN33105_c0_g1  -            350 95831at3193          -            258   7.3e-07   30.5   0.1   2   2   2.8e-05    0.0082   17.2   0.0     2    54   237   295   236   306 0.76 -
PC3J_TRINITY_DN40016_c1_g1_i7.p1PC3J_TRINITY_DN40016_c1_g1  -            240 95831at3193          -            258   7.6e-07   30.4   0.2   1   2     1e-08     3e-06   28.5   0.1     2    56    23    79    22    88 0.78 -
PC3J_TRINITY_DN40016_c1_g1_i7.p1PC3J_TRINITY_DN40016_c1_g1  -            240 95831at3193          -            258   7.6e-07   30.4   0.2   2   2       9.2   2.7e+03   -0.9   0.0     7    35   112   142   111   152 0.73 -
PC3J_TRINITY_DN43791_c2_g1_i1.p1PC3J_TRINITY_DN43791_c2_g1  -            207 95831at3193          -            258   7.7e-07   30.4   0.0   1   2   8.1e-06    0.0024   19.0   0.0     3    76    23    98    21   100 0.85 -
PC3J_TRINITY_DN43791_c2_g1_i1.p1PC3J_TRINITY_DN43791_c2_g1  -            207 95831at3193          -            258   7.7e-07   30.4   0.0   2   2    0.0059       1.7    9.6   0.0     2    47   102   153   101   168 0.82 -
PC3J_TRINITY_DN46134_c1_g1_i3.p1PC3J_TRINITY_DN46134_c1_g1  -            323 95831at3193          -            258   1.1e-06   29.9   0.0   1   2    0.0027      0.78   10.7   0.0     2    49    87   138    86   150 0.80 -
PC3J_TRINITY_DN46134_c1_g1_i3.p1PC3J_TRINITY_DN46134_c1_g1  -            323 95831at3193          -            258   1.1e-06   29.9   0.0   2   2   2.9e-05    0.0083   17.2   0.0     2    49   177   228   176   240 0.82 -
PC2A_TRINITY_DN28043_c3_g1_i1.p1PC2A_TRINITY_DN28043_c3_g1  -            318 95831at3193          -            258   1.3e-06   29.6   0.1   1   2    0.0044       1.3   10.0   0.0     3    75    21    89    19    92 0.81 -
PC2A_TRINITY_DN28043_c3_g1_i1.p1PC2A_TRINITY_DN28043_c3_g1  -            318 95831at3193          -            258   1.3e-06   29.6   0.1   2   2   2.6e-05    0.0077   17.3   0.0     3    47    98   140    96   151 0.87 -
PC1J_TRINITY_DN35283_c5_g2_i2.p1PC1J_TRINITY_DN35283_c5_g2  -            229 95831at3193          -            258   1.4e-06   29.6   0.2   1   1   1.2e-08   3.6e-06   28.2   0.1     3    93    67   161    65   172 0.79 -
PC1J_TRINITY_DN40932_c3_g1_i16.p1PC1J_TRINITY_DN40932_c3_g1 -            209 95831at3193          -            258   1.5e-06   29.4   0.0   1   1   9.8e-09   2.9e-06   28.5   0.0     3    50   125   176   123   187 0.83 -
PC3J_TRINITY_DN44066_c0_g5_i1.p1PC3J_TRINITY_DN44066_c0_g5  -            184 95831at3193          -            258   1.7e-06   29.3   0.6   1   2   2.1e-06   0.00061   20.9   0.5     3    52    18    70    16   121 0.89 -
PC3J_TRINITY_DN44066_c0_g5_i1.p1PC3J_TRINITY_DN44066_c0_g5  -            184 95831at3193          -            258   1.7e-06   29.3   0.6   2   2     0.054        16    6.4   0.0     3    35   122   154   120   162 0.90 -
PC2J_TRINITY_DN45658_c0_g3_i1.p1PC2J_TRINITY_DN45658_c0_g3  -            131 95831at3193          -            258   1.7e-06   29.3   0.1   1   2   0.00011     0.033   15.2   0.1     2    46    11    59    10    68 0.78 -
PC2J_TRINITY_DN45658_c0_g3_i1.p1PC2J_TRINITY_DN45658_c0_g3  -            131 95831at3193          -            258   1.7e-06   29.3   0.1   2   2   0.00088      0.26   12.3   0.0     2    21   111   130   110   131 0.93 -
PC1J_TRINITY_DN29051_c0_g1_i1.p1PC1J_TRINITY_DN29051_c0_g1  -            227 95831at3193          -            258   2.2e-06   28.9   0.2   1   2   4.3e-07   0.00013   23.1   0.0     3    97    53   147    51   155 0.87 -
PC1J_TRINITY_DN29051_c0_g1_i1.p1PC1J_TRINITY_DN29051_c0_g1  -            227 95831at3193          -            258   2.2e-06   28.9   0.2   2   2      0.21        61    4.5   0.1     8    52   150   197   147   220 0.75 -
PC2A_TRINITY_DN30295_c0_g1_i3.p1PC2A_TRINITY_DN30295_c0_g1  -            266 95831at3193          -            258   2.5e-06   28.7   0.4   1   1   2.5e-08   7.2e-06   27.2   0.1     3    93    63   157    61   167 0.79 -
PC1A_TRINITY_DN40911_c0_g3_i2.p1PC1A_TRINITY_DN40911_c0_g3  -            415 95831at3193          -            258   3.1e-06   28.4   0.4   1   1   2.5e-08   7.2e-06   27.2   0.1     2    56   194   250   193   259 0.78 -
PC2J_TRINITY_DN45062_c0_g1_i13.p1PC2J_TRINITY_DN45062_c0_g1 -            388 95831at3193          -            258   3.2e-06   28.4   0.5   1   1   2.2e-08   6.5e-06   27.4   0.1     2    56    94   150    93   159 0.78 -
PC1J_TRINITY_DN36657_c1_g4_i3.p1PC1J_TRINITY_DN36657_c1_g4  -            138 95831at3193          -            258   3.6e-06   28.2   0.0   1   1   2.2e-08   6.3e-06   27.4   0.0     3    50    29    80    27    88 0.87 -
PC2J_TRINITY_DN38441_c2_g2_i18.p1PC2J_TRINITY_DN38441_c2_g2 -            131 95831at3193          -            258     4e-06   28.1   0.5   1   2       3.2   9.4e+02    0.6   0.0   222   244    29    51     9    54 0.61 -
PC2J_TRINITY_DN38441_c2_g2_i18.p1PC2J_TRINITY_DN38441_c2_g2 -            131 95831at3193          -            258     4e-06   28.1   0.5   2   2   5.9e-08   1.7e-05   26.0   0.1     3    52    55   107    53   130 0.83 -
PC3J_TRINITY_DN44668_c0_g1_i5.p1PC3J_TRINITY_DN44668_c0_g1  -            170 95831at3193          -            258   7.3e-06   27.2   0.0   1   1   4.8e-08   1.4e-05   26.3   0.0     3    50    45    96    43   103 0.87 -
PC3J_TRINITY_DN45573_c2_g1_i12.p1PC3J_TRINITY_DN45573_c2_g1 -            309 95831at3193          -            258     1e-05   26.7   0.1   1   3      0.36   1.1e+02    3.7   0.0     3    38    49    85    47   112 0.77 -
PC3J_TRINITY_DN45573_c2_g1_i12.p1PC3J_TRINITY_DN45573_c2_g1 -            309 95831at3193          -            258     1e-05   26.7   0.1   2   3      0.02         6    7.8   0.0     3    48   143   193   141   220 0.69 -
PC3J_TRINITY_DN45573_c2_g1_i12.p1PC3J_TRINITY_DN45573_c2_g1 -            309 95831at3193          -            258     1e-05   26.7   0.1   3   3    0.0013      0.39   11.7   0.0     2    32   260   290   259   297 0.90 -
PC3J_TRINITY_DN38116_c0_g1_i1.p1PC3J_TRINITY_DN38116_c0_g1  -            154 95831at3193          -            258   1.1e-05   26.6   0.0   1   1   4.9e-08   1.4e-05   26.2   0.0     3    77    53   123    51   130 0.92 -
PC2J_TRINITY_DN39963_c0_g1_i7.p1PC2J_TRINITY_DN39963_c0_g1  -            103 95831at3193          -            258   1.1e-05   26.6   0.0   1   1     4e-08   1.2e-05   26.5   0.0     2    73     7    80     6    99 0.83 -
PC1A_TRINITY_DN41274_c1_g5_i2.p1PC1A_TRINITY_DN41274_c1_g5  -            308 95831at3193          -            258   1.2e-05   26.4   0.3   1   2     0.023       6.6    7.7   0.0     2    72    94   166    93   179 0.77 -
PC1A_TRINITY_DN41274_c1_g5_i2.p1PC1A_TRINITY_DN41274_c1_g5  -            308 95831at3193          -            258   1.2e-05   26.4   0.3   2   2   4.4e-05     0.013   16.6   0.0     2    72   192   264   191   274 0.78 -
PC3J_TRINITY_DN48473_c1_g5_i1.p1PC3J_TRINITY_DN48473_c1_g5  -            102 95831at3193          -            258   1.3e-05   26.3   0.1   1   1   5.9e-08   1.7e-05   26.0   0.1     3    48    32    80    30    87 0.86 -
PC3J_TRINITY_DN45030_c2_g2_i2.p1PC3J_TRINITY_DN45030_c2_g2  -            160 95831at3193          -            258   1.4e-05   26.3   0.0   1   2    0.0017       0.5   11.3   0.0     2    47    40    89    39   105 0.79 -
PC3J_TRINITY_DN45030_c2_g2_i2.p1PC3J_TRINITY_DN45030_c2_g2  -            160 95831at3193          -            258   1.4e-05   26.3   0.0   2   2   0.00047      0.14   13.2   0.0     2    31   129   158   128   160 0.89 -
PC2J_TRINITY_DN43236_c1_g1_i3.p1PC2J_TRINITY_DN43236_c1_g1  -            234 95831at3193          -            258   1.6e-05   26.1   0.0   1   1   7.8e-08   2.3e-05   25.6   0.0     3    77    53   123    51   145 0.91 -
PC1A_TRINITY_DN25253_c0_g1_i1.p1PC1A_TRINITY_DN25253_c0_g1  -            137 95831at3193          -            258   1.8e-05   25.9   0.5   1   1     7e-08     2e-05   25.7   0.5   219   256    82   119    47   121 0.84 -
PC2A_TRINITY_DN33989_c3_g3_i1.p2PC2A_TRINITY_DN33989_c3_g3  -            116 95831at3193          -            258   1.9e-05   25.8   0.1   1   2     2e-06   0.00059   20.9   0.1     3    34    21    52    19    62 0.89 -
PC2A_TRINITY_DN33989_c3_g3_i1.p2PC2A_TRINITY_DN33989_c3_g3  -            116 95831at3193          -            258   1.9e-05   25.8   0.1   2   2      0.54   1.6e+02    3.2   0.0     6    47    67   115    65   116 0.73 -
PC3J_TRINITY_DN44236_c5_g1_i1.p1PC3J_TRINITY_DN44236_c5_g1  -            242 95831at3193          -            258   2.1e-05   25.7   0.0   1   2   0.00086      0.25   12.3   0.0     2    60    65   128    64   141 0.78 -
PC3J_TRINITY_DN44236_c5_g1_i1.p1PC3J_TRINITY_DN44236_c5_g1  -            242 95831at3193          -            258   2.1e-05   25.7   0.0   2   2    0.0016      0.46   11.5   0.0     2    75   158   233   157   236 0.78 -
PC2J_TRINITY_DN38115_c4_g1_i1.p1PC2J_TRINITY_DN38115_c4_g1  -            218 95831at3193          -            258   2.8e-05   25.3   0.1   1   3   0.00012     0.034   15.2   0.0     3    50     9    60     7    71 0.81 -
PC2J_TRINITY_DN38115_c4_g1_i1.p1PC2J_TRINITY_DN38115_c4_g1  -            218 95831at3193          -            258   2.8e-05   25.3   0.1   2   3      0.22        65    4.4   0.0     5    49    99   145    96   168 0.74 -
PC2J_TRINITY_DN38115_c4_g1_i1.p1PC2J_TRINITY_DN38115_c4_g1  -            218 95831at3193          -            258   2.8e-05   25.3   0.1   3   3      0.94   2.7e+02    2.4   0.0     2    28   186   212   185   216 0.91 -
PC2J_TRINITY_DN34810_c0_g1_i3.p1PC2J_TRINITY_DN34810_c0_g1  -            242 95831at3193          -            258   3.3e-05   25.0   0.0   1   2    0.0054       1.6    9.7   0.0     2    36    18    54    17    77 0.86 -
PC2J_TRINITY_DN34810_c0_g1_i3.p1PC2J_TRINITY_DN34810_c0_g1  -            242 95831at3193          -            258   3.3e-05   25.0   0.0   2   2   0.00041      0.12   13.4   0.0     2    38   108   144   107   174 0.79 -
PC3J_TRINITY_DN31787_c1_g1_i1.p1PC3J_TRINITY_DN31787_c1_g1  -            112 95831at3193          -            258   3.6e-05   24.9   0.1   1   1   1.4e-07   4.1e-05   24.7   0.1     3    76    32   107    30   109 0.78 -
PC1A_TRINITY_DN22696_c0_g1_i1.p1PC1A_TRINITY_DN22696_c0_g1  -            235 95831at3193          -            258   3.8e-05   24.9   0.1   1   2    0.0047       1.4    9.9   0.0     4    50     1    51     1    56 0.83 -
PC1A_TRINITY_DN22696_c0_g1_i1.p1PC1A_TRINITY_DN22696_c0_g1  -            235 95831at3193          -            258   3.8e-05   24.9   0.1   2   2   0.00049      0.14   13.1   0.0     2    50    92   144    91   150 0.85 -
PC3A_TRINITY_DN33591_c0_g1_i1.p1PC3A_TRINITY_DN33591_c0_g1  -            139 95831at3193          -            258   3.9e-05   24.8   0.0   1   1   1.6e-07   4.8e-05   24.5   0.0     2    49    23    74    22    92 0.70 -
PC3J_TRINITY_DN42505_c2_g1_i1.p1PC3J_TRINITY_DN42505_c2_g1  -            191 95831at3193          -            258   3.9e-05   24.8   0.0   1   2     0.012       3.6    8.5   0.0     3    55     5    65     3    72 0.79 -
PC3J_TRINITY_DN42505_c2_g1_i1.p1PC3J_TRINITY_DN42505_c2_g1  -            191 95831at3193          -            258   3.9e-05   24.8   0.0   2   2    0.0002     0.057   14.4   0.0     3    46    96   143    94   156 0.83 -
PC2A_TRINITY_DN17869_c0_g1_i1.p1PC2A_TRINITY_DN17869_c0_g1  -            161 95831at3193          -            258   4.4e-05   24.6   0.0   1   1   1.8e-07   5.2e-05   24.4   0.0     2    76    33   109    32   112 0.86 -
PC3A_TRINITY_DN43163_c3_g4_i2.p1PC3A_TRINITY_DN43163_c3_g4  -            227 95831at3193          -            258   4.5e-05   24.6   1.6   1   2       9.5   2.8e+03   -0.9   0.8   143   177    88   122    74   140 0.66 -
PC3A_TRINITY_DN43163_c3_g4_i2.p1PC3A_TRINITY_DN43163_c3_g4  -            227 95831at3193          -            258   4.5e-05   24.6   1.6   2   2   3.1e-07   9.1e-05   23.6   0.0     3    74   154   224   152   226 0.91 -
PC2A_TRINITY_DN34198_c2_g2_i3.p1PC2A_TRINITY_DN34198_c2_g2  -            248 95831at3193          -            258   5.1e-05   24.4   0.1   1   2      0.11        31    5.5   0.0     3    50     8    59     6    67 0.79 -
PC2A_TRINITY_DN34198_c2_g2_i3.p1PC2A_TRINITY_DN34198_c2_g2  -            248 95831at3193          -            258   5.1e-05   24.4   0.1   2   2   3.1e-05     0.009   17.1   0.0     1    59    94   154    94   167 0.87 -
PC1J_TRINITY_DN39132_c0_g5_i1.p1PC1J_TRINITY_DN39132_c0_g5  -            154 95831at3193          -            258   5.2e-05   24.4   0.3   1   1   2.5e-07   7.3e-05   23.9   0.0     3    50    61   112    59   123 0.83 -
PC2A_TRINITY_DN34538_c1_g2_i8.p1PC2A_TRINITY_DN34538_c1_g2  -            176 95831at3193          -            258   6.6e-05   24.1   0.0   1   1   3.7e-07   0.00011   23.4   0.0     2    58    65   123    64   142 0.80 -
PC2A_TRINITY_DN31549_c0_g1_i6.p1PC2A_TRINITY_DN31549_c0_g1  -            244 95831at3193          -            258   7.4e-05   23.9   0.5   1   1   4.5e-07   0.00013   23.1   0.0     2    73   132   205   131   207 0.80 -
PC2J_TRINITY_DN39963_c0_g1_i18.p1PC2J_TRINITY_DN39963_c0_g1 -            246 95831at3193          -            258   7.4e-05   23.9   0.6   1   1   4.6e-07   0.00013   23.1   0.0     2    73   134   207   133   209 0.80 -
PC3J_TRINITY_DN47736_c0_g4_i1.p1PC3J_TRINITY_DN47736_c0_g4  -            183 95831at3193          -            258   7.8e-05   23.8   0.7   1   1   3.6e-07    0.0001   23.4   0.0     3    50    68   119    66   130 0.83 -
PC2J_TRINITY_DN41601_c2_g4_i7.p1PC2J_TRINITY_DN41601_c2_g4  -            193 95831at3193          -            258   0.00012   23.3   0.0   1   1   5.6e-07   0.00016   22.8   0.0     3    76    95   170    93   173 0.79 -
PC3J_TRINITY_DN47736_c0_g4_i2.p1PC3J_TRINITY_DN47736_c0_g4  -            138 95831at3193          -            258   0.00012   23.2   0.8   1   1   5.5e-07   0.00016   22.8   0.0     3    47    68   116    66   124 0.82 -
PC3J_TRINITY_DN48503_c2_g1_i12.p1PC3J_TRINITY_DN48503_c2_g1 -            180 95831at3193          -            258   0.00012   23.2   0.0   1   2      0.06        17    6.3   0.0     3    50     8    59     6    67 0.80 -
PC3J_TRINITY_DN48503_c2_g1_i12.p1PC3J_TRINITY_DN48503_c2_g1 -            180 95831at3193          -            258   0.00012   23.2   0.0   2   2   0.00013     0.037   15.1   0.0     1    51    94   148    94   157 0.83 -
PC3J_TRINITY_DN35931_c0_g1_i3.p1PC3J_TRINITY_DN35931_c0_g1  -            119 95831at3193          -            258   0.00012   23.2   0.0   1   1   5.4e-07   0.00016   22.8   0.0     2    51    55   108    54   113 0.85 -
PC2J_TRINITY_DN33230_c1_g1_i3.p1PC2J_TRINITY_DN33230_c1_g1  -            137 95831at3193          -            258   0.00013   23.1   0.0   1   1   5.5e-07   0.00016   22.8   0.0     2    48    77   127    76   136 0.83 -
PC1J_TRINITY_DN35283_c5_g2_i9.p1PC1J_TRINITY_DN35283_c5_g2  -            222 95831at3193          -            258   0.00014   23.0   1.5   1   1   1.2e-06   0.00034   21.7   0.1     3    45    67   112    65   121 0.81 -
PC1A_TRINITY_DN40258_c1_g1_i3.p1PC1A_TRINITY_DN40258_c1_g1  -            223 95831at3193          -            258   0.00014   22.9   0.0   1   1   6.6e-07   0.00019   22.5   0.0     3    76   142   217   140   219 0.83 -
PC2J_TRINITY_DN45450_c1_g7_i3.p1PC2J_TRINITY_DN45450_c1_g7  -            142 95831at3193          -            258   0.00015   22.9   0.0   1   1   6.2e-07   0.00018   22.6   0.0     2    75    50   125    49   128 0.83 -
PC2A_TRINITY_DN14399_c0_g1_i1.p1PC2A_TRINITY_DN14399_c0_g1  -            146 95831at3193          -            258   0.00019   22.6   0.0   1   1   7.6e-07   0.00022   22.3   0.0     2    75    63   138    62   141 0.84 -
PC3J_TRINITY_DN30004_c0_g1_i1.p1PC3J_TRINITY_DN30004_c0_g1  -            130 95831at3193          -            258   0.00021   22.4   0.4   1   1   1.8e-06   0.00052   21.1   0.1     2    51    66   119    65   123 0.85 -
PC1A_TRINITY_DN36706_c0_g1_i1.p1PC1A_TRINITY_DN36706_c0_g1  -            150 95831at3193          -            258   0.00022   22.3   0.0   1   1   9.2e-07   0.00027   22.1   0.0     3    77    47   123    45   125 0.83 -
PC1J_TRINITY_DN35401_c3_g3_i1.p1PC1J_TRINITY_DN35401_c3_g3  -            176 95831at3193          -            258   0.00023   22.3   0.0   1   1   1.3e-06   0.00038   21.6   0.0     3    52    35    88    33   100 0.87 -
PC2J_TRINITY_DN43860_c0_g1_i12.p1PC2J_TRINITY_DN43860_c0_g1 -            156 95831at3193          -            258   0.00026   22.1   0.0   1   1   1.1e-06   0.00032   21.8   0.0     3    47    72   114    70   138 0.84 -
PC2A_TRINITY_DN34538_c1_g2_i3.p1PC2A_TRINITY_DN34538_c1_g2  -            155 95831at3193          -            258   0.00028   22.0   0.1   1   1   1.1e-06   0.00033   21.8   0.1     2    52    31    83    30   108 0.77 -
PC3J_TRINITY_DN44028_c0_g2_i2.p1PC3J_TRINITY_DN44028_c0_g2  -            165 95831at3193          -            258    0.0003   21.9   0.0   1   1   1.3e-06   0.00039   21.5   0.0     3    50    59   110    57   125 0.87 -
PC3A_TRINITY_DN41511_c1_g1_i27.p1PC3A_TRINITY_DN41511_c1_g1 -            205 95831at3193          -            258    0.0004   21.5   0.0   1   1   1.9e-06   0.00056   21.0   0.0     2    72   107   179   106   182 0.81 -
PC2J_TRINITY_DN41001_c0_g4_i2.p1PC2J_TRINITY_DN41001_c0_g4  -            189 95831at3193          -            258    0.0004   21.5   0.1   1   1   1.7e-06    0.0005   21.2   0.1     2    52    48   100    47   125 0.77 -
PC3A_TRINITY_DN39879_c2_g2_i1.p1PC3A_TRINITY_DN39879_c2_g2  -            125 95831at3193          -            258   0.00047   21.3   0.0   1   1   1.9e-06   0.00056   21.0   0.0     3    88    23   108    21   113 0.81 -
PC2J_TRINITY_DN45545_c2_g2_i10.p1PC2J_TRINITY_DN45545_c2_g2 -            144 95831at3193          -            258   0.00049   21.2   0.1   1   1     2e-06   0.00058   21.0   0.1     2    46    72   120    71   135 0.85 -
PC2J_TRINITY_DN37875_c0_g2_i9.p1PC2J_TRINITY_DN37875_c0_g2  -            197 95831at3193          -            258   0.00051   21.2   0.0   1   1   2.6e-06   0.00077   20.6   0.0     2    52    87   141    86   164 0.75 -
PC3J_TRINITY_DN47844_c2_g1_i1.p1PC3J_TRINITY_DN47844_c2_g1  -            105 95831at3193          -            258   0.00055   21.0   0.1   1   1   2.2e-06   0.00063   20.9   0.1     2    47    30    79    29    89 0.80 -
PC1J_TRINITY_DN41135_c1_g4_i5.p1PC1J_TRINITY_DN41135_c1_g4  -            101 95831at3193          -            258   0.00056   21.0   0.0   1   1   2.1e-06    0.0006   20.9   0.0     2    76     8    84     7    95 0.84 -
PC1J_TRINITY_DN32770_c0_g1_i1.p2PC1J_TRINITY_DN32770_c0_g1  -            103 95831at3193          -            258   0.00058   21.0   0.0   1   1   3.3e-06   0.00096   20.3   0.0     3    64    32    95    30   100 0.85 -
PC2J_TRINITY_DN37941_c2_g1_i7.p1PC2J_TRINITY_DN37941_c2_g1  -            122 95831at3193          -            258   0.00064   20.8   0.0   1   1   2.5e-06   0.00073   20.6   0.0     2    59    18    80    17    88 0.75 -
PC1A_TRINITY_DN38149_c1_g1_i2.p1PC1A_TRINITY_DN38149_c1_g1  -            142 95831at3193          -            258   0.00066   20.8   0.0   1   1   2.9e-06   0.00084   20.4   0.0     3    48    44    93    42   106 0.83 -
PC2A_TRINITY_DN35889_c0_g1_i1.p1PC2A_TRINITY_DN35889_c0_g1  -            213 95831at3193          -            258    0.0009   20.3   0.0   1   1   9.4e-06    0.0027   18.8   0.0     3    47    17    65    15    73 0.84 -
PC2J_TRINITY_DN42613_c0_g1_i7.p1PC2J_TRINITY_DN42613_c0_g1  -            251 95831at3193          -            258    0.0011   20.0   0.0   1   1   5.2e-06    0.0015   19.6   0.0     3    51   104   156   102   171 0.81 -
PC3A_TRINITY_DN36306_c3_g2_i4.p1PC3A_TRINITY_DN36306_c3_g2  -            112 95831at3193          -            258    0.0011   20.0   0.0   1   1   4.4e-06    0.0013   19.8   0.0     2    76     8    84     7    87 0.82 -
PC3J_TRINITY_DN45573_c2_g3_i1.p1PC3J_TRINITY_DN45573_c2_g3  -            219 95831at3193          -            258    0.0012   19.9   0.1   1   2    0.0009      0.26   12.3   0.0     3    56    76   132    74   149 0.84 -
PC3J_TRINITY_DN45573_c2_g3_i1.p1PC3J_TRINITY_DN45573_c2_g3  -            219 95831at3193          -            258    0.0012   19.9   0.1   2   2      0.16        48    4.9   0.0    14    48   175   212   162   218 0.81 -
PC2A_TRINITY_DN34879_c1_g1_i14.p1PC2A_TRINITY_DN34879_c1_g1 -            113 95831at3193          -            258    0.0013   19.8   0.1   1   1   5.8e-06    0.0017   19.5   0.1     2    50    37    89    36    98 0.83 -
PC2J_TRINITY_DN45286_c0_g1_i4.p1PC2J_TRINITY_DN45286_c0_g1  -            161 95831at3193          -            258    0.0013   19.8   0.0   1   1   5.4e-06    0.0016   19.5   0.0     3    48     1    50     1    75 0.85 -
PC1J_TRINITY_DN35878_c3_g1_i8.p1PC1J_TRINITY_DN35878_c3_g1  -            143 95831at3193          -            258    0.0014   19.7   0.0   1   1   6.4e-06    0.0019   19.3   0.0     2    74    45   119    44   123 0.81 -
PC2A_TRINITY_DN34198_c2_g1_i2.p1PC2A_TRINITY_DN34198_c2_g1  -            244 95831at3193          -            258    0.0014   19.7   0.1   1   1   7.1e-06    0.0021   19.2   0.1     2    46   137   185   136   190 0.85 -
PC3J_TRINITY_DN49416_c2_g2_i1.p1PC3J_TRINITY_DN49416_c2_g2  -            113 95831at3193          -            258    0.0014   19.7   0.1   1   1   5.9e-06    0.0017   19.4   0.1     2    62    13    79    12   111 0.73 -
PC3J_TRINITY_DN42710_c0_g1_i3.p1PC3J_TRINITY_DN42710_c0_g1  -            181 95831at3193          -            258    0.0015   19.7   0.0   1   1   7.5e-06    0.0022   19.1   0.0     3    66    66   134    64   135 0.86 -
PC3J_TRINITY_DN45274_c0_g1_i4.p1PC3J_TRINITY_DN45274_c0_g1  -            221 95831at3193          -            258    0.0015   19.6   0.0   1   1   6.2e-06    0.0018   19.3   0.0     3    48    44    93    42   117 0.85 -
PC2A_TRINITY_DN31180_c4_g5_i2.p1PC2A_TRINITY_DN31180_c4_g5  -            125 95831at3193          -            258    0.0015   19.6   0.0   1   1   6.5e-06    0.0019   19.3   0.0     2    76     8    84     7    86 0.82 -
PC1A_TRINITY_DN41552_c3_g1_i4.p1PC1A_TRINITY_DN41552_c3_g1  -            181 95831at3193          -            258    0.0016   19.5   0.0   1   1   1.3e-05    0.0037   18.3   0.0     2    58   113   169   112   172 0.93 -
PC3A_TRINITY_DN41196_c4_g1_i5.p1PC3A_TRINITY_DN41196_c4_g1  -            191 95831at3193          -            258    0.0018   19.3   0.0   1   1   8.3e-06    0.0024   18.9   0.0     2    60    72   130    71   134 0.90 -
PC3J_TRINITY_DN45515_c1_g4_i1.p1PC3J_TRINITY_DN45515_c1_g4  -            175 95831at3193          -            258    0.0019   19.3   0.0   1   1   6.6e-06    0.0019   19.3   0.0     3    47    65   113    63   121 0.84 -
PC2J_TRINITY_DN37941_c2_g1_i4.p1PC2J_TRINITY_DN37941_c2_g1  -            207 95831at3193          -            258    0.0019   19.2   0.0   1   1   8.6e-06    0.0025   18.9   0.0     2    48    50    99    49   119 0.75 -
PC2J_TRINITY_DN37985_c0_g2_i20.p1PC2J_TRINITY_DN37985_c0_g2 -            107 95831at3193          -            258    0.0021   19.2   0.0   1   1   8.8e-06    0.0026   18.8   0.0     3    53    44    94    42    99 0.92 -
PC3A_TRINITY_DN40075_c1_g1_i5.p1PC3A_TRINITY_DN40075_c1_g1  -            213 95831at3193          -            258    0.0022   19.1   0.0   1   1   1.2e-05    0.0034   18.5   0.0     2    56    71   131    70   147 0.81 -
PC1J_TRINITY_DN36575_c2_g4_i1.p1PC1J_TRINITY_DN36575_c2_g4  -            218 95831at3193          -            258    0.0023   19.0   0.1   1   2     0.001      0.29   12.1   0.0     3    63    51   113    49   116 0.82 -
PC1J_TRINITY_DN36575_c2_g4_i1.p1PC1J_TRINITY_DN36575_c2_g4  -            218 95831at3193          -            258    0.0023   19.0   0.1   2   2      0.17        50    4.8   0.0     3    51   144   197   142   204 0.75 -
PC2A_TRINITY_DN30794_c5_g1_i3.p1PC2A_TRINITY_DN30794_c5_g1  -            247 95831at3193          -            258    0.0024   19.0   0.0   1   1   1.3e-05    0.0039   18.3   0.0     2    60   115   173   114   177 0.90 -
PC2A_TRINITY_DN32726_c9_g1_i3.p1PC2A_TRINITY_DN32726_c9_g1  -            137 95831at3193          -            258    0.0026   18.9   0.1   1   1   1.1e-05    0.0031   18.6   0.1     2    77    41   118    40   120 0.79 -
PC3J_TRINITY_DN47475_c2_g1_i4.p1PC3J_TRINITY_DN47475_c2_g1  -            267 95831at3193          -            258    0.0027   18.8   0.1   1   2    0.0072       2.1    9.3   0.0     3    63    42   104    40   107 0.81 -
PC3J_TRINITY_DN47475_c2_g1_i4.p1PC3J_TRINITY_DN47475_c2_g1  -            267 95831at3193          -            258    0.0027   18.8   0.1   2   2     0.024       7.1    7.6   0.1     2    42   147   190   146   214 0.81 -
PC3A_TRINITY_DN37693_c1_g1_i1.p1PC3A_TRINITY_DN37693_c1_g1  -            102 95831at3193          -            258    0.0029   18.7   0.0   1   1   1.2e-05    0.0034   18.5   0.0     2    51    30    83    29    92 0.79 -
PC1A_TRINITY_DN43090_c0_g6_i3.p1PC1A_TRINITY_DN43090_c0_g6  -            235 95831at3193          -            258     0.003   18.6   0.0   1   2     0.014       4.2    8.3   0.0   114   143    24    53     8    65 0.76 -
PC1A_TRINITY_DN43090_c0_g6_i3.p1PC1A_TRINITY_DN43090_c0_g6  -            235 95831at3193          -            258     0.003   18.6   0.0   2   2     0.017         5    8.1   0.0   115   143   154   182   138   194 0.77 -
PC3J_TRINITY_DN45515_c1_g4_i2.p1PC3J_TRINITY_DN45515_c1_g4  -            229 95831at3193          -            258    0.0031   18.6   0.0   1   1   1.1e-05    0.0031   18.6   0.0     3    47    65   113    63   121 0.84 -
PC2J_TRINITY_DN42743_c0_g1_i13.p1PC2J_TRINITY_DN42743_c0_g1 -            117 95831at3193          -            258    0.0031   18.6   0.0   1   1   1.3e-05    0.0038   18.3   0.0     2    47    26    75    25    82 0.86 -
PC3J_TRINITY_DN42357_c3_g2_i7.p1PC3J_TRINITY_DN42357_c3_g2  -            241 95831at3193          -            258    0.0037   18.3   0.0   1   2      0.07        20    6.1   0.0     2    52    11    71    10    91 0.71 -
PC3J_TRINITY_DN42357_c3_g2_i7.p1PC3J_TRINITY_DN42357_c3_g2  -            241 95831at3193          -            258    0.0037   18.3   0.0   2   2    0.0035         1   10.3   0.0     2    37   131   166   130   180 0.90 -
PC1A_TRINITY_DN41155_c1_g7_i1.p1PC1A_TRINITY_DN41155_c1_g7  -            131 95831at3193          -            258     0.004   18.2   0.0   1   1   1.7e-05    0.0049   17.9   0.0     2    50    48   100    47   105 0.83 -
PC1J_TRINITY_DN40276_c2_g3_i3.p2PC1J_TRINITY_DN40276_c2_g3  -            104 95831at3193          -            258    0.0041   18.2   0.0   1   1   1.6e-05    0.0048   18.0   0.0     2    49     3    49     2    59 0.89 -
PC1A_TRINITY_DN42252_c0_g2_i4.p1PC1A_TRINITY_DN42252_c0_g2  -            278 95831at3193          -            258    0.0042   18.1   0.0   1   1   2.1e-05    0.0061   17.6   0.0     3    47    24    66    22    78 0.87 -
PC3J_TRINITY_DN35931_c0_g1_i2.p1PC3J_TRINITY_DN35931_c0_g1  -            103 95831at3193          -            258     0.005   17.9   0.0   1   1   2.3e-05    0.0066   17.5   0.0     2    37    55    90    54    94 0.94 -
PC3A_TRINITY_DN43429_c2_g3_i5.p1PC3A_TRINITY_DN43429_c2_g3  -            139 95831at3193          -            258    0.0053   17.8   0.1   1   1   2.5e-05    0.0072   17.4   0.1     3    50    63   114    61   119 0.85 -
PC2J_TRINITY_DN38441_c2_g2_i13.p1PC2J_TRINITY_DN38441_c2_g2 -            190 95831at3193          -            258    0.0056   17.7   0.1   1   2   0.00014      0.04   14.9   0.0     3    50    36    87    34   103 0.78 -
PC2J_TRINITY_DN38441_c2_g2_i13.p1PC2J_TRINITY_DN38441_c2_g2 -            190 95831at3193          -            258    0.0056   17.7   0.1   2   2       3.2   9.4e+02    0.6   0.1   223   244   137   158   116   179 0.65 -
PC2J_TRINITY_DN45545_c2_g2_i18.p1PC2J_TRINITY_DN45545_c2_g2 -            142 95831at3193          -            258    0.0057   17.7   0.0   1   1   2.4e-05     0.007   17.4   0.0     2    59     1    60     1    74 0.86 -
PC3A_TRINITY_DN41844_c1_g1_i2.p1PC3A_TRINITY_DN41844_c1_g1  -            101 95831at3193          -            258    0.0065   17.5   0.1   1   1   2.7e-05     0.008   17.2   0.1     2    51    34    87    33    95 0.82 -
PC2J_TRINITY_DN37985_c0_g2_i21.p1PC2J_TRINITY_DN37985_c0_g2 -            191 95831at3193          -            258    0.0072   17.4   0.0   1   1   3.1e-05    0.0089   17.1   0.0     3    49    44    90    42   128 0.89 -
PC2J_TRINITY_DN43363_c2_g4_i3.p1PC2J_TRINITY_DN43363_c2_g4  -            169 95831at3193          -            258    0.0075   17.3   0.0   1   1   3.8e-05     0.011   16.8   0.0     2    51    44    97    43   106 0.86 -
PC2J_TRINITY_DN35732_c0_g1_i4.p1PC2J_TRINITY_DN35732_c0_g1  -            126 95831at3193          -            258    0.0079   17.3   0.0   1   2   0.00046      0.13   13.2   0.0     2    49    10    61     9    76 0.80 -
PC2J_TRINITY_DN35732_c0_g1_i4.p1PC2J_TRINITY_DN35732_c0_g1  -            126 95831at3193          -            258    0.0079   17.3   0.0   2   2         1     3e+02    2.2   0.0     2    23   100   121    99   125 0.89 -
PC3A_TRINITY_DN43668_c1_g3_i1.p1PC3A_TRINITY_DN43668_c1_g3  -            109 95831at3193          -            258     0.008   17.2   0.1   1   1   3.3e-05    0.0097   17.0   0.1     2    46     7    55     6    65 0.83 -
PC3J_TRINITY_DN46775_c1_g4_i3.p1PC3J_TRINITY_DN46775_c1_g4  -            329 95831at3193          -            258    0.0085   17.1   4.3   1   3         2   5.7e+02    1.3   2.7   119   185    31    98    25   108 0.78 -
PC3J_TRINITY_DN46775_c1_g4_i3.p1PC3J_TRINITY_DN46775_c1_g4  -            329 95831at3193          -            258    0.0085   17.1   4.3   2   3    0.0013      0.39   11.7   0.0     2    47   116   165   115   187 0.79 -
PC3J_TRINITY_DN46775_c1_g4_i3.p1PC3J_TRINITY_DN46775_c1_g4  -            329 95831at3193          -            258    0.0085   17.1   4.3   3   3       1.2   3.4e+02    2.0   0.0     2    41   207   250   206   265 0.74 -
PC2J_TRINITY_DN40966_c0_g3_i4.p1PC2J_TRINITY_DN40966_c0_g3  -            147 95831at3193          -            258    0.0086   17.1   0.0   1   1   3.8e-05     0.011   16.8   0.0     2    47    74   123    73   135 0.81 -
PC1J_TRINITY_DN37405_c1_g1_i1.p1PC1J_TRINITY_DN37405_c1_g1  -            119 95831at3193          -            258     0.009   17.1   0.0   1   1   3.8e-05     0.011   16.8   0.0     2    50    38    90    37   103 0.81 -
PC2J_TRINITY_DN37663_c0_g1_i1.p1PC2J_TRINITY_DN37663_c0_g1  -            216 95831at3193          -            258    0.0092   17.0   0.3   1   1     8e-05     0.023   15.7   0.0     3    48    91   139    89   150 0.87 -
PC3A_TRINITY_DN1342_c0_g1_i1.p1PC3A_TRINITY_DN1342_c0_g1    -            103 95831at3193          -            258    0.0092   17.0   0.0   1   1   3.6e-05      0.01   16.9   0.0     3    52    10    63     8    84 0.81 -
PC2A_TRINITY_DN34863_c1_g1_i1.p1PC2A_TRINITY_DN34863_c1_g1  -            134 95831at3193          -            258    0.0096   17.0   0.0   1   1   4.1e-05     0.012   16.7   0.0     3    51    41    93    39   112 0.79 -
PC3A_TRINITY_DN43089_c0_g5_i2.p1PC3A_TRINITY_DN43089_c0_g5  -            243 95831at3193          -            258     0.011   16.8   0.0   1   1     5e-05     0.015   16.4   0.0     3    76    84   158    82   169 0.77 -
PC2J_TRINITY_DN8620_c0_g1_i2.p1PC2J_TRINITY_DN8620_c0_g1    -            138 95831at3193          -            258     0.011   16.8   0.0   1   1   5.9e-05     0.017   16.1   0.0     2    36    98   132    97   136 0.94 -
PC3J_TRINITY_DN40757_c0_g1_i4.p1PC3J_TRINITY_DN40757_c0_g1  -            258 95831at3193          -            258     0.011   16.7   0.1   1   2    0.0081       2.4    9.1   0.0     3    53     4    52     2    61 0.85 -
PC3J_TRINITY_DN40757_c0_g1_i4.p1PC3J_TRINITY_DN40757_c0_g1  -            258 95831at3193          -            258     0.011   16.7   0.1   2   2       0.1        30    5.5   0.0    14    50   110   142   106   168 0.86 -
PC2J_TRINITY_DN41601_c2_g4_i2.p1PC2J_TRINITY_DN41601_c2_g4  -            106 95831at3193          -            258     0.012   16.7   0.0   1   1   5.4e-05     0.016   16.3   0.0     3    31    67    95    65   101 0.91 -
PC1J_TRINITY_DN38844_c5_g1_i8.p1PC1J_TRINITY_DN38844_c5_g1  -            177 95831at3193          -            258     0.012   16.7   0.0   1   1   6.2e-05     0.018   16.1   0.0     2    47    42    91    41    98 0.80 -
PC2J_TRINITY_DN41448_c6_g2_i1.p1PC2J_TRINITY_DN41448_c6_g2  -            209 95831at3193          -            258     0.012   16.6   0.0   1   2    0.0031       0.9   10.5   0.0     3    50    78   127    76   138 0.83 -
PC2J_TRINITY_DN41448_c6_g2_i1.p1PC2J_TRINITY_DN41448_c6_g2  -            209 95831at3193          -            258     0.012   16.6   0.0   2   2      0.32        94    3.9   0.0     3    32   175   205   173   208 0.83 -
PC2J_TRINITY_DN43903_c4_g4_i2.p1PC2J_TRINITY_DN43903_c4_g4  -            263 95831at3193          -            258     0.013   16.6   0.0   1   2     0.024       6.9    7.6   0.0     3    54     4    53     2    61 0.86 -
PC2J_TRINITY_DN43903_c4_g4_i2.p1PC2J_TRINITY_DN43903_c4_g4  -            263 95831at3193          -            258     0.013   16.6   0.0   2   2     0.037        11    7.0   0.0    13    56   109   147    99   153 0.80 -
PC1J_TRINITY_DN40276_c2_g3_i1.p1PC1J_TRINITY_DN40276_c2_g3  -            182 95831at3193          -            258     0.013   16.6   0.0   1   1   5.6e-05     0.016   16.2   0.0     2    48     3    48     2    58 0.89 -
PC2J_TRINITY_DN45545_c2_g2_i1.p1PC2J_TRINITY_DN45545_c2_g2  -            229 95831at3193          -            258     0.013   16.5   0.0   1   1   6.5e-05     0.019   16.0   0.0     2    59     1    60     1    74 0.86 -
PC2J_TRINITY_DN39118_c1_g3_i2.p1PC2J_TRINITY_DN39118_c1_g3  -            176 95831at3193          -            258     0.016   16.2   0.0   1   2   0.00088      0.26   12.3   0.0     2    39    66   104    65   117 0.86 -
PC2J_TRINITY_DN39118_c1_g3_i2.p1PC2J_TRINITY_DN39118_c1_g3  -            176 95831at3193          -            258     0.016   16.2   0.0   2   2       1.4   4.1e+02    1.8   0.0    14    40   138   165   130   173 0.80 -
PC3A_TRINITY_DN7166_c0_g1_i1.p1PC3A_TRINITY_DN7166_c0_g1    -            258 95831at3193          -            258     0.021   15.8   0.6   1   2       9.5   2.8e+03   -0.9   0.3    79    97    31    49    13    71 0.76 -
PC3A_TRINITY_DN7166_c0_g1_i1.p1PC3A_TRINITY_DN7166_c0_g1    -            258 95831at3193          -            258     0.021   15.8   0.6   2   2   0.00021     0.062   14.3   0.0     2    47   149   198   148   216 0.78 -
PC3J_TRINITY_DN39200_c3_g2_i2.p1PC3J_TRINITY_DN39200_c3_g2  -            177 95831at3193          -            258     0.022   15.8   0.0   1   1   9.8e-05     0.028   15.4   0.0     2    51     3    55     2    66 0.85 -
PC2J_TRINITY_DN42068_c2_g1_i1.p1PC2J_TRINITY_DN42068_c2_g1  -            120 95831at3193          -            258     0.024   15.7   0.0   1   1    0.0001      0.03   15.4   0.0     5    56    44   101    41   117 0.74 -
PC3J_TRINITY_DN46497_c0_g1_i10.p1PC3J_TRINITY_DN46497_c0_g1 -            326 95831at3193          -            258     0.025   15.6   0.0   1   1   0.00015     0.045   14.8   0.0     2    47    40    89    39    99 0.80 -
PC3J_TRINITY_DN45780_c1_g1_i12.p1PC3J_TRINITY_DN45780_c1_g1 -            201 95831at3193          -            258     0.029   15.4   0.0   1   1   0.00012     0.035   15.1   0.0     1    50    13    58    13    82 0.87 -
PC3J_TRINITY_DN22313_c0_g2_i1.p1PC3J_TRINITY_DN22313_c0_g2  -            101 95831at3193          -            258      0.03   15.3   0.0   1   1   0.00012     0.035   15.1   0.0     2    42     7    49     6    62 0.76 -
PC2A_TRINITY_DN33989_c3_g1_i2.p1PC2A_TRINITY_DN33989_c3_g1  -            161 95831at3193          -            258     0.032   15.3   0.0   1   1   0.00016     0.046   14.7   0.0     3    49    45    95    43   104 0.85 -
PC3J_TRINITY_DN38797_c0_g1_i2.p1PC3J_TRINITY_DN38797_c0_g1  -            216 95831at3193          -            258     0.047   14.7   0.0   1   2    0.0071       2.1    9.3   0.0     3    48    32    79    30    91 0.83 -
PC3J_TRINITY_DN38797_c0_g1_i2.p1PC3J_TRINITY_DN38797_c0_g1  -            216 95831at3193          -            258     0.047   14.7   0.0   2   2      0.48   1.4e+02    3.3   0.0     3    49   129   178   127   186 0.79 -
PC3A_TRINITY_DN31001_c0_g1_i2.p1PC3A_TRINITY_DN31001_c0_g1  -            218 95831at3193          -            258     0.052   14.6   0.1   1   1   0.00043      0.12   13.3   0.0     2    50    76   128    75   134 0.85 -
PC1A_TRINITY_DN40726_c2_g3_i2.p1PC1A_TRINITY_DN40726_c2_g3  -            381 95831at3193          -            258     0.052   14.6   0.0   1   2      0.51   1.5e+02    3.3   0.0     3    45   133   174   131   189 0.79 -
PC1A_TRINITY_DN40726_c2_g3_i2.p1PC1A_TRINITY_DN40726_c2_g3  -            381 95831at3193          -            258     0.052   14.6   0.0   2   2    0.0073       2.1    9.3   0.0     7    47   222   261   217   308 0.74 -
PC3J_TRINITY_DN39685_c0_g4_i1.p1PC3J_TRINITY_DN39685_c0_g4  -            137 95831at3193          -            258     0.053   14.6   0.6   1   1    0.0002     0.058   14.4   0.6    88   179     6    97     1   114 0.82 -
PC3J_TRINITY_DN38886_c1_g1_i2.p1PC3J_TRINITY_DN38886_c1_g1  -            258 95831at3193          -            258     0.054   14.5   0.0   1   2     0.071        21    6.0   0.0     3    49     9    56     7    81 0.81 -
PC3J_TRINITY_DN38886_c1_g1_i2.p1PC3J_TRINITY_DN38886_c1_g1  -            258 95831at3193          -            258     0.054   14.5   0.0   2   2     0.055        16    6.4   0.0     2    47   116   161   115   175 0.86 -
PC3A_TRINITY_DN35616_c5_g1_i2.p1PC3A_TRINITY_DN35616_c5_g1  -            123 95831at3193          -            258     0.056   14.5   0.0   1   1   0.00025     0.073   14.1   0.0     4    47    30    73    27    91 0.86 -
PC2A_TRINITY_DN28066_c0_g1_i3.p1PC2A_TRINITY_DN28066_c0_g1  -            105 95831at3193          -            258     0.057   14.4   0.0   1   1   0.00026     0.075   14.1   0.0    12    48    15    51    11    62 0.89 -
PC2J_TRINITY_DN18482_c0_g1_i1.p1PC2J_TRINITY_DN18482_c0_g1  -            141 95831at3193          -            258     0.057   14.4   0.0   1   1   0.00025     0.072   14.1   0.0     2    42    23    65    22    77 0.76 -
PC1J_TRINITY_DN35283_c5_g3_i1.p1PC1J_TRINITY_DN35283_c5_g3  -            125 95831at3193          -            258     0.062   14.3   0.0   1   1   0.00026     0.076   14.0   0.0     4    47    62   105    59   123 0.86 -
PC1J_TRINITY_DN37405_c1_g1_i2.p1PC1J_TRINITY_DN37405_c1_g1  -            102 95831at3193          -            258     0.069   14.2   0.0   1   1   0.00029     0.083   13.9   0.0     2    46    38    86    37    92 0.82 -
PC1A_TRINITY_DN16026_c0_g1_i1.p1PC1A_TRINITY_DN16026_c0_g1  -            162 95831at3193          -            258     0.071   14.1   2.2   1   1   0.00032     0.093   13.7   2.2   105   185    12    92     9   123 0.84 -
PC1J_TRINITY_DN35991_c0_g2_i3.p1PC1J_TRINITY_DN35991_c0_g2  -            132 95831at3193          -            258     0.074   14.1   0.0   1   1   0.00034       0.1   13.6   0.0    12    48    61    97    50   106 0.88 -
PC3J_TRINITY_DN39186_c1_g1_i1.p1PC3J_TRINITY_DN39186_c1_g1  -            136 95831at3193          -            258     0.074   14.1   0.0   1   1   0.00039      0.11   13.4   0.0     2    46    43    91    42   114 0.82 -
PC2J_TRINITY_DN35867_c2_g2_i4.p1PC2J_TRINITY_DN35867_c2_g2  -            105 95831at3193          -            258     0.075   14.0   0.1   1   1    0.0003     0.087   13.8   0.1    11    48    45    86    34   100 0.82 -
PC1J_TRINITY_DN35991_c0_g2_i4.p1PC1J_TRINITY_DN35991_c0_g2  -            137 95831at3193          -            258     0.077   14.0   0.0   1   1   0.00035       0.1   13.6   0.0    12    48    61    97    50   108 0.88 -
PC1J_TRINITY_DN33914_c1_g2_i2.p1PC1J_TRINITY_DN33914_c1_g2  -            101 95831at3193          -            258     0.078   14.0   0.0   1   1   0.00028     0.082   13.9   0.0     3    35    53    85    51   101 0.85 -
PC2A_TRINITY_DN28995_c2_g2_i7.p1PC2A_TRINITY_DN28995_c2_g2  -            136 95831at3193          -            258     0.081   13.9   0.0   1   1   0.00037      0.11   13.5   0.0     3    63    21    83    19    86 0.82 -
PC2A_TRINITY_DN35497_c1_g1_i2.p1PC2A_TRINITY_DN35497_c1_g1  -            174 95831at3193          -            258     0.087   13.8   0.0   1   1   0.00041      0.12   13.4   0.0    11    47   106   142    96   153 0.89 -
PC1J_TRINITY_DN38392_c0_g6_i2.p1PC1J_TRINITY_DN38392_c0_g6  -            299 95831at3193          -            258     0.099   13.7   0.0   1   2       1.7     5e+02    1.5   0.0     3    52     1    60     1    64 0.64 -
PC1J_TRINITY_DN38392_c0_g6_i2.p1PC1J_TRINITY_DN38392_c0_g6  -            299 95831at3193          -            258     0.099   13.7   0.0   2   2    0.0049       1.4    9.9   0.0     2    37    74   109    73   123 0.90 -
PC1A_TRINITY_DN43085_c4_g2_i3.p1PC1A_TRINITY_DN43085_c4_g2  -            148 95831at3193          -            258      0.11   13.6   0.0   1   1   0.00041      0.12   13.4   0.0     2    40    20    59    19    93 0.82 -
PC3J_TRINITY_DN39437_c0_g3_i5.p1PC3J_TRINITY_DN39437_c0_g3  -            224 95831at3193          -            258      0.12   13.4   0.0   1   1   0.00068       0.2   12.7   0.0    11    47    79   115    70   125 0.89 -
PC3J_TRINITY_DN44236_c5_g1_i5.p1PC3J_TRINITY_DN44236_c5_g1  -            203 95831at3193          -            258      0.13   13.3   0.0   1   1   0.00061      0.18   12.8   0.0     2    60    65   128    64   141 0.78 -
PC1A_TRINITY_DN39053_c0_g1_i2.p1PC1A_TRINITY_DN39053_c0_g1  -            150 95831at3193          -            258      0.13   13.3   0.0   1   1   0.00056      0.16   12.9   0.0     2    53    45   100    44   103 0.77 -
PC2J_TRINITY_DN45025_c0_g1_i13.p1PC2J_TRINITY_DN45025_c0_g1 -            133 95831at3193          -            258      0.13   13.3   0.1   1   1   0.00076      0.22   12.5   0.1     3    52    62   114    60   122 0.82 -
PC1A_TRINITY_DN44737_c5_g2_i1.p1PC1A_TRINITY_DN44737_c5_g2  -            105 95831at3193          -            258      0.13   13.2   0.0   1   1   0.00054      0.16   13.0   0.0   111   199     5    93     2   103 0.78 -
PC1A_TRINITY_DN41911_c1_g2_i7.p1PC1A_TRINITY_DN41911_c1_g2  -            131 95831at3193          -            258      0.15   13.1   0.7   1   1   0.00056      0.16   12.9   0.7   106   179    47   120    26   130 0.86 -
PC1J_TRINITY_DN39146_c1_g4_i5.p1PC1J_TRINITY_DN39146_c1_g4  -            289 95831at3193          -            258      0.15   13.1   0.1   1   2     0.014       4.2    8.3   0.0     3    47   105   151   103   161 0.85 -
PC1J_TRINITY_DN39146_c1_g4_i5.p1PC1J_TRINITY_DN39146_c1_g4  -            289 95831at3193          -            258      0.15   13.1   0.1   2   2      0.82   2.4e+02    2.6   0.0     3    51   202   253   200   259 0.81 -
PC3J_TRINITY_DN24843_c0_g1_i2.p1PC3J_TRINITY_DN24843_c0_g1  -            154 95831at3193          -            258      0.15   13.1   0.1   1   1    0.0015      0.44   11.5   0.0     8    62    20    80    14    84 0.77 -
PC3J_TRINITY_DN45188_c1_g2_i2.p1PC3J_TRINITY_DN45188_c1_g2  -            259 95831at3193          -            258      0.15   13.0   0.1   1   2      0.73   2.1e+02    2.7   0.0     3    44    45    85    43   100 0.80 -
PC3J_TRINITY_DN45188_c1_g2_i2.p1PC3J_TRINITY_DN45188_c1_g2  -            259 95831at3193          -            258      0.15   13.0   0.1   2   2     0.015       4.4    8.3   0.0     7    46   134   172   129   187 0.75 -
PC3J_TRINITY_DN39310_c0_g6_i1.p1PC3J_TRINITY_DN39310_c0_g6  -            143 95831at3193          -            258      0.16   13.0   0.2   1   2      0.72   2.1e+02    2.8   0.1    19    65     7    54     3    88 0.65 -
PC3J_TRINITY_DN39310_c0_g6_i1.p1PC3J_TRINITY_DN39310_c0_g6  -            143 95831at3193          -            258      0.16   13.0   0.2   2   2     0.015       4.3    8.3   0.0     2    35    93   126    92   133 0.91 -
PC3A_TRINITY_DN38345_c0_g1_i1.p1PC3A_TRINITY_DN38345_c0_g1  -            102 95831at3193          -            258      0.17   12.9   0.1   1   1   0.00073      0.21   12.6   0.1     5    47    41    87    38    96 0.81 -
PC1A_TRINITY_DN43085_c4_g2_i2.p1PC1A_TRINITY_DN43085_c4_g2  -            192 95831at3193          -            258      0.17   12.9   0.0   1   1   0.00069       0.2   12.6   0.0     2    40    20    59    19    93 0.82 -
PC1J_TRINITY_DN40709_c0_g4_i1.p1PC1J_TRINITY_DN40709_c0_g4  -            334 95831at3193          -            258      0.19   12.7   0.0   1   2      0.54   1.6e+02    3.2   0.0    12    50    14    51     9    70 0.75 -
PC1J_TRINITY_DN40709_c0_g4_i1.p1PC1J_TRINITY_DN40709_c0_g4  -            334 95831at3193          -            258      0.19   12.7   0.0   2   2     0.072        21    6.0   0.0     3    50   280   327   278   332 0.92 -
PC1A_TRINITY_DN345_c0_g1_i1.p1PC1A_TRINITY_DN345_c0_g1      -            124 95831at3193          -            258      0.21   12.6   0.0   1   1    0.0012      0.34   11.9   0.0     4    46    16    59    13    71 0.84 -
PC3J_TRINITY_DN44066_c0_g5_i4.p1PC3J_TRINITY_DN44066_c0_g5  -            121 95831at3193          -            258      0.21   12.6   0.5   1   2       5.2   1.5e+03   -0.1   0.2    84   116    17    52    11    55 0.68 -
PC3J_TRINITY_DN44066_c0_g5_i4.p1PC3J_TRINITY_DN44066_c0_g5  -            121 95831at3193          -            258      0.21   12.6   0.5   2   2    0.0024      0.69   10.9   0.0     3    50    55   105    53   115 0.82 -
PC1J_TRINITY_DN38070_c0_g1_i3.p1PC1J_TRINITY_DN38070_c0_g1  -            153 95831at3193          -            258      0.21   12.6   0.0   1   1   0.00089      0.26   12.3   0.0     4    54     8    58     5    70 0.84 -
PC2J_TRINITY_DN41401_c5_g1_i6.p1PC2J_TRINITY_DN41401_c5_g1  -            114 95831at3193          -            258      0.22   12.5   0.0   1   1   0.00083      0.24   12.4   0.0     2    37    17    52    16    72 0.90 -
PC1A_TRINITY_DN39219_c0_g1_i1.p1PC1A_TRINITY_DN39219_c0_g1  -            502 95831at3193          -            258      0.22   12.5   0.0   1   1    0.0022      0.63   11.0   0.0    11    47   339   375   330   385 0.89 -
PC2J_TRINITY_DN41401_c5_g1_i10.p1PC2J_TRINITY_DN41401_c5_g1 -            123 95831at3193          -            258      0.24   12.4   0.0   1   1     0.001      0.29   12.1   0.0     2    37    17    52    16    71 0.90 -
PC2J_TRINITY_DN43753_c3_g1_i1.p1PC2J_TRINITY_DN43753_c3_g1  -            106 95831at3193          -            258      0.28   12.2   0.0   1   1    0.0011      0.32   12.0   0.0     2    50    22    74    21    84 0.84 -
PC3A_TRINITY_DN23536_c0_g1_i1.p1PC3A_TRINITY_DN23536_c0_g1  -            150 95831at3193          -            258      0.31   12.0   0.0   1   2     0.023       6.8    7.6   0.0     4    52    28    80    25   104 0.76 -
PC3A_TRINITY_DN23536_c0_g1_i1.p1PC3A_TRINITY_DN23536_c0_g1  -            150 95831at3193          -            258      0.31   12.0   0.0   2   2      0.75   2.2e+02    2.7   0.0     3    32   114   144   112   149 0.81 -
PC3A_TRINITY_DN39478_c1_g1_i2.p1PC3A_TRINITY_DN39478_c1_g1  -            146 95831at3193          -            258      0.31   12.0   0.0   1   1    0.0013      0.39   11.7   0.0     3    49    77   127    75   138 0.82 -
PC3J_TRINITY_DN47736_c0_g4_i4.p1PC3J_TRINITY_DN47736_c0_g4  -            109 95831at3193          -            258      0.33   12.0   0.0   1   1    0.0013      0.38   11.7   0.0     3    51    26    81    24    94 0.83 -
PC2J_TRINITY_DN44812_c1_g1_i1.p1PC2J_TRINITY_DN44812_c1_g1  -            165 95831at3193          -            258      0.35   11.9   0.0   1   1    0.0015      0.43   11.6   0.0     8    73    18    80    14   111 0.64 -
PC2J_TRINITY_DN42990_c1_g5_i5.p1PC2J_TRINITY_DN42990_c1_g5  -            206 95831at3193          -            258      0.36   11.8   0.2   1   1    0.0023      0.66   10.9   0.0     3    53   135   185   133   192 0.88 -
PC1A_TRINITY_DN44611_c2_g2_i3.p1PC1A_TRINITY_DN44611_c2_g2  -            107 95831at3193          -            258      0.43   11.6   0.0   1   1    0.0025      0.74   10.8   0.0     3    48    44    91    42    97 0.84 -
PC2J_TRINITY_DN35958_c1_g1_i1.p1PC2J_TRINITY_DN35958_c1_g1  -            171 95831at3193          -            258      0.46   11.5   0.0   1   1     0.003      0.87   10.6   0.0     2    46    97   145    96   155 0.74 -
PC3J_TRINITY_DN44875_c0_g2_i3.p1PC3J_TRINITY_DN44875_c0_g2  -            171 95831at3193          -            258      0.46   11.5   0.0   1   1     0.002      0.57   11.2   0.0     2    46    40    91    39   100 0.76 -
PC1J_TRINITY_DN40232_c2_g4_i2.p1PC1J_TRINITY_DN40232_c2_g4  -            169 95831at3193          -            258      0.47   11.4   0.0   1   1    0.0029      0.85   10.6   0.0     2    46    66   114    65   124 0.74 -
PC2A_TRINITY_DN29690_c0_g2_i6.p2PC2A_TRINITY_DN29690_c0_g2  -            148 95831at3193          -            258      0.47   11.4   0.0   1   1    0.0021      0.62   11.0   0.0     3    48    36    85    34    93 0.85 -
PC1J_TRINITY_DN38392_c0_g6_i1.p1PC1J_TRINITY_DN38392_c0_g6  -            189 95831at3193          -            258       0.6   11.1   0.0   1   2      0.51   1.5e+02    3.2   0.0     3    52     1    60     1    80 0.68 -
PC1J_TRINITY_DN38392_c0_g6_i1.p1PC1J_TRINITY_DN38392_c0_g6  -            189 95831at3193          -            258       0.6   11.1   0.0   2   2     0.085        25    5.8   0.0     2    27   120   145   119   152 0.92 -
PC3A_TRINITY_DN41196_c4_g1_i4.p1PC3A_TRINITY_DN41196_c4_g1  -            201 95831at3193          -            258      0.61   11.1   0.3   1   2       1.5   4.2e+02    1.7   0.0    26    63     3    42     1    44 0.70 -
PC3A_TRINITY_DN41196_c4_g1_i4.p1PC3A_TRINITY_DN41196_c4_g1  -            201 95831at3193          -            258      0.61   11.1   0.3   2   2     0.035        10    7.1   0.1     3    42    73   115    71   125 0.84 -
PC2J_TRINITY_DN33597_c0_g1_i1.p1PC2J_TRINITY_DN33597_c0_g1  -            168 95831at3193          -            258      0.65   11.0   0.0   1   1     0.003      0.88   10.5   0.0    11    47    37    73    27    84 0.87 -
PC3A_TRINITY_DN42801_c0_g1_i14.p1PC3A_TRINITY_DN42801_c0_g1 -            238 95831at3193          -            258      0.71   10.8   0.0   1   1    0.0032      0.94   10.4   0.0     3    45   133   179   131   193 0.75 -
PC3J_TRINITY_DN44776_c2_g2_i1.p1PC3J_TRINITY_DN44776_c2_g2  -            115 95831at3193          -            258      0.73   10.8   0.0   1   1    0.0032      0.92   10.5   0.0   111   184     5    79     2    86 0.83 -
PC3A_TRINITY_DN43246_c0_g7_i1.p1PC3A_TRINITY_DN43246_c0_g7  -            140 95831at3193          -            258      0.82   10.6   0.0   1   1    0.0035         1   10.3   0.0     3    49    46    96    44   108 0.84 -
#
# Program:         hmmsearch
# Version:         3.2.1 (June 2018)
# Pipeline mode:   SEARCH
# Query file:      /isg/shared/databases/BUSCO/odb10/embryophyta_odb10/hmms/95831at3193.hmm
# Target file:     Pine_final_annotations_no_contam_lvl0.faa
# Option settings: /usr/local/bin/hmmsearch --domtblout /labs/Wegrzyn/Juniper_Pine/BUSCO/NEW/busco_pine/run_embryophyta_odb10/hmmer_output/95831at3193.out --cpu 1 /isg/shared/databases/BUSCO/odb10/embryophyta_odb10/hmms/95831at3193.hmm Pine_final_annotations_no_contam_lvl0.faa 
# Current dir:     /labs/Wegrzyn/Juniper_Pine/BUSCO/NEW
# Date:            Thu Aug  6 15:13:45 2020
# [ok]
