#                                                                                                                  --- full sequence --- -------------- this domain -------------   hmm coord   ali coord   env coord
# target name                                              accession   tlen query name           accession   qlen   E-value  score  bias   #  of  c-Evalue  i-Evalue  score  bias  from    to  from    to  from    to  acc description of target
#                                      ------------------- ---------- ----- -------------------- ---------- ----- --------- ------ ----- --- --- --------- --------- ------ ----- ----- ----- ----- ----- ----- ----- ---- ---------------------
PC1A_TRINITY_DN11184_c0_g1_i1.p1PC1A_TRINITY_DN11184_c0_g1 -            137 96112at3193          -            361   1.5e-48  167.7   0.9   1   1   1.1e-52   1.7e-48  167.5   0.9     2   108    25   137    24   137 0.93 -
PC3J_TRINITY_DN14269_c0_g1_i1.p1PC3J_TRINITY_DN14269_c0_g1 -            115 96112at3193          -            361   1.8e-32  114.7   0.3   1   1   3.2e-36   5.1e-32  113.3   0.3   156   252     1   115     1   115 0.83 -
PC3A_TRINITY_DN43914_c0_g2_i8.p1PC3A_TRINITY_DN43914_c0_g2 -            410 96112at3193          -            361   5.8e-05   24.3   0.5   1   1   5.5e-09   8.7e-05   23.7   0.5    12   207    26   225    17   279 0.77 -
PC2J_TRINITY_DN8313_c0_g1_i1.p1PC2J_TRINITY_DN8313_c0_g1   -            105 96112at3193          -            361      0.21   12.5   0.2   1   1   1.4e-05      0.22   12.5   0.2    62   127    33   101    14   105 0.80 -
#
# Program:         hmmsearch
# Version:         3.2.1 (June 2018)
# Pipeline mode:   SEARCH
# Query file:      /isg/shared/databases/BUSCO/odb10/embryophyta_odb10/hmms/96112at3193.hmm
# Target file:     Pine_final_annotations_no_contam_lvl0.faa
# Option settings: /usr/local/bin/hmmsearch --domtblout /labs/Wegrzyn/Juniper_Pine/BUSCO/NEW/busco_pine/run_embryophyta_odb10/hmmer_output/96112at3193.out --cpu 1 /isg/shared/databases/BUSCO/odb10/embryophyta_odb10/hmms/96112at3193.hmm Pine_final_annotations_no_contam_lvl0.faa 
# Current dir:     /labs/Wegrzyn/Juniper_Pine/BUSCO/NEW
# Date:            Thu Aug  6 15:13:46 2020
# [ok]
