Query Sequence	Frame	Subject Sequence	Percent Identical	Alignment Length	Mismatches	Gap Openings	Query Start	Query End	Subject Start	Subject End	E Value	Coverage	Description	Species	Taxonomic Lineage	Origin Database	Contaminant	Informative	Seed Ortholog	Seed E-Value	Seed Score	Predicted Gene	Tax Scope	Tax Scope Max	Member OGs	KEGG Terms	GO Biological	GO Cellular	GO Molecular	
JF3A_TRINITY_DN55240_c0_g1_i1.p2JF3A_TRINITY_DN55240_c0_g1~~JF3A_TRINITY_DN55240_c0_g1_i1.p2ORFtype:5prime_partiallen:124(+),score=9.76,Ac81|PF05820.11|0.12JF3A_TRINITY_DN55240_c0_g1_i1:1-372(+)																														
JF2A_TRINITY_DN14682_c0_g1_i1.p1JF2A_TRINITY_DN14682_c0_g1~~JF2A_TRINITY_DN14682_c0_g1_i1.p1ORFtype:internallen:103(-),score=15.53,peroxidase|PF00141.23|7.3e-14JF2A_TRINITY_DN14682_c0_g1_i1:3-308(-)																			39946.BGIOSGA011160-PA	2.90e-22	109.8		Viridiplantae	virNOG[6]	0IP2G@euNOG,0TWZG@lilNOG,0YC4V@NOG,15RQM@poaNOG,1BIFE@strNOG,1DWCB@virNOG	360,940,1100,1110	GO:0000302-response to reactive oxygen species(L=4),GO:0006950-response to stress(L=2),GO:0006979-response to oxidative stress(L=3),GO:0008150-biological_process(L=0),GO:0008152-metabolic process(L=1),GO:0009056-catabolic process(L=2),GO:0009987-cellular process(L=1),GO:0010035-response to inorganic substance(L=3),GO:0033554-cellular response to stress(L=3),GO:0034599-cellular response to oxidative stress(L=4),GO:0034614-cellular response to reactive oxygen species(L=5),GO:0042221-response to chemical(L=2),GO:0042542-response to hydrogen peroxide(L=4),GO:0042743-hydrogen peroxide metabolic process(L=4),GO:0042744-hydrogen peroxide catabolic process(L=4),GO:0044237-cellular metabolic process(L=2),GO:0044248-cellular catabolic process(L=3),GO:0044699-single-organism process(L=1),GO:0044710-single-organism metabolic process(L=2),GO:0044763-single-organism cellular process(L=2),GO:0050896-response to stimulus(L=1),GO:0051716-cellular response to stimulus(L=2),GO:0055114-oxidation-reduction process(L=3),GO:0070301-cellular response to hydrogen peroxide(L=6),GO:0070887-cellular response to chemical stimulus(L=3),GO:0072593-reactive oxygen species metabolic process(L=3),GO:1901700-response to oxygen-containing compound(L=3),GO:1901701-cellular response to oxygen-containing compound(L=4),	GO:0005575-cellular_component(L=0),GO:0005576-extracellular region(L=1),GO:0005622-intracellular(L=3),GO:0005623-cell(L=1),GO:0005634-nucleus(L=5),GO:0005737-cytoplasm(L=4),GO:0043226-organelle(L=1),GO:0043227-membrane-bounded organelle(L=2),GO:0043229-intracellular organelle(L=3),GO:0043231-intracellular membrane-bounded organelle(L=4),GO:0044424-intracellular part(L=3),GO:0044464-cell part(L=2),	GO:0003674-molecular_function(L=0),GO:0003824-catalytic activity(L=1),GO:0004601-peroxidase activity(L=2),GO:0005488-binding(L=1),GO:0016209-antioxidant activity(L=1),GO:0016491-oxidoreductase activity(L=2),GO:0016684-oxidoreductase activity, acting on peroxide as acceptor(L=3),GO:0020037-heme binding(L=4),GO:0043167-ion binding(L=2),GO:0043169-cation binding(L=3),GO:0046872-metal ion binding(L=4),GO:0046906-tetrapyrrole binding(L=3),GO:0097159-organic cyclic compound binding(L=2),GO:1901363-heterocyclic compound binding(L=2),	
JF1A_TRINITY_DN68610_c1_g2_i11.p1JF1A_TRINITY_DN68610_c1_g2~~JF1A_TRINITY_DN68610_c1_g2_i11.p1ORFtype:internallen:161(-),score=16.01JF1A_TRINITY_DN68610_c1_g2_i11:1-480(-)																			41431.PCC8801_0789	5.70e-41	172.6	BCHN	Bacteria	bactNOG[38]	05C78@bactNOG,0FJN2@cyaNOG,COG2710@NOG	860,1100,1110	GO:0005975-carbohydrate metabolic process(L=3),GO:0006725-cellular aromatic compound metabolic process(L=3),GO:0006778-porphyrin-containing compound metabolic process(L=4),GO:0006779-porphyrin-containing compound biosynthetic process(L=5),GO:0006807-nitrogen compound metabolic process(L=2),GO:0008150-biological_process(L=0),GO:0008152-metabolic process(L=1),GO:0009058-biosynthetic process(L=2),GO:0009987-cellular process(L=1),GO:0015979-photosynthesis(L=3),GO:0015994-chlorophyll metabolic process(L=5),GO:0015995-chlorophyll biosynthetic process(L=4),GO:0016051-carbohydrate biosynthetic process(L=4),GO:0018130-heterocycle biosynthetic process(L=4),GO:0019438-aromatic compound biosynthetic process(L=4),GO:0019685-photosynthesis, dark reaction(L=5),GO:0030493-bacteriochlorophyll metabolic process(L=7),GO:0030494-bacteriochlorophyll biosynthetic process(L=4),GO:0033013-tetrapyrrole metabolic process(L=4),GO:0033014-tetrapyrrole biosynthetic process(L=5),GO:0034641-cellular nitrogen compound metabolic process(L=3),GO:0036068-light-independent chlorophyll biosynthetic process(L=4),GO:0036070-light-independent bacteriochlorophyll biosynthetic process(L=8),GO:0042440-pigment metabolic process(L=3),GO:0044237-cellular metabolic process(L=2),GO:0044238-primary metabolic process(L=2),GO:0044249-cellular biosynthetic process(L=3),GO:0044271-cellular nitrogen compound biosynthetic process(L=4),GO:0044710-single-organism metabolic process(L=2),GO:0044723-single-organism carbohydrate metabolic process(L=3),GO:0046148-pigment biosynthetic process(L=4),GO:0046483-heterocycle metabolic process(L=3),GO:0051186-cofactor metabolic process(L=3),GO:0051188-cofactor biosynthetic process(L=4),GO:0055114-oxidation-reduction process(L=3),GO:0071704-organic substance metabolic process(L=2),GO:1901360-organic cyclic compound metabolic process(L=3),GO:1901362-organic cyclic compound biosynthetic process(L=4),GO:1901564-organonitrogen compound metabolic process(L=3),GO:1901566-organonitrogen compound biosynthetic process(L=4),GO:1901576-organic substance biosynthetic process(L=3),		GO:0003674-molecular_function(L=0),GO:0003824-catalytic activity(L=1),GO:0016491-oxidoreductase activity(L=2),GO:0016730-oxidoreductase activity, acting on iron-sulfur proteins as donors(L=3),	
JF1A_TRINITY_DN61833_c0_g3_i6.p1JF1A_TRINITY_DN61833_c0_g3~~JF1A_TRINITY_DN61833_c0_g3_i6.p1ORFtype:internallen:155(-),score=63.74,DUF1612|PF07756.12|1.1,DUF1612|PF07756.12|2.5,FumaraseC_C|PF10415.9|29,FumaraseC_C|PF10415.9|29JF1A_TRINITY_DN61833_c0_g3_i6:3-464(-)																			39946.BGIOSGA016356-PA	1.10e-12	78.6		Viridiplantae	virNOG[6]	0J4AN@euNOG,0U0R6@lilNOG,0YZXR@NOG,15XU5@poaNOG,1BVQD@strNOG,1E7RK@virNOG		GO:0008150-biological_process(L=0),GO:0009628-response to abiotic stimulus(L=2),GO:0050896-response to stimulus(L=1),GO:0080167-response to karrikin(L=3),			
JF3J_TRINITY_DN71926_c4_g2_i3.p1JF3J_TRINITY_DN71926_c4_g2~~JF3J_TRINITY_DN71926_c4_g2_i3.p1ORFtype:internallen:137(+),score=23.13JF3J_TRINITY_DN71926_c4_g2_i3:3-410(+)																			3218.PP1S29_146V6.1	3.30e-29	133.3		Viridiplantae	virNOG[6]	1BF9R@strNOG,1DT81@virNOG,COG0615@NOG,KOG2804@euNOG	440,564,1100	GO:0008150-biological_process(L=0),GO:0008152-metabolic process(L=1),GO:0009058-biosynthetic process(L=2),		GO:0003674-molecular_function(L=0),GO:0003824-catalytic activity(L=1),GO:0016740-transferase activity(L=2),GO:0016772-transferase activity, transferring phosphorus-containing groups(L=3),GO:0016779-nucleotidyltransferase activity(L=4),	
JF2J_TRINITY_DN27709_c1_g1_i1.p1JF2J_TRINITY_DN27709_c1_g1~~JF2J_TRINITY_DN27709_c1_g1_i1.p1ORFtype:internallen:128(+),score=10.54JF2J_TRINITY_DN27709_c1_g1_i1:2-382(+)																			29760.VIT_09s0002g02140.t01	1.90e-47	193.7		Viridiplantae	virNOG[6]	0XPIW@NOG,1BCAF@strNOG,1DQ18@virNOG,KOG1278@euNOG		GO:0006873-cellular ion homeostasis(L=5),GO:0006875-cellular metal ion homeostasis(L=7),GO:0006878-cellular copper ion homeostasis(L=9),GO:0006882-cellular zinc ion homeostasis(L=8),GO:0008150-biological_process(L=0),GO:0009987-cellular process(L=1),GO:0019725-cellular homeostasis(L=3),GO:0030003-cellular cation homeostasis(L=6),GO:0042592-homeostatic process(L=3),GO:0044699-single-organism process(L=1),GO:0044763-single-organism cellular process(L=2),GO:0046916-cellular transition metal ion homeostasis(L=8),GO:0048878-chemical homeostasis(L=4),GO:0050801-ion homeostasis(L=5),GO:0055065-metal ion homeostasis(L=7),GO:0055069-zinc ion homeostasis(L=8),GO:0055070-copper ion homeostasis(L=9),GO:0055076-transition metal ion homeostasis(L=8),GO:0055080-cation homeostasis(L=6),GO:0055082-cellular chemical homeostasis(L=4),GO:0065007-biological regulation(L=1),GO:0065008-regulation of biological quality(L=2),GO:0072503-cellular divalent inorganic cation homeostasis(L=7),GO:0072507-divalent inorganic cation homeostasis(L=7),	GO:0005575-cellular_component(L=0),GO:0005622-intracellular(L=3),GO:0005623-cell(L=1),GO:0005634-nucleus(L=5),GO:0005737-cytoplasm(L=4),GO:0005768-endosome(L=5),GO:0005773-vacuole(L=5),GO:0005774-vacuolar membrane(L=6),GO:0005794-Golgi apparatus(L=4),GO:0005802-trans-Golgi network(L=5),GO:0005886-plasma membrane(L=3),GO:0016020-membrane(L=1),GO:0016021-integral component of membrane(L=4),GO:0031090-organelle membrane(L=3),GO:0031224-intrinsic component of membrane(L=3),GO:0043226-organelle(L=1),GO:0043227-membrane-bounded organelle(L=2),GO:0043229-intracellular organelle(L=3),GO:0043231-intracellular membrane-bounded organelle(L=4),GO:0044422-organelle part(L=2),GO:0044424-intracellular part(L=3),GO:0044425-membrane part(L=2),GO:0044437-vacuolar part(L=5),GO:0044444-cytoplasmic part(L=4),GO:0044446-intracellular organelle part(L=3),GO:0044464-cell part(L=2),GO:0071944-cell periphery(L=3),		
JF1J_TRINITY_DN58614_c0_g1_i2.p1JF1J_TRINITY_DN58614_c0_g1~~JF1J_TRINITY_DN58614_c0_g1_i2.p1ORFtype:internallen:187(+),score=21.77,CCT|PF06203.14|0.17JF1J_TRINITY_DN58614_c0_g1_i2:3-560(+)																			3694.POPTR_0014s06570.1	1.10e-43	181.8		Viridiplantae	virNOG[6]	0IE7V@euNOG,0Y9U1@NOG,1BCE6@strNOG,1DQC8@virNOG					
JF2J_TRINITY_DN29215_c0_g3_i3.p1JF2J_TRINITY_DN29215_c0_g3~~JF2J_TRINITY_DN29215_c0_g3_i3.p1ORFtype:5prime_partiallen:136(-),score=40.70JF2J_TRINITY_DN29215_c0_g3_i3:39-446(-)																			88036.EFJ21770	7.20e-45	185.3	CLPC1	Viridiplantae	virNOG[6]	1BMER@strNOG,1DXYB@virNOG,COG0542@NOG,KOG1051@euNOG		GO:0006139-nucleobase-containing compound metabolic process(L=3),GO:0006152-purine nucleoside catabolic process(L=7),GO:0006163-purine nucleotide metabolic process(L=5),GO:0006195-purine nucleotide catabolic process(L=7),GO:0006200-obsolete ATP catabolic process(L=),GO:0006508-proteolysis(L=4),GO:0006605-protein targeting(L=6),GO:0006725-cellular aromatic compound metabolic process(L=3),GO:0006753-nucleoside phosphate metabolic process(L=4),GO:0006793-phosphorus metabolic process(L=3),GO:0006796-phosphate-containing compound metabolic process(L=4),GO:0006807-nitrogen compound metabolic process(L=2),GO:0006810-transport(L=3),GO:0006886-intracellular protein transport(L=5),GO:0006950-response to stress(L=2),GO:0006996-organelle organization(L=3),GO:0008104-protein localization(L=3),GO:0008150-biological_process(L=0),GO:0008152-metabolic process(L=1),GO:0009056-catabolic process(L=2),GO:0009116-nucleoside metabolic process(L=4),GO:0009117-nucleotide metabolic process(L=5),GO:0009119-ribonucleoside metabolic process(L=5),GO:0009123-nucleoside monophosphate metabolic process(L=5),GO:0009125-nucleoside monophosphate catabolic process(L=5),GO:0009126-purine nucleoside monophosphate metabolic process(L=7),GO:0009128-purine nucleoside monophosphate catabolic process(L=7),GO:0009141-nucleoside triphosphate metabolic process(L=5),GO:0009143-nucleoside triphosphate catabolic process(L=5),GO:0009144-purine nucleoside triphosphate metabolic process(L=7),GO:0009146-purine nucleoside triphosphate catabolic process(L=7),GO:0009150-purine ribonucleotide metabolic process(L=6),GO:0009154-purine ribonucleotide catabolic process(L=7),GO:0009158-ribonucleoside monophosphate catabolic process(L=7),GO:0009161-ribonucleoside monophosphate metabolic process(L=7),GO:0009164-nucleoside catabolic process(L=5),GO:0009166-nucleotide catabolic process(L=5),GO:0009167-purine ribonucleoside monophosphate metabolic process(L=7),GO:0009169-purine ribonucleoside monophosphate catabolic process(L=8),GO:0009199-ribonucleoside triphosphate metabolic process(L=7),GO:0009203-ribonucleoside triphosphate catabolic process(L=7),GO:0009205-purine ribonucleoside triphosphate metabolic process(L=7),GO:0009207-purine ribonucleoside triphosphate catabolic process(L=8),GO:0009259-ribonucleotide metabolic process(L=5),GO:0009261-ribonucleotide catabolic process(L=5),GO:0009657-plastid organization(L=4),GO:0009658-chloroplast organization(L=5),GO:0009889-regulation of biosynthetic process(L=4),GO:0009987-cellular process(L=1),GO:0010380-regulation of chlorophyll biosynthetic process(L=7),GO:0015031-protein transport(L=4),GO:0016043-cellular component organization(L=2),GO:0016482-cytosolic transport(L=4),GO:0017038-protein import(L=4),GO:0019222-regulation of metabolic process(L=3),GO:0019439-aromatic compound catabolic process(L=4),GO:0019538-protein metabolic process(L=3),GO:0019637-organophosphate metabolic process(L=3),GO:0019693-ribose phosphate metabolic process(L=4),GO:0031323-regulation of cellular metabolic process(L=4),GO:0031326-regulation of cellular biosynthetic process(L=5),GO:0033036-macromolecule localization(L=2),GO:0033365-protein localization to organelle(L=5),GO:0034613-cellular protein localization(L=4),GO:0034641-cellular nitrogen compound metabolic process(L=3),GO:0034655-nucleobase-containing compound catabolic process(L=4),GO:0042278-purine nucleoside metabolic process(L=5),GO:0042454-ribonucleoside catabolic process(L=7),GO:0043170-macromolecule metabolic process(L=3),GO:0044237-cellular metabolic process(L=2),GO:0044238-primary metabolic process(L=2),GO:0044248-cellular catabolic process(L=3),GO:0044270-cellular nitrogen compound catabolic process(L=4),GO:0044281-small molecule metabolic process(L=3),GO:0044699-single-organism process(L=1),GO:0044710-single-organism metabolic process(L=2),GO:0044743-intracellular protein transmembrane import(L=7),GO:0044763-single-organism cellular process(L=2),GO:0044765-single-organism transport(L=3),GO:0045036-protein targeting to chloroplast(L=7),GO:0045037-protein import into chloroplast stroma(L=7),GO:0045184-establishment of protein localization(L=4),GO:0046034-ATP metabolic process(L=7),GO:0046128-purine ribonucleoside metabolic process(L=7),GO:0046130-purine ribonucleoside catabolic process(L=7),GO:0046434-organophosphate catabolic process(L=4),GO:0046483-heterocycle metabolic process(L=3),GO:0046700-heterocycle catabolic process(L=4),GO:0046907-intracellular transport(L=3),GO:0050789-regulation of biological process(L=2),GO:0050794-regulation of cellular process(L=3),GO:0050896-response to stimulus(L=1),GO:0051171-regulation of nitrogen compound metabolic process(L=4),GO:0051179-localization(L=1),GO:0051193-regulation of cofactor metabolic process(L=5),GO:0051234-establishment of localization(L=2),GO:0051641-cellular localization(L=2),GO:0051649-establishment of localization in cell(L=3),GO:0055085-transmembrane transport(L=4),GO:0055086-nucleobase-containing small molecule metabolic process(L=3),GO:0065002-intracellular protein transmembrane transport(L=6),GO:0065007-biological regulation(L=1),GO:0070727-cellular macromolecule localization(L=3),GO:0071702-organic substance transport(L=4),GO:0071704-organic substance metabolic process(L=2),GO:0071806-protein transmembrane transport(L=5),GO:0071840-cellular component organization or biogenesis(L=1),GO:0072521-purine-containing compound metabolic process(L=4),GO:0072523-purine-containing compound catabolic process(L=5),GO:0072594-establishment of protein localization to organelle(L=6),GO:0072596-establishment of protein localization to chloroplast(L=7),GO:0072598-protein localization to chloroplast(L=6),GO:0090056-regulation of chlorophyll metabolic process(L=6),GO:1901135-carbohydrate derivative metabolic process(L=3),GO:1901136-carbohydrate derivative catabolic process(L=4),GO:1901292-nucleoside phosphate catabolic process(L=4),GO:1901360-organic cyclic compound metabolic process(L=3),GO:1901361-organic cyclic compound catabolic process(L=4),GO:1901401-regulation of tetrapyrrole metabolic process(L=5),GO:1901463-regulation of tetrapyrrole biosynthetic process(L=6),GO:1901564-organonitrogen compound metabolic process(L=3),GO:1901565-organonitrogen compound catabolic process(L=4),GO:1901575-organic substance catabolic process(L=3),GO:1901657-glycosyl compound metabolic process(L=3),GO:1901658-glycosyl compound catabolic process(L=4),	GO:0005575-cellular_component(L=0),GO:0005618-cell wall(L=4),GO:0005622-intracellular(L=3),GO:0005623-cell(L=1),GO:0005737-cytoplasm(L=4),GO:0005739-mitochondrion(L=5),GO:0009507-chloroplast(L=6),GO:0009526-plastid envelope(L=6),GO:0009528-plastid inner membrane(L=5),GO:0009532-plastid stroma(L=6),GO:0009534-chloroplast thylakoid(L=6),GO:0009535-chloroplast thylakoid membrane(L=6),GO:0009536-plastid(L=5),GO:0009570-chloroplast stroma(L=7),GO:0009579-thylakoid(L=4),GO:0009706-chloroplast inner membrane(L=6),GO:0009941-chloroplast envelope(L=7),GO:0016020-membrane(L=1),GO:0019866-organelle inner membrane(L=4),GO:0030312-external encapsulating structure(L=3),GO:0031090-organelle membrane(L=3),GO:0031897-Tic complex(L=6),GO:0031967-organelle envelope(L=3),GO:0031969-chloroplast membrane(L=6),GO:0031975-envelope(L=3),GO:0031976-plastid thylakoid(L=5),GO:0031984-organelle subcompartment(L=3),GO:0032991-macromolecular complex(L=1),GO:0034357-photosynthetic membrane(L=4),GO:0042170-plastid membrane(L=5),GO:0042651-thylakoid membrane(L=6),GO:0043226-organelle(L=1),GO:0043227-membrane-bounded organelle(L=2),GO:0043229-intracellular organelle(L=3),GO:0043231-intracellular membrane-bounded organelle(L=4),GO:0043234-protein complex(L=2),GO:0044422-organelle part(L=2),GO:0044424-intracellular part(L=3),GO:0044425-membrane part(L=2),GO:0044434-chloroplast part(L=6),GO:0044435-plastid part(L=5),GO:0044436-thylakoid part(L=4),GO:0044444-cytoplasmic part(L=4),GO:0044446-intracellular organelle part(L=3),GO:0044464-cell part(L=2),GO:0055035-plastid thylakoid membrane(L=5),GO:0071944-cell periphery(L=3),	GO:0000166-nucleotide binding(L=3),GO:0001882-nucleoside binding(L=3),GO:0001883-purine nucleoside binding(L=4),GO:0003674-molecular_function(L=0),GO:0003676-nucleic acid binding(L=3),GO:0003677-DNA binding(L=4),GO:0003824-catalytic activity(L=1),GO:0004176-ATP-dependent peptidase activity(L=5),GO:0005488-binding(L=1),GO:0005524-ATP binding(L=7),GO:0008233-peptidase activity(L=3),GO:0016462-pyrophosphatase activity(L=5),GO:0016787-hydrolase activity(L=2),GO:0016817-hydrolase activity, acting on acid anhydrides(L=3),GO:0016818-hydrolase activity, acting on acid anhydrides, in phosphorus-containing anhydrides(L=4),GO:0016887-ATPase activity(L=7),GO:0017076-purine nucleotide binding(L=4),GO:0017111-nucleoside-triphosphatase activity(L=6),GO:0030554-adenyl nucleotide binding(L=5),GO:0032549-ribonucleoside binding(L=4),GO:0032550-purine ribonucleoside binding(L=5),GO:0032553-ribonucleotide binding(L=3),GO:0032555-purine ribonucleotide binding(L=4),GO:0032559-adenyl ribonucleotide binding(L=6),GO:0035639-purine ribonucleoside triphosphate binding(L=4),GO:0036094-small molecule binding(L=2),GO:0042623-ATPase activity, coupled(L=8),GO:0043167-ion binding(L=2),GO:0043168-anion binding(L=3),GO:0070011-peptidase activity, acting on L-amino acid peptides(L=4),GO:0097159-organic cyclic compound binding(L=2),GO:1901265-nucleoside phosphate binding(L=3),GO:1901363-heterocyclic compound binding(L=2),	
JF2J_TRINITY_DN22152_c1_g1_i6.p1JF2J_TRINITY_DN22152_c1_g1~~JF2J_TRINITY_DN22152_c1_g1_i6.p1ORFtype:internallen:137(+),score=25.52JF2J_TRINITY_DN22152_c1_g1_i6:1-408(+)																			29760.VIT_19s0027g00490.t01	2.30e-30	137.1		Viridiplantae	virNOG[6]	0IG2R@euNOG,0YXYM@NOG,1BDWK@strNOG,1DRU2@virNOG	3018	GO:0008150-biological_process(L=0),GO:0008152-metabolic process(L=1),		GO:0003674-molecular_function(L=0),GO:0003824-catalytic activity(L=1),GO:0016853-isomerase activity(L=2),	
JF3J_TRINITY_DN59087_c0_g1_i3.p1JF3J_TRINITY_DN59087_c0_g1~~JF3J_TRINITY_DN59087_c0_g1_i3.p1ORFtype:internallen:152(-),score=16.84JF3J_TRINITY_DN59087_c0_g1_i3:2-454(-)																														
JF1J_TRINITY_DN63993_c4_g1_i3.p1JF1J_TRINITY_DN63993_c4_g1~~JF1J_TRINITY_DN63993_c4_g1_i3.p1ORFtype:3prime_partiallen:179(-),score=25.91JF1J_TRINITY_DN63993_c4_g1_i3:2-535(-)																			29760.VIT_02s0154g00080.t01	2.70e-47	193.7		Viridiplantae	virNOG[6]	1BGVX@strNOG,1DUSJ@virNOG,COG2132@NOG,KOG1263@euNOG		GO:0000902-cell morphogenesis(L=5),GO:0008150-biological_process(L=0),GO:0008152-metabolic process(L=1),GO:0009653-anatomical structure morphogenesis(L=3),GO:0009826-unidimensional cell growth(L=6),GO:0009932-cell tip growth(L=7),GO:0009987-cellular process(L=1),GO:0016043-cellular component organization(L=2),GO:0016049-cell growth(L=2),GO:0032502-developmental process(L=1),GO:0032989-cellular component morphogenesis(L=4),GO:0040007-growth(L=1),GO:0044699-single-organism process(L=1),GO:0044710-single-organism metabolic process(L=2),GO:0044763-single-organism cellular process(L=2),GO:0044767-single-organism developmental process(L=2),GO:0048589-developmental growth(L=2),GO:0048856-anatomical structure development(L=2),GO:0048869-cellular developmental process(L=3),GO:0055114-oxidation-reduction process(L=3),GO:0060560-developmental growth involved in morphogenesis(L=3),GO:0071840-cellular component organization or biogenesis(L=1),	GO:0005575-cellular_component(L=0),GO:0005576-extracellular region(L=1),GO:0005618-cell wall(L=4),GO:0005622-intracellular(L=3),GO:0005623-cell(L=1),GO:0005737-cytoplasm(L=4),GO:0005773-vacuole(L=5),GO:0005774-vacuolar membrane(L=6),GO:0005886-plasma membrane(L=3),GO:0005911-cell-cell junction(L=2),GO:0009505-plant-type cell wall(L=5),GO:0009506-plasmodesma(L=3),GO:0016020-membrane(L=1),GO:0030054-cell junction(L=1),GO:0030312-external encapsulating structure(L=3),GO:0031090-organelle membrane(L=3),GO:0031224-intrinsic component of membrane(L=3),GO:0031225-anchored component of membrane(L=4),GO:0031226-intrinsic component of plasma membrane(L=3),GO:0043226-organelle(L=1),GO:0043227-membrane-bounded organelle(L=2),GO:0043229-intracellular organelle(L=3),GO:0043231-intracellular membrane-bounded organelle(L=4),GO:0044422-organelle part(L=2),GO:0044424-intracellular part(L=3),GO:0044425-membrane part(L=2),GO:0044437-vacuolar part(L=5),GO:0044444-cytoplasmic part(L=4),GO:0044446-intracellular organelle part(L=3),GO:0044459-plasma membrane part(L=3),GO:0044464-cell part(L=2),GO:0046658-anchored component of plasma membrane(L=4),GO:0048046-apoplast(L=2),GO:0055044-symplast(L=1),GO:0071944-cell periphery(L=3),	GO:0003674-molecular_function(L=0),GO:0003824-catalytic activity(L=1),GO:0005488-binding(L=1),GO:0005507-copper ion binding(L=6),GO:0016491-oxidoreductase activity(L=2),GO:0043167-ion binding(L=2),GO:0043169-cation binding(L=3),GO:0046872-metal ion binding(L=4),GO:0046914-transition metal ion binding(L=5),	
JF1J_TRINITY_DN69462_c3_g1_i9.p1JF1J_TRINITY_DN69462_c3_g1~~JF1J_TRINITY_DN69462_c3_g1_i9.p1ORFtype:3prime_partiallen:325(+),score=54.16JF1J_TRINITY_DN69462_c3_g1_i9:217-1188(+)		AT1G30520.1	46.6	322	130	5	28	324	167	471	5.10e-79	91.70	AT1G30520.1 | acyl-activating enzyme 14 | Chr1:10811039-10813546 FORWARD LENGTH=560 | 201606			Juniper_UP_NEW/similarity_search/DIAMOND/blastp_Juniper_Up_final_araport_11.out	No	Yes	3218.PP1S51_215V6.1	4.30e-88	330.1	OSI_27701	Viridiplantae	virNOG[6]	1BGEV@strNOG,1DUC8@virNOG,COG0318@NOG,KOG1177@euNOG	130,1100,1110	GO:0006732-coenzyme metabolic process(L=4),GO:0008150-biological_process(L=0),GO:0008152-metabolic process(L=1),GO:0009058-biosynthetic process(L=2),GO:0009108-coenzyme biosynthetic process(L=5),GO:0009987-cellular process(L=1),GO:0042180-cellular ketone metabolic process(L=3),GO:0042181-ketone biosynthetic process(L=4),GO:0042372-phylloquinone biosynthetic process(L=7),GO:0042374-phylloquinone metabolic process(L=5),GO:0044237-cellular metabolic process(L=2),GO:0044249-cellular biosynthetic process(L=3),GO:0044281-small molecule metabolic process(L=3),GO:0044283-small molecule biosynthetic process(L=4),GO:0044710-single-organism metabolic process(L=2),GO:0044711-single-organism biosynthetic process(L=3),GO:0051186-cofactor metabolic process(L=3),GO:0051188-cofactor biosynthetic process(L=4),GO:0071704-organic substance metabolic process(L=2),GO:1901576-organic substance biosynthetic process(L=3),GO:1901661-quinone metabolic process(L=4),GO:1901663-quinone biosynthetic process(L=5),	GO:0005575-cellular_component(L=0),GO:0005622-intracellular(L=3),GO:0005623-cell(L=1),GO:0005737-cytoplasm(L=4),GO:0005777-peroxisome(L=6),GO:0005778-peroxisomal membrane(L=7),GO:0009507-chloroplast(L=6),GO:0009526-plastid envelope(L=6),GO:0009536-plastid(L=5),GO:0009941-chloroplast envelope(L=7),GO:0016020-membrane(L=1),GO:0016021-integral component of membrane(L=4),GO:0031090-organelle membrane(L=3),GO:0031224-intrinsic component of membrane(L=3),GO:0031903-microbody membrane(L=6),GO:0031967-organelle envelope(L=3),GO:0031969-chloroplast membrane(L=6),GO:0031975-envelope(L=3),GO:0042170-plastid membrane(L=5),GO:0042579-microbody(L=5),GO:0043226-organelle(L=1),GO:0043227-membrane-bounded organelle(L=2),GO:0043229-intracellular organelle(L=3),GO:0043231-intracellular membrane-bounded organelle(L=4),GO:0044422-organelle part(L=2),GO:0044424-intracellular part(L=3),GO:0044425-membrane part(L=2),GO:0044434-chloroplast part(L=6),GO:0044435-plastid part(L=5),GO:0044438-microbody part(L=5),GO:0044439-peroxisomal part(L=6),GO:0044444-cytoplasmic part(L=4),GO:0044446-intracellular organelle part(L=3),GO:0044464-cell part(L=2),	GO:0000166-nucleotide binding(L=3),GO:0001882-nucleoside binding(L=3),GO:0001883-purine nucleoside binding(L=4),GO:0003674-molecular_function(L=0),GO:0003824-catalytic activity(L=1),GO:0005488-binding(L=1),GO:0005524-ATP binding(L=7),GO:0008756-o-succinylbenzoate-CoA ligase activity(L=5),GO:0016405-CoA-ligase activity(L=4),GO:0016874-ligase activity(L=2),GO:0016877-ligase activity, forming carbon-sulfur bonds(L=3),GO:0016878-acid-thiol ligase activity(L=4),GO:0017076-purine nucleotide binding(L=4),GO:0030554-adenyl nucleotide binding(L=5),GO:0032549-ribonucleoside binding(L=4),GO:0032550-purine ribonucleoside binding(L=5),GO:0032553-ribonucleotide binding(L=3),GO:0032555-purine ribonucleotide binding(L=4),GO:0032559-adenyl ribonucleotide binding(L=6),GO:0035639-purine ribonucleoside triphosphate binding(L=4),GO:0036094-small molecule binding(L=2),GO:0043167-ion binding(L=2),GO:0043168-anion binding(L=3),GO:0097159-organic cyclic compound binding(L=2),GO:1901265-nucleoside phosphate binding(L=3),GO:1901363-heterocyclic compound binding(L=2),	
JF3J_TRINITY_DN66869_c1_g1_i7.p1JF3J_TRINITY_DN66869_c1_g1~~JF3J_TRINITY_DN66869_c1_g1_i7.p1ORFtype:completelen:189(+),score=39.39JF3J_TRINITY_DN66869_c1_g1_i7:244-810(+)																			3847.GLYMA05G33330.1	7.30e-11	72.8	CNX	Viridiplantae	virNOG[6]	0XP7T@NOG,1BMR6@strNOG,1E08J@virNOG,KOG0675@euNOG	4141,4145,4612,5166	GO:0006457-protein folding(L=2),GO:0006810-transport(L=3),GO:0008150-biological_process(L=0),GO:0008152-metabolic process(L=1),GO:0009987-cellular process(L=1),GO:0019538-protein metabolic process(L=3),GO:0043170-macromolecule metabolic process(L=3),GO:0044237-cellular metabolic process(L=2),GO:0044238-primary metabolic process(L=2),GO:0044260-cellular macromolecule metabolic process(L=3),GO:0044267-cellular protein metabolic process(L=4),GO:0051179-localization(L=1),GO:0051234-establishment of localization(L=2),GO:0071704-organic substance metabolic process(L=2),	GO:0005575-cellular_component(L=0),GO:0005618-cell wall(L=4),GO:0005622-intracellular(L=3),GO:0005623-cell(L=1),GO:0005737-cytoplasm(L=4),GO:0005739-mitochondrion(L=5),GO:0005773-vacuole(L=5),GO:0005774-vacuolar membrane(L=6),GO:0005783-endoplasmic reticulum(L=4),GO:0005789-endoplasmic reticulum membrane(L=3),GO:0005886-plasma membrane(L=3),GO:0005911-cell-cell junction(L=2),GO:0009505-plant-type cell wall(L=5),GO:0009506-plasmodesma(L=3),GO:0009507-chloroplast(L=6),GO:0009536-plastid(L=5),GO:0012505-endomembrane system(L=3),GO:0016020-membrane(L=1),GO:0016021-integral component of membrane(L=4),GO:0030054-cell junction(L=1),GO:0030312-external encapsulating structure(L=3),GO:0031090-organelle membrane(L=3),GO:0031224-intrinsic component of membrane(L=3),GO:0042175-nuclear outer membrane-endoplasmic reticulum membrane network(L=3),GO:0043226-organelle(L=1),GO:0043227-membrane-bounded organelle(L=2),GO:0043229-intracellular organelle(L=3),GO:0043231-intracellular membrane-bounded organelle(L=4),GO:0044422-organelle part(L=2),GO:0044424-intracellular part(L=3),GO:0044425-membrane part(L=2),GO:0044432-endoplasmic reticulum part(L=5),GO:0044437-vacuolar part(L=5),GO:0044444-cytoplasmic part(L=4),GO:0044446-intracellular organelle part(L=3),GO:0044464-cell part(L=2),GO:0055044-symplast(L=1),GO:0071944-cell periphery(L=3),	GO:0003674-molecular_function(L=0),GO:0005488-binding(L=1),GO:0005509-calcium ion binding(L=5),GO:0043167-ion binding(L=2),GO:0043169-cation binding(L=3),GO:0046872-metal ion binding(L=4),	
JF2J_TRINITY_DN26763_c0_g1_i12.p1JF2J_TRINITY_DN26763_c0_g1~~JF2J_TRINITY_DN26763_c0_g1_i12.p1ORFtype:5prime_partiallen:266(+),score=48.90JF2J_TRINITY_DN26763_c0_g1_i12:1-798(+)																			3847.GLYMA12G10990.1	1.70e-45	188.3		Viridiplantae	virNOG[6]	0II1F@euNOG,0YF98@NOG,1BBTR@strNOG,1DPSE@virNOG	902,1100,1110,902,1110	GO:0006629-lipid metabolic process(L=3),GO:0006714-sesquiterpenoid metabolic process(L=7),GO:0006720-isoprenoid metabolic process(L=4),GO:0006721-terpenoid metabolic process(L=5),GO:0006950-response to stress(L=2),GO:0008150-biological_process(L=0),GO:0008152-metabolic process(L=1),GO:0008299-isoprenoid biosynthetic process(L=4),GO:0008610-lipid biosynthetic process(L=4),GO:0009058-biosynthetic process(L=2),GO:0009607-response to biotic stimulus(L=2),GO:0009611-response to wounding(L=3),GO:0009625-response to insect(L=5),GO:0009719-response to endogenous stimulus(L=2),GO:0009725-response to hormone(L=3),GO:0009753-response to jasmonic acid(L=4),GO:0009987-cellular process(L=1),GO:0010033-response to organic substance(L=3),GO:0016098-monoterpenoid metabolic process(L=7),GO:0016099-monoterpenoid biosynthetic process(L=7),GO:0016106-sesquiterpenoid biosynthetic process(L=7),GO:0016114-terpenoid biosynthetic process(L=5),GO:0042214-terpene metabolic process(L=5),GO:0042221-response to chemical(L=2),GO:0043692-monoterpene metabolic process(L=7),GO:0043693-monoterpene biosynthetic process(L=7),GO:0044237-cellular metabolic process(L=2),GO:0044238-primary metabolic process(L=2),GO:0044249-cellular biosynthetic process(L=3),GO:0044255-cellular lipid metabolic process(L=3),GO:0044710-single-organism metabolic process(L=2),GO:0046246-terpene biosynthetic process(L=5),GO:0050896-response to stimulus(L=1),GO:0051704-multi-organism process(L=1),GO:0051707-response to other organism(L=4),GO:0071704-organic substance metabolic process(L=2),GO:0080027-response to herbivore(L=5),GO:1901576-organic substance biosynthetic process(L=3),GO:1901700-response to oxygen-containing compound(L=3),	GO:0005575-cellular_component(L=0),GO:0005622-intracellular(L=3),GO:0005623-cell(L=1),GO:0005737-cytoplasm(L=4),GO:0005829-cytosol(L=4),GO:0009507-chloroplast(L=6),GO:0009532-plastid stroma(L=6),GO:0009536-plastid(L=5),GO:0009570-chloroplast stroma(L=7),GO:0043226-organelle(L=1),GO:0043227-membrane-bounded organelle(L=2),GO:0043229-intracellular organelle(L=3),GO:0043231-intracellular membrane-bounded organelle(L=4),GO:0044422-organelle part(L=2),GO:0044424-intracellular part(L=3),GO:0044434-chloroplast part(L=6),GO:0044435-plastid part(L=5),GO:0044444-cytoplasmic part(L=4),GO:0044446-intracellular organelle part(L=3),GO:0044464-cell part(L=2),	GO:0000287-magnesium ion binding(L=5),GO:0003674-molecular_function(L=0),GO:0003824-catalytic activity(L=1),GO:0005488-binding(L=1),GO:0009975-cyclase activity(L=2),GO:0010333-terpene synthase activity(L=5),GO:0010334-sesquiterpene synthase activity(L=6),GO:0016829-lyase activity(L=2),GO:0016835-carbon-oxygen lyase activity(L=3),GO:0016838-carbon-oxygen lyase activity, acting on phosphates(L=4),GO:0034002-(R)-limonene synthase activity(L=6),GO:0034768-(E)-beta-ocimene synthase activity(L=5),GO:0043167-ion binding(L=2),GO:0043169-cation binding(L=3),GO:0046872-metal ion binding(L=4),GO:0050550-pinene synthase activity(L=6),GO:0050551-myrcene synthase activity(L=6),GO:0050552-(4S)-limonene synthase activity(L=6),GO:0052578-alpha-farnesene synthase activity(L=7),GO:0080015-sabinene synthase activity(L=3),	
JF2J_TRINITY_DN25588_c1_g1_i3.p1JF2J_TRINITY_DN25588_c1_g1~~JF2J_TRINITY_DN25588_c1_g1_i3.p1ORFtype:internallen:134(+),score=26.94JF2J_TRINITY_DN25588_c1_g1_i3:3-401(+)																			29760.VIT_13s0067g01290.t01	1.50e-58	230.7	CHC1	Viridiplantae	virNOG[6]	0XPH1@NOG,1BGGY@strNOG,1DUED@virNOG,KOG0985@euNOG	4142,4144,4721,4961,5016,5100	GO:0006810-transport(L=3),GO:0006886-intracellular protein transport(L=5),GO:0006897-endocytosis(L=5),GO:0008104-protein localization(L=3),GO:0008150-biological_process(L=0),GO:0009987-cellular process(L=1),GO:0015031-protein transport(L=4),GO:0016192-vesicle-mediated transport(L=4),GO:0033036-macromolecule localization(L=2),GO:0034613-cellular protein localization(L=4),GO:0044699-single-organism process(L=1),GO:0044763-single-organism cellular process(L=2),GO:0045184-establishment of protein localization(L=4),GO:0046907-intracellular transport(L=3),GO:0051179-localization(L=1),GO:0051234-establishment of localization(L=2),GO:0051641-cellular localization(L=2),GO:0051649-establishment of localization in cell(L=3),GO:0070727-cellular macromolecule localization(L=3),GO:0071702-organic substance transport(L=4),	GO:0000139-Golgi membrane(L=5),GO:0005575-cellular_component(L=0),GO:0005622-intracellular(L=3),GO:0005623-cell(L=1),GO:0005737-cytoplasm(L=4),GO:0005773-vacuole(L=5),GO:0005774-vacuolar membrane(L=6),GO:0005794-Golgi apparatus(L=4),GO:0005798-Golgi-associated vesicle(L=5),GO:0005829-cytosol(L=4),GO:0005886-plasma membrane(L=3),GO:0005905-clathrin-coated pit(L=3),GO:0005911-cell-cell junction(L=2),GO:0009506-plasmodesma(L=3),GO:0009507-chloroplast(L=6),GO:0009536-plastid(L=5),GO:0012505-endomembrane system(L=3),GO:0012506-vesicle membrane(L=4),GO:0012510-trans-Golgi network transport vesicle membrane(L=6),GO:0016020-membrane(L=1),GO:0030054-cell junction(L=1),GO:0030117-membrane coat(L=4),GO:0030118-clathrin coat(L=6),GO:0030120-vesicle coat(L=4),GO:0030125-clathrin vesicle coat(L=6),GO:0030130-clathrin coat of trans-Golgi network vesicle(L=5),GO:0030132-clathrin coat of coated pit(L=4),GO:0030133-transport vesicle(L=5),GO:0030135-coated vesicle(L=6),GO:0030136-clathrin-coated vesicle(L=7),GO:0030140-trans-Golgi network transport vesicle(L=6),GO:0030658-transport vesicle membrane(L=6),GO:0030659-cytoplasmic vesicle membrane(L=5),GO:0030660-Golgi-associated vesicle membrane(L=5),GO:0030662-coated vesicle membrane(L=6),GO:0030665-clathrin-coated vesicle membrane(L=7),GO:0031090-organelle membrane(L=3),GO:0031410-cytoplasmic vesicle(L=4),GO:0031982-vesicle(L=3),GO:0032991-macromolecular complex(L=1),GO:0043226-organelle(L=1),GO:0043227-membrane-bounded organelle(L=2),GO:0043229-intracellular organelle(L=3),GO:0043231-intracellular membrane-bounded organelle(L=4),GO:0043234-protein complex(L=2),GO:0044422-organelle part(L=2),GO:0044424-intracellular part(L=3),GO:0044425-membrane part(L=2),GO:0044431-Golgi apparatus part(L=5),GO:0044433-cytoplasmic vesicle part(L=5),GO:0044437-vacuolar part(L=5),GO:0044444-cytoplasmic part(L=4),GO:0044446-intracellular organelle part(L=3),GO:0044459-plasma membrane part(L=3),GO:0044464-cell part(L=2),GO:0048475-coated membrane(L=2),GO:0055044-symplast(L=1),GO:0071944-cell periphery(L=3),	GO:0003674-molecular_function(L=0),GO:0005198-structural molecule activity(L=1),	
JF1J_TRINITY_DN65099_c1_g1_i2.p1JF1J_TRINITY_DN65099_c1_g1~~JF1J_TRINITY_DN65099_c1_g1_i2.p1ORFtype:3prime_partiallen:382(+),score=28.01JF1J_TRINITY_DN65099_c1_g1_i2:293-1435(+)																														
JF1J_TRINITY_DN68654_c2_g1_i4.p1JF1J_TRINITY_DN68654_c2_g1~~JF1J_TRINITY_DN68654_c2_g1_i4.p1ORFtype:5prime_partiallen:246(-),score=28.13JF1J_TRINITY_DN68654_c2_g1_i4:3-740(-)		AT2G47590.1	60.5	261	60	1	16	233	118	378	4.60e-88	88.60	AT2G47590.1 | photolyase/blue-light receptor 2 | Chr2:19521888-19523732 FORWARD LENGTH=447 | 201606			Juniper_UP_NEW/similarity_search/DIAMOND/blastp_Juniper_Up_final_araport_11.out	No	Yes	29760.VIT_07s0005g00590.t01	7.30e-88	328.9	AT2G47590	Viridiplantae	virNOG[6]	1BEG4@strNOG,1DSDX@virNOG,COG0415@NOG,KOG0133@euNOG		GO:0006139-nucleobase-containing compound metabolic process(L=3),GO:0006259-DNA metabolic process(L=4),GO:0006281-DNA repair(L=5),GO:0006412-translation(L=5),GO:0006464-cellular protein modification process(L=5),GO:0006725-cellular aromatic compound metabolic process(L=3),GO:0006807-nitrogen compound metabolic process(L=2),GO:0006950-response to stress(L=2),GO:0006974-cellular response to DNA damage stimulus(L=4),GO:0007154-cell communication(L=2),GO:0007165-signal transduction(L=3),GO:0008150-biological_process(L=0),GO:0008152-metabolic process(L=1),GO:0009058-biosynthetic process(L=2),GO:0009059-macromolecule biosynthetic process(L=4),GO:0009987-cellular process(L=1),GO:0010467-gene expression(L=4),GO:0018298-protein-chromophore linkage(L=6),GO:0019538-protein metabolic process(L=3),GO:0023052-signaling(L=1),GO:0033554-cellular response to stress(L=3),GO:0034641-cellular nitrogen compound metabolic process(L=3),GO:0034645-cellular macromolecule biosynthetic process(L=4),GO:0036211-protein modification process(L=4),GO:0043170-macromolecule metabolic process(L=3),GO:0043412-macromolecule modification(L=4),GO:0044237-cellular metabolic process(L=2),GO:0044238-primary metabolic process(L=2),GO:0044249-cellular biosynthetic process(L=3),GO:0044260-cellular macromolecule metabolic process(L=3),GO:0044267-cellular protein metabolic process(L=4),GO:0044699-single-organism process(L=1),GO:0044700-single organism signaling(L=2),GO:0044763-single-organism cellular process(L=2),GO:0046483-heterocycle metabolic process(L=3),GO:0050789-regulation of biological process(L=2),GO:0050794-regulation of cellular process(L=3),GO:0050896-response to stimulus(L=1),GO:0051716-cellular response to stimulus(L=2),GO:0065007-biological regulation(L=1),GO:0071704-organic substance metabolic process(L=2),GO:0090304-nucleic acid metabolic process(L=4),GO:1901360-organic cyclic compound metabolic process(L=3),GO:1901576-organic substance biosynthetic process(L=3),	GO:0005575-cellular_component(L=0),GO:0005622-intracellular(L=3),GO:0005623-cell(L=1),GO:0005737-cytoplasm(L=4),GO:0005840-ribosome(L=5),GO:0030529-intracellular ribonucleoprotein complex(L=4),GO:0032991-macromolecular complex(L=1),GO:0043226-organelle(L=1),GO:0043228-non-membrane-bounded organelle(L=2),GO:0043229-intracellular organelle(L=3),GO:0043232-intracellular non-membrane-bounded organelle(L=3),GO:0044424-intracellular part(L=3),GO:0044444-cytoplasmic part(L=4),GO:0044464-cell part(L=2),	GO:0003674-molecular_function(L=0),GO:0003735-structural constituent of ribosome(L=2),GO:0003824-catalytic activity(L=1),GO:0003913-DNA photolyase activity(L=4),GO:0004871-signal transducer activity(L=1),GO:0004872-receptor activity(L=2),GO:0005198-structural molecule activity(L=1),GO:0009881-photoreceptor activity(L=3),GO:0016829-lyase activity(L=2),GO:0016830-carbon-carbon lyase activity(L=3),GO:0038023-signaling receptor activity(L=2),GO:0060089-molecular transducer activity(L=1),	
JF1J_TRINITY_DN71879_c0_g6_i3.p1JF1J_TRINITY_DN71879_c0_g6~~JF1J_TRINITY_DN71879_c0_g6_i3.p1ORFtype:5prime_partiallen:286(+),score=42.93JF1J_TRINITY_DN71879_c0_g6_i3:2-859(+)																			3218.PP1S134_120V6.1	2.50e-47	194.5		Viridiplantae	virNOG[6]	1BBWM@strNOG,1DPVE@virNOG,COG5271@NOG,KOG1808@euNOG	3008	GO:0006139-nucleobase-containing compound metabolic process(L=3),GO:0006152-purine nucleoside catabolic process(L=7),GO:0006163-purine nucleotide metabolic process(L=5),GO:0006195-purine nucleotide catabolic process(L=7),GO:0006200-obsolete ATP catabolic process(L=),GO:0006461-protein complex assembly(L=5),GO:0006725-cellular aromatic compound metabolic process(L=3),GO:0006753-nucleoside phosphate metabolic process(L=4),GO:0006793-phosphorus metabolic process(L=3),GO:0006796-phosphate-containing compound metabolic process(L=4),GO:0006807-nitrogen compound metabolic process(L=2),GO:0006810-transport(L=3),GO:0008150-biological_process(L=0),GO:0008152-metabolic process(L=1),GO:0009056-catabolic process(L=2),GO:0009116-nucleoside metabolic process(L=4),GO:0009117-nucleotide metabolic process(L=5),GO:0009119-ribonucleoside metabolic process(L=5),GO:0009123-nucleoside monophosphate metabolic process(L=5),GO:0009125-nucleoside monophosphate catabolic process(L=5),GO:0009126-purine nucleoside monophosphate metabolic process(L=7),GO:0009128-purine nucleoside monophosphate catabolic process(L=7),GO:0009141-nucleoside triphosphate metabolic process(L=5),GO:0009143-nucleoside triphosphate catabolic process(L=5),GO:0009144-purine nucleoside triphosphate metabolic process(L=7),GO:0009146-purine nucleoside triphosphate catabolic process(L=7),GO:0009150-purine ribonucleotide metabolic process(L=6),GO:0009154-purine ribonucleotide catabolic process(L=7),GO:0009158-ribonucleoside monophosphate catabolic process(L=7),GO:0009161-ribonucleoside monophosphate metabolic process(L=7),GO:0009164-nucleoside catabolic process(L=5),GO:0009166-nucleotide catabolic process(L=5),GO:0009167-purine ribonucleoside monophosphate metabolic process(L=7),GO:0009169-purine ribonucleoside monophosphate catabolic process(L=8),GO:0009199-ribonucleoside triphosphate metabolic process(L=7),GO:0009203-ribonucleoside triphosphate catabolic process(L=7),GO:0009205-purine ribonucleoside triphosphate metabolic process(L=7),GO:0009207-purine ribonucleoside triphosphate catabolic process(L=8),GO:0009259-ribonucleotide metabolic process(L=5),GO:0009261-ribonucleotide catabolic process(L=5),GO:0009987-cellular process(L=1),GO:0016043-cellular component organization(L=2),GO:0019439-aromatic compound catabolic process(L=4),GO:0019637-organophosphate metabolic process(L=3),GO:0019693-ribose phosphate metabolic process(L=4),GO:0022607-cellular component assembly(L=3),GO:0034641-cellular nitrogen compound metabolic process(L=3),GO:0034655-nucleobase-containing compound catabolic process(L=4),GO:0042278-purine nucleoside metabolic process(L=5),GO:0042454-ribonucleoside catabolic process(L=7),GO:0043933-macromolecular complex subunit organization(L=3),GO:0044085-cellular component biogenesis(L=2),GO:0044237-cellular metabolic process(L=2),GO:0044238-primary metabolic process(L=2),GO:0044248-cellular catabolic process(L=3),GO:0044270-cellular nitrogen compound catabolic process(L=4),GO:0044281-small molecule metabolic process(L=3),GO:0044710-single-organism metabolic process(L=2),GO:0046034-ATP metabolic process(L=7),GO:0046128-purine ribonucleoside metabolic process(L=7),GO:0046130-purine ribonucleoside catabolic process(L=7),GO:0046434-organophosphate catabolic process(L=4),GO:0046483-heterocycle metabolic process(L=3),GO:0046700-heterocycle catabolic process(L=4),GO:0051179-localization(L=1),GO:0051234-establishment of localization(L=2),GO:0055086-nucleobase-containing small molecule metabolic process(L=3),GO:0065003-macromolecular complex assembly(L=4),GO:0070271-protein complex biogenesis(L=3),GO:0071704-organic substance metabolic process(L=2),GO:0071822-protein complex subunit organization(L=4),GO:0071840-cellular component organization or biogenesis(L=1),GO:0072521-purine-containing compound metabolic process(L=4),GO:0072523-purine-containing compound catabolic process(L=5),GO:1901135-carbohydrate derivative metabolic process(L=3),GO:1901136-carbohydrate derivative catabolic process(L=4),GO:1901292-nucleoside phosphate catabolic process(L=4),GO:1901360-organic cyclic compound metabolic process(L=3),GO:1901361-organic cyclic compound catabolic process(L=4),GO:1901564-organonitrogen compound metabolic process(L=3),GO:1901565-organonitrogen compound catabolic process(L=4),GO:1901575-organic substance catabolic process(L=3),GO:1901657-glycosyl compound metabolic process(L=3),GO:1901658-glycosyl compound catabolic process(L=4),	GO:0005575-cellular_component(L=0),GO:0005622-intracellular(L=3),GO:0005623-cell(L=1),GO:0005634-nucleus(L=5),GO:0005737-cytoplasm(L=4),GO:0009507-chloroplast(L=6),GO:0009526-plastid envelope(L=6),GO:0009536-plastid(L=5),GO:0009941-chloroplast envelope(L=7),GO:0016020-membrane(L=1),GO:0016021-integral component of membrane(L=4),GO:0031224-intrinsic component of membrane(L=3),GO:0031967-organelle envelope(L=3),GO:0031975-envelope(L=3),GO:0043226-organelle(L=1),GO:0043227-membrane-bounded organelle(L=2),GO:0043229-intracellular organelle(L=3),GO:0043231-intracellular membrane-bounded organelle(L=4),GO:0044422-organelle part(L=2),GO:0044424-intracellular part(L=3),GO:0044425-membrane part(L=2),GO:0044434-chloroplast part(L=6),GO:0044435-plastid part(L=5),GO:0044444-cytoplasmic part(L=4),GO:0044446-intracellular organelle part(L=3),GO:0044464-cell part(L=2),	GO:0000166-nucleotide binding(L=3),GO:0001882-nucleoside binding(L=3),GO:0001883-purine nucleoside binding(L=4),GO:0003674-molecular_function(L=0),GO:0003824-catalytic activity(L=1),GO:0005488-binding(L=1),GO:0005524-ATP binding(L=7),GO:0016462-pyrophosphatase activity(L=5),GO:0016787-hydrolase activity(L=2),GO:0016817-hydrolase activity, acting on acid anhydrides(L=3),GO:0016818-hydrolase activity, acting on acid anhydrides, in phosphorus-containing anhydrides(L=4),GO:0016887-ATPase activity(L=7),GO:0017076-purine nucleotide binding(L=4),GO:0017111-nucleoside-triphosphatase activity(L=6),GO:0030554-adenyl nucleotide binding(L=5),GO:0032549-ribonucleoside binding(L=4),GO:0032550-purine ribonucleoside binding(L=5),GO:0032553-ribonucleotide binding(L=3),GO:0032555-purine ribonucleotide binding(L=4),GO:0032559-adenyl ribonucleotide binding(L=6),GO:0035639-purine ribonucleoside triphosphate binding(L=4),GO:0036094-small molecule binding(L=2),GO:0043167-ion binding(L=2),GO:0043168-anion binding(L=3),GO:0097159-organic cyclic compound binding(L=2),GO:1901265-nucleoside phosphate binding(L=3),GO:1901363-heterocyclic compound binding(L=2),	
JF2J_TRINITY_DN22957_c0_g1_i5.p1JF2J_TRINITY_DN22957_c0_g1~~JF2J_TRINITY_DN22957_c0_g1_i5.p1ORFtype:5prime_partiallen:183(-),score=24.42JF2J_TRINITY_DN22957_c0_g1_i5:145-693(-)																			29760.VIT_08s0007g01450.t01	2.30e-09	67.8		Viridiplantae	virNOG[6]	0IQY1@euNOG,0ZDTK@NOG,1BQ08@strNOG,1E1UI@virNOG					
JF2J_TRINITY_DN24505_c0_g1_i3.p1JF2J_TRINITY_DN24505_c0_g1~~JF2J_TRINITY_DN24505_c0_g1_i3.p1ORFtype:internallen:175(+),score=31.92JF2J_TRINITY_DN24505_c0_g1_i3:1-522(+)																			4641.GSMUA_Achr9P30420_001	7.60e-47	192.2	OSI_39096	Viridiplantae	virNOG[6]	0TWIR@lilNOG,1BI9B@strNOG,1DW6A@virNOG,COG0531@NOG,KOG1286@euNOG		GO:0003333-amino acid transmembrane transport(L=6),GO:0006810-transport(L=3),GO:0006811-ion transport(L=4),GO:0006812-cation transport(L=5),GO:0006820-anion transport(L=5),GO:0006835-dicarboxylic acid transport(L=7),GO:0006865-amino acid transport(L=5),GO:0008150-biological_process(L=0),GO:0009987-cellular process(L=1),GO:0015711-organic anion transport(L=5),GO:0015800-acidic amino acid transport(L=6),GO:0015802-basic amino acid transport(L=6),GO:0015807-L-amino acid transport(L=6),GO:0015809-arginine transport(L=6),GO:0015813-L-glutamate transport(L=7),GO:0015819-lysine transport(L=6),GO:0015849-organic acid transport(L=4),GO:0034220-ion transmembrane transport(L=5),GO:0043090-amino acid import(L=6),GO:0043091-L-arginine import(L=8),GO:0043092-L-amino acid import(L=7),GO:0044699-single-organism process(L=1),GO:0044763-single-organism cellular process(L=2),GO:0044765-single-organism transport(L=3),GO:0046942-carboxylic acid transport(L=7),GO:0051179-localization(L=1),GO:0051234-establishment of localization(L=2),GO:0051938-L-glutamate import(L=8),GO:0055085-transmembrane transport(L=4),GO:0071702-organic substance transport(L=4),GO:0071705-nitrogen compound transport(L=4),GO:0090467-arginine import(L=7),GO:1902023-L-arginine transport(L=7),	GO:0005575-cellular_component(L=0),GO:0005623-cell(L=1),GO:0005886-plasma membrane(L=3),GO:0016020-membrane(L=1),GO:0016021-integral component of membrane(L=4),GO:0031224-intrinsic component of membrane(L=3),GO:0044425-membrane part(L=2),GO:0044464-cell part(L=2),GO:0071944-cell periphery(L=3),	GO:0003674-molecular_function(L=0),GO:0005215-transporter activity(L=1),GO:0005310-dicarboxylic acid transmembrane transporter activity(L=6),GO:0005313-L-glutamate transmembrane transporter activity(L=8),GO:0005342-organic acid transmembrane transporter activity(L=4),GO:0008324-cation transmembrane transporter activity(L=5),GO:0008509-anion transmembrane transporter activity(L=5),GO:0008514-organic anion transmembrane transporter activity(L=6),GO:0015075-ion transmembrane transporter activity(L=4),GO:0015171-amino acid transmembrane transporter activity(L=6),GO:0015172-acidic amino acid transmembrane transporter activity(L=7),GO:0015174-basic amino acid transmembrane transporter activity(L=7),GO:0015179-L-amino acid transmembrane transporter activity(L=7),GO:0015181-arginine transmembrane transporter activity(L=6),GO:0015189-L-lysine transmembrane transporter activity(L=6),GO:0022857-transmembrane transporter activity(L=2),GO:0022891-substrate-specific transmembrane transporter activity(L=3),GO:0022892-substrate-specific transporter activity(L=2),GO:0046943-carboxylic acid transmembrane transporter activity(L=5),	
