Query Sequence	Frame	Subject Sequence	Percent Identical	Alignment Length	Mismatches	Gap Openings	Query Start	Query End	Subject Start	Subject End	E Value	Coverage	Description	Species	Taxonomic Lineage	Origin Database	Contaminant	Informative	Seed Ortholog	Seed E-Value	Seed Score	Predicted Gene	Tax Scope	Tax Scope Max	Member OGs	KEGG Terms	GO Biological	GO Cellular	GO Molecular	
JF3A_TRINITY_DN55240_c0_g1_i1.p2JF3A_TRINITY_DN55240_c0_g1~~JF3A_TRINITY_DN55240_c0_g1_i1.p2ORFtype:5prime_partiallen:124(+),score=9.76,Ac81|PF05820.11|0.12JF3A_TRINITY_DN55240_c0_g1_i1:1-372(+)																														
JF2A_TRINITY_DN14682_c0_g1_i1.p1JF2A_TRINITY_DN14682_c0_g1~~JF2A_TRINITY_DN14682_c0_g1_i1.p1ORFtype:internallen:103(-),score=15.53,peroxidase|PF00141.23|7.3e-14JF2A_TRINITY_DN14682_c0_g1_i1:3-308(-)																			39946.BGIOSGA011160-PA	2.90e-22	109.8		Viridiplantae	virNOG[6]	0IP2G@euNOG,0TWZG@lilNOG,0YC4V@NOG,15RQM@poaNOG,1BIFE@strNOG,1DWCB@virNOG	360,940,1100,1110	GO:0000302-response to reactive oxygen species(L=4),GO:0034599-cellular response to oxidative stress(L=4),GO:0042542-response to hydrogen peroxide(L=4),GO:0042743-hydrogen peroxide metabolic process(L=4),GO:0042744-hydrogen peroxide catabolic process(L=4),GO:1901701-cellular response to oxygen-containing compound(L=4),	GO:0005737-cytoplasm(L=4),GO:0043231-intracellular membrane-bounded organelle(L=4),	GO:0020037-heme binding(L=4),GO:0046872-metal ion binding(L=4),	
JF1A_TRINITY_DN68610_c1_g2_i11.p1JF1A_TRINITY_DN68610_c1_g2~~JF1A_TRINITY_DN68610_c1_g2_i11.p1ORFtype:internallen:161(-),score=16.01JF1A_TRINITY_DN68610_c1_g2_i11:1-480(-)																			41431.PCC8801_0789	5.70e-41	172.6	BCHN	Bacteria	bactNOG[38]	05C78@bactNOG,0FJN2@cyaNOG,COG2710@NOG	860,1100,1110	GO:0006778-porphyrin-containing compound metabolic process(L=4),GO:0015995-chlorophyll biosynthetic process(L=4),GO:0016051-carbohydrate biosynthetic process(L=4),GO:0018130-heterocycle biosynthetic process(L=4),GO:0019438-aromatic compound biosynthetic process(L=4),GO:0030494-bacteriochlorophyll biosynthetic process(L=4),GO:0033013-tetrapyrrole metabolic process(L=4),GO:0036068-light-independent chlorophyll biosynthetic process(L=4),GO:0044271-cellular nitrogen compound biosynthetic process(L=4),GO:0046148-pigment biosynthetic process(L=4),GO:0051188-cofactor biosynthetic process(L=4),GO:1901362-organic cyclic compound biosynthetic process(L=4),GO:1901566-organonitrogen compound biosynthetic process(L=4),			
JF1A_TRINITY_DN61833_c0_g3_i6.p1JF1A_TRINITY_DN61833_c0_g3~~JF1A_TRINITY_DN61833_c0_g3_i6.p1ORFtype:internallen:155(-),score=63.74,DUF1612|PF07756.12|1.1,DUF1612|PF07756.12|2.5,FumaraseC_C|PF10415.9|29,FumaraseC_C|PF10415.9|29JF1A_TRINITY_DN61833_c0_g3_i6:3-464(-)																			39946.BGIOSGA016356-PA	1.10e-12	78.6		Viridiplantae	virNOG[6]	0J4AN@euNOG,0U0R6@lilNOG,0YZXR@NOG,15XU5@poaNOG,1BVQD@strNOG,1E7RK@virNOG					
JF3J_TRINITY_DN71926_c4_g2_i3.p1JF3J_TRINITY_DN71926_c4_g2~~JF3J_TRINITY_DN71926_c4_g2_i3.p1ORFtype:internallen:137(+),score=23.13JF3J_TRINITY_DN71926_c4_g2_i3:3-410(+)																			3218.PP1S29_146V6.1	3.30e-29	133.3		Viridiplantae	virNOG[6]	1BF9R@strNOG,1DT81@virNOG,COG0615@NOG,KOG2804@euNOG	440,564,1100			GO:0016779-nucleotidyltransferase activity(L=4),	
JF2J_TRINITY_DN27709_c1_g1_i1.p1JF2J_TRINITY_DN27709_c1_g1~~JF2J_TRINITY_DN27709_c1_g1_i1.p1ORFtype:internallen:128(+),score=10.54JF2J_TRINITY_DN27709_c1_g1_i1:2-382(+)																			29760.VIT_09s0002g02140.t01	1.90e-47	193.7		Viridiplantae	virNOG[6]	0XPIW@NOG,1BCAF@strNOG,1DQ18@virNOG,KOG1278@euNOG		GO:0048878-chemical homeostasis(L=4),GO:0055082-cellular chemical homeostasis(L=4),	GO:0005737-cytoplasm(L=4),GO:0005794-Golgi apparatus(L=4),GO:0016021-integral component of membrane(L=4),GO:0043231-intracellular membrane-bounded organelle(L=4),GO:0044444-cytoplasmic part(L=4),		
JF1J_TRINITY_DN58614_c0_g1_i2.p1JF1J_TRINITY_DN58614_c0_g1~~JF1J_TRINITY_DN58614_c0_g1_i2.p1ORFtype:internallen:187(+),score=21.77,CCT|PF06203.14|0.17JF1J_TRINITY_DN58614_c0_g1_i2:3-560(+)																			3694.POPTR_0014s06570.1	1.10e-43	181.8		Viridiplantae	virNOG[6]	0IE7V@euNOG,0Y9U1@NOG,1BCE6@strNOG,1DQC8@virNOG					
JF2J_TRINITY_DN29215_c0_g3_i3.p1JF2J_TRINITY_DN29215_c0_g3~~JF2J_TRINITY_DN29215_c0_g3_i3.p1ORFtype:5prime_partiallen:136(-),score=40.70JF2J_TRINITY_DN29215_c0_g3_i3:39-446(-)																			88036.EFJ21770	7.20e-45	185.3	CLPC1	Viridiplantae	virNOG[6]	1BMER@strNOG,1DXYB@virNOG,COG0542@NOG,KOG1051@euNOG		GO:0006508-proteolysis(L=4),GO:0006753-nucleoside phosphate metabolic process(L=4),GO:0006796-phosphate-containing compound metabolic process(L=4),GO:0009116-nucleoside metabolic process(L=4),GO:0009657-plastid organization(L=4),GO:0009889-regulation of biosynthetic process(L=4),GO:0015031-protein transport(L=4),GO:0016482-cytosolic transport(L=4),GO:0017038-protein import(L=4),GO:0019439-aromatic compound catabolic process(L=4),GO:0019693-ribose phosphate metabolic process(L=4),GO:0031323-regulation of cellular metabolic process(L=4),GO:0034613-cellular protein localization(L=4),GO:0034655-nucleobase-containing compound catabolic process(L=4),GO:0044270-cellular nitrogen compound catabolic process(L=4),GO:0045184-establishment of protein localization(L=4),GO:0046434-organophosphate catabolic process(L=4),GO:0046700-heterocycle catabolic process(L=4),GO:0051171-regulation of nitrogen compound metabolic process(L=4),GO:0055085-transmembrane transport(L=4),GO:0071702-organic substance transport(L=4),GO:0072521-purine-containing compound metabolic process(L=4),GO:1901136-carbohydrate derivative catabolic process(L=4),GO:1901292-nucleoside phosphate catabolic process(L=4),GO:1901361-organic cyclic compound catabolic process(L=4),GO:1901565-organonitrogen compound catabolic process(L=4),GO:1901658-glycosyl compound catabolic process(L=4),	GO:0005618-cell wall(L=4),GO:0005737-cytoplasm(L=4),GO:0009579-thylakoid(L=4),GO:0019866-organelle inner membrane(L=4),GO:0034357-photosynthetic membrane(L=4),GO:0043231-intracellular membrane-bounded organelle(L=4),GO:0044436-thylakoid part(L=4),GO:0044444-cytoplasmic part(L=4),	GO:0001883-purine nucleoside binding(L=4),GO:0003677-DNA binding(L=4),GO:0016818-hydrolase activity, acting on acid anhydrides, in phosphorus-containing anhydrides(L=4),GO:0017076-purine nucleotide binding(L=4),GO:0032549-ribonucleoside binding(L=4),GO:0032555-purine ribonucleotide binding(L=4),GO:0035639-purine ribonucleoside triphosphate binding(L=4),GO:0070011-peptidase activity, acting on L-amino acid peptides(L=4),	
JF2J_TRINITY_DN22152_c1_g1_i6.p1JF2J_TRINITY_DN22152_c1_g1~~JF2J_TRINITY_DN22152_c1_g1_i6.p1ORFtype:internallen:137(+),score=25.52JF2J_TRINITY_DN22152_c1_g1_i6:1-408(+)																			29760.VIT_19s0027g00490.t01	2.30e-30	137.1		Viridiplantae	virNOG[6]	0IG2R@euNOG,0YXYM@NOG,1BDWK@strNOG,1DRU2@virNOG	3018				
JF3J_TRINITY_DN59087_c0_g1_i3.p1JF3J_TRINITY_DN59087_c0_g1~~JF3J_TRINITY_DN59087_c0_g1_i3.p1ORFtype:internallen:152(-),score=16.84JF3J_TRINITY_DN59087_c0_g1_i3:2-454(-)																														
JF1J_TRINITY_DN63993_c4_g1_i3.p1JF1J_TRINITY_DN63993_c4_g1~~JF1J_TRINITY_DN63993_c4_g1_i3.p1ORFtype:3prime_partiallen:179(-),score=25.91JF1J_TRINITY_DN63993_c4_g1_i3:2-535(-)																			29760.VIT_02s0154g00080.t01	2.70e-47	193.7		Viridiplantae	virNOG[6]	1BGVX@strNOG,1DUSJ@virNOG,COG2132@NOG,KOG1263@euNOG		GO:0032989-cellular component morphogenesis(L=4),	GO:0005618-cell wall(L=4),GO:0005737-cytoplasm(L=4),GO:0031225-anchored component of membrane(L=4),GO:0043231-intracellular membrane-bounded organelle(L=4),GO:0044444-cytoplasmic part(L=4),GO:0046658-anchored component of plasma membrane(L=4),	GO:0046872-metal ion binding(L=4),	
JF1J_TRINITY_DN69462_c3_g1_i9.p1JF1J_TRINITY_DN69462_c3_g1~~JF1J_TRINITY_DN69462_c3_g1_i9.p1ORFtype:3prime_partiallen:325(+),score=54.16JF1J_TRINITY_DN69462_c3_g1_i9:217-1188(+)		AT1G30520.1	46.6	322	130	5	28	324	167	471	5.10e-79	91.70	AT1G30520.1 | acyl-activating enzyme 14 | Chr1:10811039-10813546 FORWARD LENGTH=560 | 201606			Juniper_UP_NEW/similarity_search/DIAMOND/blastp_Juniper_Up_final_araport_11.out	No	Yes	3218.PP1S51_215V6.1	4.30e-88	330.1	OSI_27701	Viridiplantae	virNOG[6]	1BGEV@strNOG,1DUC8@virNOG,COG0318@NOG,KOG1177@euNOG	130,1100,1110	GO:0006732-coenzyme metabolic process(L=4),GO:0042181-ketone biosynthetic process(L=4),GO:0044283-small molecule biosynthetic process(L=4),GO:0051188-cofactor biosynthetic process(L=4),GO:1901661-quinone metabolic process(L=4),	GO:0005737-cytoplasm(L=4),GO:0016021-integral component of membrane(L=4),GO:0043231-intracellular membrane-bounded organelle(L=4),GO:0044444-cytoplasmic part(L=4),	GO:0001883-purine nucleoside binding(L=4),GO:0016405-CoA-ligase activity(L=4),GO:0016878-acid-thiol ligase activity(L=4),GO:0017076-purine nucleotide binding(L=4),GO:0032549-ribonucleoside binding(L=4),GO:0032555-purine ribonucleotide binding(L=4),GO:0035639-purine ribonucleoside triphosphate binding(L=4),	
JF3J_TRINITY_DN66869_c1_g1_i7.p1JF3J_TRINITY_DN66869_c1_g1~~JF3J_TRINITY_DN66869_c1_g1_i7.p1ORFtype:completelen:189(+),score=39.39JF3J_TRINITY_DN66869_c1_g1_i7:244-810(+)																			3847.GLYMA05G33330.1	7.30e-11	72.8	CNX	Viridiplantae	virNOG[6]	0XP7T@NOG,1BMR6@strNOG,1E08J@virNOG,KOG0675@euNOG	4141,4145,4612,5166	GO:0044267-cellular protein metabolic process(L=4),	GO:0005618-cell wall(L=4),GO:0005737-cytoplasm(L=4),GO:0005783-endoplasmic reticulum(L=4),GO:0016021-integral component of membrane(L=4),GO:0043231-intracellular membrane-bounded organelle(L=4),GO:0044444-cytoplasmic part(L=4),	GO:0046872-metal ion binding(L=4),	
JF2J_TRINITY_DN26763_c0_g1_i12.p1JF2J_TRINITY_DN26763_c0_g1~~JF2J_TRINITY_DN26763_c0_g1_i12.p1ORFtype:5prime_partiallen:266(+),score=48.90JF2J_TRINITY_DN26763_c0_g1_i12:1-798(+)																			3847.GLYMA12G10990.1	1.70e-45	188.3		Viridiplantae	virNOG[6]	0II1F@euNOG,0YF98@NOG,1BBTR@strNOG,1DPSE@virNOG	902,1100,1110,902,1110	GO:0006720-isoprenoid metabolic process(L=4),GO:0008299-isoprenoid biosynthetic process(L=4),GO:0008610-lipid biosynthetic process(L=4),GO:0009753-response to jasmonic acid(L=4),GO:0051707-response to other organism(L=4),	GO:0005737-cytoplasm(L=4),GO:0005829-cytosol(L=4),GO:0043231-intracellular membrane-bounded organelle(L=4),GO:0044444-cytoplasmic part(L=4),	GO:0016838-carbon-oxygen lyase activity, acting on phosphates(L=4),GO:0046872-metal ion binding(L=4),	
JF2J_TRINITY_DN25588_c1_g1_i3.p1JF2J_TRINITY_DN25588_c1_g1~~JF2J_TRINITY_DN25588_c1_g1_i3.p1ORFtype:internallen:134(+),score=26.94JF2J_TRINITY_DN25588_c1_g1_i3:3-401(+)																			29760.VIT_13s0067g01290.t01	1.50e-58	230.7	CHC1	Viridiplantae	virNOG[6]	0XPH1@NOG,1BGGY@strNOG,1DUED@virNOG,KOG0985@euNOG	4142,4144,4721,4961,5016,5100	GO:0015031-protein transport(L=4),GO:0016192-vesicle-mediated transport(L=4),GO:0034613-cellular protein localization(L=4),GO:0045184-establishment of protein localization(L=4),GO:0071702-organic substance transport(L=4),	GO:0005737-cytoplasm(L=4),GO:0005794-Golgi apparatus(L=4),GO:0005829-cytosol(L=4),GO:0012506-vesicle membrane(L=4),GO:0030117-membrane coat(L=4),GO:0030120-vesicle coat(L=4),GO:0030132-clathrin coat of coated pit(L=4),GO:0031410-cytoplasmic vesicle(L=4),GO:0043231-intracellular membrane-bounded organelle(L=4),GO:0044444-cytoplasmic part(L=4),		
JF1J_TRINITY_DN65099_c1_g1_i2.p1JF1J_TRINITY_DN65099_c1_g1~~JF1J_TRINITY_DN65099_c1_g1_i2.p1ORFtype:3prime_partiallen:382(+),score=28.01JF1J_TRINITY_DN65099_c1_g1_i2:293-1435(+)																														
JF1J_TRINITY_DN68654_c2_g1_i4.p1JF1J_TRINITY_DN68654_c2_g1~~JF1J_TRINITY_DN68654_c2_g1_i4.p1ORFtype:5prime_partiallen:246(-),score=28.13JF1J_TRINITY_DN68654_c2_g1_i4:3-740(-)		AT2G47590.1	60.5	261	60	1	16	233	118	378	4.60e-88	88.60	AT2G47590.1 | photolyase/blue-light receptor 2 | Chr2:19521888-19523732 FORWARD LENGTH=447 | 201606			Juniper_UP_NEW/similarity_search/DIAMOND/blastp_Juniper_Up_final_araport_11.out	No	Yes	29760.VIT_07s0005g00590.t01	7.30e-88	328.9	AT2G47590	Viridiplantae	virNOG[6]	1BEG4@strNOG,1DSDX@virNOG,COG0415@NOG,KOG0133@euNOG		GO:0006259-DNA metabolic process(L=4),GO:0006974-cellular response to DNA damage stimulus(L=4),GO:0009059-macromolecule biosynthetic process(L=4),GO:0010467-gene expression(L=4),GO:0034645-cellular macromolecule biosynthetic process(L=4),GO:0036211-protein modification process(L=4),GO:0043412-macromolecule modification(L=4),GO:0044267-cellular protein metabolic process(L=4),GO:0090304-nucleic acid metabolic process(L=4),	GO:0005737-cytoplasm(L=4),GO:0030529-intracellular ribonucleoprotein complex(L=4),GO:0044444-cytoplasmic part(L=4),	GO:0003913-DNA photolyase activity(L=4),	
JF1J_TRINITY_DN71879_c0_g6_i3.p1JF1J_TRINITY_DN71879_c0_g6~~JF1J_TRINITY_DN71879_c0_g6_i3.p1ORFtype:5prime_partiallen:286(+),score=42.93JF1J_TRINITY_DN71879_c0_g6_i3:2-859(+)																			3218.PP1S134_120V6.1	2.50e-47	194.5		Viridiplantae	virNOG[6]	1BBWM@strNOG,1DPVE@virNOG,COG5271@NOG,KOG1808@euNOG	3008	GO:0006753-nucleoside phosphate metabolic process(L=4),GO:0006796-phosphate-containing compound metabolic process(L=4),GO:0009116-nucleoside metabolic process(L=4),GO:0019439-aromatic compound catabolic process(L=4),GO:0019693-ribose phosphate metabolic process(L=4),GO:0034655-nucleobase-containing compound catabolic process(L=4),GO:0044270-cellular nitrogen compound catabolic process(L=4),GO:0046434-organophosphate catabolic process(L=4),GO:0046700-heterocycle catabolic process(L=4),GO:0065003-macromolecular complex assembly(L=4),GO:0071822-protein complex subunit organization(L=4),GO:0072521-purine-containing compound metabolic process(L=4),GO:1901136-carbohydrate derivative catabolic process(L=4),GO:1901292-nucleoside phosphate catabolic process(L=4),GO:1901361-organic cyclic compound catabolic process(L=4),GO:1901565-organonitrogen compound catabolic process(L=4),GO:1901658-glycosyl compound catabolic process(L=4),	GO:0005737-cytoplasm(L=4),GO:0016021-integral component of membrane(L=4),GO:0043231-intracellular membrane-bounded organelle(L=4),GO:0044444-cytoplasmic part(L=4),	GO:0001883-purine nucleoside binding(L=4),GO:0016818-hydrolase activity, acting on acid anhydrides, in phosphorus-containing anhydrides(L=4),GO:0017076-purine nucleotide binding(L=4),GO:0032549-ribonucleoside binding(L=4),GO:0032555-purine ribonucleotide binding(L=4),GO:0035639-purine ribonucleoside triphosphate binding(L=4),	
JF2J_TRINITY_DN22957_c0_g1_i5.p1JF2J_TRINITY_DN22957_c0_g1~~JF2J_TRINITY_DN22957_c0_g1_i5.p1ORFtype:5prime_partiallen:183(-),score=24.42JF2J_TRINITY_DN22957_c0_g1_i5:145-693(-)																			29760.VIT_08s0007g01450.t01	2.30e-09	67.8		Viridiplantae	virNOG[6]	0IQY1@euNOG,0ZDTK@NOG,1BQ08@strNOG,1E1UI@virNOG					
JF2J_TRINITY_DN24505_c0_g1_i3.p1JF2J_TRINITY_DN24505_c0_g1~~JF2J_TRINITY_DN24505_c0_g1_i3.p1ORFtype:internallen:175(+),score=31.92JF2J_TRINITY_DN24505_c0_g1_i3:1-522(+)																			4641.GSMUA_Achr9P30420_001	7.60e-47	192.2	OSI_39096	Viridiplantae	virNOG[6]	0TWIR@lilNOG,1BI9B@strNOG,1DW6A@virNOG,COG0531@NOG,KOG1286@euNOG		GO:0006811-ion transport(L=4),GO:0015849-organic acid transport(L=4),GO:0055085-transmembrane transport(L=4),GO:0071702-organic substance transport(L=4),GO:0071705-nitrogen compound transport(L=4),	GO:0016021-integral component of membrane(L=4),	GO:0005342-organic acid transmembrane transporter activity(L=4),GO:0015075-ion transmembrane transporter activity(L=4),	
