trinity_JF3J_index2.Trinity:
avg=452.666 
301	1081
302	985
303	971
304	937
305	950
306	997
307	1025
308	918
309	916
310	898
311	891
312	849
313	891
314	838
315	842
316	827
317	883
318	835
319	837
320	785
321	789
322	780
323	802
324	801
325	722
326	779
327	766
328	786
329	703
330	714
331	735
332	725
333	713
334	639
335	690
336	678
337	649
338	666
339	638
340	647
341	657
342	614
343	675
344	620
345	625
346	691
347	591
348	597
349	585
350	558
351	602
352	526
353	572
354	560
355	553
356	525
357	489
358	526
359	530
360	511
361	530
362	523
363	497
364	498
365	474
366	486
367	467
368	460
369	479
370	462
371	477
372	508
373	444
374	447
375	407
376	432
377	445
378	452
379	412
380	414
381	418
382	416
383	429
384	417
385	406
386	401
387	400
388	393
389	390
390	354
391	393
392	352
393	373
394	359
395	377
396	357
397	355
398	348
399	346
400	316
401	316
402	310
403	307
404	334
405	340
406	299
407	364
408	329
409	331
410	335
411	312
412	292
413	348
414	316
415	285
416	294
417	325
418	311
419	267
420	263
421	289
422	298
423	307
424	285
425	291
426	279
427	285
428	295
429	254
430	276
431	302
432	267
433	261
434	238
435	236
436	269
437	241
438	271
439	251
440	254
441	218
442	246
443	241
444	218
445	215
446	238
447	256
448	242
449	249
450	209
451	203
452	221
453	226
454	200
455	223
456	188
457	215
458	207
459	227
460	231
461	175
462	203
463	216
464	216
465	173
466	224
467	180
468	198
469	189
470	228
471	184
472	188
473	196
474	190
475	179
476	179
477	160
478	168
479	176
480	200
481	181
482	168
483	165
484	174
485	183
486	175
487	174
488	167
489	174
490	157
491	163
492	160
493	150
494	163
495	156
496	167
497	138
498	158
499	169
500	156
501	142
502	153
503	144
504	145
505	118
506	129
507	120
508	119
509	140
510	139
511	116
512	161
513	131
514	172
515	143
516	123
517	146
518	112
519	136
520	133
521	125
522	125
523	150
524	118
525	140
526	149
527	133
528	133
529	118
530	119
531	110
532	113
533	113
534	118
535	124
536	118
537	126
538	122
539	117
540	103
541	123
542	112
543	111
544	95
545	113
546	102
547	120
548	99
549	114
550	117
551	111
552	117
553	93
554	103
555	108
556	120
557	106
558	83
559	100
560	98
561	117
562	99
563	96
564	108
565	101
566	107
567	100
568	90
569	107
570	94
571	93
572	93
573	92
574	87
575	86
576	82
577	97
578	79
579	99
580	90
581	90
582	88
583	87
584	78
585	87
586	70
587	83
588	105
589	103
590	87
591	76
592	83
593	73
594	82
595	80
596	83
597	91
598	98
599	67
600	74
601	72
602	72
603	92
604	73
605	79
606	68
607	79
608	95
609	55
610	74
611	63
612	75
613	76
614	90
615	71
616	69
617	70
618	67
619	66
620	58
621	70
622	68
623	70
624	67
625	68
626	76
627	58
628	76
629	65
630	59
631	59
632	76
633	68
634	74
635	67
636	65
637	61
638	60
639	63
640	62
641	55
642	67
643	49
644	67
645	46
646	58
647	50
648	64
649	55
650	51
651	71
652	45
653	51
654	51
655	56
656	56
657	51
658	58
659	60
660	49
661	49
662	47
663	68
664	43
665	60
666	56
667	48
668	47
669	56
670	64
671	52
672	50
673	48
674	41
675	54
676	47
677	57
678	32
679	50
680	55
681	49
682	54
683	43
684	51
685	57
686	53
687	54
688	34
689	46
690	43
691	44
692	42
693	40
694	52
695	48
696	48
697	46
698	43
699	47
700	41
701	47
702	40
703	35
704	43
705	42
706	30
707	40
708	42
709	36
710	40
711	33
712	41
713	39
714	52
715	38
716	30
717	45
718	42
719	38
720	34
721	42
722	30
723	34
724	40
725	38
726	38
727	38
728	28
729	32
730	49
731	44
732	40
733	33
734	40
735	37
736	32
737	39
738	45
739	38
740	43
741	28
742	31
743	28
744	44
745	22
746	30
747	40
748	35
749	40
750	29
751	27
752	33
753	36
754	28
755	37
756	35
757	24
758	31
759	37
760	45
761	40
762	27
763	28
764	19
765	30
766	28
767	40
768	26
769	28
770	23
771	28
772	30
773	35
774	32
775	29
776	36
777	26
778	25
779	32
780	19
781	35
782	20
783	27
784	31
785	18
786	30
787	36
788	38
789	32
790	19
791	24
792	25
793	36
794	20
795	31
796	20
797	36
798	32
799	33
800	22
801	27
802	20
803	27
804	16
805	23
806	26
807	23
808	22
809	32
810	31
811	21
812	11
813	23
814	18
815	27
816	25
817	20
818	13
819	19
820	22
821	22
822	27
823	32
824	29
825	20
826	30
827	19
828	23
829	18
830	26
831	21
832	22
833	25
834	19
835	20
836	25
837	22
838	17
839	33
840	31
841	29
842	23
843	26
844	21
845	27
846	23
847	22
848	18
849	28
850	18
851	19
852	21
853	17
854	23
855	18
856	28
857	20
858	22
859	22
860	23
861	19
862	21
863	27
864	20
865	20
866	22
867	15
868	18
869	18
870	24
871	18
872	19
873	21
874	19
875	20
876	14
877	16
878	14
879	17
880	18
881	16
882	13
883	14
884	27
885	23
886	19
887	15
888	20
889	13
890	15
891	19
892	27
893	16
894	11
895	14
896	24
897	17
898	13
899	21
900	13
901	16
902	15
903	18
904	13
905	9
906	13
907	12
908	17
909	22
910	16
911	8
912	14
913	16
914	12
915	14
916	20
917	18
918	10
919	13
920	14
921	14
922	12
923	22
924	11
925	9
926	16
927	12
928	12
929	18
930	21
931	20
932	18
933	10
934	20
935	9
936	15
937	10
938	22
939	22
940	10
941	11
942	15
943	16
944	11
945	18
946	15
947	9
948	18
949	12
950	9
951	15
952	12
953	9
954	12
955	14
956	9
957	11
958	11
959	10
960	14
961	21
962	8
963	7
964	11
965	9
966	9
967	13
968	10
969	11
970	4
971	11
972	15
973	11
974	11
975	9
976	15
977	15
978	12
979	5
980	9
981	9
982	9
983	16
984	14
985	14
986	12
987	14
988	11
989	8
990	10
991	8
992	9
993	6
994	7
995	7
996	12
997	9
998	11
999	10
1000	12
1001	10
1002	14
1003	14
1004	4
1005	9
1006	6
1007	10
1008	10
1009	7
1010	13
1011	8
1012	10
1013	11
1014	11
1015	7
1016	12
1017	10
1018	9
1019	14
1020	6
1021	10
1022	5
1023	8
1024	12
1025	11
1026	9
1027	7
1028	9
1029	9
1030	13
1031	3
1032	8
1033	10
1034	11
1035	6
1036	16
1037	13
1038	7
1039	10
1040	7
1041	8
1042	4
1043	8
1044	5
1045	12
1046	8
1047	6
1048	8
1049	6
1050	6
1051	3
1052	4
1053	9
1054	5
1055	10
1056	16
1057	11
1058	4
1059	7
1060	8
1061	10
1062	12
1063	8
1064	5
1065	9
1066	7
1067	7
1068	4
1069	11
1070	8
1071	10
1072	1
1073	7
1074	8
1075	5
1076	3
1077	5
1078	5
1079	6
1080	6
1081	10
1082	8
1083	7
1084	7
1085	3
1086	4
1087	8
1088	9
1089	8
1090	11
1091	9
1092	6
1093	7
1094	5
1095	8
1096	5
1097	11
1098	5
1099	3
1100	10
1101	8
1102	7
1103	5
1104	6
1105	8
1106	3
1107	4
1108	5
1109	3
1110	7
1111	8
1112	4
1113	10
1114	7
1115	8
1116	6
1117	6
1118	6
1119	6
1120	8
1121	8
1122	4
1123	6
1124	9
1125	6
1126	5
1127	6
1128	7
1129	3
1130	6
1131	6
1132	11
1133	7
1134	5
1135	8
1136	3
1137	8
1138	7
1139	2
1140	4
1141	2
1142	3
1143	8
1144	6
1145	4
1146	12
1147	8
1148	4
1149	7
1150	5
1151	6
1152	7
1153	7
1154	7
1155	4
1156	4
1157	5
1158	7
1159	7
1160	6
1161	5
1162	4
1163	7
1164	3
1165	6
1166	8
1167	3
1168	8
1169	5
1170	7
1171	6
1172	4
1173	3
1174	9
1175	5
1176	4
1177	5
1178	2
1179	7
1180	3
1181	3
1182	7
1183	3
1184	5
1185	3
1186	6
1187	4
1188	5
1189	6
1190	8
1191	4
1192	2
1193	7
1194	4
1195	3
1196	10
1197	5
1198	5
1200	4
1201	3
1202	7
1203	4
1204	1
1205	2
1206	2
1207	5
1208	6
1209	4
1210	7
1211	7
1212	6
1213	5
1214	9
1215	3
1216	6
1217	9
1218	6
1219	7
1220	3
1221	5
1222	6
1223	4
1224	3
1225	2
1226	3
1227	5
1228	4
1229	4
1230	2
1231	4
1232	3
1233	5
1234	1
1235	3
1236	6
1237	7
1238	6
1239	3
1240	7
1241	2
1242	5
1243	9
1244	3
1245	7
1246	4
1247	3
1248	5
1249	5
1251	4
1252	6
1253	6
1254	2
1255	8
1256	5
1257	1
1258	5
1259	3
1260	1
1261	5
1262	1
1263	2
1264	3
1265	8
1266	1
1267	3
1268	4
1269	1
1270	4
1271	2
1272	3
1273	7
1274	5
1275	1
1276	4
1277	4
1278	2
1279	2
1280	2
1281	4
1282	9
1283	3
1284	7
1285	5
1286	1
1287	7
1288	3
1289	6
1290	3
1291	5
1292	5
1293	3
1294	3
1295	1
1296	2
1297	5
1298	4
1299	3
1300	4
1301	5
1302	2
1303	4
1304	1
1305	3
1306	5
1307	1
1308	1
1309	2
1310	5
1311	6
1312	4
1313	2
1316	4
1317	2
1318	6
1320	1
1321	4
1322	4
1323	2
1324	7
1325	2
1326	5
1327	4
1328	1
1329	1
1330	4
1331	4
1332	4
1333	5
1334	5
1335	2
1336	4
1337	4
1338	1
1339	5
1340	3
1341	3
1342	1
1343	4
1344	4
1345	4
1346	6
1347	2
1348	6
1349	1
1350	4
1351	5
1352	2
1353	2
1354	1
1355	5
1356	1
1357	4
1358	3
1359	3
1361	3
1362	4
1363	1
1364	2
1365	3
1366	4
1367	2
1369	2
1370	3
1371	5
1372	3
1373	9
1374	4
1375	3
1376	1
1377	2
1378	4
1379	7
1380	1
1382	1
1383	3
1384	1
1385	2
1387	1
1388	3
1390	2
1391	1
1392	2
1394	2
1395	2
1397	1
1399	4
1400	3
1401	1
1402	4
1403	2
1404	1
1405	2
1406	2
1407	2
1408	6
1409	1
1410	2
1411	1
1412	2
1413	4
1414	7
1415	5
1417	2
1418	1
1419	5
1420	2
1421	3
1422	2
1423	1
1424	1
1425	2
1426	1
1428	8
1429	1
1430	2
1431	3
1433	1
1434	1
1435	2
1436	6
1437	3
1438	2
1439	1
1440	1
1441	2
1442	3
1443	2
1444	1
1445	1
1446	1
1447	2
1448	1
1449	1
1450	2
1451	3
1452	3
1453	2
1455	2
1457	2
1458	3
1459	4
1460	3
1461	3
1462	1
1463	2
1465	3
1466	5
1467	1
1468	2
1469	2
1470	2
1471	1
1472	4
1473	2
1474	2
1475	1
1476	3
1477	1
1478	1
1480	2
1481	2
1482	3
1483	2
1484	2
1486	1
1487	5
1488	2
1489	4
1490	1
1491	1
1492	3
1494	1
1495	3
1496	3
1497	2
1498	1
1499	1
1500	2
1502	2
1505	5
1507	2
1508	2
1509	3
1510	1
1513	1
1515	4
1516	1
1517	2
1518	1
1520	2
1521	1
1522	3
1523	1
1524	1
1525	4
1526	1
1527	2
1528	3
1529	1
1531	3
1532	5
1533	1
1534	2
1535	1
1536	1
1537	1
1538	2
1539	3
1540	1
1543	3
1545	2
1546	2
1547	1
1549	1
1551	3
1552	1
1553	1
1554	2
1557	1
1561	2
1562	2
1563	2
1564	2
1565	1
1566	2
1567	1
1568	2
1571	1
1572	1
1573	2
1574	1
1575	2
1576	1
1577	1
1579	1
1580	3
1582	3
1584	2
1585	1
1586	3
1587	2
1588	1
1590	1
1591	1
1592	2
1593	1
1594	1
1595	2
1596	2
1598	2
1599	2
1600	2
1601	1
1602	2
1603	1
1605	4
1608	7
1609	1
1610	2
1611	2
1612	4
1613	2
1614	1
1616	2
1617	1
1619	2
1621	3
1622	1
1624	1
1625	2
1627	1
1631	1
1633	1
1634	4
1635	1
1636	1
1637	2
1638	2
1639	1
1640	1
1641	1
1643	1
1645	2
1646	1
1649	1
1650	1
1651	1
1653	2
1655	1
1658	3
1659	1
1660	2
1663	1
1667	1
1668	1
1671	2
1672	1
1673	3
1674	1
1676	2
1678	3
1681	2
1682	1
1683	1
1684	1
1685	1
1686	2
1688	1
1689	1
1690	1
1692	1
1695	2
1698	1
1701	1
1702	1
1703	1
1704	2
1705	2
1708	2
1710	2
1711	1
1712	1
1715	2
1718	1
1722	5
1723	1
1724	3
1727	1
1728	1
1729	3
1730	1
1731	1
1732	1
1733	1
1740	3
1741	1
1743	2
1744	3
1746	1
1747	2
1748	1
1750	1
1752	1
1754	1
1755	2
1757	2
1758	2
1759	2
1760	1
1761	1
1762	1
1764	2
1765	1
1767	1
1770	1
1771	1
1772	1
1773	3
1774	1
1781	1
1782	1
1783	1
1784	1
1785	1
1786	3
1787	1
1789	2
1790	1
1792	2
1793	1
1798	2
1799	1
1801	2
1807	1
1808	1
1809	1
1810	1
1811	1
1812	2
1814	2
1815	1
1816	1
1819	2
1822	1
1824	1
1829	1
1839	1
1841	1
1846	3
1854	1
1858	2
1860	1
1862	4
1864	2
1870	1
1872	1
1876	1
1877	2
1878	1
1884	1
1887	3
1889	1
1891	1
1892	2
1897	3
1898	1
1900	1
1901	2
1904	1
1906	1
1907	1
1909	1
1912	1
1914	2
1915	1
1925	1
1926	1
1931	1
1941	1
1943	2
1946	1
1947	1
1949	1
1953	1
1956	1
1958	2
1963	1
1964	1
1967	2
1975	1
1976	2
1984	1
1991	1
1996	1
1997	1
2000	1
2003	1
2006	1
2007	1
2017	1
2025	1
2028	1
2042	1
2048	1
2052	1
2058	1
2060	1
2080	1
2084	1
2101	1
2105	1
2107	1
2119	1
2120	1
2128	1
2132	1
2141	2
2143	1
2146	1
2147	1
2153	3
2154	2
2156	1
2158	1
2166	1
2172	1
2194	1
2207	1
2213	1
2215	1
2218	2
2219	1
2222	3
2234	1
2240	1
2257	1
2260	1
2262	1
2279	2
2280	1
2293	1
2294	1
2299	1
2304	1
2323	1
2335	1
2336	2
2337	2
2340	1
2351	1
2361	1
2365	1
2379	2
2382	1
2403	1
2407	1
2418	1
2428	1
2435	1
2454	1
2463	1
2464	1
2467	1
2469	1
2471	1
2480	1
2491	2
2503	1
2510	1
2521	1
2532	1
2548	1
2550	1
2566	1
2603	1
2624	1
2639	1
2661	1
2674	1
2698	1
2714	1
2716	1
2789	1
2798	1
2817	2
2891	1
2993	1
3004	1
3014	1
3020	1
3022	1
3025	1
3034	1
3043	1
3050	1
3058	1
3060	1
3091	1
3129	1
3149	1
3272	1
3835	1
3954	1
5150	1


