#                                                                                                                  --- full sequence --- -------------- this domain -------------   hmm coord   ali coord   env coord
# target name                                              accession   tlen query name           accession   qlen   E-value  score  bias   #  of  c-Evalue  i-Evalue  score  bias  from    to  from    to  from    to  acc description of target
#                                      ------------------- ---------- ----- -------------------- ---------- ----- --------- ------ ----- --- --- --------- --------- ------ ----- ----- ----- ----- ----- ----- ----- ---- ---------------------
JF1A_TRINITY_DN26469_c0_g1_i1.p1JF1A_TRINITY_DN26469_c0_g1 -            140 101630at3193         -            392   9.4e-70  237.1   0.4   1   1   2.8e-74   9.8e-70  237.0   0.4    91   215     1   125     1   140 0.94 -
JF1A_TRINITY_DN59994_c0_g1_i1.p1JF1A_TRINITY_DN59994_c0_g1 -            458 101630at3193         -            392   2.5e-15   57.9   0.0   1   1   1.2e-19   4.1e-15   57.2   0.0    41   194     7   160     1   165 0.82 -
#
# Program:         hmmsearch
# Version:         3.2.1 (June 2018)
# Pipeline mode:   SEARCH
# Query file:      /isg/shared/databases/BUSCO/odb10/embryophyta_odb10/hmms/101630at3193.hmm
# Target file:     Juniper_final_annotations_no_contam_lvl0.faa
# Option settings: /usr/local/bin/hmmsearch --domtblout /labs/Wegrzyn/Juniper_Pine/BUSCO/NEW/busco_juniper/run_embryophyta_odb10/hmmer_output/101630at3193.out --cpu 1 /isg/shared/databases/BUSCO/odb10/embryophyta_odb10/hmms/101630at3193.hmm Juniper_final_annotations_no_contam_lvl0.faa 
# Current dir:     /labs/Wegrzyn/Juniper_Pine/BUSCO/NEW
# Date:            Thu Aug  6 16:01:45 2020
# [ok]
