#                                                                                                                   --- full sequence --- -------------- this domain -------------   hmm coord   ali coord   env coord
# target name                                               accession   tlen query name           accession   qlen   E-value  score  bias   #  of  c-Evalue  i-Evalue  score  bias  from    to  from    to  from    to  acc description of target
#                                       ------------------- ---------- ----- -------------------- ---------- ----- --------- ------ ----- --- --- --------- --------- ------ ----- ----- ----- ----- ----- ----- ----- ---- ---------------------
JF2A_TRINITY_DN39793_c4_g3_i1.p1JF2A_TRINITY_DN39793_c4_g3  -            235 102470at3193         -            276   8.5e-96  322.2   2.2   1   1   7.5e-99   9.7e-96  322.0   2.2     1   196    23   235    23   235 0.93 -
JF1J_TRINITY_DN69336_c3_g1_i2.p1JF1J_TRINITY_DN69336_c3_g1  -            128 102470at3193         -            276   8.2e-09   36.9   0.1   1   1     7e-12     9e-09   36.7   0.1    24    79    26    81     6   107 0.78 -
JF2A_TRINITY_DN39348_c0_g3_i1.p1JF2A_TRINITY_DN39348_c0_g3  -            211 102470at3193         -            276   2.5e-08   35.3   0.1   1   1     3e-11   3.8e-08   34.7   0.1    28    78    53   103    28   129 0.81 -
JF1A_TRINITY_DN62630_c3_g3_i4.p1JF1A_TRINITY_DN62630_c3_g3  -            226 102470at3193         -            276   3.1e-08   35.0   0.1   1   1   3.4e-11   4.3e-08   34.5   0.1    28    78    56   106    31   132 0.81 -
JF1A_TRINITY_DN61776_c1_g4_i2.p1JF1A_TRINITY_DN61776_c1_g4  -            179 102470at3193         -            276   8.9e-07   30.2   1.3   1   2     0.012        16    6.4   0.1    42    75    20    53    16    57 0.92 -
JF1A_TRINITY_DN61776_c1_g4_i2.p1JF1A_TRINITY_DN61776_c1_g4  -            179 102470at3193         -            276   8.9e-07   30.2   1.3   2   2   1.3e-07   0.00017   22.7   0.2    32    86    72   127    66   146 0.84 -
JF1A_TRINITY_DN57860_c1_g1_i2.p1JF1A_TRINITY_DN57860_c1_g1  -            228 102470at3193         -            276   3.8e-06   28.1   0.1   1   1   3.6e-09   4.7e-06   27.8   0.1    29    97    12    79     2   128 0.83 -
JF1J_TRINITY_DN59875_c0_g1_i1.p1JF1J_TRINITY_DN59875_c0_g1  -            177 102470at3193         -            276   5.6e-06   27.6   0.6   1   1   5.4e-09     7e-06   27.3   0.6    31    95     3    67     1    88 0.86 -
JF2A_TRINITY_DN12499_c0_g1_i1.p1JF2A_TRINITY_DN12499_c0_g1  -            135 102470at3193         -            276   1.6e-05   26.1   0.0   1   1   1.4e-08   1.8e-05   25.9   0.0    24    79     6    61     3    96 0.84 -
JF3A_TRINITY_DN47448_c1_g4_i1.p2JF3A_TRINITY_DN47448_c1_g4  -            101 102470at3193         -            276   2.2e-05   25.7   0.0   1   1     2e-08   2.6e-05   25.4   0.0    35    78    27    70    17    82 0.93 -
JF1A_TRINITY_DN63763_c1_g1_i2.p1JF1A_TRINITY_DN63763_c1_g1  -            257 102470at3193         -            276   2.9e-05   25.2   0.0   1   1   3.5e-08   4.5e-05   24.6   0.0    30   111    33   114    21   120 0.91 -
JF2A_TRINITY_DN10357_c0_g1_i1.p1JF2A_TRINITY_DN10357_c0_g1  -            106 102470at3193         -            276   3.8e-05   24.9   0.0   1   1   3.3e-08   4.2e-05   24.7   0.0    35    78    27    70    21    93 0.93 -
JF1A_TRINITY_DN62910_c5_g1_i1.p1JF1A_TRINITY_DN62910_c5_g1  -            168 102470at3193         -            276    0.0002   22.5   0.2   1   1   2.5e-07   0.00032   21.8   0.2    35    78    21    64     9    79 0.91 -
JF1A_TRINITY_DN61776_c1_g4_i3.p1JF1A_TRINITY_DN61776_c1_g4  -            318 102470at3193         -            276   0.00027   22.1   0.1   1   1   2.9e-07   0.00037   21.6   0.1    31    86   210   266   185   284 0.85 -
JF1J_TRINITY_DN66719_c0_g1_i4.p1JF1J_TRINITY_DN66719_c0_g1  -            101 102470at3193         -            276   0.00048   21.2   0.0   1   1   4.6e-07   0.00059   20.9   0.0    28    71    41    84    33    94 0.90 -
JF1A_TRINITY_DN67086_c1_g3_i4.p1JF1A_TRINITY_DN67086_c1_g3  -            162 102470at3193         -            276     0.001   20.2   0.0   1   1   1.1e-06    0.0014   19.7   0.0    29    72   108   151   100   160 0.89 -
JF2A_TRINITY_DN39208_c0_g1_i2.p1JF2A_TRINITY_DN39208_c0_g1  -            140 102470at3193         -            276    0.0011   20.0   0.1   1   1   1.1e-06    0.0014   19.7   0.1    30   111     3    84     1    89 0.92 -
JF1A_TRINITY_DN67891_c1_g4_i3.p1JF1A_TRINITY_DN67891_c1_g4  -            245 102470at3193         -            276    0.0015   19.6   0.0   1   1   1.7e-06    0.0022   19.1   0.0    31    79    11    59     4    88 0.85 -
JF1A_TRINITY_DN64997_c1_g3_i4.p1JF1A_TRINITY_DN64997_c1_g3  -            107 102470at3193         -            276    0.0018   19.3   0.6   1   1   1.7e-06    0.0022   19.1   0.6    32   108    16    94     8   101 0.82 -
JF1A_TRINITY_DN70070_c0_g1_i1.p1JF1A_TRINITY_DN70070_c0_g1  -            128 102470at3193         -            276    0.0025   18.9   0.0   1   1   2.3e-06    0.0029   18.7   0.0    27    74    43    91    21   105 0.81 -
JF1A_TRINITY_DN68006_c1_g3_i11.p1JF1A_TRINITY_DN68006_c1_g3 -            124 102470at3193         -            276    0.0026   18.8   0.0   1   1   2.5e-06    0.0033   18.5   0.0    29    73    31    78    17    85 0.84 -
JF1A_TRINITY_DN67086_c1_g3_i5.p1JF1A_TRINITY_DN67086_c1_g3  -            383 102470at3193         -            276    0.0039   18.3   0.0   1   1   4.6e-06    0.0059   17.7   0.0    29    72   329   372   321   381 0.89 -
JF1J_TRINITY_DN67440_c1_g2_i1.p1JF1J_TRINITY_DN67440_c1_g2  -            324 102470at3193         -            276    0.0041   18.2   0.0   1   1   5.2e-06    0.0067   17.5   0.0    31    76   136   181   117   197 0.82 -
JF1J_TRINITY_DN69381_c1_g2_i3.p1JF1J_TRINITY_DN69381_c1_g2  -            115 102470at3193         -            276    0.0048   18.0   0.0   1   1   4.2e-06    0.0054   17.8   0.0    33    81    22    71    10    88 0.83 -
JF1A_TRINITY_DN54604_c0_g2_i1.p1JF1A_TRINITY_DN54604_c0_g2  -            137 102470at3193         -            276    0.0049   17.9   0.4   1   1   5.5e-06    0.0071   17.4   0.2    27    68    46    87    34   110 0.85 -
JF1A_TRINITY_DN63404_c2_g2_i1.p1JF1A_TRINITY_DN63404_c2_g2  -            371 102470at3193         -            276    0.0053   17.8   0.1   1   2       6.3   8.1e+03   -2.5   0.0    12    41    15    44     9    79 0.71 -
JF1A_TRINITY_DN63404_c2_g2_i1.p1JF1A_TRINITY_DN63404_c2_g2  -            371 102470at3193         -            276    0.0053   17.8   0.1   2   2     1e-05     0.013   16.5   0.1    30    99   114   186   102   200 0.88 -
JF2A_TRINITY_DN5381_c0_g1_i1.p1JF2A_TRINITY_DN5381_c0_g1    -            130 102470at3193         -            276    0.0057   17.7   0.0   1   1   5.6e-06    0.0072   17.4   0.0    33    82    22    72    12    90 0.83 -
JF1J_TRINITY_DN60781_c0_g1_i2.p1JF1J_TRINITY_DN60781_c0_g1  -            146 102470at3193         -            276    0.0077   17.3   0.0   1   1   7.6e-06    0.0098   16.9   0.0    32    71    44    84    29    99 0.87 -
JF1A_TRINITY_DN60792_c0_g1_i1.p1JF1A_TRINITY_DN60792_c0_g1  -            157 102470at3193         -            276    0.0089   17.1   0.0   1   1   8.8e-06     0.011   16.7   0.0    32    71    41    81    26    96 0.87 -
JF1A_TRINITY_DN67094_c0_g1_i2.p1JF1A_TRINITY_DN67094_c0_g1  -            326 102470at3193         -            276     0.015   16.3   0.1   1   1   1.7e-05     0.022   15.8   0.1    22    82    22    81    14   100 0.85 -
JF1A_TRINITY_DN61198_c3_g1_i5.p1JF1A_TRINITY_DN61198_c3_g1  -            226 102470at3193         -            276     0.024   15.7   0.2   1   1   2.3e-05      0.03   15.4   0.2    35    80    16    63    10   117 0.76 -
JF1A_TRINITY_DN69479_c0_g1_i1.p1JF1A_TRINITY_DN69479_c0_g1  -            112 102470at3193         -            276     0.027   15.5   0.0   1   1   2.4e-05      0.03   15.3   0.0    30    84    18    72     6    86 0.86 -
JF2A_TRINITY_DN6436_c0_g1_i1.p1JF2A_TRINITY_DN6436_c0_g1    -            111 102470at3193         -            276     0.044   14.8   0.4   1   1   3.9e-05     0.051   14.6   0.4    31    75    20    65     4    89 0.79 -
JF1A_TRINITY_DN60792_c0_g1_i5.p1JF1A_TRINITY_DN60792_c0_g1  -            291 102470at3193         -            276     0.052   14.6   0.0   1   1   6.3e-05     0.081   13.9   0.0    32    71    41    81    29    94 0.87 -
JF1A_TRINITY_DN62630_c3_g4_i6.p1JF1A_TRINITY_DN62630_c3_g4  -            441 102470at3193         -            276     0.054   14.5   0.1   1   1   7.7e-05       0.1   13.6   0.1    28    72    77   122    65   140 0.82 -
JF1A_TRINITY_DN64733_c0_g2_i1.p1JF1A_TRINITY_DN64733_c0_g2  -            121 102470at3193         -            276     0.055   14.5   0.4   1   1   5.1e-05     0.065   14.2   0.4    31    75    20    65     4    88 0.79 -
JF1A_TRINITY_DN64991_c1_g7_i1.p1JF1A_TRINITY_DN64991_c1_g7  -            280 102470at3193         -            276     0.057   14.4   0.1   1   1     7e-05      0.09   13.8   0.1    31    96    33   106    14   118 0.76 -
JF2J_TRINITY_DN11587_c0_g1_i1.p1JF2J_TRINITY_DN11587_c0_g1  -            101 102470at3193         -            276     0.071   14.1   0.1   1   1   6.5e-05     0.083   13.9   0.1    36    92     3    59     1    69 0.88 -
JF1A_TRINITY_DN67702_c3_g2_i7.p1JF1A_TRINITY_DN67702_c3_g2  -            304 102470at3193         -            276     0.082   13.9   0.0   1   1   9.9e-05      0.13   13.3   0.0    32    92     8    68     4    78 0.90 -
JF1J_TRINITY_DN68464_c3_g1_i12.p1JF1J_TRINITY_DN68464_c3_g1 -            106 102470at3193         -            276     0.087   13.8   0.0   1   1   7.2e-05     0.093   13.7   0.0    28    70    40    82    18    98 0.84 -
JF1J_TRINITY_DN65170_c0_g2_i6.p1JF1J_TRINITY_DN65170_c0_g2  -            298 102470at3193         -            276     0.096   13.7   0.0   1   1   0.00011      0.14   13.1   0.0    29   100    44   115    19   127 0.83 -
JF2A_TRINITY_DN7900_c0_g1_i1.p1JF2A_TRINITY_DN7900_c0_g1    -            152 102470at3193         -            276      0.12   13.3   0.0   1   1   0.00012      0.16   13.0   0.0    23    61    54    92    32   100 0.81 -
JF1J_TRINITY_DN68464_c3_g1_i11.p1JF1J_TRINITY_DN68464_c3_g1 -            222 102470at3193         -            276      0.12   13.3   0.1   1   1   0.00014      0.17   12.8   0.1    28    75    40    90    20   112 0.76 -
JF1A_TRINITY_DN65873_c1_g1_i8.p1JF1A_TRINITY_DN65873_c1_g1  -            188 102470at3193         -            276      0.13   13.2   0.1   1   1   0.00013      0.17   12.9   0.1    23    65    47    90    37   117 0.84 -
JF1A_TRINITY_DN64733_c0_g2_i2.p1JF1A_TRINITY_DN64733_c0_g2  -            250 102470at3193         -            276      0.14   13.1   0.4   1   1   0.00023      0.29   12.1   0.4    31    75    20    65     6    98 0.80 -
JF1A_TRINITY_DN67690_c3_g6_i1.p1JF1A_TRINITY_DN67690_c3_g6  -            463 102470at3193         -            276      0.18   12.8   0.1   1   1   0.00022      0.28   12.1   0.1    31   104   321   399   315   406 0.80 -
JF1J_TRINITY_DN69336_c3_g1_i5.p1JF1J_TRINITY_DN69336_c3_g1  -            109 102470at3193         -            276      0.21   12.6   0.0   1   1   0.00019      0.25   12.3   0.0    26    72    53    98    29   103 0.75 -
JF3J_TRINITY_DN69451_c0_g1_i1.p1JF3J_TRINITY_DN69451_c0_g1  -            161 102470at3193         -            276      0.22   12.5   0.0   1   1   0.00027      0.35   11.9   0.0    31    99     9    79     3    89 0.75 -
JF1J_TRINITY_DN58952_c0_g1_i5.p1JF1J_TRINITY_DN58952_c0_g1  -            174 102470at3193         -            276      0.22   12.5   0.0   1   1   0.00021      0.27   12.2   0.0    31    66    46    82    25   120 0.77 -
JF3A_TRINITY_DN44868_c0_g1_i1.p1JF3A_TRINITY_DN44868_c0_g1  -            114 102470at3193         -            276      0.24   12.4   0.0   1   1   0.00022      0.29   12.1   0.0    30    63    57    90    32    96 0.84 -
JF1A_TRINITY_DN63111_c0_g1_i1.p1JF1A_TRINITY_DN63111_c0_g1  -            403 102470at3193         -            276      0.24   12.4   0.0   1   1   0.00027      0.35   11.8   0.0    26    61     5    42     1    52 0.87 -
JF1A_TRINITY_DN66243_c0_g2_i5.p1JF1A_TRINITY_DN66243_c0_g2  -            433 102470at3193         -            276      0.26   12.3   0.0   1   1   0.00034      0.44   11.5   0.0    30   100    55   125    42   136 0.89 -
JF3J_TRINITY_DN61990_c0_g1_i3.p1JF3J_TRINITY_DN61990_c0_g1  -            234 102470at3193         -            276       0.3   12.1   0.0   1   1   0.00032      0.41   11.6   0.0    21    66    37    82    21   119 0.77 -
JF1A_TRINITY_DN62939_c2_g1_i18.p1JF1A_TRINITY_DN62939_c2_g1 -            381 102470at3193         -            276      0.39   11.7   0.1   1   1   0.00049      0.63   11.0   0.1    27   109   126   211   114   223 0.75 -
JF1A_TRINITY_DN45991_c0_g1_i1.p1JF1A_TRINITY_DN45991_c0_g1  -            128 102470at3193         -            276       0.4   11.7   0.0   1   1   0.00039       0.5   11.3   0.0    32    70    64   102    42   107 0.90 -
#
# Program:         hmmsearch
# Version:         3.2.1 (June 2018)
# Pipeline mode:   SEARCH
# Query file:      /isg/shared/databases/BUSCO/odb10/embryophyta_odb10/hmms/102470at3193.hmm
# Target file:     Juniper_final_annotations_no_contam_lvl0.faa
# Option settings: /usr/local/bin/hmmsearch --domtblout /labs/Wegrzyn/Juniper_Pine/BUSCO/NEW/busco_juniper/run_embryophyta_odb10/hmmer_output/102470at3193.out --cpu 1 /isg/shared/databases/BUSCO/odb10/embryophyta_odb10/hmms/102470at3193.hmm Juniper_final_annotations_no_contam_lvl0.faa 
# Current dir:     /labs/Wegrzyn/Juniper_Pine/BUSCO/NEW
# Date:            Thu Aug  6 16:01:51 2020
# [ok]
