#                                                                                                                    --- full sequence --- -------------- this domain -------------   hmm coord   ali coord   env coord
# target name                                                accession   tlen query name           accession   qlen   E-value  score  bias   #  of  c-Evalue  i-Evalue  score  bias  from    to  from    to  from    to  acc description of target
#                                        ------------------- ---------- ----- -------------------- ---------- ----- --------- ------ ----- --- --- --------- --------- ------ ----- ----- ----- ----- ----- ----- ----- ---- ---------------------
JF1A_TRINITY_DN65258_c1_g4_i1.p1JF1A_TRINITY_DN65258_c1_g4   -            171 104863at3193         -            314   2.8e-98  331.0  14.2   1   2   4.2e-21   2.2e-17   65.3   0.3   151   196     1    47     1    47 0.96 -
JF1A_TRINITY_DN65258_c1_g4_i1.p1JF1A_TRINITY_DN65258_c1_g4   -            171 104863at3193         -            314   2.8e-98  331.0  14.2   2   2   1.2e-83   6.3e-80  270.7   8.9    32   156    47   171    45   171 0.99 -
JF1A_TRINITY_DN65258_c1_g4_i2.p1JF1A_TRINITY_DN65258_c1_g4   -            271 104863at3193         -            314   5.7e-98  330.0  10.7   1   1  1.3e-101   6.9e-98  329.7  10.7     1   156   116   271   116   271 1.00 -
JF1J_TRINITY_DN56904_c1_g1_i2.p1JF1J_TRINITY_DN56904_c1_g1   -            135 104863at3193         -            314   1.1e-63  217.4   6.6   1   2   2.9e-32   1.5e-28  101.9   0.1   246   304     4    63     1    71 0.90 -
JF1J_TRINITY_DN56904_c1_g1_i2.p1JF1J_TRINITY_DN56904_c1_g1   -            135 104863at3193         -            314   1.1e-63  217.4   6.6   2   2   3.3e-37   1.7e-33  118.2   2.3     1    64    72   135    72   135 0.99 -
JF2A_TRINITY_DN40463_c0_g1_i1.p1JF2A_TRINITY_DN40463_c0_g1   -            404 104863at3193         -            314   5.5e-63  215.1  17.7   1   2       4.4   2.4e+04   -3.8   0.1   104   127    65    88    62    90 0.86 -
JF2A_TRINITY_DN40463_c0_g1_i1.p1JF2A_TRINITY_DN40463_c0_g1   -            404 104863at3193         -            314   5.5e-63  215.1  17.7   2   2     1e-66   5.5e-63  215.1  17.7    10   274   110   379   104   393 0.93 -
JF1A_TRINITY_DN65503_c1_g4_i5.p1JF1A_TRINITY_DN65503_c1_g4   -            172 104863at3193         -            314   1.7e-47  164.2   8.1   1   1   3.8e-51     2e-47  163.9   8.1   142   301     1   162     1   169 0.96 -
JF2A_TRINITY_DN40463_c0_g1_i2.p1JF2A_TRINITY_DN40463_c0_g1   -            346 104863at3193         -            314   2.7e-47  163.5  16.0   1   2       2.6   1.4e+04   -3.0   0.0   104   128    65    89    61    91 0.86 -
JF2A_TRINITY_DN40463_c0_g1_i2.p1JF2A_TRINITY_DN40463_c0_g1   -            346 104863at3193         -            314   2.7e-47  163.5  16.0   2   2     5e-51   2.7e-47  163.5  16.0     9   227   109   329   104   339 0.94 -
JF1A_TRINITY_DN66840_c2_g4_i3.p1JF1A_TRINITY_DN66840_c2_g4   -            181 104863at3193         -            314   6.1e-33  116.4   2.4   1   1   1.4e-36   7.4e-33  116.1   2.4    64   180    47   163    29   175 0.94 -
JF2A_TRINITY_DN52420_c0_g1_i1.p1JF2A_TRINITY_DN52420_c0_g1   -            216 104863at3193         -            314   3.1e-29  104.2   8.9   1   1   7.1e-33   3.8e-29  103.9   8.9    11   181    35   210    28   215 0.92 -
JF1A_TRINITY_DN65369_c0_g10_i1.p1JF1A_TRINITY_DN65369_c0_g10 -            145 104863at3193         -            314   9.4e-21   76.4   0.6   1   1   1.9e-24     1e-20   76.2   0.6   184   311     1   135     1   138 0.84 -
JF3J_TRINITY_DN66811_c5_g1_i7.p1JF3J_TRINITY_DN66811_c5_g1   -            174 104863at3193         -            314   4.6e-16   61.0   1.0   1   2      0.93     5e+03   -1.6   0.0   103   128    26    51    22    53 0.87 -
JF3J_TRINITY_DN66811_c5_g1_i7.p1JF3J_TRINITY_DN66811_c5_g1   -            174 104863at3193         -            314   4.6e-16   61.0   1.0   2   2   1.4e-19   7.6e-16   60.2   0.3     9    93    71   155    66   162 0.94 -
JF1A_TRINITY_DN66840_c2_g4_i8.p1JF1A_TRINITY_DN66840_c2_g4   -            196 104863at3193         -            314   6.1e-16   60.5   1.0   1   2      0.94     5e+03   -1.6   0.0   103   128    47    72    34    74 0.88 -
JF1A_TRINITY_DN66840_c2_g4_i8.p1JF1A_TRINITY_DN66840_c2_g4   -            196 104863at3193         -            314   6.1e-16   60.5   1.0   2   2     2e-19   1.1e-15   59.7   0.2     9    93    92   176    87   181 0.94 -
JF3J_TRINITY_DN11936_c0_g1_i2.p1JF3J_TRINITY_DN11936_c0_g1   -            153 104863at3193         -            314   4.3e-11   44.6   8.1   1   2   7.1e-06     0.038   15.2   0.1    11    59    35    83    28    90 0.90 -
JF3J_TRINITY_DN11936_c0_g1_i2.p1JF3J_TRINITY_DN11936_c0_g1   -            153 104863at3193         -            314   4.3e-11   44.6   8.1   2   2   5.2e-11   2.8e-07   32.1   4.3   118   183    85   151    79   153 0.88 -
JF1A_TRINITY_DN36423_c0_g1_i2.p1JF1A_TRINITY_DN36423_c0_g1   -            196 104863at3193         -            314   8.7e-10   40.3   0.9   1   1   2.3e-13   1.2e-09   39.8   0.9     5    83   110   188   107   194 0.94 -
#
# Program:         hmmsearch
# Version:         3.2.1 (June 2018)
# Pipeline mode:   SEARCH
# Query file:      /isg/shared/databases/BUSCO/odb10/embryophyta_odb10/hmms/104863at3193.hmm
# Target file:     Juniper_final_annotations_no_contam_lvl0.faa
# Option settings: /usr/local/bin/hmmsearch --domtblout /labs/Wegrzyn/Juniper_Pine/BUSCO/NEW/busco_juniper/run_embryophyta_odb10/hmmer_output/104863at3193.out --cpu 1 /isg/shared/databases/BUSCO/odb10/embryophyta_odb10/hmms/104863at3193.hmm Juniper_final_annotations_no_contam_lvl0.faa 
# Current dir:     /labs/Wegrzyn/Juniper_Pine/BUSCO/NEW
# Date:            Thu Aug  6 16:02:19 2020
# [ok]
