#                                                                                                                    --- full sequence --- -------------- this domain -------------   hmm coord   ali coord   env coord
# target name                                                accession   tlen query name           accession   qlen   E-value  score  bias   #  of  c-Evalue  i-Evalue  score  bias  from    to  from    to  from    to  acc description of target
#                                        ------------------- ---------- ----- -------------------- ---------- ----- --------- ------ ----- --- --- --------- --------- ------ ----- ----- ----- ----- ----- ----- ----- ---- ---------------------
JF1A_TRINITY_DN67084_c3_g1_i29.p1JF1A_TRINITY_DN67084_c3_g1  -            830 10856at3193          -            650  6.6e-149  499.2   4.7   1   2   2.1e-12     1e-08   36.0   0.0    28    93   184   243   155   250 0.75 -
JF1A_TRINITY_DN67084_c3_g1_i29.p1JF1A_TRINITY_DN67084_c3_g1  -            830 10856at3193          -            650  6.6e-149  499.2   4.7   2   2  1.1e-140  5.3e-137  459.9   2.0   218   649   250   757   246   758 0.86 -
JF1A_TRINITY_DN66082_c1_g1_i3.p1JF1A_TRINITY_DN66082_c1_g1   -            661 10856at3193          -            650  5.2e-142  476.4  10.7   1   2   1.8e-08     9e-05   23.0   0.2    34    96     2    58     1    61 0.83 -
JF1A_TRINITY_DN66082_c1_g1_i3.p1JF1A_TRINITY_DN66082_c1_g1   -            661 10856at3193          -            650  5.2e-142  476.4  10.7   2   2  1.9e-138  9.5e-135  452.4   5.3   218   650    61   564    58   564 0.87 -
JF3J_TRINITY_DN70460_c1_g2_i9.p1JF3J_TRINITY_DN70460_c1_g2   -            437 10856at3193          -            650  7.3e-126  423.1   5.1   1   2     1e-12   5.2e-09   37.0   0.0    27    93    52   112    31   118 0.76 -
JF3J_TRINITY_DN70460_c1_g2_i9.p1JF3J_TRINITY_DN70460_c1_g2   -            437 10856at3193          -            650  7.3e-126  423.1   5.1   2   2  1.2e-118  5.9e-115  387.0   2.4   218   519   119   434   114   437 0.95 -
JF1J_TRINITY_DN70160_c2_g1_i13.p1JF1J_TRINITY_DN70160_c2_g1  -            518 10856at3193          -            650  1.7e-108  365.7  15.8   1   3   7.3e-10   3.6e-06   27.6   0.1    47    93    24    65     6    73 0.80 -
JF1J_TRINITY_DN70160_c2_g1_i13.p1JF1J_TRINITY_DN70160_c2_g1  -            518 10856at3193          -            650  1.7e-108  365.7  15.8   2   3      0.21     1e+03   -0.4   0.0   218   236    72    90    70    91 0.93 -
JF1J_TRINITY_DN70160_c2_g1_i13.p1JF1J_TRINITY_DN70160_c2_g1  -            518 10856at3193          -            650  1.7e-108  365.7  15.8   3   3  9.6e-103   4.8e-99  334.5  10.8   312   649    90   496    85   497 0.83 -
JF1J_TRINITY_DN60495_c0_g2_i2.p1JF1J_TRINITY_DN60495_c0_g2   -            179 10856at3193          -            650   2.4e-61  209.9   9.4   1   1   5.6e-65   2.8e-61  209.7   9.4    22   174     3   176     1   179 0.85 -
JF1A_TRINITY_DN72634_c0_g1_i1.p1JF1A_TRINITY_DN72634_c0_g1   -            148 10856at3193          -            650   2.6e-36  127.2   0.3   1   1   3.1e-39   1.5e-35  124.6   0.3   518   629     1   142     1   147 0.84 -
JF1A_TRINITY_DN67034_c0_g1_i3.p1JF1A_TRINITY_DN67034_c0_g1   -            563 10856at3193          -            650     3e-10   41.1   0.3   1   2   2.8e-13   1.4e-09   38.9   0.0   280   435    47   229    20   237 0.70 -
JF1A_TRINITY_DN67034_c0_g1_i3.p1JF1A_TRINITY_DN67034_c0_g1   -            563 10856at3193          -            650     3e-10   41.1   0.3   2   2      0.23   1.1e+03   -0.5   0.1   357   408   339   391   329   399 0.80 -
JF1J_TRINITY_DN68478_c1_g1_i2.p1JF1J_TRINITY_DN68478_c1_g1   -            193 10856at3193          -            650   5.3e-07   30.3   0.1   1   1   1.4e-10     7e-07   29.9   0.1   336   435    13   118     8   126 0.77 -
JF1A_TRINITY_DN68622_c1_g1_i1.p1JF1A_TRINITY_DN68622_c1_g1   -            130 10856at3193          -            650   5.1e-06   27.1   0.1   1   1   1.7e-09   8.6e-06   26.3   0.1   296   380    16   125     8   130 0.71 -
JF2A_TRINITY_DN42715_c1_g10_i2.p1JF2A_TRINITY_DN42715_c1_g10 -            300 10856at3193          -            650     0.013   15.9   0.2   1   1   3.3e-06     0.016   15.5   0.2   341   437     1   100     1   119 0.71 -
JF1J_TRINITY_DN70440_c2_g1_i1.p1JF1J_TRINITY_DN70440_c2_g1   -            101 10856at3193          -            650       0.1   12.9   0.3   1   2    0.0025        12    6.0   0.0   601   623    11    33     4    53 0.84 -
JF1J_TRINITY_DN70440_c2_g1_i1.p1JF1J_TRINITY_DN70440_c2_g1   -            101 10856at3193          -            650       0.1   12.9   0.3   2   2    0.0031        15    5.7   0.0   601   621    65    85    54    95 0.85 -
JF1A_TRINITY_DN62743_c0_g9_i2.p1JF1A_TRINITY_DN62743_c0_g9   -            672 10856at3193          -            650      0.13   12.6   0.0   1   1   4.3e-05      0.21   11.8   0.0   322   369   605   652   586   664 0.91 -
JF1A_TRINITY_DN66044_c1_g9_i1.p1JF1A_TRINITY_DN66044_c1_g9   -            104 10856at3193          -            650      0.43   10.8   0.0   1   1    0.0001      0.49   10.6   0.0   417   491    20    93    14   101 0.78 -
JF1A_TRINITY_DN68114_c5_g4_i2.p1JF1A_TRINITY_DN68114_c5_g4   -            195 10856at3193          -            650      0.48   10.6   0.1   1   1   0.00013      0.64   10.2   0.1   410   436     1    27     1    47 0.76 -
#
# Program:         hmmsearch
# Version:         3.2.1 (June 2018)
# Pipeline mode:   SEARCH
# Query file:      /isg/shared/databases/BUSCO/odb10/embryophyta_odb10/hmms/10856at3193.hmm
# Target file:     Juniper_final_annotations_no_contam_lvl0.faa
# Option settings: /usr/local/bin/hmmsearch --domtblout /labs/Wegrzyn/Juniper_Pine/BUSCO/NEW/busco_juniper/run_embryophyta_odb10/hmmer_output/10856at3193.out --cpu 1 /isg/shared/databases/BUSCO/odb10/embryophyta_odb10/hmms/10856at3193.hmm Juniper_final_annotations_no_contam_lvl0.faa 
# Current dir:     /labs/Wegrzyn/Juniper_Pine/BUSCO/NEW
# Date:            Thu Aug  6 16:02:50 2020
# [ok]
