#                                                                                                                   --- full sequence --- -------------- this domain -------------   hmm coord   ali coord   env coord
# target name                                               accession   tlen query name           accession   qlen   E-value  score  bias   #  of  c-Evalue  i-Evalue  score  bias  from    to  from    to  from    to  acc description of target
#                                       ------------------- ---------- ----- -------------------- ---------- ----- --------- ------ ----- --- --- --------- --------- ------ ----- ----- ----- ----- ----- ----- ----- ---- ---------------------
JF1A_TRINITY_DN65496_c1_g5_i2.p1JF1A_TRINITY_DN65496_c1_g5  -            372 109325at3193         -            284  2.2e-141  471.9   0.0   1   1  6.7e-145  2.7e-141  471.6   0.0     6   284    79   371    75   371 0.96 -
JF3A_TRINITY_DN51933_c1_g1_i1.p1JF3A_TRINITY_DN51933_c1_g1  -            166 109325at3193         -            284   4.2e-86  290.5   0.5   1   2   2.3e-64   9.4e-61  207.3   0.1   120   231     1   112     1   113 0.99 -
JF3A_TRINITY_DN51933_c1_g1_i1.p1JF3A_TRINITY_DN51933_c1_g1  -            166 109325at3193         -            284   4.2e-86  290.5   0.5   2   2   1.2e-26   4.9e-23   83.6   0.0   140   194   112   166   111   166 0.98 -
JF3J_TRINITY_DN73227_c1_g2_i3.p1JF3J_TRINITY_DN73227_c1_g2  -            183 109325at3193         -            284   8.4e-75  253.4   1.0   1   2   4.4e-74   1.8e-70  239.2   0.1    97   235    23   168    11   169 0.92 -
JF3J_TRINITY_DN73227_c1_g2_i3.p1JF3J_TRINITY_DN73227_c1_g2  -            183 109325at3193         -            284   8.4e-75  253.4   1.0   2   2     7e-06     0.029   15.4   0.1   190   205   168   183   167   183 0.96 -
JF3J_TRINITY_DN71091_c0_g2_i13.p1JF3J_TRINITY_DN71091_c0_g2 -            270 109325at3193         -            284   1.1e-23   85.7   0.0   1   1   3.9e-27   1.6e-23   85.2   0.0    56   246    55   261    51   264 0.87 -
JF1A_TRINITY_DN67266_c4_g2_i9.p1JF1A_TRINITY_DN67266_c4_g2  -            200 109325at3193         -            284   9.7e-20   72.8   0.0   1   1     3e-23   1.2e-19   72.4   0.0   108   254    10   158     3   167 0.92 -
JF2A_TRINITY_DN35881_c0_g2_i1.p1JF2A_TRINITY_DN35881_c0_g2  -            318 109325at3193         -            284     3e-11   44.9   0.1   1   2      0.74     3e+03   -1.0   0.0   207   243    12    48     5    63 0.81 -
JF2A_TRINITY_DN35881_c0_g2_i1.p1JF2A_TRINITY_DN35881_c0_g2  -            318 109325at3193         -            284     3e-11   44.9   0.1   2   2   2.6e-14     1e-10   43.1   0.0   109   238   161   295   149   314 0.84 -
JF1J_TRINITY_DN68843_c0_g1_i1.p1JF1J_TRINITY_DN68843_c0_g1  -            156 109325at3193         -            284   3.4e-09   38.2   0.0   1   1   1.2e-12     5e-09   37.6   0.0    56   178     6   142     4   148 0.83 -
JF1A_TRINITY_DN66751_c4_g2_i3.p1JF1A_TRINITY_DN66751_c4_g2  -            404 109325at3193         -            284   2.5e-06   28.8   0.0   1   1     1e-09   4.2e-06   28.0   0.0   119   245   102   232    71   236 0.83 -
JF2A_TRINITY_DN22654_c0_g1_i2.p1JF2A_TRINITY_DN22654_c0_g1  -            178 109325at3193         -            284     9e-05   23.7   0.0   1   1   2.8e-08   0.00011   23.3   0.0   130   208    62   141    43   148 0.88 -
JF1A_TRINITY_DN63985_c1_g5_i2.p1JF1A_TRINITY_DN63985_c1_g5  -            204 109325at3193         -            284    0.0086   17.2   0.0   1   1   2.7e-06     0.011   16.8   0.0    88   219    64   202    36   204 0.75 -
JF3J_TRINITY_DN73227_c1_g1_i4.p2JF3J_TRINITY_DN73227_c1_g1  -            133 109325at3193         -            284     0.024   15.7   0.0   1   1   8.5e-06     0.035   15.2   0.0    67    87    82   102    72   109 0.91 -
JF1A_TRINITY_DN65169_c1_g4_i2.p1JF1A_TRINITY_DN65169_c1_g4  -            347 109325at3193         -            284     0.028   15.5   0.1   1   2      0.63   2.6e+03   -0.8   0.0    57    78    96   117    78   123 0.88 -
JF1A_TRINITY_DN65169_c1_g4_i2.p1JF1A_TRINITY_DN65169_c1_g4  -            347 109325at3193         -            284     0.028   15.5   0.1   2   2   2.7e-05      0.11   13.5   0.0   125   221   204   305   178   338 0.75 -
JF1A_TRINITY_DN62872_c1_g1_i2.p1JF1A_TRINITY_DN62872_c1_g1  -            305 109325at3193         -            284     0.042   14.9   0.1   1   1   1.5e-05     0.062   14.4   0.1   186   230   224   268   139   281 0.82 -
JF3A_TRINITY_DN57746_c1_g1_i1.p2JF3A_TRINITY_DN57746_c1_g1  -            101 109325at3193         -            284      0.19   12.8   0.0   1   2   0.00079       3.2    8.7   0.0   202   247    14    60     1    70 0.83 -
JF3A_TRINITY_DN57746_c1_g1_i1.p2JF3A_TRINITY_DN57746_c1_g1  -            101 109325at3193         -            284      0.19   12.8   0.0   2   2     0.049     2e+02    2.8   0.0   202   227    72    97    59   100 0.81 -
JF1J_TRINITY_DN65815_c0_g1_i1.p1JF1J_TRINITY_DN65815_c0_g1  -            171 109325at3193         -            284      0.31   12.1   0.0   1   1    0.0001      0.43   11.6   0.0   114   163    90   140    80   165 0.78 -
JF3J_TRINITY_DN73463_c0_g4_i1.p1JF3J_TRINITY_DN73463_c0_g4  -            135 109325at3193         -            284      0.43   11.6   0.0   1   1   0.00011      0.45   11.5   0.0   115   141    55    81    33   119 0.84 -
JF2A_TRINITY_DN41677_c1_g3_i4.p1JF2A_TRINITY_DN41677_c1_g3  -            250 109325at3193         -            284       0.7   10.9   0.1   1   2   0.00054       2.2    9.2   0.1    56    95   168   207   164   227 0.81 -
JF2A_TRINITY_DN41677_c1_g3_i4.p1JF2A_TRINITY_DN41677_c1_g3  -            250 109325at3193         -            284       0.7   10.9   0.1   2   2      0.27   1.1e+03    0.4   0.0    41    80   205   245   202   248 0.77 -
#
# Program:         hmmsearch
# Version:         3.2.1 (June 2018)
# Pipeline mode:   SEARCH
# Query file:      /isg/shared/databases/BUSCO/odb10/embryophyta_odb10/hmms/109325at3193.hmm
# Target file:     Juniper_final_annotations_no_contam_lvl0.faa
# Option settings: /usr/local/bin/hmmsearch --domtblout /labs/Wegrzyn/Juniper_Pine/BUSCO/NEW/busco_juniper/run_embryophyta_odb10/hmmer_output/109325at3193.out --cpu 1 /isg/shared/databases/BUSCO/odb10/embryophyta_odb10/hmms/109325at3193.hmm Juniper_final_annotations_no_contam_lvl0.faa 
# Current dir:     /labs/Wegrzyn/Juniper_Pine/BUSCO/NEW
# Date:            Thu Aug  6 16:02:57 2020
# [ok]
