#                                                                                                                  --- full sequence --- -------------- this domain -------------   hmm coord   ali coord   env coord
# target name                                              accession   tlen query name           accession   qlen   E-value  score  bias   #  of  c-Evalue  i-Evalue  score  bias  from    to  from    to  from    to  acc description of target
#                                      ------------------- ---------- ----- -------------------- ---------- ----- --------- ------ ----- --- --- --------- --------- ------ ----- ----- ----- ----- ----- ----- ----- ---- ---------------------
JF1A_TRINITY_DN66006_c3_g5_i1.p1JF1A_TRINITY_DN66006_c3_g5 -            302 109434at3193         -            325   8.6e-32  112.2   1.4   1   3   0.00021       2.5    8.8   0.0   108   131    13    36     6    43 0.84 -
JF1A_TRINITY_DN66006_c3_g5_i1.p1JF1A_TRINITY_DN66006_c3_g5 -            302 109434at3193         -            325   8.6e-32  112.2   1.4   2   3   2.4e-18   2.7e-14   54.7   0.0   132   226    86   185    78   187 0.87 -
JF1A_TRINITY_DN66006_c3_g5_i1.p1JF1A_TRINITY_DN66006_c3_g5 -            302 109434at3193         -            325   8.6e-32  112.2   1.4   3   3   8.7e-16     1e-11   46.3   0.1   219   291   227   302   212   302 0.93 -
JF1A_TRINITY_DN66006_c3_g4_i3.p1JF1A_TRINITY_DN66006_c3_g4 -            277 109434at3193         -            325   9.4e-07   29.9   0.0   1   1     1e-09   1.2e-05   26.3   0.0    29   108   146   254   127   265 0.69 -
JF1A_TRINITY_DN65295_c1_g1_i3.p1JF1A_TRINITY_DN65295_c1_g1 -            351 109434at3193         -            325   6.5e-06   27.2   0.1   1   1   7.4e-10   8.6e-06   26.8   0.1   160   260   132   234   118   270 0.80 -
JF1J_TRINITY_DN62425_c0_g1_i2.p1JF1J_TRINITY_DN62425_c0_g1 -            103 109434at3193         -            325   1.2e-05   26.4   0.0   1   1   9.9e-10   1.2e-05   26.4   0.0    28    66    40    80     3    96 0.83 -
JF1A_TRINITY_DN6653_c0_g1_i1.p1JF1A_TRINITY_DN6653_c0_g1   -            110 109434at3193         -            325      0.14   13.0   0.0   1   1   1.3e-05      0.16   12.8   0.0   155   192    69   106    48   109 0.84 -
JF1A_TRINITY_DN66282_c0_g4_i1.p1JF1A_TRINITY_DN66282_c0_g4 -            205 109434at3193         -            325      0.62   10.8   0.8   1   1   0.00057       6.6    7.4   0.8   272   303    68    99     5   116 0.63 -
#
# Program:         hmmsearch
# Version:         3.2.1 (June 2018)
# Pipeline mode:   SEARCH
# Query file:      /isg/shared/databases/BUSCO/odb10/embryophyta_odb10/hmms/109434at3193.hmm
# Target file:     Juniper_final_annotations_no_contam_lvl0.faa
# Option settings: /usr/local/bin/hmmsearch --domtblout /labs/Wegrzyn/Juniper_Pine/BUSCO/NEW/busco_juniper/run_embryophyta_odb10/hmmer_output/109434at3193.out --cpu 1 /isg/shared/databases/BUSCO/odb10/embryophyta_odb10/hmms/109434at3193.hmm Juniper_final_annotations_no_contam_lvl0.faa 
# Current dir:     /labs/Wegrzyn/Juniper_Pine/BUSCO/NEW
# Date:            Thu Aug  6 16:03:00 2020
# [ok]
