#                                                                                                                   --- full sequence --- -------------- this domain -------------   hmm coord   ali coord   env coord
# target name                                               accession   tlen query name           accession   qlen   E-value  score  bias   #  of  c-Evalue  i-Evalue  score  bias  from    to  from    to  from    to  acc description of target
#                                       ------------------- ---------- ----- -------------------- ---------- ----- --------- ------ ----- --- --- --------- --------- ------ ----- ----- ----- ----- ----- ----- ----- ---- ---------------------
JF1A_TRINITY_DN64805_c3_g5_i2.p1JF1A_TRINITY_DN64805_c3_g5  -            306 112185at3193         -            368  5.7e-124  415.2   0.0   1   1  7.9e-128  6.9e-124  414.9   0.0     1   220    85   306    85   306 0.99 -
JF3A_TRINITY_DN46493_c6_g6_i1.p1JF3A_TRINITY_DN46493_c6_g6  -            107 112185at3193         -            368   3.8e-46  159.1   1.4   1   2     4e-26   3.5e-22   80.3   0.1   246   295     8    57     4    59 0.97 -
JF3A_TRINITY_DN46493_c6_g6_i1.p1JF3A_TRINITY_DN46493_c6_g6  -            107 112185at3193         -            368   3.8e-46  159.1   1.4   2   2   8.5e-26   7.3e-22   79.2   0.1   246   295    58   107    57   107 0.98 -
JF1A_TRINITY_DN64781_c1_g2_i1.p1JF1A_TRINITY_DN64781_c1_g2  -            107 112185at3193         -            368   7.2e-42  145.0   0.1   1   1   9.5e-46   8.3e-42  144.8   0.1   250   336    14   100    11   106 0.97 -
JF1A_TRINITY_DN63358_c0_g4_i11.p1JF1A_TRINITY_DN63358_c0_g4 -            302 112185at3193         -            368   5.2e-37  129.1   0.0   1   2   2.6e-40   2.3e-36  126.9   0.0    60   294     6   260     4   279 0.83 -
JF1A_TRINITY_DN63358_c0_g4_i11.p1JF1A_TRINITY_DN63358_c0_g4 -            302 112185at3193         -            368   5.2e-37  129.1   0.0   2   2       0.1   8.8e+02   -0.0   0.0   337   360   277   300   261   301 0.83 -
JF1J_TRINITY_DN49003_c0_g1_i1.p1JF1J_TRINITY_DN49003_c0_g1  -            117 112185at3193         -            368   6.5e-06   26.7   0.1   1   1   9.7e-10   8.4e-06   26.4   0.1     1    31    60    90    60    97 0.94 -
JF1A_TRINITY_DN64966_c3_g5_i1.p1JF1A_TRINITY_DN64966_c3_g5  -            201 112185at3193         -            368     0.019   15.4   0.0   1   1   3.4e-06      0.03   14.7   0.0    88   157    18    84    12   101 0.81 -
JF1A_TRINITY_DN67151_c0_g3_i3.p1JF1A_TRINITY_DN67151_c0_g3  -            103 112185at3193         -            368      0.13   12.6   0.0   1   1   1.6e-05      0.14   12.5   0.0   188   210    79   101    47   103 0.87 -
JF1A_TRINITY_DN68041_c1_g5_i6.p1JF1A_TRINITY_DN68041_c1_g5  -            134 112185at3193         -            368      0.47   10.7   0.1   1   2     0.038   3.3e+02    1.4   0.0   148   168     2    22     1    30 0.84 -
JF1A_TRINITY_DN68041_c1_g5_i6.p1JF1A_TRINITY_DN68041_c1_g5  -            134 112185at3193         -            368      0.47   10.7   0.1   2   2   0.00057       4.9    7.4   0.0   145   178    48    81    38    88 0.84 -
#
# Program:         hmmsearch
# Version:         3.2.1 (June 2018)
# Pipeline mode:   SEARCH
# Query file:      /isg/shared/databases/BUSCO/odb10/embryophyta_odb10/hmms/112185at3193.hmm
# Target file:     Juniper_final_annotations_no_contam_lvl0.faa
# Option settings: /usr/local/bin/hmmsearch --domtblout /labs/Wegrzyn/Juniper_Pine/BUSCO/NEW/busco_juniper/run_embryophyta_odb10/hmmer_output/112185at3193.out --cpu 1 /isg/shared/databases/BUSCO/odb10/embryophyta_odb10/hmms/112185at3193.hmm Juniper_final_annotations_no_contam_lvl0.faa 
# Current dir:     /labs/Wegrzyn/Juniper_Pine/BUSCO/NEW
# Date:            Thu Aug  6 16:03:29 2020
# [ok]
