#                                                                                                                   --- full sequence --- -------------- this domain -------------   hmm coord   ali coord   env coord
# target name                                               accession   tlen query name           accession   qlen   E-value  score  bias   #  of  c-Evalue  i-Evalue  score  bias  from    to  from    to  from    to  acc description of target
#                                       ------------------- ---------- ----- -------------------- ---------- ----- --------- ------ ----- --- --- --------- --------- ------ ----- ----- ----- ----- ----- ----- ----- ---- ---------------------
JF1A_TRINITY_DN61189_c0_g3_i3.p1JF1A_TRINITY_DN61189_c0_g3  -            388 113209at3193         -            256  1.4e-127  426.2   0.4   1   1  1.5e-130  1.3e-126  423.1   0.4     6   256   106   386    93   386 0.91 -
JF1J_TRINITY_DN66151_c0_g1_i9.p1JF1J_TRINITY_DN66151_c0_g1  -            261 113209at3193         -            256   5.6e-64  217.8   1.7   1   1   7.5e-67   6.5e-63  214.3   1.7     6   141    75   233    62   241 0.88 -
JF3J_TRINITY_DN58613_c0_g1_i2.p1JF3J_TRINITY_DN58613_c0_g1  -            146 113209at3193         -            256   4.6e-55  188.6   0.1   1   1   6.2e-59   5.3e-55  188.4   0.1    63   182    30   146    16   146 0.93 -
JF1J_TRINITY_DN66151_c0_g1_i10.p1JF1J_TRINITY_DN66151_c0_g1 -            129 113209at3193         -            256   2.9e-54  186.0   8.9   1   3   3.7e-07    0.0032   18.7   0.7   135   153     1    19     1    21 0.94 -
JF1J_TRINITY_DN66151_c0_g1_i10.p1JF1J_TRINITY_DN66151_c0_g1 -            129 113209at3193         -            256   2.9e-54  186.0   8.9   2   3   1.5e-30   1.3e-26   95.4   0.4    86   138    21    73    19    74 0.97 -
JF1J_TRINITY_DN66151_c0_g1_i10.p1JF1J_TRINITY_DN66151_c0_g1 -            129 113209at3193         -            256   2.9e-54  186.0   8.9   3   3   5.4e-25   4.7e-21   77.2   0.1   203   256    74   127    73   127 0.97 -
JF1J_TRINITY_DN66151_c0_g1_i11.p1JF1J_TRINITY_DN66151_c0_g1 -            102 113209at3193         -            256   1.7e-34  121.2   3.5   1   2   2.1e-07    0.0018   19.5   0.7   135   153     1    19     1    23 0.92 -
JF1J_TRINITY_DN66151_c0_g1_i11.p1JF1J_TRINITY_DN66151_c0_g1 -            102 113209at3193         -            256   1.7e-34  121.2   3.5   2   2   5.4e-33   4.7e-29  103.4   0.1    86   144    21    79    19    96 0.91 -
JF1A_TRINITY_DN63547_c0_g2_i5.p1JF1A_TRINITY_DN63547_c0_g2  -            104 113209at3193         -            256      0.21   12.8   0.0   1   1   2.9e-05      0.26   12.5   0.0    32    64    24    56     4    65 0.77 -
JF2A_TRINITY_DN40531_c4_g4_i3.p1JF2A_TRINITY_DN40531_c4_g4  -            143 113209at3193         -            256      0.45   11.7   0.0   1   1   6.5e-05      0.56   11.4   0.0    33    64    77   108    57   120 0.79 -
JF2A_TRINITY_DN40531_c4_g4_i1.p1JF2A_TRINITY_DN40531_c4_g4  -            217 113209at3193         -            256      0.66   11.1   0.0   1   1    0.0001      0.89   10.7   0.0    33    64   128   159   109   201 0.81 -
#
# Program:         hmmsearch
# Version:         3.2.1 (June 2018)
# Pipeline mode:   SEARCH
# Query file:      /isg/shared/databases/BUSCO/odb10/embryophyta_odb10/hmms/113209at3193.hmm
# Target file:     Juniper_final_annotations_no_contam_lvl0.faa
# Option settings: /usr/local/bin/hmmsearch --domtblout /labs/Wegrzyn/Juniper_Pine/BUSCO/NEW/busco_juniper/run_embryophyta_odb10/hmmer_output/113209at3193.out --cpu 1 /isg/shared/databases/BUSCO/odb10/embryophyta_odb10/hmms/113209at3193.hmm Juniper_final_annotations_no_contam_lvl0.faa 
# Current dir:     /labs/Wegrzyn/Juniper_Pine/BUSCO/NEW
# Date:            Thu Aug  6 16:03:33 2020
# [ok]
