#                                                                                                                  --- full sequence --- -------------- this domain -------------   hmm coord   ali coord   env coord
# target name                                              accession   tlen query name           accession   qlen   E-value  score  bias   #  of  c-Evalue  i-Evalue  score  bias  from    to  from    to  from    to  acc description of target
#                                      ------------------- ---------- ----- -------------------- ---------- ----- --------- ------ ----- --- --- --------- --------- ------ ----- ----- ----- ----- ----- ----- ----- ---- ---------------------
JF2A_TRINITY_DN18501_c0_g1_i1.p1JF2A_TRINITY_DN18501_c0_g1 -            191 113276at3193         -            278   2.5e-68  232.5   1.0   1   1   2.5e-71   2.9e-67  229.0   1.0    56   206     1   176     1   186 0.87 -
JF2A_TRINITY_DN18501_c0_g1_i2.p1JF2A_TRINITY_DN18501_c0_g1 -            170 113276at3193         -            278   1.6e-51  177.3   4.0   1   2   1.5e-33   1.8e-29  105.0   0.1    56   117     1    71     1    71 0.91 -
JF2A_TRINITY_DN18501_c0_g1_i2.p1JF2A_TRINITY_DN18501_c0_g1 -            170 113276at3193         -            278   1.6e-51  177.3   4.0   2   2   1.5e-23   1.8e-19   72.2   0.7   138   206    71   155    70   165 0.80 -
JF1J_TRINITY_DN57639_c0_g1_i2.p1JF1J_TRINITY_DN57639_c0_g1 -            125 113276at3193         -            278   3.9e-33  117.0   1.6   1   1   3.1e-35   3.6e-31  110.5   1.6   176   258    22   123    14   125 0.89 -
JF1J_TRINITY_DN57639_c0_g1_i1.p1JF1J_TRINITY_DN57639_c0_g1 -            103 113276at3193         -            278   2.6e-26   94.6   0.1   1   1   2.7e-30   3.2e-26   94.3   0.1   176   237    22    86    14    90 0.90 -
JF2A_TRINITY_DN44144_c0_g1_i1.p1JF2A_TRINITY_DN44144_c0_g1 -            124 113276at3193         -            278   0.00031   22.2   0.0   1   1   3.5e-08   0.00041   21.8   0.0     2    29    97   124    96   124 0.93 -
JF1A_TRINITY_DN65477_c0_g1_i1.p1JF1A_TRINITY_DN65477_c0_g1 -            218 113276at3193         -            278      0.13   13.6   0.1   1   1   1.7e-05      0.19   13.0   0.1   121   196    99   176    86   192 0.70 -
#
# Program:         hmmsearch
# Version:         3.2.1 (June 2018)
# Pipeline mode:   SEARCH
# Query file:      /isg/shared/databases/BUSCO/odb10/embryophyta_odb10/hmms/113276at3193.hmm
# Target file:     Juniper_final_annotations_no_contam_lvl0.faa
# Option settings: /usr/local/bin/hmmsearch --domtblout /labs/Wegrzyn/Juniper_Pine/BUSCO/NEW/busco_juniper/run_embryophyta_odb10/hmmer_output/113276at3193.out --cpu 1 /isg/shared/databases/BUSCO/odb10/embryophyta_odb10/hmms/113276at3193.hmm Juniper_final_annotations_no_contam_lvl0.faa 
# Current dir:     /labs/Wegrzyn/Juniper_Pine/BUSCO/NEW
# Date:            Thu Aug  6 16:03:35 2020
# [ok]
