#                                                                                                                   --- full sequence --- -------------- this domain -------------   hmm coord   ali coord   env coord
# target name                                               accession   tlen query name           accession   qlen   E-value  score  bias   #  of  c-Evalue  i-Evalue  score  bias  from    to  from    to  from    to  acc description of target
#                                       ------------------- ---------- ----- -------------------- ---------- ----- --------- ------ ----- --- --- --------- --------- ------ ----- ----- ----- ----- ----- ----- ----- ---- ---------------------
JF1A_TRINITY_DN62068_c8_g1_i6.p1JF1A_TRINITY_DN62068_c8_g1  -            241 113485at3193         -            268   4.9e-75  254.0  13.7   1   2     8e-34   7.9e-30  105.8   6.6    91   163    16    88    11    95 0.96 -
JF1A_TRINITY_DN62068_c8_g1_i6.p1JF1A_TRINITY_DN62068_c8_g1  -            241 113485at3193         -            268   4.9e-75  254.0  13.7   2   2   3.8e-48   3.7e-44  152.8   0.6   163   268   123   231   118   231 0.94 -
JF1A_TRINITY_DN62068_c8_g3_i1.p1JF1A_TRINITY_DN62068_c8_g3  -            105 113485at3193         -            268   7.6e-19   69.8   1.3   1   2      0.13   1.3e+03    0.1   0.0    36    56    10    30     6    43 0.82 -
JF1A_TRINITY_DN62068_c8_g3_i1.p1JF1A_TRINITY_DN62068_c8_g3  -            105 113485at3193         -            268   7.6e-19   69.8   1.3   2   2   3.4e-22   3.3e-18   67.7   1.3    31    85    46   100    37   104 0.92 -
JF1A_TRINITY_DN62068_c8_g1_i25.p1JF1A_TRINITY_DN62068_c8_g1 -            103 113485at3193         -            268   5.1e-17   63.8   0.0   1   1   6.2e-21   6.1e-17   63.5   0.0   215   268    38    93    30    93 0.93 -
JF1A_TRINITY_DN62068_c8_g1_i20.p2JF1A_TRINITY_DN62068_c8_g1 -            112 113485at3193         -            268   4.3e-12   47.6   0.0   1   1   5.8e-16   5.8e-12   47.2   0.0     8    45    32    69    28    80 0.86 -
JF1A_TRINITY_DN61807_c3_g1_i2.p1JF1A_TRINITY_DN61807_c3_g1  -            569 113485at3193         -            268     0.039   15.0   0.0   1   1   6.3e-06     0.063   14.3   0.0   156   267    11   120     4   121 0.79 -
JF1A_TRINITY_DN68741_c5_g5_i2.p1JF1A_TRINITY_DN68741_c5_g5  -            158 113485at3193         -            268     0.083   13.9   0.6   1   1   1.2e-05      0.12   13.4   0.6    58   129     6    83     2    98 0.68 -
JF1A_TRINITY_DN68174_c2_g6_i1.p1JF1A_TRINITY_DN68174_c2_g6  -            110 113485at3193         -            268       0.1   13.6   0.6   1   1   1.2e-05      0.12   13.4   0.6    68   120    29    84     5    91 0.85 -
#
# Program:         hmmsearch
# Version:         3.2.1 (June 2018)
# Pipeline mode:   SEARCH
# Query file:      /isg/shared/databases/BUSCO/odb10/embryophyta_odb10/hmms/113485at3193.hmm
# Target file:     Juniper_final_annotations_no_contam_lvl0.faa
# Option settings: /usr/local/bin/hmmsearch --domtblout /labs/Wegrzyn/Juniper_Pine/BUSCO/NEW/busco_juniper/run_embryophyta_odb10/hmmer_output/113485at3193.out --cpu 1 /isg/shared/databases/BUSCO/odb10/embryophyta_odb10/hmms/113485at3193.hmm Juniper_final_annotations_no_contam_lvl0.faa 
# Current dir:     /labs/Wegrzyn/Juniper_Pine/BUSCO/NEW
# Date:            Thu Aug  6 16:03:35 2020
# [ok]
