#                                                                                                                   --- full sequence --- -------------- this domain -------------   hmm coord   ali coord   env coord
# target name                                               accession   tlen query name           accession   qlen   E-value  score  bias   #  of  c-Evalue  i-Evalue  score  bias  from    to  from    to  from    to  acc description of target
#                                       ------------------- ---------- ----- -------------------- ---------- ----- --------- ------ ----- --- --- --------- --------- ------ ----- ----- ----- ----- ----- ----- ----- ---- ---------------------
JF1A_TRINITY_DN65902_c3_g1_i11.p1JF1A_TRINITY_DN65902_c3_g1 -            329 113514at3193         -            294  5.8e-150  500.5   1.0   1   1  9.6e-154  6.7e-150  500.2   1.0     1   293    11   322    11   323 0.94 -
JF2J_TRINITY_DN27580_c2_g1_i1.p1JF2J_TRINITY_DN27580_c2_g1  -            140 113514at3193         -            294   1.8e-66  226.4   8.1   1   1   3.1e-70   2.2e-66  226.1   8.1    54   177     1   124     1   129 0.98 -
JF1J_TRINITY_DN73281_c4_g2_i1.p1JF1J_TRINITY_DN73281_c4_g2  -            107 113514at3193         -            294   3.7e-53  182.7   2.6   1   1   6.2e-57   4.3e-53  182.5   2.6   104   198    13   107     6   107 0.98 -
JF1J_TRINITY_DN73281_c4_g2_i2.p1JF1J_TRINITY_DN73281_c4_g2  -            106 113514at3193         -            294   1.7e-49  170.6   5.1   1   1   2.8e-53     2e-49  170.5   5.1    90   186     8   104     4   106 0.95 -
JF1J_TRINITY_DN66275_c2_g2_i1.p1JF1J_TRINITY_DN66275_c2_g2  -            263 113514at3193         -            294   1.3e-18   69.3   9.3   1   1   9.3e-22   6.4e-18   67.0   7.8    48   219    37   223    21   223 0.75 -
JF3J_TRINITY_DN70673_c0_g1_i1.p1JF3J_TRINITY_DN70673_c0_g1  -            151 113514at3193         -            294   7.8e-08   33.9   3.5   1   2   1.9e-06     0.013   16.7   0.1   107   152    15    60     2    68 0.85 -
JF3J_TRINITY_DN70673_c0_g1_i1.p1JF3J_TRINITY_DN70673_c0_g1  -            151 113514at3193         -            294   7.8e-08   33.9   3.5   2   2   5.9e-07    0.0041   18.4   0.6    78   130    67   119    62   127 0.85 -
JF2A_TRINITY_DN40672_c0_g5_i2.p1JF2A_TRINITY_DN40672_c0_g5  -            358 113514at3193         -            294   1.6e-07   32.9   6.1   1   2   1.4e-06    0.0096   17.2   0.2   104   152   176   225   136   239 0.76 -
JF2A_TRINITY_DN40672_c0_g5_i2.p1JF2A_TRINITY_DN40672_c0_g5  -            358 113514at3193         -            294   1.6e-07   32.9   6.1   2   2   6.4e-07    0.0045   18.3   1.5    78   160   232   314   227   329 0.83 -
JF1A_TRINITY_DN60296_c0_g3_i2.p1JF1A_TRINITY_DN60296_c0_g3  -            216 113514at3193         -            294    0.0013   20.1   0.2   1   1   2.6e-07    0.0018   19.6   0.2   104   163   132   192    91   207 0.74 -
JF1A_TRINITY_DN72031_c0_g1_i1.p1JF1A_TRINITY_DN72031_c0_g1  -            121 113514at3193         -            294      0.21   12.8   0.0   1   1   3.6e-05      0.25   12.5   0.0   216   290     3    78     1    81 0.87 -
JF2A_TRINITY_DN42149_c0_g5_i2.p1JF2A_TRINITY_DN42149_c0_g5  -            116 113514at3193         -            294      0.38   11.9   0.7   1   1   0.00041       2.8    9.1   0.7    66   149     3    60     1    68 0.51 -
#
# Program:         hmmsearch
# Version:         3.2.1 (June 2018)
# Pipeline mode:   SEARCH
# Query file:      /isg/shared/databases/BUSCO/odb10/embryophyta_odb10/hmms/113514at3193.hmm
# Target file:     Juniper_final_annotations_no_contam_lvl0.faa
# Option settings: /usr/local/bin/hmmsearch --domtblout /labs/Wegrzyn/Juniper_Pine/BUSCO/NEW/busco_juniper/run_embryophyta_odb10/hmmer_output/113514at3193.out --cpu 1 /isg/shared/databases/BUSCO/odb10/embryophyta_odb10/hmms/113514at3193.hmm Juniper_final_annotations_no_contam_lvl0.faa 
# Current dir:     /labs/Wegrzyn/Juniper_Pine/BUSCO/NEW
# Date:            Thu Aug  6 16:03:36 2020
# [ok]
