#                                                                                                                   --- full sequence --- -------------- this domain -------------   hmm coord   ali coord   env coord
# target name                                               accession   tlen query name           accession   qlen   E-value  score  bias   #  of  c-Evalue  i-Evalue  score  bias  from    to  from    to  from    to  acc description of target
#                                       ------------------- ---------- ----- -------------------- ---------- ----- --------- ------ ----- --- --- --------- --------- ------ ----- ----- ----- ----- ----- ----- ----- ---- ---------------------
JF2A_TRINITY_DN29678_c0_g1_i1.p1JF2A_TRINITY_DN29678_c0_g1  -            233 113683at3193         -            295   1.6e-78  265.4   0.2   1   1   1.2e-81   1.9e-78  265.1   0.2     1   156    64   233    64   233 0.92 -
JF3J_TRINITY_DN71066_c2_g1_i1.p1JF3J_TRINITY_DN71066_c2_g1  -            134 113683at3193         -            295   3.5e-54  185.4   0.0   1   1   2.4e-57   3.9e-54  185.3   0.0   176   294     1   128     1   129 0.96 -
JF1A_TRINITY_DN61693_c1_g2_i1.p1JF1A_TRINITY_DN61693_c1_g2  -            344 113683at3193         -            295     4e-43  149.1   0.0   1   1   3.8e-46   6.2e-43  148.5   0.0    50   293    74   334    64   336 0.83 -
JF1A_TRINITY_DN66117_c1_g2_i4.p1JF1A_TRINITY_DN66117_c1_g2  -            147 113683at3193         -            295   3.2e-12   47.7   0.0   1   1   2.5e-15     4e-12   47.4   0.0    53   165    18   133    10   141 0.76 -
JF2A_TRINITY_DN23993_c0_g1_i1.p1JF2A_TRINITY_DN23993_c0_g1  -            105 113683at3193         -            295   6.8e-12   46.6   0.0   1   1   4.5e-15   7.2e-12   46.5   0.0    85   153    15    89     4   104 0.67 -
JF2A_TRINITY_DN42077_c1_g1_i2.p1JF2A_TRINITY_DN42077_c1_g1  -            316 113683at3193         -            295   1.2e-11   45.9   0.0   1   2   5.8e-14   9.3e-11   42.9   0.0    51   136    16    99     1   131 0.77 -
JF2A_TRINITY_DN42077_c1_g1_i2.p1JF2A_TRINITY_DN42077_c1_g1  -            316 113683at3193         -            295   1.2e-11   45.9   0.0   2   2       0.4   6.4e+02    0.7   0.0   241   291   249   304   238   307 0.74 -
JF3J_TRINITY_DN63084_c1_g2_i1.p1JF3J_TRINITY_DN63084_c1_g2  -            113 113683at3193         -            295   2.6e-11   44.7   0.0   1   1   1.7e-14   2.8e-11   44.6   0.0    52   116    12    75     2    99 0.80 -
JF1A_TRINITY_DN66117_c1_g1_i5.p1JF1A_TRINITY_DN66117_c1_g1  -            158 113683at3193         -            295   2.6e-11   44.7   0.0   1   1   1.7e-14   2.7e-11   44.7   0.0    51   119    17    84     1   132 0.73 -
JF1A_TRINITY_DN63356_c0_g8_i3.p1JF1A_TRINITY_DN63356_c0_g8  -            117 113683at3193         -            295   3.7e-11   44.2   0.0   1   1   2.6e-14   4.2e-11   44.0   0.0    51   104    43    98    25   113 0.88 -
JF1A_TRINITY_DN68239_c2_g1_i1.p1JF1A_TRINITY_DN68239_c2_g1  -            164 113683at3193         -            295   1.2e-10   42.5   0.0   1   1   8.7e-14   1.4e-10   42.3   0.0    53   114     7    67     3   122 0.72 -
JF2A_TRINITY_DN42077_c1_g1_i3.p1JF2A_TRINITY_DN42077_c1_g1  -            191 113683at3193         -            295   4.3e-10   40.7   0.0   1   1   3.3e-13   5.3e-10   40.4   0.0    62   114     8    60     2   123 0.72 -
JF1A_TRINITY_DN66117_c1_g5_i1.p1JF1A_TRINITY_DN66117_c1_g5  -            118 113683at3193         -            295   1.5e-09   38.9   0.0   1   1     1e-12   1.6e-09   38.8   0.0    52   114    19    80     7   109 0.84 -
JF1A_TRINITY_DN60064_c0_g1_i2.p1JF1A_TRINITY_DN60064_c0_g1  -            296 113683at3193         -            295   1.8e-08   35.3   0.0   1   1   1.4e-11   2.3e-08   35.0   0.0    62   174    31   147    16   179 0.71 -
JF2A_TRINITY_DN40531_c4_g4_i1.p1JF2A_TRINITY_DN40531_c4_g4  -            217 113683at3193         -            295   2.3e-08   35.0   0.1   1   1   1.8e-11   2.9e-08   34.7   0.1    62   159   102   200    82   207 0.87 -
JF1A_TRINITY_DN60064_c1_g1_i4.p1JF1A_TRINITY_DN60064_c1_g1  -            300 113683at3193         -            295   2.4e-08   35.0   0.0   1   1   2.2e-11   3.5e-08   34.4   0.0    63   183     3   128     1   161 0.71 -
JF1A_TRINITY_DN63656_c0_g3_i9.p1JF1A_TRINITY_DN63656_c0_g3  -            126 113683at3193         -            295   2.7e-06   28.2   0.1   1   1   2.1e-09   3.4e-06   27.9   0.1    56   112    61   117    47   120 0.90 -
JF2A_TRINITY_DN40531_c4_g4_i3.p1JF2A_TRINITY_DN40531_c4_g4  -            143 113683at3193         -            295     4e-06   27.7   0.1   1   1     3e-09   4.9e-06   27.4   0.1    62   129    51   120    29   126 0.86 -
JF3J_TRINITY_DN19612_c0_g1_i1.p1JF3J_TRINITY_DN19612_c0_g1  -            147 113683at3193         -            295   4.8e-06   27.4   0.1   1   1   4.1e-09   6.7e-06   26.9   0.1     1    31    65    95    65   103 0.91 -
JF1A_TRINITY_DN65571_c2_g2_i2.p1JF1A_TRINITY_DN65571_c2_g2  -            314 113683at3193         -            295   9.2e-06   26.5   0.1   1   1   4.8e-08   7.7e-05   23.5   0.1    59   290    61   299    51   304 0.73 -
JF1A_TRINITY_DN61224_c0_g4_i4.p1JF1A_TRINITY_DN61224_c0_g4  -            280 113683at3193         -            295     1e-05   26.3   0.0   1   1   7.5e-09   1.2e-05   26.1   0.0    56   161   110   223    53   244 0.74 -
JF1A_TRINITY_DN64586_c1_g1_i4.p1JF1A_TRINITY_DN64586_c1_g1  -            381 113683at3193         -            295   1.1e-05   26.2   0.0   1   2   7.9e-06     0.013   16.2   0.0    62   144   101   185    84   226 0.71 -
JF1A_TRINITY_DN64586_c1_g1_i4.p1JF1A_TRINITY_DN64586_c1_g1  -            381 113683at3193         -            295   1.1e-05   26.2   0.0   2   2    0.0025         4    8.0   0.0   238   292   302   360   298   363 0.78 -
JF1A_TRINITY_DN61693_c1_g2_i5.p1JF1A_TRINITY_DN61693_c1_g2  -            101 113683at3193         -            295   0.00021   22.1   0.0   1   1   1.5e-07   0.00024   21.9   0.0   235   292    21    76     8    79 0.85 -
JF2A_TRINITY_DN40759_c0_g8_i1.p1JF2A_TRINITY_DN40759_c0_g8  -            111 113683at3193         -            295   0.00024   21.9   0.0   1   1   1.6e-07   0.00026   21.7   0.0   212   292     5    88     1    91 0.75 -
JF3A_TRINITY_DN43613_c0_g1_i1.p2JF3A_TRINITY_DN43613_c0_g1  -            101 113683at3193         -            295   0.00025   21.8   0.0   1   1   1.5e-07   0.00025   21.8   0.0    62   104    52    93     6    99 0.90 -
JF1A_TRINITY_DN54773_c0_g1_i1.p1JF1A_TRINITY_DN54773_c0_g1  -            407 113683at3193         -            295   0.00038   21.2   0.1   1   2   4.2e-05     0.069   13.8   0.1    57   156   116   221   107   246 0.72 -
JF1A_TRINITY_DN54773_c0_g1_i1.p1JF1A_TRINITY_DN54773_c0_g1  -            407 113683at3193         -            295   0.00038   21.2   0.1   2   2     0.017        28    5.2   0.0   236   293   335   391   324   393 0.86 -
JF1A_TRINITY_DN67565_c0_g3_i2.p1JF1A_TRINITY_DN67565_c0_g3  -            102 113683at3193         -            295   0.00043   21.0   0.0   1   1     3e-07   0.00048   20.8   0.0    59   102    36    79    18    88 0.90 -
JF1A_TRINITY_DN76178_c0_g1_i1.p1JF1A_TRINITY_DN76178_c0_g1  -            156 113683at3193         -            295    0.0023   18.6   0.1   1   1   1.5e-06    0.0023   18.6   0.1    50   113    27    90    11   148 0.75 -
JF1J_TRINITY_DN66151_c0_g1_i9.p1JF1J_TRINITY_DN66151_c0_g1  -            261 113683at3193         -            295     0.003   18.2   0.0   1   1   3.4e-06    0.0055   17.4   0.0    80   170   102   197    88   201 0.69 -
JF1A_TRINITY_DN67294_c1_g1_i1.p1JF1A_TRINITY_DN67294_c1_g1  -            132 113683at3193         -            295    0.0034   18.1   0.1   1   1   4.2e-06    0.0068   17.1   0.0   232   292    64   123    61   126 0.88 -
JF1A_TRINITY_DN61189_c0_g3_i3.p1JF1A_TRINITY_DN61189_c0_g3  -            388 113683at3193         -            295    0.0049   17.6   0.0   1   2   7.4e-06     0.012   16.3   0.0    80   170   133   228   120   232 0.68 -
JF1A_TRINITY_DN61189_c0_g3_i3.p1JF1A_TRINITY_DN61189_c0_g3  -            388 113683at3193         -            295    0.0049   17.6   0.0   2   2       5.8   9.3e+03   -3.1   0.0   273   290   358   376   333   380 0.63 -
JF1A_TRINITY_DN63547_c0_g2_i5.p1JF1A_TRINITY_DN63547_c0_g2  -            104 113683at3193         -            295    0.0059   17.3   0.1   1   1     4e-06    0.0065   17.1   0.1    69   113     6    50     2    76 0.79 -
JF1A_TRINITY_DN63037_c1_g5_i5.p1JF1A_TRINITY_DN63037_c1_g5  -            121 113683at3193         -            295    0.0063   17.2   0.0   1   1   4.7e-06    0.0075   16.9   0.0   200   285     9   101     2   108 0.74 -
JF1A_TRINITY_DN57092_c0_g2_i1.p1JF1A_TRINITY_DN57092_c0_g2  -            224 113683at3193         -            295    0.0099   16.5   0.0   1   1     1e-05     0.017   15.8   0.0    76   159     8    92     3   104 0.74 -
JF3A_TRINITY_DN33302_c0_g1_i2.p1JF3A_TRINITY_DN33302_c0_g1  -            122 113683at3193         -            295      0.02   15.5   0.0   1   1   1.3e-05     0.022   15.4   0.0    82   159     4    82     1    96 0.75 -
JF1A_TRINITY_DN61842_c0_g1_i10.p1JF1A_TRINITY_DN61842_c0_g1 -            197 113683at3193         -            295     0.021   15.5   0.0   1   1   1.8e-05     0.029   15.0   0.0   240   289   133   182   113   188 0.90 -
JF1A_TRINITY_DN67565_c0_g3_i4.p1JF1A_TRINITY_DN67565_c0_g3  -            250 113683at3193         -            295     0.024   15.3   0.0   1   1   2.1e-05     0.034   14.8   0.0    60   108   178   226   162   240 0.85 -
JF1A_TRINITY_DN63547_c0_g5_i1.p1JF1A_TRINITY_DN63547_c0_g5  -            175 113683at3193         -            295     0.029   15.0   0.0   1   2       1.8   2.8e+03   -1.4   0.0   119   157    18    52     8    86 0.59 -
JF1A_TRINITY_DN63547_c0_g5_i1.p1JF1A_TRINITY_DN63547_c0_g5  -            175 113683at3193         -            295     0.029   15.0   0.0   2   2   4.8e-05     0.078   13.6   0.0   234   294   100   158    91   159 0.87 -
JF1A_TRINITY_DN63037_c1_g5_i4.p1JF1A_TRINITY_DN63037_c1_g5  -            336 113683at3193         -            295     0.037   14.7   0.0   1   2   0.00029      0.47   11.0   0.0    61   106    62   110    50   137 0.80 -
JF1A_TRINITY_DN63037_c1_g5_i4.p1JF1A_TRINITY_DN63037_c1_g5  -            336 113683at3193         -            295     0.037   14.7   0.0   2   2      0.25     4e+02    1.4   0.0   237   271   270   304   225   311 0.80 -
JF3A_TRINITY_DN54229_c2_g2_i2.p1JF3A_TRINITY_DN54229_c2_g2  -            102 113683at3193         -            295     0.059   14.0   0.0   1   1     4e-05     0.065   13.9   0.0    90   166     6    86     2    96 0.71 -
JF1A_TRINITY_DN63037_c1_g5_i9.p1JF1A_TRINITY_DN63037_c1_g5  -            151 113683at3193         -            295      0.11   13.1   0.0   1   1   8.3e-05      0.13   12.8   0.0    60   105    61   109    49   128 0.83 -
JF3J_TRINITY_DN67271_c0_g1_i4.p1JF3J_TRINITY_DN67271_c0_g1  -            104 113683at3193         -            295      0.43   11.2   0.0   1   1   0.00033      0.54   10.8   0.0   238   288    43    97    38   101 0.79 -
JF1A_TRINITY_DN63734_c0_g1_i5.p1JF1A_TRINITY_DN63734_c0_g1  -            136 113683at3193         -            295      0.59   10.7   1.3   1   2     0.085   1.4e+02    2.9   0.1   128   152    48    72    24    76 0.81 -
JF1A_TRINITY_DN63734_c0_g1_i5.p1JF1A_TRINITY_DN63734_c0_g1  -            136 113683at3193         -            295      0.59   10.7   1.3   2   2    0.0035       5.7    7.5   0.2   126   156    76   106    71   127 0.84 -
JF1A_TRINITY_DN63734_c0_g1_i2.p1JF1A_TRINITY_DN63734_c0_g1  -            151 113683at3193         -            295      0.93   10.1   1.1   1   2      0.15   2.4e+02    2.1   0.1   128   151    63    86    57    91 0.82 -
JF1A_TRINITY_DN63734_c0_g1_i2.p1JF1A_TRINITY_DN63734_c0_g1  -            151 113683at3193         -            295      0.93   10.1   1.1   2   2    0.0046       7.4    7.1   0.2   126   156    91   121    87   142 0.85 -
#
# Program:         hmmsearch
# Version:         3.2.1 (June 2018)
# Pipeline mode:   SEARCH
# Query file:      /isg/shared/databases/BUSCO/odb10/embryophyta_odb10/hmms/113683at3193.hmm
# Target file:     Juniper_final_annotations_no_contam_lvl0.faa
# Option settings: /usr/local/bin/hmmsearch --domtblout /labs/Wegrzyn/Juniper_Pine/BUSCO/NEW/busco_juniper/run_embryophyta_odb10/hmmer_output/113683at3193.out --cpu 1 /isg/shared/databases/BUSCO/odb10/embryophyta_odb10/hmms/113683at3193.hmm Juniper_final_annotations_no_contam_lvl0.faa 
# Current dir:     /labs/Wegrzyn/Juniper_Pine/BUSCO/NEW
# Date:            Thu Aug  6 16:03:39 2020
# [ok]
