#                                                                                                                   --- full sequence --- -------------- this domain -------------   hmm coord   ali coord   env coord
# target name                                               accession   tlen query name           accession   qlen   E-value  score  bias   #  of  c-Evalue  i-Evalue  score  bias  from    to  from    to  from    to  acc description of target
#                                       ------------------- ---------- ----- -------------------- ---------- ----- --------- ------ ----- --- --- --------- --------- ------ ----- ----- ----- ----- ----- ----- ----- ---- ---------------------
JF1A_TRINITY_DN62099_c3_g1_i1.p1JF1A_TRINITY_DN62099_c3_g1  -            388 115377at3193         -            297  3.2e-140  468.6   0.8   1   2   2.3e-08   0.00033   22.1   0.3     4    38    54    88    51    95 0.90 -
JF1A_TRINITY_DN62099_c3_g1_i1.p1JF1A_TRINITY_DN62099_c3_g1  -            388 115377at3193         -            297  3.2e-140  468.6   0.8   2   2  3.2e-137  4.4e-133  445.2   0.0    25   297    96   381    92   381 0.94 -
JF2A_TRINITY_DN30419_c0_g1_i1.p1JF2A_TRINITY_DN30419_c0_g1  -            319 115377at3193         -            297   9.7e-24   86.2   0.1   1   1     9e-28   1.2e-23   85.8   0.1   108   295   116   310   101   312 0.84 -
JF1A_TRINITY_DN66195_c1_g3_i4.p1JF1A_TRINITY_DN66195_c1_g3  -            310 115377at3193         -            297   1.1e-23   86.0   0.0   1   2      0.89   1.2e+04   -2.8   0.0    26    58    44    76    36    99 0.78 -
JF1A_TRINITY_DN66195_c1_g3_i4.p1JF1A_TRINITY_DN66195_c1_g3  -            310 115377at3193         -            297   1.1e-23   86.0   0.0   2   2     2e-27   2.7e-23   84.7   0.0   131   280   165   306   145   309 0.92 -
JF2A_TRINITY_DN42367_c1_g7_i9.p1JF2A_TRINITY_DN42367_c1_g7  -            387 115377at3193         -            297      0.26   12.5   0.0   1   1   3.1e-05      0.44   11.8   0.0   143   240   187   280   170   295 0.82 -
JF1A_TRINITY_DN67209_c1_g1_i17.p1JF1A_TRINITY_DN67209_c1_g1 -            142 115377at3193         -            297       0.3   12.3   0.0   1   1   2.9e-05       0.4   11.9   0.0    68   137    51   123    35   126 0.82 -
#
# Program:         hmmsearch
# Version:         3.2.1 (June 2018)
# Pipeline mode:   SEARCH
# Query file:      /isg/shared/databases/BUSCO/odb10/embryophyta_odb10/hmms/115377at3193.hmm
# Target file:     Juniper_final_annotations_no_contam_lvl0.faa
# Option settings: /usr/local/bin/hmmsearch --domtblout /labs/Wegrzyn/Juniper_Pine/BUSCO/NEW/busco_juniper/run_embryophyta_odb10/hmmer_output/115377at3193.out --cpu 1 /isg/shared/databases/BUSCO/odb10/embryophyta_odb10/hmms/115377at3193.hmm Juniper_final_annotations_no_contam_lvl0.faa 
# Current dir:     /labs/Wegrzyn/Juniper_Pine/BUSCO/NEW
# Date:            Thu Aug  6 16:04:00 2020
# [ok]
