#                                                                                                                  --- full sequence --- -------------- this domain -------------   hmm coord   ali coord   env coord
# target name                                              accession   tlen query name           accession   qlen   E-value  score  bias   #  of  c-Evalue  i-Evalue  score  bias  from    to  from    to  from    to  acc description of target
#                                      ------------------- ---------- ----- -------------------- ---------- ----- --------- ------ ----- --- --- --------- --------- ------ ----- ----- ----- ----- ----- ----- ----- ---- ---------------------
JF1J_TRINITY_DN5956_c0_g1_i1.p1JF1J_TRINITY_DN5956_c0_g1   -            101 117072at3193         -            316   2.5e-41  143.5   0.0   1   1   2.4e-45   2.8e-41  143.3   0.0    83   177     1   101     1   101 0.96 -
JF1A_TRINITY_DN59564_c0_g2_i2.p1JF1A_TRINITY_DN59564_c0_g2 -            378 117072at3193         -            316   3.2e-06   28.2   0.0   1   1     4e-10   4.6e-06   27.6   0.0    27   153   213   347   204   359 0.82 -
JF1A_TRINITY_DN59564_c0_g2_i3.p1JF1A_TRINITY_DN59564_c0_g2 -            109 117072at3193         -            316   0.00087   20.1   0.0   1   1   9.4e-08    0.0011   19.8   0.0    62   144     5    95     2   107 0.78 -
JF2A_TRINITY_DN53839_c0_g1_i1.p1JF2A_TRINITY_DN53839_c0_g1 -            131 117072at3193         -            316    0.0014   19.4   0.1   1   1     5e-07    0.0058   17.4   0.1   108   203    20   129    12   131 0.63 -
JF1A_TRINITY_DN59360_c0_g1_i9.p1JF1A_TRINITY_DN59360_c0_g1 -            348 117072at3193         -            316    0.0016   19.3   0.0   1   1     5e-07    0.0058   17.4   0.0   106   207   195   310   180   325 0.69 -
JF1A_TRINITY_DN68370_c3_g2_i1.p1JF1A_TRINITY_DN68370_c3_g2 -            214 117072at3193         -            316       0.9   10.2   0.0   1   1   0.00011       1.3    9.7   0.0    66   106    54    94    45   110 0.89 -
#
# Program:         hmmsearch
# Version:         3.2.1 (June 2018)
# Pipeline mode:   SEARCH
# Query file:      /isg/shared/databases/BUSCO/odb10/embryophyta_odb10/hmms/117072at3193.hmm
# Target file:     Juniper_final_annotations_no_contam_lvl0.faa
# Option settings: /usr/local/bin/hmmsearch --domtblout /labs/Wegrzyn/Juniper_Pine/BUSCO/NEW/busco_juniper/run_embryophyta_odb10/hmmer_output/117072at3193.out --cpu 1 /isg/shared/databases/BUSCO/odb10/embryophyta_odb10/hmms/117072at3193.hmm Juniper_final_annotations_no_contam_lvl0.faa 
# Current dir:     /labs/Wegrzyn/Juniper_Pine/BUSCO/NEW
# Date:            Thu Aug  6 16:04:16 2020
# [ok]
