#                                                                                                                    --- full sequence --- -------------- this domain -------------   hmm coord   ali coord   env coord
# target name                                                accession   tlen query name           accession   qlen   E-value  score  bias   #  of  c-Evalue  i-Evalue  score  bias  from    to  from    to  from    to  acc description of target
#                                        ------------------- ---------- ----- -------------------- ---------- ----- --------- ------ ----- --- --- --------- --------- ------ ----- ----- ----- ----- ----- ----- ----- ---- ---------------------
JF1A_TRINITY_DN67427_c1_g5_i8.p1JF1A_TRINITY_DN67427_c1_g5   -            329 118094at3193         -            276  5.5e-143  477.1   3.8   1   1  6.3e-146  6.4e-143  476.9   3.8     1   276    15   318    15   318 0.95 -
JF1A_TRINITY_DN67427_c1_g5_i7.p1JF1A_TRINITY_DN67427_c1_g5   -            217 118094at3193         -            276   1.9e-78  265.4   2.0   1   1   2.3e-81   2.4e-78  265.1   2.0     4   180     5   199     2   205 0.92 -
JF1A_TRINITY_DN67427_c1_g5_i6.p1JF1A_TRINITY_DN67427_c1_g5   -            137 118094at3193         -            276     3e-59  202.4   0.6   1   1   3.6e-62   3.7e-59  202.2   0.6    85   190    10   121     2   130 0.94 -
JF2J_TRINITY_DN22566_c0_g1_i1.p1JF2J_TRINITY_DN22566_c0_g1   -            120 118094at3193         -            276   2.3e-50  173.3   2.1   1   1   6.4e-53   6.6e-50  171.8   2.1    85   195     9   114     2   118 0.93 -
JF1A_TRINITY_DN64895_c2_g3_i12.p1JF1A_TRINITY_DN64895_c2_g3  -            321 118094at3193         -            276   3.8e-08   34.9   0.4   1   4    0.0063       6.5    7.9   0.0     9    55    38    87    30   100 0.72 -
JF1A_TRINITY_DN64895_c2_g3_i12.p1JF1A_TRINITY_DN64895_c2_g3  -            321 118094at3193         -            276   3.8e-08   34.9   0.4   2   4    0.0063       6.5    7.9   0.0     9    55   114   163   106   176 0.72 -
JF1A_TRINITY_DN64895_c2_g3_i12.p1JF1A_TRINITY_DN64895_c2_g3  -            321 118094at3193         -            276   3.8e-08   34.9   0.4   3   4    0.0063       6.5    7.9   0.0     9    55   190   239   182   252 0.72 -
JF1A_TRINITY_DN64895_c2_g3_i12.p1JF1A_TRINITY_DN64895_c2_g3  -            321 118094at3193         -            276   3.8e-08   34.9   0.4   4   4     0.015        15    6.6   0.0     9    46   266   304   258   320 0.75 -
JF3J_TRINITY_DN70705_c0_g2_i5.p1JF3J_TRINITY_DN70705_c0_g2   -            267 118094at3193         -            276   1.7e-06   29.5   0.8   1   4     0.023        24    6.0   0.0    10    55     5    53     1    66 0.74 -
JF3J_TRINITY_DN70705_c0_g2_i5.p1JF3J_TRINITY_DN70705_c0_g2   -            267 118094at3193         -            276   1.7e-06   29.5   0.8   2   4    0.0047       4.8    8.3   0.0     7    55    77   129    72   142 0.72 -
JF3J_TRINITY_DN70705_c0_g2_i5.p1JF3J_TRINITY_DN70705_c0_g2   -            267 118094at3193         -            276   1.7e-06   29.5   0.8   3   4     0.014        14    6.8   0.0     7    45   153   193   148   197 0.79 -
JF3J_TRINITY_DN70705_c0_g2_i5.p1JF3J_TRINITY_DN70705_c0_g2   -            267 118094at3193         -            276   1.7e-06   29.5   0.8   4   4     0.086        88    4.1   0.0     7    54   206   255   201   264 0.75 -
JF2A_TRINITY_DN40672_c0_g6_i1.p1JF2A_TRINITY_DN40672_c0_g6   -            205 118094at3193         -            276   2.6e-06   28.8   0.1   1   3     0.003       3.1    8.9   0.0     9    56     8    58     1    70 0.73 -
JF2A_TRINITY_DN40672_c0_g6_i1.p1JF2A_TRINITY_DN40672_c0_g6   -            205 118094at3193         -            276   2.6e-06   28.8   0.1   2   3    0.0029         3    8.9   0.0     7    56    81   134    76   146 0.72 -
JF2A_TRINITY_DN40672_c0_g6_i1.p1JF2A_TRINITY_DN40672_c0_g6   -            205 118094at3193         -            276   2.6e-06   28.8   0.1   3   3    0.0069       7.1    7.7   0.0     7    45   157   197   152   203 0.78 -
JF3A_TRINITY_DN52873_c2_g2_i14.p1JF3A_TRINITY_DN52873_c2_g2  -            267 118094at3193         -            276   5.1e-06   27.9   1.4   1   4     0.012        12    7.0   0.0    10    55    15    63    10    76 0.75 -
JF3A_TRINITY_DN52873_c2_g2_i14.p1JF3A_TRINITY_DN52873_c2_g2  -            267 118094at3193         -            276   5.1e-06   27.9   1.4   2   4    0.0047       4.8    8.3   0.0     7    55    87   139    82   152 0.72 -
JF3A_TRINITY_DN52873_c2_g2_i14.p1JF3A_TRINITY_DN52873_c2_g2  -            267 118094at3193         -            276   5.1e-06   27.9   1.4   3   4    0.0046       4.7    8.3   0.0     7    56   163   216   158   229 0.73 -
JF3A_TRINITY_DN52873_c2_g2_i14.p1JF3A_TRINITY_DN52873_c2_g2  -            267 118094at3193         -            276   5.1e-06   27.9   1.4   4   4       1.4   1.4e+03    0.2   0.0     9    31   242   264   234   267 0.82 -
JF2A_TRINITY_DN42437_c2_g1_i1.p1JF2A_TRINITY_DN42437_c2_g1   -            250 118094at3193         -            276   5.3e-06   27.8   0.2   1   3     0.005       5.1    8.2   0.0     9    55    44    93    36   106 0.73 -
JF2A_TRINITY_DN42437_c2_g1_i1.p1JF2A_TRINITY_DN42437_c2_g1   -            250 118094at3193         -            276   5.3e-06   27.8   0.2   2   3    0.0039         4    8.5   0.0     7    55   117   169   112   182 0.72 -
JF2A_TRINITY_DN42437_c2_g1_i1.p1JF2A_TRINITY_DN42437_c2_g1   -            250 118094at3193         -            276   5.3e-06   27.8   0.2   3   3    0.0064       6.6    7.8   0.0     7    46   193   234   188   250 0.75 -
JF1A_TRINITY_DN68392_c2_g1_i10.p1JF1A_TRINITY_DN68392_c2_g1  -            303 118094at3193         -            276     6e-06   27.6   0.2   1   3    0.0055       5.6    8.1   0.0     9    55    63   112    55   125 0.72 -
JF1A_TRINITY_DN68392_c2_g1_i10.p1JF1A_TRINITY_DN68392_c2_g1  -            303 118094at3193         -            276     6e-06   27.6   0.2   2   3    0.0058       5.9    8.0   0.0     9    55   139   188   131   201 0.72 -
JF1A_TRINITY_DN68392_c2_g1_i10.p1JF1A_TRINITY_DN68392_c2_g1  -            303 118094at3193         -            276     6e-06   27.6   0.2   3   3    0.0055       5.6    8.1   0.0     9    55   215   264   207   277 0.72 -
JF1A_TRINITY_DN66086_c1_g1_i4.p1JF1A_TRINITY_DN66086_c1_g1   -            295 118094at3193         -            276   1.2e-05   26.6   0.4   1   3     0.015        15    6.6   0.0    10    55    29    77    19    90 0.76 -
JF1A_TRINITY_DN66086_c1_g1_i4.p1JF1A_TRINITY_DN66086_c1_g1   -            295 118094at3193         -            276   1.2e-05   26.6   0.4   2   3    0.0055       5.6    8.0   0.0     9    55   104   153    96   166 0.72 -
JF1A_TRINITY_DN66086_c1_g1_i4.p1JF1A_TRINITY_DN66086_c1_g1   -            295 118094at3193         -            276   1.2e-05   26.6   0.4   3   3    0.0034       3.5    8.7   0.0     9    59   180   233   172   272 0.73 -
JF1A_TRINITY_DN66086_c1_g1_i3.p1JF1A_TRINITY_DN66086_c1_g1   -            294 118094at3193         -            276   3.7e-05   25.0   0.8   1   4       3.9     4e+03   -1.3   0.0    21    46     2    28     1    50 0.68 -
JF1A_TRINITY_DN66086_c1_g1_i3.p1JF1A_TRINITY_DN66086_c1_g1   -            294 118094at3193         -            276   3.7e-05   25.0   0.8   2   4    0.0055       5.6    8.1   0.0     9    55    66   115    58   128 0.72 -
JF1A_TRINITY_DN66086_c1_g1_i3.p1JF1A_TRINITY_DN66086_c1_g1   -            294 118094at3193         -            276   3.7e-05   25.0   0.8   3   4     0.024        25    5.9   0.0     9    44   142   178   134   180 0.78 -
JF1A_TRINITY_DN66086_c1_g1_i3.p1JF1A_TRINITY_DN66086_c1_g1   -            294 118094at3193         -            276   3.7e-05   25.0   0.8   4   4    0.0055       5.7    8.0   0.0     9    59   179   232   176   270 0.75 -
JF1A_TRINITY_DN66086_c1_g3_i1.p2JF1A_TRINITY_DN66086_c1_g3   -            139 118094at3193         -            276    0.0002   22.6   0.1   1   2    0.0014       1.5   10.0   0.0     9    57     8    59     1    71 0.73 -
JF1A_TRINITY_DN66086_c1_g3_i1.p2JF1A_TRINITY_DN66086_c1_g3   -            139 118094at3193         -            276    0.0002   22.6   0.1   2   2   0.00066      0.68   11.1   0.0     7    55    81   131    76   137 0.78 -
JF2J_TRINITY_DN27677_c0_g1_i3.p1JF2J_TRINITY_DN27677_c0_g1   -            259 118094at3193         -            276   0.00035   21.8   0.1   1   3    0.0043       4.4    8.4   0.0     7    56    38    91    33   104 0.73 -
JF2J_TRINITY_DN27677_c0_g1_i3.p1JF2J_TRINITY_DN27677_c0_g1   -            259 118094at3193         -            276   0.00035   21.8   0.1   2   3      0.39     4e+02    2.0   0.0    14    55   131   175   126   188 0.71 -
JF2J_TRINITY_DN27677_c0_g1_i3.p1JF2J_TRINITY_DN27677_c0_g1   -            259 118094at3193         -            276   0.00035   21.8   0.1   3   3    0.0061       6.2    7.9   0.0     7    46   199   240   194   257 0.74 -
JF1J_TRINITY_DN65897_c0_g1_i5.p1JF1J_TRINITY_DN65897_c0_g1   -            189 118094at3193         -            276   0.00046   21.5   0.1   1   2   0.00097      0.99   10.5   0.0     7    60    25    82    20    92 0.76 -
JF1J_TRINITY_DN65897_c0_g1_i5.p1JF1J_TRINITY_DN65897_c0_g1   -            189 118094at3193         -            276   0.00046   21.5   0.1   2   2    0.0026       2.6    9.1   0.0     7    57   101   155    96   166 0.75 -
JF2J_TRINITY_DN27333_c1_g3_i1.p1JF2J_TRINITY_DN27333_c1_g3   -            159 118094at3193         -            276   0.00061   21.1   0.1   1   2    0.0017       1.8    9.7   0.0     7    57    14    68     9    80 0.73 -
JF2J_TRINITY_DN27333_c1_g3_i1.p1JF2J_TRINITY_DN27333_c1_g3   -            159 118094at3193         -            276   0.00061   21.1   0.1   2   2    0.0018       1.8    9.7   0.0     7    56    90   143    85   155 0.72 -
JF2A_TRINITY_DN41254_c2_g1_i13.p1JF2A_TRINITY_DN41254_c2_g1  -            287 118094at3193         -            276   0.00061   21.1   0.2   1   3      0.69     7e+02    1.2   0.0    17    55    73   114    60   127 0.72 -
JF2A_TRINITY_DN41254_c2_g1_i13.p1JF2A_TRINITY_DN41254_c2_g1  -            287 118094at3193         -            276   0.00061   21.1   0.2   2   3    0.0053       5.4    8.1   0.0     7    55   138   190   133   203 0.72 -
JF2A_TRINITY_DN41254_c2_g1_i13.p1JF2A_TRINITY_DN41254_c2_g1  -            287 118094at3193         -            276   0.00061   21.1   0.2   3   3    0.0053       5.4    8.1   0.0     7    55   214   266   209   279 0.72 -
JF2A_TRINITY_DN35372_c0_g1_i2.p1JF2A_TRINITY_DN35372_c0_g1   -            147 118094at3193         -            276   0.00073   20.8   0.1   1   2   0.00078       0.8   10.8   0.0     9    60     8    62     1    72 0.77 -
JF2A_TRINITY_DN35372_c0_g1_i2.p1JF2A_TRINITY_DN35372_c0_g1   -            147 118094at3193         -            276   0.00073   20.8   0.1   2   2    0.0042       4.3    8.4   0.0     7    46    81   122    75   137 0.81 -
JF3J_TRINITY_DN68503_c1_g1_i6.p1JF3J_TRINITY_DN68503_c1_g1   -            178 118094at3193         -            276   0.00075   20.8   0.1   1   2     0.002         2    9.5   0.0     6    56    31    85    27    98 0.72 -
JF3J_TRINITY_DN68503_c1_g1_i6.p1JF3J_TRINITY_DN68503_c1_g1   -            178 118094at3193         -            276   0.00075   20.8   0.1   2   2     0.002       2.1    9.5   0.0     7    56   108   161   103   173 0.72 -
JF3J_TRINITY_DN68503_c1_g1_i5.p1JF3J_TRINITY_DN68503_c1_g1   -            210 118094at3193         -            276   0.00098   20.4   0.1   1   2    0.0031       3.1    8.9   0.0     7    56    64   117    59   129 0.72 -
JF3J_TRINITY_DN68503_c1_g1_i5.p1JF3J_TRINITY_DN68503_c1_g1   -            210 118094at3193         -            276   0.00098   20.4   0.1   2   2    0.0028       2.9    9.0   0.0     7    56   140   193   135   205 0.72 -
JF1J_TRINITY_DN72677_c2_g4_i5.p1JF1J_TRINITY_DN72677_c2_g4   -            185 118094at3193         -            276    0.0011   20.3   0.1   1   2    0.0023       2.4    9.3   0.0     7    56    41    94    36   107 0.73 -
JF1J_TRINITY_DN72677_c2_g4_i5.p1JF1J_TRINITY_DN72677_c2_g4   -            185 118094at3193         -            276    0.0011   20.3   0.1   2   2    0.0024       2.5    9.2   0.0     7    56   117   170   112   182 0.72 -
JF2J_TRINITY_DN27677_c0_g3_i1.p1JF2J_TRINITY_DN27677_c0_g3   -            145 118094at3193         -            276    0.0011   20.2   0.1   1   2    0.0012       1.2   10.2   0.0     6    57    17    72    12    84 0.73 -
JF2J_TRINITY_DN27677_c0_g3_i1.p1JF2J_TRINITY_DN27677_c0_g3   -            145 118094at3193         -            276    0.0011   20.2   0.1   2   2    0.0046       4.7    8.3   0.0     7    45    94   134    89   139 0.78 -
JF3A_TRINITY_DN52494_c0_g2_i1.p1JF3A_TRINITY_DN52494_c0_g2   -            180 118094at3193         -            276    0.0013   20.0   0.1   1   2    0.0022       2.3    9.3   0.0     7    56    44    97    39   110 0.73 -
JF3A_TRINITY_DN52494_c0_g2_i1.p1JF3A_TRINITY_DN52494_c0_g2   -            180 118094at3193         -            276    0.0013   20.0   0.1   2   2    0.0032       3.3    8.8   0.0     7    46   120   161   115   178 0.74 -
JF2A_TRINITY_DN40844_c1_g1_i9.p1JF2A_TRINITY_DN40844_c1_g1   -            152 118094at3193         -            276    0.0015   19.7   0.1   1   2   0.00093      0.95   10.6   0.0     7    57    12    66     7    80 0.73 -
JF2A_TRINITY_DN40844_c1_g1_i9.p1JF2A_TRINITY_DN40844_c1_g1   -            152 118094at3193         -            276    0.0015   19.7   0.1   2   2    0.0086       8.8    7.4   0.0     7    42   102   138    97   149 0.84 -
JF3J_TRINITY_DN70705_c0_g2_i3.p1JF3J_TRINITY_DN70705_c0_g2   -            191 118094at3193         -            276    0.0017   19.6   0.4   1   3     0.013        13    6.8   0.0    10    56     5    54     1    66 0.74 -
JF3J_TRINITY_DN70705_c0_g2_i3.p1JF3J_TRINITY_DN70705_c0_g2   -            191 118094at3193         -            276    0.0017   19.6   0.4   2   3    0.0024       2.4    9.2   0.0     7    57    77   131    72   147 0.74 -
JF3J_TRINITY_DN70705_c0_g2_i3.p1JF3J_TRINITY_DN70705_c0_g2   -            191 118094at3193         -            276    0.0017   19.6   0.4   3   3       1.3   1.4e+03    0.2   0.0     7    31   165   190   160   191 0.82 -
JF2J_TRINITY_DN27677_c0_g1_i2.p1JF2J_TRINITY_DN27677_c0_g1   -            177 118094at3193         -            276    0.0019   19.4   0.0   1   2    0.0021       2.2    9.4   0.0     7    56    38    91    33   104 0.73 -
JF2J_TRINITY_DN27677_c0_g1_i2.p1JF2J_TRINITY_DN27677_c0_g1   -            177 118094at3193         -            276    0.0019   19.4   0.0   2   2    0.0051       5.3    8.1   0.0     7    46   114   155   109   161 0.78 -
JF2A_TRINITY_DN41682_c0_g1_i8.p1JF2A_TRINITY_DN41682_c0_g1   -            174 118094at3193         -            276    0.0021   19.3   0.1   1   2    0.0052       5.3    8.1   0.0     7    56    17    70    12    83 0.73 -
JF2A_TRINITY_DN41682_c0_g1_i8.p1JF2A_TRINITY_DN41682_c0_g1   -            174 118094at3193         -            276    0.0021   19.3   0.1   2   2    0.0021       2.1    9.4   0.0     7    56    93   146    88   159 0.73 -
JF3J_TRINITY_DN68503_c1_g1_i7.p1JF3J_TRINITY_DN68503_c1_g1   -            218 118094at3193         -            276    0.0022   19.3   0.1   1   2    0.0033       3.4    8.8   0.0     7    56    18    71    13    83 0.72 -
JF3J_TRINITY_DN68503_c1_g1_i7.p1JF3J_TRINITY_DN68503_c1_g1   -            218 118094at3193         -            276    0.0022   19.3   0.1   2   2     0.003       3.1    8.9   0.0     7    47    94   136    89   203 0.77 -
JF1A_TRINITY_DN65241_c1_g3_i3.p1JF1A_TRINITY_DN65241_c1_g3   -            195 118094at3193         -            276    0.0026   19.0   0.0   1   2    0.0027       2.7    9.1   0.0     7    56    17    70    12    82 0.72 -
JF1A_TRINITY_DN65241_c1_g3_i3.p1JF1A_TRINITY_DN65241_c1_g3   -            195 118094at3193         -            276    0.0026   19.0   0.0   2   2    0.0054       5.5    8.1   0.0     7    46    93   134    88   148 0.78 -
JF3A_TRINITY_DN58589_c1_g6_i1.p1JF3A_TRINITY_DN58589_c1_g6   -            134 118094at3193         -            276    0.0045   18.2   0.0   1   2    0.0012       1.2   10.3   0.0     7    57    15    69    10    81 0.73 -
JF3A_TRINITY_DN58589_c1_g6_i1.p1JF3A_TRINITY_DN58589_c1_g6   -            134 118094at3193         -            276    0.0045   18.2   0.0   2   2      0.02        20    6.2   0.0     7    43    91   128    86   132 0.85 -
JF3J_TRINITY_DN69892_c2_g3_i2.p1JF3J_TRINITY_DN69892_c2_g3   -            138 118094at3193         -            276    0.0046   18.2   0.1   1   2    0.0011       1.1   10.4   0.0     6    57    19    74    14    86 0.73 -
JF3J_TRINITY_DN69892_c2_g3_i2.p1JF3J_TRINITY_DN69892_c2_g3   -            138 118094at3193         -            276    0.0046   18.2   0.1   2   2     0.021        22    6.1   0.0     7    43    96   133    91   137 0.85 -
JF2A_TRINITY_DN41126_c0_g1_i11.p1JF2A_TRINITY_DN41126_c0_g1  -            166 118094at3193         -            276    0.0067   17.6   0.1   1   2    0.0019       1.9    9.6   0.0     7    56    51   104    46   117 0.73 -
JF2A_TRINITY_DN41126_c0_g1_i11.p1JF2A_TRINITY_DN41126_c0_g1  -            166 118094at3193         -            276    0.0067   17.6   0.1   2   2     0.019        20    6.3   0.0     7    43   127   164   122   166 0.80 -
JF3A_TRINITY_DN50781_c1_g4_i3.p1JF3A_TRINITY_DN50781_c1_g4   -            197 118094at3193         -            276    0.0089   17.2   0.1   1   2     0.017        18    6.4   0.0    16    47    46    78    33   103 0.77 -
JF3A_TRINITY_DN50781_c1_g4_i3.p1JF3A_TRINITY_DN50781_c1_g4   -            197 118094at3193         -            276    0.0089   17.2   0.1   2   2    0.0025       2.6    9.1   0.0     5    35   111   142   106   182 0.72 -
JF1A_TRINITY_DN66279_c1_g5_i3.p1JF1A_TRINITY_DN66279_c1_g5   -            215 118094at3193         -            276     0.013   16.7   0.0   1   1   1.4e-05     0.015   16.5   0.0     2    61     8    68     7   107 0.90 -
JF3J_TRINITY_DN69892_c2_g2_i7.p1JF3J_TRINITY_DN69892_c2_g2   -            127 118094at3193         -            276     0.023   15.9   0.2   1   2    0.0012       1.2   10.3   0.0     9    57     8    59     1    71 0.73 -
JF3J_TRINITY_DN69892_c2_g2_i7.p1JF3J_TRINITY_DN69892_c2_g2   -            127 118094at3193         -            276     0.023   15.9   0.2   2   2     0.088        90    4.1   0.1     7    38    81   113    76   119 0.83 -
JF1J_TRINITY_DN72677_c2_g1_i3.p1JF1J_TRINITY_DN72677_c2_g1   -            130 118094at3193         -            276     0.024   15.8   0.1   1   2     0.031        31    5.6   0.0    13    57    15    62     3    74 0.72 -
JF1J_TRINITY_DN72677_c2_g1_i3.p1JF1J_TRINITY_DN72677_c2_g1   -            130 118094at3193         -            276     0.024   15.8   0.1   2   2    0.0039         4    8.5   0.0     7    45    84   124    79   128 0.78 -
JF2A_TRINITY_DN42521_c0_g1_i5.p1JF2A_TRINITY_DN42521_c0_g1   -            202 118094at3193         -            276     0.028   15.6   0.3   1   3       1.1   1.2e+03    0.5   0.0    20    55     3    41     1    54 0.68 -
JF2A_TRINITY_DN42521_c0_g1_i5.p1JF2A_TRINITY_DN42521_c0_g1   -            202 118094at3193         -            276     0.028   15.6   0.3   2   3    0.0039         4    8.5   0.0     7    56    65   118    60   131 0.73 -
JF2A_TRINITY_DN42521_c0_g1_i5.p1JF2A_TRINITY_DN42521_c0_g1   -            202 118094at3193         -            276     0.028   15.6   0.3   3   3      0.18   1.8e+02    3.1   0.0     7    38   141   173   136   181 0.82 -
JF1J_TRINITY_DN64690_c1_g2_i5.p1JF1J_TRINITY_DN64690_c1_g2   -            137 118094at3193         -            276     0.028   15.6   0.0   1   2     0.044        45    5.1   0.0    14    57    17    63     7    75 0.72 -
JF1J_TRINITY_DN64690_c1_g2_i5.p1JF1J_TRINITY_DN64690_c1_g2   -            137 118094at3193         -            276     0.028   15.6   0.0   2   2    0.0035       3.5    8.7   0.0     7    46    85   126    80   134 0.79 -
JF1A_TRINITY_DN67090_c4_g1_i1.p1JF1A_TRINITY_DN67090_c4_g1   -            122 118094at3193         -            276     0.032   15.4   0.1   1   2   0.00035      0.36   12.0   0.0     7    60    19    76    14    87 0.77 -
JF1A_TRINITY_DN67090_c4_g1_i1.p1JF1A_TRINITY_DN67090_c4_g1   -            122 118094at3193         -            276     0.032   15.4   0.1   2   2      0.44   4.5e+02    1.8   0.0     7    31    95   120    89   122 0.82 -
JF3J_TRINITY_DN68503_c1_g1_i13.p1JF3J_TRINITY_DN68503_c1_g1  -            113 118094at3193         -            276     0.039   15.1   0.2   1   2    0.0007      0.72   11.0   0.0     6    58     5    61     1    72 0.73 -
JF3J_TRINITY_DN68503_c1_g1_i13.p1JF3J_TRINITY_DN68503_c1_g1  -            113 118094at3193         -            276     0.039   15.1   0.2   2   2      0.25   2.6e+02    2.6   0.0     6    32    81   108    76   112 0.82 -
JF2A_TRINITY_DN42521_c0_g1_i2.p1JF2A_TRINITY_DN42521_c0_g1   -            132 118094at3193         -            276      0.04   15.1   0.1   1   2   0.00096      0.98   10.5   0.0     7    57    20    74    15    86 0.73 -
JF2A_TRINITY_DN42521_c0_g1_i2.p1JF2A_TRINITY_DN42521_c0_g1   -            132 118094at3193         -            276      0.04   15.1   0.1   2   2      0.21   2.1e+02    2.9   0.0     7    34    96   124    90   129 0.82 -
JF2A_TRINITY_DN40844_c1_g1_i10.p1JF2A_TRINITY_DN40844_c1_g1  -            226 118094at3193         -            276     0.046   14.9   0.1   1   2      0.11   1.1e+02    3.8   0.0     7    41    18    53    13    59 0.84 -
JF2A_TRINITY_DN40844_c1_g1_i10.p1JF2A_TRINITY_DN40844_c1_g1  -            226 118094at3193         -            276     0.046   14.9   0.1   2   2    0.0036       3.7    8.7   0.0     7    57   153   207   148   218 0.75 -
JF2A_TRINITY_DN26963_c0_g1_i2.p1JF2A_TRINITY_DN26963_c0_g1   -            190 118094at3193         -            276     0.054   14.7   0.0   1   1     7e-05     0.072   14.3   0.0     3    58    75   132    74   187 0.67 -
JF1A_TRINITY_DN60589_c1_g4_i6.p1JF1A_TRINITY_DN60589_c1_g4   -            103 118094at3193         -            276     0.064   14.4   0.0   1   1   7.1e-05     0.073   14.2   0.0     3    65     6    72     4    86 0.79 -
JF2A_TRINITY_DN10234_c0_g1_i2.p1JF2A_TRINITY_DN10234_c0_g1   -            167 118094at3193         -            276     0.075   14.2   0.0   1   1   0.00011      0.12   13.6   0.0   111   164    20    85    13   100 0.69 -
JF1A_TRINITY_DN67090_c4_g2_i4.p2JF1A_TRINITY_DN67090_c4_g2   -            113 118094at3193         -            276     0.077   14.2   0.3   1   2     0.001         1   10.5   0.0     9    58     8    60     1    72 0.73 -
JF1A_TRINITY_DN67090_c4_g2_i4.p2JF1A_TRINITY_DN67090_c4_g2   -            113 118094at3193         -            276     0.077   14.2   0.3   2   2      0.31   3.2e+02    2.3   0.1     7    32    81   107    75   111 0.81 -
JF1J_TRINITY_DN72586_c0_g1_i15.p1JF1J_TRINITY_DN72586_c0_g1  -            772 118094at3193         -            276      0.08   14.1   0.0   1   1   0.00012      0.12   13.5   0.0     2    61     8    68     7    95 0.91 -
JF2A_TRINITY_DN41682_c0_g1_i10.p1JF2A_TRINITY_DN41682_c0_g1  -            148 118094at3193         -            276     0.085   14.0   0.1   1   2    0.0015       1.5    9.9   0.0     7    57    20    74    15    86 0.73 -
JF2A_TRINITY_DN41682_c0_g1_i10.p1JF2A_TRINITY_DN41682_c0_g1  -            148 118094at3193         -            276     0.085   14.0   0.1   2   2      0.32   3.3e+02    2.2   0.0     7    33    96   123    91   136 0.81 -
JF1J_TRINITY_DN64690_c1_g2_i2.p1JF1J_TRINITY_DN64690_c1_g2   -            132 118094at3193         -            276      0.11   13.7   0.0   1   2      0.38   3.9e+02    2.0   0.0    19    57     3    44     1    56 0.69 -
JF1J_TRINITY_DN64690_c1_g2_i2.p1JF1J_TRINITY_DN64690_c1_g2   -            132 118094at3193         -            276      0.11   13.7   0.0   2   2    0.0016       1.6    9.9   0.0     7    50    66   111    61   117 0.79 -
JF3J_TRINITY_DN69892_c2_g3_i4.p1JF3J_TRINITY_DN69892_c2_g3   -            156 118094at3193         -            276      0.11   13.7   0.2   1   2    0.0017       1.7    9.8   0.0     7    57    35    89    30   101 0.73 -
JF3J_TRINITY_DN69892_c2_g3_i4.p1JF3J_TRINITY_DN69892_c2_g3   -            156 118094at3193         -            276      0.11   13.7   0.2   2   2      0.36   3.7e+02    2.1   0.0     7    33   111   138   105   147 0.82 -
JF1A_TRINITY_DN68392_c2_g1_i14.p1JF1A_TRINITY_DN68392_c2_g1  -            178 118094at3193         -            276      0.19   12.9   0.1   1   2    0.0021       2.1    9.4   0.0     7    56    60   113    55   126 0.73 -
JF1A_TRINITY_DN68392_c2_g1_i14.p1JF1A_TRINITY_DN68392_c2_g1  -            178 118094at3193         -            276      0.19   12.9   0.1   2   2      0.75   7.6e+02    1.1   0.0     7    31   136   161   131   167 0.82 -
JF2J_TRINITY_DN29123_c0_g3_i1.p1JF2J_TRINITY_DN29123_c0_g3   -            133 118094at3193         -            276      0.19   12.9   0.0   1   1    0.0003       0.3   12.2   0.0     7    58    19    74    14    94 0.75 -
JF3J_TRINITY_DN69892_c2_g2_i1.p1JF3J_TRINITY_DN69892_c2_g2   -            140 118094at3193         -            276       0.2   12.8   0.1   1   2      0.92   9.4e+02    0.8   0.0    21    56     3    41     1    53 0.68 -
JF3J_TRINITY_DN69892_c2_g2_i1.p1JF3J_TRINITY_DN69892_c2_g2   -            140 118094at3193         -            276       0.2   12.8   0.1   2   2    0.0013       1.4   10.1   0.0     7    56    64   117    59   129 0.72 -
JF2A_TRINITY_DN40844_c1_g1_i3.p1JF2A_TRINITY_DN40844_c1_g1   -            221 118094at3193         -            276       0.2   12.8   0.1   1   2       0.1     1e+02    3.9   0.0     7    41    18    53    13    59 0.84 -
JF2A_TRINITY_DN40844_c1_g1_i3.p1JF2A_TRINITY_DN40844_c1_g1   -            221 118094at3193         -            276       0.2   12.8   0.1   2   2     0.016        17    6.5   0.0     7    42   171   207   166   218 0.84 -
JF2A_TRINITY_DN42437_c2_g4_i1.p1JF2A_TRINITY_DN42437_c2_g4   -            105 118094at3193         -            276      0.23   12.6   0.2   1   2   0.00069      0.71   11.0   0.0     9    58     8    60     1    73 0.73 -
JF2A_TRINITY_DN42437_c2_g4_i1.p1JF2A_TRINITY_DN42437_c2_g4   -            105 118094at3193         -            276      0.23   12.6   0.2   2   2       1.9     2e+03   -0.3   0.0     7    29    81   104    75   105 0.79 -
JF1A_TRINITY_DN65852_c1_g1_i5.p1JF1A_TRINITY_DN65852_c1_g1   -            428 118094at3193         -            276      0.27   12.4   0.1   1   2      0.27   2.7e+02    2.5   0.0     4    61     7    68     3    82 0.67 -
JF1A_TRINITY_DN65852_c1_g1_i5.p1JF1A_TRINITY_DN65852_c1_g1   -            428 118094at3193         -            276      0.27   12.4   0.1   2   2    0.0081       8.3    7.5   0.0    35    73   173   211   166   223 0.93 -
JF3J_TRINITY_DN66779_c0_g11_i1.p1JF3J_TRINITY_DN66779_c0_g11 -            109 118094at3193         -            276      0.27   12.4   0.0   1   1   0.00036      0.37   11.9   0.0     7    55    50   100    45   107 0.79 -
JF1A_TRINITY_DN60448_c3_g1_i11.p1JF1A_TRINITY_DN60448_c3_g1  -            128 118094at3193         -            276      0.29   12.3   0.0   1   1    0.0003       0.3   12.2   0.0     2    59    14    75    13   109 0.77 -
JF1A_TRINITY_DN64895_c2_g3_i2.p1JF1A_TRINITY_DN64895_c2_g3   -            210 118094at3193         -            276      0.32   12.1   0.0   1   2      0.26   2.7e+02    2.5   0.0    16    57    39    83    37   103 0.74 -
JF1A_TRINITY_DN64895_c2_g3_i2.p1JF1A_TRINITY_DN64895_c2_g3   -            210 118094at3193         -            276      0.32   12.1   0.0   2   2    0.0075       7.7    7.6   0.0     7    46   152   193   147   209 0.75 -
JF2A_TRINITY_DN37369_c0_g2_i2.p1JF2A_TRINITY_DN37369_c0_g2   -            111 118094at3193         -            276      0.35   12.0   0.0   1   1    0.0004      0.41   11.8   0.0     4    62     1    62     1    73 0.74 -
JF3J_TRINITY_DN67014_c3_g2_i8.p2JF3J_TRINITY_DN67014_c3_g2   -            122 118094at3193         -            276      0.35   12.0   0.8   1   2    0.0029         3    8.9   0.0     6    34    48    77    43    82 0.84 -
JF3J_TRINITY_DN67014_c3_g2_i8.p2JF3J_TRINITY_DN67014_c3_g2   -            122 118094at3193         -            276      0.35   12.0   0.8   2   2      0.56   5.7e+02    1.5   0.1    84   110    91   117    81   119 0.84 -
JF1A_TRINITY_DN64895_c2_g3_i1.p1JF1A_TRINITY_DN64895_c2_g3   -            161 118094at3193         -            276      0.43   11.7   0.1   1   2    0.0017       1.7    9.7   0.0     7    57    35    89    30   104 0.73 -
JF1A_TRINITY_DN64895_c2_g3_i1.p1JF1A_TRINITY_DN64895_c2_g3   -            161 118094at3193         -            276      0.43   11.7   0.1   2   2         2   2.1e+03   -0.4   0.0     9    31   138   160   132   161 0.87 -
JF1J_TRINITY_DN63694_c3_g1_i2.p1JF1J_TRINITY_DN63694_c3_g1   -            101 118094at3193         -            276      0.46   11.6   0.0   1   1   0.00054      0.55   11.4   0.0     9    59     8    61     1    81 0.75 -
JF3A_TRINITY_DN56452_c1_g2_i1.p1JF3A_TRINITY_DN56452_c1_g2   -            114 118094at3193         -            276      0.48   11.6   0.0   1   1   0.00053      0.54   11.4   0.0     5    59    21    79    17    98 0.74 -
JF2A_TRINITY_DN40909_c0_g5_i3.p1JF2A_TRINITY_DN40909_c0_g5   -            270 118094at3193         -            276       0.5   11.5   0.1   1   1    0.0011       1.1   10.4   0.1   118   265   126   266    92   269 0.83 -
JF2A_TRINITY_DN42437_c2_g3_i4.p1JF2A_TRINITY_DN42437_c2_g3   -            104 118094at3193         -            276      0.54   11.4   0.0   1   1   0.00062      0.63   11.2   0.0     7    58    31    86    26    97 0.73 -
JF3J_TRINITY_DN72593_c0_g3_i1.p1JF3J_TRINITY_DN72593_c0_g3   -            111 118094at3193         -            276      0.55   11.4   0.0   1   1   0.00064      0.66   11.1   0.0     7    46    37    78    32   102 0.74 -
JF3J_TRINITY_DN63951_c1_g2_i2.p1JF3J_TRINITY_DN63951_c1_g2   -            103 118094at3193         -            276      0.64   11.2   0.0   1   1    0.0008      0.81   10.8   0.0    34    73    10    49     5    55 0.93 -
#
# Program:         hmmsearch
# Version:         3.2.1 (June 2018)
# Pipeline mode:   SEARCH
# Query file:      /isg/shared/databases/BUSCO/odb10/embryophyta_odb10/hmms/118094at3193.hmm
# Target file:     Juniper_final_annotations_no_contam_lvl0.faa
# Option settings: /usr/local/bin/hmmsearch --domtblout /labs/Wegrzyn/Juniper_Pine/BUSCO/NEW/busco_juniper/run_embryophyta_odb10/hmmer_output/118094at3193.out --cpu 1 /isg/shared/databases/BUSCO/odb10/embryophyta_odb10/hmms/118094at3193.hmm Juniper_final_annotations_no_contam_lvl0.faa 
# Current dir:     /labs/Wegrzyn/Juniper_Pine/BUSCO/NEW
# Date:            Thu Aug  6 16:04:37 2020
# [ok]
