#                                                                                                                   --- full sequence --- -------------- this domain -------------   hmm coord   ali coord   env coord
# target name                                               accession   tlen query name           accession   qlen   E-value  score  bias   #  of  c-Evalue  i-Evalue  score  bias  from    to  from    to  from    to  acc description of target
#                                       ------------------- ---------- ----- -------------------- ---------- ----- --------- ------ ----- --- --- --------- --------- ------ ----- ----- ----- ----- ----- ----- ----- ---- ---------------------
JF1A_TRINITY_DN65964_c2_g4_i1.p1JF1A_TRINITY_DN65964_c2_g4  -            262 119120at3193         -            373   5.3e-87  294.0   0.3   1   1   7.9e-91   6.1e-87  293.9   0.3     1   189    56   262    56   262 0.95 -
JF1A_TRINITY_DN66748_c1_g1_i1.p1JF1A_TRINITY_DN66748_c1_g1  -            174 119120at3193         -            373   2.9e-43  150.1   2.3   1   1   6.7e-46   5.2e-42  146.0   2.3   257   373     1   150     1   150 0.81 -
JF1J_TRINITY_DN54131_c0_g1_i1.p1JF1J_TRINITY_DN54131_c0_g1  -            116 119120at3193         -            373   8.5e-24   86.1   0.1   1   1   1.3e-27   9.9e-24   85.8   0.1    82   145    41   108    30   115 0.91 -
JF1A_TRINITY_DN56077_c0_g1_i1.p1JF1A_TRINITY_DN56077_c0_g1  -            234 119120at3193         -            373   2.5e-10   41.7   0.0   1   1   5.2e-14     4e-10   41.0   0.0   161   313     9   168     5   222 0.74 -
JF1A_TRINITY_DN63403_c0_g3_i2.p1JF1A_TRINITY_DN63403_c0_g3  -            480 119120at3193         -            373    0.0046   17.8   0.0   1   2    0.0045        35    5.1   0.0   193   247   176   232   155   251 0.74 -
JF1A_TRINITY_DN63403_c0_g3_i2.p1JF1A_TRINITY_DN63403_c0_g3  -            480 119120at3193         -            373    0.0046   17.8   0.0   2   2   0.00011      0.86   10.3   0.0   296   350   369   412   327   429 0.76 -
JF2J_TRINITY_DN28566_c2_g1_i5.p1JF2J_TRINITY_DN28566_c2_g1  -            118 119120at3193         -            373       0.6   10.9   0.1   1   1   8.8e-05      0.68   10.7   0.1   202   268    23    90    17   109 0.83 -
JF3J_TRINITY_DN63887_c2_g1_i2.p1JF3J_TRINITY_DN63887_c2_g1  -            112 119120at3193         -            373      0.61   10.8   0.0   1   1   9.8e-05      0.76   10.5   0.0    64   105    10    51     4    55 0.87 -
JF3J_TRINITY_DN73926_c1_g1_i17.p1JF3J_TRINITY_DN73926_c1_g1 -            114 119120at3193         -            373       0.7   10.6   0.0   1   1    0.0001      0.81   10.4   0.0   202   266    29    94    22   110 0.82 -
JF3J_TRINITY_DN67766_c0_g1_i2.p1JF3J_TRINITY_DN67766_c0_g1  -            151 119120at3193         -            373       3.5    8.3   4.7   1   1    0.0006       4.6    7.9   4.7   136   197    57   118    45   126 0.87 -
#
# Program:         hmmsearch
# Version:         3.2.1 (June 2018)
# Pipeline mode:   SEARCH
# Query file:      /isg/shared/databases/BUSCO/odb10/embryophyta_odb10/hmms/119120at3193.hmm
# Target file:     Juniper_final_annotations_no_contam_lvl0.faa
# Option settings: /usr/local/bin/hmmsearch --domtblout /labs/Wegrzyn/Juniper_Pine/BUSCO/NEW/busco_juniper/run_embryophyta_odb10/hmmer_output/119120at3193.out --cpu 1 /isg/shared/databases/BUSCO/odb10/embryophyta_odb10/hmms/119120at3193.hmm Juniper_final_annotations_no_contam_lvl0.faa 
# Current dir:     /labs/Wegrzyn/Juniper_Pine/BUSCO/NEW
# Date:            Thu Aug  6 16:04:44 2020
# [ok]
