#                                                                                                                  --- full sequence --- -------------- this domain -------------   hmm coord   ali coord   env coord
# target name                                              accession   tlen query name           accession   qlen   E-value  score  bias   #  of  c-Evalue  i-Evalue  score  bias  from    to  from    to  from    to  acc description of target
#                                      ------------------- ---------- ----- -------------------- ---------- ----- --------- ------ ----- --- --- --------- --------- ------ ----- ----- ----- ----- ----- ----- ----- ---- ---------------------
JF2A_TRINITY_DN38794_c0_g1_i3.p1JF2A_TRINITY_DN38794_c0_g1 -            286 123400at3193         -            239   7.2e-95  319.0   5.7   1   1   3.8e-99   8.8e-95  318.7   5.7     2   225    40   286    39   286 0.91 -
JF1A_TRINITY_DN67625_c1_g3_i1.p1JF1A_TRINITY_DN67625_c1_g3 -            169 123400at3193         -            239   6.1e-30  106.5   0.7   1   1   3.3e-34   7.5e-30  106.2   0.7     2    78    57   136    56   149 0.91 -
JF1J_TRINITY_DN56867_c1_g1_i3.p1JF1J_TRINITY_DN56867_c1_g1 -            206 123400at3193         -            239    0.0033   19.0   0.0   1   1   2.1e-07    0.0049   18.4   0.0    21    43   184   206   169   206 0.85 -
#
# Program:         hmmsearch
# Version:         3.2.1 (June 2018)
# Pipeline mode:   SEARCH
# Query file:      /isg/shared/databases/BUSCO/odb10/embryophyta_odb10/hmms/123400at3193.hmm
# Target file:     Juniper_final_annotations_no_contam_lvl0.faa
# Option settings: /usr/local/bin/hmmsearch --domtblout /labs/Wegrzyn/Juniper_Pine/BUSCO/NEW/busco_juniper/run_embryophyta_odb10/hmmer_output/123400at3193.out --cpu 1 /isg/shared/databases/BUSCO/odb10/embryophyta_odb10/hmms/123400at3193.hmm Juniper_final_annotations_no_contam_lvl0.faa 
# Current dir:     /labs/Wegrzyn/Juniper_Pine/BUSCO/NEW
# Date:            Thu Aug  6 16:05:23 2020
# [ok]
