#                                                                                                                   --- full sequence --- -------------- this domain -------------   hmm coord   ali coord   env coord
# target name                                               accession   tlen query name           accession   qlen   E-value  score  bias   #  of  c-Evalue  i-Evalue  score  bias  from    to  from    to  from    to  acc description of target
#                                       ------------------- ---------- ----- -------------------- ---------- ----- --------- ------ ----- --- --- --------- --------- ------ ----- ----- ----- ----- ----- ----- ----- ---- ---------------------
JF1A_TRINITY_DN65037_c2_g1_i8.p1JF1A_TRINITY_DN65037_c2_g1  -            274 123630at3193         -            290  5.2e-113  378.8   0.5   1   1  2.6e-116  6.3e-113  378.5   0.5    35   289     8   268     3   269 0.95 -
JF1A_TRINITY_DN65037_c2_g1_i13.p1JF1A_TRINITY_DN65037_c2_g1 -            246 123630at3193         -            290   1.5e-70  239.5   2.0   1   1   8.6e-74   2.1e-70  239.0   2.0     7   180    63   233    59   240 0.96 -
JF2A_TRINITY_DN41148_c0_g3_i12.p1JF2A_TRINITY_DN41148_c0_g3 -            422 123630at3193         -            290   8.1e-29  102.5   0.4   1   2       1.6   3.9e+03   -1.5   0.0   180   221    53    94    42   111 0.67 -
JF2A_TRINITY_DN41148_c0_g3_i12.p1JF2A_TRINITY_DN41148_c0_g3 -            422 123630at3193         -            290   8.1e-29  102.5   0.4   2   2   2.4e-31   5.7e-28   99.7   0.1     8   192   180   347   173   353 0.92 -
JF2A_TRINITY_DN7893_c0_g1_i1.p1JF2A_TRINITY_DN7893_c0_g1    -            174 123630at3193         -            290   5.5e-28   99.7   3.8   1   2   3.7e-19   8.8e-16   59.7   0.2   111   194     4    81     1    87 0.91 -
JF2A_TRINITY_DN7893_c0_g1_i1.p1JF2A_TRINITY_DN7893_c0_g1    -            174 123630at3193         -            290   5.5e-28   99.7   3.8   2   2   6.6e-14   1.6e-10   42.4   0.4   102   194    80   168    80   173 0.85 -
JF1A_TRINITY_DN65037_c2_g1_i4.p1JF1A_TRINITY_DN65037_c2_g1  -            133 123630at3193         -            290   8.4e-26   92.5   0.4   1   1   4.7e-29   1.1e-25   92.1   0.3   226   289    63   127    40   128 0.90 -
JF1A_TRINITY_DN66415_c0_g1_i10.p1JF1A_TRINITY_DN66415_c0_g1 -            197 123630at3193         -            290   1.6e-24   88.3   0.7   1   1   1.1e-27   2.5e-24   87.7   0.7   117   287    11   184     3   187 0.86 -
JF1A_TRINITY_DN63246_c0_g2_i5.p1JF1A_TRINITY_DN63246_c0_g2  -            328 123630at3193         -            290   7.8e-19   69.7   0.4   1   1   4.7e-22   1.1e-18   69.2   0.4     9   191    85   261    78   284 0.82 -
JF1A_TRINITY_DN66415_c0_g1_i4.p1JF1A_TRINITY_DN66415_c0_g1  -            144 123630at3193         -            290   8.9e-15   56.4   0.1   1   1   4.6e-18   1.1e-14   56.1   0.1   117   208    11    96     3   110 0.91 -
JF2A_TRINITY_DN42539_c0_g3_i11.p1JF2A_TRINITY_DN42539_c0_g3 -            154 123630at3193         -            290   3.8e-14   54.3   1.0   1   2   3.1e-15   7.4e-12   46.8   0.1   112   185    20    88    13    99 0.91 -
JF2A_TRINITY_DN42539_c0_g3_i11.p1JF2A_TRINITY_DN42539_c0_g3 -            154 123630at3193         -            290   3.8e-14   54.3   1.0   2   2    0.0051        12    6.7   0.1   101   130   108   137    93   145 0.69 -
JF1A_TRINITY_DN68215_c4_g2_i8.p1JF1A_TRINITY_DN68215_c4_g2  -           1032 123630at3193         -            290   3.8e-13   51.0   2.1   1   2   8.1e-14   1.9e-10   42.1   0.1   112   185   154   222   148   230 0.92 -
JF1A_TRINITY_DN68215_c4_g2_i8.p1JF1A_TRINITY_DN68215_c4_g2  -           1032 123630at3193         -            290   3.8e-13   51.0   2.1   2   2    0.0034       8.1    7.3   0.2   101   179   242   313   232   325 0.60 -
JF1A_TRINITY_DN27511_c0_g1_i1.p1JF1A_TRINITY_DN27511_c0_g1  -            208 123630at3193         -            290   2.8e-12   48.2   0.2   1   1   1.7e-15   4.1e-12   47.6   0.2   100   187   118   199    82   204 0.86 -
JF3A_TRINITY_DN47929_c1_g4_i1.p2JF3A_TRINITY_DN47929_c1_g4  -            110 123630at3193         -            290   9.7e-12   46.4   0.1   1   1   5.3e-15   1.3e-11   46.0   0.1   112   183     4    70     2    81 0.92 -
JF1J_TRINITY_DN69430_c2_g3_i1.p1JF1J_TRINITY_DN69430_c2_g3  -            172 123630at3193         -            290   2.1e-08   35.5   0.0   1   1   1.2e-11   2.9e-08   35.0   0.0     9   106    68   159    61   166 0.85 -
JF2A_TRINITY_DN40815_c0_g2_i1.p1JF2A_TRINITY_DN40815_c0_g2  -            231 123630at3193         -            290   2.7e-08   35.1   0.0   1   1   1.6e-11   3.9e-08   34.6   0.0   110   186    83   154    65   166 0.84 -
JF2A_TRINITY_DN32850_c0_g1_i1.p1JF2A_TRINITY_DN32850_c0_g1  -            431 123630at3193         -            290     2e-07   32.2   0.2   1   3       1.4   3.3e+03   -1.3   0.0    44    56    12    24     3    53 0.68 -
JF2A_TRINITY_DN32850_c0_g1_i1.p1JF2A_TRINITY_DN32850_c0_g1  -            431 123630at3193         -            290     2e-07   32.2   0.2   2   3    0.0025         6    7.7   0.0   106   175   157   226    76   244 0.88 -
JF2A_TRINITY_DN32850_c0_g1_i1.p1JF2A_TRINITY_DN32850_c0_g1  -            431 123630at3193         -            290     2e-07   32.2   0.2   3   3   1.8e-07   0.00044   21.3   0.0    20   184   251   408   245   411 0.90 -
JF3J_TRINITY_DN62904_c0_g1_i17.p1JF3J_TRINITY_DN62904_c0_g1 -            125 123630at3193         -            290   6.8e-07   30.5   0.0   1   1   3.5e-10   8.3e-07   30.2   0.0   116   186    21    85     9    94 0.84 -
JF1A_TRINITY_DN66223_c0_g2_i1.p1JF1A_TRINITY_DN66223_c0_g2  -            433 123630at3193         -            290   2.7e-06   28.5   0.0   1   2     0.065   1.6e+02    3.0   0.0   140   189    17    69    13    75 0.83 -
JF1A_TRINITY_DN66223_c0_g2_i1.p1JF1A_TRINITY_DN66223_c0_g2  -            433 123630at3193         -            290   2.7e-06   28.5   0.0   2   2   5.4e-08   0.00013   23.0   0.1    94   186   171   260   143   264 0.85 -
JF3A_TRINITY_DN37452_c0_g1_i1.p1JF3A_TRINITY_DN37452_c0_g1  -            107 123630at3193         -            290   1.8e-05   25.8   0.2   1   1   9.5e-09   2.3e-05   25.5   0.2   262   289    13    41     3    42 0.84 -
JF1A_TRINITY_DN63842_c0_g1_i9.p1JF1A_TRINITY_DN63842_c0_g1  -            343 123630at3193         -            290   0.00035   21.6   0.1   1   1   2.8e-07   0.00068   20.6   0.1   118   191    26    96    12   114 0.89 -
JF1J_TRINITY_DN43930_c0_g1_i2.p2JF1J_TRINITY_DN43930_c0_g1  -            135 123630at3193         -            290   0.00054   21.0   0.1   1   2   0.00089       2.1    9.2   0.0   127   152    10    35     3    61 0.81 -
JF1J_TRINITY_DN43930_c0_g1_i2.p2JF1J_TRINITY_DN43930_c0_g1  -            135 123630at3193         -            290   0.00054   21.0   0.1   2   2   0.00034      0.81   10.5   0.0   122   150    85   113    52   126 0.77 -
JF2J_TRINITY_DN24428_c0_g1_i1.p2JF2J_TRINITY_DN24428_c0_g1  -            104 123630at3193         -            290    0.0038   18.2   0.0   1   1   1.9e-06    0.0045   18.0   0.0   110   156    42    84    22    93 0.82 -
JF1A_TRINITY_DN66904_c4_g2_i3.p1JF1A_TRINITY_DN66904_c4_g2  -            118 123630at3193         -            290    0.0058   17.6   0.0   1   1   3.2e-06    0.0078   17.2   0.0     9    54    72   117    64   118 0.91 -
JF1A_TRINITY_DN65729_c0_g5_i1.p1JF1A_TRINITY_DN65729_c0_g5  -            233 123630at3193         -            290    0.0088   17.0   0.3   1   3    0.0024       5.7    7.8   0.0   159   187    32    60    11    68 0.84 -
JF1A_TRINITY_DN65729_c0_g5_i1.p1JF1A_TRINITY_DN65729_c0_g5  -            233 123630at3193         -            290    0.0088   17.0   0.3   2   3    0.0058        14    6.5   0.1    93   134    84   126    75   143 0.79 -
JF1A_TRINITY_DN65729_c0_g5_i1.p1JF1A_TRINITY_DN65729_c0_g5  -            233 123630at3193         -            290    0.0088   17.0   0.3   3   3       1.9   4.6e+03   -1.8   0.0   108   132   141   165   132   168 0.78 -
JF1A_TRINITY_DN63246_c0_g2_i9.p1JF1A_TRINITY_DN63246_c0_g2  -            315 123630at3193         -            290     0.026   15.5   0.0   1   1   1.8e-05     0.043   14.7   0.0     9    53   232   276   225   288 0.88 -
JF1A_TRINITY_DN66415_c0_g2_i2.p1JF1A_TRINITY_DN66415_c0_g2  -            333 123630at3193         -            290     0.044   14.7   0.0   1   1   3.5e-05     0.084   13.8   0.0     9    58   181   230   173   243 0.90 -
JF1A_TRINITY_DN66415_c0_g2_i1.p1JF1A_TRINITY_DN66415_c0_g2  -            376 123630at3193         -            290     0.052   14.5   0.0   1   1   4.2e-05       0.1   13.5   0.0     9    58   224   273   216   286 0.90 -
JF1A_TRINITY_DN62202_c0_g3_i2.p1JF1A_TRINITY_DN62202_c0_g3  -            204 123630at3193         -            290      0.14   13.0   0.0   1   1   7.8e-05      0.19   12.6   0.0    52   126   123   201   115   203 0.87 -
JF1A_TRINITY_DN62202_c0_g3_i3.p1JF1A_TRINITY_DN62202_c0_g3  -            249 123630at3193         -            290      0.18   12.7   0.0   1   1   0.00012      0.28   12.0   0.0    52   126   168   246   160   248 0.87 -
JF1J_TRINITY_DN68610_c1_g2_i5.p1JF1J_TRINITY_DN68610_c1_g2  -            135 123630at3193         -            290      0.36   11.7   0.0   1   1   0.00016      0.37   11.7   0.0   106   178    59   131    28   135 0.86 -
#
# Program:         hmmsearch
# Version:         3.2.1 (June 2018)
# Pipeline mode:   SEARCH
# Query file:      /isg/shared/databases/BUSCO/odb10/embryophyta_odb10/hmms/123630at3193.hmm
# Target file:     Juniper_final_annotations_no_contam_lvl0.faa
# Option settings: /usr/local/bin/hmmsearch --domtblout /labs/Wegrzyn/Juniper_Pine/BUSCO/NEW/busco_juniper/run_embryophyta_odb10/hmmer_output/123630at3193.out --cpu 1 /isg/shared/databases/BUSCO/odb10/embryophyta_odb10/hmms/123630at3193.hmm Juniper_final_annotations_no_contam_lvl0.faa 
# Current dir:     /labs/Wegrzyn/Juniper_Pine/BUSCO/NEW
# Date:            Thu Aug  6 16:05:26 2020
# [ok]
