#                                                                                                                   --- full sequence --- -------------- this domain -------------   hmm coord   ali coord   env coord
# target name                                               accession   tlen query name           accession   qlen   E-value  score  bias   #  of  c-Evalue  i-Evalue  score  bias  from    to  from    to  from    to  acc description of target
#                                       ------------------- ---------- ----- -------------------- ---------- ----- --------- ------ ----- --- --- --------- --------- ------ ----- ----- ----- ----- ----- ----- ----- ---- ---------------------
JF3A_TRINITY_DN58792_c1_g1_i9.p1JF3A_TRINITY_DN58792_c1_g1  -            308 124129at3193         -            275   2.3e-67  229.1   0.0   1   1   7.1e-70   3.2e-67  228.6   0.0    22   248    24   268    20   273 0.90 -
JF1A_TRINITY_DN66074_c1_g3_i2.p1JF1A_TRINITY_DN66074_c1_g3  -            296 124129at3193         -            275   3.2e-67  228.7   0.0   1   1   1.1e-69   4.8e-67  228.1   0.0    23   271    16   289    11   293 0.91 -
JF1A_TRINITY_DN60796_c1_g1_i2.p1JF1A_TRINITY_DN60796_c1_g1  -            323 124129at3193         -            275     8e-67  227.3   0.0   1   1   2.8e-69   1.3e-66  226.7   0.0    22   273    38   318    32   320 0.88 -
JF2A_TRINITY_DN40930_c0_g1_i8.p1JF2A_TRINITY_DN40930_c0_g1  -            359 124129at3193         -            275   2.2e-65  222.6   0.0   1   1   7.5e-68   3.4e-65  222.0   0.0    23   245    83   320    78   352 0.89 -
JF1A_TRINITY_DN61306_c4_g3_i3.p1JF1A_TRINITY_DN61306_c4_g3  -            299 124129at3193         -            275   1.1e-63  217.0   0.0   1   1   3.4e-66   1.6e-63  216.5   0.0    22   275    19   294     7   294 0.88 -
JF1A_TRINITY_DN66074_c1_g4_i4.p1JF1A_TRINITY_DN66074_c1_g4  -            335 124129at3193         -            275   4.2e-63  215.2   0.0   1   1   1.4e-65   6.6e-63  214.5   0.0    23   245    83   320    78   323 0.93 -
JF2A_TRINITY_DN41549_c1_g2_i8.p1JF2A_TRINITY_DN41549_c1_g2  -            372 124129at3193         -            275     2e-62  212.9   0.1   1   1   2.1e-63   9.9e-61  207.4   0.1    22   272    80   366    75   369 0.86 -
JF1A_TRINITY_DN66074_c1_g1_i3.p1JF1A_TRINITY_DN66074_c1_g1  -            285 124129at3193         -            275     6e-62  211.4   0.0   1   1     2e-64   9.4e-62  210.7   0.0    23   259    23   284    18   285 0.88 -
JF3J_TRINITY_DN64843_c2_g1_i2.p1JF3J_TRINITY_DN64843_c2_g1  -            248 124129at3193         -            275   7.8e-62  211.0   0.0   1   1   2.1e-64   9.6e-62  210.7   0.0    23   234    21   247    16   248 0.93 -
JF2A_TRINITY_DN40810_c0_g1_i9.p1JF2A_TRINITY_DN40810_c0_g1  -            344 124129at3193         -            275   2.5e-60  206.1   0.0   1   1   8.3e-63   3.8e-60  205.4   0.0    22   273    59   340    51   342 0.86 -
JF2A_TRINITY_DN40708_c4_g6_i2.p1JF2A_TRINITY_DN40708_c4_g6  -            339 124129at3193         -            275   3.3e-59  202.4   0.0   1   1   1.3e-61   5.9e-59  201.5   0.0    22   268    61   329    54   334 0.87 -
JF3A_TRINITY_DN54067_c0_g1_i1.p1JF3A_TRINITY_DN54067_c0_g1  -            224 124129at3193         -            275   1.2e-58  200.5   0.1   1   1   8.8e-61   4.1e-58  198.8   0.1    69   271     3   222     1   224 0.90 -
JF1A_TRINITY_DN65218_c2_g2_i21.p1JF1A_TRINITY_DN65218_c2_g2 -            344 124129at3193         -            275     2e-58  199.8   0.0   1   1   6.3e-61   2.9e-58  199.3   0.0    22   273    59   340    51   342 0.87 -
JF1A_TRINITY_DN62907_c1_g3_i2.p1JF1A_TRINITY_DN62907_c1_g3  -            277 124129at3193         -            275   2.1e-58  199.8   0.0   1   1   5.8e-61   2.6e-58  199.4   0.0    23   245     4   246     2   250 0.91 -
JF1A_TRINITY_DN62887_c1_g3_i4.p1JF1A_TRINITY_DN62887_c1_g3  -            349 124129at3193         -            275   3.2e-58  199.1   0.0   1   1     1e-60   4.8e-58  198.6   0.0    22   259    76   340    58   344 0.86 -
JF2A_TRINITY_DN40398_c6_g2_i2.p1JF2A_TRINITY_DN40398_c6_g2  -            369 124129at3193         -            275   1.3e-57  197.1   0.0   1   1   6.1e-60   2.8e-57  196.0   0.0    22   273    85   362    77   364 0.84 -
JF1A_TRINITY_DN66719_c4_g2_i4.p1JF1A_TRINITY_DN66719_c4_g2  -            268 124129at3193         -            275   1.4e-57  197.0   0.0   1   1   3.5e-60   1.6e-57  196.8   0.0    45   244     1   214     1   249 0.86 -
JF1J_TRINITY_DN65444_c0_g4_i1.p1JF1J_TRINITY_DN65444_c0_g4  -            283 124129at3193         -            275   2.7e-57  196.1   0.2   1   2   4.7e-38   2.2e-35  124.3   0.0    43   198     3   173     1   175 0.89 -
JF1J_TRINITY_DN65444_c0_g4_i1.p1JF1J_TRINITY_DN65444_c0_g4  -            283 124129at3193         -            275   2.7e-57  196.1   0.2   2   2   1.1e-21     5e-19   70.6   0.0   101   183   175   259   174   269 0.94 -
JF2A_TRINITY_DN21290_c0_g1_i1.p1JF2A_TRINITY_DN21290_c0_g1  -            241 124129at3193         -            275   1.8e-55  190.1   0.0   1   1   4.7e-58   2.2e-55  189.8   0.0    22   232     9   239     3   240 0.91 -
JF1A_TRINITY_DN65360_c0_g2_i5.p1JF1A_TRINITY_DN65360_c0_g2  -            262 124129at3193         -            275   2.9e-54  186.2   0.0   1   1   9.3e-57   4.3e-54  185.6   0.0    48   270     5   253     1   256 0.90 -
JF3A_TRINITY_DN55540_c1_g1_i9.p1JF3A_TRINITY_DN55540_c1_g1  -            301 124129at3193         -            275   5.8e-54  185.2   0.0   1   1   1.7e-56   7.7e-54  184.8   0.0    22   244    18   261    12   266 0.90 -
JF1A_TRINITY_DN65481_c2_g1_i8.p1JF1A_TRINITY_DN65481_c2_g1  -            339 124129at3193         -            275     2e-52  180.2   0.0   1   1   6.5e-55     3e-52  179.5   0.0    22   237   106   337    98   338 0.86 -
JF1A_TRINITY_DN61070_c1_g1_i3.p1JF1A_TRINITY_DN61070_c1_g1  -            270 124129at3193         -            275   3.3e-52  179.4   0.0   1   1   9.9e-55   4.5e-52  179.0   0.0    34   271     6   265     2   269 0.88 -
JF1A_TRINITY_DN64165_c1_g2_i2.p1JF1A_TRINITY_DN64165_c1_g2  -            308 124129at3193         -            275   1.8e-49  170.4   0.0   1   1   1.2e-51   5.4e-49  168.9   0.0    22   245    11   263     5   287 0.84 -
JF1A_TRINITY_DN68193_c2_g4_i1.p1JF1A_TRINITY_DN68193_c2_g4  -            153 124129at3193         -            275   2.5e-47  163.4   0.0   1   1   6.3e-50   2.9e-47  163.2   0.0    22   143    16   153     7   153 0.92 -
JF1A_TRINITY_DN66062_c1_g2_i5.p1JF1A_TRINITY_DN66062_c1_g2  -            265 124129at3193         -            275   1.5e-46  160.9   0.0   1   1   4.1e-49   1.9e-46  160.5   0.0    23   208    65   265    57   265 0.91 -
JF1J_TRINITY_DN65444_c0_g4_i2.p1JF1J_TRINITY_DN65444_c0_g4  -            260 124129at3193         -            275   1.7e-46  160.6   0.2   1   2   4.4e-27     2e-24   88.3   0.0   101   198    49   150    44   152 0.94 -
JF1J_TRINITY_DN65444_c0_g4_i2.p1JF1J_TRINITY_DN65444_c0_g4  -            260 124129at3193         -            275   1.7e-46  160.6   0.2   2   2     9e-22   4.1e-19   70.8   0.0   101   183   152   236   151   247 0.94 -
JF1A_TRINITY_DN66074_c1_g3_i3.p1JF1A_TRINITY_DN66074_c1_g3  -            230 124129at3193         -            275     2e-46  160.5   0.0   1   1   6.9e-49   3.2e-46  159.8   0.0   101   271    39   223    33   227 0.91 -
JF3J_TRINITY_DN66374_c1_g1_i2.p1JF3J_TRINITY_DN66374_c1_g1  -            286 124129at3193         -            275     2e-44  153.9   0.0   1   1     6e-47   2.7e-44  153.4   0.0    22   207    59   264    51   273 0.87 -
JF1J_TRINITY_DN65587_c1_g1_i3.p1JF1J_TRINITY_DN65587_c1_g1  -            247 124129at3193         -            275   6.7e-44  152.2   0.3   1   2     0.038        18    6.5   0.1   159   176     8    25     4    27 0.85 -
JF1J_TRINITY_DN65587_c1_g1_i3.p1JF1J_TRINITY_DN65587_c1_g1  -            247 124129at3193         -            275   6.7e-44  152.2   0.3   2   2   3.7e-44   1.7e-41  144.3   0.0    98   246    27   177    25   190 0.94 -
JF1A_TRINITY_DN67928_c1_g1_i5.p1JF1A_TRINITY_DN67928_c1_g1  -            189 124129at3193         -            275     3e-42  146.7   0.0   1   1   8.7e-45     4e-42  146.3   0.0   104   271     1   184     1   188 0.91 -
JF1A_TRINITY_DN66719_c4_g2_i1.p1JF1A_TRINITY_DN66719_c4_g2  -            175 124129at3193         -            275   3.6e-42  146.5   0.0   1   1   9.7e-45   4.4e-42  146.2   0.0    74   202    32   170     2   173 0.87 -
JF1A_TRINITY_DN64554_c0_g1_i2.p1JF1A_TRINITY_DN64554_c0_g1  -            227 124129at3193         -            275   7.8e-42  145.4   0.0   1   1   4.2e-44     2e-41  144.1   0.0    85   245    38   203     2   206 0.92 -
JF1A_TRINITY_DN57730_c0_g1_i1.p1JF1A_TRINITY_DN57730_c0_g1  -            266 124129at3193         -            275   3.7e-41  143.2   0.0   1   1   9.9e-44   4.6e-41  142.9   0.0    74   239    38   208    11   255 0.85 -
JF3A_TRINITY_DN58513_c0_g1_i12.p1JF3A_TRINITY_DN58513_c0_g1 -            378 124129at3193         -            275   4.8e-41  142.8   0.1   1   2   0.00048      0.22   12.7   0.0    22    47    25    50    19    69 0.85 -
JF3A_TRINITY_DN58513_c0_g1_i12.p1JF3A_TRINITY_DN58513_c0_g1 -            378 124129at3193         -            275   4.8e-41  142.8   0.1   2   2   6.7e-39   3.1e-36  127.0   0.0    77   246   138   315    70   324 0.86 -
JF1A_TRINITY_DN68288_c2_g1_i11.p1JF1A_TRINITY_DN68288_c2_g1 -            335 124129at3193         -            275   2.4e-40  140.5   0.0   1   1   4.9e-42   2.3e-39  137.3   0.0    22   246    25   272    19   294 0.82 -
JF1A_TRINITY_DN65481_c2_g1_i9.p1JF1A_TRINITY_DN65481_c2_g1  -            367 124129at3193         -            275   6.8e-40  139.0   0.0   1   2     3e-40   1.4e-37  131.5   0.0    22   201   106   301    98   303 0.85 -
JF1A_TRINITY_DN65481_c2_g1_i9.p1JF1A_TRINITY_DN65481_c2_g1  -            367 124129at3193         -            275   6.8e-40  139.0   0.0   2   2    0.0076       3.5    8.8   0.0   220   246   297   323   297   362 0.69 -
JF2A_TRINITY_DN40182_c1_g3_i2.p1JF2A_TRINITY_DN40182_c1_g3  -            143 124129at3193         -            275   3.6e-39  136.6   0.0   1   1   8.6e-42     4e-39  136.5   0.0    85   219     2   143     1   143 0.94 -
JF2A_TRINITY_DN40930_c0_g1_i7.p1JF2A_TRINITY_DN40930_c0_g1  -            201 124129at3193         -            275   5.9e-39  135.9   0.0   1   1   1.5e-41     7e-39  135.7   0.0    48   208     8   182     1   187 0.90 -
JF1A_TRINITY_DN61306_c4_g5_i1.p1JF1A_TRINITY_DN61306_c4_g5  -            120 124129at3193         -            275   1.5e-38  134.6   0.0   1   1   3.6e-41   1.6e-38  134.5   0.0   107   222     2   120     1   120 0.95 -
JF3J_TRINITY_DN47655_c0_g1_i1.p1JF3J_TRINITY_DN47655_c0_g1  -            151 124129at3193         -            275   4.6e-38  133.0   0.0   1   1   1.2e-40   5.4e-38  132.8   0.0    88   204    24   150    13   151 0.91 -
JF1A_TRINITY_DN66062_c1_g4_i1.p1JF1A_TRINITY_DN66062_c1_g4  -            252 124129at3193         -            275   1.3e-37  131.5   0.0   1   1     4e-40   1.8e-37  131.0   0.0    22   170    91   251    88   252 0.91 -
JF1A_TRINITY_DN64165_c1_g3_i1.p1JF1A_TRINITY_DN64165_c1_g3  -            162 124129at3193         -            275   2.1e-36  127.6   0.0   1   1   5.7e-39   2.6e-36  127.3   0.0   101   245     4   153     2   157 0.94 -
JF1J_TRINITY_DN69266_c0_g1_i3.p1JF1J_TRINITY_DN69266_c0_g1  -            139 124129at3193         -            275     4e-36  126.7   0.0   1   1   9.8e-39   4.5e-36  126.5   0.0   126   244     8   130     1   134 0.91 -
JF1A_TRINITY_DN61800_c6_g1_i14.p1JF1A_TRINITY_DN61800_c6_g1 -            153 124129at3193         -            275   1.8e-35  124.5   0.0   1   2      0.61   2.8e+02    2.5   0.0   106   133     1    28     1    33 0.92 -
JF1A_TRINITY_DN61800_c6_g1_i14.p1JF1A_TRINITY_DN61800_c6_g1 -            153 124129at3193         -            275   1.8e-35  124.5   0.0   2   2   6.4e-37     3e-34  120.5   0.0    99   206    36   146    27   151 0.94 -
JF1A_TRINITY_DN68288_c2_g1_i5.p1JF1A_TRINITY_DN68288_c2_g1  -            192 124129at3193         -            275   1.9e-35  124.4   0.0   1   1   5.3e-38   2.4e-35  124.1   0.0   100   248    19   174     9   179 0.90 -
JF1A_TRINITY_DN64165_c1_g2_i3.p1JF1A_TRINITY_DN64165_c1_g2  -            204 124129at3193         -            275   4.1e-34  120.1   0.0   1   1   7.2e-36   3.3e-33  117.1   0.0    22   184    11   198     5   201 0.81 -
JF2A_TRINITY_DN40398_c7_g1_i1.p1JF2A_TRINITY_DN40398_c7_g1  -            145 124129at3193         -            275   8.4e-34  119.0   0.0   1   1     2e-36   9.2e-34  118.9   0.0    75   211     2   145     1   145 0.93 -
JF1A_TRINITY_DN66112_c1_g2_i5.p1JF1A_TRINITY_DN66112_c1_g2  -            157 124129at3193         -            275     6e-33  116.2   0.0   1   1   1.5e-35   6.9e-33  116.0   0.0    77   205     4   141     1   153 0.93 -
JF1A_TRINITY_DN65218_c2_g5_i1.p1JF1A_TRINITY_DN65218_c2_g5  -            166 124129at3193         -            275   1.5e-32  115.0   0.0   1   1   3.7e-35   1.7e-32  114.8   0.0    25   165     1   158     1   161 0.87 -
JF2A_TRINITY_DN273_c0_g1_i2.p1JF2A_TRINITY_DN273_c0_g1      -            194 124129at3193         -            275   1.7e-31  111.5   0.0   1   1   4.8e-34   2.2e-31  111.1   0.0    22   172    14   181     7   187 0.87 -
JF3J_TRINITY_DN65729_c2_g3_i3.p1JF3J_TRINITY_DN65729_c2_g3  -            230 124129at3193         -            275   1.7e-29  105.0   3.3   1   3   4.7e-06    0.0022   19.3   0.2   158   184     1    28     1    33 0.90 -
JF3J_TRINITY_DN65729_c2_g3_i3.p1JF3J_TRINITY_DN65729_c2_g3  -            230 124129at3193         -            275   1.7e-29  105.0   3.3   2   3   3.2e-15   1.5e-12   49.3   0.0    47   154    33   153    29   156 0.88 -
JF3J_TRINITY_DN65729_c2_g3_i3.p1JF3J_TRINITY_DN65729_c2_g3  -            230 124129at3193         -            275   1.7e-29  105.0   3.3   3   3   2.6e-11   1.2e-08   36.5   0.1    94   154   158   224   153   227 0.87 -
JF1A_TRINITY_DN67647_c1_g3_i6.p1JF1A_TRINITY_DN67647_c1_g3  -            120 124129at3193         -            275   3.2e-29  104.0   1.9   1   2   9.4e-05     0.043   15.0   0.6   165   185     1    21     1    23 0.92 -
JF1A_TRINITY_DN67647_c1_g3_i6.p1JF1A_TRINITY_DN67647_c1_g3  -            120 124129at3193         -            275   3.2e-29  104.0   1.9   2   2     9e-28   4.1e-25   90.5   0.0   115   206    19   110    18   115 0.93 -
JF2J_TRINITY_DN6627_c0_g1_i1.p2JF2J_TRINITY_DN6627_c0_g1    -            105 124129at3193         -            275     5e-28  100.1   0.0   1   1   1.3e-30   5.8e-28   99.9   0.0   155   238    11    98     4   103 0.94 -
JF3J_TRINITY_DN68505_c1_g4_i2.p1JF3J_TRINITY_DN68505_c1_g4  -            123 124129at3193         -            275   6.2e-28   99.8   0.0   1   1   1.6e-30   7.3e-28   99.6   0.0    85   185    12   117     6   122 0.92 -
JF2J_TRINITY_DN25405_c0_g2_i1.p1JF2J_TRINITY_DN25405_c0_g2  -            103 124129at3193         -            275   1.1e-27   99.0   0.0   1   1   2.7e-30   1.3e-27   98.8   0.0   142   229    12   102     7   103 0.94 -
JF1A_TRINITY_DN65441_c0_g5_i2.p1JF1A_TRINITY_DN65441_c0_g5  -            284 124129at3193         -            275   2.8e-27   97.7   0.0   1   1   8.5e-30   3.9e-27   97.2   0.0    22   171    83   247    75   269 0.86 -
JF3A_TRINITY_DN43371_c0_g1_i1.p1JF3A_TRINITY_DN43371_c0_g1  -            149 124129at3193         -            275   3.2e-27   97.5   0.0   1   1   1.2e-29   5.4e-27   96.7   0.0   157   271    14   142     5   146 0.83 -
JF1A_TRINITY_DN67210_c1_g4_i3.p1JF1A_TRINITY_DN67210_c1_g4  -            211 124129at3193         -            275     1e-26   95.8   0.0   1   1   2.6e-29   1.2e-26   95.6   0.0    23   151    71   211    53   211 0.90 -
JF3A_TRINITY_DN58513_c0_g1_i11.p1JF3A_TRINITY_DN58513_c0_g1 -            162 124129at3193         -            275   3.1e-26   94.2   0.0   1   1   8.5e-29   3.9e-26   93.9   0.0    77   211     5   147     3   150 0.84 -
JF1A_TRINITY_DN66074_c1_g2_i1.p1JF1A_TRINITY_DN66074_c1_g2  -            132 124129at3193         -            275   3.3e-26   94.1   0.0   1   1   1.5e-28   6.8e-26   93.1   0.0   162   271     3   125     1   129 0.87 -
JF1A_TRINITY_DN61988_c4_g5_i1.p1JF1A_TRINITY_DN61988_c4_g5  -            127 124129at3193         -            275   2.1e-25   91.5   0.0   1   1   5.2e-28   2.4e-25   91.3   0.0    73   181    13   127     2   127 0.92 -
JF1A_TRINITY_DN61988_c4_g6_i1.p1JF1A_TRINITY_DN61988_c4_g6  -            163 124129at3193         -            275   4.4e-25   90.4   0.0   1   1   1.1e-27   4.9e-25   90.3   0.0    34   177     2   162     1   163 0.84 -
JF3A_TRINITY_DN58513_c0_g1_i1.p1JF3A_TRINITY_DN58513_c0_g1  -            161 124129at3193         -            275     1e-24   89.2   0.0   1   1   2.7e-27   1.3e-24   88.9   0.0    96   211    19   146     6   149 0.84 -
JF3A_TRINITY_DN59609_c2_g2_i1.p1JF3A_TRINITY_DN59609_c2_g2  -            174 124129at3193         -            275   3.8e-24   87.4   0.0   1   1   1.1e-26   4.9e-24   87.0   0.0    22   146    31   169    25   171 0.87 -
JF3J_TRINITY_DN66374_c1_g1_i5.p1JF3J_TRINITY_DN66374_c1_g1  -            156 124129at3193         -            275   3.4e-23   84.3   0.0   1   1   8.9e-26   4.1e-23   84.0   0.0    66   172    22   140     5   145 0.85 -
JF1A_TRINITY_DN65218_c2_g2_i22.p1JF1A_TRINITY_DN65218_c2_g2 -            131 124129at3193         -            275     4e-23   84.0   0.0   1   1     1e-25   4.8e-23   83.8   0.0   114   207    19   118     8   124 0.89 -
JF3J_TRINITY_DN67125_c3_g1_i9.p1JF3J_TRINITY_DN67125_c3_g1  -            124 124129at3193         -            275   4.2e-23   83.9   2.5   1   2   1.1e-05     0.005   18.1   0.4   146   164    11    29     7    33 0.92 -
JF3J_TRINITY_DN67125_c3_g1_i9.p1JF3J_TRINITY_DN67125_c3_g1  -            124 124129at3193         -            275   4.2e-23   83.9   2.5   2   2     2e-20   9.3e-18   66.4   0.1    93   164    31   108    29   111 0.89 -
JF1A_TRINITY_DN66719_c4_g6_i1.p1JF1A_TRINITY_DN66719_c4_g6  -            131 124129at3193         -            275   8.5e-23   82.9   0.0   1   1     2e-25   9.1e-23   82.8   0.0   171   244     1    78     1   108 0.92 -
JF1A_TRINITY_DN66074_c0_g1_i1.p1JF1A_TRINITY_DN66074_c0_g1  -            111 124129at3193         -            275   1.7e-22   82.0   0.0   1   1   3.8e-25   1.7e-22   81.9   0.0   167   245     4    85     1   109 0.90 -
JF2J_TRINITY_DN28299_c0_g1_i15.p1JF2J_TRINITY_DN28299_c0_g1 -            144 124129at3193         -            275   1.8e-22   81.9   0.0   1   1   4.8e-25   2.2e-22   81.6   0.0   115   221    13   126     4   133 0.86 -
JF1A_TRINITY_DN65608_c0_g2_i4.p1JF1A_TRINITY_DN65608_c0_g2  -            193 124129at3193         -            275   3.6e-22   80.9   0.0   1   1   9.4e-25   4.3e-22   80.6   0.0   102   243    10   156     7   187 0.86 -
JF2A_TRINITY_DN42506_c1_g3_i3.p1JF2A_TRINITY_DN42506_c1_g3  -            238 124129at3193         -            275   3.8e-22   80.8   0.0   1   1   1.6e-24   7.2e-22   79.9   0.0    22   206    22   220    13   229 0.80 -
JF1A_TRINITY_DN65218_c2_g1_i2.p1JF1A_TRINITY_DN65218_c2_g1  -            153 124129at3193         -            275   6.2e-22   80.1   0.0   1   1   1.5e-24   6.9e-22   80.0   0.0    43   165     5   145     1   148 0.81 -
JF3J_TRINITY_DN62344_c2_g1_i1.p1JF3J_TRINITY_DN62344_c2_g1  -            101 124129at3193         -            275   8.4e-22   79.7   0.0   1   1     2e-24   9.3e-22   79.5   0.0   107   193     1    90     1    98 0.93 -
JF2A_TRINITY_DN41549_c1_g2_i15.p1JF2A_TRINITY_DN41549_c1_g2 -            116 124129at3193         -            275     2e-21   78.4   0.1   1   1   5.3e-24   2.5e-21   78.2   0.1    77   165     8   102     5   112 0.94 -
JF2A_TRINITY_DN42785_c2_g5_i1.p1JF2A_TRINITY_DN42785_c2_g5  -            167 124129at3193         -            275   6.9e-21   76.7   0.0   1   1   8.6e-23     4e-20   74.2   0.0    84   185    46   149     2   165 0.80 -
JF2J_TRINITY_DN28299_c0_g1_i11.p1JF2J_TRINITY_DN28299_c0_g1 -            141 124129at3193         -            275   1.7e-20   75.4   0.0   1   1   4.5e-23   2.1e-20   75.1   0.0   157   246    18   110    13   123 0.92 -
JF3A_TRINITY_DN53422_c2_g1_i1.p1JF3A_TRINITY_DN53422_c2_g1  -            175 124129at3193         -            275   1.5e-19   72.3   0.1   1   1   4.2e-22   1.9e-19   71.9   0.1   135   208    99   175    87   175 0.92 -
JF1A_TRINITY_DN68288_c1_g1_i1.p1JF1A_TRINITY_DN68288_c1_g1  -            132 124129at3193         -            275   1.6e-19   72.2   0.0   1   1   5.1e-22   2.3e-19   71.7   0.0   174   245     4    77     1    81 0.94 -
JF1A_TRINITY_DN43708_c0_g1_i1.p1JF1A_TRINITY_DN43708_c0_g1  -            105 124129at3193         -            275   1.8e-19   72.1   0.2   1   1   7.3e-22   3.4e-19   71.1   0.2   187   273     5   101     2   103 0.83 -
JF1J_TRINITY_DN67896_c1_g5_i2.p1JF1J_TRINITY_DN67896_c1_g5  -            222 124129at3193         -            275   2.8e-19   71.4   0.1   1   2   1.3e-20   5.8e-18   67.1   0.0    23   131    47   165    32   175 0.82 -
JF1J_TRINITY_DN67896_c1_g5_i2.p1JF1J_TRINITY_DN67896_c1_g5  -            222 124129at3193         -            275   2.8e-19   71.4   0.1   2   2      0.64   2.9e+02    2.5   0.1    74   102   187   212   165   218 0.73 -
JF1A_TRINITY_DN61469_c6_g4_i5.p1JF1A_TRINITY_DN61469_c6_g4  -            172 124129at3193         -            275   6.7e-19   70.2   0.0   1   1   2.7e-21   1.2e-18   69.3   0.0    31   175     9   172     4   172 0.77 -
JF2A_TRINITY_DN42001_c1_g3_i3.p1JF2A_TRINITY_DN42001_c1_g3  -            135 124129at3193         -            275   1.1e-17   66.1   0.0   1   1   3.7e-20   1.7e-17   65.6   0.0   159   262     6   125     2   131 0.80 -
JF2J_TRINITY_DN23382_c2_g1_i1.p1JF2J_TRINITY_DN23382_c2_g1  -            104 124129at3193         -            275   1.3e-17   65.9   0.1   1   1   3.3e-20   1.5e-17   65.7   0.1    89   166    13   102     8   104 0.87 -
JF1A_TRINITY_DN61040_c6_g3_i4.p1JF1A_TRINITY_DN61040_c6_g3  -            268 124129at3193         -            275     3e-17   64.7   0.0   1   2   4.3e-06     0.002   19.4   0.0    22    69    30    80    13   100 0.85 -
JF1A_TRINITY_DN61040_c6_g3_i4.p1JF1A_TRINITY_DN61040_c6_g3  -            268 124129at3193         -            275     3e-17   64.7   0.0   2   2   1.9e-13   8.8e-11   43.5   0.0   102   221   133   265   116   268 0.83 -
JF1A_TRINITY_DN68010_c0_g8_i1.p1JF1A_TRINITY_DN68010_c0_g8  -            127 124129at3193         -            275   1.3e-16   62.6   0.0   1   1     4e-19   1.9e-16   62.2   0.0   185   248     7    70     4    75 0.95 -
JF1A_TRINITY_DN19926_c0_g1_i1.p1JF1A_TRINITY_DN19926_c0_g1  -            128 124129at3193         -            275   1.4e-16   62.6   0.1   1   1   3.4e-19   1.6e-16   62.4   0.1    74   156    41   128     5   128 0.90 -
JF1J_TRINITY_DN65739_c0_g1_i3.p1JF1J_TRINITY_DN65739_c0_g1  -            110 124129at3193         -            275   2.6e-16   61.7   0.0   1   1   6.5e-19     3e-16   61.5   0.0    51    99     3    60     1    74 0.84 -
JF2A_TRINITY_DN36595_c0_g1_i1.p1JF2A_TRINITY_DN36595_c0_g1  -            124 124129at3193         -            275   3.9e-16   61.1   0.0   1   1   9.4e-19   4.3e-16   61.0   0.0   161   227    39   108    11   115 0.87 -
JF1A_TRINITY_DN50453_c0_g1_i2.p1JF1A_TRINITY_DN50453_c0_g1  -            220 124129at3193         -            275   4.2e-15   57.7   0.0   1   1   7.8e-17   3.6e-14   54.7   0.0    23   215    11   219     7   220 0.82 -
JF1J_TRINITY_DN67360_c2_g2_i3.p1JF1J_TRINITY_DN67360_c2_g2  -            209 124129at3193         -            275   9.3e-15   56.6   0.0   1   1   6.8e-17   3.1e-14   54.8   0.0    22   130    70   202    44   208 0.72 -
JF3J_TRINITY_DN64843_c2_g1_i8.p1JF3J_TRINITY_DN64843_c2_g1  -            117 124129at3193         -            275   2.4e-14   55.2   0.0   1   1   6.9e-17   3.2e-14   54.8   0.0    23    89    41   113    35   115 0.89 -
JF1J_TRINITY_DN67438_c3_g1_i4.p1JF1J_TRINITY_DN67438_c3_g1  -            133 124129at3193         -            275   4.3e-14   54.4   0.4   1   1   2.5e-15   1.1e-12   49.7   0.4   185   245    16    76    11   116 0.87 -
JF1J_TRINITY_DN61004_c0_g3_i3.p1JF1J_TRINITY_DN61004_c0_g3  -            142 124129at3193         -            275   6.5e-14   53.8   0.0   1   1   1.8e-16   8.2e-14   53.5   0.0   185   245     7    67     3    73 0.95 -
JF2A_TRINITY_DN39314_c0_g1_i2.p1JF2A_TRINITY_DN39314_c0_g1  -            112 124129at3193         -            275   3.9e-13   51.2   0.0   1   1     9e-16   4.2e-13   51.2   0.0   165   244     2    84     1   106 0.91 -
JF1A_TRINITY_DN69480_c0_g1_i1.p1JF1A_TRINITY_DN69480_c0_g1  -            223 124129at3193         -            275   9.4e-13   50.0   0.0   1   2   1.1e-05     0.005   18.1   0.0    22    58    31    70    19    91 0.79 -
JF1A_TRINITY_DN69480_c0_g1_i1.p1JF1A_TRINITY_DN69480_c0_g1  -            223 124129at3193         -            275   9.4e-13   50.0   0.0   2   2   2.4e-09   1.1e-06   30.1   0.0   100   182   135   222   116   223 0.82 -
JF3A_TRINITY_DN58513_c0_g1_i19.p1JF3A_TRINITY_DN58513_c0_g1 -            148 124129at3193         -            275   3.5e-12   48.1   0.0   1   2   2.4e-14   1.1e-11   46.5   0.0   187   246    26    85    20   103 0.94 -
JF3A_TRINITY_DN58513_c0_g1_i19.p1JF3A_TRINITY_DN58513_c0_g1 -            148 124129at3193         -            275   3.5e-12   48.1   0.0   2   2       9.3   4.3e+03   -1.4   0.0   244   266   109   131    95   135 0.76 -
JF1A_TRINITY_DN63497_c2_g3_i3.p1JF1A_TRINITY_DN63497_c2_g3  -            111 124129at3193         -            275   4.4e-12   47.8   0.0   1   1   1.3e-14   5.9e-12   47.4   0.0   185   245     6    66     3    93 0.87 -
JF1A_TRINITY_DN62934_c1_g1_i5.p1JF1A_TRINITY_DN62934_c1_g1  -            168 124129at3193         -            275   5.8e-12   47.4   0.0   1   1     2e-14   9.1e-12   46.8   0.0    22    97    82   163    74   167 0.86 -
JF2J_TRINITY_DN22495_c0_g1_i1.p1JF2J_TRINITY_DN22495_c0_g1  -            106 124129at3193         -            275   2.8e-11   45.2   0.0   1   1   7.5e-14   3.4e-11   44.9   0.0    23    73    31    84    25    93 0.87 -
JF3J_TRINITY_DN61262_c0_g1_i3.p1JF3J_TRINITY_DN61262_c0_g1  -            145 124129at3193         -            275   1.5e-10   42.7   0.0   1   1   2.1e-12   9.7e-10   40.1   0.0    84   161    54   133    12   140 0.79 -
JF1A_TRINITY_DN66074_c1_g1_i7.p1JF1A_TRINITY_DN66074_c1_g1  -            168 124129at3193         -            275   4.5e-10   41.2   0.0   1   1   2.1e-12   9.5e-10   40.1   0.0    23    73   110   163   106   166 0.86 -
JF1A_TRINITY_DN61800_c6_g1_i1.p1JF1A_TRINITY_DN61800_c6_g1  -            125 124129at3193         -            275   1.2e-09   39.8   0.0   1   1     3e-12   1.4e-09   39.6   0.0    74   139    25    95    16   115 0.86 -
JF2A_TRINITY_DN42293_c1_g1_i1.p1JF2A_TRINITY_DN42293_c1_g1  -            174 124129at3193         -            275   1.9e-09   39.2   0.1   1   1   3.3e-11   1.5e-08   36.2   0.1    22   138    25   158    18   165 0.71 -
JF1A_TRINITY_DN65608_c1_g1_i1.p1JF1A_TRINITY_DN65608_c1_g1  -            102 124129at3193         -            275   2.1e-09   39.0   0.0   1   1   5.9e-12   2.7e-09   38.7   0.0   185   257     7    89     3    97 0.78 -
JF3J_TRINITY_DN66374_c1_g1_i1.p1JF3J_TRINITY_DN66374_c1_g1  -            118 124129at3193         -            275   5.4e-09   37.7   0.1   1   1   1.4e-11   6.5e-09   37.4   0.1    66   132    22    96     5   101 0.85 -
JF2A_TRINITY_DN41549_c1_g2_i22.p1JF2A_TRINITY_DN41549_c1_g2 -            112 124129at3193         -            275   5.8e-09   37.6   0.0   1   1   1.5e-11   6.8e-09   37.3   0.0    31   112     7   102     4   108 0.78 -
JF3J_TRINITY_DN67125_c3_g1_i8.p1JF3J_TRINITY_DN67125_c3_g1  -            152 124129at3193         -            275   1.3e-08   36.5   0.0   1   1   4.8e-11   2.2e-08   35.7   0.0    22    73    61   118    56   124 0.81 -
JF1J_TRINITY_DN61004_c0_g1_i1.p1JF1J_TRINITY_DN61004_c0_g1  -            105 124129at3193         -            275   1.8e-08   35.9   0.0   1   1   4.4e-11     2e-08   35.8   0.0   198   245    13    60     8    90 0.91 -
JF2A_TRINITY_DN40182_c1_g2_i2.p1JF2A_TRINITY_DN40182_c1_g2  -            161 124129at3193         -            275   1.9e-08   35.9   0.1   1   1   6.1e-11   2.8e-08   35.3   0.1    22   100    51   137    46   150 0.73 -
JF1J_TRINITY_DN71148_c1_g1_i16.p2JF1J_TRINITY_DN71148_c1_g1 -            111 124129at3193         -            275   2.4e-08   35.6   0.0   1   1   6.1e-11   2.8e-08   35.3   0.0    67   150     9   104     2   109 0.85 -
JF1A_TRINITY_DN67899_c1_g2_i4.p1JF1A_TRINITY_DN67899_c1_g2  -            117 124129at3193         -            275   6.8e-08   34.1   0.0   1   1   1.8e-10   8.2e-08   33.8   0.0   161   215    30    87    15    92 0.91 -
JF3J_TRINITY_DN64951_c3_g2_i3.p1JF3J_TRINITY_DN64951_c3_g2  -            109 124129at3193         -            275   8.5e-08   33.7   0.0   1   2   3.7e-10   1.7e-07   32.8   0.0    72   139    16    89     3    96 0.82 -
JF3J_TRINITY_DN64951_c3_g2_i3.p1JF3J_TRINITY_DN64951_c3_g2  -            109 124129at3193         -            275   8.5e-08   33.7   0.0   2   2       3.2   1.5e+03    0.2   0.0   109   127    87   105    82   108 0.85 -
JF1J_TRINITY_DN66547_c5_g1_i1.p1JF1J_TRINITY_DN66547_c5_g1  -            101 124129at3193         -            275   8.8e-08   33.7   0.0   1   1   2.1e-10   9.5e-08   33.6   0.0   198   245     6    53     3    80 0.92 -
JF1A_TRINITY_DN65102_c0_g1_i2.p1JF1A_TRINITY_DN65102_c0_g1  -            143 124129at3193         -            275     2e-07   32.5   0.0   1   1   5.5e-10   2.5e-07   32.2   0.0    21   118    35   143    23   143 0.75 -
JF2A_TRINITY_DN48364_c0_g1_i1.p1JF2A_TRINITY_DN48364_c0_g1  -            176 124129at3193         -            275     3e-07   31.9   0.1   1   1   1.3e-09   5.8e-07   31.0   0.1    23   101    70   156    59   173 0.73 -
JF1A_TRINITY_DN66664_c1_g5_i1.p1JF1A_TRINITY_DN66664_c1_g5  -            145 124129at3193         -            275   6.2e-07   30.9   0.0   1   1   1.9e-09   8.8e-07   30.4   0.0    22    54   108   141    89   144 0.82 -
JF1J_TRINITY_DN69856_c3_g2_i1.p1JF1J_TRINITY_DN69856_c3_g2  -            100 124129at3193         -            275   6.4e-07   30.9   0.1   1   1   1.5e-09     7e-07   30.7   0.1   196   246     1    51     1    86 0.92 -
JF3J_TRINITY_DN37885_c0_g1_i1.p1JF3J_TRINITY_DN37885_c0_g1  -            108 124129at3193         -            275   6.8e-07   30.8   0.0   1   1   2.7e-09   1.3e-06   29.9   0.0     9    57    51   101    35   105 0.75 -
JF1J_TRINITY_DN54717_c0_g1_i6.p1JF1J_TRINITY_DN54717_c0_g1  -            186 124129at3193         -            275   7.5e-07   30.6   0.0   1   1   4.4e-09     2e-06   29.2   0.0    22   111    57   172    12   178 0.76 -
JF1A_TRINITY_DN37714_c0_g1_i1.p1JF1A_TRINITY_DN37714_c0_g1  -            155 124129at3193         -            275   9.5e-07   30.3   0.0   1   1   2.4e-09   1.1e-06   30.1   0.0   100   193    55   154    25   155 0.89 -
JF1A_TRINITY_DN68738_c5_g2_i4.p1JF1A_TRINITY_DN68738_c5_g2  -            215 124129at3193         -            275   1.5e-06   29.6   0.0   1   1   7.3e-09   3.3e-06   28.5   0.0    22    61    64   106    57   114 0.80 -
JF3A_TRINITY_DN55423_c0_g2_i2.p1JF3A_TRINITY_DN55423_c0_g2  -            185 124129at3193         -            275   1.7e-06   29.5   0.0   1   1   5.6e-09   2.6e-06   28.9   0.0    22    61    62   104    55   112 0.80 -
JF1A_TRINITY_DN65441_c0_g9_i1.p1JF1A_TRINITY_DN65441_c0_g9  -            104 124129at3193         -            275   2.1e-06   29.2   0.0   1   1   5.2e-09   2.4e-06   29.0   0.0    55   138     2    96     1   101 0.86 -
JF3A_TRINITY_DN59619_c4_g1_i2.p1JF3A_TRINITY_DN59619_c4_g1  -            125 124129at3193         -            275   7.9e-06   27.3   0.4   1   1   2.1e-07   9.8e-05   23.7   0.4    22   106    23   115    14   120 0.70 -
JF2A_TRINITY_DN36012_c0_g2_i2.p1JF2A_TRINITY_DN36012_c0_g2  -            114 124129at3193         -            275   9.9e-06   27.0   0.0   1   1   2.2e-08     1e-05   26.9   0.0    21    71    16    70     7   108 0.74 -
JF1A_TRINITY_DN61800_c6_g1_i15.p1JF1A_TRINITY_DN61800_c6_g1 -            107 124129at3193         -            275   1.5e-05   26.3   0.0   1   2      0.32   1.5e+02    3.4   0.0   106   133     1    28     1    34 0.92 -
JF1A_TRINITY_DN61800_c6_g1_i15.p1JF1A_TRINITY_DN61800_c6_g1 -            107 124129at3193         -            275   1.5e-05   26.3   0.0   2   2   9.4e-07   0.00043   21.6   0.0    99   139    36    77    28    97 0.84 -
JF1J_TRINITY_DN70387_c0_g5_i1.p1JF1J_TRINITY_DN70387_c0_g5  -            105 124129at3193         -            275   1.6e-05   26.3   0.0   1   1   5.5e-08   2.5e-05   25.6   0.0    22    47    69    94    61   100 0.88 -
JF3A_TRINITY_DN55133_c1_g1_i1.p1JF3A_TRINITY_DN55133_c1_g1  -            114 124129at3193         -            275   2.3e-05   25.8   0.0   1   1   8.6e-08     4e-05   25.0   0.0    22    51    73   102    68   114 0.82 -
JF1A_TRINITY_DN61306_c4_g2_i3.p1JF1A_TRINITY_DN61306_c4_g2  -            135 124129at3193         -            275   2.7e-05   25.5   0.0   1   1   7.1e-08   3.3e-05   25.3   0.0    22    55    97   131    78   135 0.83 -
JF3J_TRINITY_DN60616_c0_g1_i2.p1JF3J_TRINITY_DN60616_c0_g1  -            156 124129at3193         -            275   4.5e-05   24.8   0.0   1   1   1.8e-07   8.4e-05   23.9   0.0    22    55    97   131    88   142 0.84 -
JF2J_TRINITY_DN27946_c0_g1_i2.p1JF2J_TRINITY_DN27946_c0_g1  -            109 124129at3193         -            275    0.0001   23.6   0.0   1   1   2.5e-07   0.00012   23.5   0.0    22    73    39    93    31   108 0.72 -
JF1J_TRINITY_DN67438_c3_g1_i6.p3JF1J_TRINITY_DN67438_c3_g1  -            109 124129at3193         -            275   0.00022   22.5   3.8   1   3   2.4e-05     0.011   17.0   1.4   140   156     9    25     2    28 0.89 -
JF1J_TRINITY_DN67438_c3_g1_i6.p3JF1J_TRINITY_DN67438_c3_g1  -            109 124129at3193         -            275   0.00022   22.5   3.8   2   3       1.3     6e+02    1.4   0.0   218   244    25    51    24    55 0.87 -
JF1J_TRINITY_DN67438_c3_g1_i6.p3JF1J_TRINITY_DN67438_c3_g1  -            109 124129at3193         -            275   0.00022   22.5   3.8   3   3      0.18        83    4.3   0.0   243   264    68    89    56    92 0.85 -
JF1A_TRINITY_DN1428_c0_g1_i1.p1JF1A_TRINITY_DN1428_c0_g1    -            112 124129at3193         -            275   0.00022   22.5   0.0   1   1   5.9e-07   0.00027   22.3   0.0   180   220    43    83    30    90 0.92 -
JF2J_TRINITY_DN27946_c0_g1_i1.p1JF2J_TRINITY_DN27946_c0_g1  -            101 124129at3193         -            275   0.00029   22.2   0.0   1   1     8e-07   0.00037   21.8   0.0    22    48    39    65    31    79 0.88 -
JF3A_TRINITY_DN58513_c0_g1_i23.p1JF3A_TRINITY_DN58513_c0_g1 -            164 124129at3193         -            275   0.00035   21.9   0.2   1   1   2.6e-06    0.0012   20.2   0.2    77   135    87   147     6   159 0.76 -
JF3A_TRINITY_DN58513_c0_g1_i13.p1JF3A_TRINITY_DN58513_c0_g1 -            100 124129at3193         -            275    0.0006   21.1   0.0   1   1   1.5e-06   0.00069   20.9   0.0    77   135    23    83    15    95 0.77 -
JF1A_TRINITY_DN61800_c6_g1_i8.p1JF1A_TRINITY_DN61800_c6_g1  -            138 124129at3193         -            275    0.0012   20.1   0.0   1   1   4.7e-06    0.0022   19.3   0.0    23    57    55    90    30    99 0.86 -
JF3J_TRINITY_DN61262_c0_g1_i1.p1JF3J_TRINITY_DN61262_c0_g1  -            115 124129at3193         -            275    0.0016   19.7   0.0   1   1   4.2e-05     0.019   16.2   0.0    69   135    19   103     1   111 0.61 -
JF1A_TRINITY_DN66710_c2_g4_i1.p1JF1A_TRINITY_DN66710_c2_g4  -            197 124129at3193         -            275    0.0022   19.2   0.0   1   1   7.5e-06    0.0034   18.6   0.0    22    48    53    79    45    95 0.90 -
JF1A_TRINITY_DN64165_c1_g2_i5.p1JF1A_TRINITY_DN64165_c1_g2  -            108 124129at3193         -            275     0.003   18.8   0.1   1   2   0.00054      0.25   12.5   0.0    35    87     1    59     1    71 0.76 -
JF1A_TRINITY_DN64165_c1_g2_i5.p1JF1A_TRINITY_DN64165_c1_g2  -            108 124129at3193         -            275     0.003   18.8   0.1   2   2      0.13        58    4.8   0.0    29    53    78   103    67   106 0.79 -
JF3J_TRINITY_DN73103_c0_g2_i16.p1JF3J_TRINITY_DN73103_c0_g2 -            134 124129at3193         -            275    0.0082   17.4   0.5   1   2     0.028        13    6.9   0.0   100   123    19    42     8    43 0.90 -
JF3J_TRINITY_DN73103_c0_g2_i16.p1JF3J_TRINITY_DN73103_c0_g2 -            134 124129at3193         -            275    0.0082   17.4   0.5   2   2    0.0038       1.7    9.8   0.0    28    48    43    63    41    95 0.81 -
JF3A_TRINITY_DN58513_c0_g1_i10.p1JF3A_TRINITY_DN58513_c0_g1 -            111 124129at3193         -            275     0.011   17.0   0.1   1   2   7.7e-05     0.035   15.3   0.0   212   246    14    48     7    62 0.89 -
JF3A_TRINITY_DN58513_c0_g1_i10.p1JF3A_TRINITY_DN58513_c0_g1 -            111 124129at3193         -            275     0.011   17.0   0.1   2   2       5.5   2.5e+03   -0.6   0.1   244   267    72    95    64   102 0.80 -
JF2J_TRINITY_DN23788_c0_g2_i1.p1JF2J_TRINITY_DN23788_c0_g2  -            114 124129at3193         -            275     0.018   16.2   0.0   1   1     5e-05     0.023   15.9   0.0    22    48    25    51    18    82 0.82 -
JF2A_TRINITY_DN40444_c0_g1_i1.p1JF2A_TRINITY_DN40444_c0_g1  -            259 124129at3193         -            275     0.022   16.0   0.0   1   1   7.2e-05     0.033   15.4   0.0    74   129     6    65     3    75 0.87 -
JF1A_TRINITY_DN68288_c2_g1_i2.p1JF1A_TRINITY_DN68288_c2_g1  -            141 124129at3193         -            275     0.022   16.0   0.0   1   1   7.1e-05     0.033   15.4   0.0    22    48    25    51    16    83 0.82 -
JF3J_TRINITY_DN73103_c0_g2_i22.p1JF3J_TRINITY_DN73103_c0_g2 -            143 124129at3193         -            275     0.025   15.8   0.6   1   2     0.072        33    5.6   0.0   101   123    29    51    17    52 0.91 -
JF3J_TRINITY_DN73103_c0_g2_i22.p1JF3J_TRINITY_DN73103_c0_g2 -            143 124129at3193         -            275     0.025   15.8   0.6   2   2    0.0047       2.2    9.4   0.0    28    48    52    72    51   103 0.81 -
JF1A_TRINITY_DN36219_c0_g1_i1.p1JF1A_TRINITY_DN36219_c0_g1  -            158 124129at3193         -            275      0.14   13.3   0.3   1   1   0.00035      0.16   13.1   0.3    66   132    69   135    42   147 0.86 -
JF1A_TRINITY_DN59206_c0_g1_i1.p1JF1A_TRINITY_DN59206_c0_g1  -            104 124129at3193         -            275      0.16   13.2   0.0   1   1   0.00037      0.17   13.1   0.0    67   131    26    93     7   103 0.74 -
JF1J_TRINITY_DN62112_c5_g1_i1.p1JF1J_TRINITY_DN62112_c5_g1  -            106 124129at3193         -            275      0.43   11.8   0.2   1   2      0.15        67    4.6   0.0    17    55     3    41     2    54 0.82 -
JF1J_TRINITY_DN62112_c5_g1_i1.p1JF1J_TRINITY_DN62112_c5_g1  -            106 124129at3193         -            275      0.43   11.8   0.2   2   2     0.051        24    6.0   0.0     8    45    51    88    44    94 0.84 -
#
# Program:         hmmsearch
# Version:         3.2.1 (June 2018)
# Pipeline mode:   SEARCH
# Query file:      /isg/shared/databases/BUSCO/odb10/embryophyta_odb10/hmms/124129at3193.hmm
# Target file:     Juniper_final_annotations_no_contam_lvl0.faa
# Option settings: /usr/local/bin/hmmsearch --domtblout /labs/Wegrzyn/Juniper_Pine/BUSCO/NEW/busco_juniper/run_embryophyta_odb10/hmmer_output/124129at3193.out --cpu 1 /isg/shared/databases/BUSCO/odb10/embryophyta_odb10/hmms/124129at3193.hmm Juniper_final_annotations_no_contam_lvl0.faa 
# Current dir:     /labs/Wegrzyn/Juniper_Pine/BUSCO/NEW
# Date:            Thu Aug  6 16:05:30 2020
# [ok]
