#                                                                                                                    --- full sequence --- -------------- this domain -------------   hmm coord   ali coord   env coord
# target name                                                accession   tlen query name           accession   qlen   E-value  score  bias   #  of  c-Evalue  i-Evalue  score  bias  from    to  from    to  from    to  acc description of target
#                                        ------------------- ---------- ----- -------------------- ---------- ----- --------- ------ ----- --- --- --------- --------- ------ ----- ----- ----- ----- ----- ----- ----- ---- ---------------------
JF1A_TRINITY_DN63201_c0_g5_i1.p1JF1A_TRINITY_DN63201_c0_g5   -            207 125141at3193         -            425   2.2e-81  275.8   1.8   1   1   1.8e-84   2.4e-81  275.6   1.8    90   281     1   207     1   207 0.88 -
JF1A_TRINITY_DN62726_c6_g2_i3.p1JF1A_TRINITY_DN62726_c6_g2   -            119 125141at3193         -            425   8.9e-28   99.2  10.9   1   2       1.2   1.7e+03   -0.6   0.0   337   349     1    13     1    22 0.82 -
JF1A_TRINITY_DN62726_c6_g2_i3.p1JF1A_TRINITY_DN62726_c6_g2   -            119 125141at3193         -            425   8.9e-28   99.2  10.9   2   2   6.4e-31   8.9e-28   99.2  10.9   345   425    38   118    21   118 0.95 -
JF1A_TRINITY_DN63201_c0_g8_i1.p1JF1A_TRINITY_DN63201_c0_g8   -            100 125141at3193         -            425   1.4e-23   85.4   7.5   1   1   1.1e-26   1.6e-23   85.2   7.5     1    73     4    76     4    90 0.90 -
JF3A_TRINITY_DN46617_c1_g1_i1.p1JF3A_TRINITY_DN46617_c1_g1   -            102 125141at3193         -            425   9.1e-21   76.1   0.6   1   1   7.4e-24     1e-20   75.9   0.6   214   284    24    95     3    99 0.79 -
JF1A_TRINITY_DN65521_c0_g2_i3.p2JF1A_TRINITY_DN65521_c0_g2   -            138 125141at3193         -            425   1.3e-07   32.7   0.4   1   1   1.1e-10   1.5e-07   32.5   0.4   267   353    35   120     2   128 0.78 -
JF1A_TRINITY_DN64334_c0_g1_i9.p1JF1A_TRINITY_DN64334_c0_g1   -            339 125141at3193         -            425   6.8e-06   27.1   0.1   1   1   7.2e-09     1e-05   26.5   0.1   267   312   264   309   222   314 0.90 -
JF3J_TRINITY_DN48293_c0_g1_i1.p1JF3J_TRINITY_DN48293_c0_g1   -            112 125141at3193         -            425   8.8e-06   26.7   0.2   1   1   6.3e-09   8.8e-06   26.7   0.2   267   298    54    85    21    96 0.89 -
JF1A_TRINITY_DN61761_c1_g2_i8.p1JF1A_TRINITY_DN61761_c1_g2   -            173 125141at3193         -            425   2.6e-05   25.1   0.2   1   2   4.6e-08   6.4e-05   23.9   0.1   270   300     2    32     1    53 0.87 -
JF1A_TRINITY_DN61761_c1_g2_i8.p1JF1A_TRINITY_DN61761_c1_g2   -            173 125141at3193         -            425   2.6e-05   25.1   0.2   2   2       2.5   3.4e+03   -1.6   0.0    94   115   131   152   110   163 0.79 -
JF3J_TRINITY_DN64707_c2_g1_i1.p1JF3J_TRINITY_DN64707_c2_g1   -            165 125141at3193         -            425   2.9e-05   25.0   3.8   1   2   2.1e-08   2.9e-05   25.0   3.8   267   328    30    92    26   108 0.75 -
JF3J_TRINITY_DN64707_c2_g1_i1.p1JF3J_TRINITY_DN64707_c2_g1   -            165 125141at3193         -            425   2.9e-05   25.0   3.8   2   2      0.64   8.9e+02    0.3   2.4     8    74    81   146    74   159 0.53 -
JF2A_TRINITY_DN39485_c0_g1_i1.p1JF2A_TRINITY_DN39485_c0_g1   -            122 125141at3193         -            425   5.5e-05   24.1   1.2   1   2   4.7e-08   6.5e-05   23.8   0.1   268   299    19    50    13    63 0.87 -
JF2A_TRINITY_DN39485_c0_g1_i1.p1JF2A_TRINITY_DN39485_c0_g1   -            122 125141at3193         -            425   5.5e-05   24.1   1.2   2   2       2.5   3.5e+03   -1.6   0.1    40    59    95   114    70   117 0.57 -
JF1A_TRINITY_DN63061_c1_g3_i1.p1JF1A_TRINITY_DN63061_c1_g3   -            318 125141at3193         -            425   0.00075   20.3   3.9   1   3     0.068        95    3.5   0.0   124   147    52    75    20    88 0.81 -
JF1A_TRINITY_DN63061_c1_g3_i1.p1JF1A_TRINITY_DN63061_c1_g3   -            318 125141at3193         -            425   0.00075   20.3   3.9   2   3     0.005       6.9    7.3   0.4   124   146   116   139   105   145 0.80 -
JF1A_TRINITY_DN63061_c1_g3_i1.p1JF1A_TRINITY_DN63061_c1_g3   -            318 125141at3193         -            425   0.00075   20.3   3.9   3   3    0.0013       1.7    9.2   0.1   119   146   279   306   260   311 0.83 -
JF3A_TRINITY_DN44950_c0_g1_i4.p1JF3A_TRINITY_DN44950_c0_g1   -            183 125141at3193         -            425    0.0018   19.1   6.8   1   3     0.039        55    4.3   0.2   127   146    15    35    10    46 0.87 -
JF3A_TRINITY_DN44950_c0_g1_i4.p1JF3A_TRINITY_DN44950_c0_g1   -            183 125141at3193         -            425    0.0018   19.1   6.8   2   3   0.00082       1.1    9.8   0.1   119   145    51    78    37    95 0.85 -
JF3A_TRINITY_DN44950_c0_g1_i4.p1JF3A_TRINITY_DN44950_c0_g1   -            183 125141at3193         -            425    0.0018   19.1   6.8   3   3    0.0034       4.7    7.8   0.2   119   145   101   128    89   132 0.86 -
JF2A_TRINITY_DN33216_c0_g1_i2.p1JF2A_TRINITY_DN33216_c0_g1   -            101 125141at3193         -            425    0.0019   19.0   0.1   1   1   1.4e-06    0.0019   19.0   0.1   265   312    42    89     8    93 0.83 -
JF1A_TRINITY_DN66555_c0_g1_i1.p1JF1A_TRINITY_DN66555_c0_g1   -            514 125141at3193         -            425     0.002   18.9   0.9   1   3     0.082   1.1e+02    3.3   0.0   128   156   234   262   223   274 0.77 -
JF1A_TRINITY_DN66555_c0_g1_i1.p1JF1A_TRINITY_DN66555_c0_g1   -            514 125141at3193         -            425     0.002   18.9   0.9   2   3     0.013        19    5.9   0.3    85   145   296   362   291   369 0.72 -
JF1A_TRINITY_DN66555_c0_g1_i1.p1JF1A_TRINITY_DN66555_c0_g1   -            514 125141at3193         -            425     0.002   18.9   0.9   3   3     0.012        17    6.0   0.0   127   150   427   451   418   470 0.74 -
JF1A_TRINITY_DN66432_c1_g4_i3.p1JF1A_TRINITY_DN66432_c1_g4   -            175 125141at3193         -            425    0.0034   18.2   0.1   1   2    0.0015       2.1    9.0   0.0   126   154    57    86    46    93 0.84 -
JF1A_TRINITY_DN66432_c1_g4_i3.p1JF1A_TRINITY_DN66432_c1_g4   -            175 125141at3193         -            425    0.0034   18.2   0.1   2   2    0.0041       5.7    7.6   0.0   127   145   104   123    95   164 0.78 -
JF1J_TRINITY_DN67256_c1_g1_i1.p1JF1J_TRINITY_DN67256_c1_g1   -            123 125141at3193         -            425    0.0034   18.2   0.8   1   1     3e-06    0.0042   17.9   0.7   265   325    32    94     9   108 0.79 -
JF1A_TRINITY_DN61668_c1_g1_i2.p1JF1A_TRINITY_DN61668_c1_g1   -            121 125141at3193         -            425     0.013   16.3   0.3   1   2     9e-06     0.013   16.3   0.3   269   305     3    38     1    48 0.87 -
JF1A_TRINITY_DN61668_c1_g1_i2.p1JF1A_TRINITY_DN61668_c1_g1   -            121 125141at3193         -            425     0.013   16.3   0.3   2   2       1.9   2.7e+03   -1.3   0.3   317   334    82    99    59   110 0.51 -
JF1A_TRINITY_DN19738_c0_g1_i1.p1JF1A_TRINITY_DN19738_c0_g1   -            124 125141at3193         -            425     0.013   16.2   8.0   1   3   4.2e-05     0.058   14.1   0.3   124   146    15    37     5    45 0.84 -
JF1A_TRINITY_DN19738_c0_g1_i1.p1JF1A_TRINITY_DN19738_c0_g1   -            124 125141at3193         -            425     0.013   16.2   8.0   2   3     0.011        15    6.2   0.6   124   147    44    67    39    77 0.88 -
JF1A_TRINITY_DN19738_c0_g1_i1.p1JF1A_TRINITY_DN19738_c0_g1   -            124 125141at3193         -            425     0.013   16.2   8.0   3   3      0.79   1.1e+03    0.0   0.1   127   146    72    92    68   108 0.70 -
JF1A_TRINITY_DN68262_c1_g1_i21.p2JF1A_TRINITY_DN68262_c1_g1  -            141 125141at3193         -            425     0.014   16.2   0.0   1   1     1e-05     0.015   16.1   0.0   127   153     5    31     1    64 0.83 -
JF3A_TRINITY_DN50979_c0_g1_i4.p1JF3A_TRINITY_DN50979_c0_g1   -            202 125141at3193         -            425     0.018   15.8   0.0   1   1   1.7e-05     0.024   15.4   0.0   125   152   145   172   136   190 0.87 -
JF1A_TRINITY_DN60585_c0_g2_i1.p1JF1A_TRINITY_DN60585_c0_g2   -            220 125141at3193         -            425     0.022   15.5   0.0   1   1     2e-05     0.028   15.2   0.0   117   151    77   113    49   132 0.79 -
JF1A_TRINITY_DN65620_c2_g2_i6.p1JF1A_TRINITY_DN65620_c2_g2   -            170 125141at3193         -            425     0.036   14.8   4.2   1   1     5e-05      0.07   13.9   4.2     3    62     6    64     4   131 0.86 -
JF1A_TRINITY_DN65866_c0_g2_i6.p1JF1A_TRINITY_DN65866_c0_g2   -            184 125141at3193         -            425     0.043   14.6   0.0   1   1   3.6e-05      0.05   14.3   0.0   266   295   102   131    46   139 0.80 -
JF2A_TRINITY_DN42619_c0_g1_i8.p1JF2A_TRINITY_DN42619_c0_g1   -            558 125141at3193         -            425     0.051   14.3   0.0   1   1   5.8e-05      0.08   13.7   0.0   125   152   212   239   204   271 0.85 -
JF1A_TRINITY_DN66630_c3_g2_i1.p1JF1A_TRINITY_DN66630_c3_g2   -            158 125141at3193         -            425      0.07   13.8   1.7   1   1   6.2e-05     0.087   13.5   1.7   179   236    29    91    15   109 0.67 -
JF1A_TRINITY_DN66432_c1_g4_i2.p1JF1A_TRINITY_DN66432_c1_g4   -            282 125141at3193         -            425     0.076   13.7   9.3   1   3    0.0032       4.4    7.9   0.0   126   154    57    86    46    92 0.83 -
JF1A_TRINITY_DN66432_c1_g4_i2.p1JF1A_TRINITY_DN66432_c1_g4   -            282 125141at3193         -            425     0.076   13.7   9.3   2   3     0.028        38    4.8   1.0   127   145   104   123    95   132 0.87 -
JF1A_TRINITY_DN66432_c1_g4_i2.p1JF1A_TRINITY_DN66432_c1_g4   -            282 125141at3193         -            425     0.076   13.7   9.3   3   3     0.021        30    5.2   0.6   125   147   148   171   127   179 0.71 -
JF1A_TRINITY_DN65917_c4_g2_i2.p1JF1A_TRINITY_DN65917_c4_g2   -            139 125141at3193         -            425       0.1   13.3   0.1   1   1   7.7e-05      0.11   13.2   0.1   267   310    45    87    14   112 0.83 -
JF1A_TRINITY_DN62908_c1_g10_i2.p1JF1A_TRINITY_DN62908_c1_g10 -            171 125141at3193         -            425       0.1   13.3   1.4   1   2    0.0084        12    6.5   0.2   126   147    15    37     8    40 0.84 -
JF1A_TRINITY_DN62908_c1_g10_i2.p1JF1A_TRINITY_DN62908_c1_g10 -            171 125141at3193         -            425       0.1   13.3   1.4   2   2     0.012        16    6.1   0.1   126   155    60    87    46   129 0.73 -
JF3A_TRINITY_DN47588_c0_g1_i1.p1JF3A_TRINITY_DN47588_c0_g1   -            116 125141at3193         -            425       0.1   13.3   2.4   1   2    0.0041       5.7    7.6   0.2   126   147    13    35     5    40 0.84 -
JF3A_TRINITY_DN47588_c0_g1_i1.p1JF3A_TRINITY_DN47588_c0_g1   -            116 125141at3193         -            425       0.1   13.3   2.4   2   2      0.01        14    6.2   0.2   126   147    58    80    39    96 0.80 -
JF3J_TRINITY_DN70008_c0_g3_i14.p1JF3J_TRINITY_DN70008_c0_g3  -            293 125141at3193         -            425      0.11   13.2   0.0   1   1   0.00011      0.16   12.7   0.0   267   295   207   235   172   243 0.86 -
JF3J_TRINITY_DN62392_c2_g4_i2.p1JF3J_TRINITY_DN62392_c2_g4   -            125 125141at3193         -            425      0.14   12.9   2.6   1   2    0.0042       5.9    7.5   0.2   126   147    30    52    18    63 0.87 -
JF3J_TRINITY_DN62392_c2_g4_i2.p1JF3J_TRINITY_DN62392_c2_g4   -            125 125141at3193         -            425      0.14   12.9   2.6   2   2     0.013        19    5.9   0.2   126   147    75    97    66   116 0.78 -
JF3A_TRINITY_DN58120_c2_g1_i1.p1JF3A_TRINITY_DN58120_c2_g1   -            145 125141at3193         -            425      0.15   12.8   0.2   1   2    0.0064       8.9    6.9   0.2   127   146    14    34     8    40 0.86 -
JF3A_TRINITY_DN58120_c2_g1_i1.p1JF3A_TRINITY_DN58120_c2_g1   -            145 125141at3193         -            425      0.15   12.8   0.2   2   2     0.051        71    3.9   0.0   126   151    59    85    52   100 0.87 -
JF1A_TRINITY_DN63020_c1_g5_i3.p1JF1A_TRINITY_DN63020_c1_g5   -            101 125141at3193         -            425      0.16   12.7   0.1   1   1   0.00012      0.17   12.6   0.1   228   302    14    87     2    95 0.71 -
JF1A_TRINITY_DN60918_c0_g4_i2.p1JF1A_TRINITY_DN60918_c0_g4   -            209 125141at3193         -            425      0.17   12.6  10.7   1   3    0.0057       7.9    7.1   0.8   123   146     3    26     1    32 0.90 -
JF1A_TRINITY_DN60918_c0_g4_i2.p1JF1A_TRINITY_DN60918_c0_g4   -            209 125141at3193         -            425      0.17   12.6  10.7   2   3    0.0019       2.6    8.7   0.9   124   146    32    54    28    75 0.83 -
JF1A_TRINITY_DN60918_c0_g4_i2.p1JF1A_TRINITY_DN60918_c0_g4   -            209 125141at3193         -            425      0.17   12.6  10.7   3   3      0.12   1.7e+02    2.7   0.1   122   148   139   165   123   188 0.82 -
JF2A_TRINITY_DN40209_c0_g1_i3.p1JF2A_TRINITY_DN40209_c0_g1   -            180 125141at3193         -            425      0.21   12.3   0.2   1   2    0.0057         8    7.1   0.1   126   146    60    81    40    87 0.84 -
JF2A_TRINITY_DN40209_c0_g1_i3.p1JF2A_TRINITY_DN40209_c0_g1   -            180 125141at3193         -            425      0.21   12.3   0.2   2   2     0.079   1.1e+02    3.3   0.0   126   151   106   132    99   139 0.85 -
JF1J_TRINITY_DN4432_c1_g1_i2.p1JF1J_TRINITY_DN4432_c1_g1     -            138 125141at3193         -            425      0.33   11.6   0.0   1   1   0.00033      0.46   11.2   0.0   119   146    29    57    10    83 0.83 -
JF3A_TRINITY_DN55259_c0_g1_i1.p1JF3A_TRINITY_DN55259_c0_g1   -            186 125141at3193         -            425      0.34   11.6   4.4   1   2      0.16   2.3e+02    2.3   1.3   116   145    49    78    13    82 0.68 -
JF3A_TRINITY_DN55259_c0_g1_i1.p1JF3A_TRINITY_DN55259_c0_g1   -            186 125141at3193         -            425      0.34   11.6   4.4   2   2    0.0014       1.9    9.1   0.1   126   147   106   128    97   135 0.79 -
JF1J_TRINITY_DN62467_c0_g1_i6.p1JF1J_TRINITY_DN62467_c0_g1   -            237 125141at3193         -            425      0.36   11.5   1.0   1   2     0.062        86    3.7   0.1   125   146    44    66    39    85 0.77 -
JF1J_TRINITY_DN62467_c0_g1_i6.p1JF1J_TRINITY_DN62467_c0_g1   -            237 125141at3193         -            425      0.36   11.5   1.0   2   2    0.0081        11    6.6   0.1   123   147   208   232   190   234 0.88 -
JF1A_TRINITY_DN66897_c1_g1_i1.p1JF1A_TRINITY_DN66897_c1_g1   -            105 125141at3193         -            425       0.4   11.3   0.0   1   1   0.00032      0.45   11.2   0.0   266   309    19    61     4    69 0.80 -
JF3A_TRINITY_DN54860_c1_g1_i1.p1JF3A_TRINITY_DN54860_c1_g1   -            108 125141at3193         -            425      0.54   10.9   0.6   1   2    0.0065         9    6.9   0.0   128   158    21    51     9    62 0.76 -
JF3A_TRINITY_DN54860_c1_g1_i1.p1JF3A_TRINITY_DN54860_c1_g1   -            108 125141at3193         -            425      0.54   10.9   0.6   2   2     0.098   1.4e+02    3.0   0.2   127   145    72    91    52    99 0.81 -
JF1J_TRINITY_DN43705_c0_g1_i2.p1JF1J_TRINITY_DN43705_c0_g1   -            157 125141at3193         -            425      0.69   10.6   0.7   1   2      0.37   5.2e+02    1.1   0.1   135   146     3    14     1    20 0.89 -
JF1J_TRINITY_DN43705_c0_g1_i2.p1JF1J_TRINITY_DN43705_c0_g1   -            157 125141at3193         -            425      0.69   10.6   0.7   2   2     0.003       4.1    8.0   0.1   125   147    57    80    48   100 0.81 -
JF1A_TRINITY_DN66432_c1_g4_i5.p1JF1A_TRINITY_DN66432_c1_g4   -            264 125141at3193         -            425      0.71   10.5   4.2   1   2    0.0011       1.5    9.5   1.0   110   147   105   143   102   155 0.79 -
JF1A_TRINITY_DN66432_c1_g4_i5.p1JF1A_TRINITY_DN66432_c1_g4   -            264 125141at3193         -            425      0.71   10.5   4.2   2   2       0.2   2.8e+02    2.0   0.1   124   146   164   187   150   196 0.82 -
JF1A_TRINITY_DN62056_c1_g2_i9.p1JF1A_TRINITY_DN62056_c1_g2   -            115 125141at3193         -            425      0.73   10.5   2.6   1   2      0.02        27    5.3   0.1   127   149    31    54    23    62 0.82 -
JF1A_TRINITY_DN62056_c1_g2_i9.p1JF1A_TRINITY_DN62056_c1_g2   -            115 125141at3193         -            425      0.73   10.5   2.6   2   2     0.015        21    5.7   0.3   127   147    73    94    64   105 0.84 -
JF1A_TRINITY_DN63233_c0_g2_i3.p1JF1A_TRINITY_DN63233_c0_g2   -            262 125141at3193         -            425      0.77   10.4   5.7   1   3      0.25   3.4e+02    1.7   0.1   130   146    70    86    60    91 0.79 -
JF1A_TRINITY_DN63233_c0_g2_i3.p1JF1A_TRINITY_DN63233_c0_g2   -            262 125141at3193         -            425      0.77   10.4   5.7   2   3     0.072     1e+02    3.4   0.2   119   147    98   128    88   136 0.74 -
JF1A_TRINITY_DN63233_c0_g2_i3.p1JF1A_TRINITY_DN63233_c0_g2   -            262 125141at3193         -            425      0.77   10.4   5.7   3   3    0.0069       9.6    6.8   0.1   126   147   172   194   163   213 0.82 -
JF1A_TRINITY_DN62908_c1_g11_i1.p1JF1A_TRINITY_DN62908_c1_g11 -            185 125141at3193         -            425      0.84   10.3   4.0   1   2    0.0067       9.4    6.8   0.2   126   145    79    99    49   109 0.84 -
JF1A_TRINITY_DN62908_c1_g11_i1.p1JF1A_TRINITY_DN62908_c1_g11 -            185 125141at3193         -            425      0.84   10.3   4.0   2   2     0.015        21    5.7   1.9    86   147    92   147    92   162 0.70 -
JF3A_TRINITY_DN59532_c0_g2_i2.p1JF3A_TRINITY_DN59532_c0_g2   -            116 125141at3193         -            425         1   10.0   0.1   1   1    0.0011       1.5    9.5   0.1   127   154     8    36     4    43 0.85 -
JF1A_TRINITY_DN62908_c1_g11_i2.p1JF1A_TRINITY_DN62908_c1_g11 -            237 125141at3193         -            425       1.9    9.2   4.2   1   2      0.01        14    6.3   0.2   126   145    79    99    49   108 0.84 -
JF1A_TRINITY_DN62908_c1_g11_i2.p1JF1A_TRINITY_DN62908_c1_g11 -            237 125141at3193         -            425       1.9    9.2   4.2   2   2     0.046        64    4.1   0.6   125   147   124   147   103   155 0.81 -
JF1A_TRINITY_DN62908_c1_g10_i1.p1JF1A_TRINITY_DN62908_c1_g10 -            116 125141at3193         -            425       2.6    8.7   2.8   1   2    0.0038       5.3    7.7   0.2   126   147    15    37     8    47 0.86 -
JF1A_TRINITY_DN62908_c1_g10_i1.p1JF1A_TRINITY_DN62908_c1_g10 -            116 125141at3193         -            425       2.6    8.7   2.8   2   2      0.23   3.2e+02    1.8   0.2   126   143    60    78    41    83 0.84 -
JF1A_TRINITY_DN63233_c0_g2_i6.p1JF1A_TRINITY_DN63233_c0_g2   -            144 125141at3193         -            425         4    8.1   1.9   1   2      0.11   1.5e+02    2.9   0.1   130   146    32    48    22    53 0.79 -
JF1A_TRINITY_DN63233_c0_g2_i6.p1JF1A_TRINITY_DN63233_c0_g2   -            144 125141at3193         -            425         4    8.1   1.9   2   2     0.025        34    5.0   0.2   119   147    60    90    50   102 0.75 -
JF1A_TRINITY_DN65844_c1_g1_i4.p1JF1A_TRINITY_DN65844_c1_g1   -            396 125141at3193         -            425       5.8    7.5   9.8   1   4       4.4   6.1e+03   -2.4   0.1   127   145    75    94    74   104 0.81 -
JF1A_TRINITY_DN65844_c1_g1_i4.p1JF1A_TRINITY_DN65844_c1_g1   -            396 125141at3193         -            425       5.8    7.5   9.8   2   4      0.58   8.1e+02    0.5   1.8   126   145   119   139    86   144 0.85 -
JF1A_TRINITY_DN65844_c1_g1_i4.p1JF1A_TRINITY_DN65844_c1_g1   -            396 125141at3193         -            425       5.8    7.5   9.8   3   4      0.11   1.5e+02    2.9   0.0   123   147   162   187   152   198 0.80 -
JF1A_TRINITY_DN65844_c1_g1_i4.p1JF1A_TRINITY_DN65844_c1_g1   -            396 125141at3193         -            425       5.8    7.5   9.8   4   4    0.0047       6.5    7.4   0.3   126   151   334   360   315   374 0.87 -
#
# Program:         hmmsearch
# Version:         3.2.1 (June 2018)
# Pipeline mode:   SEARCH
# Query file:      /isg/shared/databases/BUSCO/odb10/embryophyta_odb10/hmms/125141at3193.hmm
# Target file:     Juniper_final_annotations_no_contam_lvl0.faa
# Option settings: /usr/local/bin/hmmsearch --domtblout /labs/Wegrzyn/Juniper_Pine/BUSCO/NEW/busco_juniper/run_embryophyta_odb10/hmmer_output/125141at3193.out --cpu 1 /isg/shared/databases/BUSCO/odb10/embryophyta_odb10/hmms/125141at3193.hmm Juniper_final_annotations_no_contam_lvl0.faa 
# Current dir:     /labs/Wegrzyn/Juniper_Pine/BUSCO/NEW
# Date:            Thu Aug  6 16:05:33 2020
# [ok]
