#                                                                                                                  --- full sequence --- -------------- this domain -------------   hmm coord   ali coord   env coord
# target name                                              accession   tlen query name           accession   qlen   E-value  score  bias   #  of  c-Evalue  i-Evalue  score  bias  from    to  from    to  from    to  acc description of target
#                                      ------------------- ---------- ----- -------------------- ---------- ----- --------- ------ ----- --- --- --------- --------- ------ ----- ----- ----- ----- ----- ----- ----- ---- ---------------------
JF1J_TRINITY_DN58943_c0_g1_i4.p1JF1J_TRINITY_DN58943_c0_g1 -            206 1259at3193           -           1487   2.8e-53  182.5   0.1   1   1   1.4e-55   1.9e-51  176.4   0.1   581   742     1   204     1   206 0.84 -
JF2A_TRINITY_DN37884_c0_g1_i1.p1JF2A_TRINITY_DN37884_c0_g1 -            154 1259at3193           -           1487   9.2e-42  144.3   0.4   1   1   1.2e-45   1.6e-41  143.5   0.4   219   344     1   142     1   144 0.88 -
JF1J_TRINITY_DN62903_c6_g1_i2.p1JF1J_TRINITY_DN62903_c6_g1 -            120 1259at3193           -           1487   2.1e-29  103.4   0.0   1   1     2e-33   2.8e-29  103.0   0.0  1078  1162     1   106     1   109 0.83 -
JF1A_TRINITY_DN12237_c0_g1_i1.p1JF1A_TRINITY_DN12237_c0_g1 -            143 1259at3193           -           1487   6.4e-17   62.0   1.6   1   1   7.8e-19   1.1e-14   54.6   1.6  1293  1385     3   143     1   143 0.74 -
JF1A_TRINITY_DN64581_c0_g1_i2.p1JF1A_TRINITY_DN64581_c0_g1 -            331 1259at3193           -           1487   7.7e-14   51.8   0.1   1   1   7.3e-18     1e-13   51.4   0.1  1109  1161     9    69     3    81 0.85 -
#
# Program:         hmmsearch
# Version:         3.2.1 (June 2018)
# Pipeline mode:   SEARCH
# Query file:      /isg/shared/databases/BUSCO/odb10/embryophyta_odb10/hmms/1259at3193.hmm
# Target file:     Juniper_final_annotations_no_contam_lvl0.faa
# Option settings: /usr/local/bin/hmmsearch --domtblout /labs/Wegrzyn/Juniper_Pine/BUSCO/NEW/busco_juniper/run_embryophyta_odb10/hmmer_output/1259at3193.out --cpu 1 /isg/shared/databases/BUSCO/odb10/embryophyta_odb10/hmms/1259at3193.hmm Juniper_final_annotations_no_contam_lvl0.faa 
# Current dir:     /labs/Wegrzyn/Juniper_Pine/BUSCO/NEW
# Date:            Thu Aug  6 16:05:38 2020
# [ok]
