#                                                                                                                  --- full sequence --- -------------- this domain -------------   hmm coord   ali coord   env coord
# target name                                              accession   tlen query name           accession   qlen   E-value  score  bias   #  of  c-Evalue  i-Evalue  score  bias  from    to  from    to  from    to  acc description of target
#                                      ------------------- ---------- ----- -------------------- ---------- ----- --------- ------ ----- --- --- --------- --------- ------ ----- ----- ----- ----- ----- ----- ----- ---- ---------------------
JF1A_TRINITY_DN64984_c0_g2_i4.p1JF1A_TRINITY_DN64984_c0_g2 -            203 127141at3193         -            268   9.4e-78  263.0   0.1   1   1     5e-82   1.2e-77  262.7   0.1     1   174     8   198     8   203 0.89 -
JF1A_TRINITY_DN64984_c0_g2_i5.p1JF1A_TRINITY_DN64984_c0_g2 -            172 127141at3193         -            268     6e-62  211.2   1.6   1   2   4.9e-23   1.1e-18   69.3   0.2     1    50     8    67     8    70 0.92 -
JF1A_TRINITY_DN64984_c0_g2_i5.p1JF1A_TRINITY_DN64984_c0_g2 -            172 127141at3193         -            268     6e-62  211.2   1.6   2   2   3.4e-45   7.8e-41  141.9   0.1    75   174    70   167    67   172 0.89 -
JF1J_TRINITY_DN70773_c1_g1_i5.p1JF1J_TRINITY_DN70773_c1_g1 -            130 127141at3193         -            268   3.9e-17   64.2   0.1   1   1   2.2e-21     5e-17   63.9   0.1     1    50     8    67     8    75 0.92 -
#
# Program:         hmmsearch
# Version:         3.2.1 (June 2018)
# Pipeline mode:   SEARCH
# Query file:      /isg/shared/databases/BUSCO/odb10/embryophyta_odb10/hmms/127141at3193.hmm
# Target file:     Juniper_final_annotations_no_contam_lvl0.faa
# Option settings: /usr/local/bin/hmmsearch --domtblout /labs/Wegrzyn/Juniper_Pine/BUSCO/NEW/busco_juniper/run_embryophyta_odb10/hmmer_output/127141at3193.out --cpu 1 /isg/shared/databases/BUSCO/odb10/embryophyta_odb10/hmms/127141at3193.hmm Juniper_final_annotations_no_contam_lvl0.faa 
# Current dir:     /labs/Wegrzyn/Juniper_Pine/BUSCO/NEW
# Date:            Thu Aug  6 16:05:44 2020
# [ok]
