#                                                                                                                   --- full sequence --- -------------- this domain -------------   hmm coord   ali coord   env coord
# target name                                               accession   tlen query name           accession   qlen   E-value  score  bias   #  of  c-Evalue  i-Evalue  score  bias  from    to  from    to  from    to  acc description of target
#                                       ------------------- ---------- ----- -------------------- ---------- ----- --------- ------ ----- --- --- --------- --------- ------ ----- ----- ----- ----- ----- ----- ----- ---- ---------------------
JF1A_TRINITY_DN45663_c0_g1_i1.p1JF1A_TRINITY_DN45663_c0_g1  -            149 127464at3193         -            295   5.4e-39  136.0   0.0   1   1     1e-41   1.2e-38  134.9   0.0    99   211     5   132     3   140 0.88 -
JF1A_TRINITY_DN65529_c2_g3_i3.p1JF1A_TRINITY_DN65529_c2_g3  -            577 127464at3193         -            295   2.3e-31  111.0  17.6   1   4   2.6e-12   3.1e-09   38.4   0.2    29   134     6   117     2   130 0.83 -
JF1A_TRINITY_DN65529_c2_g3_i3.p1JF1A_TRINITY_DN65529_c2_g3  -            577 127464at3193         -            295   2.3e-31  111.0  17.6   2   4   5.4e-10   6.4e-07   30.8   1.9    21    85   244   310   225   327 0.80 -
JF1A_TRINITY_DN65529_c2_g3_i3.p1JF1A_TRINITY_DN65529_c2_g3  -            577 127464at3193         -            295   2.3e-31  111.0  17.6   3   4    0.0088        11    7.1   0.1    26    55   324   355   316   357 0.83 -
JF1A_TRINITY_DN65529_c2_g3_i3.p1JF1A_TRINITY_DN65529_c2_g3  -            577 127464at3193         -            295   2.3e-31  111.0  17.6   4   4   3.4e-14   4.1e-11   44.5   0.7    25   139   387   504   364   527 0.77 -
JF1A_TRINITY_DN63007_c1_g2_i4.p1JF1A_TRINITY_DN63007_c1_g2  -            932 127464at3193         -            295   8.7e-15   56.6   7.8   1   4   2.1e-08   2.5e-05   25.6   0.5    29   142   467   584   448   588 0.73 -
JF1A_TRINITY_DN63007_c1_g2_i4.p1JF1A_TRINITY_DN63007_c1_g2  -            932 127464at3193         -            295   8.7e-15   56.6   7.8   2   4       4.5   5.4e+03   -1.8   0.0    72   110   587   626   584   639 0.79 -
JF1A_TRINITY_DN63007_c1_g2_i4.p1JF1A_TRINITY_DN63007_c1_g2  -            932 127464at3193         -            295   8.7e-15   56.6   7.8   3   4    0.0012       1.4   10.0   0.1    55   102   650   699   636   704 0.84 -
JF1A_TRINITY_DN63007_c1_g2_i4.p1JF1A_TRINITY_DN63007_c1_g2  -            932 127464at3193         -            295   8.7e-15   56.6   7.8   4   4   5.6e-08   6.7e-05   24.1   0.1    30   112   703   787   697   815 0.90 -
JF1A_TRINITY_DN65365_c0_g1_i16.p1JF1A_TRINITY_DN65365_c0_g1 -            133 127464at3193         -            295   7.3e-13   50.3   1.2   1   1   7.3e-16   8.7e-13   50.0   1.2    42   111    17    90     5   103 0.88 -
JF2A_TRINITY_DN39842_c0_g1_i4.p1JF2A_TRINITY_DN39842_c0_g1  -            220 127464at3193         -            295   2.4e-12   48.6   1.7   1   1   3.1e-15   3.7e-12   48.0   1.7    40   114    25   103     5   142 0.80 -
JF1A_TRINITY_DN60662_c0_g1_i1.p1JF1A_TRINITY_DN60662_c0_g1  -            269 127464at3193         -            295   3.6e-11   44.7   4.5   1   1   4.4e-14   5.3e-11   44.2   4.5    19   144    11   139     2   169 0.78 -
JF1A_TRINITY_DN67705_c0_g4_i2.p1JF1A_TRINITY_DN67705_c0_g4  -            310 127464at3193         -            295   9.1e-11   43.4   2.3   1   2   0.00021      0.25   12.4   0.6    55   103    27    77    13    90 0.79 -
JF1A_TRINITY_DN67705_c0_g4_i2.p1JF1A_TRINITY_DN67705_c0_g4  -            310 127464at3193         -            295   9.1e-11   43.4   2.3   2   2   2.5e-10     3e-07   31.8   0.3    25   112    75   164    72   173 0.87 -
JF1A_TRINITY_DN57166_c0_g1_i1.p1JF1A_TRINITY_DN57166_c0_g1  -            141 127464at3193         -            295   1.7e-10   42.5   4.3   1   1   1.5e-13   1.8e-10   42.4   4.3    23   113    22   114     2   137 0.83 -
JF1A_TRINITY_DN65529_c2_g3_i9.p1JF1A_TRINITY_DN65529_c2_g3  -            246 127464at3193         -            295   8.5e-10   40.2   5.3   1   2     1e-10   1.3e-07   33.1   1.8    21    85    51   117    31   134 0.79 -
JF1A_TRINITY_DN65529_c2_g3_i9.p1JF1A_TRINITY_DN65529_c2_g3  -            246 127464at3193         -            295   8.5e-10   40.2   5.3   2   2    0.0028       3.4    8.7   0.1    27    55   132   162   125   166 0.83 -
JF2A_TRINITY_DN41542_c2_g2_i1.p1JF2A_TRINITY_DN41542_c2_g2  -            128 127464at3193         -            295   5.6e-09   37.5   1.5   1   2   8.2e-09   9.9e-06   26.9   0.2    39    86     9    60     2    76 0.79 -
JF2A_TRINITY_DN41542_c2_g2_i1.p1JF2A_TRINITY_DN41542_c2_g2  -            128 127464at3193         -            295   5.6e-09   37.5   1.5   2   2   0.00063      0.76   10.8   0.1    25    56    72   105    63   116 0.83 -
JF1A_TRINITY_DN62402_c0_g3_i10.p1JF1A_TRINITY_DN62402_c0_g3 -            284 127464at3193         -            295   1.2e-08   36.4   0.4   1   1   1.3e-11   1.5e-08   36.1   0.4    28   113   134   223   109   263 0.80 -
JF3J_TRINITY_DN64026_c5_g2_i2.p1JF3J_TRINITY_DN64026_c5_g2  -            158 127464at3193         -            295   1.5e-08   36.1   0.3   1   1   2.4e-11   2.9e-08   35.2   0.3    39   152    14   141     5   146 0.81 -
JF3J_TRINITY_DN66366_c0_g1_i9.p1JF3J_TRINITY_DN66366_c0_g1  -            185 127464at3193         -            295   1.7e-08   36.0   0.2   1   2      0.81   9.7e+02    0.6   0.0   103   129     3    30     1    40 0.73 -
JF3J_TRINITY_DN66366_c0_g1_i9.p1JF3J_TRINITY_DN66366_c0_g1  -            185 127464at3193         -            295   1.7e-08   36.0   0.2   2   2   5.6e-11   6.7e-08   34.0   0.1    37   134    39   137    20   151 0.82 -
JF2A_TRINITY_DN41542_c2_g2_i3.p1JF2A_TRINITY_DN41542_c2_g2  -            168 127464at3193         -            295   2.3e-08   35.5   1.9   1   2   1.5e-08   1.8e-05   26.0   0.2    39    86     9    60     2    76 0.79 -
JF2A_TRINITY_DN41542_c2_g2_i3.p1JF2A_TRINITY_DN41542_c2_g2  -            168 127464at3193         -            295   2.3e-08   35.5   1.9   2   2    0.0014       1.6    9.7   0.1    25    55    72   104    62   108 0.83 -
JF1A_TRINITY_DN59896_c0_g1_i1.p1JF1A_TRINITY_DN59896_c0_g1  -            181 127464at3193         -            295   3.9e-07   31.5   0.7   1   1   3.7e-10   4.4e-07   31.3   0.7    15   143    50   179    39   180 0.79 -
JF1J_TRINITY_DN52559_c0_g1_i1.p1JF1J_TRINITY_DN52559_c0_g1  -            147 127464at3193         -            295   6.3e-07   30.8   0.7   1   1   5.8e-10     7e-07   30.6   0.7    56   118    42   107    15   136 0.84 -
JF1A_TRINITY_DN62296_c0_g4_i2.p1JF1A_TRINITY_DN62296_c0_g4  -            169 127464at3193         -            295   8.7e-07   30.3   0.0   1   1   8.7e-10     1e-06   30.1   0.0    24   112    20   110     4   143 0.81 -
JF1A_TRINITY_DN65371_c1_g1_i4.p1JF1A_TRINITY_DN65371_c1_g1  -            263 127464at3193         -            295   1.4e-06   29.7   2.8   1   1   1.7e-09   2.1e-06   29.1   2.8    23   118    94   201    75   230 0.73 -
JF1J_TRINITY_DN66159_c3_g1_i5.p1JF1J_TRINITY_DN66159_c3_g1  -            107 127464at3193         -            295   1.5e-06   29.5   0.3   1   1   1.4e-09   1.6e-06   29.4   0.3    56   113    17    74     2    92 0.88 -
JF1J_TRINITY_DN66159_c3_g1_i6.p1JF1J_TRINITY_DN66159_c3_g1  -            138 127464at3193         -            295   1.8e-06   29.3   0.5   1   1   1.6e-09   1.9e-06   29.2   0.5    55   113    32    90     5   121 0.84 -
JF1A_TRINITY_DN64488_c1_g1_i10.p1JF1A_TRINITY_DN64488_c1_g1 -            413 127464at3193         -            295   2.1e-06   29.1   7.7   1   3    0.0022       2.7    9.0   0.0    49    94    94   143    80   153 0.80 -
JF1A_TRINITY_DN64488_c1_g1_i10.p1JF1A_TRINITY_DN64488_c1_g1 -            413 127464at3193         -            295   2.1e-06   29.1   7.7   2   3   3.4e-05     0.041   15.0   1.0    30   111   145   228   138   268 0.82 -
JF1A_TRINITY_DN64488_c1_g1_i10.p1JF1A_TRINITY_DN64488_c1_g1 -            413 127464at3193         -            295   2.1e-06   29.1   7.7   3   3    0.0049       5.9    7.9   0.3    36   100   285   353   279   373 0.76 -
JF1A_TRINITY_DN62296_c0_g4_i3.p1JF1A_TRINITY_DN62296_c0_g4  -            132 127464at3193         -            295   1.2e-05   26.6   0.0   1   1   1.1e-08   1.3e-05   26.4   0.0    23    98    19    96     3   117 0.81 -
JF1A_TRINITY_DN55431_c0_g1_i2.p1JF1A_TRINITY_DN55431_c0_g1  -            167 127464at3193         -            295   1.7e-05   26.1   0.1   1   1     2e-08   2.4e-05   25.6   0.1    17   100    65   159    52   162 0.69 -
JF1J_TRINITY_DN41337_c0_g1_i3.p1JF1J_TRINITY_DN41337_c0_g1  -            123 127464at3193         -            295   3.2e-05   25.2   0.4   1   1   3.4e-08   4.1e-05   24.9   0.4    58   112     2    56     1    91 0.84 -
JF2A_TRINITY_DN52941_c0_g1_i1.p1JF2A_TRINITY_DN52941_c0_g1  -            264 127464at3193         -            295   4.5e-05   24.7   2.8   1   2   8.5e-08    0.0001   23.5   1.9    23   101    47   125    29   176 0.77 -
JF2A_TRINITY_DN52941_c0_g1_i1.p1JF2A_TRINITY_DN52941_c0_g1  -            264 127464at3193         -            295   4.5e-05   24.7   2.8   2   2       0.4   4.7e+02    1.7   0.1    65    92   123   150   119   218 0.71 -
JF1J_TRINITY_DN58775_c0_g1_i2.p1JF1J_TRINITY_DN58775_c0_g1  -            188 127464at3193         -            295   7.1e-05   24.1   0.1   1   1   6.7e-08     8e-05   23.9   0.1    43   112     2    75     1   115 0.84 -
JF1A_TRINITY_DN62396_c0_g1_i4.p1JF1A_TRINITY_DN62396_c0_g1  -            175 127464at3193         -            295   7.3e-05   24.0   0.2   1   1   7.7e-08   9.2e-05   23.7   0.2    29    80   113   166    88   172 0.83 -
JF3A_TRINITY_DN47733_c2_g3_i1.p1JF3A_TRINITY_DN47733_c2_g3  -            131 127464at3193         -            295   7.6e-05   24.0   0.3   1   1     8e-08   9.6e-05   23.6   0.3    43   100     7    72     3   100 0.81 -
JF2A_TRINITY_DN961_c0_g1_i2.p1JF2A_TRINITY_DN961_c0_g1      -            257 127464at3193         -            295   9.4e-05   23.7   1.7   1   2   1.3e-07   0.00016   22.9   0.7    30   143    34   153    20   188 0.79 -
JF2A_TRINITY_DN961_c0_g1_i2.p1JF2A_TRINITY_DN961_c0_g1      -            257 127464at3193         -            295   9.4e-05   23.7   1.7   2   2         2   2.3e+03   -0.6   0.0    72   125   193   250   157   256 0.63 -
JF1A_TRINITY_DN65139_c1_g1_i12.p1JF1A_TRINITY_DN65139_c1_g1 -            362 127464at3193         -            295    0.0001   23.5   9.6   1   1   3.3e-07    0.0004   21.6   9.6    11   135   168   313   163   340 0.69 -
JF1A_TRINITY_DN63291_c1_g5_i10.p1JF1A_TRINITY_DN63291_c1_g5 -            350 127464at3193         -            295   0.00014   23.1   0.0   1   3    0.0017         2    9.4   0.0    58    89   154   185   143   187 0.91 -
JF1A_TRINITY_DN63291_c1_g5_i10.p1JF1A_TRINITY_DN63291_c1_g5 -            350 127464at3193         -            295   0.00014   23.1   0.0   2   3   0.00035      0.41   11.7   0.0    56   108   186   238   183   248 0.88 -
JF1A_TRINITY_DN63291_c1_g5_i10.p1JF1A_TRINITY_DN63291_c1_g5 -            350 127464at3193         -            295   0.00014   23.1   0.0   3   3       6.7     8e+03   -2.4   0.0    81   116   272   309   266   317 0.76 -
JF1J_TRINITY_DN71441_c1_g4_i2.p1JF1J_TRINITY_DN71441_c1_g4  -            276 127464at3193         -            295   0.00018   22.8   0.2   1   1   2.1e-07   0.00026   22.2   0.2    30    80   215   267   194   272 0.85 -
JF1J_TRINITY_DN71286_c3_g1_i5.p1JF1J_TRINITY_DN71286_c3_g1  -            155 127464at3193         -            295    0.0002   22.6   0.0   1   1   2.8e-07   0.00033   21.8   0.0    42   100    20    83    12    97 0.78 -
JF2A_TRINITY_DN30631_c0_g2_i1.p1JF2A_TRINITY_DN30631_c0_g2  -            118 127464at3193         -            295    0.0006   21.0   0.0   1   1   5.9e-07   0.00071   20.8   0.0    31   112    21   105     7   117 0.75 -
JF1A_TRINITY_DN64488_c1_g1_i9.p1JF1A_TRINITY_DN64488_c1_g1  -            194 127464at3193         -            295   0.00093   20.4   0.7   1   1   9.4e-07    0.0011   20.1   0.7    17   111    13   110     9   173 0.82 -
JF1A_TRINITY_DN67946_c3_g2_i1.p1JF1A_TRINITY_DN67946_c3_g2  -            152 127464at3193         -            295    0.0011   20.2   0.1   1   1   1.1e-06    0.0013   19.9   0.1    40   112    66   143    46   150 0.88 -
JF3J_TRINITY_DN63264_c2_g1_i5.p1JF3J_TRINITY_DN63264_c2_g1  -            114 127464at3193         -            295    0.0011   20.2   0.0   1   1   1.1e-06    0.0013   19.9   0.0    57   112    33    88    28   107 0.90 -
JF1A_TRINITY_DN65794_c0_g2_i3.p1JF1A_TRINITY_DN65794_c0_g2  -            187 127464at3193         -            295    0.0014   19.8   0.1   1   1   1.4e-06    0.0017   19.6   0.1    16   139    31   163    19   176 0.72 -
JF1A_TRINITY_DN60808_c0_g2_i1.p1JF1A_TRINITY_DN60808_c0_g2  -            189 127464at3193         -            295    0.0017   19.5   0.1   1   1   2.7e-06    0.0032   18.6   0.0    58   112    44    98    39   135 0.87 -
JF1A_TRINITY_DN62468_c0_g6_i3.p1JF1A_TRINITY_DN62468_c0_g6  -            104 127464at3193         -            295    0.0019   19.4   0.3   1   2     0.088     1e+02    3.8   0.0    77    95    14    32    10    41 0.81 -
JF1A_TRINITY_DN62468_c0_g6_i3.p1JF1A_TRINITY_DN62468_c0_g6  -            104 127464at3193         -            295    0.0019   19.4   0.3   2   2   4.7e-05     0.056   14.5   0.1    40    93    39    95    33    99 0.89 -
JF1A_TRINITY_DN62468_c0_g6_i1.p1JF1A_TRINITY_DN62468_c0_g6  -            100 127464at3193         -            295    0.0028   18.8   0.1   1   1   2.5e-06     0.003   18.7   0.1    39    95    26    85     4    95 0.80 -
JF1A_TRINITY_DN10379_c0_g1_i1.p1JF1A_TRINITY_DN10379_c0_g1  -            175 127464at3193         -            295    0.0029   18.7   0.0   1   1   2.7e-06    0.0033   18.6   0.0    40   125     4    96     1   130 0.80 -
JF1J_TRINITY_DN71198_c0_g4_i1.p1JF1J_TRINITY_DN71198_c0_g4  -            110 127464at3193         -            295    0.0034   18.5   0.2   1   1     3e-06    0.0037   18.4   0.2    57   104    10    57     8   103 0.85 -
JF1A_TRINITY_DN62225_c0_g2_i2.p1JF1A_TRINITY_DN62225_c0_g2  -            247 127464at3193         -            295    0.0041   18.3   9.9   1   1   1.1e-05     0.013   16.6   9.9    13   124    69   181    41   213 0.70 -
JF2A_TRINITY_DN21724_c0_g1_i1.p1JF2A_TRINITY_DN21724_c0_g1  -            115 127464at3193         -            295     0.011   16.8   0.1   1   2   1.6e-05      0.02   16.0   0.0    17    55    12    48     2    91 0.68 -
JF2A_TRINITY_DN21724_c0_g1_i1.p1JF2A_TRINITY_DN21724_c0_g1  -            115 127464at3193         -            295     0.011   16.8   0.1   2   2       2.4   2.9e+03   -0.9   0.0   102   129    68    97    62   114 0.61 -
JF3A_TRINITY_DN53476_c2_g1_i3.p1JF3A_TRINITY_DN53476_c2_g1  -            105 127464at3193         -            295     0.022   15.9   0.1   1   1   1.9e-05     0.023   15.8   0.1    56   102    11    59     4    99 0.83 -
JF1J_TRINITY_DN64841_c2_g1_i2.p1JF1J_TRINITY_DN64841_c2_g1  -            323 127464at3193         -            295     0.024   15.8   1.1   1   1   3.1e-05     0.038   15.1   1.0    74   113    65   104    28   122 0.78 -
JF1A_TRINITY_DN65371_c1_g1_i5.p1JF1A_TRINITY_DN65371_c1_g1  -            203 127464at3193         -            295     0.042   15.0   0.7   1   1     5e-05     0.059   14.5   0.7    72   118    92   141    87   172 0.79 -
JF3J_TRINITY_DN64197_c4_g2_i2.p1JF3J_TRINITY_DN64197_c4_g2  -            161 127464at3193         -            295     0.059   14.5   0.2   1   2      0.25     3e+02    2.3   0.1    46    93    39    90     6   109 0.59 -
JF3J_TRINITY_DN64197_c4_g2_i2.p1JF3J_TRINITY_DN64197_c4_g2  -            161 127464at3193         -            295     0.059   14.5   0.2   2   2   0.00066      0.79   10.8   0.0    48    93   109   158    96   161 0.80 -
JF3A_TRINITY_DN55565_c1_g3_i3.p1JF3A_TRINITY_DN55565_c1_g3  -            159 127464at3193         -            295     0.063   14.4   0.1   1   1    0.0002      0.24   12.5   0.1    49   110    22    87    15    96 0.78 -
JF2A_TRINITY_DN41418_c0_g4_i1.p1JF2A_TRINITY_DN41418_c0_g4  -            172 127464at3193         -            295      0.08   14.0   1.4   1   2      0.55   6.6e+02    1.2   0.1    13    54    26    65    17    68 0.71 -
JF2A_TRINITY_DN41418_c0_g4_i1.p1JF2A_TRINITY_DN41418_c0_g4  -            172 127464at3193         -            295      0.08   14.0   1.4   2   2   0.00027      0.32   12.0   0.1    62   112    94   144    81   164 0.86 -
JF1A_TRINITY_DN65018_c0_g2_i10.p1JF1A_TRINITY_DN65018_c0_g2 -            162 127464at3193         -            295      0.13   13.3   0.2   1   1   0.00012      0.14   13.2   0.1    64   116    92   147    26   162 0.82 -
JF1A_TRINITY_DN66644_c0_g6_i2.p1JF1A_TRINITY_DN66644_c0_g6  -            239 127464at3193         -            295      0.26   12.4   0.2   1   1   0.00031      0.38   11.8   0.2    62   112   163   213   152   234 0.86 -
JF1A_TRINITY_DN65964_c2_g2_i6.p1JF1A_TRINITY_DN65964_c2_g2  -            182 127464at3193         -            295      0.27   12.3   0.4   1   2    0.0067         8    7.5   0.0    67    96    17    46     9    49 0.89 -
JF1A_TRINITY_DN65964_c2_g2_i6.p1JF1A_TRINITY_DN65964_c2_g2  -            182 127464at3193         -            295      0.27   12.3   0.4   2   2      0.16   1.9e+02    2.9   0.2    70   149    54   133    49   146 0.81 -
JF1A_TRINITY_DN67998_c0_g2_i1.p1JF1A_TRINITY_DN67998_c0_g2  -            162 127464at3193         -            295      0.27   12.3   0.2   1   1   0.00036      0.43   11.6   0.1    60   111     8    59     3    93 0.80 -
JF2A_TRINITY_DN39115_c0_g2_i2.p1JF2A_TRINITY_DN39115_c0_g2  -            344 127464at3193         -            295      0.36   11.9   0.5   1   3      0.15   1.8e+02    3.0   0.0    76   112    92   128    47   143 0.75 -
JF2A_TRINITY_DN39115_c0_g2_i2.p1JF2A_TRINITY_DN39115_c0_g2  -            344 127464at3193         -            295      0.36   11.9   0.5   2   3     0.071        85    4.1   0.0    40   111   154   229   138   241 0.67 -
JF2A_TRINITY_DN39115_c0_g2_i2.p1JF2A_TRINITY_DN39115_c0_g2  -            344 127464at3193         -            295      0.36   11.9   0.5   3   3       1.2   1.5e+03    0.0   0.0    63    89   283   309   275   322 0.85 -
JF1A_TRINITY_DN62473_c0_g4_i1.p1JF1A_TRINITY_DN62473_c0_g4  -            256 127464at3193         -            295      0.39   11.8   2.9   1   1   0.00045      0.53   11.3   2.9   172   278    46   160    23   171 0.74 -
JF1A_TRINITY_DN2739_c0_g1_i1.p1JF1A_TRINITY_DN2739_c0_g1    -            218 127464at3193         -            295       1.3   10.1   3.8   1   2     0.064        77    4.3   0.6    55   113    17    78     3    97 0.76 -
JF1A_TRINITY_DN2739_c0_g1_i1.p1JF1A_TRINITY_DN2739_c0_g1    -            218 127464at3193         -            295       1.3   10.1   3.8   2   2    0.0089        11    7.1   0.1    56   111   144   199   116   213 0.84 -
#
# Program:         hmmsearch
# Version:         3.2.1 (June 2018)
# Pipeline mode:   SEARCH
# Query file:      /isg/shared/databases/BUSCO/odb10/embryophyta_odb10/hmms/127464at3193.hmm
# Target file:     Juniper_final_annotations_no_contam_lvl0.faa
# Option settings: /usr/local/bin/hmmsearch --domtblout /labs/Wegrzyn/Juniper_Pine/BUSCO/NEW/busco_juniper/run_embryophyta_odb10/hmmer_output/127464at3193.out --cpu 1 /isg/shared/databases/BUSCO/odb10/embryophyta_odb10/hmms/127464at3193.hmm Juniper_final_annotations_no_contam_lvl0.faa 
# Current dir:     /labs/Wegrzyn/Juniper_Pine/BUSCO/NEW
# Date:            Thu Aug  6 16:05:52 2020
# [ok]
