#                                                                                                                  --- full sequence --- -------------- this domain -------------   hmm coord   ali coord   env coord
# target name                                              accession   tlen query name           accession   qlen   E-value  score  bias   #  of  c-Evalue  i-Evalue  score  bias  from    to  from    to  from    to  acc description of target
#                                      ------------------- ---------- ----- -------------------- ---------- ----- --------- ------ ----- --- --- --------- --------- ------ ----- ----- ----- ----- ----- ----- ----- ---- ---------------------
JF2A_TRINITY_DN26047_c0_g1_i1.p1JF2A_TRINITY_DN26047_c0_g1 -            302 128312at3193         -            406   8.7e-27   96.1   1.7   1   2   1.4e-06    0.0089   17.0   0.0   195   234    74   113    42   120 0.81 -
JF2A_TRINITY_DN26047_c0_g1_i1.p1JF2A_TRINITY_DN26047_c0_g1 -            302 128312at3193         -            406   8.7e-27   96.1   1.7   2   2   5.2e-25   3.3e-21   77.7   0.2   233   306   158   232   150   261 0.78 -
JF1A_TRINITY_DN65251_c2_g3_i5.p1JF1A_TRINITY_DN65251_c2_g3 -            423 128312at3193         -            406   3.4e-25   90.8   4.9   1   3   8.6e-12   5.4e-08   34.2   0.2    99   168    44   125    40   141 0.72 -
JF1A_TRINITY_DN65251_c2_g3_i5.p1JF1A_TRINITY_DN65251_c2_g3 -            423 128312at3193         -            406   3.4e-25   90.8   4.9   2   3   1.5e-06    0.0095   16.9   0.0   192   234   294   336   221   343 0.79 -
JF1A_TRINITY_DN65251_c2_g3_i5.p1JF1A_TRINITY_DN65251_c2_g3 -            423 128312at3193         -            406   3.4e-25   90.8   4.9   3   3   1.3e-13   8.2e-10   40.2   0.3   234   274   382   423   373   423 0.85 -
JF3A_TRINITY_DN54330_c1_g1_i4.p1JF3A_TRINITY_DN54330_c1_g1 -            233 128312at3193         -            406   5.5e-11   44.0   6.4   1   2   2.2e-10   1.4e-06   29.5   3.6   233   303    59   135    45   160 0.69 -
JF3A_TRINITY_DN54330_c1_g1_i4.p1JF3A_TRINITY_DN54330_c1_g1 -            233 128312at3193         -            406   5.5e-11   44.0   6.4   2   2   3.3e-06     0.021   15.8   0.2   257   289   151   185   134   197 0.74 -
JF2A_TRINITY_DN42983_c0_g1_i1.p1JF2A_TRINITY_DN42983_c0_g1 -            130 128312at3193         -            406     6e-10   40.6  14.9   1   1   5.2e-12   3.3e-08   34.9  14.9   315   401     1   116     1   129 0.62 -
JF1A_TRINITY_DN65251_c2_g3_i4.p1JF1A_TRINITY_DN65251_c2_g3 -            326 128312at3193         -            406   1.4e-08   36.1   0.1   1   1   5.2e-12   3.3e-08   34.9   0.1    99   168    44   125    40   142 0.72 -
JF1A_TRINITY_DN68422_c0_g2_i7.p1JF1A_TRINITY_DN68422_c0_g2 -            412 128312at3193         -            406   1.9e-06   29.0   8.4   1   3      0.44   2.8e+03   -1.1   0.1   332   376    41    85     4    90 0.63 -
JF1A_TRINITY_DN68422_c0_g2_i7.p1JF1A_TRINITY_DN68422_c0_g2 -            412 128312at3193         -            406   1.9e-06   29.0   8.4   2   3   4.7e-06     0.029   15.3   0.6   255   296    94   135    87   158 0.68 -
JF1A_TRINITY_DN68422_c0_g2_i7.p1JF1A_TRINITY_DN68422_c0_g2 -            412 128312at3193         -            406   1.9e-06   29.0   8.4   3   3   1.2e-06    0.0073   17.3   0.3   261   304   172   215   142   244 0.66 -
JF1A_TRINITY_DN39410_c0_g1_i1.p1JF1A_TRINITY_DN39410_c0_g1 -            227 128312at3193         -            406     5e-05   24.4   7.0   1   1   1.1e-08   6.8e-05   23.9   7.0   240   330    11   104     2   147 0.69 -
JF1A_TRINITY_DN68396_c0_g9_i2.p1JF1A_TRINITY_DN68396_c0_g9 -            218 128312at3193         -            406   0.00027   22.0  10.7   1   2   0.00015      0.92   10.3   0.7   268   307     2    41     1    70 0.56 -
JF1A_TRINITY_DN68396_c0_g9_i2.p1JF1A_TRINITY_DN68396_c0_g9 -            218 128312at3193         -            406   0.00027   22.0  10.7   2   2   6.7e-06     0.042   14.8   6.1   248   313    66   133    39   171 0.74 -
JF3A_TRINITY_DN51359_c0_g1_i1.p1JF3A_TRINITY_DN51359_c0_g1 -            127 128312at3193         -            406   0.00078   20.5   0.2   1   1   1.5e-07   0.00095   20.2   0.2   255   309    62   116    33   124 0.73 -
JF3J_TRINITY_DN61418_c0_g1_i1.p1JF3J_TRINITY_DN61418_c0_g1 -            111 128312at3193         -            406   0.00098   20.1   0.9   1   1   1.7e-07    0.0011   20.0   0.9   268   325     1    54     1    69 0.63 -
JF1A_TRINITY_DN67092_c2_g1_i2.p1JF1A_TRINITY_DN67092_c2_g1 -            241 128312at3193         -            406    0.0058   17.6   5.0   1   2   9.2e-07    0.0058   17.6   5.0   238   325    27   113     4   127 0.59 -
JF1A_TRINITY_DN67092_c2_g1_i2.p1JF1A_TRINITY_DN67092_c2_g1 -            241 128312at3193         -            406    0.0058   17.6   5.0   2   2      0.14   8.8e+02    0.5   0.7   167   252    94   182    90   188 0.67 -
#
# Program:         hmmsearch
# Version:         3.2.1 (June 2018)
# Pipeline mode:   SEARCH
# Query file:      /isg/shared/databases/BUSCO/odb10/embryophyta_odb10/hmms/128312at3193.hmm
# Target file:     Juniper_final_annotations_no_contam_lvl0.faa
# Option settings: /usr/local/bin/hmmsearch --domtblout /labs/Wegrzyn/Juniper_Pine/BUSCO/NEW/busco_juniper/run_embryophyta_odb10/hmmer_output/128312at3193.out --cpu 1 /isg/shared/databases/BUSCO/odb10/embryophyta_odb10/hmms/128312at3193.hmm Juniper_final_annotations_no_contam_lvl0.faa 
# Current dir:     /labs/Wegrzyn/Juniper_Pine/BUSCO/NEW
# Date:            Thu Aug  6 16:05:59 2020
# [ok]
