#                                                                                                                   --- full sequence --- -------------- this domain -------------   hmm coord   ali coord   env coord
# target name                                               accession   tlen query name           accession   qlen   E-value  score  bias   #  of  c-Evalue  i-Evalue  score  bias  from    to  from    to  from    to  acc description of target
#                                       ------------------- ---------- ----- -------------------- ---------- ----- --------- ------ ----- --- --- --------- --------- ------ ----- ----- ----- ----- ----- ----- ----- ---- ---------------------
JF2A_TRINITY_DN40367_c0_g2_i4.p1JF2A_TRINITY_DN40367_c0_g2  -            647 12903at3193          -            834  4.3e-285  949.7   5.3   1   2     7e-52   1.4e-48  167.2   0.0   181   309     8   150     2   158 0.92 -
JF2A_TRINITY_DN40367_c0_g2_i4.p1JF2A_TRINITY_DN40367_c0_g2  -            647 12903at3193          -            834  4.3e-285  949.7   5.3   2   2    6e-238  1.2e-234  782.8   3.1   309   734   200   647   183   647 0.95 -
JF1J_TRINITY_DN66416_c0_g2_i3.p1JF1J_TRINITY_DN66416_c0_g2  -            117 12903at3193          -            834   1.2e-33  117.9   2.5   1   2   8.2e-24   1.7e-20   74.4   0.1   234   292    14    74     6    88 0.90 -
JF1J_TRINITY_DN66416_c0_g2_i3.p1JF1J_TRINITY_DN66416_c0_g2  -            117 12903at3193          -            834   1.2e-33  117.9   2.5   2   2   1.3e-14   2.7e-11   43.9   0.6   404   435    86   117    81   117 0.93 -
JF2A_TRINITY_DN36276_c0_g1_i1.p1JF2A_TRINITY_DN36276_c0_g1  -            244 12903at3193          -            834   1.1e-29  104.8   0.8   1   2   7.4e-29   1.5e-25   91.1   0.2     2   113     5   144     4   153 0.84 -
JF2A_TRINITY_DN36276_c0_g1_i1.p1JF2A_TRINITY_DN36276_c0_g1  -            244 12903at3193          -            834   1.1e-29  104.8   0.8   2   2   2.5e-05     0.051   13.2   0.0    87   152   148   227   143   236 0.76 -
JF1J_TRINITY_DN66416_c0_g2_i12.p1JF1J_TRINITY_DN66416_c0_g2 -            169 12903at3193          -            834   3.2e-28  100.0   0.4   1   2   8.4e-29   1.7e-25   90.9   0.0     2    98     5   129     4   134 0.87 -
JF1J_TRINITY_DN66416_c0_g2_i12.p1JF1J_TRINITY_DN66416_c0_g2 -            169 12903at3193          -            834   3.2e-28  100.0   0.4   2   2   0.00097         2    8.0   0.0    59    84   133   158   129   167 0.86 -
JF1J_TRINITY_DN66416_c0_g2_i7.p1JF1J_TRINITY_DN66416_c0_g2  -            113 12903at3193          -            834   1.3e-13   51.6   0.0   1   1   6.5e-17   1.3e-13   51.6   0.0   307   351    68   112    13   113 0.90 -
JF1J_TRINITY_DN66416_c0_g2_i5.p1JF1J_TRINITY_DN66416_c0_g2  -            105 12903at3193          -            834   5.4e-11   42.9   0.1   1   1   2.8e-14   5.7e-11   42.9   0.1    43   113     2    91     1   105 0.80 -
JF3J_TRINITY_DN67014_c3_g2_i13.p1JF3J_TRINITY_DN67014_c3_g2 -            165 12903at3193          -            834   3.4e-10   40.3   0.3   1   2   1.4e-12   2.8e-09   37.3   0.1    39   114    34   128    22   138 0.78 -
JF3J_TRINITY_DN67014_c3_g2_i13.p1JF3J_TRINITY_DN67014_c3_g2 -            165 12903at3193          -            834   3.4e-10   40.3   0.3   2   2     0.051   1.1e+02    2.3   0.0    86   117   130   161   124   163 0.86 -
JF1A_TRINITY_DN63309_c1_g6_i1.p1JF1A_TRINITY_DN63309_c1_g6  -            174 12903at3193          -            834   4.9e-07   29.9   0.0   1   1   2.4e-10   4.9e-07   29.9   0.0   763   831    78   146    13   149 0.80 -
JF1A_TRINITY_DN64625_c3_g1_i1.p1JF1A_TRINITY_DN64625_c3_g1  -            262 12903at3193          -            834   3.2e-06   27.2   0.0   1   1   2.3e-09   4.6e-06   26.6   0.0   766   832     6    72     3    74 0.87 -
JF1J_TRINITY_DN60619_c0_g1_i5.p1JF1J_TRINITY_DN60619_c0_g1  -            215 12903at3193          -            834   1.1e-05   25.3   0.0   1   1   8.3e-09   1.7e-05   24.8   0.0   764   833    94   163    51   164 0.78 -
JF3J_TRINITY_DN1817_c0_g1_i1.p1JF3J_TRINITY_DN1817_c0_g1    -            161 12903at3193          -            834   5.6e-05   23.1   0.0   1   1   3.7e-08   7.6e-05   22.6   0.0   765   832    89   157    83   159 0.89 -
JF1A_TRINITY_DN66603_c2_g3_i2.p1JF1A_TRINITY_DN66603_c2_g3  -            402 12903at3193          -            834   7.1e-05   22.7   0.0   1   1   4.9e-08    0.0001   22.2   0.0   765   832   261   328   242   330 0.88 -
JF3A_TRINITY_DN42010_c0_g1_i1.p1JF3A_TRINITY_DN42010_c0_g1  -            242 12903at3193          -            834   7.8e-05   22.6   0.0   1   1   4.7e-08   9.6e-05   22.3   0.0   765   832    73   140    16   142 0.90 -
JF3A_TRINITY_DN54177_c2_g1_i1.p1JF3A_TRINITY_DN54177_c2_g1  -            123 12903at3193          -            834   0.00013   21.8   0.0   1   1   6.4e-08   0.00013   21.8   0.0   763   811    52    94     6   113 0.68 -
JF1A_TRINITY_DN66603_c2_g3_i9.p1JF1A_TRINITY_DN66603_c2_g3  -            400 12903at3193          -            834    0.0002   21.2   0.0   1   1   1.4e-07   0.00028   20.7   0.0   764   832    14    82     5    84 0.87 -
JF1J_TRINITY_DN61589_c0_g1_i1.p1JF1J_TRINITY_DN61589_c0_g1  -            250 12903at3193          -            834   0.00023   21.0   0.0   1   1   1.3e-07   0.00027   20.8   0.0   765   833    60   128    25   129 0.86 -
JF3J_TRINITY_DN49605_c0_g1_i1.p1JF3J_TRINITY_DN49605_c0_g1  -            143 12903at3193          -            834   0.00084   19.2   0.0   1   1   4.2e-07   0.00086   19.1   0.0   766   833    75   141    34   142 0.84 -
JF2A_TRINITY_DN32884_c0_g1_i1.p1JF2A_TRINITY_DN32884_c0_g1  -            103 12903at3193          -            834   0.00096   19.0   0.0   1   1   5.3e-07    0.0011   18.8   0.0   765   831    25    91    14    94 0.86 -
JF1A_TRINITY_DN67839_c2_g2_i1.p1JF1A_TRINITY_DN67839_c2_g2  -            146 12903at3193          -            834    0.0011   18.8   0.0   1   1   5.6e-07    0.0011   18.7   0.0   760   828    21    89     5    95 0.72 -
JF1A_TRINITY_DN65276_c0_g2_i10.p1JF1A_TRINITY_DN65276_c0_g2 -            619 12903at3193          -            834    0.0023   17.7   0.0   1   3       4.1   8.4e+03   -4.0   0.0   342   370    99   127    82   130 0.57 -
JF1A_TRINITY_DN65276_c0_g2_i10.p1JF1A_TRINITY_DN65276_c0_g2 -            619 12903at3193          -            834    0.0023   17.7   0.0   2   3   8.7e-05      0.18   11.5   0.0   766   831   278   343   264   346 0.80 -
JF1A_TRINITY_DN65276_c0_g2_i10.p1JF1A_TRINITY_DN65276_c0_g2 -            619 12903at3193          -            834    0.0023   17.7   0.0   3   3      0.02        41    3.6   0.0   763   787   579   604   551   611 0.82 -
JF2A_TRINITY_DN30365_c0_g1_i2.p1JF2A_TRINITY_DN30365_c0_g1  -            153 12903at3193          -            834    0.0034   17.1   0.0   1   1     2e-06    0.0041   16.9   0.0   768   830    31    93    13    97 0.85 -
JF1A_TRINITY_DN67490_c0_g2_i1.p1JF1A_TRINITY_DN67490_c0_g2  -            136 12903at3193          -            834    0.0058   16.4   0.1   1   1   4.8e-06    0.0098   15.6   0.0   764   792    94   122    50   129 0.72 -
JF3J_TRINITY_DN12843_c0_g1_i1.p1JF3J_TRINITY_DN12843_c0_g1  -            236 12903at3193          -            834     0.012   15.4   0.0   1   1   7.2e-06     0.015   15.0   0.0   755   832    17    95     6    97 0.83 -
JF1A_TRINITY_DN76159_c0_g1_i1.p1JF1A_TRINITY_DN76159_c0_g1  -            140 12903at3193          -            834     0.014   15.1   0.0   1   1   8.2e-06     0.017   14.9   0.0   729   788    78   138    61   140 0.89 -
JF3A_TRINITY_DN55848_c3_g2_i2.p1JF3A_TRINITY_DN55848_c3_g2  -            198 12903at3193          -            834     0.018   14.8   0.0   1   1   1.1e-05     0.023   14.4   0.0   765   832    12    79     3    81 0.91 -
JF1A_TRINITY_DN64561_c1_g3_i4.p1JF1A_TRINITY_DN64561_c1_g3  -            450 12903at3193          -            834     0.029   14.1   0.0   1   1   1.8e-05     0.037   13.7   0.0   763   831   174   243   145   246 0.87 -
JF3J_TRINITY_DN69658_c3_g1_i5.p1JF3J_TRINITY_DN69658_c3_g1  -            200 12903at3193          -            834     0.075   12.7   0.0   1   1   4.2e-05     0.085   12.5   0.0   758   831    69   145    23   148 0.77 -
JF3J_TRINITY_DN70034_c0_g1_i3.p1JF3J_TRINITY_DN70034_c0_g1  -            168 12903at3193          -            834     0.098   12.3   0.2   1   1   5.7e-05      0.12   12.1   0.2   462   522   101   163    65   165 0.80 -
JF1A_TRINITY_DN58849_c0_g1_i4.p1JF1A_TRINITY_DN58849_c0_g1  -            354 12903at3193          -            834       0.1   12.3   0.3   1   2      0.18   3.7e+02    0.5   0.2   309   390    80   167    34   177 0.63 -
JF1A_TRINITY_DN58849_c0_g1_i4.p1JF1A_TRINITY_DN58849_c0_g1  -            354 12903at3193          -            834       0.1   12.3   0.3   2   2   0.00028      0.57    9.8   0.0   767   801   244   277   225   314 0.78 -
JF2A_TRINITY_DN5431_c0_g1_i3.p1JF2A_TRINITY_DN5431_c0_g1    -            301 12903at3193          -            834      0.15   11.7   0.0   1   1   0.00012      0.24   11.0   0.0   768   831    10    73     6    76 0.87 -
JF1A_TRINITY_DN52833_c0_g1_i1.p1JF1A_TRINITY_DN52833_c0_g1  -            158 12903at3193          -            834      0.17   11.6   0.0   1   1   8.7e-05      0.18   11.5   0.0   749   822    64   137    30   148 0.71 -
JF1J_TRINITY_DN73052_c1_g2_i3.p1JF1J_TRINITY_DN73052_c1_g2  -            151 12903at3193          -            834       0.2   11.3   0.0   1   1   0.00011      0.23   11.1   0.0   767   798    98   128    69   141 0.84 -
JF1A_TRINITY_DN61745_c1_g1_i1.p1JF1A_TRINITY_DN61745_c1_g1  -            116 12903at3193          -            834      0.26   10.9   0.0   1   1   0.00013      0.26   10.9   0.0   764   822    50   107     5   115 0.79 -
JF2A_TRINITY_DN42450_c6_g4_i1.p1JF2A_TRINITY_DN42450_c6_g4  -            214 12903at3193          -            834      0.37   10.4   0.0   1   1   0.00023      0.47   10.1   0.0   767   830    59   123    44   127 0.83 -
#
# Program:         hmmsearch
# Version:         3.2.1 (June 2018)
# Pipeline mode:   SEARCH
# Query file:      /isg/shared/databases/BUSCO/odb10/embryophyta_odb10/hmms/12903at3193.hmm
# Target file:     Juniper_final_annotations_no_contam_lvl0.faa
# Option settings: /usr/local/bin/hmmsearch --domtblout /labs/Wegrzyn/Juniper_Pine/BUSCO/NEW/busco_juniper/run_embryophyta_odb10/hmmer_output/12903at3193.out --cpu 1 /isg/shared/databases/BUSCO/odb10/embryophyta_odb10/hmms/12903at3193.hmm Juniper_final_annotations_no_contam_lvl0.faa 
# Current dir:     /labs/Wegrzyn/Juniper_Pine/BUSCO/NEW
# Date:            Thu Aug  6 16:06:04 2020
# [ok]
