#                                                                                                                  --- full sequence --- -------------- this domain -------------   hmm coord   ali coord   env coord
# target name                                              accession   tlen query name           accession   qlen   E-value  score  bias   #  of  c-Evalue  i-Evalue  score  bias  from    to  from    to  from    to  acc description of target
#                                      ------------------- ---------- ----- -------------------- ---------- ----- --------- ------ ----- --- --- --------- --------- ------ ----- ----- ----- ----- ----- ----- ----- ---- ---------------------
JF1J_TRINITY_DN74811_c0_g1_i1.p1JF1J_TRINITY_DN74811_c0_g1 -            211 130505at3193         -            301     5e-64  218.5   4.3   1   3   8.6e-14   1.5e-09   39.6   1.8    97   138     1    49     1    50 0.82 -
JF1J_TRINITY_DN74811_c0_g1_i1.p1JF1J_TRINITY_DN74811_c0_g1 -            211 130505at3193         -            301     5e-64  218.5   4.3   2   3   7.9e-37   1.4e-32  115.2   0.1    50   138    48   151    47   152 0.88 -
JF1J_TRINITY_DN74811_c0_g1_i1.p1JF1J_TRINITY_DN74811_c0_g1 -            211 130505at3193         -            301     5e-64  218.5   4.3   3   3   4.3e-22   7.5e-18   66.8   0.0    50   103   150   211   149   211 0.93 -
JF1A_TRINITY_DN64445_c0_g6_i1.p1JF1A_TRINITY_DN64445_c0_g6 -            131 130505at3193         -            301   1.7e-62  213.4   4.0   1   1   1.1e-66   1.9e-62  213.2   4.0   180   301     9   130     2   130 0.95 -
JF1A_TRINITY_DN72266_c0_g1_i1.p1JF1A_TRINITY_DN72266_c0_g1 -            147 130505at3193         -            301   2.4e-53  183.4   1.7   1   1   1.6e-57   2.8e-53  183.2   1.7    26   152     6   147     3   147 0.91 -
JF1A_TRINITY_DN67685_c0_g3_i5.p1JF1A_TRINITY_DN67685_c0_g3 -            141 130505at3193         -            301      0.12   13.6   0.0   1   1   7.2e-06      0.13   13.6   0.0    74   149    48   122     8   129 0.87 -
#
# Program:         hmmsearch
# Version:         3.2.1 (June 2018)
# Pipeline mode:   SEARCH
# Query file:      /isg/shared/databases/BUSCO/odb10/embryophyta_odb10/hmms/130505at3193.hmm
# Target file:     Juniper_final_annotations_no_contam_lvl0.faa
# Option settings: /usr/local/bin/hmmsearch --domtblout /labs/Wegrzyn/Juniper_Pine/BUSCO/NEW/busco_juniper/run_embryophyta_odb10/hmmer_output/130505at3193.out --cpu 1 /isg/shared/databases/BUSCO/odb10/embryophyta_odb10/hmms/130505at3193.hmm Juniper_final_annotations_no_contam_lvl0.faa 
# Current dir:     /labs/Wegrzyn/Juniper_Pine/BUSCO/NEW
# Date:            Thu Aug  6 16:06:21 2020
# [ok]
