#                                                                                                                  --- full sequence --- -------------- this domain -------------   hmm coord   ali coord   env coord
# target name                                              accession   tlen query name           accession   qlen   E-value  score  bias   #  of  c-Evalue  i-Evalue  score  bias  from    to  from    to  from    to  acc description of target
#                                      ------------------- ---------- ----- -------------------- ---------- ----- --------- ------ ----- --- --- --------- --------- ------ ----- ----- ----- ----- ----- ----- ----- ---- ---------------------
JF1A_TRINITY_DN61157_c0_g1_i6.p1JF1A_TRINITY_DN61157_c0_g1 -            444 130625at3193         -            314   4.9e-85  287.3  63.3   1   5   1.2e-09   2.7e-05   25.4   4.0     1    65     7    74     7    85 0.65 -
JF1A_TRINITY_DN61157_c0_g1_i6.p1JF1A_TRINITY_DN61157_c0_g1 -            444 130625at3193         -            314   4.9e-85  287.3  63.3   2   5    0.0037        86    4.0   1.2   146   184    74   112    49   114 0.67 -
JF1A_TRINITY_DN61157_c0_g1_i6.p1JF1A_TRINITY_DN61157_c0_g1 -            444 130625at3193         -            314   4.9e-85  287.3  63.3   3   5   7.5e-29   1.7e-24   88.4  19.8    28   152    83   210    72   213 0.73 -
JF1A_TRINITY_DN61157_c0_g1_i6.p1JF1A_TRINITY_DN61157_c0_g1 -            444 130625at3193         -            314   4.9e-85  287.3  63.3   4   5   4.7e-45   1.1e-40  141.7  27.9   120   281   197   386   189   398 0.78 -
JF1A_TRINITY_DN61157_c0_g1_i6.p1JF1A_TRINITY_DN61157_c0_g1 -            444 130625at3193         -            314   4.9e-85  287.3  63.3   5   5   5.7e-13   1.3e-08   36.3   0.1   257   302   396   444   391   444 0.91 -
JF3J_TRINITY_DN65103_c6_g1_i3.p1JF3J_TRINITY_DN65103_c6_g1 -            112 130625at3193         -            314    0.0048   18.0   2.6   1   1   2.6e-07     0.006   17.7   2.6   193   262    12    82    10    85 0.90 -
JF1J_TRINITY_DN61994_c1_g2_i1.p1JF1J_TRINITY_DN61994_c1_g2 -            104 130625at3193         -            314      0.59   11.1   4.0   1   2   0.00013       3.1    8.8   0.4   242   271    17    46    10    57 0.86 -
JF1J_TRINITY_DN61994_c1_g2_i1.p1JF1J_TRINITY_DN61994_c1_g2 -            104 130625at3193         -            314      0.59   11.1   4.0   2   2    0.0031        71    4.3   0.3   241   263    81   103    47   103 0.87 -
#
# Program:         hmmsearch
# Version:         3.2.1 (June 2018)
# Pipeline mode:   SEARCH
# Query file:      /isg/shared/databases/BUSCO/odb10/embryophyta_odb10/hmms/130625at3193.hmm
# Target file:     Juniper_final_annotations_no_contam_lvl0.faa
# Option settings: /usr/local/bin/hmmsearch --domtblout /labs/Wegrzyn/Juniper_Pine/BUSCO/NEW/busco_juniper/run_embryophyta_odb10/hmmer_output/130625at3193.out --cpu 1 /isg/shared/databases/BUSCO/odb10/embryophyta_odb10/hmms/130625at3193.hmm Juniper_final_annotations_no_contam_lvl0.faa 
# Current dir:     /labs/Wegrzyn/Juniper_Pine/BUSCO/NEW
# Date:            Thu Aug  6 16:06:24 2020
# [ok]
