#                                                                                                                   --- full sequence --- -------------- this domain -------------   hmm coord   ali coord   env coord
# target name                                               accession   tlen query name           accession   qlen   E-value  score  bias   #  of  c-Evalue  i-Evalue  score  bias  from    to  from    to  from    to  acc description of target
#                                       ------------------- ---------- ----- -------------------- ---------- ----- --------- ------ ----- --- --- --------- --------- ------ ----- ----- ----- ----- ----- ----- ----- ---- ---------------------
JF1J_TRINITY_DN67822_c5_g1_i1.p1JF1J_TRINITY_DN67822_c5_g1  -            351 133295at3193         -            252  4.2e-136  454.1   0.0   1   1  1.1e-139    5e-136  453.8   0.0     1   251    83   342    83   343 0.97 -
JF3A_TRINITY_DN47005_c2_g3_i2.p1JF3A_TRINITY_DN47005_c2_g3  -            106 133295at3193         -            252   9.5e-54  184.3   0.0   1   1   2.5e-57   1.1e-53  184.0   0.0    17   110     7   100     2   104 0.97 -
JF1A_TRINITY_DN66651_c1_g1_i2.p1JF1A_TRINITY_DN66651_c1_g1  -            136 133295at3193         -            252   4.4e-51  175.6   0.0   1   1   1.1e-54   5.3e-51  175.3   0.0   120   227    12   121     4   126 0.95 -
JF1A_TRINITY_DN64826_c0_g1_i7.p1JF1A_TRINITY_DN64826_c0_g1  -            318 133295at3193         -            252   3.4e-48  166.1   0.0   1   1   9.1e-52   4.2e-48  165.8   0.0     5   250    21   291    17   293 0.81 -
JF3J_TRINITY_DN70900_c2_g1_i3.p1JF3J_TRINITY_DN70900_c2_g1  -            233 133295at3193         -            252   2.9e-46  159.8   0.0   1   1   8.4e-50   3.9e-46  159.4   0.0    15    97     1    83     1    92 0.97 -
JF1A_TRINITY_DN64826_c0_g3_i5.p1JF1A_TRINITY_DN64826_c0_g3  -            314 133295at3193         -            252   8.9e-44  151.6   0.0   1   1   2.4e-47   1.1e-43  151.3   0.0    12   250    27   287    14   289 0.81 -
JF2A_TRINITY_DN40209_c0_g2_i3.p1JF2A_TRINITY_DN40209_c0_g2  -            303 133295at3193         -            252   4.2e-43  149.4   0.0   1   1   1.1e-46     5e-43  149.1   0.0     5   250    11   278     7   280 0.82 -
JF3J_TRINITY_DN68926_c1_g2_i6.p1JF3J_TRINITY_DN68926_c1_g2  -            165 133295at3193         -            252     4e-23   83.9   0.0   1   2   8.5e-25   3.9e-21   77.4   0.0     5    97    11   111     7   116 0.83 -
JF3J_TRINITY_DN68926_c1_g2_i6.p1JF3J_TRINITY_DN68926_c1_g2  -            165 133295at3193         -            252     4e-23   83.9   0.0   2   2    0.0097        45    5.2   0.0   138   178   117   155   111   163 0.69 -
JF1A_TRINITY_DN67965_c0_g1_i2.p1JF1A_TRINITY_DN67965_c0_g1  -            164 133295at3193         -            252   2.9e-21   77.9   0.0   1   1   6.8e-25   3.2e-21   77.7   0.0    42   182     4   150     1   161 0.82 -
JF2J_TRINITY_DN22725_c1_g1_i3.p1JF2J_TRINITY_DN22725_c1_g1  -            107 133295at3193         -            252   8.6e-21   76.3   0.0   1   1   2.1e-24   9.7e-21   76.1   0.0     5    90    11   100     7   105 0.87 -
JF1J_TRINITY_DN68911_c0_g1_i7.p1JF1J_TRINITY_DN68911_c0_g1  -            111 133295at3193         -            252   3.3e-20   74.4   0.0   1   1     8e-24   3.7e-20   74.2   0.0     5    80    11    90     7    96 0.89 -
JF1J_TRINITY_DN64867_c0_g2_i1.p1JF1J_TRINITY_DN64867_c0_g2  -            122 133295at3193         -            252   1.5e-14   55.9   0.0   1   1   3.7e-18   1.7e-14   55.7   0.0    43   132     3   104     1   110 0.83 -
JF1A_TRINITY_DN66651_c1_g1_i18.p1JF1A_TRINITY_DN66651_c1_g1 -            134 133295at3193         -            252   8.1e-08   33.8   0.0   1   1   2.4e-11   1.1e-07   33.4   0.0     1    33    83   118    83   125 0.89 -
JF1A_TRINITY_DN64826_c0_g3_i2.p1JF1A_TRINITY_DN64826_c0_g3  -            182 133295at3193         -            252   9.2e-07   30.3   0.1   1   1   2.8e-10   1.3e-06   29.9   0.1   155   250    48   155    40   157 0.77 -
JF1A_TRINITY_DN60764_c1_g1_i9.p1JF1A_TRINITY_DN60764_c1_g1  -            124 133295at3193         -            252    0.0021   19.4   0.0   1   1     6e-07    0.0028   18.9   0.0   185   250    39   116    27   118 0.73 -
#
# Program:         hmmsearch
# Version:         3.2.1 (June 2018)
# Pipeline mode:   SEARCH
# Query file:      /isg/shared/databases/BUSCO/odb10/embryophyta_odb10/hmms/133295at3193.hmm
# Target file:     Juniper_final_annotations_no_contam_lvl0.faa
# Option settings: /usr/local/bin/hmmsearch --domtblout /labs/Wegrzyn/Juniper_Pine/BUSCO/NEW/busco_juniper/run_embryophyta_odb10/hmmer_output/133295at3193.out --cpu 1 /isg/shared/databases/BUSCO/odb10/embryophyta_odb10/hmms/133295at3193.hmm Juniper_final_annotations_no_contam_lvl0.faa 
# Current dir:     /labs/Wegrzyn/Juniper_Pine/BUSCO/NEW
# Date:            Thu Aug  6 16:06:57 2020
# [ok]
