#                                                                                                                  --- full sequence --- -------------- this domain -------------   hmm coord   ali coord   env coord
# target name                                              accession   tlen query name           accession   qlen   E-value  score  bias   #  of  c-Evalue  i-Evalue  score  bias  from    to  from    to  from    to  acc description of target
#                                      ------------------- ---------- ----- -------------------- ---------- ----- --------- ------ ----- --- --- --------- --------- ------ ----- ----- ----- ----- ----- ----- ----- ---- ---------------------
JF1A_TRINITY_DN61942_c1_g4_i7.p1JF1A_TRINITY_DN61942_c1_g4 -            342 134178at3193         -            232  1.7e-105  353.5   3.4   1   1  2.6e-107  2.6e-103  346.4   3.4     1   231    50   305    50   306 0.91 -
JF2A_TRINITY_DN37554_c0_g1_i1.p1JF2A_TRINITY_DN37554_c0_g1 -            111 134178at3193         -            232   5.4e-33  116.3   2.4   1   1   5.9e-37   5.9e-33  116.2   2.4    90   176    23   111     9   111 0.93 -
JF3J_TRINITY_DN63520_c5_g3_i2.p1JF3J_TRINITY_DN63520_c5_g3 -            103 134178at3193         -            232   7.8e-22   79.8   0.1   1   1     1e-25   9.9e-22   79.4   0.1    47    93     4    50     2    62 0.93 -
JF3J_TRINITY_DN66044_c2_g5_i1.p1JF3J_TRINITY_DN66044_c2_g5 -            175 134178at3193         -            232   1.9e-16   62.1   2.5   1   2   8.8e-07    0.0088   17.4   0.2     1    24    72    96    72    97 0.90 -
JF3J_TRINITY_DN66044_c2_g5_i1.p1JF3J_TRINITY_DN66044_c2_g5 -            175 134178at3193         -            232   1.9e-16   62.1   2.5   2   2   4.5e-17   4.5e-13   51.1   0.3   183   231    90   138    89   139 0.96 -
JF3J_TRINITY_DN70334_c1_g2_i9.p1JF3J_TRINITY_DN70334_c1_g2 -            275 134178at3193         -            232   0.00054   21.4   1.4   1   3   0.00013       1.3   10.4   0.0    69   126     4    63     1    66 0.85 -
JF3J_TRINITY_DN70334_c1_g2_i9.p1JF3J_TRINITY_DN70334_c1_g2 -            275 134178at3193         -            232   0.00054   21.4   1.4   2   3   0.00033       3.3    9.0   0.1    64   112    80   129    72   144 0.85 -
JF3J_TRINITY_DN70334_c1_g2_i9.p1JF3J_TRINITY_DN70334_c1_g2 -            275 134178at3193         -            232   0.00054   21.4   1.4   3   3      0.44   4.3e+03   -1.2   0.1   174   210   162   197   142   208 0.62 -
JF1J_TRINITY_DN71598_c0_g2_i3.p1JF1J_TRINITY_DN71598_c0_g2 -            182 134178at3193         -            232     0.034   15.5   0.4   1   1   4.6e-06     0.046   15.1   0.4   171   228    53   110     6   114 0.84 -
JF1A_TRINITY_DN67353_c1_g3_i1.p1JF1A_TRINITY_DN67353_c1_g3 -            126 134178at3193         -            232      0.21   12.9   0.0   1   1   2.7e-05      0.27   12.6   0.0    68   136     4    70     2    88 0.84 -
#
# Program:         hmmsearch
# Version:         3.2.1 (June 2018)
# Pipeline mode:   SEARCH
# Query file:      /isg/shared/databases/BUSCO/odb10/embryophyta_odb10/hmms/134178at3193.hmm
# Target file:     Juniper_final_annotations_no_contam_lvl0.faa
# Option settings: /usr/local/bin/hmmsearch --domtblout /labs/Wegrzyn/Juniper_Pine/BUSCO/NEW/busco_juniper/run_embryophyta_odb10/hmmer_output/134178at3193.out --cpu 1 /isg/shared/databases/BUSCO/odb10/embryophyta_odb10/hmms/134178at3193.hmm Juniper_final_annotations_no_contam_lvl0.faa 
# Current dir:     /labs/Wegrzyn/Juniper_Pine/BUSCO/NEW
# Date:            Thu Aug  6 16:07:07 2020
# [ok]
