#                                                                                                                  --- full sequence --- -------------- this domain -------------   hmm coord   ali coord   env coord
# target name                                              accession   tlen query name           accession   qlen   E-value  score  bias   #  of  c-Evalue  i-Evalue  score  bias  from    to  from    to  from    to  acc description of target
#                                      ------------------- ---------- ----- -------------------- ---------- ----- --------- ------ ----- --- --- --------- --------- ------ ----- ----- ----- ----- ----- ----- ----- ---- ---------------------
JF1A_TRINITY_DN66195_c1_g3_i4.p1JF1A_TRINITY_DN66195_c1_g3 -            310 134625at3193         -            259  1.2e-142  475.4   0.2   1   1  1.3e-146  1.5e-142  475.1   0.2     1   248    50   305    50   308 0.96 -
JF3J_TRINITY_DN59039_c0_g1_i1.p1JF3J_TRINITY_DN59039_c0_g1 -            115 134625at3193         -            259     7e-35  122.2   2.1   1   1   6.5e-39   7.5e-35  122.1   2.1    62   126    50   114    23   114 0.94 -
JF1A_TRINITY_DN66195_c1_g3_i1.p1JF1A_TRINITY_DN66195_c1_g3 -            146 134625at3193         -            259   3.2e-21   77.4   0.0   1   1   3.2e-25   3.7e-21   77.2   0.0     1    59    50   108    50   133 0.87 -
JF1A_TRINITY_DN62099_c3_g1_i1.p1JF1A_TRINITY_DN62099_c3_g1 -            388 134625at3193         -            259   1.4e-16   62.2   0.0   1   1     2e-20   2.3e-16   61.5   0.0   118   245   215   355   191   367 0.81 -
JF2A_TRINITY_DN30419_c0_g1_i1.p1JF2A_TRINITY_DN30419_c0_g1 -            319 134625at3193         -            259     6e-15   56.9   0.8   1   1     1e-18   1.2e-14   55.9   0.8    96   246   118   287    91   311 0.72 -
JF3J_TRINITY_DN60506_c0_g1_i2.p1JF3J_TRINITY_DN60506_c0_g1 -            141 134625at3193         -            259     0.012   16.5   0.5   1   1   1.6e-06     0.019   15.9   0.5   133   155   100   122    53   134 0.91 -
#
# Program:         hmmsearch
# Version:         3.2.1 (June 2018)
# Pipeline mode:   SEARCH
# Query file:      /isg/shared/databases/BUSCO/odb10/embryophyta_odb10/hmms/134625at3193.hmm
# Target file:     Juniper_final_annotations_no_contam_lvl0.faa
# Option settings: /usr/local/bin/hmmsearch --domtblout /labs/Wegrzyn/Juniper_Pine/BUSCO/NEW/busco_juniper/run_embryophyta_odb10/hmmer_output/134625at3193.out --cpu 1 /isg/shared/databases/BUSCO/odb10/embryophyta_odb10/hmms/134625at3193.hmm Juniper_final_annotations_no_contam_lvl0.faa 
# Current dir:     /labs/Wegrzyn/Juniper_Pine/BUSCO/NEW
# Date:            Thu Aug  6 16:07:13 2020
# [ok]
