#                                                                                                                  --- full sequence --- -------------- this domain -------------   hmm coord   ali coord   env coord
# target name                                              accession   tlen query name           accession   qlen   E-value  score  bias   #  of  c-Evalue  i-Evalue  score  bias  from    to  from    to  from    to  acc description of target
#                                      ------------------- ---------- ----- -------------------- ---------- ----- --------- ------ ----- --- --- --------- --------- ------ ----- ----- ----- ----- ----- ----- ----- ---- ---------------------
JF1A_TRINITY_DN57952_c0_g1_i2.p1JF1A_TRINITY_DN57952_c0_g1 -            214 135024at3193         -            280   1.5e-23   85.7   5.4   1   2   9.7e-16   1.3e-11   46.4   3.4    16   111     8   132     3   140 0.69 -
JF1A_TRINITY_DN57952_c0_g1_i2.p1JF1A_TRINITY_DN57952_c0_g1 -            214 135024at3193         -            280   1.5e-23   85.7   5.4   2   2   9.6e-13   1.3e-08   36.6   0.0   114   163   161   210   143   211 0.94 -
JF1A_TRINITY_DN57952_c0_g1_i4.p1JF1A_TRINITY_DN57952_c0_g1 -            189 135024at3193         -            280   4.3e-22   80.9   2.3   1   2   8.3e-15   1.1e-10   43.4   0.9    16   113     8   109     3   116 0.87 -
JF1A_TRINITY_DN57952_c0_g1_i4.p1JF1A_TRINITY_DN57952_c0_g1 -            189 135024at3193         -            280   4.3e-22   80.9   2.3   2   2   7.3e-13     1e-08   37.0   0.0   114   163   136   185   114   186 0.94 -
JF1A_TRINITY_DN56417_c0_g1_i1.p1JF1A_TRINITY_DN56417_c0_g1 -            156 135024at3193         -            280   3.3e-21   78.0   0.3   1   1   3.5e-23   4.8e-19   70.9   0.3    67   163    14   146     5   151 0.77 -
JF1J_TRINITY_DN61006_c0_g1_i1.p1JF1J_TRINITY_DN61006_c0_g1 -            113 135024at3193         -            280   1.6e-09   39.6   0.8   1   1   1.4e-13   1.9e-09   39.4   0.8    16   108     8   103     3   109 0.84 -
JF3J_TRINITY_DN76472_c0_g1_i1.p1JF3J_TRINITY_DN76472_c0_g1 -            106 135024at3193         -            280   4.6e-06   28.3   0.4   1   1   3.8e-10   5.3e-06   28.1   0.4    50    91    37    89    10   101 0.75 -
#
# Program:         hmmsearch
# Version:         3.2.1 (June 2018)
# Pipeline mode:   SEARCH
# Query file:      /isg/shared/databases/BUSCO/odb10/embryophyta_odb10/hmms/135024at3193.hmm
# Target file:     Juniper_final_annotations_no_contam_lvl0.faa
# Option settings: /usr/local/bin/hmmsearch --domtblout /labs/Wegrzyn/Juniper_Pine/BUSCO/NEW/busco_juniper/run_embryophyta_odb10/hmmer_output/135024at3193.out --cpu 1 /isg/shared/databases/BUSCO/odb10/embryophyta_odb10/hmms/135024at3193.hmm Juniper_final_annotations_no_contam_lvl0.faa 
# Current dir:     /labs/Wegrzyn/Juniper_Pine/BUSCO/NEW
# Date:            Thu Aug  6 16:07:18 2020
# [ok]
