#                                                                                                                   --- full sequence --- -------------- this domain -------------   hmm coord   ali coord   env coord
# target name                                               accession   tlen query name           accession   qlen   E-value  score  bias   #  of  c-Evalue  i-Evalue  score  bias  from    to  from    to  from    to  acc description of target
#                                       ------------------- ---------- ----- -------------------- ---------- ----- --------- ------ ----- --- --- --------- --------- ------ ----- ----- ----- ----- ----- ----- ----- ---- ---------------------
JF1A_TRINITY_DN63131_c1_g3_i3.p1JF1A_TRINITY_DN63131_c1_g3  -            294 135923at3193         -            242  2.2e-109  366.5   0.1   1   1  3.8e-112  2.2e-108  363.2   0.1     6   228    35   261    31   291 0.92 -
JF3J_TRINITY_DN65032_c0_g1_i2.p1JF3J_TRINITY_DN65032_c0_g1  -            178 135923at3193         -            242   5.4e-73  247.3   0.0   1   1   1.1e-76   6.3e-73  247.1   0.0    81   235    16   174    11   177 0.96 -
JF1J_TRINITY_DN63861_c3_g1_i12.p1JF1J_TRINITY_DN63861_c3_g1 -            166 135923at3193         -            242   1.5e-39  137.8   0.0   1   1   2.8e-43   1.6e-39  137.7   0.0   142   227    64   152    18   159 0.94 -
JF1A_TRINITY_DN63432_c0_g1_i7.p1JF1A_TRINITY_DN63432_c0_g1  -            288 135923at3193         -            242   3.7e-12   48.1   0.0   1   1   2.4e-14   1.4e-10   42.9   0.0   100   225   129   258    41   267 0.70 -
JF1A_TRINITY_DN63432_c0_g1_i6.p1JF1A_TRINITY_DN63432_c0_g1  -            182 135923at3193         -            242   5.4e-09   37.8   0.0   1   1   1.1e-12   6.4e-09   37.5   0.0   122   225    45   152    27   166 0.73 -
JF1A_TRINITY_DN67219_c1_g2_i1.p1JF1A_TRINITY_DN67219_c1_g2  -            608 135923at3193         -            242   1.6e-05   26.3   0.0   1   1   7.5e-09   4.3e-05   25.0   0.0   108   227   450   586   422   591 0.78 -
JF1J_TRINITY_DN63196_c0_g2_i11.p1JF1J_TRINITY_DN63196_c0_g2 -            316 135923at3193         -            242    0.0003   22.2   0.0   1   1   2.5e-07    0.0014   20.0   0.0   118   205   164   266   147   275 0.79 -
JF1A_TRINITY_DN64678_c0_g3_i1.p1JF1A_TRINITY_DN64678_c0_g3  -            314 135923at3193         -            242    0.0059   18.0   0.0   1   1   1.7e-06    0.0096   17.3   0.0   110   199   213   312   198   314 0.77 -
JF3J_TRINITY_DN63708_c0_g1_i4.p1JF3J_TRINITY_DN63708_c0_g1  -            209 135923at3193         -            242     0.011   17.1   0.0   1   1   9.9e-06     0.057   14.7   0.0   118   203    95   195    75   203 0.78 -
JF1A_TRINITY_DN64678_c0_g3_i3.p1JF1A_TRINITY_DN64678_c0_g3  -            108 135923at3193         -            242     0.019   16.3   0.0   1   1   3.8e-06     0.022   16.1   0.0   163   199    67   106    22   108 0.66 -
JF1A_TRINITY_DN65945_c0_g2_i1.p1JF1A_TRINITY_DN65945_c0_g2  -            128 135923at3193         -            242     0.025   15.9   0.4   1   1   1.5e-05     0.086   14.2   0.4   184   205    43    64     8    73 0.66 -
JF1A_TRINITY_DN67071_c4_g1_i2.p1JF1A_TRINITY_DN67071_c4_g1  -            174 135923at3193         -            242      0.18   13.1   0.0   1   2   7.4e-05      0.43   11.9   0.0   129   186    10    71     1    99 0.70 -
JF1A_TRINITY_DN67071_c4_g1_i2.p1JF1A_TRINITY_DN67071_c4_g1  -            174 135923at3193         -            242      0.18   13.1   0.0   2   2       1.6   9.5e+03   -2.4   0.0    80    99   147   166   123   169 0.47 -
#
# Program:         hmmsearch
# Version:         3.2.1 (June 2018)
# Pipeline mode:   SEARCH
# Query file:      /isg/shared/databases/BUSCO/odb10/embryophyta_odb10/hmms/135923at3193.hmm
# Target file:     Juniper_final_annotations_no_contam_lvl0.faa
# Option settings: /usr/local/bin/hmmsearch --domtblout /labs/Wegrzyn/Juniper_Pine/BUSCO/NEW/busco_juniper/run_embryophyta_odb10/hmmer_output/135923at3193.out --cpu 1 /isg/shared/databases/BUSCO/odb10/embryophyta_odb10/hmms/135923at3193.hmm Juniper_final_annotations_no_contam_lvl0.faa 
# Current dir:     /labs/Wegrzyn/Juniper_Pine/BUSCO/NEW
# Date:            Thu Aug  6 16:07:21 2020
# [ok]
