#                                                                                                                   --- full sequence --- -------------- this domain -------------   hmm coord   ali coord   env coord
# target name                                               accession   tlen query name           accession   qlen   E-value  score  bias   #  of  c-Evalue  i-Evalue  score  bias  from    to  from    to  from    to  acc description of target
#                                       ------------------- ---------- ----- -------------------- ---------- ----- --------- ------ ----- --- --- --------- --------- ------ ----- ----- ----- ----- ----- ----- ----- ---- ---------------------
JF1A_TRINITY_DN75391_c0_g1_i1.p1JF1A_TRINITY_DN75391_c0_g1  -            124 137492at3193         -            224   3.9e-53  182.0   0.1   1   1     9e-57   4.5e-53  181.8   0.1     1   104    21   124    21   124 0.99 -
JF2A_TRINITY_DN28431_c0_g1_i2.p1JF2A_TRINITY_DN28431_c0_g1  -            123 137492at3193         -            224   3.4e-31  110.2   0.0   1   1   8.9e-35   4.4e-31  109.8   0.0   129   223    17   116    14   117 0.93 -
JF2A_TRINITY_DN28431_c0_g1_i1.p1JF2A_TRINITY_DN28431_c0_g1  -            140 137492at3193         -            224   1.6e-29  104.7   0.2   1   2   3.3e-25   1.6e-21   78.6   0.0   129   192    17    80    14    95 0.93 -
JF2A_TRINITY_DN28431_c0_g1_i1.p1JF2A_TRINITY_DN28431_c0_g1  -            140 137492at3193         -            224   1.6e-29  104.7   0.2   2   2     1e-08     5e-05   24.6   0.0   189   223    99   133    89   134 0.87 -
JF2A_TRINITY_DN41961_c1_g1_i1.p1JF2A_TRINITY_DN41961_c1_g1  -            271 137492at3193         -            224   1.9e-11   45.6   3.9   1   3   7.1e-08   0.00035   21.9   0.0   116   166    11    61     5    62 0.92 -
JF2A_TRINITY_DN41961_c1_g1_i1.p1JF2A_TRINITY_DN41961_c1_g1  -            271 137492at3193         -            224   1.9e-11   45.6   3.9   2   3   0.00021         1   10.5   0.0   126   169    57   100    54   113 0.89 -
JF2A_TRINITY_DN41961_c1_g1_i1.p1JF2A_TRINITY_DN41961_c1_g1  -            271 137492at3193         -            224   1.9e-11   45.6   3.9   3   3   8.7e-06     0.043   15.0   0.3   113   193   160   240   144   268 0.83 -
JF2A_TRINITY_DN27476_c0_g1_i1.p1JF2A_TRINITY_DN27476_c0_g1  -            226 137492at3193         -            224   1.7e-09   39.2   1.0   1   2   4.9e-05      0.25   12.6   0.3    84   130    38    84     2   124 0.66 -
JF2A_TRINITY_DN27476_c0_g1_i1.p1JF2A_TRINITY_DN27476_c0_g1  -            226 137492at3193         -            224   1.7e-09   39.2   1.0   2   2   4.8e-09   2.4e-05   25.7   0.0   116   186   152   223   140   226 0.89 -
JF3A_TRINITY_DN48314_c1_g1_i3.p1JF3A_TRINITY_DN48314_c1_g1  -            138 137492at3193         -            224   0.00068   20.9   0.1   1   1   1.7e-07   0.00082   20.7   0.1   106   192    24   110    12   137 0.84 -
JF3A_TRINITY_DN40682_c0_g1_i1.p1JF3A_TRINITY_DN40682_c0_g1  -            210 137492at3193         -            224   0.00078   20.7   1.9   1   1   2.1e-07     0.001   20.3   1.9    85   190    32   137    14   159 0.82 -
JF1A_TRINITY_DN58076_c0_g1_i1.p2JF1A_TRINITY_DN58076_c0_g1  -            137 137492at3193         -            224    0.0019   19.5   1.5   1   1     4e-06      0.02   16.1   0.5    80   170    24   112    21   119 0.81 -
JF1A_TRINITY_DN63688_c0_g2_i6.p1JF1A_TRINITY_DN63688_c0_g2  -            368 137492at3193         -            224    0.0028   18.9   0.8   1   1     1e-06    0.0052   18.0   0.8    86   209    90   215    77   228 0.78 -
JF1J_TRINITY_DN60307_c0_g1_i1.p1JF1J_TRINITY_DN60307_c0_g1  -            123 137492at3193         -            224     0.012   16.8   0.0   1   2     0.075   3.7e+02    2.2   0.0   146   214    23    49     1    54 0.57 -
JF1J_TRINITY_DN60307_c0_g1_i1.p1JF1J_TRINITY_DN60307_c0_g1  -            123 137492at3193         -            224     0.012   16.8   0.0   2   2   1.6e-05     0.079   14.2   0.0   138   181    50    93    38   120 0.75 -
JF3J_TRINITY_DN72734_c2_g3_i1.p1JF3J_TRINITY_DN72734_c2_g3  -            141 137492at3193         -            224     0.013   16.7   0.2   1   1     3e-06     0.015   16.5   0.2   123   205    33   120    14   133 0.76 -
JF1A_TRINITY_DN57795_c0_g1_i1.p1JF1A_TRINITY_DN57795_c0_g1  -            296 137492at3193         -            224     0.044   15.0   0.0   1   1   1.4e-05      0.07   14.3   0.0    57   131    16    87    12    99 0.86 -
JF1A_TRINITY_DN63688_c0_g2_i4.p1JF1A_TRINITY_DN63688_c0_g2  -            119 137492at3193         -            224     0.076   14.2   0.2   1   1   2.9e-05      0.14   13.3   0.2    86   168    20   102    14   115 0.78 -
JF1A_TRINITY_DN62519_c5_g1_i12.p1JF1A_TRINITY_DN62519_c5_g1 -            111 137492at3193         -            224      0.14   13.4   0.1   1   1   3.2e-05      0.16   13.2   0.1    87   165    34    76    15    94 0.64 -
#
# Program:         hmmsearch
# Version:         3.2.1 (June 2018)
# Pipeline mode:   SEARCH
# Query file:      /isg/shared/databases/BUSCO/odb10/embryophyta_odb10/hmms/137492at3193.hmm
# Target file:     Juniper_final_annotations_no_contam_lvl0.faa
# Option settings: /usr/local/bin/hmmsearch --domtblout /labs/Wegrzyn/Juniper_Pine/BUSCO/NEW/busco_juniper/run_embryophyta_odb10/hmmer_output/137492at3193.out --cpu 1 /isg/shared/databases/BUSCO/odb10/embryophyta_odb10/hmms/137492at3193.hmm Juniper_final_annotations_no_contam_lvl0.faa 
# Current dir:     /labs/Wegrzyn/Juniper_Pine/BUSCO/NEW
# Date:            Thu Aug  6 16:07:39 2020
# [ok]
