#                                                                                                                   --- full sequence --- -------------- this domain -------------   hmm coord   ali coord   env coord
# target name                                               accession   tlen query name           accession   qlen   E-value  score  bias   #  of  c-Evalue  i-Evalue  score  bias  from    to  from    to  from    to  acc description of target
#                                       ------------------- ---------- ----- -------------------- ---------- ----- --------- ------ ----- --- --- --------- --------- ------ ----- ----- ----- ----- ----- ----- ----- ---- ---------------------
JF1A_TRINITY_DN66466_c3_g8_i1.p1JF1A_TRINITY_DN66466_c3_g8  -            104 138857at3193         -            215   5.6e-24   87.0   0.0   1   1     5e-28     7e-24   86.7   0.0    28    90     1    68     1    71 0.93 -
JF3A_TRINITY_DN43799_c0_g1_i1.p1JF3A_TRINITY_DN43799_c0_g1  -            106 138857at3193         -            215    0.0027   19.4   0.0   1   1   2.2e-07     0.003   19.3   0.0    27    86    19    73    11   103 0.86 -
JF3J_TRINITY_DN47725_c0_g1_i2.p1JF3J_TRINITY_DN47725_c0_g1  -            105 138857at3193         -            215     0.059   15.0   0.1   1   2    0.0013        18    6.9   0.0    27    45    34    52    26    57 0.89 -
JF3J_TRINITY_DN47725_c0_g1_i2.p1JF3J_TRINITY_DN47725_c0_g1  -            105 138857at3193         -            215     0.059   15.0   0.1   2   2    0.0019        26    6.4   0.0    27    44    87   104    79   105 0.89 -
JF1A_TRINITY_DN68146_c3_g1_i21.p1JF1A_TRINITY_DN68146_c3_g1 -            169 138857at3193         -            215      0.24   13.1   0.0   1   2   4.3e-05      0.59   11.8   0.0    27    53    61    87    54   113 0.81 -
JF1A_TRINITY_DN68146_c3_g1_i21.p1JF1A_TRINITY_DN68146_c3_g1 -            169 138857at3193         -            215      0.24   13.1   0.0   2   2      0.66   9.1e+03   -1.9   0.0   119   136   136   153   122   164 0.77 -
JF1A_TRINITY_DN65055_c0_g3_i12.p1JF1A_TRINITY_DN65055_c0_g3 -            158 138857at3193         -            215       0.5   12.0   0.0   1   1   6.1e-05      0.85   11.3   0.0    27    52   124   149   117   152 0.88 -
#
# Program:         hmmsearch
# Version:         3.2.1 (June 2018)
# Pipeline mode:   SEARCH
# Query file:      /isg/shared/databases/BUSCO/odb10/embryophyta_odb10/hmms/138857at3193.hmm
# Target file:     Juniper_final_annotations_no_contam_lvl0.faa
# Option settings: /usr/local/bin/hmmsearch --domtblout /labs/Wegrzyn/Juniper_Pine/BUSCO/NEW/busco_juniper/run_embryophyta_odb10/hmmer_output/138857at3193.out --cpu 1 /isg/shared/databases/BUSCO/odb10/embryophyta_odb10/hmms/138857at3193.hmm Juniper_final_annotations_no_contam_lvl0.faa 
# Current dir:     /labs/Wegrzyn/Juniper_Pine/BUSCO/NEW
# Date:            Thu Aug  6 16:07:50 2020
# [ok]
