#                                                                                                                    --- full sequence --- -------------- this domain -------------   hmm coord   ali coord   env coord
# target name                                                accession   tlen query name           accession   qlen   E-value  score  bias   #  of  c-Evalue  i-Evalue  score  bias  from    to  from    to  from    to  acc description of target
#                                        ------------------- ---------- ----- -------------------- ---------- ----- --------- ------ ----- --- --- --------- --------- ------ ----- ----- ----- ----- ----- ----- ----- ---- ---------------------
JF1A_TRINITY_DN63158_c4_g3_i3.p1JF1A_TRINITY_DN63158_c4_g3   -            318 139014at3193         -            252   3.8e-97  326.6   0.9   1   1  6.4e-100   4.8e-97  326.3   0.9     2   251    33   316    32   317 0.89 -
JF1A_TRINITY_DN64989_c0_g2_i3.p1JF1A_TRINITY_DN64989_c0_g2   -            350 139014at3193         -            252   1.8e-96  324.4   0.1   1   1   8.4e-99   6.3e-96  322.6   0.1     1   252    53   349    53   349 0.90 -
JF1A_TRINITY_DN63158_c4_g3_i7.p1JF1A_TRINITY_DN63158_c4_g3   -            318 139014at3193         -            252   1.2e-95  321.7   1.1   1   1   2.1e-98   1.6e-95  321.3   1.1     2   251    33   316    32   317 0.89 -
JF1A_TRINITY_DN63503_c1_g1_i11.p1JF1A_TRINITY_DN63503_c1_g1  -            314 139014at3193         -            252   1.1e-86  292.3   0.2   1   1     2e-89   1.5e-86  291.9   0.2     2   242    31   296    30   301 0.91 -
JF1J_TRINITY_DN68953_c0_g1_i1.p1JF1J_TRINITY_DN68953_c0_g1   -            331 139014at3193         -            252   7.8e-86  289.5   1.0   1   1   8.5e-88   6.3e-85  286.6   1.1     2   237    39   311    38   317 0.88 -
JF3J_TRINITY_DN72792_c1_g1_i12.p1JF3J_TRINITY_DN72792_c1_g1  -            385 139014at3193         -            252   4.7e-72  244.4   4.2   1   2   3.3e-51   2.5e-48  166.7   0.2     2   160    46   211    45   213 0.92 -
JF3J_TRINITY_DN72792_c1_g1_i12.p1JF3J_TRINITY_DN72792_c1_g1  -            385 139014at3193         -            252   4.7e-72  244.4   4.2   2   2   3.7e-25   2.8e-22   81.3   0.6   127   250   209   364   209   366 0.82 -
JF1A_TRINITY_DN66470_c3_g3_i1.p1JF1A_TRINITY_DN66470_c3_g3   -            353 139014at3193         -            252     2e-69  235.7   0.1   1   1     4e-72     3e-69  235.2   0.1     2   250    46   331    45   333 0.88 -
JF1A_TRINITY_DN65756_c3_g4_i1.p1JF1A_TRINITY_DN65756_c3_g4   -            219 139014at3193         -            252   1.2e-67  229.9   0.8   1   1     2e-70   1.5e-67  229.6   0.8     2   166    40   209    39   214 0.94 -
JF1A_TRINITY_DN63515_c0_g4_i1.p1JF1A_TRINITY_DN63515_c0_g4   -            181 139014at3193         -            252   5.1e-66  224.6   1.0   1   1   7.6e-69   5.7e-66  224.5   1.0     2   154    19   176    18   180 0.93 -
JF1A_TRINITY_DN64989_c0_g2_i5.p1JF1A_TRINITY_DN64989_c0_g2   -            199 139014at3193         -            252   8.6e-66  223.9   0.6   1   1   1.5e-68   1.1e-65  223.5   0.6     1   138    37   177    37   185 0.96 -
JF1A_TRINITY_DN61847_c0_g4_i11.p1JF1A_TRINITY_DN61847_c0_g4  -            356 139014at3193         -            252     1e-65  223.6   1.6   1   2   4.2e-61   3.1e-58  199.1   0.1     2   171    64   237    63   242 0.93 -
JF1A_TRINITY_DN61847_c0_g4_i11.p1JF1A_TRINITY_DN61847_c0_g4  -            356 139014at3193         -            252     1e-65  223.6   1.6   2   2   1.4e-07    0.0001   23.8   0.1   181   240   271   339   255   350 0.78 -
JF1A_TRINITY_DN63515_c0_g1_i18.p1JF1A_TRINITY_DN63515_c0_g1  -            231 139014at3193         -            252   1.5e-64  219.8   0.7   1   1   2.5e-67   1.9e-64  219.5   0.7     2   151    45   199    44   219 0.91 -
JF1J_TRINITY_DN68953_c0_g1_i8.p1JF1J_TRINITY_DN68953_c0_g1   -            224 139014at3193         -            252     7e-64  217.6   0.4   1   1   1.2e-66   9.1e-64  217.2   0.4     2   137    43   181    42   189 0.96 -
JF1A_TRINITY_DN66609_c0_g5_i11.p1JF1A_TRINITY_DN66609_c0_g5  -            374 139014at3193         -            252   3.1e-62  212.2   8.7   1   1     2e-63   1.5e-60  206.7   8.7     2   252    52   344    51   344 0.84 -
JF1A_TRINITY_DN63158_c1_g1_i1.p1JF1A_TRINITY_DN63158_c1_g1   -            177 139014at3193         -            252   1.1e-61  210.4   1.1   1   1     2e-64   1.5e-61  210.0   1.1     1   135    38   175    38   176 0.95 -
JF3A_TRINITY_DN57806_c1_g1_i7.p1JF3A_TRINITY_DN57806_c1_g1   -            318 139014at3193         -            252   4.4e-61  208.4   0.5   1   1   9.6e-64   7.2e-61  207.8   0.5    32   250    42   296    33   298 0.87 -
JF1A_TRINITY_DN60802_c5_g1_i3.p1JF1A_TRINITY_DN60802_c5_g1   -            325 139014at3193         -            252   4.5e-60  205.1   0.0   1   1   7.8e-63   5.8e-60  204.8   0.0     2   241    43   309    42   315 0.86 -
JF3J_TRINITY_DN69722_c1_g1_i1.p1JF3J_TRINITY_DN69722_c1_g1   -            347 139014at3193         -            252   1.6e-59  203.3   0.0   1   1   2.4e-61   1.8e-58  199.9   0.0     2   240    32   305    31   312 0.85 -
JF1A_TRINITY_DN46494_c0_g1_i2.p1JF1A_TRINITY_DN46494_c0_g1   -            213 139014at3193         -            252   4.3e-59  201.9   0.0   1   1   7.3e-62   5.5e-59  201.6   0.0    72   252     1   212     1   212 0.88 -
JF1J_TRINITY_DN71420_c1_g1_i7.p1JF1J_TRINITY_DN71420_c1_g1   -            287 139014at3193         -            252   1.1e-57  197.3   0.7   1   1   2.1e-60   1.6e-57  196.8   0.7    32   250    12   266     3   268 0.87 -
JF1A_TRINITY_DN26821_c0_g1_i1.p1JF1A_TRINITY_DN26821_c0_g1   -            166 139014at3193         -            252   1.1e-54  187.5   1.0   1   1   1.8e-57   1.3e-54  187.2   1.0     2   130    33   164    32   166 0.94 -
JF3J_TRINITY_DN62585_c1_g2_i6.p1JF3J_TRINITY_DN62585_c1_g2   -            203 139014at3193         -            252   1.4e-49  170.8   0.2   1   1   2.3e-52   1.7e-49  170.5   0.2     2   169    10   183     9   193 0.87 -
JF3A_TRINITY_DN43261_c0_g1_i1.p1JF3A_TRINITY_DN43261_c0_g1   -            125 139014at3193         -            252   1.4e-47  164.2   0.4   1   1   2.3e-50   1.7e-47  163.9   0.4    22   117    26   123    18   125 0.95 -
JF1A_TRINITY_DN66098_c1_g1_i3.p1JF1A_TRINITY_DN66098_c1_g1   -            391 139014at3193         -            252   4.8e-46  159.2   0.2   1   1   1.3e-47   9.6e-45  154.9   0.2     2   249    93   378    92   381 0.81 -
JF1A_TRINITY_DN66985_c1_g4_i1.p1JF1A_TRINITY_DN66985_c1_g4   -            238 139014at3193         -            252   2.3e-45  156.9   0.2   1   1     4e-48     3e-45  156.6   0.2     2   155    62   222    61   233 0.91 -
JF2A_TRINITY_DN42160_c0_g10_i2.p1JF2A_TRINITY_DN42160_c0_g10 -            157 139014at3193         -            252   3.3e-42  146.6   1.4   1   2   1.8e-12   1.3e-09   39.8   0.1   129   191     1    69     1    84 0.71 -
JF2A_TRINITY_DN42160_c0_g10_i2.p1JF2A_TRINITY_DN42160_c0_g10 -            157 139014at3193         -            252   3.3e-42  146.6   1.4   2   2   6.4e-33   4.8e-30  106.8   0.2     1    72    83   157    83   157 0.94 -
JF1A_TRINITY_DN63515_c0_g5_i1.p1JF1A_TRINITY_DN63515_c0_g5   -            105 139014at3193         -            252   1.3e-41  144.6   1.0   1   1   1.9e-44   1.4e-41  144.5   1.0    12   112     2   105     1   105 0.95 -
JF3A_TRINITY_DN51050_c6_g1_i2.p1JF3A_TRINITY_DN51050_c6_g1   -            141 139014at3193         -            252   7.4e-38  132.4   0.2   1   1   1.2e-40   9.1e-38  132.1   0.2     2    88     6    95     5   104 0.93 -
JF1A_TRINITY_DN68370_c3_g2_i1.p1JF1A_TRINITY_DN68370_c3_g2   -            214 139014at3193         -            252   3.2e-36  127.0   0.0   1   1   9.7e-39   7.2e-36  125.8   0.0    76   252     1   213     1   213 0.85 -
JF1J_TRINITY_DN37374_c0_g1_i1.p1JF1J_TRINITY_DN37374_c0_g1   -            111 139014at3193         -            252   1.5e-35  124.8   0.0   1   1   2.4e-38   1.8e-35  124.5   0.0    66   170     1   107     1   110 0.95 -
JF3J_TRINITY_DN65531_c1_g1_i3.p1JF3J_TRINITY_DN65531_c1_g1   -            170 139014at3193         -            252   1.6e-35  124.7   0.1   1   2    0.0013      0.96   10.8   0.0    39    70     1    35     1    43 0.79 -
JF3J_TRINITY_DN65531_c1_g1_i3.p1JF3J_TRINITY_DN65531_c1_g1   -            170 139014at3193         -            252   1.6e-35  124.7   0.1   2   2   1.3e-34     1e-31  112.3   0.0     2   111    57   170    56   170 0.92 -
JF3A_TRINITY_DN55184_c0_g1_i12.p1JF3A_TRINITY_DN55184_c0_g1  -            286 139014at3193         -            252   1.1e-34  121.9   0.0   1   1     2e-36   1.5e-33  118.2   0.0    73   252    67   285    58   285 0.80 -
JF1A_TRINITY_DN3335_c0_g1_i1.p1JF1A_TRINITY_DN3335_c0_g1     -            101 139014at3193         -            252   1.4e-34  121.6   0.0   1   1     2e-37   1.5e-34  121.5   0.0    19   114     4   100     1   101 0.92 -
JF1J_TRINITY_DN69098_c2_g7_i1.p1JF1J_TRINITY_DN69098_c2_g7   -            180 139014at3193         -            252   3.6e-34  120.3   0.1   1   1     6e-37   4.4e-34  120.0   0.1     2   118    43   161    42   170 0.88 -
JF1A_TRINITY_DN62890_c0_g2_i1.p1JF1A_TRINITY_DN62890_c0_g2   -            168 139014at3193         -            252   2.4e-31  111.0   0.9   1   1   4.1e-34   3.1e-31  110.7   0.9     2    97    71   168    70   168 0.91 -
JF1A_TRINITY_DN60379_c1_g1_i7.p1JF1A_TRINITY_DN60379_c1_g1   -            167 139014at3193         -            252   7.7e-30  106.1   0.0   1   1   1.9e-32   1.4e-29  105.2   0.0   120   252     2   166     1   166 0.82 -
JF3A_TRINITY_DN55184_c0_g1_i6.p1JF3A_TRINITY_DN55184_c0_g1   -            128 139014at3193         -            252   2.1e-29  104.6   0.0   1   1   3.4e-32   2.5e-29  104.4   0.0    68   168     4   106     2   122 0.92 -
JF1A_TRINITY_DN1630_c0_g1_i2.p1JF1A_TRINITY_DN1630_c0_g1     -            116 139014at3193         -            252   2.6e-27   97.8   0.0   1   1   3.5e-30   2.6e-27   97.8   0.0    19   122     6   109     1   116 0.86 -
JF3J_TRINITY_DN62585_c1_g2_i3.p1JF3J_TRINITY_DN62585_c1_g2   -            112 139014at3193         -            252   7.8e-27   96.2   2.5   1   2   4.8e-18   3.6e-15   58.0   0.1     2    70     3    74     2    77 0.82 -
JF3J_TRINITY_DN62585_c1_g2_i3.p1JF3J_TRINITY_DN62585_c1_g2   -            112 139014at3193         -            252   7.8e-27   96.2   2.5   2   2   3.4e-12   2.6e-09   38.8   0.4    18    47    80   109    71   111 0.87 -
JF2J_TRINITY_DN24516_c0_g1_i4.p2JF2J_TRINITY_DN24516_c0_g1   -            163 139014at3193         -            252   9.7e-27   95.9   0.0   1   1   1.6e-29   1.2e-26   95.6   0.0    31   147     3   120     1   122 0.93 -
JF1A_TRINITY_DN63515_c0_g3_i2.p1JF1A_TRINITY_DN63515_c0_g3   -            172 139014at3193         -            252   2.1e-24   88.3   0.1   1   1   6.2e-27   4.6e-24   87.1   0.1   148   251     1   135     1   136 0.82 -
JF2A_TRINITY_DN49767_c0_g1_i1.p1JF2A_TRINITY_DN49767_c0_g1   -            101 139014at3193         -            252   5.1e-22   80.5   0.0   1   1   7.8e-25   5.8e-22   80.3   0.0     2    79    18    96    17   100 0.90 -
JF1A_TRINITY_DN66470_c3_g5_i2.p1JF1A_TRINITY_DN66470_c3_g5   -            156 139014at3193         -            252   5.8e-22   80.3   0.6   1   1   1.5e-24   1.1e-21   79.4   0.6   147   250     2   135     1   137 0.82 -
JF3A_TRINITY_DN52532_c1_g1_i1.p1JF3A_TRINITY_DN52532_c1_g1   -            173 139014at3193         -            252   1.8e-21   78.7   1.2   1   1   4.5e-24   3.4e-21   77.8   0.9   136   250     6   152     1   154 0.78 -
JF2A_TRINITY_DN14682_c0_g1_i1.p1JF2A_TRINITY_DN14682_c0_g1   -            102 139014at3193         -            252   2.2e-21   78.4   0.1   1   1   3.5e-24   2.6e-21   78.1   0.1     1    66    37   102    37   102 0.94 -
JF1A_TRINITY_DN8636_c0_g1_i1.p1JF1A_TRINITY_DN8636_c0_g1     -            152 139014at3193         -            252   3.9e-21   77.5   0.8   1   1   1.1e-23     8e-21   76.5   0.8   125   242     4   147     1   151 0.82 -
JF3J_TRINITY_DN67065_c1_g1_i12.p1JF3J_TRINITY_DN67065_c1_g1  -            133 139014at3193         -            252   7.9e-21   76.6   0.0   1   1   1.1e-23   8.6e-21   76.4   0.0    41   154    14   130     2   132 0.88 -
JF1A_TRINITY_DN64333_c1_g3_i1.p1JF1A_TRINITY_DN64333_c1_g3   -            118 139014at3193         -            252   1.1e-20   76.2   0.2   1   1   1.6e-23   1.2e-20   75.9   0.2     2    89    29   118    28   118 0.89 -
JF1A_TRINITY_DN8636_c0_g1_i2.p1JF1A_TRINITY_DN8636_c0_g1     -            130 139014at3193         -            252   1.4e-20   75.8   0.1   1   1   2.7e-23     2e-20   75.2   0.1   125   225     4   127     1   129 0.81 -
JF1J_TRINITY_DN65081_c2_g1_i11.p1JF1J_TRINITY_DN65081_c2_g1  -            108 139014at3193         -            252   1.1e-19   72.8   0.2   1   1   2.6e-22     2e-19   72.0   0.2   133   214     5   104     2   107 0.83 -
JF1A_TRINITY_DN63515_c0_g1_i19.p1JF1A_TRINITY_DN63515_c0_g1  -            123 139014at3193         -            252   7.1e-18   66.9   0.1   1   2      0.18   1.3e+02    3.7   0.1   201   215     2    16     1    23 0.90 -
JF1A_TRINITY_DN63515_c0_g1_i19.p1JF1A_TRINITY_DN63515_c0_g1  -            123 139014at3193         -            252   7.1e-18   66.9   0.1   2   2   4.2e-19   3.2e-16   61.5   0.0   182   251    37   121    19   122 0.86 -
JF2A_TRINITY_DN48404_c0_g1_i1.p1JF2A_TRINITY_DN48404_c0_g1   -            141 139014at3193         -            252   6.2e-17   63.8   0.8   1   2   0.00044      0.33   12.3   0.2   150   170     2    22     1    29 0.87 -
JF2A_TRINITY_DN48404_c0_g1_i1.p1JF2A_TRINITY_DN48404_c0_g1   -            141 139014at3193         -            252   6.2e-17   63.8   0.8   2   2   9.8e-16   7.3e-13   50.5   0.0   184   252    57   140    36   140 0.88 -
JF1A_TRINITY_DN68370_c3_g3_i1.p1JF1A_TRINITY_DN68370_c3_g3   -            139 139014at3193         -            252   1.7e-16   62.3   0.3   1   1   2.7e-19     2e-16   62.1   0.3     2    84    53   139    52   139 0.89 -
JF1A_TRINITY_DN65450_c1_g2_i5.p1JF1A_TRINITY_DN65450_c1_g2   -            324 139014at3193         -            252   2.5e-16   61.8   0.0   1   2   1.2e-12   9.2e-10   40.3   0.0    70   162   112   198    50   205 0.76 -
JF1A_TRINITY_DN65450_c1_g2_i5.p1JF1A_TRINITY_DN65450_c1_g2   -            324 139014at3193         -            252   2.5e-16   61.8   0.0   2   2   3.1e-06    0.0023   19.3   0.0   189   242   210   275   207   278 0.82 -
JF3A_TRINITY_DN57888_c1_g1_i10.p1JF3A_TRINITY_DN57888_c1_g1  -            124 139014at3193         -            252   4.8e-16   60.9   3.3   1   1   7.2e-17   5.4e-14   54.2   3.3   129   215    10   122     6   123 0.80 -
JF2A_TRINITY_DN35589_c0_g1_i1.p1JF2A_TRINITY_DN35589_c0_g1   -            103 139014at3193         -            252   5.6e-16   60.7   0.1   1   1     1e-18   7.5e-16   60.3   0.1   183   252    12    96     9    96 0.83 -
JF1A_TRINITY_DN25237_c0_g1_i1.p1JF1A_TRINITY_DN25237_c0_g1   -            297 139014at3193         -            252   5.5e-15   57.4   0.1   1   2   3.7e-16   2.7e-13   51.9   0.0    20   160   100   238    82   243 0.85 -
JF1A_TRINITY_DN25237_c0_g1_i1.p1JF1A_TRINITY_DN25237_c0_g1   -            297 139014at3193         -            252   5.5e-15   57.4   0.1   2   2      0.18   1.4e+02    3.7   0.1   190   204   243   257   239   284 0.85 -
JF3A_TRINITY_DN60105_c0_g1_i1.p1JF3A_TRINITY_DN60105_c0_g1   -            109 139014at3193         -            252   5.9e-15   57.3   0.0   1   1   9.5e-18   7.1e-15   57.1   0.0   182   249    25   107     4   109 0.76 -
JF2A_TRINITY_DN41932_c0_g14_i1.p1JF2A_TRINITY_DN41932_c0_g14 -            120 139014at3193         -            252   7.5e-15   57.0   0.0   1   1   1.3e-17   9.7e-15   56.6   0.0   182   252    34   119    25   119 0.85 -
JF1J_TRINITY_DN65081_c2_g1_i5.p1JF1J_TRINITY_DN65081_c2_g1   -            102 139014at3193         -            252   1.6e-14   55.9   0.4   1   2   0.00089      0.66   11.3   0.1   223   242     9    28     2    29 0.83 -
JF1J_TRINITY_DN65081_c2_g1_i5.p1JF1J_TRINITY_DN65081_c2_g1   -            102 139014at3193         -            252   1.6e-14   55.9   0.4   2   2   7.8e-14   5.8e-11   44.2   0.0   194   251    28   100    26   101 0.84 -
JF1J_TRINITY_DN71420_c1_g1_i9.p1JF1J_TRINITY_DN71420_c1_g1   -            119 139014at3193         -            252     2e-14   55.6   0.0   1   1   3.3e-17   2.5e-14   55.3   0.0     2    52    46    97    45   109 0.89 -
JF1J_TRINITY_DN69909_c2_g1_i5.p1JF1J_TRINITY_DN69909_c2_g1   -            224 139014at3193         -            252   3.8e-14   54.7   0.0   1   2   1.2e-12   9.3e-10   40.3   0.0    82   162    39   117    15   124 0.87 -
JF1J_TRINITY_DN69909_c2_g1_i5.p1JF1J_TRINITY_DN69909_c2_g1   -            224 139014at3193         -            252   3.8e-14   54.7   0.0   2   2   0.00039      0.29   12.5   0.0   189   226   129   175   126   185 0.72 -
JF1J_TRINITY_DN71420_c1_g3_i4.p1JF1J_TRINITY_DN71420_c1_g3   -            102 139014at3193         -            252   4.4e-14   54.5   0.1   1   1   3.3e-16   2.4e-13   52.0   0.1   126   199     7   102     2   102 0.83 -
JF2J_TRINITY_DN25871_c0_g4_i1.p1JF2J_TRINITY_DN25871_c0_g4   -            108 139014at3193         -            252   5.6e-14   54.1   0.2   1   1   9.5e-17   7.1e-14   53.8   0.2   183   249     4    85     1    88 0.84 -
JF1A_TRINITY_DN61847_c0_g4_i10.p1JF1A_TRINITY_DN61847_c0_g4  -            106 139014at3193         -            252   7.6e-14   53.7   0.0   1   1   1.2e-16   9.2e-14   53.4   0.0     2    51    39    89    38   102 0.85 -
JF1A_TRINITY_DN57646_c0_g1_i1.p1JF1A_TRINITY_DN57646_c0_g1   -            165 139014at3193         -            252   8.3e-14   53.6   0.2   1   2   1.3e-06     0.001   20.5   0.0   133   170     3    44     1    53 0.82 -
JF1A_TRINITY_DN57646_c0_g1_i1.p1JF1A_TRINITY_DN57646_c0_g1   -            165 139014at3193         -            252   8.3e-14   53.6   0.2   2   2   6.4e-10   4.7e-07   31.4   0.1   181   252    77   164    54   164 0.82 -
JF1A_TRINITY_DN63844_c3_g1_i3.p1JF1A_TRINITY_DN63844_c3_g1   -            232 139014at3193         -            252     1e-13   53.3   0.0   1   2   1.5e-11   1.1e-08   36.8   0.0    76   162    84   168    67   175 0.85 -
JF1A_TRINITY_DN63844_c3_g1_i3.p1JF1A_TRINITY_DN63844_c3_g1   -            232 139014at3193         -            252     1e-13   53.3   0.0   2   2   9.4e-05      0.07   14.5   0.0   189   225   180   221   178   226 0.78 -
JF3A_TRINITY_DN50797_c2_g1_i1.p1JF3A_TRINITY_DN50797_c2_g1   -            153 139014at3193         -            252   3.8e-13   51.4   3.0   1   2   4.9e-08   3.7e-05   25.2   0.2   198   242     1    53     1    59 0.89 -
JF3A_TRINITY_DN50797_c2_g1_i1.p1JF3A_TRINITY_DN50797_c2_g1   -            153 139014at3193         -            252   3.8e-13   51.4   3.0   2   2   1.4e-08   1.1e-05   27.0   0.2   195   240   100   153    87   153 0.86 -
JF2A_TRINITY_DN40304_c0_g2_i2.p1JF2A_TRINITY_DN40304_c0_g2   -            113 139014at3193         -            252   1.2e-12   49.8   0.1   1   1   1.9e-15   1.4e-12   49.5   0.1     2    48    49    96    48   107 0.86 -
JF1A_TRINITY_DN40421_c0_g1_i2.p1JF1A_TRINITY_DN40421_c0_g1   -            115 139014at3193         -            252   1.7e-12   49.3   0.0   1   1   2.8e-15   2.1e-12   48.9   0.0   182   242    27    95     6   111 0.74 -
JF3J_TRINITY_DN71458_c0_g2_i8.p1JF3J_TRINITY_DN71458_c0_g2   -            252 139014at3193         -            252   3.1e-12   48.4   0.0   1   2   1.8e-08   1.3e-05   26.7   0.0    83   162    92   170    71   177 0.86 -
JF3J_TRINITY_DN71458_c0_g2_i8.p1JF3J_TRINITY_DN71458_c0_g2   -            252 139014at3193         -            252   3.1e-12   48.4   0.0   2   2   2.4e-06    0.0018   19.7   0.0   190   242   183   247   179   250 0.81 -
JF3A_TRINITY_DN56975_c0_g1_i8.p1JF3A_TRINITY_DN56975_c0_g1   -            256 139014at3193         -            252   1.1e-11   46.6   0.2   1   1     4e-13     3e-10   41.9   0.2   128   249    86   243    57   246 0.71 -
JF2J_TRINITY_DN22997_c0_g1_i3.p1JF2J_TRINITY_DN22997_c0_g1   -            257 139014at3193         -            252   2.8e-11   45.3   0.0   1   2   1.7e-07   0.00012   23.5   0.0    83   162    97   175    77   182 0.84 -
JF2J_TRINITY_DN22997_c0_g1_i3.p1JF2J_TRINITY_DN22997_c0_g1   -            257 139014at3193         -            252   2.8e-11   45.3   0.0   2   2   2.4e-06    0.0018   19.7   0.0   190   242   188   252   184   255 0.81 -
JF1A_TRINITY_DN67809_c0_g4_i2.p1JF1A_TRINITY_DN67809_c0_g4   -            143 139014at3193         -            252   4.5e-11   44.6   0.4   1   1   4.2e-13   3.1e-10   41.8   0.4   150   252     5   141     2   141 0.77 -
JF1J_TRINITY_DN69909_c2_g1_i3.p1JF1J_TRINITY_DN69909_c2_g1   -            144 139014at3193         -            252   2.4e-10   42.2   0.0   1   1   3.6e-13   2.7e-10   42.1   0.0    81   162    38   117    14   134 0.87 -
JF2A_TRINITY_DN42327_c0_g2_i4.p1JF2A_TRINITY_DN42327_c0_g2   -            141 139014at3193         -            252     1e-09   40.2   0.1   1   2   1.8e-05     0.013   16.8   0.0   135   162    30    59    24    66 0.82 -
JF2A_TRINITY_DN42327_c0_g2_i4.p1JF2A_TRINITY_DN42327_c0_g2   -            141 139014at3193         -            252     1e-09   40.2   0.1   2   2   6.9e-07   0.00052   21.5   0.0   190   242    72   136    68   139 0.81 -
JF1A_TRINITY_DN63844_c3_g1_i1.p1JF1A_TRINITY_DN63844_c3_g1   -            166 139014at3193         -            252     2e-09   39.2   0.0   1   2     1e-06   0.00077   20.9   0.0   126   162    56    94    48   101 0.87 -
JF1A_TRINITY_DN63844_c3_g1_i1.p1JF1A_TRINITY_DN63844_c3_g1   -            166 139014at3193         -            252     2e-09   39.2   0.0   2   2   2.4e-05     0.018   16.4   0.0   189   227   106   149   104   153 0.77 -
JF2A_TRINITY_DN3858_c0_g1_i2.p1JF2A_TRINITY_DN3858_c0_g1     -            101 139014at3193         -            252   2.9e-09   38.7   0.1   1   1   4.4e-12   3.3e-09   38.5   0.1   130   204     5    95     2   101 0.75 -
JF2J_TRINITY_DN28941_c0_g2_i1.p1JF2J_TRINITY_DN28941_c0_g2   -            102 139014at3193         -            252   3.8e-09   38.3   0.1   1   1   1.8e-09   1.3e-06   30.0   0.1   111   163     2    53     1    91 0.83 -
JF1J_TRINITY_DN62511_c0_g1_i1.p1JF1J_TRINITY_DN62511_c0_g1   -            127 139014at3193         -            252   1.3e-08   36.5   0.2   1   1   2.4e-11   1.8e-08   36.1   0.2   190   252    20    97    15    97 0.88 -
JF1A_TRINITY_DN61847_c0_g4_i7.p1JF1A_TRINITY_DN61847_c0_g4   -            109 139014at3193         -            252   1.7e-08   36.2   0.1   1   1   3.3e-11   2.5e-08   35.6   0.1   181   252    21   108     6   108 0.76 -
JF1A_TRINITY_DN66384_c0_g1_i9.p1JF1A_TRINITY_DN66384_c0_g1   -            328 139014at3193         -            252   1.9e-07   32.7   0.0   1   2   1.7e-08   1.2e-05   26.8   0.0    84   162   139   221   114   228 0.91 -
JF1A_TRINITY_DN66384_c0_g1_i9.p1JF1A_TRINITY_DN66384_c0_g1   -            328 139014at3193         -            252   1.9e-07   32.7   0.0   2   2      0.18   1.3e+02    3.7   0.0   193   242   253   314   243   320 0.77 -
JF3A_TRINITY_DN57806_c1_g1_i10.p1JF3A_TRINITY_DN57806_c1_g1  -            154 139014at3193         -            252   7.1e-07   30.8   0.0   1   1   1.3e-09   9.9e-07   30.4   0.0     2    39   101   139   100   144 0.91 -
JF3J_TRINITY_DN69722_c1_g1_i4.p1JF3J_TRINITY_DN69722_c1_g1   -            109 139014at3193         -            252     1e-06   30.3   0.0   1   1   1.7e-09   1.3e-06   30.0   0.0   185   252    26   108    15   108 0.78 -
JF2A_TRINITY_DN42160_c0_g5_i1.p1JF2A_TRINITY_DN42160_c0_g5   -            104 139014at3193         -            252   1.2e-06   30.0   0.0   1   1   2.2e-09   1.6e-06   29.7   0.0     2    39    47    85    46    91 0.89 -
JF3A_TRINITY_DN57888_c1_g1_i1.p2JF3A_TRINITY_DN57888_c1_g1   -            134 139014at3193         -            252   1.5e-06   29.8   0.0   1   1   2.4e-09   1.8e-06   29.5   0.0     2    48    52    99    51   116 0.79 -
JF3J_TRINITY_DN66701_c5_g1_i7.p1JF3J_TRINITY_DN66701_c5_g1   -            121 139014at3193         -            252   2.2e-06   29.2   0.1   1   1   4.6e-09   3.5e-06   28.6   0.1   142   192    32    82    17   106 0.64 -
JF1J_TRINITY_DN66983_c4_g3_i1.p1JF1J_TRINITY_DN66983_c4_g3   -            104 139014at3193         -            252   1.8e-05   26.2   0.0   1   2   9.9e-07   0.00074   21.0   0.0   141   172    16    47     2    58 0.80 -
JF1J_TRINITY_DN66983_c4_g3_i1.p1JF1J_TRINITY_DN66983_c4_g3   -            104 139014at3193         -            252   1.8e-05   26.2   0.0   2   2       0.2   1.5e+02    3.6   0.0   185   202    85   102    81   104 0.88 -
JF3A_TRINITY_DN57783_c0_g3_i4.p2JF3A_TRINITY_DN57783_c0_g3   -            124 139014at3193         -            252   7.1e-05   24.3   0.0   1   2    0.0015       1.1   10.6   0.0   148   162     1    15     1    25 0.89 -
JF3A_TRINITY_DN57783_c0_g3_i4.p2JF3A_TRINITY_DN57783_c0_g3   -            124 139014at3193         -            252   7.1e-05   24.3   0.0   2   2   0.00046      0.34   12.2   0.0    81   154    53   124    29   124 0.85 -
JF2A_TRINITY_DN41100_c0_g1_i7.p1JF2A_TRINITY_DN41100_c0_g1   -            165 139014at3193         -            252    0.0022   19.4   0.0   1   1   4.6e-06    0.0034   18.8   0.0   126   162   109   147    99   152 0.85 -
JF1A_TRINITY_DN60802_c5_g1_i1.p1JF1A_TRINITY_DN60802_c5_g1   -            109 139014at3193         -            252     0.012   17.0   0.0   1   1     2e-05     0.015   16.7   0.0     2    47    43    89    42    94 0.79 -
JF3J_TRINITY_DN60022_c0_g1_i1.p1JF3J_TRINITY_DN60022_c0_g1   -            101 139014at3193         -            252       0.3   12.4   0.1   1   1   0.00044      0.33   12.3   0.1    25    48    25    51    13    74 0.72 -
JF1A_TRINITY_DN68412_c1_g1_i11.p1JF1A_TRINITY_DN68412_c1_g1  -            300 139014at3193         -            252       0.4   12.0   0.0   1   1   0.00087      0.65   11.3   0.0    39   101    29    95    14   107 0.85 -
#
# Program:         hmmsearch
# Version:         3.2.1 (June 2018)
# Pipeline mode:   SEARCH
# Query file:      /isg/shared/databases/BUSCO/odb10/embryophyta_odb10/hmms/139014at3193.hmm
# Target file:     Juniper_final_annotations_no_contam_lvl0.faa
# Option settings: /usr/local/bin/hmmsearch --domtblout /labs/Wegrzyn/Juniper_Pine/BUSCO/NEW/busco_juniper/run_embryophyta_odb10/hmmer_output/139014at3193.out --cpu 1 /isg/shared/databases/BUSCO/odb10/embryophyta_odb10/hmms/139014at3193.hmm Juniper_final_annotations_no_contam_lvl0.faa 
# Current dir:     /labs/Wegrzyn/Juniper_Pine/BUSCO/NEW
# Date:            Thu Aug  6 16:07:54 2020
# [ok]
