#                                                                                                                  --- full sequence --- -------------- this domain -------------   hmm coord   ali coord   env coord
# target name                                              accession   tlen query name           accession   qlen   E-value  score  bias   #  of  c-Evalue  i-Evalue  score  bias  from    to  from    to  from    to  acc description of target
#                                      ------------------- ---------- ----- -------------------- ---------- ----- --------- ------ ----- --- --- --------- --------- ------ ----- ----- ----- ----- ----- ----- ----- ---- ---------------------
JF1A_TRINITY_DN61712_c2_g2_i2.p1JF1A_TRINITY_DN61712_c2_g2 -            262 140146at3193         -            233  7.8e-117  390.8   9.0   1   1    4e-121  9.2e-117  390.6   9.0     2   233    11   246    10   246 0.99 -
JF2A_TRINITY_DN35247_c0_g1_i2.p1JF2A_TRINITY_DN35247_c0_g1 -            222 140146at3193         -            233  9.8e-114  380.7   6.4   1   1  4.9e-118  1.1e-113  380.5   6.4     1   199    20   222    20   222 0.99 -
JF3A_TRINITY_DN34259_c0_g1_i1.p1JF3A_TRINITY_DN34259_c0_g1 -            142 140146at3193         -            233     0.088   14.4   0.0   1   1   5.2e-06      0.12   13.9   0.0    10    46    31    67    26    69 0.92 -
#
# Program:         hmmsearch
# Version:         3.2.1 (June 2018)
# Pipeline mode:   SEARCH
# Query file:      /isg/shared/databases/BUSCO/odb10/embryophyta_odb10/hmms/140146at3193.hmm
# Target file:     Juniper_final_annotations_no_contam_lvl0.faa
# Option settings: /usr/local/bin/hmmsearch --domtblout /labs/Wegrzyn/Juniper_Pine/BUSCO/NEW/busco_juniper/run_embryophyta_odb10/hmmer_output/140146at3193.out --cpu 1 /isg/shared/databases/BUSCO/odb10/embryophyta_odb10/hmms/140146at3193.hmm Juniper_final_annotations_no_contam_lvl0.faa 
# Current dir:     /labs/Wegrzyn/Juniper_Pine/BUSCO/NEW
# Date:            Thu Aug  6 16:08:13 2020
# [ok]
