#                                                                                                                  --- full sequence --- -------------- this domain -------------   hmm coord   ali coord   env coord
# target name                                              accession   tlen query name           accession   qlen   E-value  score  bias   #  of  c-Evalue  i-Evalue  score  bias  from    to  from    to  from    to  acc description of target
#                                      ------------------- ---------- ----- -------------------- ---------- ----- --------- ------ ----- --- --- --------- --------- ------ ----- ----- ----- ----- ----- ----- ----- ---- ---------------------
JF1A_TRINITY_DN60519_c3_g3_i5.p1JF1A_TRINITY_DN60519_c3_g3 -            331 141611at3193         -            192   1.8e-74  251.4   1.6   1   1   1.5e-78   2.6e-74  250.9   1.6    11   190   131   318   125   320 0.94 -
JF2A_TRINITY_DN39540_c0_g1_i1.p1JF2A_TRINITY_DN39540_c0_g1 -            201 141611at3193         -            192     0.067   14.7   1.1   1   2      0.17   2.9e+03   -0.4   0.0   118   139    82   103    80   104 0.77 -
JF2A_TRINITY_DN39540_c0_g1_i1.p1JF2A_TRINITY_DN39540_c0_g1 -            201 141611at3193         -            192     0.067   14.7   1.1   2   2     8e-06      0.14   13.7   0.7   103   173   101   175    89   190 0.77 -
JF1A_TRINITY_DN65498_c3_g2_i1.p1JF1A_TRINITY_DN65498_c3_g2 -            257 141611at3193         -            192      0.15   13.6   1.1   1   1   2.2e-05      0.37   12.3   1.0   106   184   101   199    90   204 0.69 -
JF1J_TRINITY_DN67117_c3_g1_i1.p1JF1J_TRINITY_DN67117_c3_g1 -            211 141611at3193         -            192      0.72   11.4   0.3   1   2     0.014   2.4e+02    3.1   0.0    71   102    19    50    16    64 0.82 -
JF1J_TRINITY_DN67117_c3_g1_i1.p1JF1J_TRINITY_DN67117_c3_g1 -            211 141611at3193         -            192      0.72   11.4   0.3   2   2    0.0015        26    6.3   0.0    70   102   125   157   110   171 0.81 -
#
# Program:         hmmsearch
# Version:         3.2.1 (June 2018)
# Pipeline mode:   SEARCH
# Query file:      /isg/shared/databases/BUSCO/odb10/embryophyta_odb10/hmms/141611at3193.hmm
# Target file:     Juniper_final_annotations_no_contam_lvl0.faa
# Option settings: /usr/local/bin/hmmsearch --domtblout /labs/Wegrzyn/Juniper_Pine/BUSCO/NEW/busco_juniper/run_embryophyta_odb10/hmmer_output/141611at3193.out --cpu 1 /isg/shared/databases/BUSCO/odb10/embryophyta_odb10/hmms/141611at3193.hmm Juniper_final_annotations_no_contam_lvl0.faa 
# Current dir:     /labs/Wegrzyn/Juniper_Pine/BUSCO/NEW
# Date:            Thu Aug  6 16:08:31 2020
# [ok]
