#                                                                                                                  --- full sequence --- -------------- this domain -------------   hmm coord   ali coord   env coord
# target name                                              accession   tlen query name           accession   qlen   E-value  score  bias   #  of  c-Evalue  i-Evalue  score  bias  from    to  from    to  from    to  acc description of target
#                                      ------------------- ---------- ----- -------------------- ---------- ----- --------- ------ ----- --- --- --------- --------- ------ ----- ----- ----- ----- ----- ----- ----- ---- ---------------------
JF1J_TRINITY_DN66901_c1_g4_i1.p1JF1J_TRINITY_DN66901_c1_g4 -            201 141872at3193         -            264      0.12   14.1   0.1   1   2      0.23   7.9e+03   -1.7   0.0    75   109    35    69    24    89 0.71 -
JF1J_TRINITY_DN66901_c1_g4_i1.p1JF1J_TRINITY_DN66901_c1_g4 -            201 141872at3193         -            264      0.12   14.1   0.1   2   2   1.1e-05      0.37   12.5   0.0   189   235   136   183   115   194 0.82 -
JF2A_TRINITY_DN41401_c4_g2_i5.p1JF2A_TRINITY_DN41401_c4_g2 -            134 141872at3193         -            264      0.37   12.5   0.1   1   1   1.3e-05      0.44   12.2   0.1    41   107    24    96    20   117 0.83 -
#
# Program:         hmmsearch
# Version:         3.2.1 (June 2018)
# Pipeline mode:   SEARCH
# Query file:      /isg/shared/databases/BUSCO/odb10/embryophyta_odb10/hmms/141872at3193.hmm
# Target file:     Juniper_final_annotations_no_contam_lvl0.faa
# Option settings: /usr/local/bin/hmmsearch --domtblout /labs/Wegrzyn/Juniper_Pine/BUSCO/NEW/busco_juniper/run_embryophyta_odb10/hmmer_output/141872at3193.out --cpu 1 /isg/shared/databases/BUSCO/odb10/embryophyta_odb10/hmms/141872at3193.hmm Juniper_final_annotations_no_contam_lvl0.faa 
# Current dir:     /labs/Wegrzyn/Juniper_Pine/BUSCO/NEW
# Date:            Thu Aug  6 16:08:35 2020
# [ok]
