#                                                                                                                  --- full sequence --- -------------- this domain -------------   hmm coord   ali coord   env coord
# target name                                              accession   tlen query name           accession   qlen   E-value  score  bias   #  of  c-Evalue  i-Evalue  score  bias  from    to  from    to  from    to  acc description of target
#                                      ------------------- ---------- ----- -------------------- ---------- ----- --------- ------ ----- --- --- --------- --------- ------ ----- ----- ----- ----- ----- ----- ----- ---- ---------------------
JF1A_TRINITY_DN68009_c1_g2_i2.p1JF1A_TRINITY_DN68009_c1_g2 -            289 145172at3193         -            224  4.7e-105  351.9   5.6   1   1  3.9e-109  1.4e-104  350.4   5.6     1   223    39   281    39   282 0.93 -
JF1A_TRINITY_DN68009_c1_g2_i5.p1JF1A_TRINITY_DN68009_c1_g2 -            111 145172at3193         -            224   8.1e-22   79.7   0.6   1   1   2.9e-26     1e-21   79.4   0.6     1    51    39    89    39    96 0.95 -
#
# Program:         hmmsearch
# Version:         3.2.1 (June 2018)
# Pipeline mode:   SEARCH
# Query file:      /isg/shared/databases/BUSCO/odb10/embryophyta_odb10/hmms/145172at3193.hmm
# Target file:     Juniper_final_annotations_no_contam_lvl0.faa
# Option settings: /usr/local/bin/hmmsearch --domtblout /labs/Wegrzyn/Juniper_Pine/BUSCO/NEW/busco_juniper/run_embryophyta_odb10/hmmer_output/145172at3193.out --cpu 1 /isg/shared/databases/BUSCO/odb10/embryophyta_odb10/hmms/145172at3193.hmm Juniper_final_annotations_no_contam_lvl0.faa 
# Current dir:     /labs/Wegrzyn/Juniper_Pine/BUSCO/NEW
# Date:            Thu Aug  6 16:08:50 2020
# [ok]
