#                                                                                                                  --- full sequence --- -------------- this domain -------------   hmm coord   ali coord   env coord
# target name                                              accession   tlen query name           accession   qlen   E-value  score  bias   #  of  c-Evalue  i-Evalue  score  bias  from    to  from    to  from    to  acc description of target
#                                      ------------------- ---------- ----- -------------------- ---------- ----- --------- ------ ----- --- --- --------- --------- ------ ----- ----- ----- ----- ----- ----- ----- ---- ---------------------
JF2A_TRINITY_DN32130_c0_g1_i2.p1JF2A_TRINITY_DN32130_c0_g1 -            198 145776at3193         -            226     1e-74  252.8   5.6   1   1   3.9e-78     9e-74  249.7   5.6    57   226     3   190     1   190 0.92 -
JF1J_TRINITY_DN57770_c0_g1_i1.p1JF1J_TRINITY_DN57770_c0_g1 -            101 145776at3193         -            226   4.8e-25   90.3   0.3   1   1   2.5e-29   5.8e-25   90.0   0.3     1    54    48   101    48   101 0.98 -
JF3A_TRINITY_DN54007_c3_g1_i2.p2JF3A_TRINITY_DN54007_c3_g1 -            125 145776at3193         -            226   3.8e-10   41.5   0.1   1   1   2.2e-14   5.1e-10   41.1   0.1     1    31    95   125    95   125 0.97 -
#
# Program:         hmmsearch
# Version:         3.2.1 (June 2018)
# Pipeline mode:   SEARCH
# Query file:      /isg/shared/databases/BUSCO/odb10/embryophyta_odb10/hmms/145776at3193.hmm
# Target file:     Juniper_final_annotations_no_contam_lvl0.faa
# Option settings: /usr/local/bin/hmmsearch --domtblout /labs/Wegrzyn/Juniper_Pine/BUSCO/NEW/busco_juniper/run_embryophyta_odb10/hmmer_output/145776at3193.out --cpu 1 /isg/shared/databases/BUSCO/odb10/embryophyta_odb10/hmms/145776at3193.hmm Juniper_final_annotations_no_contam_lvl0.faa 
# Current dir:     /labs/Wegrzyn/Juniper_Pine/BUSCO/NEW
# Date:            Thu Aug  6 16:08:52 2020
# [ok]
