#                                                                                                                   --- full sequence --- -------------- this domain -------------   hmm coord   ali coord   env coord
# target name                                               accession   tlen query name           accession   qlen   E-value  score  bias   #  of  c-Evalue  i-Evalue  score  bias  from    to  from    to  from    to  acc description of target
#                                       ------------------- ---------- ----- -------------------- ---------- ----- --------- ------ ----- --- --- --------- --------- ------ ----- ----- ----- ----- ----- ----- ----- ---- ---------------------
JF1A_TRINITY_DN60876_c2_g6_i1.p1JF1A_TRINITY_DN60876_c2_g6  -            281 147649at3193         -            272     8e-75  253.6  15.0   1   2   7.2e-32   6.3e-28   99.8   0.3    75   158    40   129    11   148 0.80 -
JF1A_TRINITY_DN60876_c2_g6_i1.p1JF1A_TRINITY_DN60876_c2_g6  -            281 147649at3193         -            272     8e-75  253.6  15.0   2   2   2.1e-49   1.8e-45  157.3   9.5   156   272   151   272   142   272 0.92 -
JF3A_TRINITY_DN44690_c0_g1_i11.p1JF3A_TRINITY_DN44690_c0_g1 -            164 147649at3193         -            272   2.4e-23   84.8   8.7   1   2   8.1e-25     7e-21   76.7   0.2   103   159    49   110    39   128 0.86 -
JF3A_TRINITY_DN44690_c0_g1_i11.p1JF3A_TRINITY_DN44690_c0_g1 -            164 147649at3193         -            272   2.4e-23   84.8   8.7   2   2   0.00011      0.97   10.7   4.1   156   185   131   161   128   163 0.89 -
JF3J_TRINITY_DN47939_c0_g1_i1.p1JF3J_TRINITY_DN47939_c0_g1  -            124 147649at3193         -            272   1.3e-21   79.1   1.5   1   3      0.13   1.1e+03    0.7   0.1   144   157     3    16     2    20 0.83 -
JF3J_TRINITY_DN47939_c0_g1_i1.p1JF3J_TRINITY_DN47939_c0_g1  -            124 147649at3193         -            272   1.3e-21   79.1   1.5   2   3   5.7e-25     5e-21   77.2   0.2   104   160    23    84    16   110 0.85 -
JF3J_TRINITY_DN47939_c0_g1_i1.p1JF3J_TRINITY_DN47939_c0_g1  -            124 147649at3193         -            272   1.3e-21   79.1   1.5   3   3       1.1   9.2e+03   -2.4   0.0   156   167   104   115   100   118 0.86 -
JF3A_TRINITY_DN44690_c0_g1_i8.p1JF3A_TRINITY_DN44690_c0_g1  -            133 147649at3193         -            272   2.5e-21   78.2   0.1   1   1   3.4e-25   2.9e-21   78.0   0.1   103   165    49   116    36   130 0.84 -
JF1J_TRINITY_DN70615_c0_g2_i5.p1JF1J_TRINITY_DN70615_c0_g2  -            211 147649at3193         -            272     0.014   16.7   0.3   1   1     2e-06     0.018   16.4   0.3    32   148    60   176    41   190 0.85 -
JF3J_TRINITY_DN69297_c1_g2_i3.p1JF3J_TRINITY_DN69297_c1_g2  -            109 147649at3193         -            272     0.025   15.9   0.1   1   1   3.4e-06     0.029   15.7   0.1    70   148     9    87     4   101 0.93 -
JF1J_TRINITY_DN70615_c0_g2_i2.p1JF1J_TRINITY_DN70615_c0_g2  -            322 147649at3193         -            272      0.12   13.7   0.2   1   1   2.3e-05       0.2   12.9   0.2    68   148   137   217   103   230 0.88 -
JF3J_TRINITY_DN66232_c2_g2_i4.p1JF3J_TRINITY_DN66232_c2_g2  -            101 147649at3193         -            272      0.15   13.3   0.0   1   1   2.2e-05      0.19   13.0   0.0   198   237    53    92    45    99 0.86 -
#
# Program:         hmmsearch
# Version:         3.2.1 (June 2018)
# Pipeline mode:   SEARCH
# Query file:      /isg/shared/databases/BUSCO/odb10/embryophyta_odb10/hmms/147649at3193.hmm
# Target file:     Juniper_final_annotations_no_contam_lvl0.faa
# Option settings: /usr/local/bin/hmmsearch --domtblout /labs/Wegrzyn/Juniper_Pine/BUSCO/NEW/busco_juniper/run_embryophyta_odb10/hmmer_output/147649at3193.out --cpu 1 /isg/shared/databases/BUSCO/odb10/embryophyta_odb10/hmms/147649at3193.hmm Juniper_final_annotations_no_contam_lvl0.faa 
# Current dir:     /labs/Wegrzyn/Juniper_Pine/BUSCO/NEW
# Date:            Thu Aug  6 16:09:05 2020
# [ok]
