#                                                                                                                  --- full sequence --- -------------- this domain -------------   hmm coord   ali coord   env coord
# target name                                              accession   tlen query name           accession   qlen   E-value  score  bias   #  of  c-Evalue  i-Evalue  score  bias  from    to  from    to  from    to  acc description of target
#                                      ------------------- ---------- ----- -------------------- ---------- ----- --------- ------ ----- --- --- --------- --------- ------ ----- ----- ----- ----- ----- ----- ----- ---- ---------------------
JF1A_TRINITY_DN6653_c0_g1_i1.p1JF1A_TRINITY_DN6653_c0_g1   -            110 150648at3193         -            196   2.6e-40  140.3   0.0   1   1   7.9e-44     3e-40  140.1   0.0    12    96    25   110    17   110 0.95 -
JF2A_TRINITY_DN27810_c0_g1_i1.p1JF2A_TRINITY_DN27810_c0_g1 -            153 150648at3193         -            196   1.2e-12   50.1   0.0   1   1   3.4e-16   1.3e-12   49.9   0.0    38   153    29   148     4   152 0.80 -
JF1A_TRINITY_DN12011_c0_g1_i1.p1JF1A_TRINITY_DN12011_c0_g1 -            167 150648at3193         -            196   2.7e-08   35.8   0.0   1   1   8.5e-12   3.3e-08   35.6   0.0    25   163    14   155     6   166 0.81 -
JF2A_TRINITY_DN27810_c0_g1_i2.p1JF2A_TRINITY_DN27810_c0_g1 -            135 150648at3193         -            196   1.6e-07   33.3   0.0   1   1   6.1e-11   2.3e-07   32.8   0.0    38   109    29   101     4   113 0.80 -
JF1A_TRINITY_DN67881_c1_g1_i1.p1JF1A_TRINITY_DN67881_c1_g1 -            312 150648at3193         -            196   2.1e-07   33.0   0.1   1   1   7.7e-11     3e-07   32.5   0.1    14   189    76   261    67   268 0.72 -
JF1A_TRINITY_DN64831_c0_g4_i4.p1JF1A_TRINITY_DN64831_c0_g4 -            492 150648at3193         -            196   3.6e-05   25.7   0.0   1   2   0.00061       2.3    9.9   0.0    57   138    50   131    42   161 0.76 -
JF1A_TRINITY_DN64831_c0_g4_i4.p1JF1A_TRINITY_DN64831_c0_g4 -            492 150648at3193         -            196   3.6e-05   25.7   0.0   2   2   5.2e-05       0.2   13.4   0.0    50   185   272   406   260   417 0.72 -
JF1A_TRINITY_DN76161_c0_g1_i1.p1JF1A_TRINITY_DN76161_c0_g1 -            102 150648at3193         -            196   0.00013   23.8   0.0   1   1   3.6e-08   0.00014   23.7   0.0    33    92    30    89     4   101 0.77 -
JF3A_TRINITY_DN50420_c0_g1_i1.p1JF3A_TRINITY_DN50420_c0_g1 -            130 150648at3193         -            196    0.0039   19.0   0.0   1   2   0.00059       2.3   10.0   0.0    10    55    26    71    20    78 0.85 -
JF3A_TRINITY_DN50420_c0_g1_i1.p1JF3A_TRINITY_DN50420_c0_g1 -            130 150648at3193         -            196    0.0039   19.0   0.0   2   2    0.0042        16    7.2   0.0    23    55    86   118    76   125 0.79 -
JF1A_TRINITY_DN53693_c0_g1_i1.p1JF1A_TRINITY_DN53693_c0_g1 -            201 150648at3193         -            196     0.029   16.2   0.0   1   1     1e-05     0.039   15.8   0.0    40   124    90   182    77   197 0.63 -
JF3J_TRINITY_DN22618_c0_g1_i1.p1JF3J_TRINITY_DN22618_c0_g1 -            141 150648at3193         -            196     0.035   15.9   0.1   1   2   0.00059       2.3   10.0   0.0    10    55    41    86    35    99 0.85 -
JF3J_TRINITY_DN22618_c0_g1_i1.p1JF3J_TRINITY_DN22618_c0_g1 -            141 150648at3193         -            196     0.035   15.9   0.1   2   2     0.039   1.5e+02    4.0   0.0    30    51   118   139   108   141 0.86 -
JF1A_TRINITY_DN58130_c0_g1_i1.p1JF1A_TRINITY_DN58130_c0_g1 -            255 150648at3193         -            196     0.049   15.4   0.0   1   1   5.2e-05       0.2   13.4   0.0    40   151    38   174    30   202 0.66 -
JF1A_TRINITY_DN44510_c0_g1_i1.p1JF1A_TRINITY_DN44510_c0_g1 -            122 150648at3193         -            196     0.091   14.5   0.0   1   1   2.5e-05     0.098   14.4   0.0    40   121    26   110     4   119 0.65 -
JF3A_TRINITY_DN4781_c0_g1_i1.p2JF3A_TRINITY_DN4781_c0_g1   -            110 150648at3193         -            196      0.13   14.0   0.0   1   1     4e-05      0.15   13.8   0.0    40   122    16   105     6   108 0.70 -
JF1J_TRINITY_DN49256_c0_g1_i1.p1JF1J_TRINITY_DN49256_c0_g1 -            119 150648at3193         -            196      0.14   13.9   0.0   1   1   4.4e-05      0.17   13.7   0.0    60   146    16   101     6   112 0.60 -
JF1A_TRINITY_DN64262_c0_g4_i1.p1JF1A_TRINITY_DN64262_c0_g4 -            185 150648at3193         -            196      0.19   13.5   0.0   1   1   8.8e-05      0.34   12.7   0.0    55   169    27   145     4   164 0.66 -
JF1J_TRINITY_DN67359_c1_g2_i7.p1JF1J_TRINITY_DN67359_c1_g2 -            204 150648at3193         -            196      0.21   13.3   0.0   1   1   6.9e-05      0.27   13.0   0.0    56   138    49   131    11   166 0.79 -
JF1J_TRINITY_DN56015_c0_g1_i2.p1JF1J_TRINITY_DN56015_c0_g1 -            126 150648at3193         -            196      0.31   12.8   0.0   1   2       3.1   1.2e+04   -2.1   0.0   169   192    59    82    56    88 0.81 -
JF1J_TRINITY_DN56015_c0_g1_i2.p1JF1J_TRINITY_DN56015_c0_g1 -            126 150648at3193         -            196      0.31   12.8   0.0   2   2    0.0002      0.78   11.5   0.0    49    76    90   117    83   121 0.86 -
JF1A_TRINITY_DN50409_c0_g1_i2.p1JF1A_TRINITY_DN50409_c0_g1 -            107 150648at3193         -            196      0.72   11.6   0.0   1   1   0.00022      0.83   11.4   0.0    51    79    36    65    25    99 0.76 -
#
# Program:         hmmsearch
# Version:         3.2.1 (June 2018)
# Pipeline mode:   SEARCH
# Query file:      /isg/shared/databases/BUSCO/odb10/embryophyta_odb10/hmms/150648at3193.hmm
# Target file:     Juniper_final_annotations_no_contam_lvl0.faa
# Option settings: /usr/local/bin/hmmsearch --domtblout /labs/Wegrzyn/Juniper_Pine/BUSCO/NEW/busco_juniper/run_embryophyta_odb10/hmmer_output/150648at3193.out --cpu 1 /isg/shared/databases/BUSCO/odb10/embryophyta_odb10/hmms/150648at3193.hmm Juniper_final_annotations_no_contam_lvl0.faa 
# Current dir:     /labs/Wegrzyn/Juniper_Pine/BUSCO/NEW
# Date:            Thu Aug  6 16:09:15 2020
# [ok]
