#                                                                                                                    --- full sequence --- -------------- this domain -------------   hmm coord   ali coord   env coord
# target name                                                accession   tlen query name           accession   qlen   E-value  score  bias   #  of  c-Evalue  i-Evalue  score  bias  from    to  from    to  from    to  acc description of target
#                                        ------------------- ---------- ----- -------------------- ---------- ----- --------- ------ ----- --- --- --------- --------- ------ ----- ----- ----- ----- ----- ----- ----- ---- ---------------------
JF1A_TRINITY_DN57951_c0_g1_i1.p1JF1A_TRINITY_DN57951_c0_g1   -            241 151650at3193         -            193   4.6e-61  207.6   5.5   1   1   1.9e-63     1e-60  206.4   5.5     2   183     6   218     5   225 0.83 -
JF1J_TRINITY_DN69772_c2_g1_i20.p1JF1J_TRINITY_DN69772_c2_g1  -            200 151650at3193         -            193   3.9e-09   38.2   1.1   1   1   9.4e-12   5.2e-09   37.8   1.1     2    55   101   155   100   187 0.85 -
JF1A_TRINITY_DN68672_c4_g7_i1.p1JF1A_TRINITY_DN68672_c4_g7   -            235 151650at3193         -            193     4e-09   38.1   1.0   1   1   1.1e-11   6.3e-09   37.5   1.0     2    55   133   187   132   223 0.85 -
JF1A_TRINITY_DN68672_c4_g10_i2.p1JF1A_TRINITY_DN68672_c4_g10 -            169 151650at3193         -            193   4.6e-08   34.7   0.0   1   1   1.1e-10   5.8e-08   34.4   0.0    95   185    64   158    27   162 0.78 -
JF2A_TRINITY_DN39217_c0_g1_i1.p1JF2A_TRINITY_DN39217_c0_g1   -            164 151650at3193         -            193   2.9e-07   32.1   2.7   1   1   7.1e-10   3.9e-07   31.7   2.7     1    63    48   115    48   140 0.78 -
JF2A_TRINITY_DN50975_c0_g1_i1.p1JF2A_TRINITY_DN50975_c0_g1   -            106 151650at3193         -            193   6.8e-07   30.9   1.3   1   1   1.4e-09   7.5e-07   30.7   1.3     2    44    21    63    20   101 0.81 -
JF2A_TRINITY_DN37923_c1_g1_i1.p1JF2A_TRINITY_DN37923_c1_g1   -            210 151650at3193         -            193   1.1e-06   30.2   2.8   1   1     3e-09   1.7e-06   29.6   2.8     2    49    39    86    38   102 0.81 -
JF2A_TRINITY_DN41149_c0_g1_i8.p1JF2A_TRINITY_DN41149_c0_g1   -            138 151650at3193         -            193   2.4e-06   29.1   7.4   1   1   5.4e-09     3e-06   28.8   7.4     2    42    30    68    29    97 0.88 -
JF1A_TRINITY_DN62025_c2_g7_i1.p1JF1A_TRINITY_DN62025_c2_g7   -            117 151650at3193         -            193   3.6e-06   28.5   6.1   1   1   8.7e-09   4.8e-06   28.1   6.1     2    49    30    75    29    89 0.82 -
JF1A_TRINITY_DN65297_c0_g3_i6.p1JF1A_TRINITY_DN65297_c0_g3   -            228 151650at3193         -            193   4.3e-06   28.3   7.1   1   1   1.3e-08   7.2e-06   27.5   7.1     2    41    61    98    60   115 0.87 -
JF3A_TRINITY_DN50622_c1_g2_i1.p2JF3A_TRINITY_DN50622_c1_g2   -            120 151650at3193         -            193   4.5e-06   28.2   5.1   1   1     1e-08   5.7e-06   27.9   5.1     2    44    38    81    37    92 0.91 -
JF1A_TRINITY_DN62765_c1_g1_i4.p1JF1A_TRINITY_DN62765_c1_g1   -            215 151650at3193         -            193   5.1e-06   28.0   2.9   1   1   1.3e-08     7e-06   27.6   2.9     2    44   106   149   105   161 0.90 -
JF3A_TRINITY_DN50622_c1_g2_i4.p1JF3A_TRINITY_DN50622_c1_g2   -            129 151650at3193         -            193   5.2e-06   28.0   5.1   1   1   1.2e-08   6.7e-06   27.6   5.1     2    44    47    90    46   101 0.91 -
JF1A_TRINITY_DN59371_c1_g1_i1.p1JF1A_TRINITY_DN59371_c1_g1   -            277 151650at3193         -            193     2e-05   26.1   5.1   1   1   4.9e-08   2.7e-05   25.7   5.1     2    44   211   254   210   265 0.91 -
JF1A_TRINITY_DN65297_c0_g4_i1.p1JF1A_TRINITY_DN65297_c0_g4   -            330 151650at3193         -            193   3.9e-05   25.1   8.0   1   1   7.1e-08   3.9e-05   25.1   8.0     2    41    59    96    58   103 0.87 -
JF1J_TRINITY_DN63276_c0_g1_i4.p1JF1J_TRINITY_DN63276_c0_g1   -            182 151650at3193         -            193   8.3e-05   24.1   3.9   1   1   2.6e-07   0.00014   23.3   3.9     2    43    33    75    32    89 0.88 -
JF1A_TRINITY_DN64771_c0_g2_i1.p1JF1A_TRINITY_DN64771_c0_g2   -            213 151650at3193         -            193   8.7e-05   24.0   1.9   1   1   2.4e-07   0.00013   23.4   1.9     2    44    26    69    25    78 0.90 -
JF3J_TRINITY_DN56061_c0_g1_i1.p1JF3J_TRINITY_DN56061_c0_g1   -            141 151650at3193         -            193   0.00013   23.4  11.8   1   2    0.0053       2.9    9.2   0.9     2    28    32    58    31    67 0.90 -
JF3J_TRINITY_DN56061_c0_g1_i1.p1JF3J_TRINITY_DN56061_c0_g1   -            141 151650at3193         -            193   0.00013   23.4  11.8   2   2     5e-06    0.0027   19.1   4.2     2    43    79   118    78   126 0.92 -
JF1A_TRINITY_DN61294_c0_g1_i6.p1JF1A_TRINITY_DN61294_c0_g1   -            231 151650at3193         -            193   0.00015   23.2   3.9   1   1   3.9e-07   0.00022   22.7   3.9     2    43    33    75    32    89 0.88 -
JF1A_TRINITY_DN65132_c1_g2_i1.p1JF1A_TRINITY_DN65132_c1_g2   -            252 151650at3193         -            193   0.00024   22.5   0.6   1   1   5.7e-07   0.00031   22.2   0.6     2    44    53    96    52   165 0.86 -
JF1J_TRINITY_DN74786_c0_g1_i1.p1JF1J_TRINITY_DN74786_c0_g1   -            112 151650at3193         -            193   0.00031   22.2   1.1   1   1   6.4e-07   0.00035   22.0   1.1     2    44    15    59    14    81 0.81 -
JF3J_TRINITY_DN68982_c3_g3_i2.p1JF3J_TRINITY_DN68982_c3_g3   -            308 151650at3193         -            193   0.00035   22.0   5.6   1   2       3.4   1.9e+03    0.1   0.1    52    97    45    91    37   119 0.69 -
JF3J_TRINITY_DN68982_c3_g3_i2.p1JF3J_TRINITY_DN68982_c3_g3   -            308 151650at3193         -            193   0.00035   22.0   5.6   2   2   6.4e-07   0.00035   22.0   5.6     2    42   266   307   265   308 0.93 -
JF1A_TRINITY_DN59781_c0_g1_i2.p1JF1A_TRINITY_DN59781_c0_g1   -            145 151650at3193         -            193   0.00039   21.9   1.4   1   1   9.1e-07    0.0005   21.5   1.4     2    49    22    71    21    80 0.79 -
JF1A_TRINITY_DN62629_c1_g4_i1.p1JF1A_TRINITY_DN62629_c1_g4   -            166 151650at3193         -            193   0.00041   21.8   7.8   1   1     1e-06   0.00056   21.4   7.8     2    44   111   151   110   163 0.90 -
JF3J_TRINITY_DN59790_c0_g1_i4.p1JF3J_TRINITY_DN59790_c0_g1   -            185 151650at3193         -            193   0.00045   21.7   4.8   1   1   8.1e-07   0.00045   21.7   4.8     2    44   139   180   138   183 0.91 -
JF3J_TRINITY_DN68666_c2_g3_i3.p1JF3J_TRINITY_DN68666_c2_g3   -            267 151650at3193         -            193   0.00059   21.3  15.7   1   2   0.00026      0.14   13.5   4.0     2    44    10    54     9    58 0.83 -
JF3J_TRINITY_DN68666_c2_g3_i3.p1JF3J_TRINITY_DN68666_c2_g3   -            267 151650at3193         -            193   0.00059   21.3  15.7   2   2   0.00026      0.14   13.5   4.0     2    44    97   141    96   145 0.83 -
JF1A_TRINITY_DN63173_c4_g1_i3.p1JF1A_TRINITY_DN63173_c4_g1   -            167 151650at3193         -            193   0.00069   21.1   6.9   1   1   1.9e-06    0.0011   20.5   6.9     1    44   114   155   114   164 0.90 -
JF2A_TRINITY_DN18731_c0_g1_i1.p1JF2A_TRINITY_DN18731_c0_g1   -            168 151650at3193         -            193   0.00071   21.0   6.0   1   1   3.4e-06    0.0019   19.6   6.4     1    43   120   160   120   166 0.92 -
JF1J_TRINITY_DN68342_c1_g1_i1.p1JF1J_TRINITY_DN68342_c1_g1   -            101 151650at3193         -            193   0.00071   21.0   4.1   1   1   1.6e-06    0.0009   20.7   4.1     1    41    36    77    36    83 0.86 -
JF3J_TRINITY_DN57779_c0_g1_i1.p1JF3J_TRINITY_DN57779_c0_g1   -            102 151650at3193         -            193   0.00072   21.0   4.1   1   1   1.7e-06   0.00092   20.7   4.1     1    41    36    77    36    83 0.86 -
JF1A_TRINITY_DN64675_c0_g3_i7.p1JF1A_TRINITY_DN64675_c0_g3   -            253 151650at3193         -            193   0.00075   20.9   1.1   1   1   2.2e-06    0.0012   20.3   1.1     1    44   190   234   190   245 0.88 -
JF1A_TRINITY_DN64776_c1_g1_i5.p1JF1A_TRINITY_DN64776_c1_g1   -            265 151650at3193         -            193   0.00076   20.9   6.2   1   1   1.4e-06   0.00076   20.9   6.2     2    74    73   153    72   210 0.66 -
JF1A_TRINITY_DN62939_c2_g6_i1.p1JF1A_TRINITY_DN62939_c2_g6   -            681 151650at3193         -            193   0.00077   20.9   4.1   1   1   3.1e-06    0.0017   19.8   4.1     2    44   584   625   583   630 0.91 -
JF1A_TRINITY_DN64898_c3_g1_i3.p1JF1A_TRINITY_DN64898_c3_g1   -            187 151650at3193         -            193   0.00082   20.8   0.7   1   1   2.1e-06    0.0012   20.3   0.7     2    55   106   161   105   175 0.75 -
JF2A_TRINITY_DN9852_c0_g1_i1.p1JF2A_TRINITY_DN9852_c0_g1     -            215 151650at3193         -            193   0.00082   20.8   5.4   1   1   2.4e-06    0.0013   20.2   5.4     2    44    20    65    19    86 0.78 -
JF1J_TRINITY_DN70263_c1_g1_i2.p1JF1J_TRINITY_DN70263_c1_g1   -            124 151650at3193         -            193   0.00098   20.6   1.4   1   1   2.1e-06    0.0012   20.3   1.4     2    41     4    42     3    66 0.89 -
JF1A_TRINITY_DN68442_c1_g3_i1.p1JF1A_TRINITY_DN68442_c1_g3   -            108 151650at3193         -            193    0.0011   20.4   4.3   1   1   2.9e-06    0.0016   19.9   4.3     2    43    46    85    45    95 0.92 -
JF2A_TRINITY_DN38322_c0_g1_i5.p1JF2A_TRINITY_DN38322_c0_g1   -            205 151650at3193         -            193    0.0012   20.3   3.2   1   1   3.6e-06     0.002   19.6   3.2     2    44   143   187   142   191 0.82 -
JF1A_TRINITY_DN62448_c3_g2_i2.p1JF1A_TRINITY_DN62448_c3_g2   -            258 151650at3193         -            193    0.0014   20.0   0.7   1   1   3.4e-06    0.0019   19.7   0.7     2    49   108   157   107   196 0.78 -
JF1A_TRINITY_DN63132_c2_g2_i2.p1JF1A_TRINITY_DN63132_c2_g2   -            146 151650at3193         -            193    0.0021   19.5   4.3   1   1   5.2e-06    0.0028   19.1   4.3     2    43    92   136    91   140 0.84 -
JF3J_TRINITY_DN69427_c3_g1_i2.p1JF3J_TRINITY_DN69427_c3_g1   -            191 151650at3193         -            193    0.0027   19.1   2.5   1   1   7.7e-06    0.0042   18.5   2.5     2    43    60   103    59   106 0.86 -
JF1A_TRINITY_DN66465_c2_g1_i4.p1JF1A_TRINITY_DN66465_c2_g1   -            223 151650at3193         -            193    0.0027   19.1   3.2   1   1     7e-06    0.0038   18.6   3.2     2    44   149   192   148   218 0.90 -
JF2A_TRINITY_DN42298_c1_g6_i1.p1JF2A_TRINITY_DN42298_c1_g6   -            158 151650at3193         -            193    0.0037   18.7   4.4   1   1     1e-05    0.0058   18.1   4.4     2    43    96   135    95   145 0.92 -
JF2A_TRINITY_DN42250_c3_g3_i1.p1JF2A_TRINITY_DN42250_c3_g3   -            164 151650at3193         -            193    0.0048   18.3   0.8   1   1   1.2e-05    0.0067   17.8   0.8     2    43    63   102    62   138 0.90 -
JF1A_TRINITY_DN60825_c0_g1_i3.p1JF1A_TRINITY_DN60825_c0_g1   -            205 151650at3193         -            193    0.0049   18.3   2.4   1   1   1.3e-05    0.0069   17.8   2.4     2    30   175   203   174   205 0.92 -
JF1J_TRINITY_DN67327_c1_g1_i1.p1JF1J_TRINITY_DN67327_c1_g1   -            186 151650at3193         -            193    0.0049   18.3   3.4   1   1   1.5e-05    0.0081   17.6   3.4     2    44   115   159   114   167 0.83 -
JF1A_TRINITY_DN68146_c3_g1_i20.p1JF1A_TRINITY_DN68146_c3_g1  -            102 151650at3193         -            193     0.005   18.3   2.6   1   1   1.4e-05    0.0079   17.6   2.6     2    44    52    96    51    99 0.84 -
JF3J_TRINITY_DN63178_c5_g4_i2.p1JF3J_TRINITY_DN63178_c5_g4   -            107 151650at3193         -            193    0.0057   18.1   1.8   1   1   1.4e-05    0.0079   17.6   1.8     2    43    22    61    21    71 0.90 -
JF2A_TRINITY_DN42807_c1_g3_i1.p1JF2A_TRINITY_DN42807_c1_g3   -            251 151650at3193         -            193    0.0067   17.8   2.5   1   1   1.9e-05     0.011   17.2   2.5     2    44   180   223   179   236 0.84 -
JF1A_TRINITY_DN64693_c1_g8_i1.p1JF1A_TRINITY_DN64693_c1_g8   -            101 151650at3193         -            193    0.0083   17.5   2.9   1   1   1.9e-05     0.011   17.2   2.9     2    44    47    91    46    96 0.81 -
JF1A_TRINITY_DN63333_c2_g2_i10.p1JF1A_TRINITY_DN63333_c2_g2  -            273 151650at3193         -            193    0.0091   17.4   3.4   1   1   2.8e-05     0.015   16.7   3.4     2    44    94   138    93   146 0.83 -
JF1A_TRINITY_DN63713_c1_g1_i1.p1JF1A_TRINITY_DN63713_c1_g1   -            406 151650at3193         -            193    0.0094   17.4   2.2   1   1   2.6e-05     0.014   16.8   2.2     2    42   247   288   246   298 0.80 -
JF3J_TRINITY_DN63178_c5_g2_i1.p1JF3J_TRINITY_DN63178_c5_g2   -            116 151650at3193         -            193    0.0098   17.3   3.9   1   1   2.3e-05     0.013   16.9   3.9     2    43    15    54    14    68 0.91 -
JF1J_TRINITY_DN61802_c0_g1_i3.p1JF1J_TRINITY_DN61802_c0_g1   -            133 151650at3193         -            193     0.014   16.8   3.9   1   1   3.4e-05     0.018   16.4   3.9     2    43    32    71    31    84 0.91 -
JF1A_TRINITY_DN67609_c2_g6_i2.p1JF1A_TRINITY_DN67609_c2_g6   -            188 151650at3193         -            193     0.014   16.8   2.6   1   2   4.2e-05     0.023   16.1   0.8     9    44     5    38     2    47 0.85 -
JF1A_TRINITY_DN67609_c2_g6_i2.p1JF1A_TRINITY_DN67609_c2_g6   -            188 151650at3193         -            193     0.014   16.8   2.6   2   2       5.3   2.9e+03   -0.5   0.0   123   142    64    83    61    97 0.74 -
JF1A_TRINITY_DN64672_c0_g1_i10.p1JF1A_TRINITY_DN64672_c0_g1  -            199 151650at3193         -            193     0.015   16.7   1.0   1   1     4e-05     0.022   16.2   1.0     2    42    51    91    50   105 0.94 -
JF1A_TRINITY_DN64189_c1_g2_i5.p1JF1A_TRINITY_DN64189_c1_g2   -            238 151650at3193         -            193     0.018   16.5   3.4   1   1   4.8e-05     0.026   15.9   3.4     2    44   113   156   112   164 0.83 -
JF1J_TRINITY_DN62358_c0_g1_i1.p1JF1J_TRINITY_DN62358_c0_g1   -            140 151650at3193         -            193     0.018   16.4   4.0   1   2       2.7   1.5e+03    0.4   0.1     2    12    28    38    27    42 0.87 -
JF1J_TRINITY_DN62358_c0_g1_i1.p1JF1J_TRINITY_DN62358_c0_g1   -            140 151650at3193         -            193     0.018   16.4   4.0   2   2   3.3e-05     0.018   16.4   4.0     2    41    99   140    98   140 0.84 -
JF3A_TRINITY_DN57347_c1_g1_i1.p1JF3A_TRINITY_DN57347_c1_g1   -            104 151650at3193         -            193      0.02   16.3   3.6   1   1   4.6e-05     0.025   16.0   3.6     2    46    48    94    47    99 0.83 -
JF1A_TRINITY_DN60577_c4_g5_i1.p1JF1A_TRINITY_DN60577_c4_g5   -            402 151650at3193         -            193      0.02   16.3   4.6   1   1   3.7e-05      0.02   16.3   4.6     1    30   287   317   287   349 0.77 -
JF1A_TRINITY_DN67505_c3_g7_i2.p1JF1A_TRINITY_DN67505_c3_g7   -            101 151650at3193         -            193     0.022   16.1   2.4   1   1   5.5e-05     0.031   15.7   2.4     1    47    53   101    53   101 0.80 -
JF1A_TRINITY_DN62783_c6_g2_i1.p1JF1A_TRINITY_DN62783_c6_g2   -            191 151650at3193         -            193     0.023   16.1   1.5   1   1   7.9e-05     0.043   15.2   1.5     2    44    92   136    91   143 0.82 -
JF3J_TRINITY_DN10130_c0_g1_i1.p1JF3J_TRINITY_DN10130_c0_g1   -            119 151650at3193         -            193     0.024   16.0   1.3   1   1   4.9e-05     0.027   15.9   1.3     2    47    40    89    39   110 0.76 -
JF1A_TRINITY_DN62396_c0_g3_i1.p1JF1A_TRINITY_DN62396_c0_g3   -            140 151650at3193         -            193     0.026   15.9   2.6   1   1     8e-05     0.044   15.2   2.6     1    43    82   127    82   132 0.86 -
JF2A_TRINITY_DN44142_c0_g1_i1.p1JF2A_TRINITY_DN44142_c0_g1   -            149 151650at3193         -            193     0.027   15.9   2.9   1   1   4.9e-05     0.027   15.9   2.9     2    43   104   147   103   149 0.83 -
JF1A_TRINITY_DN64781_c1_g3_i1.p1JF1A_TRINITY_DN64781_c1_g3   -            163 151650at3193         -            193      0.03   15.7   8.9   1   1   7.7e-05     0.042   15.2   8.9     1    43    20    63    20    67 0.92 -
JF1A_TRINITY_DN68352_c1_g1_i18.p1JF1A_TRINITY_DN68352_c1_g1  -            148 151650at3193         -            193     0.033   15.6   1.6   1   1   8.4e-05     0.046   15.1   1.6     1    44    56   103    56   108 0.82 -
JF1A_TRINITY_DN65387_c0_g5_i2.p1JF1A_TRINITY_DN65387_c0_g5   -            225 151650at3193         -            193     0.034   15.5   2.2   1   1   8.8e-05     0.049   15.0   2.2     1    44    69   116    69   120 0.80 -
JF1A_TRINITY_DN68222_c1_g1_i2.p1JF1A_TRINITY_DN68222_c1_g1   -            343 151650at3193         -            193     0.035   15.5   1.0   1   1   0.00013      0.07   14.5   1.0     2    44   118   162   117   179 0.82 -
JF3J_TRINITY_DN35597_c0_g1_i1.p1JF3J_TRINITY_DN35597_c0_g1   -            203 151650at3193         -            193     0.036   15.5   6.4   1   1   9.9e-05     0.055   14.9   6.4     2    44   149   192   148   199 0.81 -
JF1A_TRINITY_DN63318_c1_g1_i2.p1JF1A_TRINITY_DN63318_c1_g1   -            103 151650at3193         -            193     0.039   15.3   4.3   1   1   8.9e-05     0.049   15.0   4.3     1    44    56   101    56   102 0.80 -
JF2A_TRINITY_DN26284_c0_g1_i1.p1JF2A_TRINITY_DN26284_c0_g1   -            274 151650at3193         -            193      0.04   15.3   1.2   1   1   7.2e-05      0.04   15.3   1.2     2    42    25    65    24    82 0.94 -
JF2A_TRINITY_DN46926_c0_g1_i1.p1JF2A_TRINITY_DN46926_c0_g1   -            166 151650at3193         -            193     0.042   15.3   3.6   1   2       7.3     4e+03   -1.0   0.1    36    80    54    99    39   103 0.55 -
JF2A_TRINITY_DN46926_c0_g1_i1.p1JF2A_TRINITY_DN46926_c0_g1   -            166 151650at3193         -            193     0.042   15.3   3.6   2   2   7.6e-05     0.042   15.3   3.6     2    33   107   141   106   158 0.79 -
JF1A_TRINITY_DN44160_c0_g1_i2.p1JF1A_TRINITY_DN44160_c0_g1   -            132 151650at3193         -            193     0.043   15.2  10.8   1   1   9.9e-05     0.055   14.9  10.1     1    43    69   114    69   126 0.85 -
JF1A_TRINITY_DN57030_c0_g1_i1.p1JF1A_TRINITY_DN57030_c0_g1   -            114 151650at3193         -            193     0.044   15.2   2.0   1   1    0.0001     0.057   14.8   2.0     2    44    57   101    56   112 0.83 -
JF1A_TRINITY_DN57424_c0_g1_i1.p1JF1A_TRINITY_DN57424_c0_g1   -            214 151650at3193         -            193     0.048   15.0   2.1   1   1   0.00012     0.067   14.6   2.1     2    44   122   171   121   191 0.77 -
JF1A_TRINITY_DN63686_c2_g3_i5.p1JF1A_TRINITY_DN63686_c2_g3   -            184 151650at3193         -            193     0.055   14.9   0.4   1   3    0.0001     0.055   14.9   0.4     2    31    38    70    37    79 0.82 -
JF1A_TRINITY_DN63686_c2_g3_i5.p1JF1A_TRINITY_DN63686_c2_g3   -            184 151650at3193         -            193     0.055   14.9   0.4   2   3       1.2   6.4e+02    1.6   0.1     8    30    87   109    84   115 0.87 -
JF1A_TRINITY_DN63686_c2_g3_i5.p1JF1A_TRINITY_DN63686_c2_g3   -            184 151650at3193         -            193     0.055   14.9   0.4   3   3       4.5   2.5e+03   -0.3   0.1    37    50   158   171   133   181 0.62 -
JF1A_TRINITY_DN63166_c0_g3_i2.p1JF1A_TRINITY_DN63166_c0_g3   -            175 151650at3193         -            193     0.058   14.8   3.2   1   1   0.00016     0.089   14.2   3.2     2    45   124   168   123   171 0.83 -
JF1A_TRINITY_DN63686_c2_g3_i6.p1JF1A_TRINITY_DN63686_c2_g3   -            182 151650at3193         -            193      0.06   14.7   6.1   1   3   0.00019      0.11   13.9   2.0     2    32    38    71    37    97 0.79 -
JF1A_TRINITY_DN63686_c2_g3_i6.p1JF1A_TRINITY_DN63686_c2_g3   -            182 151650at3193         -            193      0.06   14.7   6.1   2   3         8   4.4e+03   -1.1   0.0   144   159    89   104    77   124 0.81 -
JF1A_TRINITY_DN63686_c2_g3_i6.p1JF1A_TRINITY_DN63686_c2_g3   -            182 151650at3193         -            193      0.06   14.7   6.1   3   3      0.95   5.2e+02    1.9   0.1     8    30   148   170   145   178 0.86 -
JF1A_TRINITY_DN63908_c1_g1_i10.p1JF1A_TRINITY_DN63908_c1_g1  -            175 151650at3193         -            193     0.071   14.5   7.3   1   1    0.0002      0.11   13.9   7.3     1    43    89   134    89   141 0.84 -
JF1A_TRINITY_DN64672_c0_g1_i5.p1JF1A_TRINITY_DN64672_c0_g1   -            111 151650at3193         -            193     0.073   14.5   1.7   1   1   0.00017     0.092   14.1   1.0     4    43    15    54    13    66 0.89 -
JF1J_TRINITY_DN64841_c2_g1_i2.p1JF1J_TRINITY_DN64841_c2_g1   -            323 151650at3193         -            193      0.11   13.9   3.3   1   1   0.00034      0.19   13.1   3.3     2    43   153   192   152   198 0.90 -
JF2A_TRINITY_DN41517_c0_g3_i2.p1JF2A_TRINITY_DN41517_c0_g3   -            293 151650at3193         -            193      0.11   13.8   4.0   1   1    0.0003      0.16   13.3   4.0     2    44   123   167   122   171 0.83 -
JF1A_TRINITY_DN64698_c1_g1_i1.p1JF1A_TRINITY_DN64698_c1_g1   -            181 151650at3193         -            193      0.16   13.4   6.3   1   1    0.0004      0.22   12.9   6.3     2    42    83   125    82   132 0.80 -
JF1A_TRINITY_DN64189_c1_g2_i2.p1JF1A_TRINITY_DN64189_c1_g2   -            109 151650at3193         -            193      0.16   13.3   9.9   1   1   0.00036       0.2   13.0   9.9     2    47    39    85    38    96 0.82 -
JF1J_TRINITY_DN64039_c3_g2_i1.p1JF1J_TRINITY_DN64039_c3_g2   -            139 151650at3193         -            193      0.16   13.3   5.4   1   1   0.00045      0.25   12.7   5.4     2    45    89   133    88   136 0.80 -
JF1J_TRINITY_DN52067_c0_g1_i1.p1JF1J_TRINITY_DN52067_c0_g1   -            134 151650at3193         -            193      0.23   12.8   1.9   1   1   0.00056      0.31   12.4   1.9     2    45    83   127    82   130 0.80 -
JF1J_TRINITY_DN68966_c0_g2_i3.p1JF1J_TRINITY_DN68966_c0_g2   -            248 151650at3193         -            193      0.26   12.6   7.6   1   1   0.00069      0.38   12.1   7.6     2    44   192   235   191   243 0.82 -
JF1A_TRINITY_DN61323_c0_g1_i5.p1JF1A_TRINITY_DN61323_c0_g1   -            137 151650at3193         -            193      0.28   12.6   5.0   1   1   0.00071      0.39   12.1   5.0     2    48    60   109    59   128 0.77 -
JF1J_TRINITY_DN36180_c0_g1_i2.p1JF1J_TRINITY_DN36180_c0_g1   -            103 151650at3193         -            193      0.28   12.5   1.5   1   1   0.00055      0.31   12.4   1.5    17    43     1    30     1    60 0.81 -
JF1A_TRINITY_DN64900_c0_g3_i18.p1JF1A_TRINITY_DN64900_c0_g3  -            539 151650at3193         -            193      0.29   12.5   1.1   1   1   0.00085      0.47   11.8   1.1     2    43   338   381   337   385 0.89 -
JF1A_TRINITY_DN65998_c1_g1_i3.p1JF1A_TRINITY_DN65998_c1_g1   -            252 151650at3193         -            193       0.3   12.5   8.7   1   1     0.001      0.55   11.6   8.7     2    44   202   245   201   249 0.80 -
JF1A_TRINITY_DN65346_c1_g5_i2.p1JF1A_TRINITY_DN65346_c1_g5   -            188 151650at3193         -            193       0.3   12.4   2.6   1   1   0.00085      0.47   11.8   2.6     2    44   100   142    99   169 0.78 -
JF2A_TRINITY_DN41149_c0_g1_i7.p1JF2A_TRINITY_DN41149_c0_g1   -            638 151650at3193         -            193      0.35   12.3   1.6   1   1     0.002       1.1   10.6   1.6     9    41    13    43     9    56 0.81 -
JF2A_TRINITY_DN39476_c0_g1_i10.p1JF2A_TRINITY_DN39476_c0_g1  -            234 151650at3193         -            193      0.35   12.2   4.0   1   1    0.0011      0.61   11.4   4.0     2    43   175   218   174   222 0.85 -
JF3J_TRINITY_DN64459_c1_g2_i1.p1JF3J_TRINITY_DN64459_c1_g2   -            232 151650at3193         -            193      0.37   12.2   4.3   1   1    0.0011       0.6   11.5   4.3     2    32   156   188   155   204 0.79 -
JF2A_TRINITY_DN40964_c0_g4_i1.p1JF2A_TRINITY_DN40964_c0_g4   -            177 151650at3193         -            193      0.41   12.0   6.7   1   2       6.5   3.6e+03   -0.9   0.0    69    90    77    98    47   112 0.66 -
JF2A_TRINITY_DN40964_c0_g4_i1.p1JF2A_TRINITY_DN40964_c0_g4   -            177 151650at3193         -            193      0.41   12.0   6.7   2   2   0.00049      0.27   12.6   4.3     2    43   128   170   127   173 0.83 -
JF1J_TRINITY_DN64049_c6_g3_i4.p1JF1J_TRINITY_DN64049_c6_g3   -            168 151650at3193         -            193      0.46   11.9   9.1   1   2   0.00022      0.12   13.7   3.3     2    32     8    40     7    82 0.81 -
JF1J_TRINITY_DN64049_c6_g3_i4.p1JF1J_TRINITY_DN64049_c6_g3   -            168 151650at3193         -            193      0.46   11.9   9.1   2   2       1.2   6.4e+02    1.6   0.3    16    30   111   125    98   133 0.83 -
JF1A_TRINITY_DN65293_c1_g6_i1.p1JF1A_TRINITY_DN65293_c1_g6   -            404 151650at3193         -            193      0.49   11.8   3.4   1   1    0.0014      0.77   11.1   3.4     2    43    30    73    29    77 0.80 -
JF1A_TRINITY_DN64189_c1_g2_i3.p1JF1A_TRINITY_DN64189_c1_g2   -            136 151650at3193         -            193       0.5   11.7  10.8   1   1    0.0012      0.65   11.4  10.8     2    47    66   112    65   122 0.82 -
JF1A_TRINITY_DN54803_c0_g1_i2.p1JF1A_TRINITY_DN54803_c0_g1   -            247 151650at3193         -            193      0.53   11.7   4.0   1   1    0.0014      0.79   11.1   4.0     2    43   139   182   138   189 0.81 -
JF1A_TRINITY_DN62030_c1_g4_i4.p1JF1A_TRINITY_DN62030_c1_g4   -            367 151650at3193         -            193      0.62   11.4   4.5   1   2       1.2   6.5e+02    1.6   0.0    21    45    11    37     6    46 0.81 -
JF1A_TRINITY_DN62030_c1_g4_i4.p1JF1A_TRINITY_DN62030_c1_g4   -            367 151650at3193         -            193      0.62   11.4   4.5   2   2    0.0044       2.4    9.5   2.6     2    43   180   222   179   226 0.80 -
JF1A_TRINITY_DN61546_c0_g5_i2.p1JF1A_TRINITY_DN61546_c0_g5   -            215 151650at3193         -            193      0.65   11.4   2.9   1   1    0.0018         1   10.7   2.9     2    32    90   122    89   165 0.83 -
JF1A_TRINITY_DN62690_c2_g3_i1.p1JF1A_TRINITY_DN62690_c2_g3   -            364 151650at3193         -            193      0.65   11.4   3.7   1   1     0.002       1.1   10.6   3.7     2    43   305   348   304   352 0.85 -
JF1A_TRINITY_DN64906_c3_g1_i1.p1JF1A_TRINITY_DN64906_c3_g1   -            108 151650at3193         -            193      0.76   11.1  10.3   1   1    0.0017      0.93   10.9  10.3     2    42    62   107    61   108 0.75 -
JF2A_TRINITY_DN52239_c0_g1_i1.p1JF2A_TRINITY_DN52239_c0_g1   -            124 151650at3193         -            193      0.77   11.1   6.6   1   1   0.00031      0.17   13.3   3.5     1    42    44    94    44   104 0.72 -
JF1A_TRINITY_DN62358_c2_g2_i1.p1JF1A_TRINITY_DN62358_c2_g2   -            184 151650at3193         -            193      0.86   11.0   0.2   1   1    0.0021       1.1   10.6   0.2     2    68   105   172   104   176 0.77 -
JF1A_TRINITY_DN60954_c2_g9_i1.p1JF1A_TRINITY_DN60954_c2_g9   -            378 151650at3193         -            193         1   10.7   2.9   1   1    0.0028       1.6   10.1   2.9     1    46   229   276   229   286 0.77 -
JF1A_TRINITY_DN73772_c0_g1_i1.p1JF1A_TRINITY_DN73772_c0_g1   -            106 151650at3193         -            193       1.1   10.6   3.2   1   1    0.0027       1.5   10.2   3.2     1    43    37    82    37    87 0.76 -
JF3A_TRINITY_DN55910_c0_g1_i18.p1JF3A_TRINITY_DN55910_c0_g1  -            176 151650at3193         -            193       1.2   10.5   1.7   1   1    0.0028       1.6   10.1   1.7     2    43     6    53     5    69 0.75 -
JF3J_TRINITY_DN72807_c2_g1_i16.p1JF3J_TRINITY_DN72807_c2_g1  -            352 151650at3193         -            193       1.6   10.0   3.8   1   1    0.0067       3.7    8.9   3.8     1    45    82   128    82   135 0.79 -
JF2J_TRINITY_DN28811_c0_g1_i1.p1JF2J_TRINITY_DN28811_c0_g1   -            188 151650at3193         -            193       1.7   10.0   2.6   1   1    0.0046       2.6    9.4   2.6     2    43    74   116    73   121 0.85 -
JF1J_TRINITY_DN69625_c1_g2_i10.p1JF1J_TRINITY_DN69625_c1_g2  -            219 151650at3193         -            193       1.8   10.0   1.8   1   1    0.0047       2.6    9.4   1.8     2    43     6    53     5    68 0.75 -
JF1A_TRINITY_DN66185_c0_g1_i2.p1JF1A_TRINITY_DN66185_c0_g1   -            266 151650at3193         -            193       1.9    9.9   3.4   1   1    0.0062       3.4    9.0   3.4    21   105     9    90     2    99 0.72 -
JF1J_TRINITY_DN23575_c0_g1_i1.p1JF1J_TRINITY_DN23575_c0_g1   -            112 151650at3193         -            193       1.9    9.8  10.8   1   2         1   5.6e+02    1.8   0.7    17    31    11    25     2    34 0.80 -
JF1J_TRINITY_DN23575_c0_g1_i1.p1JF1J_TRINITY_DN23575_c0_g1   -            112 151650at3193         -            193       1.9    9.8  10.8   2   2   0.00043      0.23   12.8   3.5    15    48    77   110    59   111 0.88 -
JF1A_TRINITY_DN63193_c0_g3_i2.p1JF1A_TRINITY_DN63193_c0_g3   -            211 151650at3193         -            193       1.9    9.8   2.6   1   1    0.0048       2.6    9.4   2.6     2    43    87   129    86   133 0.80 -
JF1A_TRINITY_DN68346_c0_g2_i1.p1JF1A_TRINITY_DN68346_c0_g2   -            289 151650at3193         -            193         2    9.7   3.1   1   1    0.0068       3.7    8.9   3.1     2    44   233   276   232   279 0.82 -
JF1A_TRINITY_DN67243_c0_g3_i1.p1JF1A_TRINITY_DN67243_c0_g3   -            876 151650at3193         -            193       2.3    9.5   2.3   1   2       5.3   2.9e+03   -0.6   0.0    97   124   229   256   223   258 0.83 -
JF1A_TRINITY_DN67243_c0_g3_i1.p1JF1A_TRINITY_DN67243_c0_g3   -            876 151650at3193         -            193       2.3    9.5   2.3   2   2     0.024        13    7.1   1.7     2    42   557   599   556   631 0.80 -
JF3J_TRINITY_DN68683_c1_g1_i2.p2JF3J_TRINITY_DN68683_c1_g1   -            228 151650at3193         -            193       2.5    9.5   2.6   1   1    0.0064       3.5    9.0   2.6     2    43    94   136    93   141 0.85 -
JF1A_TRINITY_DN65462_c0_g2_i10.p1JF1A_TRINITY_DN65462_c0_g2  -            393 151650at3193         -            193       2.8    9.3   9.7   1   1    0.0082       4.5    8.6   9.7     2    43   332   374   331   381 0.83 -
JF1A_TRINITY_DN60200_c0_g2_i1.p1JF1A_TRINITY_DN60200_c0_g2   -            114 151650at3193         -            193       3.1    9.2   4.6   1   1    0.0083       4.6    8.6   4.6     2    42    63   102    62   106 0.84 -
JF1A_TRINITY_DN68000_c0_g1_i15.p1JF1A_TRINITY_DN68000_c0_g1  -            450 151650at3193         -            193       3.2    9.1   3.9   1   1    0.0094       5.2    8.4   3.9     1    45   253   299   253   306 0.79 -
JF1A_TRINITY_DN65357_c1_g1_i7.p1JF1A_TRINITY_DN65357_c1_g1   -            198 151650at3193         -            193       3.3    9.0   4.4   1   1    0.0078       4.3    8.7   4.4     2    43    42    81    41   114 0.82 -
JF3J_TRINITY_DN12843_c0_g1_i1.p1JF3J_TRINITY_DN12843_c0_g1   -            236 151650at3193         -            193       4.7    8.6   7.0   1   1     0.012       6.8    8.0   7.0     2    38    33    71    32    79 0.79 -
JF1J_TRINITY_DN67823_c1_g1_i4.p1JF1J_TRINITY_DN67823_c1_g1   -            352 151650at3193         -            193       5.9    8.2   3.8   1   1     0.016         9    7.6   3.8     2    44   289   332   288   335 0.79 -
JF2A_TRINITY_DN40964_c0_g2_i1.p1JF2A_TRINITY_DN40964_c0_g2   -            307 151650at3193         -            193       7.6    7.9   4.6   1   1      0.02        11    7.4   4.6     2    43    16    55    15    87 0.83 -
#
# Program:         hmmsearch
# Version:         3.2.1 (June 2018)
# Pipeline mode:   SEARCH
# Query file:      /isg/shared/databases/BUSCO/odb10/embryophyta_odb10/hmms/151650at3193.hmm
# Target file:     Juniper_final_annotations_no_contam_lvl0.faa
# Option settings: /usr/local/bin/hmmsearch --domtblout /labs/Wegrzyn/Juniper_Pine/BUSCO/NEW/busco_juniper/run_embryophyta_odb10/hmmer_output/151650at3193.out --cpu 1 /isg/shared/databases/BUSCO/odb10/embryophyta_odb10/hmms/151650at3193.hmm Juniper_final_annotations_no_contam_lvl0.faa 
# Current dir:     /labs/Wegrzyn/Juniper_Pine/BUSCO/NEW
# Date:            Thu Aug  6 16:09:21 2020
# [ok]
