#                                                                                                                   --- full sequence --- -------------- this domain -------------   hmm coord   ali coord   env coord
# target name                                               accession   tlen query name           accession   qlen   E-value  score  bias   #  of  c-Evalue  i-Evalue  score  bias  from    to  from    to  from    to  acc description of target
#                                       ------------------- ---------- ----- -------------------- ---------- ----- --------- ------ ----- --- --- --------- --------- ------ ----- ----- ----- ----- ----- ----- ----- ---- ---------------------
JF2A_TRINITY_DN38578_c0_g1_i4.p1JF2A_TRINITY_DN38578_c0_g1  -            377 15289at3193          -            702  4.2e-147  493.2   0.9   1   2       1.1   2.2e+03   -1.6   0.1   283   295    39    51    27    59 0.84 -
JF2A_TRINITY_DN38578_c0_g1_i4.p1JF2A_TRINITY_DN38578_c0_g1  -            377 15289at3193          -            702  4.2e-147  493.2   0.9   2   2  3.2e-150  6.5e-147  492.6   0.1   289   560    83   377    73   377 0.94 -
JF1A_TRINITY_DN66910_c1_g4_i1.p1JF1A_TRINITY_DN66910_c1_g4  -            312 15289at3193          -            702     1e-98  333.3   1.6   1   2   4.5e-51   9.2e-48  164.9   0.2    57   164     2   125     1   143 0.91 -
JF1A_TRINITY_DN66910_c1_g4_i1.p1JF1A_TRINITY_DN66910_c1_g4  -            312 15289at3193          -            702     1e-98  333.3   1.6   2   2   8.5e-52   1.7e-48  167.3   0.1   153   268   170   298   162   305 0.90 -
JF2A_TRINITY_DN39732_c0_g1_i1.p1JF2A_TRINITY_DN39732_c0_g1  -            621 15289at3193          -            702   1.3e-66  227.2   0.0   1   1     9e-70   1.8e-66  226.7   0.0   291   643    37   416    26   423 0.89 -
JF3A_TRINITY_DN44520_c0_g1_i3.p1JF3A_TRINITY_DN44520_c0_g1  -            272 15289at3193          -            702   1.4e-61  210.6   5.4   1   4     0.043        87    3.0   0.1   267   283     4    20     2    33 0.84 -
JF3A_TRINITY_DN44520_c0_g1_i3.p1JF3A_TRINITY_DN44520_c0_g1  -            272 15289at3193          -            702   1.4e-61  210.6   5.4   2   4      0.65   1.3e+03   -0.9   0.1   283   295    54    66    40    75 0.83 -
JF3A_TRINITY_DN44520_c0_g1_i3.p1JF3A_TRINITY_DN44520_c0_g1  -            272 15289at3193          -            702   1.4e-61  210.6   5.4   3   4     8e-18   1.6e-14   55.0   0.0   289   332    98   141    88   154 0.89 -
JF3A_TRINITY_DN44520_c0_g1_i3.p1JF3A_TRINITY_DN44520_c0_g1  -            272 15289at3193          -            702   1.4e-61  210.6   5.4   4   4   2.2e-47   4.6e-44  152.7   0.1   289   377   181   272   171   272 0.93 -
JF3J_TRINITY_DN71300_c0_g5_i1.p1JF3J_TRINITY_DN71300_c0_g5  -            179 15289at3193          -            702   1.3e-57  197.4   2.7   1   2   2.7e-56   5.5e-53  182.1   0.3   553   664    10   133     4   139 0.93 -
JF3J_TRINITY_DN71300_c0_g5_i1.p1JF3J_TRINITY_DN71300_c0_g5  -            179 15289at3193          -            702   1.3e-57  197.4   2.7   2   2   6.4e-06     0.013   15.6   0.1   665   684   154   173   149   177 0.90 -
JF3J_TRINITY_DN71300_c0_g5_i3.p1JF3J_TRINITY_DN71300_c0_g5  -            190 15289at3193          -            702   6.2e-40  139.0   1.7   1   2   2.1e-38   4.2e-35  123.0   0.1   577   664    45   144    36   150 0.91 -
JF3J_TRINITY_DN71300_c0_g5_i3.p1JF3J_TRINITY_DN71300_c0_g5  -            190 15289at3193          -            702   6.2e-40  139.0   1.7   2   2     7e-06     0.014   15.5   0.1   665   684   165   184   160   188 0.90 -
JF1A_TRINITY_DN66171_c0_g1_i10.p1JF1A_TRINITY_DN66171_c0_g1 -            170 15289at3193          -            702   8.4e-24   85.7   0.2   1   2   2.4e-13     5e-10   40.2   0.1   455   522     1    68     1    78 0.96 -
JF1A_TRINITY_DN66171_c0_g1_i10.p1JF1A_TRINITY_DN66171_c0_g1 -            170 15289at3193          -            702   8.4e-24   85.7   0.2   2   2   1.8e-14   3.7e-11   43.9   0.0     1    65    89   154    89   160 0.94 -
JF2A_TRINITY_DN15365_c0_g1_i1.p1JF2A_TRINITY_DN15365_c0_g1  -            138 15289at3193          -            702   5.3e-21   76.4   0.0   1   1   3.2e-24   6.5e-21   76.1   0.0   458   584     1   129     1   135 0.93 -
JF1A_TRINITY_DN42546_c0_g1_i1.p1JF1A_TRINITY_DN42546_c0_g1  -            124 15289at3193          -            702   6.2e-14   53.1   0.0   1   1   3.8e-17   7.8e-14   52.7   0.0     1    82    18   110    18   123 0.81 -
JF2A_TRINITY_DN45048_c0_g1_i1.p1JF2A_TRINITY_DN45048_c0_g1  -            136 15289at3193          -            702   8.8e-14   52.6   0.0   1   1   4.8e-17   9.9e-14   52.4   0.0   348   450    14   127     6   135 0.83 -
JF1A_TRINITY_DN60702_c2_g5_i1.p1JF1A_TRINITY_DN60702_c2_g5  -            208 15289at3193          -            702   6.6e-07   29.8   0.0   1   1   4.1e-10   8.4e-07   29.5   0.0   321   465    39   203    26   207 0.76 -
JF1A_TRINITY_DN61915_c1_g1_i1.p1JF1A_TRINITY_DN61915_c1_g1  -            324 15289at3193          -            702   8.1e-05   22.9   0.1   1   1   5.5e-08   0.00011   22.5   0.1   350   466    30   153    25   178 0.79 -
JF1A_TRINITY_DN66342_c3_g6_i1.p1JF1A_TRINITY_DN66342_c3_g6  -            145 15289at3193          -            702    0.0073   16.5   0.0   1   1   4.1e-06    0.0083   16.3   0.0   319   386     4    75     1    99 0.78 -
JF1A_TRINITY_DN66665_c2_g4_i2.p1JF1A_TRINITY_DN66665_c2_g4  -            232 15289at3193          -            702    0.0087   16.2   0.0   1   1   4.6e-06    0.0095   16.1   0.0   323   381   140   199    75   220 0.80 -
JF3A_TRINITY_DN45821_c0_g1_i3.p1JF3A_TRINITY_DN45821_c0_g1  -            166 15289at3193          -            702     0.074   13.1   0.0   1   1   4.7e-05     0.097   12.8   0.0   296   354    11    67     2    71 0.83 -
JF1A_TRINITY_DN60207_c0_g1_i2.p1JF1A_TRINITY_DN60207_c0_g1  -            235 15289at3193          -            702      0.08   13.0   0.0   1   1   5.2e-05      0.11   12.6   0.0   301   349    29    79    11   115 0.71 -
JF1J_TRINITY_DN70189_c0_g1_i1.p1JF1J_TRINITY_DN70189_c0_g1  -            138 15289at3193          -            702      0.13   12.3   0.0   1   1   7.7e-05      0.16   12.1   0.0   303   344    77   117    63   129 0.84 -
JF1A_TRINITY_DN66300_c1_g3_i2.p1JF1A_TRINITY_DN66300_c1_g3  -            202 15289at3193          -            702      0.14   12.2   0.0   1   1   7.1e-05      0.14   12.2   0.0   323   361    50    88    16   142 0.75 -
JF2A_TRINITY_DN4839_c0_g1_i1.p1JF2A_TRINITY_DN4839_c0_g1    -            118 15289at3193          -            702      0.17   12.0   0.0   1   1   8.3e-05      0.17   12.0   0.0   313   363    31    79     9   105 0.70 -
JF1J_TRINITY_DN65579_c8_g2_i1.p1JF1J_TRINITY_DN65579_c8_g2  -            211 15289at3193          -            702      0.18   11.9   0.0   1   1   0.00011      0.22   11.6   0.0   601   678    64   143    42   164 0.71 -
JF3J_TRINITY_DN73062_c2_g2_i10.p1JF3J_TRINITY_DN73062_c2_g2 -            123 15289at3193          -            702      0.18   11.9   0.0   1   1   9.6e-05       0.2   11.7   0.0   313   344    60    91    47   112 0.79 -
JF1A_TRINITY_DN24561_c0_g1_i1.p1JF1A_TRINITY_DN24561_c0_g1  -            147 15289at3193          -            702      0.19   11.8   0.0   1   1   9.2e-05      0.19   11.8   0.0   312   354    93   134    43   144 0.81 -
JF1A_TRINITY_DN67189_c1_g5_i2.p1JF1A_TRINITY_DN67189_c1_g5  -            150 15289at3193          -            702       0.2   11.7   0.0   1   1   0.00012      0.24   11.5   0.0   311   344    86   118    82   137 0.78 -
JF3J_TRINITY_DN63921_c0_g1_i5.p1JF3J_TRINITY_DN63921_c0_g1  -            197 15289at3193          -            702      0.23   11.5   0.0   1   1   0.00014      0.28   11.2   0.0   323   361   129   167   107   187 0.74 -
JF1A_TRINITY_DN65796_c0_g1_i1.p1JF1A_TRINITY_DN65796_c0_g1  -            221 15289at3193          -            702      0.23   11.5   0.0   1   1   0.00013      0.27   11.3   0.0   582   662    53   134    22   173 0.70 -
JF3J_TRINITY_DN70986_c1_g3_i1.p1JF3J_TRINITY_DN70986_c1_g3  -            107 15289at3193          -            702      0.24   11.4   0.0   1   1   0.00012      0.25   11.4   0.0   315   344    76   105    40   106 0.80 -
JF1A_TRINITY_DN66568_c1_g2_i9.p1JF1A_TRINITY_DN66568_c1_g2  -            221 15289at3193          -            702       0.4   10.7   0.0   1   1   0.00024      0.49   10.4   0.0    16    40    86   110    72   130 0.79 -
JF1A_TRINITY_DN66355_c1_g1_i2.p1JF1A_TRINITY_DN66355_c1_g1  -            201 15289at3193          -            702      0.48   10.5   0.0   1   1   0.00031      0.63   10.1   0.0   307   344   155   192   133   198 0.79 -
JF1A_TRINITY_DN66258_c0_g1_i6.p2JF1A_TRINITY_DN66258_c0_g1  -            145 15289at3193          -            702      0.53   10.3   0.2   1   2       1.1   2.3e+03   -1.7   0.0   636   665    26    55    21    60 0.83 -
JF1A_TRINITY_DN66258_c0_g1_i6.p2JF1A_TRINITY_DN66258_c0_g1  -            145 15289at3193          -            702      0.53   10.3   0.2   2   2   0.00064       1.3    9.0   0.1   324   344    67    87    53    89 0.85 -
JF3A_TRINITY_DN29339_c0_g1_i1.p1JF3A_TRINITY_DN29339_c0_g1  -            105 15289at3193          -            702      0.58   10.2   0.1   1   1   0.00034       0.7    9.9   0.1   318   343    38    63    27    72 0.81 -
JF1A_TRINITY_DN67671_c1_g1_i2.p1JF1A_TRINITY_DN67671_c1_g1  -            116 15289at3193          -            702      0.64   10.1   0.0   1   1   0.00035      0.71    9.9   0.0   318   349    55    86    47   109 0.81 -
JF1A_TRINITY_DN66568_c1_g2_i5.p1JF1A_TRINITY_DN66568_c1_g2  -            323 15289at3193          -            702      0.66   10.0   0.0   1   1   0.00041      0.85    9.6   0.0    16    40   113   137    99   157 0.79 -
JF1A_TRINITY_DN67671_c1_g1_i1.p1JF1A_TRINITY_DN67671_c1_g1  -            120 15289at3193          -            702      0.68   10.0   0.0   1   1   0.00037      0.77    9.8   0.0   318   349    59    90    51   113 0.81 -
JF1A_TRINITY_DN63741_c0_g6_i3.p1JF1A_TRINITY_DN63741_c0_g6  -            119 15289at3193          -            702       0.9    9.6   0.0   1   1   0.00047      0.96    9.5   0.0   315   344    73   102    36   105 0.86 -
#
# Program:         hmmsearch
# Version:         3.2.1 (June 2018)
# Pipeline mode:   SEARCH
# Query file:      /isg/shared/databases/BUSCO/odb10/embryophyta_odb10/hmms/15289at3193.hmm
# Target file:     Juniper_final_annotations_no_contam_lvl0.faa
# Option settings: /usr/local/bin/hmmsearch --domtblout /labs/Wegrzyn/Juniper_Pine/BUSCO/NEW/busco_juniper/run_embryophyta_odb10/hmmer_output/15289at3193.out --cpu 1 /isg/shared/databases/BUSCO/odb10/embryophyta_odb10/hmms/15289at3193.hmm Juniper_final_annotations_no_contam_lvl0.faa 
# Current dir:     /labs/Wegrzyn/Juniper_Pine/BUSCO/NEW
# Date:            Thu Aug  6 16:09:55 2020
# [ok]
