#                                                                                                                  --- full sequence --- -------------- this domain -------------   hmm coord   ali coord   env coord
# target name                                              accession   tlen query name           accession   qlen   E-value  score  bias   #  of  c-Evalue  i-Evalue  score  bias  from    to  from    to  from    to  acc description of target
#                                      ------------------- ---------- ----- -------------------- ---------- ----- --------- ------ ----- --- --- --------- --------- ------ ----- ----- ----- ----- ----- ----- ----- ---- ---------------------
JF1A_TRINITY_DN64133_c2_g1_i1.p1JF1A_TRINITY_DN64133_c2_g1 -            172 153139at3193         -            193   3.4e-73  247.5   8.2   1   1   1.8e-74   1.8e-70  238.6   8.2    47   193     1   171     1   171 0.91 -
JF3J_TRINITY_DN68692_c5_g4_i4.p1JF3J_TRINITY_DN68692_c5_g4 -            108 153139at3193         -            193   4.6e-40  139.4   1.8   1   1   5.4e-44   5.3e-40  139.2   1.8    67   153     7    94     2    97 0.93 -
JF2A_TRINITY_DN43394_c0_g1_i1.p1JF2A_TRINITY_DN43394_c0_g1 -            154 153139at3193         -            193   1.9e-25   91.7   2.7   1   1   4.2e-29   4.2e-25   90.6   2.7    78   183    44   152     3   154 0.87 -
JF1J_TRINITY_DN65184_c3_g3_i1.p2JF1J_TRINITY_DN65184_c3_g3 -            100 153139at3193         -            193   5.4e-20   73.9   0.8   1   1   7.3e-24   7.2e-20   73.5   0.8     1    48    46   100    46   100 0.91 -
JF3J_TRINITY_DN67601_c0_g2_i5.p1JF3J_TRINITY_DN67601_c0_g2 -            106 153139at3193         -            193   3.8e-06   28.8   0.1   1   1   4.7e-10   4.7e-06   28.5   0.1    77   159    14    95     8    99 0.88 -
JF2A_TRINITY_DN41867_c0_g3_i4.p1JF2A_TRINITY_DN41867_c0_g3 -            390 153139at3193         -            193   2.4e-05   26.2   0.7   1   1   5.9e-09   5.9e-05   24.9   0.1    74   159   205   289   199   294 0.88 -
JF2J_TRINITY_DN23783_c0_g3_i2.p1JF2J_TRINITY_DN23783_c0_g3 -            237 153139at3193         -            193   4.4e-05   25.3   0.1   1   2       1.9   1.9e+04   -2.9   0.1   151   157    39    45    19    64 0.52 -
JF2J_TRINITY_DN23783_c0_g3_i2.p1JF2J_TRINITY_DN23783_c0_g3 -            237 153139at3193         -            193   4.4e-05   25.3   0.1   2   2   4.4e-09   4.4e-05   25.3   0.1    77   159    78   159    71   164 0.88 -
#
# Program:         hmmsearch
# Version:         3.2.1 (June 2018)
# Pipeline mode:   SEARCH
# Query file:      /isg/shared/databases/BUSCO/odb10/embryophyta_odb10/hmms/153139at3193.hmm
# Target file:     Juniper_final_annotations_no_contam_lvl0.faa
# Option settings: /usr/local/bin/hmmsearch --domtblout /labs/Wegrzyn/Juniper_Pine/BUSCO/NEW/busco_juniper/run_embryophyta_odb10/hmmer_output/153139at3193.out --cpu 1 /isg/shared/databases/BUSCO/odb10/embryophyta_odb10/hmms/153139at3193.hmm Juniper_final_annotations_no_contam_lvl0.faa 
# Current dir:     /labs/Wegrzyn/Juniper_Pine/BUSCO/NEW
# Date:            Thu Aug  6 16:09:56 2020
# [ok]
