#                                                                                                                  --- full sequence --- -------------- this domain -------------   hmm coord   ali coord   env coord
# target name                                              accession   tlen query name           accession   qlen   E-value  score  bias   #  of  c-Evalue  i-Evalue  score  bias  from    to  from    to  from    to  acc description of target
#                                      ------------------- ---------- ----- -------------------- ---------- ----- --------- ------ ----- --- --- --------- --------- ------ ----- ----- ----- ----- ----- ----- ----- ---- ---------------------
JF1A_TRINITY_DN66427_c2_g6_i1.p1JF1A_TRINITY_DN66427_c2_g6 -            248 154673at3193         -            164   5.2e-84  282.4  18.6   1   3   3.4e-36     8e-32  112.7   1.8     2    69    34   104    33   110 0.93 -
JF1A_TRINITY_DN66427_c2_g6_i1.p1JF1A_TRINITY_DN66427_c2_g6 -            248 154673at3193         -            164   5.2e-84  282.4  18.6   2   3   2.8e-10   6.6e-06   28.4   0.6    67    90   124   147   116   162 0.85 -
JF1A_TRINITY_DN66427_c2_g6_i1.p1JF1A_TRINITY_DN66427_c2_g6 -            248 154673at3193         -            164   5.2e-84  282.4  18.6   3   3   3.7e-48   8.5e-44  151.6   2.7    89   164   170   245   164   245 0.97 -
JF1A_TRINITY_DN66427_c2_g6_i2.p1JF1A_TRINITY_DN66427_c2_g6 -            103 154673at3193         -            164   1.2e-24   89.3   0.8   1   1   7.2e-29   1.7e-24   88.9   0.8     2    55    34    90    33    93 0.93 -
JF3J_TRINITY_DN68304_c0_g1_i1.p1JF3J_TRINITY_DN68304_c0_g1 -            131 154673at3193         -            164      0.61   12.2   0.1   1   2    0.0049   1.1e+02    4.8   0.0    25    52    33    63    11    70 0.72 -
JF3J_TRINITY_DN68304_c0_g1_i1.p1JF3J_TRINITY_DN68304_c0_g1 -            131 154673at3193         -            164      0.61   12.2   0.1   2   2    0.0012        28    6.8   0.0    23    56    67   103    55   128 0.66 -
#
# Program:         hmmsearch
# Version:         3.2.1 (June 2018)
# Pipeline mode:   SEARCH
# Query file:      /isg/shared/databases/BUSCO/odb10/embryophyta_odb10/hmms/154673at3193.hmm
# Target file:     Juniper_final_annotations_no_contam_lvl0.faa
# Option settings: /usr/local/bin/hmmsearch --domtblout /labs/Wegrzyn/Juniper_Pine/BUSCO/NEW/busco_juniper/run_embryophyta_odb10/hmmer_output/154673at3193.out --cpu 1 /isg/shared/databases/BUSCO/odb10/embryophyta_odb10/hmms/154673at3193.hmm Juniper_final_annotations_no_contam_lvl0.faa 
# Current dir:     /labs/Wegrzyn/Juniper_Pine/BUSCO/NEW
# Date:            Thu Aug  6 16:10:09 2020
# [ok]
