#                                                                                                                  --- full sequence --- -------------- this domain -------------   hmm coord   ali coord   env coord
# target name                                              accession   tlen query name           accession   qlen   E-value  score  bias   #  of  c-Evalue  i-Evalue  score  bias  from    to  from    to  from    to  acc description of target
#                                      ------------------- ---------- ----- -------------------- ---------- ----- --------- ------ ----- --- --- --------- --------- ------ ----- ----- ----- ----- ----- ----- ----- ---- ---------------------
JF2A_TRINITY_DN1009_c0_g1_i1.p1JF2A_TRINITY_DN1009_c0_g1   -            108 155121at3193         -            178   5.3e-31  109.6   0.0   1   1   2.7e-35   6.2e-31  109.4   0.0    95   177     9   100     2   101 0.87 -
JF2A_TRINITY_DN22654_c0_g1_i2.p1JF2A_TRINITY_DN22654_c0_g1 -            178 155121at3193         -            178      0.25   13.0   0.0   1   1   1.3e-05       0.3   12.7   0.0    67   151    51   136    39   159 0.80 -
JF1A_TRINITY_DN64689_c3_g2_i2.p1JF1A_TRINITY_DN64689_c3_g2 -            120 155121at3193         -            178      0.34   12.6   0.3   1   2    0.0011        26    6.4   0.0    61   109    22    69    16    78 0.81 -
JF1A_TRINITY_DN64689_c3_g2_i2.p1JF1A_TRINITY_DN64689_c3_g2 -            120 155121at3193         -            178      0.34   12.6   0.3   2   2    0.0026        60    5.2   0.1    93   118    75   100    67   106 0.85 -
#
# Program:         hmmsearch
# Version:         3.2.1 (June 2018)
# Pipeline mode:   SEARCH
# Query file:      /isg/shared/databases/BUSCO/odb10/embryophyta_odb10/hmms/155121at3193.hmm
# Target file:     Juniper_final_annotations_no_contam_lvl0.faa
# Option settings: /usr/local/bin/hmmsearch --domtblout /labs/Wegrzyn/Juniper_Pine/BUSCO/NEW/busco_juniper/run_embryophyta_odb10/hmmer_output/155121at3193.out --cpu 1 /isg/shared/databases/BUSCO/odb10/embryophyta_odb10/hmms/155121at3193.hmm Juniper_final_annotations_no_contam_lvl0.faa 
# Current dir:     /labs/Wegrzyn/Juniper_Pine/BUSCO/NEW
# Date:            Thu Aug  6 16:10:11 2020
# [ok]
