#                                                                                                                  --- full sequence --- -------------- this domain -------------   hmm coord   ali coord   env coord
# target name                                              accession   tlen query name           accession   qlen   E-value  score  bias   #  of  c-Evalue  i-Evalue  score  bias  from    to  from    to  from    to  acc description of target
#                                      ------------------- ---------- ----- -------------------- ---------- ----- --------- ------ ----- --- --- --------- --------- ------ ----- ----- ----- ----- ----- ----- ----- ---- ---------------------
JF1A_TRINITY_DN74302_c0_g1_i1.p1JF1A_TRINITY_DN74302_c0_g1 -            155 15843at3193          -            713   1.7e-07   31.7   0.0   1   1   2.8e-11   2.1e-07   31.4   0.0   184   266    37   118    31   149 0.58 -
JF1A_TRINITY_DN46692_c0_g1_i1.p1JF1A_TRINITY_DN46692_c0_g1 -            132 15843at3193          -            713    0.0067   16.5   0.0   1   1   1.2e-06     0.009   16.1   0.0   114   180    21    90     5    96 0.82 -
JF1A_TRINITY_DN12028_c0_g1_i2.p1JF1A_TRINITY_DN12028_c0_g1 -            118 15843at3193          -            713     0.012   15.7   0.0   1   1   1.7e-06     0.013   15.6   0.0   202   268    46   111    21   115 0.90 -
JF1A_TRINITY_DN67691_c0_g4_i1.p1JF1A_TRINITY_DN67691_c0_g4 -            107 15843at3193          -            713     0.043   13.9   0.0   1   1   6.3e-06     0.049   13.7   0.0   513   586    10    89     2   104 0.81 -
JF2A_TRINITY_DN21656_c0_g1_i1.p1JF2A_TRINITY_DN21656_c0_g1 -            179 15843at3193          -            713     0.074   13.1   0.0   1   1   9.9e-06     0.077   13.0   0.0   108   166    65   122    37   177 0.69 -
JF1A_TRINITY_DN66996_c1_g2_i2.p1JF1A_TRINITY_DN66996_c1_g2 -            145 15843at3193          -            713     0.087   12.9   0.0   1   1   1.4e-05      0.11   12.5   0.0   108   165    77   133    58   140 0.84 -
JF1J_TRINITY_DN69425_c1_g1_i1.p1JF1J_TRINITY_DN69425_c1_g1 -            189 15843at3193          -            713      0.11   12.5   0.3   1   1   1.9e-05      0.15   12.1   0.3   390   442    12    63     2    73 0.85 -
JF1A_TRINITY_DN67752_c1_g1_i2.p1JF1A_TRINITY_DN67752_c1_g1 -            440 15843at3193          -            713      0.31   11.1   0.1   1   1   5.8e-05      0.45   10.5   0.1   109   267   296   365   282   421 0.53 -
JF1A_TRINITY_DN64668_c2_g2_i2.p1JF1A_TRINITY_DN64668_c2_g2 -            242 15843at3193          -            713      0.42   10.6   0.1   1   1     7e-05      0.54   10.2   0.1   395   442     4    51     1    60 0.90 -
#
# Program:         hmmsearch
# Version:         3.2.1 (June 2018)
# Pipeline mode:   SEARCH
# Query file:      /isg/shared/databases/BUSCO/odb10/embryophyta_odb10/hmms/15843at3193.hmm
# Target file:     Juniper_final_annotations_no_contam_lvl0.faa
# Option settings: /usr/local/bin/hmmsearch --domtblout /labs/Wegrzyn/Juniper_Pine/BUSCO/NEW/busco_juniper/run_embryophyta_odb10/hmmer_output/15843at3193.out --cpu 1 /isg/shared/databases/BUSCO/odb10/embryophyta_odb10/hmms/15843at3193.hmm Juniper_final_annotations_no_contam_lvl0.faa 
# Current dir:     /labs/Wegrzyn/Juniper_Pine/BUSCO/NEW
# Date:            Thu Aug  6 16:10:35 2020
# [ok]
