#                                                                                                                   --- full sequence --- -------------- this domain -------------   hmm coord   ali coord   env coord
# target name                                               accession   tlen query name           accession   qlen   E-value  score  bias   #  of  c-Evalue  i-Evalue  score  bias  from    to  from    to  from    to  acc description of target
#                                       ------------------- ---------- ----- -------------------- ---------- ----- --------- ------ ----- --- --- --------- --------- ------ ----- ----- ----- ----- ----- ----- ----- ---- ---------------------
JF1A_TRINITY_DN63757_c0_g2_i1.p1JF1A_TRINITY_DN63757_c0_g2  -            400 1589at3193           -           1378  1.6e-166  557.9   1.2   1   1  2.7e-170  1.9e-166  557.7   1.2   460   773     1   338     1   378 0.91 -
JF1A_TRINITY_DN63757_c0_g2_i6.p1JF1A_TRINITY_DN63757_c0_g2  -            401 1589at3193           -           1378  1.1e-131  442.5  13.2   1   2   1.2e-89   8.5e-86  290.5   2.4   138   353     3   242     1   248 0.91 -
JF1A_TRINITY_DN63757_c0_g2_i6.p1JF1A_TRINITY_DN63757_c0_g2  -            401 1589at3193           -           1378  1.1e-131  442.5  13.2   2   2   2.5e-49   1.7e-45  156.9   3.3   352   457   278   400   270   400 0.88 -
JF3J_TRINITY_DN64108_c0_g1_i2.p1JF3J_TRINITY_DN64108_c0_g1  -            163 1589at3193           -           1378   1.1e-72  247.0   0.1   1   1   1.9e-76   1.3e-72  246.8   0.1   670   814     1   158     1   162 0.93 -
JF1A_TRINITY_DN63757_c0_g3_i2.p1JF1A_TRINITY_DN63757_c0_g3  -            207 1589at3193           -           1378   8.3e-63  214.3   6.1   1   1   1.9e-64   1.4e-60  207.0   6.1   787   952     1   204     1   206 0.84 -
JF2A_TRINITY_DN53927_c0_g1_i1.p1JF2A_TRINITY_DN53927_c0_g1  -            110 1589at3193           -           1378   7.3e-41  141.6   0.0   1   1   1.2e-44   8.2e-41  141.4   0.0   111   204     1   102     1   108 0.93 -
JF1A_TRINITY_DN63757_c0_g2_i9.p1JF1A_TRINITY_DN63757_c0_g2  -            164 1589at3193           -           1378   1.5e-31  110.7   1.9   1   2      0.17   1.2e+03   -1.6   0.0  1155  1285    16    39     6    48 0.53 -
JF1A_TRINITY_DN63757_c0_g2_i9.p1JF1A_TRINITY_DN63757_c0_g2  -            164 1589at3193           -           1378   1.5e-31  110.7   1.9   2   2   5.2e-35   3.6e-31  109.5   1.8     4    91    71   164    65   164 0.89 -
JF1A_TRINITY_DN40222_c0_g1_i1.p1JF1A_TRINITY_DN40222_c0_g1  -            110 1589at3193           -           1378   7.5e-21   75.3   0.1   1   1   1.3e-24   9.2e-21   75.0   0.1  1268  1349     1   104     1   109 0.84 -
JF3J_TRINITY_DN67702_c0_g2_i16.p1JF3J_TRINITY_DN67702_c0_g2 -            259 1589at3193           -           1378   1.1e-09   38.3   0.0   1   1   2.1e-13   1.5e-09   37.9   0.0    91   124   226   259   216   259 0.94 -
JF1A_TRINITY_DN31857_c0_g1_i3.p1JF1A_TRINITY_DN31857_c0_g1  -            163 1589at3193           -           1378      0.14   11.4   0.0   1   1   2.4e-05      0.17   11.2   0.0   123   221    27   120    17   145 0.82 -
JF3J_TRINITY_DN66755_c3_g1_i5.p1JF3J_TRINITY_DN66755_c3_g1  -            145 1589at3193           -           1378      0.26   10.5   0.1   1   1     4e-05      0.28   10.4   0.1   857   920    52   114    32   142 0.79 -
#
# Program:         hmmsearch
# Version:         3.2.1 (June 2018)
# Pipeline mode:   SEARCH
# Query file:      /isg/shared/databases/BUSCO/odb10/embryophyta_odb10/hmms/1589at3193.hmm
# Target file:     Juniper_final_annotations_no_contam_lvl0.faa
# Option settings: /usr/local/bin/hmmsearch --domtblout /labs/Wegrzyn/Juniper_Pine/BUSCO/NEW/busco_juniper/run_embryophyta_odb10/hmmer_output/1589at3193.out --cpu 1 /isg/shared/databases/BUSCO/odb10/embryophyta_odb10/hmms/1589at3193.hmm Juniper_final_annotations_no_contam_lvl0.faa 
# Current dir:     /labs/Wegrzyn/Juniper_Pine/BUSCO/NEW
# Date:            Thu Aug  6 16:10:39 2020
# [ok]
