#                                                                                                                  --- full sequence --- -------------- this domain -------------   hmm coord   ali coord   env coord
# target name                                              accession   tlen query name           accession   qlen   E-value  score  bias   #  of  c-Evalue  i-Evalue  score  bias  from    to  from    to  from    to  acc description of target
#                                      ------------------- ---------- ----- -------------------- ---------- ----- --------- ------ ----- --- --- --------- --------- ------ ----- ----- ----- ----- ----- ----- ----- ---- ---------------------
JF3J_TRINITY_DN19024_c0_g1_i2.p1JF3J_TRINITY_DN19024_c0_g1 -            114 159575at3193         -            185   8.6e-08   34.2   0.1   1   1   5.5e-12   9.6e-08   34.0   0.1    98   175    25   105     4   110 0.85 -
JF2A_TRINITY_DN40207_c0_g3_i1.p1JF2A_TRINITY_DN40207_c0_g3 -            123 159575at3193         -            185   0.00074   21.3   0.0   1   1   5.3e-08   0.00092   21.0   0.0    40    95    47   103    40   116 0.88 -
JF1A_TRINITY_DN66807_c0_g2_i1.p1JF1A_TRINITY_DN66807_c0_g2 -            400 159575at3193         -            185    0.0046   18.8   0.0   1   1   4.2e-07    0.0072   18.1   0.0    40    95   307   363   301   390 0.86 -
JF2A_TRINITY_DN41811_c1_g2_i4.p1JF2A_TRINITY_DN41811_c1_g2 -            227 159575at3193         -            185      0.23   13.2   0.5   1   1   1.8e-05      0.31   12.8   0.5    26   144    14   133     3   145 0.87 -
#
# Program:         hmmsearch
# Version:         3.2.1 (June 2018)
# Pipeline mode:   SEARCH
# Query file:      /isg/shared/databases/BUSCO/odb10/embryophyta_odb10/hmms/159575at3193.hmm
# Target file:     Juniper_final_annotations_no_contam_lvl0.faa
# Option settings: /usr/local/bin/hmmsearch --domtblout /labs/Wegrzyn/Juniper_Pine/BUSCO/NEW/busco_juniper/run_embryophyta_odb10/hmmer_output/159575at3193.out --cpu 1 /isg/shared/databases/BUSCO/odb10/embryophyta_odb10/hmms/159575at3193.hmm Juniper_final_annotations_no_contam_lvl0.faa 
# Current dir:     /labs/Wegrzyn/Juniper_Pine/BUSCO/NEW
# Date:            Thu Aug  6 16:10:42 2020
# [ok]
