#                                                                                                                    --- full sequence --- -------------- this domain -------------   hmm coord   ali coord   env coord
# target name                                                accession   tlen query name           accession   qlen   E-value  score  bias   #  of  c-Evalue  i-Evalue  score  bias  from    to  from    to  from    to  acc description of target
#                                        ------------------- ---------- ----- -------------------- ---------- ----- --------- ------ ----- --- --- --------- --------- ------ ----- ----- ----- ----- ----- ----- ----- ---- ---------------------
JF1A_TRINITY_DN66529_c0_g5_i1.p1JF1A_TRINITY_DN66529_c0_g5   -            302 159603at3193         -            237   1.5e-96  324.4   0.0   1   1   3.2e-99     2e-96  324.0   0.0    12   217    78   293    69   297 0.93 -
JF1A_TRINITY_DN60702_c2_g5_i1.p1JF1A_TRINITY_DN60702_c2_g5   -            208 159603at3193         -            237   2.6e-09   38.9   0.2   1   2      0.01       6.1    8.2   0.0    35    60    40    65    35    77 0.87 -
JF1A_TRINITY_DN60702_c2_g5_i1.p1JF1A_TRINITY_DN60702_c2_g5   -            208 159603at3193         -            237   2.6e-09   38.9   0.2   2   2     5e-09   3.1e-06   28.8   0.1   108   201    97   187    83   198 0.85 -
JF1A_TRINITY_DN61915_c1_g1_i1.p1JF1A_TRINITY_DN61915_c1_g1   -            324 159603at3193         -            237     2e-06   29.4   0.1   1   1   4.9e-09     3e-06   28.8   0.1   108   233    47   169    16   172 0.83 -
JF1A_TRINITY_DN64181_c1_g3_i1.p1JF1A_TRINITY_DN64181_c1_g3   -            119 159603at3193         -            237   1.6e-05   26.4   0.1   1   1   3.1e-08   1.9e-05   26.2   0.1   107   198    17   103     3   115 0.83 -
JF1A_TRINITY_DN67671_c1_g1_i2.p1JF1A_TRINITY_DN67671_c1_g1   -            116 159603at3193         -            237   0.00019   22.9   0.0   1   1     4e-07   0.00024   22.6   0.0    12    70    33    94    28   102 0.79 -
JF1A_TRINITY_DN67671_c1_g1_i1.p1JF1A_TRINITY_DN67671_c1_g1   -            120 159603at3193         -            237    0.0002   22.8   0.0   1   1   4.2e-07   0.00026   22.5   0.0    12    70    37    98    31   106 0.79 -
JF1A_TRINITY_DN72095_c0_g1_i1.p1JF1A_TRINITY_DN72095_c0_g1   -            100 159603at3193         -            237   0.00046   21.7   0.0   1   1   8.9e-07   0.00055   21.4   0.0    10    68    18    79    12    87 0.78 -
JF3A_TRINITY_DN29339_c0_g1_i1.p1JF3A_TRINITY_DN29339_c0_g1   -            105 159603at3193         -            237    0.0011   20.4   0.0   1   1     2e-06    0.0012   20.3   0.0    21    63    28    72    15    88 0.84 -
JF1A_TRINITY_DN64470_c5_g2_i2.p1JF1A_TRINITY_DN64470_c5_g2   -            304 159603at3193         -            237    0.0026   19.2   0.1   1   2    0.0071       4.4    8.6   0.0    39    65   176   202   172   213 0.84 -
JF1A_TRINITY_DN64470_c5_g2_i2.p1JF1A_TRINITY_DN64470_c5_g2   -            304 159603at3193         -            237    0.0026   19.2   0.1   2   2    0.0091       5.6    8.3   0.0    39    64   272   297   268   303 0.84 -
JF1A_TRINITY_DN64466_c2_g3_i10.p1JF1A_TRINITY_DN64466_c2_g3  -            471 159603at3193         -            237    0.0028   19.1   0.0   1   1   8.3e-06    0.0051   18.2   0.0    31    69   236   274   214   283 0.83 -
JF1J_TRINITY_DN71478_c0_g2_i1.p1JF1J_TRINITY_DN71478_c0_g2   -            182 159603at3193         -            237    0.0037   18.7   0.0   1   1     1e-05    0.0064   17.9   0.0    29    62   143   176   127   181 0.78 -
JF1A_TRINITY_DN66355_c1_g1_i2.p1JF1A_TRINITY_DN66355_c1_g1   -            201 159603at3193         -            237    0.0066   17.9   0.0   1   1   1.6e-05    0.0099   17.3   0.0    10    58   142   193   137   199 0.77 -
JF2A_TRINITY_DN44013_c0_g1_i1.p1JF2A_TRINITY_DN44013_c0_g1   -            117 159603at3193         -            237    0.0075   17.7   0.0   1   1   2.1e-05     0.013   16.9   0.0    17    71    14    66     7    77 0.78 -
JF1A_TRINITY_DN63589_c0_g1_i13.p1JF1A_TRINITY_DN63589_c0_g1  -            131 159603at3193         -            237    0.0078   17.7   0.4   1   2       2.9   1.8e+03    0.1   0.1    51    66    20    35    15    50 0.77 -
JF1A_TRINITY_DN63589_c0_g1_i13.p1JF1A_TRINITY_DN63589_c0_g1  -            131 159603at3193         -            237    0.0078   17.7   0.4   2   2   5.1e-05     0.031   15.7   0.0    31    62    61    92    44   106 0.78 -
JF1A_TRINITY_DN66654_c0_g1_i7.p1JF1A_TRINITY_DN66654_c0_g1   -            405 159603at3193         -            237    0.0078   17.6   0.1   1   2     0.012       7.1    8.0   0.0    37    68    68    99    59   105 0.84 -
JF1A_TRINITY_DN66654_c0_g1_i7.p1JF1A_TRINITY_DN66654_c0_g1   -            405 159603at3193         -            237    0.0078   17.6   0.1   2   2     0.017        10    7.4   0.0    37    63   163   189   154   200 0.84 -
JF3J_TRINITY_DN73062_c2_g2_i10.p1JF3J_TRINITY_DN73062_c2_g2  -            123 159603at3193         -            237    0.0081   17.6   0.0   1   1   1.5e-05    0.0094   17.4   0.0    30    61    64    95    37   109 0.81 -
JF1A_TRINITY_DN63741_c0_g6_i3.p1JF1A_TRINITY_DN63741_c0_g6   -            119 159603at3193         -            237    0.0081   17.6   0.0   1   1   1.6e-05      0.01   17.3   0.0    33    59    78   104    43   115 0.83 -
JF1A_TRINITY_DN61987_c2_g1_i5.p1JF1A_TRINITY_DN61987_c2_g1   -            393 159603at3193         -            237    0.0083   17.6   0.0   1   1   3.5e-05     0.022   16.2   0.0    28    64   111   147    97   160 0.86 -
JF1A_TRINITY_DN66665_c2_g4_i2.p1JF1A_TRINITY_DN66665_c2_g4   -            232 159603at3193         -            237    0.0084   17.5   0.0   1   1   2.8e-05     0.017   16.5   0.0    29    67   134   171   111   181 0.78 -
JF1J_TRINITY_DN63885_c1_g1_i5.p1JF1J_TRINITY_DN63885_c1_g1   -            238 159603at3193         -            237    0.0084   17.5   0.0   1   1   2.1e-05     0.013   16.9   0.0    27    65    27    66     4    78 0.74 -
JF2A_TRINITY_DN38578_c0_g1_i4.p1JF2A_TRINITY_DN38578_c0_g1   -            377 159603at3193         -            237    0.0086   17.5   0.1   1   2    0.0011      0.69   11.3   0.0    35    59   116   140   100   156 0.83 -
JF2A_TRINITY_DN38578_c0_g1_i4.p1JF2A_TRINITY_DN38578_c0_g1   -            377 159603at3193         -            237    0.0086   17.5   0.1   2   2      0.18   1.1e+02    4.0   0.0   111   166   167   223   162   262 0.79 -
JF1A_TRINITY_DN67671_c1_g1_i4.p1JF1A_TRINITY_DN67671_c1_g1   -            355 159603at3193         -            237    0.0089   17.5   0.0   1   1   2.6e-05     0.016   16.6   0.0    30    72   198   240   183   252 0.78 -
JF3J_TRINITY_DN10429_c0_g1_i1.p1JF3J_TRINITY_DN10429_c0_g1   -            127 159603at3193         -            237     0.011   17.2   0.0   1   1   2.4e-05     0.015   16.8   0.0    17    59    69   113    51   126 0.75 -
JF2A_TRINITY_DN39570_c0_g2_i1.p1JF2A_TRINITY_DN39570_c0_g2   -            128 159603at3193         -            237     0.011   17.1   0.0   1   1   2.5e-05     0.015   16.7   0.0    34    59    21    46     4    64 0.80 -
JF1A_TRINITY_DN67320_c0_g8_i1.p1JF1A_TRINITY_DN67320_c0_g8   -            140 159603at3193         -            237     0.013   17.0   0.0   1   1   2.5e-05     0.015   16.7   0.0    34    69     7    42     1    64 0.82 -
JF1A_TRINITY_DN67075_c0_g2_i1.p1JF1A_TRINITY_DN67075_c0_g2   -            197 159603at3193         -            237     0.013   16.9   0.0   1   1   3.7e-05     0.023   16.1   0.0    21    57    28    64    16    75 0.87 -
JF3A_TRINITY_DN47780_c0_g2_i1.p1JF3A_TRINITY_DN47780_c0_g2   -            104 159603at3193         -            237     0.014   16.9   0.0   1   1   2.5e-05     0.016   16.7   0.0    30    70    44    84    11    94 0.75 -
JF1A_TRINITY_DN67234_c3_g2_i19.p1JF1A_TRINITY_DN67234_c3_g2  -            433 159603at3193         -            237     0.015   16.7   0.0   1   2     0.015       9.1    7.6   0.0    38    65   174   201   162   215 0.81 -
JF1A_TRINITY_DN67234_c3_g2_i19.p1JF1A_TRINITY_DN67234_c3_g2  -            433 159603at3193         -            237     0.015   16.7   0.0   2   2     0.026        16    6.8   0.0    38    60   223   245   213   256 0.84 -
JF3A_TRINITY_DN54735_c0_g2_i8.p1JF3A_TRINITY_DN54735_c0_g2   -            106 159603at3193         -            237     0.016   16.6   0.0   1   1   3.2e-05      0.02   16.3   0.0    40    77    48    85    44    94 0.93 -
JF1A_TRINITY_DN62136_c0_g1_i1.p1JF1A_TRINITY_DN62136_c0_g1   -            413 159603at3193         -            237     0.016   16.6   0.0   1   1   5.8e-05     0.036   15.5   0.0    31    65   176   210   155   222 0.76 -
JF3J_TRINITY_DN70986_c1_g3_i1.p1JF3J_TRINITY_DN70986_c1_g3   -            107 159603at3193         -            237     0.018   16.5   0.0   1   1   4.8e-05      0.03   15.7   0.0    29    58    77   106    55   107 0.75 -
JF1J_TRINITY_DN69033_c1_g2_i11.p1JF1J_TRINITY_DN69033_c1_g2  -            247 159603at3193         -            237     0.018   16.5   0.0   1   1   4.1e-05     0.025   16.0   0.0    34    69   202   237   176   244 0.77 -
JF3J_TRINITY_DN62037_c0_g2_i2.p1JF3J_TRINITY_DN62037_c0_g2   -            471 159603at3193         -            237     0.018   16.5   0.0   1   1   5.2e-05     0.032   15.6   0.0    16    59   101   146    85   165 0.77 -
JF1A_TRINITY_DN61835_c1_g3_i9.p1JF1A_TRINITY_DN61835_c1_g3   -            288 159603at3193         -            237      0.02   16.3   0.4   1   2      0.17   1.1e+02    4.1   0.0    38    54     1    17     1    23 0.90 -
JF1A_TRINITY_DN61835_c1_g3_i9.p1JF1A_TRINITY_DN61835_c1_g3   -            288 159603at3193         -            237      0.02   16.3   0.4   2   2    0.0032       1.9    9.8   0.0    27    58   205   236   196   274 0.70 -
JF1A_TRINITY_DN61750_c1_g5_i1.p1JF1A_TRINITY_DN61750_c1_g5   -            125 159603at3193         -            237      0.02   16.3   0.3   1   1   4.1e-05     0.025   16.0   0.3   155   201    36    83    28   112 0.85 -
JF2A_TRINITY_DN42511_c1_g3_i3.p1JF2A_TRINITY_DN42511_c1_g3   -            184 159603at3193         -            237     0.021   16.3   0.0   1   1   4.9e-05      0.03   15.7   0.0    20    62    46    89    35   101 0.82 -
JF1J_TRINITY_DN67474_c3_g1_i3.p1JF1J_TRINITY_DN67474_c3_g1   -            102 159603at3193         -            237     0.021   16.2   0.0   1   1   4.7e-05     0.029   15.8   0.0     6    63    34    96    29   102 0.74 -
JF1A_TRINITY_DN64466_c2_g3_i13.p1JF1A_TRINITY_DN64466_c2_g3  -            392 159603at3193         -            237     0.021   16.2   0.0   1   1   5.2e-05     0.032   15.6   0.0    31    68   161   198   129   208 0.71 -
JF1A_TRINITY_DN63589_c0_g1_i8.p1JF1A_TRINITY_DN63589_c0_g1   -            238 159603at3193         -            237     0.021   16.2   0.0   1   1   6.4e-05     0.039   15.4   0.0    29    59   192   222   156   235 0.77 -
JF1J_TRINITY_DN70189_c0_g1_i1.p1JF1J_TRINITY_DN70189_c0_g1   -            138 159603at3193         -            237     0.021   16.2   0.0   1   1   4.3e-05     0.026   15.9   0.0    28    65    88   125    63   136 0.74 -
JF1J_TRINITY_DN67489_c2_g1_i1.p1JF1J_TRINITY_DN67489_c2_g1   -            136 159603at3193         -            237     0.021   16.2   0.0   1   1   7.5e-05     0.046   15.1   0.0    34    64    49    79    39    94 0.84 -
JF3A_TRINITY_DN57236_c0_g6_i1.p1JF3A_TRINITY_DN57236_c0_g6   -            218 159603at3193         -            237     0.022   16.2   0.0   1   1   4.8e-05     0.029   15.8   0.0    29    67   119   157    92   179 0.77 -
JF3J_TRINITY_DN65409_c0_g1_i5.p1JF3J_TRINITY_DN65409_c0_g1   -            206 159603at3193         -            237     0.023   16.1   0.0   1   1   4.8e-05      0.03   15.7   0.0    34    76    55    97    36   144 0.83 -
JF1A_TRINITY_DN66510_c1_g6_i2.p1JF1A_TRINITY_DN66510_c1_g6   -            187 159603at3193         -            237     0.024   16.0   0.0   1   1   5.1e-05     0.032   15.7   0.0    29    66    84   120    41   132 0.81 -
JF3J_TRINITY_DN26341_c0_g1_i1.p1JF3J_TRINITY_DN26341_c0_g1   -            110 159603at3193         -            237     0.025   16.0   0.0   1   1     5e-05     0.031   15.7   0.0    25    72    28    75    23    90 0.89 -
JF2A_TRINITY_DN40925_c0_g1_i4.p1JF2A_TRINITY_DN40925_c0_g1   -            355 159603at3193         -            237     0.026   15.9   0.0   1   1     7e-05     0.043   15.2   0.0    16    61    27    71    14    86 0.74 -
JF1J_TRINITY_DN67029_c2_g1_i5.p1JF1J_TRINITY_DN67029_c2_g1   -            160 159603at3193         -            237     0.029   15.8   0.0   1   1   6.8e-05     0.042   15.3   0.0    40    77    80   117    76   131 0.93 -
JF1A_TRINITY_DN66013_c1_g2_i14.p1JF1A_TRINITY_DN66013_c1_g2  -            613 159603at3193         -            237     0.029   15.8   0.0   1   1   9.3e-05     0.057   14.8   0.0    19    68    16    65     8    74 0.79 -
JF2A_TRINITY_DN40925_c0_g2_i2.p1JF2A_TRINITY_DN40925_c0_g2   -            177 159603at3193         -            237      0.03   15.7   0.0   1   1   8.7e-05     0.054   14.9   0.0    18    61    14    59     8    74 0.78 -
JF1J_TRINITY_DN69422_c1_g2_i5.p1JF1J_TRINITY_DN69422_c1_g2   -            156 159603at3193         -            237     0.039   15.3   0.0   1   1   0.00011     0.069   14.5   0.0    34    76    17    59    14    62 0.91 -
JF2A_TRINITY_DN35869_c0_g1_i2.p1JF2A_TRINITY_DN35869_c0_g1   -            303 159603at3193         -            237      0.04   15.3   0.0   1   1    0.0001     0.064   14.7   0.0    19    61   224   266   210   282 0.80 -
JF2A_TRINITY_DN42225_c0_g1_i23.p1JF2A_TRINITY_DN42225_c0_g1  -            422 159603at3193         -            237     0.042   15.3   0.0   1   1   0.00012     0.072   14.5   0.0    33    64   112   143    84   154 0.80 -
JF1A_TRINITY_DN67189_c1_g5_i2.p1JF1A_TRINITY_DN67189_c1_g5   -            150 159603at3193         -            237     0.042   15.2   0.0   1   1   8.1e-05      0.05   15.0   0.0    34    63    95   124    59   139 0.73 -
JF3J_TRINITY_DN72007_c0_g1_i9.p1JF3J_TRINITY_DN72007_c0_g1   -            191 159603at3193         -            237     0.043   15.2   0.0   1   1    0.0001     0.063   14.7   0.0    40    77    96   133    93   142 0.93 -
JF1A_TRINITY_DN66798_c1_g2_i1.p1JF1A_TRINITY_DN66798_c1_g2   -            183 159603at3193         -            237     0.045   15.2   0.0   1   1   0.00011     0.065   14.6   0.0    17    69    47   102    37   109 0.72 -
JF1A_TRINITY_DN65476_c3_g5_i2.p1JF1A_TRINITY_DN65476_c3_g5   -            383 159603at3193         -            237     0.052   15.0   0.0   1   1   0.00013     0.082   14.3   0.0    17    67    98   150    83   162 0.75 -
JF1A_TRINITY_DN63638_c0_g1_i1.p1JF1A_TRINITY_DN63638_c0_g1   -            611 159603at3193         -            237     0.054   14.9   0.0   1   1   0.00018      0.11   13.9   0.0    17    77   251   308   239   315 0.71 -
JF1A_TRINITY_DN65363_c1_g2_i5.p1JF1A_TRINITY_DN65363_c1_g2   -            361 159603at3193         -            237     0.057   14.8   0.0   1   1   0.00028      0.17   13.2   0.0    40    77    21    58    17    67 0.92 -
JF1J_TRINITY_DN67489_c2_g1_i3.p1JF1J_TRINITY_DN67489_c2_g1   -            145 159603at3193         -            237      0.06   14.8   0.0   1   1   0.00023      0.14   13.6   0.0    33    58   105   130    96   135 0.88 -
JF1J_TRINITY_DN66623_c1_g1_i9.p1JF1J_TRINITY_DN66623_c1_g1   -            225 159603at3193         -            237     0.074   14.4   0.0   1   1   0.00016       0.1   14.0   0.0    17    59    69   112    43   139 0.77 -
JF3A_TRINITY_DN51281_c3_g3_i7.p1JF3A_TRINITY_DN51281_c3_g3   -            116 159603at3193         -            237     0.074   14.4   0.0   1   1   0.00023      0.14   13.5   0.0    33    58    80   105    55   113 0.82 -
JF3J_TRINITY_DN63921_c0_g1_i5.p1JF3J_TRINITY_DN63921_c0_g1   -            197 159603at3193         -            237     0.075   14.4   0.0   1   1   0.00017      0.11   13.9   0.0    36    65   129   158   113   170 0.82 -
JF3J_TRINITY_DN62994_c2_g1_i2.p1JF3J_TRINITY_DN62994_c2_g1   -            116 159603at3193         -            237     0.077   14.4   0.0   1   1   0.00017       0.1   14.0   0.0    36    60    72    96    58   111 0.83 -
JF2A_TRINITY_DN39865_c0_g1_i4.p1JF2A_TRINITY_DN39865_c0_g1   -            283 159603at3193         -            237     0.077   14.4   0.0   1   1   0.00019      0.12   13.8   0.0    34    67   142   175   119   185 0.78 -
JF1A_TRINITY_DN62266_c5_g2_i11.p1JF1A_TRINITY_DN62266_c5_g2  -            213 159603at3193         -            237      0.08   14.3   0.0   1   1   0.00022      0.14   13.6   0.0    34    62    34    62    25    75 0.84 -
JF2A_TRINITY_DN4839_c0_g1_i1.p1JF2A_TRINITY_DN4839_c0_g1     -            118 159603at3193         -            237     0.088   14.2   0.0   1   1   0.00017       0.1   14.0   0.0    35    64    38    67    20    81 0.78 -
JF1A_TRINITY_DN61967_c5_g1_i5.p1JF1A_TRINITY_DN61967_c5_g1   -            482 159603at3193         -            237     0.097   14.1   0.0   1   1   0.00039      0.24   12.8   0.0    40    77   259   296   256   305 0.93 -
JF3J_TRINITY_DN65956_c0_g1_i13.p1JF3J_TRINITY_DN65956_c0_g1  -            156 159603at3193         -            237     0.098   14.0   0.0   1   1   0.00027      0.17   13.3   0.0    34    75    89   130    68   133 0.81 -
JF3J_TRINITY_DN63568_c0_g5_i1.p1JF3J_TRINITY_DN63568_c0_g5   -            114 159603at3193         -            237     0.098   14.0   0.0   1   1   0.00022      0.14   13.6   0.0    10    56    64   109    58   113 0.84 -
JF1A_TRINITY_DN68472_c0_g1_i1.p1JF1A_TRINITY_DN68472_c0_g1   -            180 159603at3193         -            237       0.1   14.0   0.0   1   1   0.00023      0.14   13.5   0.0    33    60    53    80    23    99 0.78 -
JF1A_TRINITY_DN67775_c1_g1_i12.p1JF1A_TRINITY_DN67775_c1_g1  -            548 159603at3193         -            237       0.1   14.0   0.0   1   1   0.00032      0.19   13.1   0.0    34    58    79   103    55   119 0.81 -
JF1A_TRINITY_DN64606_c1_g1_i15.p1JF1A_TRINITY_DN64606_c1_g1  -            162 159603at3193         -            237      0.11   13.9   0.0   1   1   0.00024      0.15   13.5   0.0    11    72    68   133    62   140 0.72 -
JF1A_TRINITY_DN68092_c0_g3_i4.p1JF1A_TRINITY_DN68092_c0_g3   -            512 159603at3193         -            237      0.11   13.8   0.0   1   1   0.00031      0.19   13.1   0.0    12    93    87   173    81   187 0.74 -
JF1A_TRINITY_DN62266_c5_g2_i7.p1JF1A_TRINITY_DN62266_c5_g2   -            277 159603at3193         -            237      0.12   13.8   0.0   1   1   0.00033       0.2   13.0   0.0    34    62    34    62    26    75 0.84 -
JF3A_TRINITY_DN57474_c2_g1_i9.p1JF3A_TRINITY_DN57474_c2_g1   -            378 159603at3193         -            237      0.13   13.6   0.0   1   1   0.00036      0.22   12.9   0.0    33    70    50    87    17    97 0.76 -
JF1A_TRINITY_DN68326_c1_g3_i10.p1JF1A_TRINITY_DN68326_c1_g3  -           1141 159603at3193         -            237      0.13   13.6   0.0   1   2     0.099        61    4.9   0.0    36    59   255   278   233   295 0.80 -
JF1A_TRINITY_DN68326_c1_g3_i10.p1JF1A_TRINITY_DN68326_c1_g3  -           1141 159603at3193         -            237      0.13   13.6   0.0   2   2      0.04        25    6.2   0.0    33    53   593   613   576   633 0.81 -
JF1A_TRINITY_DN64606_c1_g1_i17.p1JF1A_TRINITY_DN64606_c1_g1  -            142 159603at3193         -            237      0.15   13.4   0.0   1   1   0.00034      0.21   13.0   0.0    11    61    68   122    62   137 0.70 -
JF1A_TRINITY_DN68610_c2_g1_i4.p1JF1A_TRINITY_DN68610_c2_g1   -            494 159603at3193         -            237      0.15   13.4   0.0   1   1   0.00044      0.27   12.6   0.0    31    60   177   206   152   224 0.71 -
JF1A_TRINITY_DN64466_c0_g1_i1.p1JF1A_TRINITY_DN64466_c0_g1   -            185 159603at3193         -            237      0.17   13.3   0.0   1   1   0.00039      0.24   12.8   0.0    35    76    96   137    72   147 0.81 -
JF1A_TRINITY_DN66224_c0_g6_i1.p1JF1A_TRINITY_DN66224_c0_g6   -            164 159603at3193         -            237      0.17   13.3   0.0   1   1   0.00044      0.27   12.6   0.0    35    66   100   133    83   149 0.76 -
JF1A_TRINITY_DN60776_c1_g11_i1.p1JF1A_TRINITY_DN60776_c1_g11 -            165 159603at3193         -            237      0.19   13.1   0.0   1   1   0.00064      0.39   12.1   0.0    33    57   130   154   110   160 0.81 -
JF2A_TRINITY_DN41592_c3_g1_i4.p1JF2A_TRINITY_DN41592_c3_g1   -            134 159603at3193         -            237      0.19   13.1   0.0   1   1   0.00038      0.23   12.8   0.0    33    71    50    88    19    95 0.68 -
JF1A_TRINITY_DN42546_c0_g1_i1.p1JF1A_TRINITY_DN42546_c0_g1   -            124 159603at3193         -            237       0.2   13.1   0.1   1   1   0.00069      0.42   12.0   0.1    36    56    41    61    29    80 0.84 -
JF1A_TRINITY_DN62266_c5_g5_i1.p1JF1A_TRINITY_DN62266_c5_g5   -            209 159603at3193         -            237       0.2   13.1   0.0   1   1   0.00044      0.27   12.6   0.0    34    68   128   162    96   173 0.80 -
JF1A_TRINITY_DN61864_c2_g1_i13.p1JF1A_TRINITY_DN61864_c2_g1  -            373 159603at3193         -            237      0.21   13.0   0.0   1   1   0.00075      0.46   11.8   0.0    32    59    46    73    19    84 0.78 -
JF2A_TRINITY_DN42511_c1_g3_i1.p1JF2A_TRINITY_DN42511_c1_g3   -            208 159603at3193         -            237      0.21   13.0   0.0   1   1   0.00051      0.31   12.4   0.0    20    60    70   111    60   129 0.81 -
JF1A_TRINITY_DN51062_c0_g1_i1.p1JF1A_TRINITY_DN51062_c0_g1   -            210 159603at3193         -            237      0.23   12.9   0.1   1   1   0.00074      0.45   11.9   0.1    36    57    48    69    42    93 0.84 -
JF1A_TRINITY_DN63320_c0_g1_i1.p1JF1A_TRINITY_DN63320_c0_g1   -            288 159603at3193         -            237      0.23   12.8   0.0   1   1   0.00063      0.39   12.1   0.0    18    63   212   261   196   273 0.71 -
JF2A_TRINITY_DN41722_c2_g1_i1.p1JF2A_TRINITY_DN41722_c2_g1   -            202 159603at3193         -            237      0.24   12.8   0.0   1   1    0.0006      0.37   12.2   0.0    23    63   100   142    84   154 0.75 -
JF3A_TRINITY_DN44520_c0_g1_i3.p1JF3A_TRINITY_DN44520_c0_g1   -            272 159603at3193         -            237      0.26   12.6   0.0   1   1   0.00072      0.45   11.9   0.0    35    59   214   238   197   253 0.83 -
JF2A_TRINITY_DN41275_c0_g1_i1.p1JF2A_TRINITY_DN41275_c0_g1   -            294 159603at3193         -            237      0.27   12.6   0.0   1   1   0.00079      0.48   11.8   0.0    36    59    60    83    48    99 0.85 -
JF1J_TRINITY_DN67277_c3_g2_i3.p1JF1J_TRINITY_DN67277_c3_g2   -            181 159603at3193         -            237      0.27   12.6   0.0   1   1    0.0006      0.37   12.2   0.0    19    58   119   159   101   176 0.73 -
JF2A_TRINITY_DN35129_c0_g1_i1.p1JF2A_TRINITY_DN35129_c0_g1   -            223 159603at3193         -            237      0.28   12.6   0.0   1   1   0.00068      0.42   12.0   0.0    34    64    92   122    58   141 0.80 -
JF1A_TRINITY_DN66666_c0_g4_i2.p1JF1A_TRINITY_DN66666_c0_g4   -            190 159603at3193         -            237      0.28   12.6   0.0   1   1   0.00088      0.54   11.6   0.0    35    72    13    50     7    87 0.79 -
JF1J_TRINITY_DN67736_c2_g1_i2.p1JF1J_TRINITY_DN67736_c2_g1   -            186 159603at3193         -            237      0.29   12.5   0.0   1   1    0.0007      0.43   12.0   0.0    31    57    55    81    36    97 0.83 -
JF1J_TRINITY_DN67736_c2_g1_i1.p1JF1J_TRINITY_DN67736_c2_g1   -            173 159603at3193         -            237      0.29   12.5   0.0   1   1   0.00072      0.44   11.9   0.0    34    57    45    68    26    84 0.84 -
JF2A_TRINITY_DN42082_c1_g1_i2.p1JF2A_TRINITY_DN42082_c1_g1   -            248 159603at3193         -            237      0.32   12.4   0.0   1   1    0.0017         1   10.7   0.0    33    72    60    99    30   106 0.79 -
JF1A_TRINITY_DN68092_c0_g1_i5.p1JF1A_TRINITY_DN68092_c0_g1   -            150 159603at3193         -            237      0.33   12.3   0.0   1   1   0.00065       0.4   12.0   0.0    34    58   113   137    84   150 0.80 -
JF1A_TRINITY_DN60207_c0_g1_i2.p1JF1A_TRINITY_DN60207_c0_g1   -            235 159603at3193         -            237      0.33   12.3   0.0   1   1     0.001      0.62   11.4   0.0    32    63    49    80    17    92 0.80 -
JF2A_TRINITY_DN5434_c0_g1_i1.p1JF2A_TRINITY_DN5434_c0_g1     -            145 159603at3193         -            237      0.33   12.3   0.2   1   1    0.0013      0.82   11.0   0.1    30    57    39    66    35    69 0.90 -
JF3J_TRINITY_DN73178_c5_g1_i2.p1JF3J_TRINITY_DN73178_c5_g1   -            173 159603at3193         -            237      0.34   12.3   0.1   1   1    0.0013      0.79   11.1   0.0    15    67   107   159   100   169 0.77 -
JF3J_TRINITY_DN71672_c1_g2_i13.p1JF3J_TRINITY_DN71672_c1_g2  -            108 159603at3193         -            237      0.35   12.3   0.0   1   1   0.00062      0.38   12.1   0.0    33    59    48    74    19    94 0.69 -
JF1A_TRINITY_DN21242_c0_g1_i1.p1JF1A_TRINITY_DN21242_c0_g1   -            119 159603at3193         -            237      0.37   12.2   0.0   1   1   0.00089      0.55   11.6   0.0    36    67    45    76    37    88 0.74 -
JF3A_TRINITY_DN53363_c3_g3_i1.p1JF3A_TRINITY_DN53363_c3_g3   -            127 159603at3193         -            237      0.42   12.0   0.0   1   1    0.0013      0.78   11.1   0.0    34    61    88   115    58   126 0.76 -
JF1A_TRINITY_DN64134_c0_g1_i4.p1JF1A_TRINITY_DN64134_c0_g1   -            475 159603at3193         -            237      0.43   12.0   0.0   1   1    0.0018       1.1   10.6   0.0    32    59    82   109    59   126 0.77 -
JF1J_TRINITY_DN67465_c0_g1_i5.p2JF1J_TRINITY_DN67465_c0_g1   -            128 159603at3193         -            237      0.44   11.9   0.3   1   2     0.012       7.5    7.9   0.1    28    60    40    72    33    83 0.85 -
JF1J_TRINITY_DN67465_c0_g1_i5.p2JF1J_TRINITY_DN67465_c0_g1   -            128 159603at3193         -            237      0.44   11.9   0.3   2   2      0.61   3.8e+02    2.3   0.0    28    52   101   125    93   127 0.82 -
JF1J_TRINITY_DN63260_c0_g1_i5.p1JF1J_TRINITY_DN63260_c0_g1   -            105 159603at3193         -            237      0.46   11.9   0.0   1   1   0.00085      0.52   11.7   0.0    16    53     9    47     2    65 0.85 -
JF1A_TRINITY_DN66171_c0_g1_i10.p1JF1A_TRINITY_DN66171_c0_g1  -            170 159603at3193         -            237      0.47   11.8   0.0   1   1    0.0013      0.79   11.1   0.0    36    55   112   131    98   150 0.80 -
JF1J_TRINITY_DN58598_c0_g1_i1.p1JF1J_TRINITY_DN58598_c0_g1   -            206 159603at3193         -            237       0.5   11.7   0.3   1   2      0.41   2.5e+02    2.9   0.0   136   231    39   130    22   136 0.71 -
JF1J_TRINITY_DN58598_c0_g1_i1.p1JF1J_TRINITY_DN58598_c0_g1   -            206 159603at3193         -            237       0.5   11.7   0.3   2   2    0.0089       5.5    8.3   0.2    16    52   125   164   121   179 0.68 -
JF1A_TRINITY_DN66977_c0_g1_i16.p1JF1A_TRINITY_DN66977_c0_g1  -            331 159603at3193         -            237      0.57   11.5   0.0   1   1    0.0016      0.99   10.8   0.0    14    53   209   249   204   262 0.89 -
JF2A_TRINITY_DN39732_c0_g1_i1.p1JF2A_TRINITY_DN39732_c0_g1   -            621 159603at3193         -            237      0.72   11.2   0.0   1   2    0.0074       4.6    8.6   0.0    36    54    69    87    56   109 0.81 -
JF2A_TRINITY_DN39732_c0_g1_i1.p1JF2A_TRINITY_DN39732_c0_g1   -            621 159603at3193         -            237      0.72   11.2   0.0   2   2       4.1   2.5e+03   -0.4   0.0   112   165   121   174   114   217 0.82 -
JF3J_TRINITY_DN34798_c0_g1_i1.p2JF3J_TRINITY_DN34798_c0_g1   -            111 159603at3193         -            237      0.87   10.9   0.1   1   2       3.1   1.9e+03    0.0   0.0    23    61    21    58    10    76 0.78 -
JF3J_TRINITY_DN34798_c0_g1_i1.p2JF3J_TRINITY_DN34798_c0_g1   -            111 159603at3193         -            237      0.87   10.9   0.1   2   2    0.0036       2.2    9.6   0.0    29    55    76   102    47   107 0.68 -
JF1J_TRINITY_DN71808_c2_g1_i21.p1JF1J_TRINITY_DN71808_c2_g1  -            189 159603at3193         -            237       1.4   10.3   1.0   1   2       0.4   2.5e+02    2.9   0.1    41    57     1    17     1    34 0.82 -
JF1J_TRINITY_DN71808_c2_g1_i21.p1JF1J_TRINITY_DN71808_c2_g1  -            189 159603at3193         -            237       1.4   10.3   1.0   2   2     0.029        18    6.7   0.1    38    57    53    72    19    91 0.77 -
#
# Program:         hmmsearch
# Version:         3.2.1 (June 2018)
# Pipeline mode:   SEARCH
# Query file:      /isg/shared/databases/BUSCO/odb10/embryophyta_odb10/hmms/159603at3193.hmm
# Target file:     Juniper_final_annotations_no_contam_lvl0.faa
# Option settings: /usr/local/bin/hmmsearch --domtblout /labs/Wegrzyn/Juniper_Pine/BUSCO/NEW/busco_juniper/run_embryophyta_odb10/hmmer_output/159603at3193.out --cpu 1 /isg/shared/databases/BUSCO/odb10/embryophyta_odb10/hmms/159603at3193.hmm Juniper_final_annotations_no_contam_lvl0.faa 
# Current dir:     /labs/Wegrzyn/Juniper_Pine/BUSCO/NEW
# Date:            Thu Aug  6 16:10:43 2020
# [ok]
