#                                                                                                                  --- full sequence --- -------------- this domain -------------   hmm coord   ali coord   env coord
# target name                                              accession   tlen query name           accession   qlen   E-value  score  bias   #  of  c-Evalue  i-Evalue  score  bias  from    to  from    to  from    to  acc description of target
#                                      ------------------- ---------- ----- -------------------- ---------- ----- --------- ------ ----- --- --- --------- --------- ------ ----- ----- ----- ----- ----- ----- ----- ---- ---------------------
JF1A_TRINITY_DN59812_c0_g1_i2.p1JF1A_TRINITY_DN59812_c0_g1 -            303 161183at3193         -            240   3.2e-99  332.9   0.2   1   1  1.2e-103   4.1e-99  332.5   0.2    26   240    68   287    44   287 0.92 -
JF2J_TRINITY_DN29141_c1_g1_i1.p1JF2J_TRINITY_DN29141_c1_g1 -            142 161183at3193         -            240      0.15   13.1   0.1   1   2     4e-05       1.4    9.9   0.0    74   102    23    51    20    56 0.92 -
JF2J_TRINITY_DN29141_c1_g1_i1.p1JF2J_TRINITY_DN29141_c1_g1 -            142 161183at3193         -            240      0.15   13.1   0.1   2   2     0.024   8.4e+02    0.8   0.0    81    99    86   104    78   106 0.89 -
#
# Program:         hmmsearch
# Version:         3.2.1 (June 2018)
# Pipeline mode:   SEARCH
# Query file:      /isg/shared/databases/BUSCO/odb10/embryophyta_odb10/hmms/161183at3193.hmm
# Target file:     Juniper_final_annotations_no_contam_lvl0.faa
# Option settings: /usr/local/bin/hmmsearch --domtblout /labs/Wegrzyn/Juniper_Pine/BUSCO/NEW/busco_juniper/run_embryophyta_odb10/hmmer_output/161183at3193.out --cpu 1 /isg/shared/databases/BUSCO/odb10/embryophyta_odb10/hmms/161183at3193.hmm Juniper_final_annotations_no_contam_lvl0.faa 
# Current dir:     /labs/Wegrzyn/Juniper_Pine/BUSCO/NEW
# Date:            Thu Aug  6 16:10:47 2020
# [ok]
