#                                                                                                                    --- full sequence --- -------------- this domain -------------   hmm coord   ali coord   env coord
# target name                                                accession   tlen query name           accession   qlen   E-value  score  bias   #  of  c-Evalue  i-Evalue  score  bias  from    to  from    to  from    to  acc description of target
#                                        ------------------- ---------- ----- -------------------- ---------- ----- --------- ------ ----- --- --- --------- --------- ------ ----- ----- ----- ----- ----- ----- ----- ---- ---------------------
JF3A_TRINITY_DN50649_c4_g1_i2.p1JF3A_TRINITY_DN50649_c4_g1   -            154 161520at3193         -            224   1.9e-14   55.8   3.2   1   1   1.7e-17   1.3e-13   53.0   3.2     6    91    19   133    12   142 0.71 -
JF1A_TRINITY_DN60924_c1_g1_i1.p1JF1A_TRINITY_DN60924_c1_g1   -            366 161520at3193         -            224    0.0082   17.7   0.2   1   2    0.0031        24    6.4   0.0   145   169   116   140   109   172 0.85 -
JF1A_TRINITY_DN60924_c1_g1_i1.p1JF1A_TRINITY_DN60924_c1_g1   -            366 161520at3193         -            224    0.0082   17.7   0.2   2   2   0.00055       4.3    8.8   0.0   153   203   215   261   208   299 0.88 -
JF1A_TRINITY_DN68378_c1_g2_i11.p1JF1A_TRINITY_DN68378_c1_g2  -            447 161520at3193         -            224     0.054   15.0   0.1   1   2   0.00025       1.9   10.0   0.0   105   138   150   183   141   192 0.86 -
JF1A_TRINITY_DN68378_c1_g2_i11.p1JF1A_TRINITY_DN68378_c1_g2  -            447 161520at3193         -            224     0.054   15.0   0.1   2   2     0.041   3.2e+02    2.7   0.0    38    83   266   315   260   320 0.81 -
JF1A_TRINITY_DN67991_c1_g1_i12.p1JF1A_TRINITY_DN67991_c1_g1  -            256 161520at3193         -            224     0.067   14.7   0.0   1   1   1.3e-05       0.1   14.1   0.0   153   200    48    91    44    97 0.88 -
JF3J_TRINITY_DN74087_c1_g1_i1.p1JF3J_TRINITY_DN74087_c1_g1   -            101 161520at3193         -            224      0.13   13.7   0.0   1   1   2.4e-05      0.18   13.3   0.0   105   138    16    49    11    58 0.86 -
JF1A_TRINITY_DN64334_c0_g1_i7.p1JF1A_TRINITY_DN64334_c0_g1   -            426 161520at3193         -            224       0.2   13.2   0.1   1   1   4.9e-05      0.38   12.3   0.1   150   214   108   169   100   173 0.87 -
JF1A_TRINITY_DN68378_c1_g2_i9.p1JF1A_TRINITY_DN68378_c1_g2   -            117 161520at3193         -            224       0.4   12.2   0.0   1   1   6.7e-05      0.52   11.8   0.0   107   138     3    34     1    43 0.85 -
JF1J_TRINITY_DN62907_c1_g1_i1.p1JF1J_TRINITY_DN62907_c1_g1   -            114 161520at3193         -            224      0.42   12.1   0.0   1   1   6.7e-05      0.52   11.8   0.0   153   200    31    74    26    94 0.88 -
JF1A_TRINITY_DN61413_c0_g12_i1.p1JF1A_TRINITY_DN61413_c0_g12 -            248 161520at3193         -            224      0.89   11.0   0.0   1   1   0.00017       1.3   10.5   0.0   151   205   178   229   165   244 0.87 -
#
# Program:         hmmsearch
# Version:         3.2.1 (June 2018)
# Pipeline mode:   SEARCH
# Query file:      /isg/shared/databases/BUSCO/odb10/embryophyta_odb10/hmms/161520at3193.hmm
# Target file:     Juniper_final_annotations_no_contam_lvl0.faa
# Option settings: /usr/local/bin/hmmsearch --domtblout /labs/Wegrzyn/Juniper_Pine/BUSCO/NEW/busco_juniper/run_embryophyta_odb10/hmmer_output/161520at3193.out --cpu 1 /isg/shared/databases/BUSCO/odb10/embryophyta_odb10/hmms/161520at3193.hmm Juniper_final_annotations_no_contam_lvl0.faa 
# Current dir:     /labs/Wegrzyn/Juniper_Pine/BUSCO/NEW
# Date:            Thu Aug  6 16:10:47 2020
# [ok]
