#                                                                                                                  --- full sequence --- -------------- this domain -------------   hmm coord   ali coord   env coord
# target name                                              accession   tlen query name           accession   qlen   E-value  score  bias   #  of  c-Evalue  i-Evalue  score  bias  from    to  from    to  from    to  acc description of target
#                                      ------------------- ---------- ----- -------------------- ---------- ----- --------- ------ ----- --- --- --------- --------- ------ ----- ----- ----- ----- ----- ----- ----- ---- ---------------------
JF1A_TRINITY_DN62154_c0_g1_i1.p1JF1A_TRINITY_DN62154_c0_g1 -            377 16160at3193          -            650   2.7e-85  288.8   6.6   1   2   2.4e-32   9.2e-29  102.0   0.3   330   442    53   165    45   200 0.91 -
JF1A_TRINITY_DN62154_c0_g1_i1.p1JF1A_TRINITY_DN62154_c0_g1 -            377 16160at3193          -            650   2.7e-85  288.8   6.6   2   2   7.7e-59     3e-55  189.5   2.1   442   610   207   376   175   377 0.83 -
JF1A_TRINITY_DN67196_c2_g3_i2.p1JF1A_TRINITY_DN67196_c2_g3 -            299 16160at3193          -            650   7.4e-63  214.6   0.1   1   1   2.4e-66   9.3e-63  214.3   0.1    18   259    40   296    22   299 0.86 -
JF1A_TRINITY_DN65025_c0_g1_i2.p1JF1A_TRINITY_DN65025_c0_g1 -            446 16160at3193          -            650   9.6e-52  177.9  10.2   1   3   3.2e-19   1.2e-15   58.6   0.1   294   342    50    98    39   112 0.93 -
JF1A_TRINITY_DN65025_c0_g1_i2.p1JF1A_TRINITY_DN65025_c0_g1 -            446 16160at3193          -            650   9.6e-52  177.9  10.2   2   3   2.5e-28   9.6e-25   88.7   0.0   349   440   238   329   213   336 0.86 -
JF1A_TRINITY_DN65025_c0_g1_i2.p1JF1A_TRINITY_DN65025_c0_g1 -            446 16160at3193          -            650   9.6e-52  177.9  10.2   3   3   1.7e-11   6.7e-08   33.1   3.7   451   521   370   445   358   445 0.77 -
JF3J_TRINITY_DN62876_c1_g2_i4.p1JF3J_TRINITY_DN62876_c1_g2 -            108 16160at3193          -            650   4.7e-20   73.2   0.3   1   1   1.3e-23   4.8e-20   73.2   0.3   356   455     1   103     1   107 0.79 -
JF1A_TRINITY_DN67196_c2_g3_i1.p1JF1A_TRINITY_DN67196_c2_g3 -            149 16160at3193          -            650   4.2e-19   70.1   0.0   1   1   1.2e-22   4.6e-19   69.9   0.0   134   259    13   146     7   149 0.86 -
JF1A_TRINITY_DN65025_c0_g1_i5.p1JF1A_TRINITY_DN65025_c0_g1 -            117 16160at3193          -            650   4.5e-17   63.4   0.5   1   2      0.25   9.7e+02   -0.5   0.0   377   396     4    24     1    34 0.80 -
JF1A_TRINITY_DN65025_c0_g1_i5.p1JF1A_TRINITY_DN65025_c0_g1 -            117 16160at3193          -            650   4.5e-17   63.4   0.5   2   2   3.1e-20   1.2e-16   62.0   0.1   294   342    50    98    38   104 0.92 -
JF1J_TRINITY_DN39231_c0_g1_i1.p1JF1J_TRINITY_DN39231_c0_g1 -            104 16160at3193          -            650   7.5e-17   62.6   0.1   1   1   2.2e-20   8.3e-17   62.5   0.1   294   342    29    77    17    88 0.92 -
JF1A_TRINITY_DN65025_c0_g4_i1.p1JF1A_TRINITY_DN65025_c0_g4 -            240 16160at3193          -            650   2.3e-16   61.1   0.1   1   2   7.5e-18   2.9e-14   54.1   0.0   517   616    11   121     5   127 0.89 -
JF1A_TRINITY_DN65025_c0_g4_i1.p1JF1A_TRINITY_DN65025_c0_g4 -            240 16160at3193          -            650   2.3e-16   61.1   0.1   2   2    0.0037        14    5.6   0.0   609   648   139   177   120   179 0.71 -
JF1A_TRINITY_DN68072_c1_g1_i3.p1JF1A_TRINITY_DN68072_c1_g1 -            189 16160at3193          -            650   3.9e-13   50.4   0.0   1   2   2.7e-12     1e-08   35.7   0.0   128   204     1    89     1    99 0.72 -
JF1A_TRINITY_DN68072_c1_g1_i3.p1JF1A_TRINITY_DN68072_c1_g1 -            189 16160at3193          -            650   3.9e-13   50.4   0.0   2   2   2.4e-05     0.092   12.8   0.0   210   259   135   184   113   189 0.81 -
JF2A_TRINITY_DN41176_c1_g2_i2.p1JF2A_TRINITY_DN41176_c1_g2 -            116 16160at3193          -            650   5.5e-12   46.6   1.0   1   2   8.4e-09   3.2e-05   24.2   0.1   312   342    11    41     6    44 0.91 -
JF2A_TRINITY_DN41176_c1_g2_i2.p1JF2A_TRINITY_DN41176_c1_g2 -            116 16160at3193          -            650   5.5e-12   46.6   1.0   2   2   3.6e-08   0.00014   22.1   0.1   549   605    42    98    40   111 0.92 -
JF3J_TRINITY_DN62563_c4_g3_i6.p1JF3J_TRINITY_DN62563_c4_g3 -            209 16160at3193          -            650   1.9e-11   44.8   0.0   1   1     7e-15   2.7e-11   44.3   0.0   122   204     1    95     1   106 0.74 -
JF1A_TRINITY_DN65025_c0_g2_i6.p1JF1A_TRINITY_DN65025_c0_g2 -            206 16160at3193          -            650   4.5e-11   43.6   0.0   1   1   1.6e-14   6.1e-11   43.1   0.0    23   102   123   202   107   205 0.90 -
JF1J_TRINITY_DN53924_c0_g1_i1.p1JF1J_TRINITY_DN53924_c0_g1 -            121 16160at3193          -            650   2.4e-10   41.2   0.1   1   1   7.3e-14   2.8e-10   40.9   0.1   298   338    80   120    68   121 0.93 -
JF1A_TRINITY_DN65025_c0_g5_i4.p1JF1A_TRINITY_DN65025_c0_g5 -            435 16160at3193          -            650   0.00023   21.4   0.1   1   1   8.1e-08   0.00031   20.9   0.1    67   148   324   407   288   429 0.84 -
JF1A_TRINITY_DN67392_c0_g2_i3.p1JF1A_TRINITY_DN67392_c0_g2 -            329 16160at3193          -            650    0.0064   16.6   0.3   1   1   2.4e-06    0.0092   16.1   0.3   493   548    46   101    36   109 0.90 -
JF1J_TRINITY_DN72834_c1_g1_i1.p1JF1J_TRINITY_DN72834_c1_g1 -            103 16160at3193          -            650     0.017   15.2   0.5   1   1   5.6e-06     0.021   14.9   0.5   412   468    10    66     6    76 0.79 -
JF3A_TRINITY_DN2823_c0_g1_i1.p1JF3A_TRINITY_DN2823_c0_g1   -            139 16160at3193          -            650     0.052   13.6   0.0   1   1   1.6e-05     0.061   13.4   0.0    89   146    58   116    43   127 0.87 -
JF1J_TRINITY_DN65193_c4_g2_i1.p1JF1J_TRINITY_DN65193_c4_g2 -            108 16160at3193          -            650      0.15   12.1   0.2   1   1   4.8e-05      0.19   11.8   0.2    57   110     8    62     5    72 0.78 -
#
# Program:         hmmsearch
# Version:         3.2.1 (June 2018)
# Pipeline mode:   SEARCH
# Query file:      /isg/shared/databases/BUSCO/odb10/embryophyta_odb10/hmms/16160at3193.hmm
# Target file:     Juniper_final_annotations_no_contam_lvl0.faa
# Option settings: /usr/local/bin/hmmsearch --domtblout /labs/Wegrzyn/Juniper_Pine/BUSCO/NEW/busco_juniper/run_embryophyta_odb10/hmmer_output/16160at3193.out --cpu 1 /isg/shared/databases/BUSCO/odb10/embryophyta_odb10/hmms/16160at3193.hmm Juniper_final_annotations_no_contam_lvl0.faa 
# Current dir:     /labs/Wegrzyn/Juniper_Pine/BUSCO/NEW
# Date:            Thu Aug  6 16:10:48 2020
# [ok]
