#                                                                                                                   --- full sequence --- -------------- this domain -------------   hmm coord   ali coord   env coord
# target name                                               accession   tlen query name           accession   qlen   E-value  score  bias   #  of  c-Evalue  i-Evalue  score  bias  from    to  from    to  from    to  acc description of target
#                                       ------------------- ---------- ----- -------------------- ---------- ----- --------- ------ ----- --- --- --------- --------- ------ ----- ----- ----- ----- ----- ----- ----- ---- ---------------------
JF1J_TRINITY_DN61749_c0_g1_i6.p1JF1J_TRINITY_DN61749_c0_g1  -            236 162373at3193         -            183   7.6e-95  317.5   0.0   1   1   5.7e-99   9.9e-95  317.1   0.0     1   182    40   225    40   226 0.98 -
JF1J_TRINITY_DN61749_c0_g1_i4.p1JF1J_TRINITY_DN61749_c0_g1  -            171 162373at3193         -            183   8.7e-58  196.7   0.1   1   1   7.2e-62   1.3e-57  196.2   0.1     1   108    40   150    40   162 0.95 -
JF1A_TRINITY_DN63333_c2_g2_i13.p1JF1A_TRINITY_DN63333_c2_g2 -            133 162373at3193         -            183   9.8e-08   33.5   0.1   1   1   8.2e-12   1.4e-07   33.0   0.1     1    24    21    44    21    50 0.95 -
JF3A_TRINITY_DN59439_c3_g2_i1.p2JF3A_TRINITY_DN59439_c3_g2  -            103 162373at3193         -            183      0.11   13.8   0.0   1   2   0.00074        13    7.1   0.0    77   103    22    48     8    66 0.79 -
JF3A_TRINITY_DN59439_c3_g2_i1.p2JF3A_TRINITY_DN59439_c3_g2  -            103 162373at3193         -            183      0.11   13.8   0.0   2   2    0.0024        41    5.4   0.0    73   103    62    95    52    99 0.77 -
#
# Program:         hmmsearch
# Version:         3.2.1 (June 2018)
# Pipeline mode:   SEARCH
# Query file:      /isg/shared/databases/BUSCO/odb10/embryophyta_odb10/hmms/162373at3193.hmm
# Target file:     Juniper_final_annotations_no_contam_lvl0.faa
# Option settings: /usr/local/bin/hmmsearch --domtblout /labs/Wegrzyn/Juniper_Pine/BUSCO/NEW/busco_juniper/run_embryophyta_odb10/hmmer_output/162373at3193.out --cpu 1 /isg/shared/databases/BUSCO/odb10/embryophyta_odb10/hmms/162373at3193.hmm Juniper_final_annotations_no_contam_lvl0.faa 
# Current dir:     /labs/Wegrzyn/Juniper_Pine/BUSCO/NEW
# Date:            Thu Aug  6 16:10:59 2020
# [ok]
