#                                                                                                                  --- full sequence --- -------------- this domain -------------   hmm coord   ali coord   env coord
# target name                                              accession   tlen query name           accession   qlen   E-value  score  bias   #  of  c-Evalue  i-Evalue  score  bias  from    to  from    to  from    to  acc description of target
#                                      ------------------- ---------- ----- -------------------- ---------- ----- --------- ------ ----- --- --- --------- --------- ------ ----- ----- ----- ----- ----- ----- ----- ---- ---------------------
JF1A_TRINITY_DN62124_c3_g2_i3.p1JF1A_TRINITY_DN62124_c3_g2 -            175 163507at3193         -            158   2.2e-05   26.0   0.5   1   1     6e-09   0.00014   23.4   0.5     1    52    95   158    95   161 0.79 -
JF1A_TRINITY_DN66341_c1_g8_i1.p1JF1A_TRINITY_DN66341_c1_g8 -            126 163507at3193         -            158   5.7e-05   24.7   0.4   1   1   4.7e-09   0.00011   23.8   0.4    51   134     3    79     1    86 0.87 -
JF3A_TRINITY_DN4419_c0_g1_i1.p1JF3A_TRINITY_DN4419_c0_g1   -            116 163507at3193         -            158      0.19   13.2   0.0   1   1   9.7e-06      0.22   13.0   0.0    23    80    36    92     9   105 0.89 -
#
# Program:         hmmsearch
# Version:         3.2.1 (June 2018)
# Pipeline mode:   SEARCH
# Query file:      /isg/shared/databases/BUSCO/odb10/embryophyta_odb10/hmms/163507at3193.hmm
# Target file:     Juniper_final_annotations_no_contam_lvl0.faa
# Option settings: /usr/local/bin/hmmsearch --domtblout /labs/Wegrzyn/Juniper_Pine/BUSCO/NEW/busco_juniper/run_embryophyta_odb10/hmmer_output/163507at3193.out --cpu 1 /isg/shared/databases/BUSCO/odb10/embryophyta_odb10/hmms/163507at3193.hmm Juniper_final_annotations_no_contam_lvl0.faa 
# Current dir:     /labs/Wegrzyn/Juniper_Pine/BUSCO/NEW
# Date:            Thu Aug  6 16:11:08 2020
# [ok]
