#                                                                                                                  --- full sequence --- -------------- this domain -------------   hmm coord   ali coord   env coord
# target name                                              accession   tlen query name           accession   qlen   E-value  score  bias   #  of  c-Evalue  i-Evalue  score  bias  from    to  from    to  from    to  acc description of target
#                                      ------------------- ---------- ----- -------------------- ---------- ----- --------- ------ ----- --- --- --------- --------- ------ ----- ----- ----- ----- ----- ----- ----- ---- ---------------------
JF2A_TRINITY_DN18596_c0_g1_i1.p1JF2A_TRINITY_DN18596_c0_g1 -            147 164589at3193         -            163   3.1e-76  256.8   2.3   1   1     2e-80   3.5e-76  256.6   2.3     1   135     2   147     2   147 0.94 -
JF1J_TRINITY_DN13725_c0_g1_i1.p1JF1J_TRINITY_DN13725_c0_g1 -            119 164589at3193         -            163   7.9e-51  174.2   4.2   1   2     1e-31   1.8e-27   98.2   0.3    58   113     6    67     2    68 0.89 -
JF1J_TRINITY_DN13725_c0_g1_i1.p1JF1J_TRINITY_DN13725_c0_g1 -            119 164589at3193         -            163   7.9e-51  174.2   4.2   2   2   9.4e-26   1.6e-21   78.8   0.5    11    59    68   116    67   119 0.96 -
JF1A_TRINITY_DN61754_c6_g1_i2.p1JF1A_TRINITY_DN61754_c6_g1 -            389 164589at3193         -            163    0.0043   19.0   0.0   1   2       1.4   2.5e+04   -3.0   0.0   118   129   226   237   214   252 0.57 -
JF1A_TRINITY_DN61754_c6_g1_i2.p1JF1A_TRINITY_DN61754_c6_g1 -            389 164589at3193         -            163    0.0043   19.0   0.0   2   2   7.7e-07     0.013   17.3   0.0     4   111   263   386   260   388 0.74 -
JF1A_TRINITY_DN61634_c5_g1_i1.p1JF1A_TRINITY_DN61634_c5_g1 -            424 164589at3193         -            163      0.04   15.8   0.0   1   1   9.8e-06      0.17   13.7   0.0     4   122   271   405   269   419 0.69 -
#
# Program:         hmmsearch
# Version:         3.2.1 (June 2018)
# Pipeline mode:   SEARCH
# Query file:      /isg/shared/databases/BUSCO/odb10/embryophyta_odb10/hmms/164589at3193.hmm
# Target file:     Juniper_final_annotations_no_contam_lvl0.faa
# Option settings: /usr/local/bin/hmmsearch --domtblout /labs/Wegrzyn/Juniper_Pine/BUSCO/NEW/busco_juniper/run_embryophyta_odb10/hmmer_output/164589at3193.out --cpu 1 /isg/shared/databases/BUSCO/odb10/embryophyta_odb10/hmms/164589at3193.hmm Juniper_final_annotations_no_contam_lvl0.faa 
# Current dir:     /labs/Wegrzyn/Juniper_Pine/BUSCO/NEW
# Date:            Thu Aug  6 16:11:13 2020
# [ok]
