#                                                                                                                   --- full sequence --- -------------- this domain -------------   hmm coord   ali coord   env coord
# target name                                               accession   tlen query name           accession   qlen   E-value  score  bias   #  of  c-Evalue  i-Evalue  score  bias  from    to  from    to  from    to  acc description of target
#                                       ------------------- ---------- ----- -------------------- ---------- ----- --------- ------ ----- --- --- --------- --------- ------ ----- ----- ----- ----- ----- ----- ----- ---- ---------------------
JF1A_TRINITY_DN67209_c1_g1_i5.p1JF1A_TRINITY_DN67209_c1_g1  -            700 165991at3193         -            246   3.7e-34  120.1   2.8   1   2   5.6e-35   4.9e-31  109.9   3.3     1   246   311   584   311   584 0.81 -
JF1A_TRINITY_DN67209_c1_g1_i5.p1JF1A_TRINITY_DN67209_c1_g1  -            700 165991at3193         -            246   3.7e-34  120.1   2.8   2   2    0.0074        64    4.7   0.0   152   223   623   697   613   699 0.80 -
JF1A_TRINITY_DN67630_c1_g1_i11.p1JF1A_TRINITY_DN67630_c1_g1 -            359 165991at3193         -            246   9.2e-33  115.6   0.1   1   2   4.1e-32   3.5e-28  100.6   0.0    45   221    19   197     6   221 0.81 -
JF1A_TRINITY_DN67630_c1_g1_i11.p1JF1A_TRINITY_DN67630_c1_g1 -            359 165991at3193         -            246   9.2e-33  115.6   0.1   2   2   2.1e-05      0.18   13.1   0.0   152   226   260   337   238   352 0.77 -
JF1A_TRINITY_DN59596_c0_g2_i5.p1JF1A_TRINITY_DN59596_c0_g2  -            171 165991at3193         -            246   2.2e-18   68.5   0.1   1   2   3.2e-09   2.8e-05   25.6   0.0   104   157     2    58     1    65 0.86 -
JF1A_TRINITY_DN59596_c0_g2_i5.p1JF1A_TRINITY_DN59596_c0_g2  -            171 165991at3193         -            246   2.2e-18   68.5   0.1   2   2     4e-14   3.4e-10   41.7   0.0     4   109    63   171    60   171 0.79 -
JF1A_TRINITY_DN59596_c0_g2_i7.p1JF1A_TRINITY_DN59596_c0_g2  -            183 165991at3193         -            246   8.1e-17   63.4   0.1   1   1   1.4e-20   1.2e-16   62.8   0.1   104   246     2   144     1   144 0.91 -
JF1J_TRINITY_DN63059_c4_g3_i7.p1JF1J_TRINITY_DN63059_c4_g3  -            122 165991at3193         -            246   5.3e-12   47.6   0.0   1   1   7.4e-16   6.4e-12   47.3   0.0    84   165    22   106    16   115 0.90 -
JF1A_TRINITY_DN59596_c0_g2_i4.p1JF1A_TRINITY_DN59596_c0_g2  -            224 165991at3193         -            246   2.3e-11   45.5   1.4   1   2      0.01        90    4.3   1.0     2    28    89   115    88   128 0.72 -
JF1A_TRINITY_DN59596_c0_g2_i4.p1JF1A_TRINITY_DN59596_c0_g2  -            224 165991at3193         -            246   2.3e-11   45.5   1.4   2   2   8.1e-14     7e-10   40.6   0.0     4   109   116   224   113   224 0.78 -
JF1J_TRINITY_DN63059_c4_g3_i6.p1JF1J_TRINITY_DN63059_c4_g3  -            212 165991at3193         -            246     0.001   20.5   0.1   1   2     4e-05      0.35   12.2   0.0   187   221    47    81    29   105 0.63 -
JF1J_TRINITY_DN63059_c4_g3_i6.p1JF1J_TRINITY_DN63059_c4_g3  -            212 165991at3193         -            246     0.001   20.5   0.1   2   2    0.0022        19    6.5   0.0   152   186   144   179   119   184 0.82 -
JF1J_TRINITY_DN63059_c4_g3_i4.p1JF1J_TRINITY_DN63059_c4_g3  -            107 165991at3193         -            246      0.18   13.1   0.1   1   1   2.3e-05       0.2   12.9   0.1   152   203    40    95    20   103 0.75 -
#
# Program:         hmmsearch
# Version:         3.2.1 (June 2018)
# Pipeline mode:   SEARCH
# Query file:      /isg/shared/databases/BUSCO/odb10/embryophyta_odb10/hmms/165991at3193.hmm
# Target file:     Juniper_final_annotations_no_contam_lvl0.faa
# Option settings: /usr/local/bin/hmmsearch --domtblout /labs/Wegrzyn/Juniper_Pine/BUSCO/NEW/busco_juniper/run_embryophyta_odb10/hmmer_output/165991at3193.out --cpu 1 /isg/shared/databases/BUSCO/odb10/embryophyta_odb10/hmms/165991at3193.hmm Juniper_final_annotations_no_contam_lvl0.faa 
# Current dir:     /labs/Wegrzyn/Juniper_Pine/BUSCO/NEW
# Date:            Thu Aug  6 16:11:20 2020
# [ok]
