#                                                                                                                  --- full sequence --- -------------- this domain -------------   hmm coord   ali coord   env coord
# target name                                              accession   tlen query name           accession   qlen   E-value  score  bias   #  of  c-Evalue  i-Evalue  score  bias  from    to  from    to  from    to  acc description of target
#                                      ------------------- ---------- ----- -------------------- ---------- ----- --------- ------ ----- --- --- --------- --------- ------ ----- ----- ----- ----- ----- ----- ----- ---- ---------------------
JF2A_TRINITY_DN22654_c0_g1_i2.p1JF2A_TRINITY_DN22654_c0_g1 -            178 166043at3193         -            192   1.4e-71  242.1   0.0   1   1   1.3e-75   1.5e-71  242.0   0.0    38   192     6   172     1   172 0.93 -
JF1A_TRINITY_DN64222_c1_g6_i2.p1JF1A_TRINITY_DN64222_c1_g6 -            172 166043at3193         -            192     5e-33  116.3   0.1   1   1     5e-37   5.8e-33  116.1   0.1     2   126    31   172    30   172 0.88 -
JF3J_TRINITY_DN493_c0_g1_i1.p1JF3J_TRINITY_DN493_c0_g1     -            127 166043at3193         -            192   3.4e-31  110.4   0.0   1   1   4.2e-35   4.8e-31  109.9   0.0     1    71    48   124    48   126 0.97 -
JF1A_TRINITY_DN41993_c0_g1_i1.p1JF1A_TRINITY_DN41993_c0_g1 -            104 166043at3193         -            192    0.0071   18.0   0.1   1   1   8.1e-07    0.0094   17.6   0.1   136   178    30    72    25    80 0.89 -
JF1A_TRINITY_DN64083_c0_g4_i3.p1JF1A_TRINITY_DN64083_c0_g4 -            139 166043at3193         -            192      0.21   13.2   0.0   1   1   2.2e-05      0.26   12.9   0.0    98   177    22   105     5   112 0.81 -
JF1J_TRINITY_DN1911_c0_g1_i1.p1JF1J_TRINITY_DN1911_c0_g1   -            100 166043at3193         -            192      0.61   11.7   0.0   1   1   5.7e-05      0.66   11.5   0.0    50   103    25    78    11    92 0.82 -
#
# Program:         hmmsearch
# Version:         3.2.1 (June 2018)
# Pipeline mode:   SEARCH
# Query file:      /isg/shared/databases/BUSCO/odb10/embryophyta_odb10/hmms/166043at3193.hmm
# Target file:     Juniper_final_annotations_no_contam_lvl0.faa
# Option settings: /usr/local/bin/hmmsearch --domtblout /labs/Wegrzyn/Juniper_Pine/BUSCO/NEW/busco_juniper/run_embryophyta_odb10/hmmer_output/166043at3193.out --cpu 1 /isg/shared/databases/BUSCO/odb10/embryophyta_odb10/hmms/166043at3193.hmm Juniper_final_annotations_no_contam_lvl0.faa 
# Current dir:     /labs/Wegrzyn/Juniper_Pine/BUSCO/NEW
# Date:            Thu Aug  6 16:11:21 2020
# [ok]
