#                                                                                                                  --- full sequence --- -------------- this domain -------------   hmm coord   ali coord   env coord
# target name                                              accession   tlen query name           accession   qlen   E-value  score  bias   #  of  c-Evalue  i-Evalue  score  bias  from    to  from    to  from    to  acc description of target
#                                      ------------------- ---------- ----- -------------------- ---------- ----- --------- ------ ----- --- --- --------- --------- ------ ----- ----- ----- ----- ----- ----- ----- ---- ---------------------
JF1A_TRINITY_DN60751_c2_g3_i3.p1JF1A_TRINITY_DN60751_c2_g3 -            225 168428at3193         -            139   5.2e-51  174.0   1.8   1   1   7.5e-55   1.3e-50  172.7   1.8     2   139    50   216    49   216 0.86 -
JF2A_TRINITY_DN40333_c4_g3_i4.p1JF2A_TRINITY_DN40333_c4_g3 -            136 168428at3193         -            139   9.9e-40  137.5   0.5   1   1   6.8e-44   1.2e-39  137.2   0.5     2   101     7   116     6   125 0.89 -
JF1A_TRINITY_DN60751_c2_g3_i5.p1JF1A_TRINITY_DN60751_c2_g3 -            114 168428at3193         -            139   1.2e-11   46.5   0.0   1   1   9.8e-16   1.7e-11   46.0   0.0     2    43    50    95    49    97 0.89 -
JF1A_TRINITY_DN60751_c2_g3_i6.p1JF1A_TRINITY_DN60751_c2_g3 -            113 168428at3193         -            139   1.3e-07   33.4   0.0   1   1     1e-11   1.8e-07   33.0   0.0     2    37    50    89    49    95 0.88 -
#
# Program:         hmmsearch
# Version:         3.2.1 (June 2018)
# Pipeline mode:   SEARCH
# Query file:      /isg/shared/databases/BUSCO/odb10/embryophyta_odb10/hmms/168428at3193.hmm
# Target file:     Juniper_final_annotations_no_contam_lvl0.faa
# Option settings: /usr/local/bin/hmmsearch --domtblout /labs/Wegrzyn/Juniper_Pine/BUSCO/NEW/busco_juniper/run_embryophyta_odb10/hmmer_output/168428at3193.out --cpu 1 /isg/shared/databases/BUSCO/odb10/embryophyta_odb10/hmms/168428at3193.hmm Juniper_final_annotations_no_contam_lvl0.faa 
# Current dir:     /labs/Wegrzyn/Juniper_Pine/BUSCO/NEW
# Date:            Thu Aug  6 16:11:43 2020
# [ok]
