#                                                                                                                  --- full sequence --- -------------- this domain -------------   hmm coord   ali coord   env coord
# target name                                              accession   tlen query name           accession   qlen   E-value  score  bias   #  of  c-Evalue  i-Evalue  score  bias  from    to  from    to  from    to  acc description of target
#                                      ------------------- ---------- ----- -------------------- ---------- ----- --------- ------ ----- --- --- --------- --------- ------ ----- ----- ----- ----- ----- ----- ----- ---- ---------------------
JF2A_TRINITY_DN31287_c0_g1_i1.p1JF2A_TRINITY_DN31287_c0_g1 -            142 169890at3193         -            175   4.6e-83  279.1   4.0   1   1   5.1e-87   5.1e-83  278.9   4.0    36   175     1   141     1   141 0.99 -
JF1J_TRINITY_DN62422_c5_g1_i1.p1JF1J_TRINITY_DN62422_c5_g1 -            106 169890at3193         -            175   8.7e-37  128.3   0.5   1   1   9.1e-41     9e-37  128.3   0.5    65   132     1    68     1   101 0.86 -
JF1A_TRINITY_DN61915_c2_g1_i4.p1JF1A_TRINITY_DN61915_c2_g1 -            254 169890at3193         -            175   3.1e-12   48.4   2.3   1   2   3.2e-05      0.32   12.5   0.4    72   141    48   122    41   125 0.71 -
JF1A_TRINITY_DN61915_c2_g1_i4.p1JF1A_TRINITY_DN61915_c2_g1 -            254 169890at3193         -            175   3.1e-12   48.4   2.3   2   2   5.6e-16   5.6e-12   47.6   1.2    53   163    85   194    74   211 0.87 -
JF1J_TRINITY_DN64713_c1_g1_i2.p1JF1J_TRINITY_DN64713_c1_g1 -            169 169890at3193         -            175   3.5e-08   35.2   2.6   1   3         1     1e+04   -2.1   0.0   148   165    30    47    13    58 0.71 -
JF1J_TRINITY_DN64713_c1_g1_i2.p1JF1J_TRINITY_DN64713_c1_g1 -            169 169890at3193         -            175   3.5e-08   35.2   2.6   2   3   2.3e-07    0.0023   19.5   0.1   101   145    86   131    44   132 0.85 -
JF1J_TRINITY_DN64713_c1_g1_i2.p1JF1J_TRINITY_DN64713_c1_g1 -            169 169890at3193         -            175   3.5e-08   35.2   2.6   3   3     3e-08    0.0003   22.4   0.3    66   146    76   157    75   169 0.55 -
JF1A_TRINITY_DN63064_c1_g2_i3.p1JF1A_TRINITY_DN63064_c1_g2 -            254 169890at3193         -            175   4.6e-06   28.3   2.1   1   2   5.1e-05      0.51   11.9   0.2    98   148   125   176   120   178 0.86 -
JF1A_TRINITY_DN63064_c1_g2_i3.p1JF1A_TRINITY_DN63064_c1_g2 -            254 169890at3193         -            175   4.6e-06   28.3   2.1   2   2   9.4e-07    0.0093   17.5   0.2    98   154   175   233   171   253 0.71 -
JF2A_TRINITY_DN31132_c0_g1_i1.p1JF2A_TRINITY_DN31132_c0_g1 -            188 169890at3193         -            175   3.5e-05   25.4   1.5   1   2     3e-05       0.3   12.6   0.2    98   148    94   145    89   147 0.86 -
JF2A_TRINITY_DN31132_c0_g1_i1.p1JF2A_TRINITY_DN31132_c0_g1 -            188 169890at3193         -            175   3.5e-05   25.4   1.5   2   2   2.1e-05      0.21   13.2   0.1    98   127   144   173   140   180 0.90 -
JF1J_TRINITY_DN64713_c1_g1_i3.p1JF1J_TRINITY_DN64713_c1_g1 -            230 169890at3193         -            175    0.0011   20.6   0.2   1   1   1.9e-07    0.0019   19.8   0.2   101   146   165   211   123   222 0.86 -
#
# Program:         hmmsearch
# Version:         3.2.1 (June 2018)
# Pipeline mode:   SEARCH
# Query file:      /isg/shared/databases/BUSCO/odb10/embryophyta_odb10/hmms/169890at3193.hmm
# Target file:     Juniper_final_annotations_no_contam_lvl0.faa
# Option settings: /usr/local/bin/hmmsearch --domtblout /labs/Wegrzyn/Juniper_Pine/BUSCO/NEW/busco_juniper/run_embryophyta_odb10/hmmer_output/169890at3193.out --cpu 1 /isg/shared/databases/BUSCO/odb10/embryophyta_odb10/hmms/169890at3193.hmm Juniper_final_annotations_no_contam_lvl0.faa 
# Current dir:     /labs/Wegrzyn/Juniper_Pine/BUSCO/NEW
# Date:            Thu Aug  6 16:11:55 2020
# [ok]
