#                                                                                                                  --- full sequence --- -------------- this domain -------------   hmm coord   ali coord   env coord
# target name                                              accession   tlen query name           accession   qlen   E-value  score  bias   #  of  c-Evalue  i-Evalue  score  bias  from    to  from    to  from    to  acc description of target
#                                      ------------------- ---------- ----- -------------------- ---------- ----- --------- ------ ----- --- --- --------- --------- ------ ----- ----- ----- ----- ----- ----- ----- ---- ---------------------
JF2A_TRINITY_DN18185_c0_g1_i1.p1JF2A_TRINITY_DN18185_c0_g1 -            185 171307at3193         -            175   9.7e-66  222.9   0.0   1   1   2.3e-69     4e-65  220.9   0.0     1   139    24   185    24   185 0.86 -
JF1A_TRINITY_DN66887_c1_g5_i2.p1JF1A_TRINITY_DN66887_c1_g5 -            246 171307at3193         -            175   6.5e-36  125.8   0.0   1   1   5.1e-40   8.9e-36  125.3   0.0    52   174   115   240   104   241 0.93 -
JF1J_TRINITY_DN39471_c0_g1_i2.p1JF1J_TRINITY_DN39471_c0_g1 -            128 171307at3193         -            175   8.9e-13   50.4   0.0   1   2     0.061   1.1e+03    1.4   0.0    74    91    16    33     5    38 0.84 -
JF1J_TRINITY_DN39471_c0_g1_i2.p1JF1J_TRINITY_DN39471_c0_g1 -            128 171307at3193         -            175   8.9e-13   50.4   0.0   2   2   5.1e-16   8.9e-12   47.2   0.0    92   148    53   109    39   116 0.88 -
JF1A_TRINITY_DN61452_c1_g2_i1.p1JF1A_TRINITY_DN61452_c1_g2 -            150 171307at3193         -            175   1.4e-12   49.8   0.0   1   2     0.075   1.3e+03    1.1   0.0    74    91    24    41    12    46 0.84 -
JF1A_TRINITY_DN61452_c1_g2_i1.p1JF1A_TRINITY_DN61452_c1_g2 -            150 171307at3193         -            175   1.4e-12   49.8   0.0   2   2   7.2e-16   1.3e-11   46.7   0.0    92   148    61   117    47   126 0.88 -
#
# Program:         hmmsearch
# Version:         3.2.1 (June 2018)
# Pipeline mode:   SEARCH
# Query file:      /isg/shared/databases/BUSCO/odb10/embryophyta_odb10/hmms/171307at3193.hmm
# Target file:     Juniper_final_annotations_no_contam_lvl0.faa
# Option settings: /usr/local/bin/hmmsearch --domtblout /labs/Wegrzyn/Juniper_Pine/BUSCO/NEW/busco_juniper/run_embryophyta_odb10/hmmer_output/171307at3193.out --cpu 1 /isg/shared/databases/BUSCO/odb10/embryophyta_odb10/hmms/171307at3193.hmm Juniper_final_annotations_no_contam_lvl0.faa 
# Current dir:     /labs/Wegrzyn/Juniper_Pine/BUSCO/NEW
# Date:            Thu Aug  6 16:11:59 2020
# [ok]
