#                                                                                                                  --- full sequence --- -------------- this domain -------------   hmm coord   ali coord   env coord
# target name                                              accession   tlen query name           accession   qlen   E-value  score  bias   #  of  c-Evalue  i-Evalue  score  bias  from    to  from    to  from    to  acc description of target
#                                      ------------------- ---------- ----- -------------------- ---------- ----- --------- ------ ----- --- --- --------- --------- ------ ----- ----- ----- ----- ----- ----- ----- ---- ---------------------
JF1A_TRINITY_DN64282_c1_g3_i1.p1JF1A_TRINITY_DN64282_c1_g3 -            145 171888at3193         -            196   1.7e-40  140.9   2.2   1   1   5.9e-45   2.1e-40  140.6   2.2     1   114    24   143    24   144 0.91 -
JF3A_TRINITY_DN61238_c0_g1_i1.p1JF3A_TRINITY_DN61238_c0_g1 -            106 171888at3193         -            196      0.21   13.4   0.9   1   2   4.3e-05       1.5   10.5   0.2    54    97     4    48     2    66 0.78 -
JF3A_TRINITY_DN61238_c0_g1_i1.p1JF3A_TRINITY_DN61238_c0_g1 -            106 171888at3193         -            196      0.21   13.4   0.9   2   2     0.023     8e+02    1.6   0.0    72    99    68    95    59    99 0.81 -
#
# Program:         hmmsearch
# Version:         3.2.1 (June 2018)
# Pipeline mode:   SEARCH
# Query file:      /isg/shared/databases/BUSCO/odb10/embryophyta_odb10/hmms/171888at3193.hmm
# Target file:     Juniper_final_annotations_no_contam_lvl0.faa
# Option settings: /usr/local/bin/hmmsearch --domtblout /labs/Wegrzyn/Juniper_Pine/BUSCO/NEW/busco_juniper/run_embryophyta_odb10/hmmer_output/171888at3193.out --cpu 1 /isg/shared/databases/BUSCO/odb10/embryophyta_odb10/hmms/171888at3193.hmm Juniper_final_annotations_no_contam_lvl0.faa 
# Current dir:     /labs/Wegrzyn/Juniper_Pine/BUSCO/NEW
# Date:            Thu Aug  6 16:12:10 2020
# [ok]
