#                                                                                                                  --- full sequence --- -------------- this domain -------------   hmm coord   ali coord   env coord
# target name                                              accession   tlen query name           accession   qlen   E-value  score  bias   #  of  c-Evalue  i-Evalue  score  bias  from    to  from    to  from    to  acc description of target
#                                      ------------------- ---------- ----- -------------------- ---------- ----- --------- ------ ----- --- --- --------- --------- ------ ----- ----- ----- ----- ----- ----- ----- ---- ---------------------
JF2A_TRINITY_DN898_c0_g1_i1.p1JF2A_TRINITY_DN898_c0_g1     -            108 173677at3193         -            274     1e-38  135.2   0.5   1   1   1.3e-42   1.1e-38  135.1   0.5   173   274     1   107     1   107 0.91 -
JF1J_TRINITY_DN7972_c0_g1_i1.p1JF1J_TRINITY_DN7972_c0_g1   -            146 173677at3193         -            274   1.8e-21   78.6   0.8   1   2   2.3e-18     2e-14   55.5   0.7    48   128    21   103     4   111 0.75 -
JF1J_TRINITY_DN7972_c0_g1_i1.p1JF1J_TRINITY_DN7972_c0_g1   -            146 173677at3193         -            274   1.8e-21   78.6   0.8   2   2   5.9e-08   0.00051   21.4   0.0   121   150   116   146   110   146 0.86 -
JF1A_TRINITY_DN21534_c0_g1_i1.p1JF1A_TRINITY_DN21534_c0_g1 -            103 173677at3193         -            274   2.8e-08   35.3   0.1   1   1   4.1e-12   3.6e-08   35.0   0.1     2    61    35   102    34   103 0.88 -
JF3A_TRINITY_DN56636_c5_g4_i1.p1JF3A_TRINITY_DN56636_c5_g4 -            143 173677at3193         -            274   0.00044   21.6   0.0   1   1   5.9e-08   0.00051   21.4   0.0   133   239    10   119     6   136 0.79 -
JF3J_TRINITY_DN63605_c1_g3_i1.p1JF3J_TRINITY_DN63605_c1_g3 -            120 173677at3193         -            274    0.0053   18.1   0.2   1   1   6.3e-07    0.0055   18.0   0.2   198   267    47   116    18   118 0.87 -
JF1A_TRINITY_DN61454_c1_g3_i3.p2JF1A_TRINITY_DN61454_c1_g3 -            156 173677at3193         -            274      0.01   17.2   2.6   1   2   8.8e-05      0.76   11.0   0.1   135   192    31    86    26    98 0.78 -
JF1A_TRINITY_DN61454_c1_g3_i3.p2JF1A_TRINITY_DN61454_c1_g3 -            156 173677at3193         -            274      0.01   17.2   2.6   2   2    0.0017        15    6.7   0.6   232   273    96   138    86   139 0.74 -
JF1A_TRINITY_DN45645_c0_g1_i1.p1JF1A_TRINITY_DN45645_c0_g1 -            101 173677at3193         -            274     0.081   14.2   1.3   1   2     0.009        78    4.4   0.1    41    71    14    44     2    50 0.79 -
JF1A_TRINITY_DN45645_c0_g1_i1.p1JF1A_TRINITY_DN45645_c0_g1 -            101 173677at3193         -            274     0.081   14.2   1.3   2   2   0.00027       2.4    9.4   0.1    62    87    72    97    47   101 0.67 -
JF1A_TRINITY_DN68633_c8_g5_i1.p1JF1A_TRINITY_DN68633_c8_g5 -            122 173677at3193         -            274      0.11   13.8   0.1   1   1   1.7e-05      0.15   13.3   0.1    12    74    22    83    19    89 0.93 -
#
# Program:         hmmsearch
# Version:         3.2.1 (June 2018)
# Pipeline mode:   SEARCH
# Query file:      /isg/shared/databases/BUSCO/odb10/embryophyta_odb10/hmms/173677at3193.hmm
# Target file:     Juniper_final_annotations_no_contam_lvl0.faa
# Option settings: /usr/local/bin/hmmsearch --domtblout /labs/Wegrzyn/Juniper_Pine/BUSCO/NEW/busco_juniper/run_embryophyta_odb10/hmmer_output/173677at3193.out --cpu 1 /isg/shared/databases/BUSCO/odb10/embryophyta_odb10/hmms/173677at3193.hmm Juniper_final_annotations_no_contam_lvl0.faa 
# Current dir:     /labs/Wegrzyn/Juniper_Pine/BUSCO/NEW
# Date:            Thu Aug  6 16:12:17 2020
# [ok]
