#                                                                                                                   --- full sequence --- -------------- this domain -------------   hmm coord   ali coord   env coord
# target name                                               accession   tlen query name           accession   qlen   E-value  score  bias   #  of  c-Evalue  i-Evalue  score  bias  from    to  from    to  from    to  acc description of target
#                                       ------------------- ---------- ----- -------------------- ---------- ----- --------- ------ ----- --- --- --------- --------- ------ ----- ----- ----- ----- ----- ----- ----- ---- ---------------------
JF1A_TRINITY_DN66566_c2_g1_i3.p1JF1A_TRINITY_DN66566_c2_g1  -            169 174182at3193         -            176   2.3e-83  280.2   0.4   1   1   1.2e-85   1.3e-82  277.8   0.4     1   149     1   162     1   164 0.94 -
JF3A_TRINITY_DN58131_c0_g1_i23.p1JF3A_TRINITY_DN58131_c0_g1 -            164 174182at3193         -            176   2.1e-42  146.9   0.1   1   1   4.3e-45   4.8e-42  145.7   0.1     5   138    19   162    16   163 0.88 -
JF1A_TRINITY_DN63298_c0_g7_i1.p1JF1A_TRINITY_DN63298_c0_g7  -            187 174182at3193         -            176   7.7e-42  145.0   0.2   1   1   1.2e-44   1.4e-41  144.2   0.2    23   138    71   185    38   186 0.86 -
JF2A_TRINITY_DN41022_c0_g1_i5.p1JF2A_TRINITY_DN41022_c0_g1  -            159 174182at3193         -            176   8.8e-42  144.8   0.1   1   1   1.5e-44   1.7e-41  143.9   0.1    23   138    43   157    10   158 0.86 -
JF1A_TRINITY_DN63298_c0_g5_i1.p1JF1A_TRINITY_DN63298_c0_g5  -            149 174182at3193         -            176   1.6e-41  144.0   0.2   1   1   2.5e-44   2.8e-41  143.2   0.2    23   138    33   147     1   148 0.87 -
JF1A_TRINITY_DN66670_c1_g2_i8.p1JF1A_TRINITY_DN66670_c1_g2  -            125 174182at3193         -            176   3.1e-41  143.0   0.2   1   1   3.2e-44   3.6e-41  142.9   0.2    24   138    10   123     5   124 0.97 -
JF2A_TRINITY_DN42706_c0_g2_i5.p1JF2A_TRINITY_DN42706_c0_g2  -            207 174182at3193         -            176   3.1e-41  143.0   0.0   1   1   3.9e-44   4.4e-41  142.5   0.0    20   140    86   205    77   206 0.94 -
JF1J_TRINITY_DN68906_c0_g3_i6.p1JF1J_TRINITY_DN68906_c0_g3  -            224 174182at3193         -            176   2.5e-40  140.1   0.0   1   1   3.1e-43   3.5e-40  139.6   0.0    22   141    94   212    84   222 0.92 -
JF2A_TRINITY_DN38692_c0_g1_i1.p1JF2A_TRINITY_DN38692_c0_g1  -            109 174182at3193         -            176   7.6e-40  138.5   0.0   1   1   7.6e-43   8.5e-40  138.4   0.0    93   175     5    92     1    93 0.95 -
JF3A_TRINITY_DN54694_c0_g1_i3.p1JF3A_TRINITY_DN54694_c0_g1  -            122 174182at3193         -            176   3.8e-35  123.2   0.0   1   1   3.9e-38   4.4e-35  123.0   0.0    36   138    18   119    12   121 0.97 -
JF3A_TRINITY_DN54688_c0_g1_i6.p1JF3A_TRINITY_DN54688_c0_g1  -            141 174182at3193         -            176   4.5e-35  123.0   0.1   1   1   4.9e-38   5.5e-35  122.7   0.1    24   122    27   124    17   133 0.95 -
JF3A_TRINITY_DN54688_c0_g3_i5.p1JF3A_TRINITY_DN54688_c0_g3  -            118 174182at3193         -            176   2.5e-33  117.3   0.1   1   1   2.5e-36   2.8e-33  117.1   0.1    44   138    23   116    13   117 0.96 -
JF1J_TRINITY_DN70840_c2_g1_i10.p1JF1J_TRINITY_DN70840_c2_g1 -            189 174182at3193         -            176   2.1e-32  114.3   1.5   1   1   2.9e-35   3.2e-32  113.7   0.2    23   108    59   143    26   149 0.83 -
JF1J_TRINITY_DN68820_c1_g2_i4.p1JF1J_TRINITY_DN68820_c1_g2  -            109 174182at3193         -            176   3.1e-32  113.7   0.1   1   1   3.2e-35   3.6e-32  113.5   0.1    33   125     1    92     1    98 0.95 -
JF1A_TRINITY_DN64889_c0_g4_i4.p1JF1A_TRINITY_DN64889_c0_g4  -            161 174182at3193         -            176     1e-29  105.6   0.1   1   1     2e-32   2.3e-29  104.4   0.1    16   135    31   151     1   158 0.82 -
JF1A_TRINITY_DN66473_c0_g1_i11.p1JF1A_TRINITY_DN66473_c0_g1 -            153 174182at3193         -            176   3.6e-29  103.8   0.0   1   1   3.6e-32     4e-29  103.6   0.0    11   131    24   143    10   151 0.88 -
JF1J_TRINITY_DN70780_c3_g2_i7.p1JF1J_TRINITY_DN70780_c3_g2  -            137 174182at3193         -            176   2.4e-28  101.1   0.0   1   1   2.6e-31   2.9e-28  100.8   0.0    19   131    16   127    10   135 0.92 -
JF2A_TRINITY_DN32811_c0_g1_i3.p1JF2A_TRINITY_DN32811_c0_g1  -            102 174182at3193         -            176     2e-27   98.1   0.0   1   1     2e-30   2.2e-27   97.9   0.0    56   138    18    99     9   101 0.95 -
JF2J_TRINITY_DN25348_c0_g1_i1.p1JF2J_TRINITY_DN25348_c0_g1  -            103 174182at3193         -            176   5.7e-27   96.6   0.1   1   1   6.2e-30     7e-27   96.3   0.1    24    91    22    88    17    97 0.94 -
JF1A_TRINITY_DN63602_c0_g1_i10.p1JF1A_TRINITY_DN63602_c0_g1 -            184 174182at3193         -            176   7.4e-27   96.2   0.0   1   1   8.1e-30   9.1e-27   95.9   0.0    18   142    27   152    11   159 0.92 -
JF1A_TRINITY_DN61209_c1_g4_i6.p1JF1A_TRINITY_DN61209_c1_g4  -            173 174182at3193         -            176   7.6e-27   96.2   0.0   1   1   8.4e-30   9.4e-27   95.9   0.0    24   111    70   156    39   168 0.94 -
JF1A_TRINITY_DN63298_c0_g7_i3.p1JF1A_TRINITY_DN63298_c0_g7  -            102 174182at3193         -            176     9e-27   95.9   0.0   1   1   8.5e-30   9.5e-27   95.9   0.0    57   138    20   100     3   101 0.95 -
JF2A_TRINITY_DN40495_c0_g1_i2.p1JF2A_TRINITY_DN40495_c0_g1  -            159 174182at3193         -            176   9.5e-27   95.9   0.0   1   1   1.1e-29   1.2e-26   95.6   0.0    17   131    36   149    26   157 0.93 -
JF1A_TRINITY_DN64889_c0_g4_i6.p1JF1A_TRINITY_DN64889_c0_g4  -            129 174182at3193         -            176     6e-26   93.3   0.3   1   1   1.3e-28   1.5e-25   92.0   0.3    16    98    31   113     1   124 0.82 -
JF1A_TRINITY_DN66036_c0_g2_i2.p1JF1A_TRINITY_DN66036_c0_g2  -            185 174182at3193         -            176   7.8e-26   92.9   0.0   1   1   8.3e-29   9.3e-26   92.6   0.0    19   146    28   156    15   177 0.92 -
JF1J_TRINITY_DN65961_c0_g3_i1.p1JF1J_TRINITY_DN65961_c0_g3  -            123 174182at3193         -            176   7.2e-25   89.8   0.0   1   1   6.8e-28   7.6e-25   89.7   0.0    24   131    14   120     2   123 0.94 -
JF1A_TRINITY_DN54881_c0_g1_i1.p1JF1A_TRINITY_DN54881_c0_g1  -            107 174182at3193         -            176   7.9e-25   89.6   0.0   1   1   8.6e-28   9.6e-25   89.3   0.0    23    90    41   107    12   107 0.88 -
JF3A_TRINITY_DN54694_c0_g1_i2.p1JF3A_TRINITY_DN54694_c0_g1  -            107 174182at3193         -            176   1.4e-24   88.8   0.0   1   1   1.6e-27   1.8e-24   88.4   0.0    36   102    18    83    12    86 0.96 -
JF2A_TRINITY_DN42202_c0_g3_i2.p1JF2A_TRINITY_DN42202_c0_g3  -            179 174182at3193         -            176   9.9e-24   86.1   0.0   1   1   1.1e-26   1.2e-23   85.7   0.0    31   146    34   150    11   171 0.92 -
JF1A_TRINITY_DN66036_c0_g2_i4.p1JF1A_TRINITY_DN66036_c0_g2  -            142 174182at3193         -            176   1.6e-23   85.3   0.0   1   1   1.6e-26   1.8e-23   85.2   0.0    17   127    26   137    10   141 0.91 -
JF2J_TRINITY_DN25348_c0_g1_i3.p1JF2J_TRINITY_DN25348_c0_g1  -            109 174182at3193         -            176   1.2e-20   76.0   0.1   1   1   1.5e-23   1.6e-20   75.6   0.1    24    83    32    90    26    96 0.94 -
JF1J_TRINITY_DN64145_c0_g1_i1.p1JF1J_TRINITY_DN64145_c0_g1  -            133 174182at3193         -            176   1.7e-20   75.5   0.2   1   1   3.3e-23   3.7e-20   74.4   0.2    23    81    75   132    42   133 0.77 -
JF3J_TRINITY_DN65595_c2_g1_i18.p2JF3J_TRINITY_DN65595_c2_g1 -            107 174182at3193         -            176   2.4e-20   75.0   0.0   1   1   2.4e-23   2.7e-20   74.8   0.0    17   102    11    95     6   105 0.91 -
JF1J_TRINITY_DN66805_c2_g1_i2.p1JF1J_TRINITY_DN66805_c2_g1  -            233 174182at3193         -            176   1.7e-19   72.2   0.0   1   1   2.1e-22   2.3e-19   71.8   0.0    29   130   115   215    81   221 0.85 -
JF1A_TRINITY_DN63571_c0_g2_i2.p1JF1A_TRINITY_DN63571_c0_g2  -            168 174182at3193         -            176   2.1e-19   71.9   0.2   1   1   1.1e-21   1.2e-18   69.5   0.2    17   131    32   158    27   165 0.86 -
JF1A_TRINITY_DN67013_c0_g2_i1.p1JF1A_TRINITY_DN67013_c0_g2  -            184 174182at3193         -            176   1.1e-18   69.6   0.0   1   1   1.3e-21   1.4e-18   69.2   0.0    26   130    63   166    50   175 0.89 -
JF1A_TRINITY_DN63571_c0_g1_i2.p1JF1A_TRINITY_DN63571_c0_g1  -            168 174182at3193         -            176   3.1e-18   68.2   0.2   1   1   1.5e-20   1.7e-17   65.8   0.2    25   125    40   152    27   162 0.84 -
JF1A_TRINITY_DN65493_c1_g3_i1.p1JF1A_TRINITY_DN65493_c1_g3  -            156 174182at3193         -            176   2.1e-17   65.4   0.0   1   1   2.6e-20   2.9e-17   65.0   0.0    21   102    57   139    47   146 0.91 -
JF3J_TRINITY_DN13349_c0_g1_i1.p1JF3J_TRINITY_DN13349_c0_g1  -            104 174182at3193         -            176   3.2e-17   64.8   0.2   1   1   7.5e-20   8.4e-17   63.5   0.2     5    70    20    96    16   101 0.80 -
JF1J_TRINITY_DN63711_c3_g1_i2.p1JF1J_TRINITY_DN63711_c3_g1  -            161 174182at3193         -            176   6.4e-15   57.3   0.1   1   1   8.4e-18   9.5e-15   56.8   0.1    23   107    45   129    13   144 0.76 -
JF3A_TRINITY_DN55130_c4_g2_i14.p1JF3A_TRINITY_DN55130_c4_g2 -            234 174182at3193         -            176   6.4e-15   57.3   0.2   1   1   1.1e-17   1.2e-14   56.4   0.1    24   107    75   158    42   186 0.77 -
JF1J_TRINITY_DN67467_c1_g1_i1.p1JF1J_TRINITY_DN67467_c1_g1  -            108 174182at3193         -            176     7e-13   50.7   0.2   1   1   5.1e-15   5.8e-12   47.7   0.2     1    49     7    68     7    73 0.85 -
JF1A_TRINITY_DN62415_c3_g1_i7.p1JF1A_TRINITY_DN62415_c3_g1  -            253 174182at3193         -            176   1.2e-11   46.7   0.0   1   2     4e-14   4.5e-11   44.8   0.0    20   106    45   140    37   159 0.83 -
JF1A_TRINITY_DN62415_c3_g1_i7.p1JF1A_TRINITY_DN62415_c3_g1  -            253 174182at3193         -            176   1.2e-11   46.7   0.0   2   2       4.9   5.4e+03   -1.0   0.0    98   134   186   222   177   242 0.78 -
JF2A_TRINITY_DN34145_c0_g1_i1.p1JF2A_TRINITY_DN34145_c0_g1  -            107 174182at3193         -            176   1.9e-10   42.8   0.1   1   1     2e-13   2.3e-10   42.5   0.1    20    81    27    92    18   106 0.85 -
JF2A_TRINITY_DN40495_c0_g1_i12.p1JF2A_TRINITY_DN40495_c0_g1 -            146 174182at3193         -            176   5.1e-10   41.4   0.1   1   1   6.1e-13   6.8e-10   41.0   0.1    17    67    82   132    69   142 0.91 -
JF1A_TRINITY_DN66670_c1_g2_i6.p1JF1A_TRINITY_DN66670_c1_g2  -            144 174182at3193         -            176   1.2e-08   36.9   1.0   1   1   2.5e-11   2.8e-08   35.7   0.6    23    60    77   114    44   124 0.74 -
JF1A_TRINITY_DN66332_c1_g5_i1.p1JF1A_TRINITY_DN66332_c1_g5  -            284 174182at3193         -            176   1.3e-08   36.8   0.0   1   1   1.9e-11   2.1e-08   36.1   0.0    26   128    15   113     8   134 0.83 -
JF3A_TRINITY_DN54688_c0_g3_i4.p1JF3A_TRINITY_DN54688_c0_g3  -            104 174182at3193         -            176   2.6e-08   35.8   0.8   1   1   4.5e-11     5e-08   34.9   0.8    24    65    52    93    18    95 0.79 -
JF2A_TRINITY_DN34145_c0_g2_i2.p1JF2A_TRINITY_DN34145_c0_g2  -            128 174182at3193         -            176   4.5e-08   35.0   0.1   1   1   5.4e-11   6.1e-08   34.6   0.1    20    62    56    98    47   110 0.92 -
JF1A_TRINITY_DN68079_c0_g1_i4.p1JF1A_TRINITY_DN68079_c0_g1  -            110 174182at3193         -            176   1.1e-07   33.8   0.0   1   1   1.1e-10   1.3e-07   33.6   0.0     6    81     7    81     4    97 0.81 -
JF3J_TRINITY_DN73762_c0_g1_i3.p1JF3J_TRINITY_DN73762_c0_g1  -            102 174182at3193         -            176   3.6e-07   32.1   0.0   1   1   3.7e-10   4.2e-07   31.9   0.0    67   131    11    74     3    90 0.80 -
JF1A_TRINITY_DN65904_c1_g2_i10.p1JF1A_TRINITY_DN65904_c1_g2 -            147 174182at3193         -            176     2e-05   26.4   0.0   1   1   2.2e-08   2.4e-05   26.2   0.0    18    76    44   102    37   137 0.78 -
JF1J_TRINITY_DN67507_c1_g1_i3.p1JF1J_TRINITY_DN67507_c1_g1  -            145 174182at3193         -            176     6e-05   24.9   0.0   1   1   6.6e-08   7.4e-05   24.6   0.0    20    75    44    99    36   134 0.81 -
JF3J_TRINITY_DN54893_c0_g1_i4.p1JF3J_TRINITY_DN54893_c0_g1  -            113 174182at3193         -            176   6.7e-05   24.7   0.0   1   1   7.5e-08   8.4e-05   24.4   0.0    75   135    42   103    35   110 0.82 -
JF3A_TRINITY_DN50093_c1_g2_i11.p1JF3A_TRINITY_DN50093_c1_g2 -            133 174182at3193         -            176    0.0001   24.1   0.0   1   1   1.1e-07   0.00012   23.9   0.0    20    74    43    97    35   116 0.90 -
JF3A_TRINITY_DN50093_c1_g2_i4.p1JF3A_TRINITY_DN50093_c1_g2  -            131 174182at3193         -            176   0.00011   24.0   0.0   1   1   1.3e-07   0.00015   23.6   0.0    20    74    43    97    35   101 0.89 -
JF1A_TRINITY_DN64924_c2_g1_i8.p1JF1A_TRINITY_DN64924_c2_g1  -            204 174182at3193         -            176   0.00012   23.9   0.0   1   1   1.7e-07   0.00019   23.2   0.0    67    97    13    42     6    58 0.84 -
JF1J_TRINITY_DN69158_c2_g2_i3.p1JF1J_TRINITY_DN69158_c2_g2  -            136 174182at3193         -            176    0.0036   19.1   0.0   1   1   4.5e-06     0.005   18.6   0.0    21    59    71   109    61   128 0.84 -
JF1J_TRINITY_DN64145_c0_g1_i10.p1JF1J_TRINITY_DN64145_c0_g1 -            142 174182at3193         -            176     0.011   17.5   0.0   1   1   2.2e-05     0.025   16.4   0.0    23    48   106   131    73   139 0.66 -
JF1A_TRINITY_DN63602_c0_g1_i3.p1JF1A_TRINITY_DN63602_c0_g1  -            100 174182at3193         -            176     0.037   15.8   0.0   1   1     4e-05     0.045   15.5   0.0    99   142    26    69    16    77 0.90 -
JF3J_TRINITY_DN50268_c0_g1_i1.p1JF3J_TRINITY_DN50268_c0_g1  -            121 174182at3193         -            176     0.039   15.7   0.0   1   1   4.3e-05     0.048   15.4   0.0    40    84    13    57     8   101 0.77 -
JF1J_TRINITY_DN66622_c2_g2_i1.p1JF1J_TRINITY_DN66622_c2_g2  -            166 174182at3193         -            176      0.14   13.9   0.0   1   2     0.023        26    6.5   0.0    97   159     6    68     3    77 0.86 -
JF1J_TRINITY_DN66622_c2_g2_i1.p1JF1J_TRINITY_DN66622_c2_g2  -            166 174182at3193         -            176      0.14   13.9   0.0   2   2      0.04        45    5.8   0.0    57   100    88   132    73   161 0.83 -
#
# Program:         hmmsearch
# Version:         3.2.1 (June 2018)
# Pipeline mode:   SEARCH
# Query file:      /isg/shared/databases/BUSCO/odb10/embryophyta_odb10/hmms/174182at3193.hmm
# Target file:     Juniper_final_annotations_no_contam_lvl0.faa
# Option settings: /usr/local/bin/hmmsearch --domtblout /labs/Wegrzyn/Juniper_Pine/BUSCO/NEW/busco_juniper/run_embryophyta_odb10/hmmer_output/174182at3193.out --cpu 1 /isg/shared/databases/BUSCO/odb10/embryophyta_odb10/hmms/174182at3193.hmm Juniper_final_annotations_no_contam_lvl0.faa 
# Current dir:     /labs/Wegrzyn/Juniper_Pine/BUSCO/NEW
# Date:            Thu Aug  6 16:12:20 2020
# [ok]
