#                                                                                                                  --- full sequence --- -------------- this domain -------------   hmm coord   ali coord   env coord
# target name                                              accession   tlen query name           accession   qlen   E-value  score  bias   #  of  c-Evalue  i-Evalue  score  bias  from    to  from    to  from    to  acc description of target
#                                      ------------------- ---------- ----- -------------------- ---------- ----- --------- ------ ----- --- --- --------- --------- ------ ----- ----- ----- ----- ----- ----- ----- ---- ---------------------
JF1A_TRINITY_DN65715_c1_g1_i5.p1JF1A_TRINITY_DN65715_c1_g1 -            279 175219at3193         -            162   1.5e-81  273.8   2.9   1   1   6.2e-85   7.2e-81  271.6   2.9     1   162    93   277    93   277 0.94 -
JF2A_TRINITY_DN41244_c1_g2_i4.p1JF2A_TRINITY_DN41244_c1_g2 -            260 175219at3193         -            162   6.6e-49  167.7   4.8   1   1   4.3e-52     5e-48  164.9   4.8     1    99    77   186    77   190 0.95 -
JF3A_TRINITY_DN54659_c0_g2_i2.p1JF3A_TRINITY_DN54659_c0_g2 -            168 175219at3193         -            162   2.1e-33  117.3   4.4   1   2   7.4e-23   8.6e-19   69.8   0.3     1    43    86   128    86   129 0.96 -
JF3A_TRINITY_DN54659_c0_g2_i2.p1JF3A_TRINITY_DN54659_c0_g2 -            168 175219at3193         -            162   2.1e-33  117.3   4.4   2   2   1.6e-16   1.9e-12   49.2   0.4     4    34   133   163   130   168 0.91 -
JF3J_TRINITY_DN65364_c0_g1_i6.p1JF3J_TRINITY_DN65364_c0_g1 -            180 175219at3193         -            162   2.7e-29  104.0   2.5   1   2     3e-12   3.5e-08   35.3   0.1     1    25    33    57    33    89 0.87 -
JF3J_TRINITY_DN65364_c0_g1_i6.p1JF3J_TRINITY_DN65364_c0_g1 -            180 175219at3193         -            162   2.7e-29  104.0   2.5   2   2   1.4e-22   1.6e-18   68.9   0.3     1    43   115   157   115   161 0.96 -
JF1A_TRINITY_DN65715_c1_g1_i8.p1JF1A_TRINITY_DN65715_c1_g1 -            108 175219at3193         -            162     9e-28   99.0   2.6   1   1   6.7e-31   7.8e-27   96.0   2.6     1    63    34   107    34   107 0.94 -
JF1J_TRINITY_DN66317_c1_g1_i2.p1JF1J_TRINITY_DN66317_c1_g1 -            102 175219at3193         -            162      0.68   11.6   0.1   1   1     8e-05      0.92   11.2   0.1   116   151    13    47     8    55 0.82 -
#
# Program:         hmmsearch
# Version:         3.2.1 (June 2018)
# Pipeline mode:   SEARCH
# Query file:      /isg/shared/databases/BUSCO/odb10/embryophyta_odb10/hmms/175219at3193.hmm
# Target file:     Juniper_final_annotations_no_contam_lvl0.faa
# Option settings: /usr/local/bin/hmmsearch --domtblout /labs/Wegrzyn/Juniper_Pine/BUSCO/NEW/busco_juniper/run_embryophyta_odb10/hmmer_output/175219at3193.out --cpu 1 /isg/shared/databases/BUSCO/odb10/embryophyta_odb10/hmms/175219at3193.hmm Juniper_final_annotations_no_contam_lvl0.faa 
# Current dir:     /labs/Wegrzyn/Juniper_Pine/BUSCO/NEW
# Date:            Thu Aug  6 16:12:23 2020
# [ok]
