#                                                                                                                   --- full sequence --- -------------- this domain -------------   hmm coord   ali coord   env coord
# target name                                               accession   tlen query name           accession   qlen   E-value  score  bias   #  of  c-Evalue  i-Evalue  score  bias  from    to  from    to  from    to  acc description of target
#                                       ------------------- ---------- ----- -------------------- ---------- ----- --------- ------ ----- --- --- --------- --------- ------ ----- ----- ----- ----- ----- ----- ----- ---- ---------------------
JF1A_TRINITY_DN59917_c0_g2_i3.p1JF1A_TRINITY_DN59917_c0_g2  -            160 175589at3193         -            175   6.4e-73  245.9   0.0   1   1   1.8e-76   7.7e-73  245.6   0.0    40   174    15   153     8   154 0.96 -
JF1A_TRINITY_DN59917_c0_g2_i1.p1JF1A_TRINITY_DN59917_c0_g2  -            161 175589at3193         -            175     5e-59  200.6   0.1   1   1   1.5e-62   6.4e-59  200.3   0.1    40   155    15   134     8   144 0.95 -
JF1A_TRINITY_DN63933_c3_g3_i2.p1JF1A_TRINITY_DN63933_c3_g3  -            188 175589at3193         -            175     3e-10   41.8   0.1   1   1   9.1e-14   3.9e-10   41.4   0.1    35    90    99   157    66   162 0.71 -
JF1J_TRINITY_DN63447_c0_g2_i7.p1JF1J_TRINITY_DN63447_c0_g2  -            173 175589at3193         -            175   8.1e-08   33.9   0.0   1   1   2.3e-11     1e-07   33.6   0.0    42    93    89   141    52   156 0.80 -
JF1A_TRINITY_DN29563_c0_g1_i1.p1JF1A_TRINITY_DN29563_c0_g1  -            105 175589at3193         -            175   2.8e-07   32.1   0.0   1   1   1.1e-10   4.7e-07   31.4   0.0     6    41    64   100    59   105 0.81 -
JF1A_TRINITY_DN63833_c2_g3_i3.p1JF1A_TRINITY_DN63833_c2_g3  -            115 175589at3193         -            175   3.5e-06   28.6   0.0   1   1   1.4e-09     6e-06   27.8   0.0    69   175     1   111     1   111 0.83 -
JF1A_TRINITY_DN67262_c1_g1_i11.p1JF1A_TRINITY_DN67262_c1_g1 -            264 175589at3193         -            175   0.00017   23.0   0.0   1   1     6e-08   0.00026   22.5   0.0    66   155   123   220    89   230 0.74 -
JF1A_TRINITY_DN63266_c1_g1_i6.p1JF1A_TRINITY_DN63266_c1_g1  -            290 175589at3193         -            175   0.00023   22.7   0.0   1   1   7.7e-08   0.00033   22.1   0.0    65   158   116   218    87   234 0.75 -
JF1A_TRINITY_DN67262_c1_g1_i2.p1JF1A_TRINITY_DN67262_c1_g1  -            236 175589at3193         -            175    0.0055   18.1   0.0   1   1   2.4e-06      0.01   17.2   0.0    66    94   123   151    88   154 0.79 -
JF1A_TRINITY_DN67550_c4_g2_i1.p1JF1A_TRINITY_DN67550_c4_g2  -            276 175589at3193         -            175     0.016   16.7   0.0   1   1   1.3e-05     0.056   14.9   0.0    67   169    85   193    78   199 0.81 -
JF3J_TRINITY_DN69040_c1_g2_i2.p1JF3J_TRINITY_DN69040_c1_g2  -            114 175589at3193         -            175     0.021   16.3   0.0   1   1   6.4e-06     0.028   15.9   0.0   130   169    29    70    20    76 0.83 -
JF2A_TRINITY_DN38523_c0_g1_i2.p1JF2A_TRINITY_DN38523_c0_g1  -            304 175589at3193         -            175     0.023   16.1   0.0   1   1   1.4e-05     0.062   14.7   0.0    67   169   113   221    96   227 0.82 -
JF1J_TRINITY_DN60017_c0_g1_i4.p1JF1J_TRINITY_DN60017_c0_g1  -            115 175589at3193         -            175     0.023   16.1   0.1   1   1   8.1e-06     0.035   15.5   0.1   130   169    24    65    18    71 0.84 -
JF1A_TRINITY_DN63428_c4_g5_i1.p1JF1A_TRINITY_DN63428_c4_g5  -            235 175589at3193         -            175     0.049   15.1   0.0   1   1   1.6e-05     0.069   14.6   0.0    67   163    73   174    31   181 0.73 -
JF1A_TRINITY_DN60320_c0_g1_i1.p1JF1A_TRINITY_DN60320_c0_g1  -            220 175589at3193         -            175      0.17   13.3   0.0   1   1   9.9e-05      0.43   12.0   0.0    71   159    84   176    74   187 0.65 -
JF1A_TRINITY_DN61907_c0_g1_i4.p1JF1A_TRINITY_DN61907_c0_g1  -            332 175589at3193         -            175       0.2   13.0   0.1   1   1   8.9e-05      0.39   12.1   0.1   130   168   131   171   126   177 0.83 -
#
# Program:         hmmsearch
# Version:         3.2.1 (June 2018)
# Pipeline mode:   SEARCH
# Query file:      /isg/shared/databases/BUSCO/odb10/embryophyta_odb10/hmms/175589at3193.hmm
# Target file:     Juniper_final_annotations_no_contam_lvl0.faa
# Option settings: /usr/local/bin/hmmsearch --domtblout /labs/Wegrzyn/Juniper_Pine/BUSCO/NEW/busco_juniper/run_embryophyta_odb10/hmmer_output/175589at3193.out --cpu 1 /isg/shared/databases/BUSCO/odb10/embryophyta_odb10/hmms/175589at3193.hmm Juniper_final_annotations_no_contam_lvl0.faa 
# Current dir:     /labs/Wegrzyn/Juniper_Pine/BUSCO/NEW
# Date:            Thu Aug  6 16:12:26 2020
# [ok]
