#                                                                                                                    --- full sequence --- -------------- this domain -------------   hmm coord   ali coord   env coord
# target name                                                accession   tlen query name           accession   qlen   E-value  score  bias   #  of  c-Evalue  i-Evalue  score  bias  from    to  from    to  from    to  acc description of target
#                                        ------------------- ---------- ----- -------------------- ---------- ----- --------- ------ ----- --- --- --------- --------- ------ ----- ----- ----- ----- ----- ----- ----- ---- ---------------------
JF2A_TRINITY_DN41397_c0_g2_i2.p1JF2A_TRINITY_DN41397_c0_g2   -            284 175852at3193         -            169   7.2e-75  252.0   0.0   1   1   1.9e-78   9.2e-75  251.6   0.0     2   169   110   281   109   281 0.97 -
JF1A_TRINITY_DN63848_c4_g2_i1.p1JF1A_TRINITY_DN63848_c4_g2   -            245 175852at3193         -            169   2.2e-65  221.1   0.0   1   2   5.4e-53   2.7e-49  168.8   0.0     2   120    80   202    79   203 0.96 -
JF1A_TRINITY_DN63848_c4_g2_i1.p1JF1A_TRINITY_DN63848_c4_g2   -            245 175852at3193         -            169   2.2e-65  221.1   0.0   2   2   8.4e-17   4.2e-13   51.0   0.0    49    83   203   237   202   240 0.96 -
JF3A_TRINITY_DN57963_c1_g1_i1.p1JF3A_TRINITY_DN57963_c1_g1   -            137 175852at3193         -            169   2.7e-36  126.4   0.0   1   2   2.7e-08   0.00013   23.3   0.0    22    50     1    29     1    41 0.92 -
JF3A_TRINITY_DN57963_c1_g1_i1.p1JF3A_TRINITY_DN57963_c1_g1   -            137 175852at3193         -            169   2.7e-36  126.4   0.0   2   2   2.6e-32   1.3e-28  101.5   0.0     2    75    60   137    59   137 0.94 -
JF2A_TRINITY_DN41397_c0_g2_i3.p1JF2A_TRINITY_DN41397_c0_g2   -            224 175852at3193         -            169   2.4e-35  123.4   0.1   1   2     3e-14   1.5e-10   42.7   0.0     2    48   110   160   109   164 0.90 -
JF2A_TRINITY_DN41397_c0_g2_i3.p1JF2A_TRINITY_DN41397_c0_g2   -            224 175852at3193         -            169   2.4e-35  123.4   0.1   2   2   1.3e-25   6.5e-22   79.7   0.0   109   169   161   221   160   221 0.96 -
JF1A_TRINITY_DN63848_c4_g2_i6.p1JF1A_TRINITY_DN63848_c4_g2   -            102 175852at3193         -            169   5.5e-32  112.4   0.0   1   1   1.3e-35   6.3e-32  112.2   0.0    85   169    15    99    10    99 0.95 -
JF1A_TRINITY_DN66313_c1_g2_i3.p1JF1A_TRINITY_DN66313_c1_g2   -            250 175852at3193         -            169   2.1e-08   35.7   0.0   1   3       2.3   1.2e+04   -2.5   0.0    31    48     9    26     7    28 0.81 -
JF1A_TRINITY_DN66313_c1_g2_i3.p1JF1A_TRINITY_DN66313_c1_g2   -            250 175852at3193         -            169   2.1e-08   35.7   0.0   2   3   5.1e-05      0.25   12.6   0.0     7    59    83   140    77   150 0.79 -
JF1A_TRINITY_DN66313_c1_g2_i3.p1JF1A_TRINITY_DN66313_c1_g2   -            250 175852at3193         -            169   2.1e-08   35.7   0.0   3   3   2.8e-07    0.0014   20.0   0.0   108   168   180   239   175   240 0.88 -
JF1A_TRINITY_DN68037_c5_g1_i5.p1JF1A_TRINITY_DN68037_c5_g1   -            290 175852at3193         -            169   4.1e-07   31.5   0.0   1   1   1.2e-10   6.2e-07   30.9   0.0    42   169   145   283    97   283 0.77 -
JF3J_TRINITY_DN70727_c3_g5_i1.p1JF3J_TRINITY_DN70727_c3_g5   -            249 175852at3193         -            169   5.1e-07   31.2   0.0   1   2     0.018        89    4.4   0.0   138   169    60    93    17    93 0.88 -
JF3J_TRINITY_DN70727_c3_g5_i1.p1JF3J_TRINITY_DN70727_c3_g5   -            249 175852at3193         -            169   5.1e-07   31.2   0.0   2   2   1.3e-08   6.3e-05   24.4   0.0    24   167   110   243   103   245 0.86 -
JF1J_TRINITY_DN991_c0_g1_i1.p1JF1J_TRINITY_DN991_c0_g1       -            101 175852at3193         -            169   3.5e-05   25.2   0.1   1   1     1e-08   5.2e-05   24.7   0.1    89   167     8    94     3    96 0.78 -
JF3J_TRINITY_DN57147_c0_g1_i1.p1JF3J_TRINITY_DN57147_c0_g1   -            207 175852at3193         -            169   4.8e-05   24.8   0.0   1   1   1.7e-07   0.00083   20.7   0.0     4   168    10   204     7   205 0.69 -
JF1A_TRINITY_DN66955_c0_g1_i4.p1JF1A_TRINITY_DN66955_c0_g1   -            435 175852at3193         -            169     0.019   16.3   0.0   1   2    0.0028        14    7.0   0.0    19   124   229   334   209   347 0.64 -
JF1A_TRINITY_DN66955_c0_g1_i4.p1JF1A_TRINITY_DN66955_c0_g1   -            435 175852at3193         -            169     0.019   16.3   0.0   2   2    0.0025        12    7.2   0.0   145   167   402   424   352   426 0.82 -
JF1A_TRINITY_DN63425_c1_g11_i1.p1JF1A_TRINITY_DN63425_c1_g11 -            115 175852at3193         -            169     0.082   14.2   0.0   1   1   1.8e-05     0.092   14.1   0.0    91   164    45   114    19   115 0.78 -
JF3A_TRINITY_DN45375_c0_g1_i1.p1JF3A_TRINITY_DN45375_c0_g1   -            133 175852at3193         -            169       0.5   11.7   0.0   1   2       2.1   1.1e+04   -2.4   0.0    34    43    26    35    11    39 0.77 -
JF3A_TRINITY_DN45375_c0_g1_i1.p1JF3A_TRINITY_DN45375_c0_g1   -            133 175852at3193         -            169       0.5   11.7   0.0   2   2   0.00022       1.1   10.6   0.0     7    53    54   105    48   112 0.77 -
JF1A_TRINITY_DN61414_c1_g5_i5.p1JF1A_TRINITY_DN61414_c1_g5   -            168 175852at3193         -            169      0.53   11.6   0.0   1   1   0.00014       0.7   11.2   0.0    23    64   102   144    79   164 0.71 -
#
# Program:         hmmsearch
# Version:         3.2.1 (June 2018)
# Pipeline mode:   SEARCH
# Query file:      /isg/shared/databases/BUSCO/odb10/embryophyta_odb10/hmms/175852at3193.hmm
# Target file:     Juniper_final_annotations_no_contam_lvl0.faa
# Option settings: /usr/local/bin/hmmsearch --domtblout /labs/Wegrzyn/Juniper_Pine/BUSCO/NEW/busco_juniper/run_embryophyta_odb10/hmmer_output/175852at3193.out --cpu 1 /isg/shared/databases/BUSCO/odb10/embryophyta_odb10/hmms/175852at3193.hmm Juniper_final_annotations_no_contam_lvl0.faa 
# Current dir:     /labs/Wegrzyn/Juniper_Pine/BUSCO/NEW
# Date:            Thu Aug  6 16:12:28 2020
# [ok]
