#                                                                                                                  --- full sequence --- -------------- this domain -------------   hmm coord   ali coord   env coord
# target name                                              accession   tlen query name           accession   qlen   E-value  score  bias   #  of  c-Evalue  i-Evalue  score  bias  from    to  from    to  from    to  acc description of target
#                                      ------------------- ---------- ----- -------------------- ---------- ----- --------- ------ ----- --- --- --------- --------- ------ ----- ----- ----- ----- ----- ----- ----- ---- ---------------------
JF1A_TRINITY_DN67138_c0_g4_i1.p1JF1A_TRINITY_DN67138_c0_g4 -            299 177446at3193         -            161      0.22   13.4   1.2   1   5       2.2   5.1e+04   -4.0   0.0    10    23    15    28    11    30 0.75 -
JF1A_TRINITY_DN67138_c0_g4_i1.p1JF1A_TRINITY_DN67138_c0_g4 -            299 177446at3193         -            161      0.22   13.4   1.2   2   5       1.8   4.1e+04   -3.7   0.0     5    24    51    70    49    73 0.76 -
JF1A_TRINITY_DN67138_c0_g4_i1.p1JF1A_TRINITY_DN67138_c0_g4 -            299 177446at3193         -            161      0.22   13.4   1.2   3   5    0.0013        31    6.4   0.0     6    35   137   168   133   171 0.76 -
JF1A_TRINITY_DN67138_c0_g4_i1.p1JF1A_TRINITY_DN67138_c0_g4 -            299 177446at3193         -            161      0.22   13.4   1.2   4   5     0.014   3.2e+02    3.1   0.0     7    28   180   201   174   207 0.80 -
JF1A_TRINITY_DN67138_c0_g4_i1.p1JF1A_TRINITY_DN67138_c0_g4 -            299 177446at3193         -            161      0.22   13.4   1.2   5   5      0.18   4.2e+03   -0.5   0.0    35    42   287   294   279   297 0.85 -
JF1J_TRINITY_DN63636_c0_g1_i7.p1JF1J_TRINITY_DN63636_c0_g1 -            162 177446at3193         -            161      0.36   12.7   0.0   1   1   2.2e-05       0.5   12.2   0.0   118   152    84   118    70   127 0.83 -
JF1J_TRINITY_DN63636_c0_g1_i6.p1JF1J_TRINITY_DN63636_c0_g1 -            159 177446at3193         -            161      0.45   12.4   0.0   1   1   2.6e-05       0.6   12.0   0.0   118   146    84   112    70   126 0.83 -
#
# Program:         hmmsearch
# Version:         3.2.1 (June 2018)
# Pipeline mode:   SEARCH
# Query file:      /isg/shared/databases/BUSCO/odb10/embryophyta_odb10/hmms/177446at3193.hmm
# Target file:     Juniper_final_annotations_no_contam_lvl0.faa
# Option settings: /usr/local/bin/hmmsearch --domtblout /labs/Wegrzyn/Juniper_Pine/BUSCO/NEW/busco_juniper/run_embryophyta_odb10/hmmer_output/177446at3193.out --cpu 1 /isg/shared/databases/BUSCO/odb10/embryophyta_odb10/hmms/177446at3193.hmm Juniper_final_annotations_no_contam_lvl0.faa 
# Current dir:     /labs/Wegrzyn/Juniper_Pine/BUSCO/NEW
# Date:            Thu Aug  6 16:12:34 2020
# [ok]
