#                                                                                                                   --- full sequence --- -------------- this domain -------------   hmm coord   ali coord   env coord
# target name                                               accession   tlen query name           accession   qlen   E-value  score  bias   #  of  c-Evalue  i-Evalue  score  bias  from    to  from    to  from    to  acc description of target
#                                       ------------------- ---------- ----- -------------------- ---------- ----- --------- ------ ----- --- --- --------- --------- ------ ----- ----- ----- ----- ----- ----- ----- ---- ---------------------
JF3A_TRINITY_DN36871_c0_g1_i2.p1JF3A_TRINITY_DN36871_c0_g1  -            149 177759at3193         -            154     6e-77  258.7   0.1   1   1   2.2e-80     7e-77  258.4   0.1    15   150    14   149     4   149 0.98 -
JF1A_TRINITY_DN60117_c0_g1_i2.p1JF1A_TRINITY_DN60117_c0_g1  -            221 177759at3193         -            154   2.3e-57  195.0   0.1   1   1   1.3e-60     4e-57  194.3   0.1     1   109   111   221   111   221 0.98 -
JF3J_TRINITY_DN72969_c2_g1_i3.p1JF3J_TRINITY_DN72969_c2_g1  -            227 177759at3193         -            154   1.5e-25   91.7   0.2   1   2   4.5e-13   1.4e-09   39.8   0.0     8    78    91   159    83   167 0.88 -
JF3J_TRINITY_DN72969_c2_g1_i3.p1JF3J_TRINITY_DN72969_c2_g1  -            227 177759at3193         -            154   1.5e-25   91.7   0.2   2   2   3.1e-16   9.7e-13   50.1   0.0   111   153   172   214   163   215 0.95 -
JF2A_TRINITY_DN39855_c0_g1_i6.p1JF2A_TRINITY_DN39855_c0_g1  -            168 177759at3193         -            154   5.1e-19   70.5   0.1   1   2     3e-06    0.0094   17.7   0.0     9    40    56    89    48   104 0.78 -
JF2A_TRINITY_DN39855_c0_g1_i6.p1JF2A_TRINITY_DN39855_c0_g1  -            168 177759at3193         -            154   5.1e-19   70.5   0.1   2   2   1.9e-16   5.9e-13   50.8   0.0   111   153   111   153   104   154 0.95 -
JF1A_TRINITY_DN61515_c0_g1_i5.p1JF1A_TRINITY_DN61515_c0_g1  -            205 177759at3193         -            154     2e-10   42.6   0.0   1   2   0.00017      0.54   12.0   0.0    13    69    79   142    66   145 0.77 -
JF1A_TRINITY_DN61515_c0_g1_i5.p1JF1A_TRINITY_DN61515_c0_g1  -            205 177759at3193         -            154     2e-10   42.6   0.0   2   2   1.2e-09   3.9e-06   28.7   0.0   109   153   150   199   144   200 0.85 -
JF3J_TRINITY_DN73932_c1_g1_i2.p1JF3J_TRINITY_DN73932_c1_g1  -            125 177759at3193         -            154   3.2e-08   35.5   0.3   1   2    0.0021       6.7    8.4   0.0    17    45    13    41     4    46 0.86 -
JF3J_TRINITY_DN73932_c1_g1_i2.p1JF3J_TRINITY_DN73932_c1_g1  -            125 177759at3193         -            154   3.2e-08   35.5   0.3   2   2   1.3e-08   4.1e-05   25.4   0.2    87   141    62   117    46   123 0.77 -
JF1J_TRINITY_DN70983_c1_g3_i2.p1JF1J_TRINITY_DN70983_c1_g3  -            104 177759at3193         -            154   1.2e-07   33.6   0.0   1   2      0.44   1.4e+03    0.9   0.0    45    69    15    41     9    45 0.82 -
JF1J_TRINITY_DN70983_c1_g3_i2.p1JF1J_TRINITY_DN70983_c1_g3  -            104 177759at3193         -            154   1.2e-07   33.6   0.0   2   2   2.8e-10   8.8e-07   30.8   0.0   108   153    48    98    42    99 0.85 -
JF1A_TRINITY_DN66700_c2_g2_i13.p1JF1A_TRINITY_DN66700_c2_g2 -            197 177759at3193         -            154   2.3e-05   26.2   0.1   1   2    0.0033        10    7.8   0.0    18    44    79   105    72   120 0.89 -
JF1A_TRINITY_DN66700_c2_g2_i13.p1JF1A_TRINITY_DN66700_c2_g2 -            197 177759at3193         -            154   2.3e-05   26.2   0.1   2   2   9.6e-06      0.03   16.0   0.0   114   149   150   191   146   194 0.73 -
JF1A_TRINITY_DN62925_c2_g1_i8.p1JF1A_TRINITY_DN62925_c2_g1  -            128 177759at3193         -            154   0.00014   23.7   0.1   1   2    0.0037        12    7.6   0.0     8    28    67    89    59    90 0.78 -
JF1A_TRINITY_DN62925_c2_g1_i8.p1JF1A_TRINITY_DN62925_c2_g1  -            128 177759at3193         -            154   0.00014   23.7   0.1   2   2   1.2e-05     0.037   15.8   0.0   131   153    89   111    86   112 0.92 -
JF1A_TRINITY_DN67840_c1_g3_i2.p1JF1A_TRINITY_DN67840_c1_g3  -            232 177759at3193         -            154   0.00015   23.6   0.0   1   2   2.9e-06    0.0093   17.7   0.0   114   152    52    90    47    92 0.86 -
JF1A_TRINITY_DN67840_c1_g3_i2.p1JF1A_TRINITY_DN67840_c1_g3  -            232 177759at3193         -            154   0.00015   23.6   0.0   2   2     0.092   2.9e+02    3.1   0.0   105   151   156   208   150   211 0.78 -
JF1A_TRINITY_DN65050_c0_g2_i11.p1JF1A_TRINITY_DN65050_c0_g2 -            272 177759at3193         -            154   0.00038   22.2   0.2   1   2    0.0014       4.5    9.0   0.0     7    43   137   175   131   188 0.80 -
JF1A_TRINITY_DN65050_c0_g2_i11.p1JF1A_TRINITY_DN65050_c0_g2 -            272 177759at3193         -            154   0.00038   22.2   0.2   2   2   0.00029      0.91   11.2   0.0   112   151   213   252   207   255 0.71 -
JF2A_TRINITY_DN42321_c2_g1_i2.p1JF2A_TRINITY_DN42321_c2_g1  -            175 177759at3193         -            154   0.00044   22.0   0.1   1   2       1.7   5.3e+03   -1.0   0.0    32    45    70    83    64    96 0.78 -
JF2A_TRINITY_DN42321_c2_g1_i2.p1JF2A_TRINITY_DN42321_c2_g1  -            175 177759at3193         -            154   0.00044   22.0   0.1   2   2   5.2e-07    0.0017   20.1   0.0   113   153   120   161   116   162 0.92 -
JF1A_TRINITY_DN63996_c0_g2_i2.p1JF1A_TRINITY_DN63996_c0_g2  -            201 177759at3193         -            154   0.00073   21.3   0.0   1   2     0.002       6.4    8.5   0.0    14    52    78   116    64   128 0.80 -
JF1A_TRINITY_DN63996_c0_g2_i2.p1JF1A_TRINITY_DN63996_c0_g2  -            201 177759at3193         -            154   0.00073   21.3   0.0   2   2   0.00047       1.5   10.6   0.0   114   144   153   189   149   198 0.70 -
JF2A_TRINITY_DN5127_c0_g1_i4.p1JF2A_TRINITY_DN5127_c0_g1    -            143 177759at3193         -            154   0.00088   21.0   0.0   1   1   4.2e-07    0.0013   20.5   0.0   111   152    43    84    19    86 0.75 -
JF1A_TRINITY_DN65139_c1_g1_i12.p1JF1A_TRINITY_DN65139_c1_g1 -            362 177759at3193         -            154    0.0015   20.3   0.1   1   2    0.0015       4.9    8.9   0.0   114   151     1    44     1    47 0.81 -
JF1A_TRINITY_DN65139_c1_g1_i12.p1JF1A_TRINITY_DN65139_c1_g1 -            362 177759at3193         -            154    0.0015   20.3   0.1   2   2    0.0014       4.4    9.0   0.0   112   152   120   163   113   165 0.81 -
JF1A_TRINITY_DN62925_c2_g1_i5.p1JF1A_TRINITY_DN62925_c2_g1  -            169 177759at3193         -            154    0.0016   20.2   0.0   1   1   8.2e-07    0.0026   19.5   0.0     8    40    67   101    59   117 0.86 -
JF1A_TRINITY_DN62770_c0_g3_i18.p1JF1A_TRINITY_DN62770_c0_g3 -            180 177759at3193         -            154    0.0061   18.3   0.1   1   2   3.8e-06     0.012   17.3   0.0   108   151    63   107    37   110 0.81 -
JF1A_TRINITY_DN62770_c0_g3_i18.p1JF1A_TRINITY_DN62770_c0_g3 -            180 177759at3193         -            154    0.0061   18.3   0.1   2   2       5.7   1.8e+04   -2.7   0.0    48    59   134   145   113   162 0.67 -
JF2J_TRINITY_DN20842_c0_g1_i1.p1JF2J_TRINITY_DN20842_c0_g1  -            116 177759at3193         -            154     0.013   17.3   0.0   1   1     6e-06     0.019   16.7   0.0   105   151    18    70    13    73 0.83 -
JF1A_TRINITY_DN63996_c0_g2_i1.p1JF1A_TRINITY_DN63996_c0_g2  -            149 177759at3193         -            154     0.056   15.2   0.0   1   2     0.077   2.4e+02    3.4   0.0    14    40    78   104    63   107 0.77 -
JF1A_TRINITY_DN63996_c0_g2_i1.p1JF1A_TRINITY_DN63996_c0_g2  -            149 177759at3193         -            154     0.056   15.2   0.0   2   2    0.0011       3.5    9.4   0.0   114   133   122   141   118   146 0.89 -
JF1J_TRINITY_DN55378_c0_g1_i1.p1JF1J_TRINITY_DN55378_c0_g1  -            115 177759at3193         -            154      0.11   14.2   0.4   1   2     0.009        28    6.4   0.0    18    77     6    57     2    62 0.64 -
JF1J_TRINITY_DN55378_c0_g1_i1.p1JF1J_TRINITY_DN55378_c0_g1  -            115 177759at3193         -            154      0.11   14.2   0.4   2   2     0.026        82    4.9   0.1   113   125    70    82    62    87 0.85 -
JF2A_TRINITY_DN36042_c0_g1_i1.p1JF2A_TRINITY_DN36042_c0_g1  -            258 177759at3193         -            154      0.11   14.2   0.1   1   2     0.026        81    4.9   0.0    17    46   140   169   128   196 0.64 -
JF2A_TRINITY_DN36042_c0_g1_i1.p1JF2A_TRINITY_DN36042_c0_g1  -            258 177759at3193         -            154      0.11   14.2   0.1   2   2      0.01        32    6.2   0.0   113   143   205   240   195   250 0.66 -
JF3J_TRINITY_DN66136_c0_g4_i1.p1JF3J_TRINITY_DN66136_c0_g4  -            148 177759at3193         -            154       0.2   13.4   0.0   1   2     0.025        77    5.0   0.0    14    51    69   105    56   116 0.73 -
JF3J_TRINITY_DN66136_c0_g4_i1.p1JF3J_TRINITY_DN66136_c0_g4  -            148 177759at3193         -            154       0.2   13.4   0.0   2   2    0.0078        25    6.6   0.0    15    43   117   145   104   148 0.87 -
#
# Program:         hmmsearch
# Version:         3.2.1 (June 2018)
# Pipeline mode:   SEARCH
# Query file:      /isg/shared/databases/BUSCO/odb10/embryophyta_odb10/hmms/177759at3193.hmm
# Target file:     Juniper_final_annotations_no_contam_lvl0.faa
# Option settings: /usr/local/bin/hmmsearch --domtblout /labs/Wegrzyn/Juniper_Pine/BUSCO/NEW/busco_juniper/run_embryophyta_odb10/hmmer_output/177759at3193.out --cpu 1 /isg/shared/databases/BUSCO/odb10/embryophyta_odb10/hmms/177759at3193.hmm Juniper_final_annotations_no_contam_lvl0.faa 
# Current dir:     /labs/Wegrzyn/Juniper_Pine/BUSCO/NEW
# Date:            Thu Aug  6 16:12:37 2020
# [ok]
