#                                                                                                                   --- full sequence --- -------------- this domain -------------   hmm coord   ali coord   env coord
# target name                                               accession   tlen query name           accession   qlen   E-value  score  bias   #  of  c-Evalue  i-Evalue  score  bias  from    to  from    to  from    to  acc description of target
#                                       ------------------- ---------- ----- -------------------- ---------- ----- --------- ------ ----- --- --- --------- --------- ------ ----- ----- ----- ----- ----- ----- ----- ---- ---------------------
JF1A_TRINITY_DN65870_c2_g4_i10.p1JF1A_TRINITY_DN65870_c2_g4 -            162 179211at3193         -            162   1.1e-42  147.6   0.1   1   1   3.3e-46   1.8e-42  146.9   0.1     8    83    83   158    78   160 0.97 -
JF1J_TRINITY_DN66974_c0_g3_i3.p1JF1J_TRINITY_DN66974_c0_g3  -            234 179211at3193         -            162   8.1e-39  135.0   1.7   1   1   6.6e-42   3.5e-38  133.0   1.7     9   159    73   230    66   232 0.87 -
JF1A_TRINITY_DN60888_c1_g2_i2.p1JF1A_TRINITY_DN60888_c1_g2  -            193 179211at3193         -            162   2.7e-35  123.6   0.5   1   2   7.8e-33   4.2e-29  103.5   0.2    13    95    77   158    66   161 0.90 -
JF1A_TRINITY_DN60888_c1_g2_i2.p1JF1A_TRINITY_DN60888_c1_g2  -            193 179211at3193         -            162   2.7e-35  123.6   0.5   2   2   8.8e-07    0.0047   18.8   0.0    17    40   162   185   158   192 0.81 -
JF3J_TRINITY_DN63477_c0_g1_i7.p1JF3J_TRINITY_DN63477_c0_g1  -            133 179211at3193         -            162   2.1e-33  117.4   0.5   1   2   5.7e-31   3.1e-27   97.4   0.2    20    96     7    82     3    86 0.91 -
JF3J_TRINITY_DN63477_c0_g1_i7.p1JF3J_TRINITY_DN63477_c0_g1  -            133 179211at3193         -            162   2.1e-33  117.4   0.5   2   2   6.7e-07    0.0036   19.2   0.0    17    48    85   117    81   123 0.82 -
JF2J_TRINITY_DN26017_c1_g3_i2.p1JF2J_TRINITY_DN26017_c1_g3  -            154 179211at3193         -            162   1.4e-32  114.7   7.0   1   3    0.0059        32    6.3   0.2   119   154     9    44     5    45 0.93 -
JF2J_TRINITY_DN26017_c1_g3_i2.p1JF2J_TRINITY_DN26017_c1_g3  -            154 179211at3193         -            162   1.4e-32  114.7   7.0   2   3   5.8e-10   3.1e-06   29.1   0.1    22    43    45    66    43    71 0.94 -
JF2J_TRINITY_DN26017_c1_g3_i2.p1JF2J_TRINITY_DN26017_c1_g3  -            154 179211at3193         -            162   1.4e-32  114.7   7.0   3   3   1.2e-26   6.4e-23   83.3   0.2     8    72    90   154    83   154 0.91 -
JF3J_TRINITY_DN71971_c2_g4_i1.p1JF3J_TRINITY_DN71971_c2_g4  -            106 179211at3193         -            162     1e-28  102.2   0.2   1   1   2.6e-32   1.4e-28  101.8   0.2    20    96     2    77     1    96 0.85 -
JF1J_TRINITY_DN66974_c0_g3_i7.p1JF1J_TRINITY_DN66974_c0_g3  -            161 179211at3193         -            162   5.4e-27   96.6   0.3   1   1   1.3e-30   7.2e-27   96.2   0.3     8    79    70   141    63   144 0.91 -
JF3J_TRINITY_DN71971_c2_g4_i3.p1JF3J_TRINITY_DN71971_c2_g4  -            196 179211at3193         -            162   3.6e-25   90.7   0.1   1   1     9e-29   4.8e-25   90.2   0.1    20    80     2    62     1    65 0.97 -
JF1A_TRINITY_DN64590_c6_g3_i6.p1JF1A_TRINITY_DN64590_c6_g3  -            273 179211at3193         -            162   1.6e-11   46.3   0.1   1   1   5.3e-15   2.8e-11   45.5   0.1    20    98   183   263   167   271 0.78 -
JF1J_TRINITY_DN66974_c0_g3_i5.p1JF1J_TRINITY_DN66974_c0_g3  -            145 179211at3193         -            162   1.4e-10   43.2   0.1   1   1   3.5e-14   1.9e-10   42.8   0.1     8    54    70   116    63   125 0.87 -
JF3J_TRINITY_DN63353_c4_g1_i3.p1JF3J_TRINITY_DN63353_c4_g1  -            102 179211at3193         -            162     0.012   17.4   0.2   1   2    0.0025        13    7.6   0.0    50    70    20    40     4    50 0.78 -
JF3J_TRINITY_DN63353_c4_g1_i3.p1JF3J_TRINITY_DN63353_c4_g1  -            102 179211at3193         -            162     0.012   17.4   0.2   2   2    0.0014       7.7    8.3   0.1    51    72    64    85    59    95 0.78 -
JF3A_TRINITY_DN57669_c1_g3_i4.p1JF3A_TRINITY_DN57669_c1_g3  -            198 179211at3193         -            162      0.32   12.8   0.3   1   2    0.0019        10    7.9   0.1    51    72    23    44    18    67 0.81 -
JF3A_TRINITY_DN57669_c1_g3_i4.p1JF3A_TRINITY_DN57669_c1_g3  -            198 179211at3193         -            162      0.32   12.8   0.3   2   2     0.056     3e+02    3.1   0.0   118   153   126   161    84   169 0.82 -
JF1A_TRINITY_DN68429_c1_g1_i7.p1JF1A_TRINITY_DN68429_c1_g1  -           1627 179211at3193         -            162      0.49   12.2   0.0   1   1   0.00021       1.1   11.1   0.0    35   145   828   940   821   953 0.74 -
#
# Program:         hmmsearch
# Version:         3.2.1 (June 2018)
# Pipeline mode:   SEARCH
# Query file:      /isg/shared/databases/BUSCO/odb10/embryophyta_odb10/hmms/179211at3193.hmm
# Target file:     Juniper_final_annotations_no_contam_lvl0.faa
# Option settings: /usr/local/bin/hmmsearch --domtblout /labs/Wegrzyn/Juniper_Pine/BUSCO/NEW/busco_juniper/run_embryophyta_odb10/hmmer_output/179211at3193.out --cpu 1 /isg/shared/databases/BUSCO/odb10/embryophyta_odb10/hmms/179211at3193.hmm Juniper_final_annotations_no_contam_lvl0.faa 
# Current dir:     /labs/Wegrzyn/Juniper_Pine/BUSCO/NEW
# Date:            Thu Aug  6 16:12:42 2020
# [ok]
