#                                                                                                                   --- full sequence --- -------------- this domain -------------   hmm coord   ali coord   env coord
# target name                                               accession   tlen query name           accession   qlen   E-value  score  bias   #  of  c-Evalue  i-Evalue  score  bias  from    to  from    to  from    to  acc description of target
#                                       ------------------- ---------- ----- -------------------- ---------- ----- --------- ------ ----- --- --- --------- --------- ------ ----- ----- ----- ----- ----- ----- ----- ---- ---------------------
JF1J_TRINITY_DN70521_c0_g4_i2.p1JF1J_TRINITY_DN70521_c0_g4  -            215 180839at3193         -            141   5.3e-69  232.2   0.0   1   1   1.4e-72     7e-69  231.8   0.0     7   134    86   213    80   215 0.96 -
JF1A_TRINITY_DN65358_c1_g3_i1.p1JF1A_TRINITY_DN65358_c1_g3  -            230 180839at3193         -            141   7.9e-15   56.6   0.0   1   1   2.3e-18   1.1e-14   56.1   0.0    19   138    12   134     5   137 0.89 -
JF1A_TRINITY_DN65358_c1_g1_i2.p1JF1A_TRINITY_DN65358_c1_g1  -            226 180839at3193         -            141   1.9e-12   48.8   0.0   1   1   5.5e-16   2.7e-12   48.4   0.0    19   138    12   134     5   137 0.88 -
JF1A_TRINITY_DN65358_c1_g1_i1.p1JF1A_TRINITY_DN65358_c1_g1  -            116 180839at3193         -            141   1.6e-10   42.6   0.0   1   1   3.9e-14   1.9e-10   42.4   0.0    19   101    12    92     5   108 0.90 -
JF3J_TRINITY_DN73618_c0_g2_i1.p1JF3J_TRINITY_DN73618_c0_g2  -            122 180839at3193         -            141   4.3e-10   41.2   0.0   1   1   1.1e-13   5.3e-10   41.0   0.0    19    97    12    88     5   105 0.90 -
JF2A_TRINITY_DN42549_c0_g4_i2.p1JF2A_TRINITY_DN42549_c0_g4  -            274 180839at3193         -            141   1.2e-07   33.3   0.0   1   2   4.2e-07    0.0021   19.6   0.0    23   137    12   131     5   134 0.79 -
JF2A_TRINITY_DN42549_c0_g4_i2.p1JF2A_TRINITY_DN42549_c0_g4  -            274 180839at3193         -            141   1.2e-07   33.3   0.0   2   2   0.00011      0.55   11.7   0.0    25   115   144   234   140   260 0.78 -
JF3A_TRINITY_DN46174_c5_g1_i1.p1JF3A_TRINITY_DN46174_c5_g1  -            101 180839at3193         -            141   2.3e-07   32.4   0.0   1   2   1.1e-10   5.4e-07   31.2   0.0    19    73    12    64     5    70 0.88 -
JF3A_TRINITY_DN46174_c5_g1_i1.p1JF3A_TRINITY_DN46174_c5_g1  -            101 180839at3193         -            141   2.3e-07   32.4   0.0   2   2       1.5   7.3e+03   -1.6   0.0   124   133    81    90    65    96 0.73 -
JF1A_TRINITY_DN65186_c0_g2_i3.p1JF1A_TRINITY_DN65186_c0_g2  -            287 180839at3193         -            141   5.8e-07   31.1   0.0   1   2   8.6e-08   0.00042   21.8   0.0    27   139    26   143     4   144 0.78 -
JF1A_TRINITY_DN65186_c0_g2_i3.p1JF1A_TRINITY_DN65186_c0_g2  -            287 180839at3193         -            141   5.8e-07   31.1   0.0   2   2    0.0027        13    7.2   0.0    25    63   154   192   150   232 0.81 -
JF1J_TRINITY_DN71077_c2_g2_i16.p1JF1J_TRINITY_DN71077_c2_g2 -            142 180839at3193         -            141   0.00081   20.9   0.0   1   1     2e-07   0.00099   20.6   0.0    27   110    41   124    22   134 0.79 -
JF2A_TRINITY_DN42270_c2_g1_i12.p1JF2A_TRINITY_DN42270_c2_g1 -            118 180839at3193         -            141     0.005   18.3   0.0   1   2   5.3e-06     0.026   16.0   0.0    22    58     4    41     1    61 0.86 -
JF2A_TRINITY_DN42270_c2_g1_i12.p1JF2A_TRINITY_DN42270_c2_g1 -            118 180839at3193         -            141     0.005   18.3   0.0   2   2      0.43   2.2e+03    0.1   0.0    25    42    65    82    57    95 0.84 -
JF2A_TRINITY_DN42647_c1_g5_i6.p1JF2A_TRINITY_DN42647_c1_g5  -            110 180839at3193         -            141    0.0061   18.1   0.0   1   2   2.1e-06      0.01   17.3   0.0    26    75    25    75     3    94 0.79 -
JF2A_TRINITY_DN42647_c1_g5_i6.p1JF2A_TRINITY_DN42647_c1_g5  -            110 180839at3193         -            141    0.0061   18.1   0.0   2   2       1.5   7.5e+03   -1.7   0.0    65    84    86   105    74   106 0.75 -
JF2A_TRINITY_DN42549_c0_g4_i4.p1JF2A_TRINITY_DN42549_c0_g4  -            128 180839at3193         -            141    0.0093   17.5   0.0   1   1   2.2e-06     0.011   17.3   0.0    23   101    12    90     5   109 0.77 -
JF3J_TRINITY_DN71432_c2_g1_i19.p1JF3J_TRINITY_DN71432_c2_g1 -            111 180839at3193         -            141     0.012   17.1   0.0   1   1   2.6e-06     0.013   17.0   0.0    27    75    17    66     2    98 0.82 -
JF1J_TRINITY_DN67035_c0_g3_i4.p1JF1J_TRINITY_DN67035_c0_g3  -            263 180839at3193         -            141     0.033   15.7   0.0   1   3   2.5e-05      0.12   13.9   0.0    22    58     4    41     1    59 0.86 -
JF1J_TRINITY_DN67035_c0_g3_i4.p1JF1J_TRINITY_DN67035_c0_g3  -            263 180839at3193         -            141     0.033   15.7   0.0   2   3       2.5   1.3e+04   -2.4   0.0    25    42    65    82    57    94 0.84 -
JF1J_TRINITY_DN67035_c0_g3_i4.p1JF1J_TRINITY_DN67035_c0_g3  -            263 180839at3193         -            141     0.033   15.7   0.0   3   3       5.1   2.5e+04   -3.4   0.0    78    97   197   216   191   222 0.60 -
#
# Program:         hmmsearch
# Version:         3.2.1 (June 2018)
# Pipeline mode:   SEARCH
# Query file:      /isg/shared/databases/BUSCO/odb10/embryophyta_odb10/hmms/180839at3193.hmm
# Target file:     Juniper_final_annotations_no_contam_lvl0.faa
# Option settings: /usr/local/bin/hmmsearch --domtblout /labs/Wegrzyn/Juniper_Pine/BUSCO/NEW/busco_juniper/run_embryophyta_odb10/hmmer_output/180839at3193.out --cpu 1 /isg/shared/databases/BUSCO/odb10/embryophyta_odb10/hmms/180839at3193.hmm Juniper_final_annotations_no_contam_lvl0.faa 
# Current dir:     /labs/Wegrzyn/Juniper_Pine/BUSCO/NEW
# Date:            Thu Aug  6 16:12:49 2020
# [ok]
