#                                                                                                                   --- full sequence --- -------------- this domain -------------   hmm coord   ali coord   env coord
# target name                                               accession   tlen query name           accession   qlen   E-value  score  bias   #  of  c-Evalue  i-Evalue  score  bias  from    to  from    to  from    to  acc description of target
#                                       ------------------- ---------- ----- -------------------- ---------- ----- --------- ------ ----- --- --- --------- --------- ------ ----- ----- ----- ----- ----- ----- ----- ---- ---------------------
JF2A_TRINITY_DN38237_c0_g1_i1.p1JF2A_TRINITY_DN38237_c0_g1  -            572 184869at3193         -            106    3e-123  405.2   0.0   1   4   1.5e-37   5.6e-34  118.2   0.0     7   103   162   258   157   261 0.96 -
JF2A_TRINITY_DN38237_c0_g1_i1.p1JF2A_TRINITY_DN38237_c0_g1  -            572 184869at3193         -            106    3e-123  405.2   0.0   2   4   6.4e-31   2.3e-27   96.9   0.0     4    95   303   394   300   397 0.95 -
JF2A_TRINITY_DN38237_c0_g1_i1.p1JF2A_TRINITY_DN38237_c0_g1  -            572 184869at3193         -            106    3e-123  405.2   0.0   3   4   8.6e-33   3.1e-29  103.0   0.0    12   103   395   486   392   490 0.96 -
JF2A_TRINITY_DN38237_c0_g1_i1.p1JF2A_TRINITY_DN38237_c0_g1  -            572 184869at3193         -            106    3e-123  405.2   0.0   4   4   1.9e-26   7.1e-23   82.5   0.0     7    82   497   572   493   572 0.96 -
JF1A_TRINITY_DN64829_c5_g3_i1.p1JF1A_TRINITY_DN64829_c5_g3  -            344 184869at3193         -            106  2.3e-102  338.1   0.0   1   3   1.1e-35   3.9e-32  112.3   0.0    15   103     1    89     1    92 0.97 -
JF1A_TRINITY_DN64829_c5_g3_i1.p1JF1A_TRINITY_DN64829_c5_g3  -            344 184869at3193         -            106  2.3e-102  338.1   0.0   2   3   2.6e-34   9.6e-31  107.8   0.0     4   103   134   233   131   237 0.95 -
JF1A_TRINITY_DN64829_c5_g3_i1.p1JF1A_TRINITY_DN64829_c5_g3  -            344 184869at3193         -            106  2.3e-102  338.1   0.0   3   3   1.9e-36   6.9e-33  114.7   0.0     7   104   244   341   239   343 0.96 -
JF1A_TRINITY_DN66790_c1_g4_i8.p1JF1A_TRINITY_DN66790_c1_g4  -            173 184869at3193         -            106   5.2e-56  189.1   0.1   1   1     2e-59   7.2e-56  188.6   0.1     2   104    69   171    68   172 0.98 -
JF1A_TRINITY_DN64020_c0_g1_i3.p1JF1A_TRINITY_DN64020_c0_g1  -            144 184869at3193         -            106   1.5e-30  107.2   0.0   1   1   5.2e-34   1.9e-30  106.9   0.0     6   104    38   136    33   138 0.96 -
JF1A_TRINITY_DN64020_c0_g1_i4.p1JF1A_TRINITY_DN64020_c0_g1  -            164 184869at3193         -            106   2.2e-30  106.7   0.0   1   1   7.8e-34   2.8e-30  106.3   0.0     6   104    58   156    53   158 0.96 -
JF1A_TRINITY_DN62120_c1_g3_i10.p1JF1A_TRINITY_DN62120_c1_g3 -            313 184869at3193         -            106   8.5e-30  104.8   0.0   1   1   3.8e-33   1.4e-29  104.1   0.0     4   103   205   307   203   310 0.94 -
JF3J_TRINITY_DN60477_c0_g2_i1.p1JF3J_TRINITY_DN60477_c0_g2  -            135 184869at3193         -            106   5.7e-29  102.1   0.0   1   1     2e-32   7.2e-29  101.8   0.0     4    96    42   134    39   135 0.96 -
JF3J_TRINITY_DN60477_c0_g1_i1.p1JF3J_TRINITY_DN60477_c0_g1  -            132 184869at3193         -            106   1.1e-21   78.7   0.0   1   1   4.2e-25   1.5e-21   78.2   0.0    39   104    11    76     5    78 0.95 -
JF3J_TRINITY_DN57717_c0_g1_i2.p1JF3J_TRINITY_DN57717_c0_g1  -            128 184869at3193         -            106   3.7e-20   73.8   0.0   1   1   1.3e-23   4.7e-20   73.5   0.0    14    81     2    72     1    86 0.93 -
JF1A_TRINITY_DN68385_c2_g1_i1.p1JF1A_TRINITY_DN68385_c2_g1  -            107 184869at3193         -            106   5.5e-14   53.9   0.0   1   1   1.7e-17   6.1e-14   53.8   0.0    12   103     4    98     1   101 0.89 -
JF1A_TRINITY_DN61496_c0_g1_i2.p1JF1A_TRINITY_DN61496_c0_g1  -            117 184869at3193         -            106   1.3e-08   36.7   0.0   1   1   4.4e-12   1.6e-08   36.4   0.0    12   103    20   109     6   112 0.84 -
JF1A_TRINITY_DN57162_c1_g1_i1.p1JF1A_TRINITY_DN57162_c1_g1  -            113 184869at3193         -            106   2.9e-08   35.6   0.0   1   1   8.9e-12   3.2e-08   35.4   0.0    32   103    31   105     8   108 0.85 -
JF2A_TRINITY_DN38631_c0_g1_i5.p1JF2A_TRINITY_DN38631_c0_g1  -            141 184869at3193         -            106   1.4e-07   33.3   0.0   1   1   5.5e-11     2e-07   32.9   0.0    12   104    33   123    24   125 0.77 -
JF1A_TRINITY_DN68054_c1_g3_i1.p1JF1A_TRINITY_DN68054_c1_g3  -            156 184869at3193         -            106   0.00018   23.3   0.0   1   1   6.8e-08   0.00025   22.9   0.0    20   105    10    97     7    98 0.80 -
JF1A_TRINITY_DN63833_c2_g1_i4.p1JF1A_TRINITY_DN63833_c2_g1  -            225 184869at3193         -            106   0.00035   22.4   0.0   1   1   1.8e-07   0.00065   21.6   0.0     5    99    72   165    68   170 0.83 -
JF2A_TRINITY_DN42842_c0_g3_i1.p1JF2A_TRINITY_DN42842_c0_g3  -            144 184869at3193         -            106     0.016   17.1   0.0   1   1   6.1e-06     0.022   16.6   0.0    30    89    78   135    61   141 0.82 -
JF3J_TRINITY_DN68711_c3_g1_i2.p1JF3J_TRINITY_DN68711_c3_g1  -            409 184869at3193         -            106      0.12   14.2   0.0   1   1   6.9e-05      0.25   13.3   0.0     7    62    82   140    77   163 0.85 -
JF1A_TRINITY_DN65187_c1_g7_i1.p1JF1A_TRINITY_DN65187_c1_g7  -            658 184869at3193         -            106      0.46   12.4   0.1   1   2       4.8   1.8e+04   -2.3   0.0    50    70    58    78    53    83 0.80 -
JF1A_TRINITY_DN65187_c1_g7_i1.p1JF1A_TRINITY_DN65187_c1_g7  -            658 184869at3193         -            106      0.46   12.4   0.1   2   2   0.00047       1.7   10.6   0.0    22    71   266   314   255   322 0.87 -
JF1J_TRINITY_DN69367_c3_g2_i7.p1JF1J_TRINITY_DN69367_c3_g2  -            142 184869at3193         -            106      0.76   11.7   0.0   1   1   0.00033       1.2   11.1   0.0    73    94   119   140   112   142 0.88 -
#
# Program:         hmmsearch
# Version:         3.2.1 (June 2018)
# Pipeline mode:   SEARCH
# Query file:      /isg/shared/databases/BUSCO/odb10/embryophyta_odb10/hmms/184869at3193.hmm
# Target file:     Juniper_final_annotations_no_contam_lvl0.faa
# Option settings: /usr/local/bin/hmmsearch --domtblout /labs/Wegrzyn/Juniper_Pine/BUSCO/NEW/busco_juniper/run_embryophyta_odb10/hmmer_output/184869at3193.out --cpu 1 /isg/shared/databases/BUSCO/odb10/embryophyta_odb10/hmms/184869at3193.hmm Juniper_final_annotations_no_contam_lvl0.faa 
# Current dir:     /labs/Wegrzyn/Juniper_Pine/BUSCO/NEW
# Date:            Thu Aug  6 16:13:10 2020
# [ok]
