#                                                                                                                    --- full sequence --- -------------- this domain -------------   hmm coord   ali coord   env coord
# target name                                                accession   tlen query name           accession   qlen   E-value  score  bias   #  of  c-Evalue  i-Evalue  score  bias  from    to  from    to  from    to  acc description of target
#                                        ------------------- ---------- ----- -------------------- ---------- ----- --------- ------ ----- --- --- --------- --------- ------ ----- ----- ----- ----- ----- ----- ----- ---- ---------------------
JF1A_TRINITY_DN66413_c1_g1_i1.p1JF1A_TRINITY_DN66413_c1_g1   -            138 184963at3193         -            129   3.8e-33  116.3   0.7   1   1   2.3e-35   5.9e-33  115.7   0.7    54   113     1    61     1    64 0.93 -
JF1A_TRINITY_DN60924_c1_g1_i1.p1JF1A_TRINITY_DN60924_c1_g1   -            366 184963at3193         -            129   7.6e-31  108.8   0.4   1   4   3.7e-09   9.5e-07   30.9   0.0     4    79    17    92    14   102 0.93 -
JF1A_TRINITY_DN60924_c1_g1_i1.p1JF1A_TRINITY_DN60924_c1_g1   -            366 184963at3193         -            129   7.6e-31  108.8   0.4   2   4   1.3e-08   3.3e-06   29.2   0.1     5    77   106   177   103   191 0.87 -
JF1A_TRINITY_DN60924_c1_g1_i1.p1JF1A_TRINITY_DN60924_c1_g1   -            366 184963at3193         -            129   7.6e-31  108.8   0.4   3   4   2.8e-09   7.2e-07   31.3   0.1     4    80   196   271   192   278 0.90 -
JF1A_TRINITY_DN60924_c1_g1_i1.p1JF1A_TRINITY_DN60924_c1_g1   -            366 184963at3193         -            129   7.6e-31  108.8   0.4   4   4    0.0015      0.39   12.8   0.0     4    58   299   352   296   363 0.89 -
JF1A_TRINITY_DN67673_c0_g1_i7.p1JF1A_TRINITY_DN67673_c0_g1   -            433 184963at3193         -            129   7.6e-25   89.4   0.2   1   4    0.0002     0.052   15.6   0.0     3    80    43   120    41   131 0.93 -
JF1A_TRINITY_DN67673_c0_g1_i7.p1JF1A_TRINITY_DN67673_c0_g1   -            433 184963at3193         -            129   7.6e-25   89.4   0.2   2   4   8.4e-08   2.2e-05   26.5   0.1     5    75   133   202   129   213 0.88 -
JF1A_TRINITY_DN67673_c0_g1_i7.p1JF1A_TRINITY_DN67673_c0_g1   -            433 184963at3193         -            129   7.6e-25   89.4   0.2   3   4   3.9e-06   0.00099   21.2   0.0     3    69   222   287   220   310 0.87 -
JF1A_TRINITY_DN67673_c0_g1_i7.p1JF1A_TRINITY_DN67673_c0_g1   -            433 184963at3193         -            129   7.6e-25   89.4   0.2   4   4   3.9e-06     0.001   21.1   0.0     4    81   326   402   323   410 0.91 -
JF2A_TRINITY_DN40499_c0_g1_i1.p1JF2A_TRINITY_DN40499_c0_g1   -            329 184963at3193         -            129   5.5e-23   83.4   0.0   1   3   1.9e-09     5e-07   31.8   0.0     4    86    53   133    50   139 0.92 -
JF2A_TRINITY_DN40499_c0_g1_i1.p1JF2A_TRINITY_DN40499_c0_g1   -            329 184963at3193         -            129   5.5e-23   83.4   0.0   2   3   5.6e-08   1.4e-05   27.1   0.0     5    82   140   217   136   221 0.96 -
JF2A_TRINITY_DN40499_c0_g1_i1.p1JF2A_TRINITY_DN40499_c0_g1   -            329 184963at3193         -            129   5.5e-23   83.4   0.0   3   3     4e-06     0.001   21.1   0.0     5    80   248   323   245   327 0.95 -
JF1A_TRINITY_DN64044_c0_g1_i10.p1JF1A_TRINITY_DN64044_c0_g1  -            332 184963at3193         -            129   9.6e-21   76.2   0.0   1   2   3.6e-11   9.2e-09   37.4   0.0     4    79   151   226   148   234 0.95 -
JF1A_TRINITY_DN64044_c0_g1_i10.p1JF1A_TRINITY_DN64044_c0_g1  -            332 184963at3193         -            129   9.6e-21   76.2   0.0   2   2   6.4e-11   1.7e-08   36.6   0.0     4    81   250   327   247   331 0.95 -
JF1A_TRINITY_DN65017_c0_g2_i5.p1JF1A_TRINITY_DN65017_c0_g2   -            280 184963at3193         -            129   5.8e-20   73.6   0.3   1   2   2.4e-07   6.1e-05   25.1   0.0     4    57    24    77    21    95 0.90 -
JF1A_TRINITY_DN65017_c0_g2_i5.p1JF1A_TRINITY_DN65017_c0_g2   -            280 184963at3193         -            129   5.8e-20   73.6   0.3   2   2   4.6e-14   1.2e-11   46.8   0.0     3    88   118   202   116   210 0.92 -
JF1J_TRINITY_DN71718_c1_g1_i11.p1JF1J_TRINITY_DN71718_c1_g1  -            255 184963at3193         -            129   6.8e-19   70.2   0.0   1   2   1.4e-10   3.6e-08   35.5   0.0     4    79    80   155    77   163 0.94 -
JF1J_TRINITY_DN71718_c1_g1_i11.p1JF1J_TRINITY_DN71718_c1_g1  -            255 184963at3193         -            129   6.8e-19   70.2   0.0   2   2   1.1e-09   2.8e-07   32.6   0.0     5    79   180   254   177   254 0.97 -
JF2A_TRINITY_DN40277_c0_g1_i3.p1JF2A_TRINITY_DN40277_c0_g1   -            191 184963at3193         -            129   7.3e-19   70.1   0.4   1   2   1.2e-07     3e-05   26.1   0.0     4    57     7    60     4    80 0.90 -
JF2A_TRINITY_DN40277_c0_g1_i3.p1JF2A_TRINITY_DN40277_c0_g1   -            191 184963at3193         -            129   7.3e-19   70.1   0.4   2   2   9.4e-13   2.4e-10   42.6   0.1     3    77   101   174    99   184 0.94 -
JF1A_TRINITY_DN67563_c1_g6_i1.p1JF1A_TRINITY_DN67563_c1_g6   -            150 184963at3193         -            129   1.7e-18   68.9   0.0   1   1   1.1e-20   2.9e-18   68.2   0.0     4    91    51   138    48   141 0.96 -
JF1A_TRINITY_DN67410_c1_g2_i3.p1JF1A_TRINITY_DN67410_c1_g2   -            261 184963at3193         -            129   2.6e-18   68.3   0.0   1   2   1.4e-09   3.7e-07   32.2   0.0     3    82    83   162    81   171 0.96 -
JF1A_TRINITY_DN67410_c1_g2_i3.p1JF1A_TRINITY_DN67410_c1_g2   -            261 184963at3193         -            129   2.6e-18   68.3   0.0   2   2   3.8e-10   9.7e-08   34.1   0.0     3    80   175   252   173   259 0.94 -
JF1A_TRINITY_DN67410_c1_g2_i25.p1JF1A_TRINITY_DN67410_c1_g2  -            298 184963at3193         -            129   3.8e-18   67.8   0.0   1   2   1.9e-09   4.8e-07   31.9   0.0     3    82   120   199   118   208 0.96 -
JF1A_TRINITY_DN67410_c1_g2_i25.p1JF1A_TRINITY_DN67410_c1_g2  -            298 184963at3193         -            129   3.8e-18   67.8   0.0   2   2   4.9e-10   1.3e-07   33.8   0.0     3    80   212   289   210   296 0.94 -
JF1A_TRINITY_DN65561_c0_g1_i11.p1JF1A_TRINITY_DN65561_c0_g1  -            223 184963at3193         -            129     4e-18   67.7   0.0   1   2   3.5e-10   8.9e-08   34.3   0.0     4    64    49   109    46   139 0.83 -
JF1A_TRINITY_DN65561_c0_g1_i11.p1JF1A_TRINITY_DN65561_c0_g1  -            223 184963at3193         -            129     4e-18   67.7   0.0   2   2   1.9e-09   4.8e-07   31.9   0.0     3    65   139   201   137   215 0.86 -
JF3A_TRINITY_DN53514_c3_g1_i2.p1JF3A_TRINITY_DN53514_c3_g1   -            292 184963at3193         -            129     6e-18   67.1   0.2   1   3   1.1e-05    0.0029   19.7   0.0     3    75     5    80     3    92 0.82 -
JF3A_TRINITY_DN53514_c3_g1_i2.p1JF3A_TRINITY_DN53514_c3_g1   -            292 184963at3193         -            129     6e-18   67.1   0.2   2   3   1.9e-06   0.00049   22.1   0.0     3    70   100   166    98   191 0.87 -
JF3A_TRINITY_DN53514_c3_g1_i2.p1JF3A_TRINITY_DN53514_c3_g1   -            292 184963at3193         -            129     6e-18   67.1   0.2   3   3   2.1e-06   0.00053   22.0   0.0     4    80   204   279   201   286 0.91 -
JF1A_TRINITY_DN62278_c0_g3_i1.p1JF1A_TRINITY_DN62278_c0_g3   -            218 184963at3193         -            129   7.4e-18   66.8   0.0   1   2   2.4e-07   6.3e-05   25.0   0.0     4    81    15    88    12    99 0.90 -
JF1A_TRINITY_DN62278_c0_g3_i1.p1JF1A_TRINITY_DN62278_c0_g3   -            218 184963at3193         -            129   7.4e-18   66.8   0.0   2   2   5.5e-12   1.4e-09   40.1   0.0     4    81   100   177    97   200 0.94 -
JF1A_TRINITY_DN61788_c2_g1_i17.p1JF1A_TRINITY_DN61788_c2_g1  -            316 184963at3193         -            129     1e-17   66.4   0.3   1   2   3.7e-06   0.00095   21.2   0.0     4    54    33    83    30   112 0.83 -
JF1A_TRINITY_DN61788_c2_g1_i17.p1JF1A_TRINITY_DN61788_c2_g1  -            316 184963at3193         -            129     1e-17   66.4   0.3   2   2   5.4e-13   1.4e-10   43.3   0.1     3    84   132   212   130   215 0.94 -
JF1A_TRINITY_DN60344_c5_g2_i11.p1JF1A_TRINITY_DN60344_c5_g2  -            376 184963at3193         -            129   1.7e-17   65.7   0.0   1   3     0.071        18    7.4   0.0    14    66    18    70    12    79 0.90 -
JF1A_TRINITY_DN60344_c5_g2_i11.p1JF1A_TRINITY_DN60344_c5_g2  -            376 184963at3193         -            129   1.7e-17   65.7   0.0   2   3   4.3e-11   1.1e-08   37.2   0.0     4    94   101   192    99   200 0.93 -
JF1A_TRINITY_DN60344_c5_g2_i11.p1JF1A_TRINITY_DN60344_c5_g2  -            376 184963at3193         -            129   1.7e-17   65.7   0.0   3   3   5.6e-05     0.014   17.4   0.0     2    68   216   276   215   307 0.89 -
JF1A_TRINITY_DN65561_c0_g1_i1.p1JF1A_TRINITY_DN65561_c0_g1   -            301 184963at3193         -            129   1.9e-17   65.5   0.0   1   2   6.2e-10   1.6e-07   33.4   0.0     4    63    65   124    62   155 0.84 -
JF1A_TRINITY_DN65561_c0_g1_i1.p1JF1A_TRINITY_DN65561_c0_g1   -            301 184963at3193         -            129   1.9e-17   65.5   0.0   2   2   5.7e-09   1.5e-06   30.3   0.0     3    63   155   215   153   237 0.90 -
JF2A_TRINITY_DN37273_c0_g1_i3.p1JF2A_TRINITY_DN37273_c0_g1   -            305 184963at3193         -            129     2e-17   65.4   0.0   1   2   6.4e-10   1.6e-07   33.4   0.0     4    63   109   168   106   199 0.84 -
JF2A_TRINITY_DN37273_c0_g1_i3.p1JF2A_TRINITY_DN37273_c0_g1   -            305 184963at3193         -            129     2e-17   65.4   0.0   2   2   5.8e-09   1.5e-06   30.3   0.0     3    63   199   259   197   281 0.90 -
JF1A_TRINITY_DN66457_c0_g1_i2.p1JF1A_TRINITY_DN66457_c0_g1   -            367 184963at3193         -            129   3.1e-17   64.8   0.3   1   2   2.1e-06   0.00054   22.0   0.0     4    54     7    57     4    84 0.88 -
JF1A_TRINITY_DN66457_c0_g1_i2.p1JF1A_TRINITY_DN66457_c0_g1   -            367 184963at3193         -            129   3.1e-17   64.8   0.3   2   2   2.9e-12   7.5e-10   41.0   0.0     3    89   106   191   104   197 0.92 -
JF1J_TRINITY_DN42032_c0_g1_i1.p1JF1J_TRINITY_DN42032_c0_g1   -            105 184963at3193         -            129   3.3e-17   64.7   0.0   1   1   1.4e-19   3.7e-17   64.6   0.0     6    90    11    94     7   104 0.89 -
JF2A_TRINITY_DN40065_c0_g1_i4.p1JF2A_TRINITY_DN40065_c0_g1   -            235 184963at3193         -            129   3.4e-17   64.7   0.1   1   2     4e-06     0.001   21.1   0.0     4    55     7    58     4    88 0.87 -
JF2A_TRINITY_DN40065_c0_g1_i4.p1JF2A_TRINITY_DN40065_c0_g1   -            235 184963at3193         -            129   3.4e-17   64.7   0.1   2   2   1.6e-12   4.1e-10   41.8   0.0     3    87   107   190   105   198 0.89 -
JF1A_TRINITY_DN66414_c1_g2_i4.p1JF1A_TRINITY_DN66414_c1_g2   -            493 184963at3193         -            129   5.4e-17   64.1   1.0   1   3   0.00019      0.05   15.7   0.0     3    60   156   213   154   223 0.92 -
JF1A_TRINITY_DN66414_c1_g2_i4.p1JF1A_TRINITY_DN66414_c1_g2   -            493 184963at3193         -            129   5.4e-17   64.1   1.0   2   3   1.7e-08   4.3e-06   28.8   0.0     3    94   249   341   247   354 0.91 -
JF1A_TRINITY_DN66414_c1_g2_i4.p1JF1A_TRINITY_DN66414_c1_g2   -            493 184963at3193         -            129   5.4e-17   64.1   1.0   3   3    0.0008       0.2   13.7   0.0     2    67   359   418   358   443 0.89 -
JF2A_TRINITY_DN41433_c0_g2_i1.p1JF2A_TRINITY_DN41433_c0_g2   -            171 184963at3193         -            129   5.7e-17   64.0   0.0   1   1   2.9e-19   7.4e-17   63.6   0.0     4    82    41   119    38   132 0.92 -
JF1A_TRINITY_DN62542_c2_g1_i14.p1JF1A_TRINITY_DN62542_c2_g1  -            420 184963at3193         -            129   9.6e-17   63.2   1.5   1   4   0.00011     0.029   16.4   0.0     3    76    17    90    15    98 0.92 -
JF1A_TRINITY_DN62542_c2_g1_i14.p1JF1A_TRINITY_DN62542_c2_g1  -            420 184963at3193         -            129   9.6e-17   63.2   1.5   2   4   9.8e-06    0.0025   19.9   0.0     5    76   107   177   103   187 0.90 -
JF1A_TRINITY_DN62542_c2_g1_i14.p1JF1A_TRINITY_DN62542_c2_g1  -            420 184963at3193         -            129   9.6e-17   63.2   1.5   3   4     2e-05     0.005   18.9   0.2     5    67   198   259   194   268 0.88 -
JF1A_TRINITY_DN62542_c2_g1_i14.p1JF1A_TRINITY_DN62542_c2_g1  -            420 184963at3193         -            129   9.6e-17   63.2   1.5   4   4         1   2.6e+02    3.6   0.0     3    48   336   381   334   387 0.82 -
JF1A_TRINITY_DN68385_c3_g3_i13.p1JF1A_TRINITY_DN68385_c3_g3  -            298 184963at3193         -            129   2.1e-16   62.2   0.0   1   2   3.1e-07   8.1e-05   24.7   0.0     5    79   124   198   121   204 0.83 -
JF1A_TRINITY_DN68385_c3_g3_i13.p1JF1A_TRINITY_DN68385_c3_g3  -            298 184963at3193         -            129   2.1e-16   62.2   0.0   2   2   1.8e-10   4.5e-08   35.2   0.0     1    82   215   295   215   297 0.93 -
JF2A_TRINITY_DN9795_c0_g1_i1.p1JF2A_TRINITY_DN9795_c0_g1     -            162 184963at3193         -            129   3.9e-16   61.3   0.1   1   2   7.8e-15     2e-12   49.3   0.0     2    83    24   105    23   109 0.96 -
JF2A_TRINITY_DN9795_c0_g1_i1.p1JF2A_TRINITY_DN9795_c0_g1     -            162 184963at3193         -            129   3.9e-16   61.3   0.1   2   2    0.0099       2.5   10.1   0.0     4    29   113   138   110   148 0.90 -
JF2A_TRINITY_DN41290_c0_g6_i2.p1JF2A_TRINITY_DN41290_c0_g6   -            314 184963at3193         -            129   7.8e-16   60.3   2.4   1   3     7e-05     0.018   17.1   0.0     3    76    17    90    15    98 0.92 -
JF2A_TRINITY_DN41290_c0_g6_i2.p1JF2A_TRINITY_DN41290_c0_g6   -            314 184963at3193         -            129   7.8e-16   60.3   2.4   2   3     6e-06    0.0015   20.5   0.0     5    76   107   177   103   187 0.90 -
JF2A_TRINITY_DN41290_c0_g6_i2.p1JF2A_TRINITY_DN41290_c0_g6   -            314 184963at3193         -            129   7.8e-16   60.3   2.4   3   3   1.7e-05    0.0044   19.1   0.8     5    67   198   259   194   294 0.90 -
JF1A_TRINITY_DN68654_c0_g5_i1.p1JF1A_TRINITY_DN68654_c0_g5   -            392 184963at3193         -            129   8.3e-16   60.2   0.0   1   3   7.2e-05     0.018   17.1   0.0     3    65    47   109    45   125 0.91 -
JF1A_TRINITY_DN68654_c0_g5_i1.p1JF1A_TRINITY_DN68654_c0_g5   -            392 184963at3193         -            129   8.3e-16   60.2   0.0   2   3   6.7e-05     0.017   17.2   0.0     5    77   142   215   139   225 0.88 -
JF1A_TRINITY_DN68654_c0_g5_i1.p1JF1A_TRINITY_DN68654_c0_g5   -            392 184963at3193         -            129   8.3e-16   60.2   0.0   3   3   1.7e-06   0.00044   22.3   0.0     2    69   250   311   249   343 0.86 -
JF1A_TRINITY_DN60344_c5_g2_i3.p1JF1A_TRINITY_DN60344_c5_g2   -            256 184963at3193         -            129   3.1e-15   58.3   0.0   1   2     2e-11   5.2e-09   38.2   0.0     4    94    31   122    29   130 0.93 -
JF1A_TRINITY_DN60344_c5_g2_i3.p1JF1A_TRINITY_DN60344_c5_g2   -            256 184963at3193         -            129   3.1e-15   58.3   0.0   2   2   3.7e-05    0.0094   18.0   0.0     2    67   146   205   145   217 0.90 -
JF1A_TRINITY_DN66551_c3_g3_i11.p1JF1A_TRINITY_DN66551_c3_g3  -            462 184963at3193         -            129   6.5e-15   57.3   6.0   1   3   6.3e-09   1.6e-06   30.2   0.1     5    76   207   278   202   286 0.92 -
JF1A_TRINITY_DN66551_c3_g3_i11.p1JF1A_TRINITY_DN66551_c3_g3  -            462 184963at3193         -            129   6.5e-15   57.3   6.0   2   3       1.2   3.2e+02    3.4   0.1     4    70   286   355   282   370 0.64 -
JF1A_TRINITY_DN66551_c3_g3_i11.p1JF1A_TRINITY_DN66551_c3_g3  -            462 184963at3193         -            129   6.5e-15   57.3   6.0   3   3   2.4e-07   6.2e-05   25.1   0.0     3    70   382   449   380   459 0.93 -
JF1A_TRINITY_DN61618_c4_g1_i10.p1JF1A_TRINITY_DN61618_c4_g1  -            361 184963at3193         -            129     8e-15   57.0   0.5   1   3   6.1e-07   0.00016   23.8   0.1     3    72    55   124    53   130 0.92 -
JF1A_TRINITY_DN61618_c4_g1_i10.p1JF1A_TRINITY_DN61618_c4_g1  -            361 184963at3193         -            129     8e-15   57.0   0.5   2   3      0.24        63    5.6   0.0    41    81   176   218   133   224 0.78 -
JF1A_TRINITY_DN61618_c4_g1_i10.p1JF1A_TRINITY_DN61618_c4_g1  -            361 184963at3193         -            129     8e-15   57.0   0.5   3   3   3.8e-07   9.8e-05   24.4   0.0     3    68   231   296   229   321 0.91 -
JF1J_TRINITY_DN72241_c2_g1_i2.p1JF1J_TRINITY_DN72241_c2_g1   -            388 184963at3193         -            129   1.1e-14   56.6   0.1   1   3   0.00014     0.035   16.1   0.0    21    77     7    63     2    69 0.92 -
JF1J_TRINITY_DN72241_c2_g1_i2.p1JF1J_TRINITY_DN72241_c2_g1   -            388 184963at3193         -            129   1.1e-14   56.6   0.1   2   3     0.012       3.2    9.8   0.0     3    68    69   137    66   153 0.82 -
JF1J_TRINITY_DN72241_c2_g1_i2.p1JF1J_TRINITY_DN72241_c2_g1   -            388 184963at3193         -            129   1.1e-14   56.6   0.1   3   3   4.7e-08   1.2e-05   27.3   0.0     2    69   165   232   164   242 0.95 -
JF2A_TRINITY_DN30773_c0_g1_i1.p1JF2A_TRINITY_DN30773_c0_g1   -            278 184963at3193         -            129   2.1e-14   55.7   0.1   1   2   5.5e-06    0.0014   20.7   0.0    26    88    22    84     8    88 0.82 -
JF2A_TRINITY_DN30773_c0_g1_i1.p1JF2A_TRINITY_DN30773_c0_g1   -            278 184963at3193         -            129   2.1e-14   55.7   0.1   2   2   6.7e-10   1.7e-07   33.3   0.0     3    82    87   166    85   174 0.94 -
JF1A_TRINITY_DN60870_c1_g5_i2.p1JF1A_TRINITY_DN60870_c1_g5   -            108 184963at3193         -            129   2.7e-14   55.3   0.0   1   1   1.3e-16   3.3e-14   55.1   0.0     6    90    10    93     6   100 0.94 -
JF1A_TRINITY_DN21448_c0_g1_i1.p1JF1A_TRINITY_DN21448_c0_g1   -            123 184963at3193         -            129   3.5e-14   55.0   0.0   1   1   1.5e-16   3.9e-14   54.8   0.0     3   105    14   118    12   122 0.94 -
JF1A_TRINITY_DN60344_c5_g2_i16.p1JF1A_TRINITY_DN60344_c5_g2  -            248 184963at3193         -            129   4.1e-14   54.7   0.0   1   2   1.9e-11   4.9e-09   38.3   0.0     4    94    31   122    29   130 0.93 -
JF1A_TRINITY_DN60344_c5_g2_i16.p1JF1A_TRINITY_DN60344_c5_g2  -            248 184963at3193         -            129   4.1e-14   54.7   0.0   2   2    0.0005      0.13   14.3   0.0     2    41   146   185   145   201 0.83 -
JF2A_TRINITY_DN40445_c0_g1_i3.p1JF2A_TRINITY_DN40445_c0_g1   -            168 184963at3193         -            129   9.5e-14   53.6   0.0   1   1   4.9e-16   1.2e-13   53.2   0.0     6    87    11    92     7    99 0.93 -
JF1A_TRINITY_DN68501_c3_g1_i15.p1JF1A_TRINITY_DN68501_c3_g1  -            439 184963at3193         -            129   1.1e-13   53.3   4.7   1   3   5.1e-09   1.3e-06   30.5   0.0     5    69   184   248   179   260 0.93 -
JF1A_TRINITY_DN68501_c3_g1_i15.p1JF1A_TRINITY_DN68501_c3_g1  -            439 184963at3193         -            129   1.1e-13   53.3   4.7   2   3      0.15        37    6.4   0.1     3    66   262   328   259   352 0.65 -
JF1A_TRINITY_DN68501_c3_g1_i15.p1JF1A_TRINITY_DN68501_c3_g1  -            439 184963at3193         -            129   1.1e-13   53.3   4.7   3   3   0.00013     0.033   16.3   0.0     3    69   359   425   357   431 0.92 -
JF1A_TRINITY_DN52184_c0_g1_i1.p1JF1A_TRINITY_DN52184_c0_g1   -            221 184963at3193         -            129   1.5e-13   53.0   0.0   1   2   1.6e-06    0.0004   22.4   0.0     4    82    29   105    26   114 0.83 -
JF1A_TRINITY_DN52184_c0_g1_i1.p1JF1A_TRINITY_DN52184_c0_g1   -            221 184963at3193         -            129   1.5e-13   53.0   0.0   2   2   1.9e-08   4.8e-06   28.7   0.0     3    82   117   196   115   205 0.91 -
JF1A_TRINITY_DN63361_c1_g3_i1.p1JF1A_TRINITY_DN63361_c1_g3   -            149 184963at3193         -            129   1.9e-13   52.6   0.0   1   1   9.8e-16   2.5e-13   52.2   0.0     3    85    40   122    38   127 0.95 -
JF1A_TRINITY_DN61198_c3_g1_i3.p1JF1A_TRINITY_DN61198_c3_g1   -            230 184963at3193         -            129   2.6e-13   52.1   0.0   1   2   5.8e-06    0.0015   20.6   0.0     3    69    34   100    32   114 0.88 -
JF1A_TRINITY_DN61198_c3_g1_i3.p1JF1A_TRINITY_DN61198_c3_g1   -            230 184963at3193         -            129   2.6e-13   52.1   0.0   2   2   9.9e-09   2.5e-06   29.5   0.0     3    98   127   223   125   228 0.94 -
JF3J_TRINITY_DN56861_c0_g1_i1.p1JF3J_TRINITY_DN56861_c0_g1   -            111 184963at3193         -            129     4e-13   51.5   0.0   1   1   1.8e-15   4.7e-13   51.3   0.0     2    83    28   109    27   110 0.96 -
JF3A_TRINITY_DN58977_c0_g1_i1.p2JF3A_TRINITY_DN58977_c0_g1   -            107 184963at3193         -            129   5.6e-13   51.1   0.0   1   1   2.5e-15   6.4e-13   50.9   0.0     2    83    24   105    23   106 0.95 -
JF2A_TRINITY_DN42636_c1_g6_i2.p1JF2A_TRINITY_DN42636_c1_g6   -            233 184963at3193         -            129   7.7e-13   50.6   0.0   1   2   7.5e-07   0.00019   23.5   0.0     4    84    22   101    19   104 0.92 -
JF2A_TRINITY_DN42636_c1_g6_i2.p1JF2A_TRINITY_DN42636_c1_g6   -            233 184963at3193         -            129   7.7e-13   50.6   0.0   2   2   2.1e-07   5.4e-05   25.2   0.0    16    83   122   188   106   192 0.90 -
JF1A_TRINITY_DN64334_c0_g1_i7.p1JF1A_TRINITY_DN64334_c0_g1   -            426 184963at3193         -            129   1.3e-12   49.9   0.1   1   1   9.3e-15   2.4e-12   49.0   0.1     3    93    91   183    89   206 0.84 -
JF2A_TRINITY_DN41290_c0_g9_i1.p1JF2A_TRINITY_DN41290_c0_g9   -            246 184963at3193         -            129   1.4e-12   49.7   0.1   1   2   1.4e-07   3.5e-05   25.9   0.0     5    68    21    83    17   110 0.89 -
JF2A_TRINITY_DN41290_c0_g9_i1.p1JF2A_TRINITY_DN41290_c0_g9   -            246 184963at3193         -            129   1.4e-12   49.7   0.1   2   2   2.1e-06   0.00054   22.0   0.0     4    77   123   195   120   213 0.88 -
JF1A_TRINITY_DN64743_c4_g2_i1.p1JF1A_TRINITY_DN64743_c4_g2   -            123 184963at3193         -            129   1.7e-12   49.5   0.0   1   1   8.1e-15   2.1e-12   49.2   0.0     5    83     9    87     5   100 0.93 -
JF1A_TRINITY_DN45756_c0_g1_i1.p1JF1A_TRINITY_DN45756_c0_g1   -            161 184963at3193         -            129     2e-12   49.3   0.0   1   1     1e-14   2.7e-12   48.9   0.0     5    84     9    88     5   102 0.93 -
JF1A_TRINITY_DN64743_c4_g2_i2.p1JF1A_TRINITY_DN64743_c4_g2   -            162 184963at3193         -            129   2.6e-12   48.9   0.0   1   1   1.8e-14   4.7e-12   48.1   0.0     5    83     9    87     5    99 0.94 -
JF1A_TRINITY_DN64101_c0_g2_i12.p1JF1A_TRINITY_DN64101_c0_g2  -            211 184963at3193         -            129   2.7e-12   48.9   0.3   1   3       0.4     1e+02    4.9   0.0    44    72     5    33     3    39 0.92 -
JF1A_TRINITY_DN64101_c0_g2_i12.p1JF1A_TRINITY_DN64101_c0_g2  -            211 184963at3193         -            129   2.7e-12   48.9   0.3   2   3   2.7e-05    0.0069   18.4   0.0    22    82    39    99    34   103 0.93 -
JF1A_TRINITY_DN64101_c0_g2_i12.p1JF1A_TRINITY_DN64101_c0_g2  -            211 184963at3193         -            129   2.7e-12   48.9   0.3   3   3   1.7e-06   0.00044   22.3   0.0     5    80   130   205   127   209 0.95 -
JF1A_TRINITY_DN60707_c1_g4_i4.p1JF1A_TRINITY_DN60707_c1_g4   -            355 184963at3193         -            129   2.8e-12   48.8   0.0   1   2   1.5e-05    0.0039   19.2   0.0     5    53    54   102    51   129 0.90 -
JF1A_TRINITY_DN60707_c1_g4_i4.p1JF1A_TRINITY_DN60707_c1_g4   -            355 184963at3193         -            129   2.8e-12   48.8   0.0   2   2   5.4e-08   1.4e-05   27.2   0.0     3    83   140   220   138   224 0.94 -
JF1A_TRINITY_DN65041_c0_g1_i20.p1JF1A_TRINITY_DN65041_c0_g1  -            514 184963at3193         -            129   4.5e-12   48.1   0.0   1   2     3e-06   0.00078   21.5   0.0     4    84    63   142    60   145 0.92 -
JF1A_TRINITY_DN65041_c0_g1_i20.p1JF1A_TRINITY_DN65041_c0_g1  -            514 184963at3193         -            129   4.5e-12   48.1   0.0   2   2     6e-07   0.00015   23.8   0.0    16    83   163   229   147   243 0.89 -
JF3J_TRINITY_DN70305_c1_g1_i2.p1JF3J_TRINITY_DN70305_c1_g1   -            100 184963at3193         -            129     5e-12   48.0   0.0   1   1   2.3e-14   5.9e-12   47.8   0.0    14    87    10    83     3    90 0.89 -
JF2J_TRINITY_DN27638_c0_g3_i2.p1JF2J_TRINITY_DN27638_c0_g3   -            140 184963at3193         -            129   5.3e-12   47.9   0.0   1   1   2.7e-14   6.9e-12   47.5   0.0     4    83    45   124    42   130 0.96 -
JF1A_TRINITY_DN67597_c2_g1_i3.p1JF1A_TRINITY_DN67597_c2_g1   -            214 184963at3193         -            129   5.5e-12   47.9   0.0   1   1   2.9e-14   7.4e-12   47.4   0.0     5    85    54   134    50   148 0.96 -
JF1J_TRINITY_DN72220_c1_g2_i8.p1JF1J_TRINITY_DN72220_c1_g2   -            395 184963at3193         -            129   8.5e-12   47.2   0.1   1   2       5.1   1.3e+03    1.4   0.0    37    53     3    19     2    48 0.86 -
JF1J_TRINITY_DN72220_c1_g2_i8.p1JF1J_TRINITY_DN72220_c1_g2   -            395 184963at3193         -            129   8.5e-12   47.2   0.1   2   2   4.7e-13   1.2e-10   43.5   0.0     3    89    76   161    74   177 0.90 -
JF1J_TRINITY_DN64407_c1_g2_i4.p1JF1J_TRINITY_DN64407_c1_g2   -            337 184963at3193         -            129     1e-11   47.0   0.0   1   1     7e-14   1.8e-11   46.2   0.0     4    85    70   151    67   154 0.96 -
JF3J_TRINITY_DN73372_c3_g3_i1.p1JF3J_TRINITY_DN73372_c3_g3   -            156 184963at3193         -            129   1.2e-11   46.8   0.0   1   1   5.7e-14   1.5e-11   46.5   0.0     3    89    23   108    21   127 0.90 -
JF1A_TRINITY_DN65017_c0_g3_i1.p1JF1A_TRINITY_DN65017_c0_g3   -            191 184963at3193         -            129   1.2e-11   46.8   0.0   1   1   6.8e-14   1.8e-11   46.2   0.0     3    90    24   110    22   113 0.95 -
JF1J_TRINITY_DN72371_c1_g4_i1.p1JF1J_TRINITY_DN72371_c1_g4   -            330 184963at3193         -            129   1.2e-11   46.7   0.1   1   3   1.1e-06   0.00027   23.0   0.0     5    75    28    97    24   104 0.88 -
JF1J_TRINITY_DN72371_c1_g4_i1.p1JF1J_TRINITY_DN72371_c1_g4   -            330 184963at3193         -            129   1.2e-11   46.7   0.1   2   3      0.16        40    6.3   0.0     3    60   105   169   103   179 0.67 -
JF1J_TRINITY_DN72371_c1_g4_i1.p1JF1J_TRINITY_DN72371_c1_g4   -            330 184963at3193         -            129   1.2e-11   46.7   0.1   3   3   0.00068      0.17   13.9   0.0     5    69   208   268   204   274 0.87 -
JF1J_TRINITY_DN67875_c5_g2_i2.p1JF1J_TRINITY_DN67875_c5_g2   -            142 184963at3193         -            129   1.7e-11   46.3   0.0   1   1   8.7e-14   2.2e-11   45.9   0.0     1    75     9    86     9    96 0.85 -
JF1A_TRINITY_DN67634_c3_g3_i3.p1JF1A_TRINITY_DN67634_c3_g3   -            234 184963at3193         -            129   2.7e-11   45.6   0.0   1   1   1.6e-13   4.2e-11   45.0   0.0     3    89    52   137    50   154 0.90 -
JF1A_TRINITY_DN76292_c0_g1_i1.p1JF1A_TRINITY_DN76292_c0_g1   -            152 184963at3193         -            129   3.7e-11   45.2   0.1   1   1   2.1e-13   5.4e-11   44.7   0.1     5    79    59   133    54   142 0.93 -
JF3J_TRINITY_DN70045_c0_g1_i4.p1JF3J_TRINITY_DN70045_c0_g1   -            254 184963at3193         -            129   4.1e-11   45.0   0.0   1   3     0.038       9.9    8.2   0.0    39    77    12    50     7    55 0.90 -
JF3J_TRINITY_DN70045_c0_g1_i4.p1JF3J_TRINITY_DN70045_c0_g1   -            254 184963at3193         -            129   4.1e-11   45.0   0.0   2   3    0.0059       1.5   10.9   0.0     3    68    56   124    53   140 0.82 -
JF3J_TRINITY_DN70045_c0_g1_i4.p1JF3J_TRINITY_DN70045_c0_g1   -            254 184963at3193         -            129   4.1e-11   45.0   0.0   3   3   1.4e-06   0.00035   22.6   0.0     2    59   152   209   151   215 0.92 -
JF1J_TRINITY_DN68081_c0_g2_i3.p1JF1J_TRINITY_DN68081_c0_g2   -            208 184963at3193         -            129   5.3e-11   44.7   0.1   1   1   2.9e-13   7.4e-11   44.2   0.1     4    84     3    82     1    85 0.95 -
JF2A_TRINITY_DN40065_c0_g1_i6.p1JF2A_TRINITY_DN40065_c0_g1   -            117 184963at3193         -            129   5.5e-11   44.6   0.0   1   1   2.5e-13   6.5e-11   44.4   0.0     3    87    11    94     9   103 0.89 -
JF1A_TRINITY_DN61478_c0_g8_i2.p1JF1A_TRINITY_DN61478_c0_g8   -            192 184963at3193         -            129   8.9e-11   44.0   0.0   1   2   3.6e-06   0.00092   21.3   0.0     3    71    27    95    25   110 0.91 -
JF1A_TRINITY_DN61478_c0_g8_i2.p1JF1A_TRINITY_DN61478_c0_g8   -            192 184963at3193         -            129   8.9e-11   44.0   0.0   2   2   5.7e-06    0.0015   20.6   0.0     3    66   120   184   118   190 0.93 -
JF1A_TRINITY_DN64194_c0_g4_i4.p1JF1A_TRINITY_DN64194_c0_g4   -            358 184963at3193         -            129   9.7e-11   43.8   0.0   1   2   2.7e-05    0.0068   18.4   0.0    22    80   132   190   114   198 0.87 -
JF1A_TRINITY_DN64194_c0_g4_i4.p1JF1A_TRINITY_DN64194_c0_g4   -            358 184963at3193         -            129   9.7e-11   43.8   0.0   2   2     1e-06   0.00026   23.0   0.0     4    77   216   289   213   307 0.91 -
JF1A_TRINITY_DN64101_c0_g2_i17.p1JF1A_TRINITY_DN64101_c0_g2  -            218 184963at3193         -            129   1.7e-10   43.0   0.0   1   2   2.9e-05    0.0075   18.3   0.0    23    82    47   106    35   111 0.93 -
JF1A_TRINITY_DN64101_c0_g2_i17.p1JF1A_TRINITY_DN64101_c0_g2  -            218 184963at3193         -            129   1.7e-10   43.0   0.0   2   2   1.8e-06   0.00047   22.2   0.0     5    80   137   212   134   216 0.95 -
JF3A_TRINITY_DN59598_c0_g3_i2.p1JF3A_TRINITY_DN59598_c0_g3   -            135 184963at3193         -            129   2.7e-10   42.4   0.0   1   1   1.4e-12   3.6e-10   42.0   0.0     4    77    34   107    32   119 0.93 -
JF3J_TRINITY_DN65869_c3_g1_i1.p1JF3J_TRINITY_DN65869_c3_g1   -            130 184963at3193         -            129   3.5e-10   42.0   0.0   1   2   6.5e-05     0.017   17.2   0.0    42    81    18    57    13    69 0.88 -
JF3J_TRINITY_DN65869_c3_g1_i1.p1JF3J_TRINITY_DN65869_c3_g1   -            130 184963at3193         -            129   3.5e-10   42.0   0.0   2   2   8.9e-07   0.00023   23.2   0.0     4    54    69   119    66   124 0.94 -
JF1J_TRINITY_DN63052_c0_g1_i9.p1JF1J_TRINITY_DN63052_c0_g1   -            169 184963at3193         -            129     4e-10   41.8   0.0   1   1   2.1e-12   5.4e-10   41.4   0.0     3    84    66   147    64   154 0.95 -
JF3J_TRINITY_DN57308_c0_g1_i2.p1JF3J_TRINITY_DN57308_c0_g1   -            221 184963at3193         -            129   8.4e-10   40.8   0.0   1   2   2.3e-10   5.9e-08   34.8   0.0     4    83    50   130    48   141 0.94 -
JF3J_TRINITY_DN57308_c0_g1_i2.p1JF3J_TRINITY_DN57308_c0_g1   -            221 184963at3193         -            129   8.4e-10   40.8   0.0   2   2      0.98   2.5e+02    3.7   0.0     4    24   175   195   173   211 0.81 -
JF1A_TRINITY_DN61987_c2_g5_i2.p1JF1A_TRINITY_DN61987_c2_g5   -            192 184963at3193         -            129   1.2e-09   40.3   0.0   1   1   6.1e-12   1.6e-09   39.9   0.0     3    86    58   141    56   153 0.94 -
JF1A_TRINITY_DN60341_c0_g1_i3.p1JF1A_TRINITY_DN60341_c0_g1   -            316 184963at3193         -            129   1.3e-09   40.2   0.0   1   1   1.2e-11   3.2e-09   38.9   0.0     2    74   209   284   208   293 0.86 -
JF1J_TRINITY_DN65316_c0_g1_i4.p1JF1J_TRINITY_DN65316_c0_g1   -            322 184963at3193         -            129   1.4e-09   40.1   0.0   1   1     1e-11   2.6e-09   39.2   0.0     4    77    41   114    39   125 0.94 -
JF1A_TRINITY_DN66343_c3_g1_i13.p1JF1A_TRINITY_DN66343_c3_g1  -            402 184963at3193         -            129   1.8e-09   39.7   0.0   1   2     0.017       4.3    9.4   0.0     5    66    69   133    66   155 0.81 -
JF1A_TRINITY_DN66343_c3_g1_i13.p1JF1A_TRINITY_DN66343_c3_g1  -            402 184963at3193         -            129   1.8e-09   39.7   0.0   2   2   2.7e-08   6.9e-06   28.1   0.0     4    88   159   245   156   249 0.88 -
JF3A_TRINITY_DN57095_c0_g1_i2.p1JF3A_TRINITY_DN57095_c0_g1   -            217 184963at3193         -            129   2.1e-09   39.5   0.0   1   2   2.5e-05    0.0065   18.5   0.0     3    66    21    84    19    99 0.91 -
JF3A_TRINITY_DN57095_c0_g1_i2.p1JF3A_TRINITY_DN57095_c0_g1   -            217 184963at3193         -            129   2.1e-09   39.5   0.0   2   2   1.6e-05    0.0042   19.1   0.0     5    82   116   194   113   211 0.88 -
JF1A_TRINITY_DN64044_c0_g1_i1.p1JF1A_TRINITY_DN64044_c0_g1   -            290 184963at3193         -            129   2.1e-09   39.5   0.0   1   1   2.7e-11     7e-09   37.8   0.0     4    79   151   226   148   235 0.95 -
JF3A_TRINITY_DN59234_c2_g1_i1.p1JF3A_TRINITY_DN59234_c2_g1   -            121 184963at3193         -            129   2.3e-09   39.4   0.0   1   1   1.1e-11   2.9e-09   39.1   0.0     4    79     5    80     3    96 0.95 -
JF1A_TRINITY_DN64101_c0_g2_i13.p1JF1A_TRINITY_DN64101_c0_g2  -            219 184963at3193         -            129   2.3e-09   39.4   0.0   1   2   8.1e-10   2.1e-07   33.1   0.0     4    87    43   124    40   130 0.92 -
JF1A_TRINITY_DN64101_c0_g2_i13.p1JF1A_TRINITY_DN64101_c0_g2  -            219 184963at3193         -            129   2.3e-09   39.4   0.0   2   2      0.58   1.5e+02    4.4   0.0     5    46   130   171   126   180 0.89 -
JF1A_TRINITY_DN65555_c1_g1_i2.p1JF1A_TRINITY_DN65555_c1_g1   -            166 184963at3193         -            129   2.6e-09   39.2   0.0   1   1   1.7e-11   4.4e-09   38.5   0.0     6    79    56   128    51   149 0.89 -
JF1A_TRINITY_DN60937_c0_g1_i3.p1JF1A_TRINITY_DN60937_c0_g1   -            328 184963at3193         -            129   2.9e-09   39.1   0.1   1   3       1.1   2.9e+02    3.5   0.0    41    78    15    52     2    60 0.75 -
JF1A_TRINITY_DN60937_c0_g1_i3.p1JF1A_TRINITY_DN60937_c0_g1   -            328 184963at3193         -            129   2.9e-09   39.1   0.1   2   3   2.5e-07   6.4e-05   25.0   0.0     4   120    61   170    58   177 0.81 -
JF1A_TRINITY_DN60937_c0_g1_i3.p1JF1A_TRINITY_DN60937_c0_g1   -            328 184963at3193         -            129   2.9e-09   39.1   0.1   3   3       0.1        27    6.8   0.0    12    34   216   238   204   261 0.79 -
JF1A_TRINITY_DN67865_c1_g2_i2.p1JF1A_TRINITY_DN67865_c1_g2   -            214 184963at3193         -            129   6.2e-09   38.0   0.1   1   2   4.4e-07   0.00011   24.2   0.0     5    76    28    98    24   106 0.88 -
JF1A_TRINITY_DN67865_c1_g2_i2.p1JF1A_TRINITY_DN67865_c1_g2   -            214 184963at3193         -            129   6.2e-09   38.0   0.1   2   2    0.0024      0.61   12.1   0.1     3    76   105   185   103   192 0.69 -
JF1A_TRINITY_DN66567_c1_g4_i1.p1JF1A_TRINITY_DN66567_c1_g4   -            189 184963at3193         -            129   6.3e-09   38.0   0.0   1   1   3.3e-11   8.5e-09   37.6   0.0     3    79    41   117    39   130 0.95 -
JF1A_TRINITY_DN66836_c2_g4_i2.p1JF1A_TRINITY_DN66836_c2_g4   -            205 184963at3193         -            129   8.2e-09   37.6   0.0   1   1   5.2e-11   1.3e-08   36.9   0.0    19    85    95   161    79   166 0.90 -
JF2J_TRINITY_DN23651_c1_g1_i2.p2JF2J_TRINITY_DN23651_c1_g1   -            100 184963at3193         -            129   8.6e-09   37.5   0.0   1   1   4.1e-11     1e-08   37.2   0.0     5    67    21    83    17    89 0.95 -
JF3J_TRINITY_DN72492_c1_g2_i3.p1JF3J_TRINITY_DN72492_c1_g2   -            148 184963at3193         -            129   8.6e-09   37.5   0.0   1   2   3.4e-10   8.7e-08   34.3   0.0     3    82     3    82     1    94 0.95 -
JF3J_TRINITY_DN72492_c1_g2_i3.p1JF3J_TRINITY_DN72492_c1_g2   -            148 184963at3193         -            129   8.6e-09   37.5   0.0   2   2       6.1   1.6e+03    1.1   0.0     3    33    95   125    93   133 0.75 -
JF1A_TRINITY_DN58658_c0_g1_i2.p1JF1A_TRINITY_DN58658_c0_g1   -            216 184963at3193         -            129   8.8e-09   37.5   0.0   1   1   4.8e-11   1.2e-08   37.0   0.0     3    79   133   209   131   214 0.94 -
JF3J_TRINITY_DN66256_c1_g2_i1.p1JF3J_TRINITY_DN66256_c1_g2   -            327 184963at3193         -            129   1.1e-08   37.2   0.0   1   2   1.1e-07   2.9e-05   26.1   0.0     9    58     2    51     1    60 0.89 -
JF3J_TRINITY_DN66256_c1_g2_i1.p1JF3J_TRINITY_DN66256_c1_g2   -            327 184963at3193         -            129   1.1e-08   37.2   0.0   2   2     0.024         6    8.9   0.0     5    79    89   162    86   171 0.82 -
JF1A_TRINITY_DN66546_c0_g6_i1.p2JF1A_TRINITY_DN66546_c0_g6   -            150 184963at3193         -            129   1.2e-08   37.0   0.0   1   1   6.2e-11   1.6e-08   36.7   0.0     4    83    45   124    42   128 0.96 -
JF1A_TRINITY_DN67865_c1_g2_i4.p1JF1A_TRINITY_DN67865_c1_g2   -            293 184963at3193         -            129   1.4e-08   36.8   0.2   1   3   8.6e-07   0.00022   23.3   0.0     5    75    28    97    24   104 0.88 -
JF1A_TRINITY_DN67865_c1_g2_i4.p1JF1A_TRINITY_DN67865_c1_g2   -            293 184963at3193         -            129   1.4e-08   36.8   0.2   2   3      0.13        33    6.5   0.0     3    60   105   169   103   178 0.67 -
JF1A_TRINITY_DN67865_c1_g2_i4.p1JF1A_TRINITY_DN67865_c1_g2   -            293 184963at3193         -            129   1.4e-08   36.8   0.2   3   3         1   2.7e+02    3.6   0.0    37    68   198   229   179   235 0.80 -
JF2A_TRINITY_DN52141_c0_g1_i1.p1JF2A_TRINITY_DN52141_c0_g1   -            116 184963at3193         -            129   1.8e-08   36.5   0.0   1   1   2.9e-10   7.5e-08   34.5   0.0     4    78     3    77     1    92 0.93 -
JF2J_TRINITY_DN27966_c0_g1_i1.p1JF2J_TRINITY_DN27966_c0_g1   -            145 184963at3193         -            129     2e-08   36.3   0.0   1   2   3.8e-07   9.8e-05   24.4   0.0    28    90     5    67     2    74 0.91 -
JF2J_TRINITY_DN27966_c0_g1_i1.p1JF2J_TRINITY_DN27966_c0_g1   -            145 184963at3193         -            129     2e-08   36.3   0.0   2   2    0.0046       1.2   11.2   0.0    33    70    67   104    65   116 0.86 -
JF1A_TRINITY_DN67860_c1_g2_i14.p1JF1A_TRINITY_DN67860_c1_g2  -            135 184963at3193         -            129     2e-08   36.3   0.0   1   1   1.1e-10   2.7e-08   35.9   0.0    22    89    19    86    11    94 0.91 -
JF1J_TRINITY_DN65942_c1_g4_i4.p1JF1J_TRINITY_DN65942_c1_g4   -            143 184963at3193         -            129   2.1e-08   36.3   0.0   1   1   1.1e-10   2.7e-08   35.9   0.0     3    73    72   142    70   143 0.97 -
JF1A_TRINITY_DN61413_c0_g12_i1.p1JF1A_TRINITY_DN61413_c0_g12 -            248 184963at3193         -            129   2.7e-08   35.9   0.0   1   1   1.8e-10   4.7e-08   35.2   0.0     5    81   162   238   159   243 0.96 -
JF1J_TRINITY_DN68530_c3_g4_i1.p1JF1J_TRINITY_DN68530_c3_g4   -            129 184963at3193         -            129   3.7e-08   35.5   0.0   1   1   1.8e-10   4.7e-08   35.1   0.0     3    80    40   117    38   125 0.95 -
JF1A_TRINITY_DN67860_c1_g2_i4.p1JF1A_TRINITY_DN67860_c1_g2   -            230 184963at3193         -            129   4.4e-08   35.2   0.0   1   1   2.5e-10   6.3e-08   34.7   0.0    19    89    54   124    37   131 0.88 -
JF1A_TRINITY_DN61413_c0_g3_i1.p1JF1A_TRINITY_DN61413_c0_g3   -            216 184963at3193         -            129   6.1e-08   34.8   0.0   1   1   4.5e-10   1.2e-07   33.9   0.0     5    81   112   188   109   192 0.96 -
JF1A_TRINITY_DN65040_c0_g1_i8.p1JF1A_TRINITY_DN65040_c0_g1   -            408 184963at3193         -            129   7.1e-08   34.6   0.0   1   2   8.5e-07   0.00022   23.3   0.0     3    82   196   270   194   276 0.94 -
JF1A_TRINITY_DN65040_c0_g1_i8.p1JF1A_TRINITY_DN65040_c0_g1   -            408 184963at3193         -            129   7.1e-08   34.6   0.0   2   2     0.026       6.8    8.8   0.0     4    77   282   350   279   382 0.82 -
JF1J_TRINITY_DN69551_c0_g1_i3.p1JF1J_TRINITY_DN69551_c0_g1   -            138 184963at3193         -            129   1.1e-07   33.9   0.0   1   2     0.044        11    8.0   0.0    64    93     4    33     1    37 0.91 -
JF1J_TRINITY_DN69551_c0_g1_i3.p1JF1J_TRINITY_DN69551_c0_g1   -            138 184963at3193         -            129   1.1e-07   33.9   0.0   2   2   6.5e-09   1.7e-06   30.1   0.0     4    82    23   101    20   108 0.96 -
JF3J_TRINITY_DN76438_c0_g1_i1.p1JF3J_TRINITY_DN76438_c0_g1   -            216 184963at3193         -            129   1.2e-07   33.8   0.0   1   2   9.2e-05     0.024   16.7   0.0    19    62     9    52     5    60 0.92 -
JF3J_TRINITY_DN76438_c0_g1_i1.p1JF3J_TRINITY_DN76438_c0_g1   -            216 184963at3193         -            129   1.2e-07   33.8   0.0   2   2   0.00034     0.087   14.9   0.0     5    80    86   165    83   171 0.86 -
JF1A_TRINITY_DN63904_c1_g1_i3.p1JF1A_TRINITY_DN63904_c1_g1   -            217 184963at3193         -            129   1.2e-07   33.8   0.0   1   1   6.5e-10   1.7e-07   33.4   0.0     3    80    41   118    39   128 0.95 -
JF2A_TRINITY_DN41128_c0_g5_i1.p1JF2A_TRINITY_DN41128_c0_g5   -            180 184963at3193         -            129   1.3e-07   33.7   0.1   1   2      0.14        35    6.4   0.0    37    53     3    19     1    38 0.87 -
JF2A_TRINITY_DN41128_c0_g5_i1.p1JF2A_TRINITY_DN41128_c0_g5   -            180 184963at3193         -            129   1.3e-07   33.7   0.1   2   2   1.8e-07   4.6e-05   25.5   0.0     3    83    57   137    55   141 0.87 -
JF2A_TRINITY_DN36400_c0_g1_i2.p1JF2A_TRINITY_DN36400_c0_g1   -            333 184963at3193         -            129   1.3e-07   33.7   0.0   1   1     8e-10   2.1e-07   33.1   0.0     3    73   263   333   261   333 0.97 -
JF1A_TRINITY_DN67989_c0_g6_i2.p1JF1A_TRINITY_DN67989_c0_g6   -            140 184963at3193         -            129   1.4e-07   33.6   0.0   1   2   1.3e-05    0.0034   19.4   0.0     4    68     8    72     5    98 0.85 -
JF1A_TRINITY_DN67989_c0_g6_i2.p1JF1A_TRINITY_DN67989_c0_g6   -            140 184963at3193         -            129   1.4e-07   33.6   0.0   2   2    0.0016      0.41   12.7   0.0     4    41    99   136    95   139 0.91 -
JF3A_TRINITY_DN56093_c1_g1_i1.p1JF3A_TRINITY_DN56093_c1_g1   -            158 184963at3193         -            129   1.7e-07   33.4   0.0   1   2    0.0024      0.62   12.1   0.0    48    94    14    60     5    68 0.90 -
JF3A_TRINITY_DN56093_c1_g1_i1.p1JF3A_TRINITY_DN56093_c1_g1   -            158 184963at3193         -            129   1.7e-07   33.4   0.0   2   2   1.5e-05    0.0038   19.3   0.0     2    67    84   143    83   153 0.91 -
JF1A_TRINITY_DN68289_c0_g4_i2.p1JF1A_TRINITY_DN68289_c0_g4   -            154 184963at3193         -            129   1.8e-07   33.3   0.0   1   1   9.1e-10   2.3e-07   32.9   0.0     5    82    50   127    47   151 0.93 -
JF1A_TRINITY_DN66709_c0_g1_i1.p1JF1A_TRINITY_DN66709_c0_g1   -            107 184963at3193         -            129   1.9e-07   33.2   0.1   1   1   1.2e-09     3e-07   32.6   0.0     5    60     7    62     3    78 0.93 -
JF3J_TRINITY_DN71504_c2_g1_i7.p1JF3J_TRINITY_DN71504_c2_g1   -            129 184963at3193         -            129   2.8e-07   32.6   0.0   1   1   1.2e-09   3.2e-07   32.4   0.0     4    96    16   111    14   128 0.80 -
JF3A_TRINITY_DN54394_c1_g1_i3.p1JF3A_TRINITY_DN54394_c1_g1   -            166 184963at3193         -            129   2.9e-07   32.6   0.0   1   1   1.7e-09   4.3e-07   32.0   0.0     5    77    43   115    38   152 0.94 -
JF1J_TRINITY_DN66347_c0_g1_i2.p1JF1J_TRINITY_DN66347_c0_g1   -            121 184963at3193         -            129   3.2e-07   32.4   0.0   1   1   1.6e-09   4.2e-07   32.1   0.0     3    61    57   115    55   119 0.93 -
JF3A_TRINITY_DN50733_c1_g3_i3.p1JF3A_TRINITY_DN50733_c1_g3   -            111 184963at3193         -            129   3.4e-07   32.4   0.0   1   1   1.7e-09   4.2e-07   32.1   0.0     5    72    41   108    37   110 0.91 -
JF3J_TRINITY_DN69297_c1_g4_i2.p1JF3J_TRINITY_DN69297_c1_g4   -            103 184963at3193         -            129   4.1e-07   32.1   0.0   1   1   1.8e-09   4.7e-07   31.9   0.0    21    83    25    87     8    96 0.91 -
JF1A_TRINITY_DN66575_c1_g1_i12.p1JF1A_TRINITY_DN66575_c1_g1  -            208 184963at3193         -            129   4.5e-07   32.0   0.0   1   1   2.4e-09   6.1e-07   31.5   0.0     4    60     8    64     5    85 0.89 -
JF3J_TRINITY_DN71504_c2_g1_i9.p1JF3J_TRINITY_DN71504_c2_g1   -            152 184963at3193         -            129   4.6e-07   31.9   0.0   1   1   2.1e-09   5.3e-07   31.7   0.0     4    96    39   134    36   151 0.80 -
JF1A_TRINITY_DN62347_c3_g1_i2.p1JF1A_TRINITY_DN62347_c3_g1   -            388 184963at3193         -            129   4.6e-07   31.9   0.0   1   2   0.00023     0.059   15.4   0.0     3    82   192   266   190   271 0.93 -
JF1A_TRINITY_DN62347_c3_g1_i2.p1JF1A_TRINITY_DN62347_c3_g1   -            388 184963at3193         -            129   4.6e-07   31.9   0.0   2   2    0.0005      0.13   14.3   0.0     3    78   277   347   275   378 0.85 -
JF2A_TRINITY_DN41373_c2_g4_i4.p1JF2A_TRINITY_DN41373_c2_g4   -            115 184963at3193         -            129     5e-07   31.8   0.0   1   1   2.4e-09   6.2e-07   31.5   0.0    23    80    18    75    10    94 0.88 -
JF3J_TRINITY_DN69297_c1_g4_i3.p1JF3J_TRINITY_DN69297_c1_g4   -            153 184963at3193         -            129     6e-07   31.6   0.0   1   1     3e-09   7.6e-07   31.2   0.0    21    84    25    88     8   105 0.89 -
JF1A_TRINITY_DN74756_c0_g1_i1.p1JF1A_TRINITY_DN74756_c0_g1   -            132 184963at3193         -            129   6.9e-07   31.4   0.0   1   1   3.1e-09     8e-07   31.2   0.0    37   108     5    76     1    84 0.87 -
JF1J_TRINITY_DN72269_c1_g2_i3.p1JF1J_TRINITY_DN72269_c1_g2   -            137 184963at3193         -            129   7.1e-07   31.3   0.0   1   1   3.7e-09   9.6e-07   30.9   0.0     5    61    55   111    51   114 0.94 -
JF1A_TRINITY_DN61183_c1_g4_i3.p1JF1A_TRINITY_DN61183_c1_g4   -            242 184963at3193         -            129   7.3e-07   31.3   0.7   1   2   5.1e-08   1.3e-05   27.2   0.3     3    82    10    90     8   128 0.81 -
JF1A_TRINITY_DN61183_c1_g4_i3.p1JF1A_TRINITY_DN61183_c1_g4   -            242 184963at3193         -            129   7.3e-07   31.3   0.7   2   2         3   7.8e+02    2.1   0.0     3    66   167   225   165   239 0.80 -
JF1A_TRINITY_DN64305_c0_g1_i21.p1JF1A_TRINITY_DN64305_c0_g1  -            181 184963at3193         -            129   8.8e-07   31.0   0.0   1   1   4.5e-09   1.2e-06   30.6   0.0    21    84    48   111    31   128 0.89 -
JF3J_TRINITY_DN70305_c1_g1_i6.p1JF3J_TRINITY_DN70305_c1_g1   -            260 184963at3193         -            129   1.1e-06   30.8   0.0   1   1   9.2e-09   2.4e-06   29.6   0.0    34    87   190   243   177   250 0.88 -
JF1A_TRINITY_DN64566_c4_g2_i1.p1JF1A_TRINITY_DN64566_c4_g2   -            396 184963at3193         -            129   1.1e-06   30.7   0.1   1   1     1e-08   2.6e-06   29.5   0.1     5    76   293   364   288   372 0.94 -
JF3A_TRINITY_DN46544_c2_g3_i3.p1JF3A_TRINITY_DN46544_c2_g3   -            322 184963at3193         -            129   1.2e-06   30.6   0.0   1   2   3.5e-06    0.0009   21.3   0.0     4    62    21    79    18    95 0.91 -
JF3A_TRINITY_DN46544_c2_g3_i3.p1JF3A_TRINITY_DN46544_c2_g3   -            322 184963at3193         -            129   1.2e-06   30.6   0.0   2   2     0.073        19    7.3   0.0     4    99   114   211   111   227 0.67 -
JF2J_TRINITY_DN23352_c3_g2_i1.p1JF2J_TRINITY_DN23352_c3_g2   -            179 184963at3193         -            129   1.2e-06   30.6   0.0   1   1   6.6e-09   1.7e-06   30.1   0.0    22    80    84   142    70   161 0.89 -
JF1A_TRINITY_DN62278_c0_g3_i2.p1JF1A_TRINITY_DN62278_c0_g3   -            147 184963at3193         -            129   1.3e-06   30.5   0.0   1   2      0.57   1.5e+02    4.4   0.0    54    82    11    39     7    69 0.77 -
JF1A_TRINITY_DN62278_c0_g3_i2.p1JF1A_TRINITY_DN62278_c0_g3   -            147 184963at3193         -            129   1.3e-06   30.5   0.0   2   2   6.6e-07   0.00017   23.6   0.0     4    55    75   126    72   146 0.88 -
JF3J_TRINITY_DN64280_c1_g3_i4.p1JF3J_TRINITY_DN64280_c1_g3   -            249 184963at3193         -            129   1.4e-06   30.3   0.0   1   1   9.1e-09   2.3e-06   29.7   0.0     5    80   113   186   110   189 0.81 -
JF1J_TRINITY_DN66796_c3_g1_i11.p1JF1J_TRINITY_DN66796_c3_g1  -            154 184963at3193         -            129   1.7e-06   30.1   0.1   1   2       4.3   1.1e+03    1.6   0.0    55    80    19    46     3    52 0.60 -
JF1J_TRINITY_DN66796_c3_g1_i11.p1JF1J_TRINITY_DN66796_c3_g1  -            154 184963at3193         -            129   1.7e-06   30.1   0.1   2   2   8.2e-08   2.1e-05   26.6   0.0     3    68    60   125    58   142 0.93 -
JF1A_TRINITY_DN67666_c0_g2_i4.p1JF1A_TRINITY_DN67666_c0_g2   -            382 184963at3193         -            129   1.8e-06   30.0   0.0   1   1   1.3e-08   3.2e-06   29.2   0.0     3    74   138   209   136   230 0.91 -
JF1A_TRINITY_DN67868_c2_g1_i9.p1JF1A_TRINITY_DN67868_c2_g1   -            259 184963at3193         -            129     2e-06   29.9   0.0   1   2     5e-05     0.013   17.5   0.0     3    82    17    91    15    95 0.93 -
JF1A_TRINITY_DN67868_c2_g1_i9.p1JF1A_TRINITY_DN67868_c2_g1   -            259 184963at3193         -            129     2e-06   29.9   0.0   2   2    0.0094       2.4   10.2   0.0     3    76   102   170   100   181 0.87 -
JF1A_TRINITY_DN62027_c3_g4_i1.p1JF1A_TRINITY_DN62027_c3_g4   -            109 184963at3193         -            129   2.5e-06   29.6   0.1   1   1   1.8e-08   4.6e-06   28.7   0.1     2    66    45   109    44   109 0.97 -
JF1A_TRINITY_DN66480_c4_g1_i1.p1JF1A_TRINITY_DN66480_c4_g1   -            165 184963at3193         -            129   3.4e-06   29.1   0.0   1   1   1.8e-08   4.6e-06   28.7   0.0     3    67    46   104    44   131 0.90 -
JF1A_TRINITY_DN66669_c2_g1_i24.p1JF1A_TRINITY_DN66669_c2_g1  -            133 184963at3193         -            129   4.3e-06   28.8   0.0   1   2       5.4   1.4e+03    1.3   0.0    47    72     2    26     1    48 0.72 -
JF1A_TRINITY_DN66669_c2_g1_i24.p1JF1A_TRINITY_DN66669_c2_g1  -            133 184963at3193         -            129   4.3e-06   28.8   0.0   2   2   1.4e-07   3.6e-05   25.8   0.0    42    82    69   109    53   130 0.85 -
JF1A_TRINITY_DN60344_c5_g2_i7.p1JF1A_TRINITY_DN60344_c5_g2   -            109 184963at3193         -            129   4.4e-06   28.8   0.0   1   1   2.3e-08   5.9e-06   28.3   0.0     4    65    31    93    29   100 0.94 -
JF1A_TRINITY_DN67597_c2_g1_i1.p1JF1A_TRINITY_DN67597_c2_g1   -            178 184963at3193         -            129   4.8e-06   28.6   0.0   1   1   2.6e-08   6.6e-06   28.2   0.0     5    58    54   107    50   115 0.94 -
JF3A_TRINITY_DN59598_c0_g3_i5.p1JF3A_TRINITY_DN59598_c0_g3   -            217 184963at3193         -            129     5e-06   28.6   0.0   1   1   3.1e-08   8.1e-06   27.9   0.0     4    54    21    71    19    84 0.91 -
JF2A_TRINITY_DN42255_c2_g4_i9.p1JF2A_TRINITY_DN42255_c2_g4   -            116 184963at3193         -            129   5.9e-06   28.4   0.0   1   2     0.017       4.3    9.4   0.0    51    79    22    51     7    58 0.81 -
JF2A_TRINITY_DN42255_c2_g4_i9.p1JF2A_TRINITY_DN42255_c2_g4   -            116 184963at3193         -            129   5.9e-06   28.4   0.0   2   2   6.1e-05     0.016   17.3   0.0     1    49    68   115    68   116 0.92 -
JF1A_TRINITY_DN65360_c0_g6_i1.p1JF1A_TRINITY_DN65360_c0_g6   -            101 184963at3193         -            129   6.3e-06   28.3   0.0   1   1   2.9e-08   7.4e-06   28.0   0.0     4    60     9    65     6    79 0.92 -
JF1A_TRINITY_DN67134_c3_g5_i1.p1JF1A_TRINITY_DN67134_c3_g5   -            261 184963at3193         -            129   7.4e-06   28.0   0.1   1   1   1.9e-07     5e-05   25.4   0.0    16    79   162   225   148   257 0.87 -
JF2A_TRINITY_DN38350_c0_g1_i1.p1JF2A_TRINITY_DN38350_c0_g1   -            156 184963at3193         -            129   7.5e-06   28.0   0.0   1   2   1.6e-05    0.0041   19.2   0.0     3    82    26   100    24   105 0.93 -
JF2A_TRINITY_DN38350_c0_g1_i1.p1JF2A_TRINITY_DN38350_c0_g1   -            156 184963at3193         -            129   7.5e-06   28.0   0.0   2   2     0.089        23    7.1   0.0     3    45   111   152   109   155 0.85 -
JF3J_TRINITY_DN64951_c3_g1_i8.p1JF3J_TRINITY_DN64951_c3_g1   -            124 184963at3193         -            129   7.7e-06   28.0   0.0   1   1   4.4e-08   1.1e-05   27.4   0.0     4    93    19   102    16   122 0.83 -
JF1J_TRINITY_DN66796_c3_g1_i5.p1JF1J_TRINITY_DN66796_c3_g1   -            119 184963at3193         -            129   7.9e-06   27.9   0.0   1   2         6   1.5e+03    1.1   0.0    55    81    12    40     7    45 0.69 -
JF1J_TRINITY_DN66796_c3_g1_i5.p1JF1J_TRINITY_DN66796_c3_g1   -            119 184963at3193         -            129   7.9e-06   27.9   0.0   2   2     3e-07   7.8e-05   24.7   0.0     3    61    53   111    51   115 0.93 -
JF1A_TRINITY_DN60903_c0_g1_i8.p1JF1A_TRINITY_DN60903_c0_g1   -            133 184963at3193         -            129   9.7e-06   27.7   0.1   1   1   5.4e-08   1.4e-05   27.2   0.1     5    67    13    74     9    83 0.91 -
JF1J_TRINITY_DN69606_c0_g1_i7.p1JF1J_TRINITY_DN69606_c0_g1   -            271 184963at3193         -            129   1.1e-05   27.5   0.0   1   2       6.8   1.8e+03    1.0   0.0    45    72    38    64    35    87 0.76 -
JF1J_TRINITY_DN69606_c0_g1_i7.p1JF1J_TRINITY_DN69606_c0_g1   -            271 184963at3193         -            129   1.1e-05   27.5   0.0   2   2   5.3e-07   0.00014   23.9   0.0    43    82   131   170   113   185 0.86 -
JF1A_TRINITY_DN64844_c1_g1_i3.p1JF1A_TRINITY_DN64844_c1_g1   -            293 184963at3193         -            129   1.1e-05   27.4   0.0   1   1   6.8e-08   1.7e-05   26.8   0.0     3    77    81   155    79   162 0.93 -
JF3J_TRINITY_DN63003_c0_g1_i1.p1JF3J_TRINITY_DN63003_c0_g1   -            120 184963at3193         -            129   1.4e-05   27.1   0.0   1   1   6.9e-08   1.8e-05   26.8   0.0     3    70    37   104    35   114 0.84 -
JF2A_TRINITY_DN40001_c0_g1_i4.p1JF2A_TRINITY_DN40001_c0_g1   -            142 184963at3193         -            129   1.4e-05   27.1   0.0   1   1     7e-08   1.8e-05   26.8   0.0     3    70    25    92    23   115 0.87 -
JF1A_TRINITY_DN67472_c4_g1_i24.p1JF1A_TRINITY_DN67472_c4_g1  -            447 184963at3193         -            129   1.5e-05   27.1   0.0   1   2       3.9     1e+03    1.7   0.0    42    81    47    89     4    97 0.76 -
JF1A_TRINITY_DN67472_c4_g1_i24.p1JF1A_TRINITY_DN67472_c4_g1  -            447 184963at3193         -            129   1.5e-05   27.1   0.0   2   2   9.8e-07   0.00025   23.1   0.0     3    69   102   168   100   199 0.84 -
JF1A_TRINITY_DN60684_c9_g1_i1.p1JF1A_TRINITY_DN60684_c9_g1   -            254 184963at3193         -            129   2.2e-05   26.5   0.3   1   2      0.19        48    6.0   0.0    44    90    35    84     4   121 0.78 -
JF1A_TRINITY_DN60684_c9_g1_i1.p1JF1A_TRINITY_DN60684_c9_g1   -            254 184963at3193         -            129   2.2e-05   26.5   0.3   2   2   1.9e-05    0.0048   18.9   0.1    43    80   127   164   103   169 0.92 -
JF1A_TRINITY_DN63117_c1_g3_i1.p1JF1A_TRINITY_DN63117_c1_g3   -            102 184963at3193         -            129   2.3e-05   26.4   0.0   1   1   1.2e-07   3.2e-05   26.0   0.0     4    50    41    87    38    90 0.95 -
JF1A_TRINITY_DN64752_c1_g3_i2.p1JF1A_TRINITY_DN64752_c1_g3   -            494 184963at3193         -            129   2.4e-05   26.4   0.0   1   2   2.4e-05    0.0062   18.6   0.0     4    80    52   122    49   127 0.92 -
JF1A_TRINITY_DN64752_c1_g3_i2.p1JF1A_TRINITY_DN64752_c1_g3   -            494 184963at3193         -            129   2.4e-05   26.4   0.0   2   2      0.31        78    5.3   0.0    13    35   193   215   181   245 0.75 -
JF1J_TRINITY_DN62159_c0_g1_i1.p1JF1J_TRINITY_DN62159_c0_g1   -            228 184963at3193         -            129   2.6e-05   26.3   0.0   1   1   1.9e-07   4.8e-05   25.4   0.0     4    85    65   146    62   195 0.84 -
JF1A_TRINITY_DN61919_c1_g3_i1.p1JF1A_TRINITY_DN61919_c1_g3   -            173 184963at3193         -            129   2.7e-05   26.2   0.0   1   1   1.5e-07   3.8e-05   25.7   0.0    22    80    35    93    21   105 0.93 -
JF1J_TRINITY_DN66796_c3_g1_i6.p2JF1J_TRINITY_DN66796_c3_g1   -            102 184963at3193         -            129   2.9e-05   26.1   0.0   1   1     2e-07   5.1e-05   25.3   0.0     3    61    36    94    34    98 0.93 -
JF1J_TRINITY_DN67827_c1_g1_i8.p1JF1J_TRINITY_DN67827_c1_g1   -            122 184963at3193         -            129   2.9e-05   26.1   0.0   1   1   1.4e-07   3.6e-05   25.8   0.0     4    77    14    87    11    93 0.94 -
JF1A_TRINITY_DN67929_c0_g1_i17.p1JF1A_TRINITY_DN67929_c0_g1  -            258 184963at3193         -            129   2.9e-05   26.1   0.0   1   1   1.7e-07   4.5e-05   25.5   0.0    23    80    36    93    26   114 0.86 -
JF1A_TRINITY_DN61842_c0_g1_i14.p1JF1A_TRINITY_DN61842_c0_g1  -            297 184963at3193         -            129   3.1e-05   26.0   0.0   1   1   3.1e-07     8e-05   24.7   0.0     3    77   125   199   123   211 0.94 -
JF3J_TRINITY_DN66790_c2_g1_i2.p1JF3J_TRINITY_DN66790_c2_g1   -            100 184963at3193         -            129   3.4e-05   25.9   0.0   1   1   1.8e-07   4.6e-05   25.5   0.0    43    82    25    64     9    68 0.92 -
JF1A_TRINITY_DN68027_c1_g5_i2.p1JF1A_TRINITY_DN68027_c1_g5   -            171 184963at3193         -            129   3.7e-05   25.8   0.0   1   1   1.8e-07   4.6e-05   25.5   0.0     4    81    15    92    12   133 0.79 -
JF1A_TRINITY_DN61919_c1_g5_i1.p1JF1A_TRINITY_DN61919_c1_g5   -            254 184963at3193         -            129   4.1e-05   25.6   0.0   1   1   2.6e-07   6.7e-05   24.9   0.0    22    80    35    93    23   130 0.93 -
JF1A_TRINITY_DN61919_c1_g4_i1.p1JF1A_TRINITY_DN61919_c1_g4   -            110 184963at3193         -            129   4.4e-05   25.5   0.0   1   1   1.9e-07     5e-05   25.4   0.0    22    70    35    83    19    96 0.90 -
JF1A_TRINITY_DN65041_c0_g1_i11.p1JF1A_TRINITY_DN65041_c0_g1  -            316 184963at3193         -            129   4.5e-05   25.5   0.8   1   1   2.7e-07   6.9e-05   24.9   0.0    16    83    39   105    23   119 0.88 -
JF1A_TRINITY_DN63918_c0_g2_i2.p1JF1A_TRINITY_DN63918_c0_g2   -            107 184963at3193         -            129   5.5e-05   25.2   0.0   1   1   2.5e-07   6.5e-05   25.0   0.0     3    80    10    88     8   100 0.85 -
JF1A_TRINITY_DN60867_c2_g2_i6.p1JF1A_TRINITY_DN60867_c2_g2   -            125 184963at3193         -            129   6.1e-05   25.1   0.1   1   1   2.9e-07   7.4e-05   24.8   0.1     3    54    44    95    42   121 0.86 -
JF1A_TRINITY_DN64796_c0_g2_i1.p1JF1A_TRINITY_DN64796_c0_g2   -            268 184963at3193         -            129   8.3e-05   24.6   0.0   1   1   5.7e-07   0.00015   23.9   0.0     4    64   201   261   199   268 0.93 -
JF2A_TRINITY_DN41290_c0_g2_i11.p1JF2A_TRINITY_DN41290_c0_g2  -            164 184963at3193         -            129   8.7e-05   24.6   0.0   1   1     5e-07   0.00013   24.0   0.0     3    72    21    89    19   121 0.87 -
JF2J_TRINITY_DN26792_c1_g1_i6.p1JF2J_TRINITY_DN26792_c1_g1   -            100 184963at3193         -            129    0.0001   24.3   0.0   1   1   5.1e-07   0.00013   24.0   0.0     1    61    13    72    13    76 0.90 -
JF1J_TRINITY_DN72045_c0_g3_i16.p1JF1J_TRINITY_DN72045_c0_g3  -            166 184963at3193         -            129   0.00011   24.2   0.0   1   1   6.2e-07   0.00016   23.7   0.0     3    62    65   124    63   159 0.91 -
JF1J_TRINITY_DN65942_c1_g4_i3.p1JF1J_TRINITY_DN65942_c1_g4   -            142 184963at3193         -            129   0.00012   24.2   0.0   1   1   6.6e-07   0.00017   23.6   0.0     3    55    78   130    76   138 0.92 -
JF1J_TRINITY_DN68081_c0_g5_i1.p1JF1J_TRINITY_DN68081_c0_g5   -            100 184963at3193         -            129   0.00013   24.0   0.0   1   1   5.6e-07   0.00014   23.9   0.0     4    53    22    71    19    88 0.91 -
JF1A_TRINITY_DN68281_c0_g3_i13.p1JF1A_TRINITY_DN68281_c0_g3  -            656 184963at3193         -            129   0.00013   24.0   0.0   1   2     0.011       2.8   10.0   0.0     3    80   470   544   468   558 0.82 -
JF1A_TRINITY_DN68281_c0_g3_i13.p1JF1A_TRINITY_DN68281_c0_g3  -            656 184963at3193         -            129   0.00013   24.0   0.0   2   2    0.0049       1.3   11.1   0.0    18    62   590   634   571   646 0.80 -
JF1A_TRINITY_DN63416_c2_g1_i9.p1JF1A_TRINITY_DN63416_c2_g1   -            381 184963at3193         -            129   0.00014   24.0   0.0   1   2    0.0019      0.49   12.4   0.0    14    61    80   127    69   141 0.83 -
JF1A_TRINITY_DN63416_c2_g1_i9.p1JF1A_TRINITY_DN63416_c2_g1   -            381 184963at3193         -            129   0.00014   24.0   0.0   2   2     0.022       5.5    9.0   0.0     4    62   157   215   154   242 0.88 -
JF3J_TRINITY_DN72953_c0_g3_i1.p1JF3J_TRINITY_DN72953_c0_g3   -            110 184963at3193         -            129   0.00014   23.9   0.0   1   1   6.4e-07   0.00016   23.7   0.0    23    78    36    90    21    99 0.89 -
JF1A_TRINITY_DN66985_c1_g1_i1.p1JF1A_TRINITY_DN66985_c1_g1   -            122 184963at3193         -            129   0.00014   23.9   0.1   1   1   8.8e-07   0.00022   23.2   0.0     5    67    20    81    16    92 0.89 -
JF1A_TRINITY_DN67865_c1_g2_i15.p1JF1A_TRINITY_DN67865_c1_g2  -            551 184963at3193         -            129   0.00015   23.8   0.3   1   3       3.5   8.9e+02    1.9   0.0    27    74    91   137    88   144 0.81 -
JF1A_TRINITY_DN67865_c1_g2_i15.p1JF1A_TRINITY_DN67865_c1_g2  -            551 184963at3193         -            129   0.00015   23.8   0.3   2   3      0.35        89    5.1   0.0     3    60   146   210   144   218 0.66 -
JF1A_TRINITY_DN67865_c1_g2_i15.p1JF1A_TRINITY_DN67865_c1_g2  -            551 184963at3193         -            129   0.00015   23.8   0.3   3   3    0.0015      0.38   12.8   0.0     5    68   249   308   245   314 0.87 -
JF1A_TRINITY_DN62231_c1_g2_i11.p1JF1A_TRINITY_DN62231_c1_g2  -            200 184963at3193         -            129   0.00016   23.7   0.1   1   1   1.1e-06   0.00029   22.9   0.0     3    62    65   124    63   140 0.90 -
JF2A_TRINITY_DN24322_c0_g1_i1.p1JF2A_TRINITY_DN24322_c0_g1   -            213 184963at3193         -            129   0.00017   23.7   0.0   1   1   8.8e-07   0.00023   23.2   0.0     5    83    39   117    35   156 0.90 -
JF1A_TRINITY_DN67030_c0_g1_i1.p1JF1A_TRINITY_DN67030_c0_g1   -            106 184963at3193         -            129   0.00018   23.6   0.0   1   1   8.9e-07   0.00023   23.2   0.0     2    69    18    79    17   103 0.88 -
JF1A_TRINITY_DN62231_c1_g2_i15.p1JF1A_TRINITY_DN62231_c1_g2  -            257 184963at3193         -            129   0.00022   23.3   0.0   1   1   1.5e-06   0.00039   22.5   0.0     3    62    77   136    75   176 0.91 -
JF1J_TRINITY_DN71937_c0_g2_i5.p1JF1J_TRINITY_DN71937_c0_g2   -            248 184963at3193         -            129   0.00023   23.2   0.0   1   1   1.5e-06   0.00037   22.5   0.0     3    92    57   148    55   166 0.86 -
JF3J_TRINITY_DN67979_c3_g1_i4.p1JF3J_TRINITY_DN67979_c3_g1   -            119 184963at3193         -            129   0.00025   23.1   0.0   1   1   1.1e-06   0.00028   22.9   0.0    22    72    35    85    19   108 0.83 -
JF2J_TRINITY_DN24423_c4_g3_i1.p1JF2J_TRINITY_DN24423_c4_g3   -            124 184963at3193         -            129   0.00027   23.0   0.1   1   2   0.00022     0.056   15.5   0.0    36    77    12    52     6    70 0.74 -
JF2J_TRINITY_DN24423_c4_g3_i1.p1JF2J_TRINITY_DN24423_c4_g3   -            124 184963at3193         -            129   0.00027   23.0   0.1   2   2      0.17        43    6.1   0.0     3    32    70    99    68   123 0.75 -
JF1A_TRINITY_DN63886_c0_g2_i20.p1JF1A_TRINITY_DN63886_c0_g2  -            249 184963at3193         -            129   0.00029   22.9   0.7   1   2       4.1   1.1e+03    1.7   0.1    44    72    35    62    27   121 0.77 -
JF1A_TRINITY_DN63886_c0_g2_i20.p1JF1A_TRINITY_DN63886_c0_g2  -            249 184963at3193         -            129   0.00029   22.9   0.7   2   2     2e-05    0.0052   18.8   0.0    42    92   128   178    95   193 0.87 -
JF1A_TRINITY_DN66259_c1_g6_i1.p1JF1A_TRINITY_DN66259_c1_g6   -            161 184963at3193         -            129   0.00031   22.8   0.0   1   1   1.8e-06   0.00046   22.2   0.0     3    62    27    84    25   101 0.90 -
JF3J_TRINITY_DN67979_c3_g1_i5.p1JF3J_TRINITY_DN67979_c3_g1   -            108 184963at3193         -            129   0.00031   22.8   0.0   1   1   1.4e-06   0.00037   22.5   0.0    22    70    35    85    18    90 0.86 -
JF1A_TRINITY_DN55707_c0_g1_i1.p1JF1A_TRINITY_DN55707_c0_g1   -            169 184963at3193         -            129    0.0004   22.4   0.0   1   1     2e-06   0.00051   22.1   0.0     3    67    82   146    80   160 0.90 -
JF2A_TRINITY_DN32421_c0_g1_i2.p1JF2A_TRINITY_DN32421_c0_g1   -            103 184963at3193         -            129   0.00042   22.4   0.0   1   1     2e-06   0.00051   22.1   0.0     9    67    34    91    26   100 0.88 -
JF3A_TRINITY_DN59535_c3_g1_i3.p1JF3A_TRINITY_DN59535_c3_g1   -            133 184963at3193         -            129   0.00049   22.1   0.0   1   1   2.6e-06   0.00067   21.7   0.0    43    89    19    65    14    73 0.89 -
JF2A_TRINITY_DN18248_c0_g1_i1.p1JF2A_TRINITY_DN18248_c0_g1   -            145 184963at3193         -            129    0.0005   22.1   0.1   1   1   2.8e-06   0.00071   21.6   0.1    40    82     3    45     1    86 0.75 -
JF1A_TRINITY_DN58035_c0_g2_i1.p1JF1A_TRINITY_DN58035_c0_g2   -            348 184963at3193         -            129   0.00052   22.1   0.0   1   1   3.4e-06   0.00088   21.3   0.0     2    77   209   284   208   299 0.94 -
JF1A_TRINITY_DN62210_c2_g1_i2.p1JF1A_TRINITY_DN62210_c2_g1   -            107 184963at3193         -            129   0.00054   22.0   0.1   1   1   5.8e-06    0.0015   20.6   0.0    12    67     9    64     5    77 0.94 -
JF2J_TRINITY_DN24339_c0_g1_i3.p2JF2J_TRINITY_DN24339_c0_g1   -            105 184963at3193         -            129   0.00055   22.0   0.0   1   1     3e-06   0.00078   21.5   0.0     3    53    43    93    41   102 0.90 -
JF3J_TRINITY_DN70045_c0_g1_i5.p1JF3J_TRINITY_DN70045_c0_g1   -            215 184963at3193         -            129   0.00058   21.9   0.0   1   2      0.03       7.6    8.6   0.0    39    77    12    50     7    55 0.90 -
JF3J_TRINITY_DN70045_c0_g1_i5.p1JF3J_TRINITY_DN70045_c0_g1   -            215 184963at3193         -            129   0.00058   21.9   0.0   2   2    0.0041         1   11.4   0.0     3    68    56   124    53   141 0.82 -
JF3J_TRINITY_DN63630_c2_g1_i4.p1JF3J_TRINITY_DN63630_c2_g1   -            119 184963at3193         -            129   0.00061   21.8   0.0   1   1   3.4e-06   0.00086   21.4   0.0     4    67    32    94    29   100 0.92 -
JF3A_TRINITY_DN46304_c4_g1_i1.p1JF3A_TRINITY_DN46304_c4_g1   -            114 184963at3193         -            129   0.00063   21.8   0.2   1   1   3.2e-06   0.00082   21.4   0.2    40    82     3    45     1    87 0.74 -
JF2J_TRINITY_DN25041_c1_g1_i4.p1JF2J_TRINITY_DN25041_c1_g1   -            147 184963at3193         -            129   0.00066   21.7   0.0   1   2      0.13        34    6.5   0.0    20    61     8    49     4    69 0.89 -
JF2J_TRINITY_DN25041_c1_g1_i4.p1JF2J_TRINITY_DN25041_c1_g1   -            147 184963at3193         -            129   0.00066   21.7   0.0   2   2   0.00085      0.22   13.6   0.0     3    54    84   136    82   147 0.85 -
JF1A_TRINITY_DN60707_c1_g4_i1.p1JF1A_TRINITY_DN60707_c1_g4   -            161 184963at3193         -            129   0.00068   21.7   0.4   1   1   4.2e-06    0.0011   21.0   0.0     5    53    54   102    50   120 0.93 -
JF3A_TRINITY_DN59535_c3_g1_i2.p1JF3A_TRINITY_DN59535_c3_g1   -            167 184963at3193         -            129   0.00071   21.6   0.0   1   1   4.2e-06    0.0011   21.0   0.0    43    89    19    65    14    73 0.89 -
JF2A_TRINITY_DN41627_c0_g1_i24.p1JF2A_TRINITY_DN41627_c0_g1  -            143 184963at3193         -            129   0.00072   21.6   0.4   1   2       6.8   1.7e+03    1.0   0.4   106   125    22    41     8    45 0.67 -
JF2A_TRINITY_DN41627_c0_g1_i24.p1JF2A_TRINITY_DN41627_c0_g1  -            143 184963at3193         -            129   0.00072   21.6   0.4   2   2   2.2e-05    0.0055   18.7   0.0     3    60    46   103    44   112 0.92 -
JF1A_TRINITY_DN62903_c1_g1_i5.p1JF1A_TRINITY_DN62903_c1_g1   -            212 184963at3193         -            129   0.00074   21.6   2.1   1   1   3.2e-06   0.00081   21.4   0.0     5    61   131   187   127   195 0.91 -
JF1J_TRINITY_DN63744_c2_g1_i9.p1JF1J_TRINITY_DN63744_c2_g1   -            106 184963at3193         -            129   0.00087   21.3   0.0   1   1   4.1e-06     0.001   21.1   0.0     3    79    17    93    15   101 0.92 -
JF3A_TRINITY_DN51610_c0_g1_i2.p1JF3A_TRINITY_DN51610_c0_g1   -            109 184963at3193         -            129     0.001   21.1   0.0   1   1   4.9e-06    0.0013   20.8   0.0    15    67    47    99    33   106 0.87 -
JF3J_TRINITY_DN62617_c0_g1_i5.p1JF3J_TRINITY_DN62617_c0_g1   -            105 184963at3193         -            129    0.0011   21.1   0.0   1   1   4.9e-06    0.0012   20.8   0.0     3    66    12    75    10    86 0.91 -
JF1A_TRINITY_DN64627_c1_g3_i3.p1JF1A_TRINITY_DN64627_c1_g3   -            483 184963at3193         -            129    0.0011   21.0   0.0   1   1     8e-06    0.0021   20.1   0.0     3    83   304   383   302   425 0.84 -
JF3J_TRINITY_DN63003_c0_g1_i9.p1JF3J_TRINITY_DN63003_c0_g1   -            136 184963at3193         -            129    0.0015   20.5   0.0   1   1   8.5e-06    0.0022   20.1   0.0    22    83    13    74     7    79 0.92 -
JF1J_TRINITY_DN72371_c1_g4_i12.p1JF1J_TRINITY_DN72371_c1_g4  -            329 184963at3193         -            129    0.0017   20.4   0.1   1   2       0.7   1.8e+02    4.2   0.0    20    60    56    99    37   109 0.66 -
JF1J_TRINITY_DN72371_c1_g4_i12.p1JF1J_TRINITY_DN72371_c1_g4  -            329 184963at3193         -            129    0.0017   20.4   0.1   2   2   0.00068      0.17   13.9   0.0     5    69   138   198   134   204 0.87 -
JF1J_TRINITY_DN63744_c2_g1_i8.p2JF1J_TRINITY_DN63744_c2_g1   -            129 184963at3193         -            129    0.0018   20.4   0.0   1   1   8.7e-06    0.0022   20.0   0.0     3    77    17    91    15   102 0.92 -
JF1J_TRINITY_DN72220_c1_g2_i7.p2JF1J_TRINITY_DN72220_c1_g2   -            105 184963at3193         -            129     0.002   20.2   0.0   1   1   9.6e-06    0.0024   19.9   0.0     4    52     7    55     4    66 0.94 -
JF1J_TRINITY_DN63744_c2_g1_i4.p1JF1J_TRINITY_DN63744_c2_g1   -            163 184963at3193         -            129    0.0021   20.1   0.0   1   1   1.1e-05    0.0028   19.7   0.0     3    69    14    79    12    97 0.86 -
JF3J_TRINITY_DN70414_c0_g2_i1.p2JF3J_TRINITY_DN70414_c0_g2   -            121 184963at3193         -            129    0.0022   20.1   0.7   1   1   1.4e-05    0.0035   19.4   0.5    12    67     5    59     2    92 0.86 -
JF2J_TRINITY_DN26463_c0_g2_i6.p1JF2J_TRINITY_DN26463_c0_g2   -            101 184963at3193         -            129    0.0022   20.1   0.1   1   1   1.7e-05    0.0043   19.1   0.0     3    57    39    93    37    98 0.93 -
JF1A_TRINITY_DN61478_c0_g6_i2.p1JF1A_TRINITY_DN61478_c0_g6   -            221 184963at3193         -            129    0.0026   19.8   0.0   1   1   1.7e-05    0.0043   19.1   0.0     2    69    23    84    22   121 0.84 -
JF1A_TRINITY_DN66570_c0_g1_i2.p1JF1A_TRINITY_DN66570_c0_g1   -            355 184963at3193         -            129    0.0026   19.8   0.0   1   2     0.017       4.3    9.4   0.0    16    71    13    63     4    74 0.86 -
JF1A_TRINITY_DN66570_c0_g1_i2.p1JF1A_TRINITY_DN66570_c0_g1   -            355 184963at3193         -            129    0.0026   19.8   0.0   2   2     0.062        16    7.6   0.0     4    85   165   242   162   248 0.74 -
JF1A_TRINITY_DN67611_c0_g6_i2.p1JF1A_TRINITY_DN67611_c0_g6   -            108 184963at3193         -            129    0.0049   18.9   0.0   1   1   2.7e-05     0.007   18.4   0.0     4    50    42    88    38    93 0.95 -
JF1J_TRINITY_DN65244_c0_g1_i4.p1JF1J_TRINITY_DN65244_c0_g1   -            118 184963at3193         -            129     0.006   18.6   0.0   1   1   3.9e-05      0.01   17.9   0.0     3    66    41   104    39   110 0.92 -
JF3A_TRINITY_DN58638_c0_g2_i26.p1JF3A_TRINITY_DN58638_c0_g2  -            111 184963at3193         -            129    0.0063   18.6   0.1   1   1   5.6e-05     0.014   17.4   0.1    20    65    41    86    36   104 0.85 -
JF1J_TRINITY_DN62092_c3_g1_i1.p1JF1J_TRINITY_DN62092_c3_g1   -            108 184963at3193         -            129    0.0067   18.5   0.0   1   1   3.1e-05    0.0079   18.2   0.0     3    77    16    85    14   105 0.86 -
JF1J_TRINITY_DN66452_c4_g1_i1.p1JF1J_TRINITY_DN66452_c4_g1   -            112 184963at3193         -            129    0.0068   18.4   0.0   1   1   3.7e-05    0.0095   18.0   0.0     3    40    38    75    36    82 0.91 -
JF1A_TRINITY_DN60529_c0_g1_i1.p1JF1A_TRINITY_DN60529_c0_g1   -            125 184963at3193         -            129     0.007   18.4   0.1   1   1   3.4e-05    0.0086   18.1   0.1     4    84    20    97    17   114 0.90 -
JF1A_TRINITY_DN67589_c1_g4_i6.p1JF1A_TRINITY_DN67589_c1_g4   -            135 184963at3193         -            129    0.0071   18.4   0.0   1   1   3.4e-05    0.0088   18.1   0.0     4    76    15    86    12    96 0.90 -
JF1A_TRINITY_DN37682_c0_g1_i1.p1JF1A_TRINITY_DN37682_c0_g1   -            217 184963at3193         -            129    0.0083   18.2   0.0   1   1   5.1e-05     0.013   17.5   0.0     3    61    81   139    79   194 0.89 -
JF3J_TRINITY_DN67250_c0_g1_i2.p1JF3J_TRINITY_DN67250_c0_g1   -            109 184963at3193         -            129    0.0091   18.0   0.0   1   1   4.9e-05     0.013   17.6   0.0     2    67    23    82    22    93 0.90 -
JF3J_TRINITY_DN38959_c0_g1_i1.p1JF3J_TRINITY_DN38959_c0_g1   -            180 184963at3193         -            129     0.012   17.7   0.0   1   1   6.9e-05     0.018   17.1   0.0     6    52    11    58     7    63 0.84 -
JF1J_TRINITY_DN71392_c3_g1_i11.p1JF1J_TRINITY_DN71392_c3_g1  -            121 184963at3193         -            129     0.013   17.5   0.0   1   1   8.7e-05     0.022   16.8   0.0     5    66    51   112    47   115 0.84 -
JF1A_TRINITY_DN64305_c0_g1_i25.p1JF1A_TRINITY_DN64305_c0_g1  -            114 184963at3193         -            129     0.019   17.0   0.0   1   1   9.8e-05     0.025   16.6   0.0    44    85    10    51     7    68 0.88 -
JF3A_TRINITY_DN45684_c0_g1_i1.p1JF3A_TRINITY_DN45684_c0_g1   -            147 184963at3193         -            129     0.022   16.8   0.0   1   1   0.00012     0.031   16.3   0.0     5    48    61   104    58   109 0.94 -
JF3J_TRINITY_DN68304_c0_g1_i1.p1JF3J_TRINITY_DN68304_c0_g1   -            131 184963at3193         -            129     0.022   16.8   0.0   1   1   0.00035      0.09   14.8   0.0    37    84     6    53     2    59 0.91 -
JF2A_TRINITY_DN41400_c1_g7_i1.p1JF2A_TRINITY_DN41400_c1_g7   -            190 184963at3193         -            129     0.022   16.8   0.0   1   1   0.00017     0.045   15.8   0.0     4    61    78   135    75   140 0.92 -
JF1A_TRINITY_DN64135_c0_g8_i1.p1JF1A_TRINITY_DN64135_c0_g8   -            189 184963at3193         -            129     0.023   16.8   0.0   1   1   0.00012     0.031   16.3   0.0     6    82    17    94    13   133 0.80 -
JF1A_TRINITY_DN66901_c6_g2_i3.p1JF1A_TRINITY_DN66901_c6_g2   -            226 184963at3193         -            129     0.023   16.7   0.0   1   1   0.00015     0.038   16.0   0.0     4    78    75   148    72   174 0.91 -
JF1A_TRINITY_DN68322_c1_g4_i1.p1JF1A_TRINITY_DN68322_c1_g4   -            138 184963at3193         -            129     0.029   16.4   0.0   1   1   0.00014     0.037   16.1   0.0     4    67    38   101    35   124 0.89 -
JF3A_TRINITY_DN49312_c1_g2_i3.p2JF3A_TRINITY_DN49312_c1_g2   -            115 184963at3193         -            129     0.032   16.3   0.0   1   1   0.00019     0.048   15.7   0.0    31    74    11    54     3    64 0.86 -
JF2A_TRINITY_DN41290_c0_g2_i1.p1JF2A_TRINITY_DN41290_c0_g2   -            141 184963at3193         -            129     0.033   16.2   0.1   1   1    0.0002     0.051   15.6   0.1    37    72    31    66    24    99 0.82 -
JF2A_TRINITY_DN40983_c0_g2_i2.p1JF2A_TRINITY_DN40983_c0_g2   -            230 184963at3193         -            129     0.044   15.8   0.4   1   1   0.00043      0.11   14.6   0.0     5    81   131   204   128   211 0.81 -
JF2J_TRINITY_DN26962_c0_g1_i3.p1JF2J_TRINITY_DN26962_c0_g1   -            120 184963at3193         -            129     0.045   15.8   0.0   1   1   0.00022     0.057   15.5   0.0    37    69    13    45     4    66 0.88 -
JF2A_TRINITY_DN13166_c0_g1_i1.p1JF2A_TRINITY_DN13166_c0_g1   -            169 184963at3193         -            129     0.047   15.7   0.0   1   2    0.0019      0.48   12.5   0.0    13    62    18    65    12    81 0.89 -
JF2A_TRINITY_DN13166_c0_g1_i1.p1JF2A_TRINITY_DN13166_c0_g1   -            169 184963at3193         -            129     0.047   15.7   0.0   2   2       5.2   1.3e+03    1.3   0.0    45    62   146   163   104   169 0.79 -
JF1A_TRINITY_DN61146_c2_g11_i1.p1JF1A_TRINITY_DN61146_c2_g11 -            232 184963at3193         -            129     0.047   15.7   0.0   1   1    0.0012       0.3   13.1   0.0     2    61    45   102    44   112 0.90 -
JF1A_TRINITY_DN67363_c2_g1_i15.p1JF1A_TRINITY_DN67363_c2_g1  -            461 184963at3193         -            129     0.052   15.6   0.0   1   1    0.0004       0.1   14.6   0.0    16    61   247   288   235   307 0.83 -
JF2J_TRINITY_DN21964_c0_g1_i1.p1JF2J_TRINITY_DN21964_c0_g1   -            102 184963at3193         -            129     0.061   15.4   0.0   1   2     0.057        15    7.7   0.0    38    61    15    38     9    63 0.81 -
JF2J_TRINITY_DN21964_c0_g1_i1.p1JF2J_TRINITY_DN21964_c0_g1   -            102 184963at3193         -            129     0.061   15.4   0.0   2   2      0.18        46    6.1   0.0     3    30    75   102    73   102 0.89 -
JF1A_TRINITY_DN67410_c1_g2_i7.p1JF1A_TRINITY_DN67410_c1_g2   -            152 184963at3193         -            129     0.067   15.2   0.0   1   1    0.0004       0.1   14.6   0.0    27    63    93   132    86   141 0.77 -
JF2A_TRINITY_DN41447_c3_g2_i1.p1JF2A_TRINITY_DN41447_c3_g2   -            112 184963at3193         -            129     0.067   15.2   0.0   1   1   0.00049      0.13   14.4   0.0     4    82    14    84    11    96 0.86 -
JF1A_TRINITY_DN64323_c0_g1_i1.p1JF1A_TRINITY_DN64323_c0_g1   -            109 184963at3193         -            129     0.068   15.2   0.0   1   1   0.00029     0.075   15.1   0.0     3    80     7    84     5    99 0.92 -
JF1A_TRINITY_DN60099_c0_g1_i3.p1JF1A_TRINITY_DN60099_c0_g1   -            156 184963at3193         -            129     0.074   15.1   0.0   1   1   0.00038     0.098   14.7   0.0    14    76    60   121    49   131 0.83 -
JF2J_TRINITY_DN26962_c0_g1_i4.p1JF2J_TRINITY_DN26962_c0_g1   -            157 184963at3193         -            129     0.077   15.1   0.0   1   1   0.00041       0.1   14.6   0.0    37    69    13    45     5    64 0.89 -
JF1A_TRINITY_DN67363_c2_g1_i10.p1JF1A_TRINITY_DN67363_c2_g1  -            264 184963at3193         -            129     0.084   14.9   0.0   1   1   0.00059      0.15   14.1   0.0    25    61    59    91    33   111 0.81 -
JF1A_TRINITY_DN67510_c1_g1_i17.p1JF1A_TRINITY_DN67510_c1_g1  -            141 184963at3193         -            129     0.092   14.8   0.0   1   1   0.00066      0.17   13.9   0.0     4    87    14    89    11    97 0.85 -
JF3J_TRINITY_DN55455_c0_g1_i1.p1JF3J_TRINITY_DN55455_c0_g1   -            118 184963at3193         -            129     0.098   14.7   0.0   1   1   0.00051      0.13   14.3   0.0     5    52    65   112    62   118 0.89 -
JF3J_TRINITY_DN67512_c1_g1_i5.p1JF3J_TRINITY_DN67512_c1_g1   -            137 184963at3193         -            129       0.1   14.7   0.0   1   1   0.00057      0.15   14.1   0.0     4    67    21    79    18    87 0.90 -
JF2A_TRINITY_DN37261_c1_g1_i4.p1JF2A_TRINITY_DN37261_c1_g1   -            211 184963at3193         -            129       0.1   14.6   0.0   1   1     0.001      0.26   13.3   0.0     3    80     7    81     5    89 0.88 -
JF1A_TRINITY_DN63416_c2_g1_i8.p1JF1A_TRINITY_DN63416_c2_g1   -            288 184963at3193         -            129      0.11   14.6   0.0   1   1    0.0012      0.31   13.1   0.0    13    61    79   127    69   142 0.83 -
JF1A_TRINITY_DN62933_c0_g1_i11.p1JF1A_TRINITY_DN62933_c0_g1  -            351 184963at3193         -            129      0.11   14.5   0.1   1   2     0.064        16    7.5   0.0     5    80   116   191   113   216 0.84 -
JF1A_TRINITY_DN62933_c0_g1_i11.p1JF1A_TRINITY_DN62933_c0_g1  -            351 184963at3193         -            129      0.11   14.5   0.1   2   2       1.7   4.2e+02    2.9   0.0    45    89   304   348   293   350 0.82 -
JF1J_TRINITY_DN60503_c0_g1_i1.p1JF1J_TRINITY_DN60503_c0_g1   -            119 184963at3193         -            129      0.12   14.5   0.0   1   1   0.00055      0.14   14.2   0.0    25    60     3    38     1    54 0.89 -
JF1A_TRINITY_DN48455_c0_g1_i1.p1JF1A_TRINITY_DN48455_c0_g1   -            347 184963at3193         -            129      0.13   14.3   0.0   1   1   0.00099      0.25   13.4   0.0    19    86    89   153    73   182 0.82 -
JF3J_TRINITY_DN67250_c0_g1_i4.p1JF3J_TRINITY_DN67250_c0_g1   -            122 184963at3193         -            129      0.14   14.2   0.0   1   1   0.00086      0.22   13.6   0.0     2    39    32    69    31    88 0.84 -
JF2A_TRINITY_DN42453_c3_g1_i3.p1JF2A_TRINITY_DN42453_c3_g1   -            250 184963at3193         -            129      0.14   14.2   0.0   1   1   0.00096      0.25   13.4   0.0    16    69    69   124    63   145 0.83 -
JF3A_TRINITY_DN31268_c0_g1_i1.p1JF3A_TRINITY_DN31268_c0_g1   -            150 184963at3193         -            129       0.2   13.7   0.0   1   1    0.0011      0.29   13.2   0.0    19    80    34    99    17   106 0.86 -
JF2A_TRINITY_DN5812_c0_g1_i1.p1JF2A_TRINITY_DN5812_c0_g1     -            235 184963at3193         -            129      0.21   13.6   0.1   1   1    0.0029      0.74   11.9   0.0    29    71    44    87    37   169 0.81 -
JF1J_TRINITY_DN66414_c1_g1_i2.p1JF1J_TRINITY_DN66414_c1_g1   -            289 184963at3193         -            129      0.21   13.6   0.0   1   1    0.0018      0.46   12.5   0.0     2    61   102   159   101   168 0.90 -
JF3A_TRINITY_DN46311_c0_g1_i2.p1JF3A_TRINITY_DN46311_c0_g1   -            106 184963at3193         -            129      0.28   13.2   0.0   1   1    0.0013      0.34   13.0   0.0     3    60    22    79    20    92 0.91 -
JF3A_TRINITY_DN57344_c0_g1_i12.p2JF3A_TRINITY_DN57344_c0_g1  -            100 184963at3193         -            129      0.28   13.2   0.0   1   1    0.0012       0.3   13.1   0.0     4    63    20    79    17    97 0.87 -
JF1A_TRINITY_DN60514_c1_g6_i1.p1JF1A_TRINITY_DN60514_c1_g6   -            176 184963at3193         -            129      0.32   13.1   0.0   1   1    0.0019      0.48   12.5   0.0     5    67     4    61     1    68 0.91 -
JF1A_TRINITY_DN64675_c0_g3_i9.p1JF1A_TRINITY_DN64675_c0_g3   -            138 184963at3193         -            129      0.36   12.9   0.0   1   1    0.0023       0.6   12.2   0.0    40    86     6    52     3   105 0.75 -
JF1A_TRINITY_DN37744_c0_g1_i2.p1JF1A_TRINITY_DN37744_c0_g1   -            142 184963at3193         -            129      0.45   12.6   0.0   1   1    0.0027      0.68   12.0   0.0     5    77    56   127    53   139 0.86 -
JF1A_TRINITY_DN61058_c4_g4_i2.p1JF1A_TRINITY_DN61058_c4_g4   -            379 184963at3193         -            129      0.47   12.5   0.0   1   1    0.0042       1.1   11.3   0.0     3    67   296   360   294   379 0.83 -
JF2A_TRINITY_DN40444_c0_g1_i4.p1JF2A_TRINITY_DN40444_c0_g1   -            104 184963at3193         -            129      0.49   12.4   0.0   1   1    0.0028      0.71   11.9   0.0     5    58    36    85    32    96 0.84 -
JF1A_TRINITY_DN61843_c1_g9_i1.p1JF1A_TRINITY_DN61843_c1_g9   -            150 184963at3193         -            129       0.5   12.4   0.0   1   1    0.0036      0.93   11.5   0.0     4    69    30   103    27   123 0.82 -
JF1A_TRINITY_DN59318_c0_g1_i1.p1JF1A_TRINITY_DN59318_c0_g1   -            228 184963at3193         -            129      0.52   12.4   0.0   1   1    0.0036      0.91   11.6   0.0     4    76   148   219   145   224 0.86 -
JF1A_TRINITY_DN67567_c0_g7_i4.p1JF1A_TRINITY_DN67567_c0_g7   -            205 184963at3193         -            129      0.58   12.2   0.0   1   1    0.0036      0.93   11.5   0.0    17    56    52    87    38   119 0.78 -
#
# Program:         hmmsearch
# Version:         3.2.1 (June 2018)
# Pipeline mode:   SEARCH
# Query file:      /isg/shared/databases/BUSCO/odb10/embryophyta_odb10/hmms/184963at3193.hmm
# Target file:     Juniper_final_annotations_no_contam_lvl0.faa
# Option settings: /usr/local/bin/hmmsearch --domtblout /labs/Wegrzyn/Juniper_Pine/BUSCO/NEW/busco_juniper/run_embryophyta_odb10/hmmer_output/184963at3193.out --cpu 1 /isg/shared/databases/BUSCO/odb10/embryophyta_odb10/hmms/184963at3193.hmm Juniper_final_annotations_no_contam_lvl0.faa 
# Current dir:     /labs/Wegrzyn/Juniper_Pine/BUSCO/NEW
# Date:            Thu Aug  6 16:13:12 2020
# [ok]
