#                                                                                                                  --- full sequence --- -------------- this domain -------------   hmm coord   ali coord   env coord
# target name                                              accession   tlen query name           accession   qlen   E-value  score  bias   #  of  c-Evalue  i-Evalue  score  bias  from    to  from    to  from    to  acc description of target
#                                      ------------------- ---------- ----- -------------------- ---------- ----- --------- ------ ----- --- --- --------- --------- ------ ----- ----- ----- ----- ----- ----- ----- ---- ---------------------
JF1J_TRINITY_DN67346_c0_g1_i2.p1JF1J_TRINITY_DN67346_c0_g1 -            116 185081at3193         -            127   9.1e-35  121.1   0.2   1   1   1.1e-38   1.1e-34  120.9   0.2    31   127    21   115     7   115 0.94 -
JF2A_TRINITY_DN39008_c0_g1_i7.p1JF2A_TRINITY_DN39008_c0_g1 -            103 185081at3193         -            127   3.4e-24   87.0   1.9   1   1   1.4e-27   1.4e-23   85.0   1.9    13    99     2    99     1   102 0.85 -
JF1J_TRINITY_DN67346_c0_g1_i7.p1JF1J_TRINITY_DN67346_c0_g1 -            153 185081at3193         -            127   5.5e-15   57.2   0.3   1   1   2.2e-18   2.2e-14   55.3   0.3     3    82    13   104    11   117 0.79 -
JF2A_TRINITY_DN40403_c1_g3_i1.p1JF2A_TRINITY_DN40403_c1_g3 -            136 185081at3193         -            127   3.6e-13   51.3   2.6   1   1   1.1e-16   1.1e-12   49.8   2.6     2    54    70   136    69   136 0.86 -
JF3J_TRINITY_DN61509_c0_g1_i3.p1JF3J_TRINITY_DN61509_c0_g1 -            120 185081at3193         -            127   1.4e-12   49.5   0.8   1   1   5.4e-16   5.4e-12   47.5   0.8     3    72    13    94    11   105 0.80 -
JF3A_TRINITY_DN52316_c0_g1_i3.p1JF3A_TRINITY_DN52316_c0_g1 -            100 185081at3193         -            127   8.4e-09   37.2   5.2   1   2   3.9e-05      0.39   12.4   0.5    51    74     1    24     1    26 0.91 -
JF3A_TRINITY_DN52316_c0_g1_i3.p1JF3A_TRINITY_DN52316_c0_g1 -            100 185081at3193         -            127   8.4e-09   37.2   5.2   2   2   2.5e-09   2.5e-05   26.0   0.7     7    57    26    87    22    94 0.77 -
JF1A_TRINITY_DN62562_c1_g4_i3.p1JF1A_TRINITY_DN62562_c1_g4 -            100 185081at3193         -            127      0.64   11.7   0.1   1   2   0.00014       1.4   10.7   0.0    62    89     4    31     1    35 0.81 -
JF1A_TRINITY_DN62562_c1_g4_i3.p1JF1A_TRINITY_DN62562_c1_g4 -            100 185081at3193         -            127      0.64   11.7   0.1   2   2         1     1e+04   -1.9   0.0    26    44    55    73    37    82 0.62 -
#
# Program:         hmmsearch
# Version:         3.2.1 (June 2018)
# Pipeline mode:   SEARCH
# Query file:      /isg/shared/databases/BUSCO/odb10/embryophyta_odb10/hmms/185081at3193.hmm
# Target file:     Juniper_final_annotations_no_contam_lvl0.faa
# Option settings: /usr/local/bin/hmmsearch --domtblout /labs/Wegrzyn/Juniper_Pine/BUSCO/NEW/busco_juniper/run_embryophyta_odb10/hmmer_output/185081at3193.out --cpu 1 /isg/shared/databases/BUSCO/odb10/embryophyta_odb10/hmms/185081at3193.hmm Juniper_final_annotations_no_contam_lvl0.faa 
# Current dir:     /labs/Wegrzyn/Juniper_Pine/BUSCO/NEW
# Date:            Thu Aug  6 16:13:12 2020
# [ok]
