#                                                                                                                    --- full sequence --- -------------- this domain -------------   hmm coord   ali coord   env coord
# target name                                                accession   tlen query name           accession   qlen   E-value  score  bias   #  of  c-Evalue  i-Evalue  score  bias  from    to  from    to  from    to  acc description of target
#                                        ------------------- ---------- ----- -------------------- ---------- ----- --------- ------ ----- --- --- --------- --------- ------ ----- ----- ----- ----- ----- ----- ----- ---- ---------------------
JF1A_TRINITY_DN62838_c0_g7_i2.p1JF1A_TRINITY_DN62838_c0_g7   -            481 18614at3193          -           1541  4.8e-248  828.2  11.0   1   1  1.1e-250  6.5e-248  827.8  11.0   432   879     1   466     1   473 0.95 -
JF1A_TRINITY_DN66573_c0_g2_i14.p1JF1A_TRINITY_DN66573_c0_g2  -            533 18614at3193          -           1541    1e-143  482.4   2.4   1   2   8.8e-86   4.9e-83  281.3   0.4   346   623     9   289     7   294 0.95 -
JF1A_TRINITY_DN66573_c0_g2_i14.p1JF1A_TRINITY_DN66573_c0_g2  -            533 18614at3193          -           1541    1e-143  482.4   2.4   2   2   1.3e-61   7.6e-59  201.1   0.1   854  1010   303   460   291   466 0.96 -
JF1A_TRINITY_DN68113_c2_g2_i13.p1JF1A_TRINITY_DN68113_c2_g2  -           1091 18614at3193          -           1541    9e-137  459.4  45.7   1   2   9.5e-86   5.3e-83  281.2  21.7   312   623   191   489    20   492 0.75 -
JF1A_TRINITY_DN68113_c2_g2_i13.p1JF1A_TRINITY_DN68113_c2_g2  -           1091 18614at3193          -           1541    9e-137  459.4  45.7   2   2   2.3e-55   1.3e-52  180.5  15.1   853  1074   505   726   500   947 0.76 -
JF1A_TRINITY_DN68223_c1_g3_i3.p1JF1A_TRINITY_DN68223_c1_g3   -           1448 18614at3193          -           1541  2.1e-112  378.7   7.3   1   2     1e-82   5.6e-80  271.1   5.2   287   620   626   984   520   988 0.77 -
JF1A_TRINITY_DN68223_c1_g3_i3.p1JF1A_TRINITY_DN68223_c1_g3   -           1448 18614at3193          -           1541  2.1e-112  378.7   7.3   2   2   2.8e-36   1.6e-33  117.2   0.0   853   976  1000  1124   988  1137 0.93 -
JF1J_TRINITY_DN70018_c0_g2_i9.p1JF1J_TRINITY_DN70018_c0_g2   -            494 18614at3193          -           1541  9.7e-107  359.8  18.7   1   2    0.0005      0.28   10.3   7.4   104   186    33   115     2   158 0.80 -
JF1J_TRINITY_DN70018_c0_g2_i9.p1JF1J_TRINITY_DN70018_c0_g2   -            494 18614at3193          -           1541  9.7e-107  359.8  18.7   2   2  3.5e-108  1.9e-105  355.5   3.5   323   619   182   489   174   493 0.93 -
JF1A_TRINITY_DN65776_c10_g2_i2.p1JF1A_TRINITY_DN65776_c10_g2 -            436 18614at3193          -           1541   3.1e-93  315.1   5.9   1   2     2e-34   1.1e-31  111.0   1.9   444   621     4   189     2   206 0.80 -
JF1A_TRINITY_DN65776_c10_g2_i2.p1JF1A_TRINITY_DN65776_c10_g2 -            436 18614at3193          -           1541   3.1e-93  315.1   5.9   2   2   4.8e-63   2.7e-60  205.9   0.1   855  1008   257   410   250   416 0.97 -
JF1A_TRINITY_DN62838_c0_g6_i1.p1JF1A_TRINITY_DN62838_c0_g6   -            367 18614at3193          -           1541   1.3e-88  299.7  23.6   1   2   5.8e-76   3.3e-73  248.7   4.0    14   149     2   137     1   149 0.98 -
JF1A_TRINITY_DN62838_c0_g6_i1.p1JF1A_TRINITY_DN62838_c0_g6   -            367 18614at3193          -           1541   1.3e-88  299.7  23.6   2   2     4e-18   2.2e-15   57.0  11.7   149   226   210   287   206   338 0.83 -
JF1A_TRINITY_DN62838_c0_g9_i1.p1JF1A_TRINITY_DN62838_c0_g9   -            289 18614at3193          -           1541   3.1e-87  295.2  17.2   1   2     7e-14     4e-11   43.0  12.8   210   301    10   107     2   120 0.77 -
JF1A_TRINITY_DN62838_c0_g9_i1.p1JF1A_TRINITY_DN62838_c0_g9   -            289 18614at3193          -           1541   3.1e-87  295.2  17.2   2   2   5.9e-78   3.3e-75  255.3   2.4   219   399   101   283    94   288 0.79 -
JF1A_TRINITY_DN62457_c1_g6_i3.p1JF1A_TRINITY_DN62457_c1_g6   -            594 18614at3193          -           1541   5.7e-83  281.1   0.2   1   2   9.1e-32   5.1e-29  102.3   0.0   443   623     1   173     1   180 0.88 -
JF1A_TRINITY_DN62457_c1_g6_i3.p1JF1A_TRINITY_DN62457_c1_g6   -            594 18614at3193          -           1541   5.7e-83  281.1   0.2   2   2   3.2e-54   1.8e-51  176.6   0.3   854  1010   192   350   185   389 0.90 -
JF1A_TRINITY_DN64588_c0_g2_i4.p1JF1A_TRINITY_DN64588_c0_g2   -            309 18614at3193          -           1541   1.8e-74  252.9   0.7   1   1   3.9e-77   2.2e-74  252.6   0.7   331   576    53   308    45   309 0.92 -
JF3J_TRINITY_DN67173_c0_g1_i9.p1JF3J_TRINITY_DN67173_c0_g1   -            374 18614at3193          -           1541   1.2e-64  220.3   6.6   1   2   5.5e-59   3.1e-56  192.5   2.6   370   586    26   249    23   257 0.90 -
JF3J_TRINITY_DN67173_c0_g1_i9.p1JF3J_TRINITY_DN67173_c0_g1   -            374 18614at3193          -           1541   1.2e-64  220.3   6.6   2   2   6.6e-10   3.7e-07   29.8   0.1   539   586   290   336   273   344 0.88 -
JF3J_TRINITY_DN64967_c0_g1_i3.p1JF3J_TRINITY_DN64967_c0_g1   -            378 18614at3193          -           1541   1.6e-60  206.7  16.8   1   1   7.3e-63   4.1e-60  205.3  16.8   852  1078    46   274    39   367 0.79 -
JF1A_TRINITY_DN52431_c0_g1_i1.p1JF1A_TRINITY_DN52431_c0_g1   -            155 18614at3193          -           1541     2e-56  193.1  10.6   1   1     4e-59   2.3e-56  192.9  10.6  1109  1247     1   139     1   152 0.94 -
JF1A_TRINITY_DN66612_c1_g3_i7.p1JF1A_TRINITY_DN66612_c1_g3   -            337 18614at3193          -           1541   1.7e-54  186.7   2.5   1   2   4.8e-36   2.7e-33  116.4   0.2   396   624     4   239     1   245 0.90 -
JF1A_TRINITY_DN66612_c1_g3_i7.p1JF1A_TRINITY_DN66612_c1_g3   -            337 18614at3193          -           1541   1.7e-54  186.7   2.5   2   2   2.9e-22   1.7e-19   70.7   0.1   853   927   256   331   249   337 0.89 -
JF1A_TRINITY_DN68210_c0_g1_i1.p1JF1A_TRINITY_DN68210_c0_g1   -            251 18614at3193          -           1541   2.6e-54  186.1   0.5   1   1   7.4e-57   4.2e-54  185.4   0.3   844  1044    19   220    12   231 0.91 -
JF3J_TRINITY_DN67636_c2_g1_i3.p1JF3J_TRINITY_DN67636_c2_g1   -            194 18614at3193          -           1541   1.8e-53  183.3   3.2   1   1   4.1e-56   2.3e-53  182.9   3.2   431   579    36   184    29   189 0.96 -
JF1J_TRINITY_DN73047_c0_g3_i1.p1JF1J_TRINITY_DN73047_c0_g3   -            101 18614at3193          -           1541   5.5e-51  175.1   0.1   1   1   1.2e-53   6.6e-51  174.8   0.1   287   373     8    94     2    97 0.95 -
JF1A_TRINITY_DN64588_c0_g3_i7.p1JF1A_TRINITY_DN64588_c0_g3   -            285 18614at3193          -           1541   1.6e-49  170.2   0.2   1   2      0.11        61    2.6   0.0   605   620    30    45    16    50 0.84 -
JF1A_TRINITY_DN64588_c0_g3_i7.p1JF1A_TRINITY_DN64588_c0_g3   -            285 18614at3193          -           1541   1.6e-49  170.2   0.2   2   2   6.2e-51   3.5e-48  165.8   0.0   854  1010    69   226    64   257 0.93 -
JF1J_TRINITY_DN71487_c3_g6_i1.p1JF1J_TRINITY_DN71487_c3_g6   -            220 18614at3193          -           1541   2.7e-49  169.4   0.5   1   1   5.2e-52   2.9e-49  169.3   0.5   864  1027     2   166     1   209 0.85 -
JF1J_TRINITY_DN70018_c0_g2_i8.p1JF1J_TRINITY_DN70018_c0_g2   -            215 18614at3193          -           1541   8.9e-49  167.7   5.6   1   2      0.03        17    4.4   0.0   557   584    21    48    18    50 0.92 -
JF1J_TRINITY_DN70018_c0_g2_i8.p1JF1J_TRINITY_DN70018_c0_g2   -            215 18614at3193          -           1541   8.9e-49  167.7   5.6   2   2   2.2e-50   1.2e-47  164.0   3.3   465   619    50   210    48   214 0.90 -
JF1A_TRINITY_DN53099_c0_g2_i1.p1JF1A_TRINITY_DN53099_c0_g2   -            213 18614at3193          -           1541   7.1e-48  164.7   0.6   1   1   1.5e-50   8.3e-48  164.5   0.6   405   588     2   193     1   204 0.90 -
JF1A_TRINITY_DN62838_c0_g1_i1.p1JF1A_TRINITY_DN62838_c0_g1   -            137 18614at3193          -           1541   1.5e-45  157.0  10.5   1   1   2.9e-48   1.6e-45  156.9  10.5   987  1112     1   135     1   137 0.84 -
JF1A_TRINITY_DN63261_c1_g2_i1.p1JF1A_TRINITY_DN63261_c1_g2   -            278 18614at3193          -           1541   2.3e-45  156.4   6.8   1   2     1e-45   5.8e-43  148.5   1.2   424   627    15   209     3   215 0.92 -
JF1A_TRINITY_DN63261_c1_g2_i1.p1JF1A_TRINITY_DN63261_c1_g2   -            278 18614at3193          -           1541   2.3e-45  156.4   6.8   2   2   0.00026      0.15   11.3   0.4   854   886   223   255   215   267 0.82 -
JF1A_TRINITY_DN67243_c0_g3_i1.p1JF1A_TRINITY_DN67243_c0_g3   -            876 18614at3193          -           1541   3.6e-45  155.8   1.0   1   4   6.1e-06    0.0034   16.7   0.1   327   371   111   158   106   161 0.83 -
JF1A_TRINITY_DN67243_c0_g3_i1.p1JF1A_TRINITY_DN67243_c0_g3   -            876 18614at3193          -           1541   3.6e-45  155.8   1.0   2   4      0.17        96    1.9   0.0   384   445   224   283   216   286 0.78 -
JF1A_TRINITY_DN67243_c0_g3_i1.p1JF1A_TRINITY_DN67243_c0_g3   -            876 18614at3193          -           1541   3.6e-45  155.8   1.0   3   4     8e-13   4.5e-10   39.5   0.0   454   621   348   519   342   525 0.83 -
JF1A_TRINITY_DN67243_c0_g3_i1.p1JF1A_TRINITY_DN67243_c0_g3   -            876 18614at3193          -           1541   3.6e-45  155.8   1.0   4   4   6.7e-29   3.8e-26   92.8   0.0   865   998   714   847   707   851 0.95 -
JF3A_TRINITY_DN59164_c0_g1_i17.p1JF3A_TRINITY_DN59164_c0_g1  -            221 18614at3193          -           1541   3.7e-45  155.7   0.1   1   1   7.5e-48   4.3e-45  155.6   0.1   866  1010     1   146     1   163 0.95 -
JF1A_TRINITY_DN61789_c0_g1_i3.p1JF1A_TRINITY_DN61789_c0_g1   -            778 18614at3193          -           1541   3.1e-43  149.4   0.0   1   1   8.8e-46     5e-43  148.7   0.0   323   590   362   643   354   655 0.85 -
JF1J_TRINITY_DN65759_c2_g3_i2.p1JF1J_TRINITY_DN65759_c2_g3   -            116 18614at3193          -           1541   2.6e-42  146.3   5.5   1   1   6.7e-45   3.8e-42  145.8   5.5  1133  1223     4    94     2   109 0.94 -
JF3J_TRINITY_DN73960_c1_g1_i9.p1JF3J_TRINITY_DN73960_c1_g1   -            188 18614at3193          -           1541   2.2e-40  139.9   0.0   1   1   4.4e-43   2.5e-40  139.8   0.0   879  1010     7   139     3   173 0.91 -
JF3J_TRINITY_DN64967_c0_g1_i5.p1JF3J_TRINITY_DN64967_c0_g1   -            137 18614at3193          -           1541   4.2e-40  139.0   8.0   1   2     9e-05     0.051   12.8   0.7   882   905     1    24     1    27 0.95 -
JF3J_TRINITY_DN64967_c0_g1_i5.p1JF3J_TRINITY_DN64967_c0_g1   -            137 18614at3193          -           1541   4.2e-40  139.0   8.0   2   2     2e-40   1.1e-37  131.0   1.5   862   962    25   125    24   129 0.97 -
JF1J_TRINITY_DN69168_c0_g4_i2.p1JF1J_TRINITY_DN69168_c0_g4   -            123 18614at3193          -           1541   1.2e-39  137.5   0.2   1   1   2.3e-42   1.3e-39  137.4   0.2   864   972     4   114     1   119 0.93 -
JF1J_TRINITY_DN71814_c2_g2_i8.p1JF1J_TRINITY_DN71814_c2_g2   -            131 18614at3193          -           1541   1.7e-39  137.0   2.3   1   2   8.1e-38   4.6e-35  122.3   0.0   902  1002    12   113     7   114 0.95 -
JF1J_TRINITY_DN71814_c2_g2_i8.p1JF1J_TRINITY_DN71814_c2_g2   -            131 18614at3193          -           1541   1.7e-39  137.0   2.3   2   2   1.9e-05     0.011   15.0   0.8   950   967   114   131   113   131 0.97 -
JF1A_TRINITY_DN66573_c0_g2_i10.p1JF1A_TRINITY_DN66573_c0_g2  -            179 18614at3193          -           1541   1.1e-38  134.2   0.1   1   1   2.5e-41   1.4e-38  133.9   0.1   346   477     9   140     7   152 0.95 -
JF1J_TRINITY_DN62957_c0_g2_i5.p1JF1J_TRINITY_DN62957_c0_g2   -            214 18614at3193          -           1541   1.9e-38  133.5   0.2   1   1   3.9e-41   2.2e-38  133.3   0.2   324   463    52   199    17   204 0.91 -
JF1A_TRINITY_DN64946_c0_g1_i8.p1JF1A_TRINITY_DN64946_c0_g1   -            158 18614at3193          -           1541   4.2e-38  132.4   1.4   1   1   8.8e-41     5e-38  132.1   1.4   434   544    45   155    36   157 0.96 -
JF1J_TRINITY_DN65759_c2_g3_i1.p1JF1J_TRINITY_DN65759_c2_g3   -            111 18614at3193          -           1541   1.5e-34  120.6   6.0   1   1   2.9e-37   1.7e-34  120.4   6.0  1133  1216     4    87     2   109 0.90 -
JF3J_TRINITY_DN20400_c0_g1_i1.p1JF3J_TRINITY_DN20400_c0_g1   -            144 18614at3193          -           1541   9.6e-33  114.6   0.1   1   1   1.9e-35   1.1e-32  114.4   0.1   875   993     2   120     1   132 0.97 -
JF1J_TRINITY_DN62828_c4_g2_i1.p1JF1J_TRINITY_DN62828_c4_g2   -            118 18614at3193          -           1541   6.4e-32  111.9   5.9   1   1   1.2e-34     7e-32  111.7   5.9    19    90    27    98    11   108 0.92 -
JF3J_TRINITY_DN63647_c1_g3_i6.p1JF3J_TRINITY_DN63647_c1_g3   -            125 18614at3193          -           1541   1.7e-31  110.5  13.3   1   1   3.6e-34   2.1e-31  110.2  13.3  1166  1262    13   117     9   124 0.84 -
JF3A_TRINITY_DN59053_c0_g3_i1.p1JF3A_TRINITY_DN59053_c0_g3   -            121 18614at3193          -           1541   3.2e-31  109.5   0.2   1   1   7.1e-34     4e-31  109.2   0.2   928  1008    19    99    14   105 0.94 -
JF1A_TRINITY_DN66612_c1_g3_i1.p1JF1A_TRINITY_DN66612_c1_g3   -            161 18614at3193          -           1541   6.3e-31  108.6   0.3   1   1   1.3e-33   7.1e-31  108.4   0.3   907  1049     9   150     1   158 0.91 -
JF1A_TRINITY_DN68506_c2_g1_i11.p1JF1A_TRINITY_DN68506_c2_g1  -            433 18614at3193          -           1541   1.7e-30  107.2   0.1   1   1   3.9e-33   2.2e-30  106.8   0.1   883  1027   225   372   219   396 0.86 -
JF1A_TRINITY_DN68712_c1_g1_i1.p1JF1A_TRINITY_DN68712_c1_g1   -            161 18614at3193          -           1541     1e-29  104.6   0.1   1   1     2e-32   1.1e-29  104.4   0.1   865   997     4   137     1   148 0.91 -
JF1A_TRINITY_DN62311_c1_g2_i3.p1JF1A_TRINITY_DN62311_c1_g2   -            147 18614at3193          -           1541   4.2e-29  102.5   0.1   1   1   8.4e-32   4.8e-29  102.4   0.1   349   471     6   135     1   142 0.88 -
JF1J_TRINITY_DN62957_c0_g2_i1.p1JF1J_TRINITY_DN62957_c0_g2   -            320 18614at3193          -           1541   1.6e-28  100.6   2.7   1   1   5.4e-31     3e-28   99.7   2.7   259   419   108   281    25   287 0.67 -
JF2A_TRINITY_DN26284_c0_g1_i1.p1JF2A_TRINITY_DN26284_c0_g1   -            274 18614at3193          -           1541     2e-28  100.3   0.0   1   1   4.6e-31   2.6e-28   99.9   0.0   864   997   113   246   101   256 0.93 -
JF1J_TRINITY_DN46529_c0_g1_i2.p1JF1J_TRINITY_DN46529_c0_g1   -            123 18614at3193          -           1541   3.1e-26   93.0   0.1   1   1   6.9e-29   3.9e-26   92.7   0.1   891   991    15   115     9   118 0.97 -
JF1J_TRINITY_DN71814_c2_g2_i10.p1JF1J_TRINITY_DN71814_c2_g2  -            145 18614at3193          -           1541   5.7e-26   92.2   1.1   1   1   1.2e-28   6.8e-26   91.9   1.1   942  1054    14   124    12   133 0.87 -
JF2A_TRINITY_DN28010_c0_g1_i1.p1JF2A_TRINITY_DN28010_c0_g1   -            206 18614at3193          -           1541   5.7e-26   92.1   0.0   1   1     1e-28   5.9e-26   92.1   0.0   924  1005     1    82     1   133 0.94 -
JF1A_TRINITY_DN61835_c1_g1_i1.p1JF1A_TRINITY_DN61835_c1_g1   -            143 18614at3193          -           1541   7.8e-26   91.7   0.0   1   1   1.5e-28   8.5e-26   91.6   0.0   885   999     1   117     1   132 0.90 -
JF3A_TRINITY_DN58448_c2_g4_i2.p1JF3A_TRINITY_DN58448_c2_g4   -            108 18614at3193          -           1541   1.3e-24   87.7   0.1   1   1   2.6e-27   1.5e-24   87.5   0.1   346   419     1    74     1    80 0.96 -
JF1A_TRINITY_DN62881_c4_g3_i1.p1JF1A_TRINITY_DN62881_c4_g3   -            224 18614at3193          -           1541   1.5e-24   87.5   0.0   1   1   3.2e-27   1.8e-24   87.2   0.0   869   992    37   160    25   176 0.93 -
JF1A_TRINITY_DN45503_c0_g1_i2.p1JF1A_TRINITY_DN45503_c0_g1   -            221 18614at3193          -           1541   2.5e-24   86.7   0.0   1   1   5.2e-27   2.9e-24   86.5   0.0   895  1006    34   147    31   190 0.90 -
JF2A_TRINITY_DN42796_c2_g3_i3.p1JF2A_TRINITY_DN42796_c2_g3   -            107 18614at3193          -           1541   1.6e-23   84.1   0.2   1   1   2.8e-26   1.6e-23   84.1   0.2   103   149     1    47     1   101 0.87 -
JF1J_TRINITY_DN55665_c0_g1_i2.p1JF1J_TRINITY_DN55665_c0_g1   -            150 18614at3193          -           1541   1.1e-22   81.3   1.1   1   1   2.3e-25   1.3e-22   81.0   1.1   451   532    15    96     3   108 0.89 -
JF1A_TRINITY_DN62193_c0_g4_i1.p1JF1A_TRINITY_DN62193_c0_g4   -            451 18614at3193          -           1541   5.3e-22   79.0   4.2   1   3      0.44   2.5e+02    0.5   0.1   433   508    53   126    25   128 0.79 -
JF1A_TRINITY_DN62193_c0_g4_i1.p1JF1A_TRINITY_DN62193_c0_g4   -            451 18614at3193          -           1541   5.3e-22   79.0   4.2   2   3       1.5   8.5e+02   -1.2   0.0   606   623   214   231   203   239 0.89 -
JF1A_TRINITY_DN62193_c0_g4_i1.p1JF1A_TRINITY_DN62193_c0_g4   -            451 18614at3193          -           1541   5.3e-22   79.0   4.2   3   3   1.1e-24   6.2e-22   78.8   0.3   855  1031   255   440   245   451 0.86 -
JF2A_TRINITY_DN33126_c0_g1_i1.p1JF2A_TRINITY_DN33126_c0_g1   -            136 18614at3193          -           1541   6.3e-22   78.8   0.2   1   2   9.6e-05     0.054   12.7   0.0   603   627     8    33     3    40 0.83 -
JF2A_TRINITY_DN33126_c0_g1_i1.p1JF2A_TRINITY_DN33126_c0_g1   -            136 18614at3193          -           1541   6.3e-22   78.8   0.2   2   2   2.2e-20   1.2e-17   64.5   0.1   854   932    47   126    37   129 0.93 -
JF1J_TRINITY_DN71487_c3_g8_i2.p1JF1J_TRINITY_DN71487_c3_g8   -            156 18614at3193          -           1541     1e-21   78.0   0.5   1   1   2.2e-24   1.2e-21   77.8   0.5   485   627     7   140     4   154 0.90 -
JF1A_TRINITY_DN62193_c0_g4_i4.p1JF1A_TRINITY_DN62193_c0_g4   -            348 18614at3193          -           1541   1.1e-21   77.9   0.4   1   2     6e-06    0.0034   16.7   0.1   396   508     8   122     2   124 0.81 -
JF1A_TRINITY_DN62193_c0_g4_i4.p1JF1A_TRINITY_DN62193_c0_g4   -            348 18614at3193          -           1541   1.1e-21   77.9   0.4   2   2   6.7e-19   3.8e-16   59.6   0.0   882  1000   226   347   217   348 0.92 -
JF3A_TRINITY_DN15611_c0_g1_i1.p1JF3A_TRINITY_DN15611_c0_g1   -            102 18614at3193          -           1541   1.6e-21   77.4   0.5   1   1   3.3e-24   1.9e-21   77.2   0.5   431   507    13    89     9    98 0.94 -
JF2A_TRINITY_DN40217_c0_g3_i3.p1JF2A_TRINITY_DN40217_c0_g3   -            302 18614at3193          -           1541   7.6e-21   75.2   1.1   1   1   1.8e-23     1e-20   74.8   1.1   534   623    21   115    13   131 0.85 -
JF2A_TRINITY_DN40645_c0_g1_i2.p1JF2A_TRINITY_DN40645_c0_g1   -            405 18614at3193          -           1541   7.9e-21   75.1   0.0   1   1   2.2e-23   1.2e-20   74.5   0.0   326   424   297   394   288   400 0.94 -
JF1A_TRINITY_DN53099_c0_g1_i1.p1JF1A_TRINITY_DN53099_c0_g1   -            100 18614at3193          -           1541   3.3e-20   73.0   0.3   1   1   6.3e-23   3.6e-20   73.0   0.3   324   403    18    96     4   100 0.92 -
JF1A_TRINITY_DN60367_c3_g6_i1.p1JF1A_TRINITY_DN60367_c3_g6   -            239 18614at3193          -           1541   4.2e-20   72.7   0.0   1   1   8.7e-23   4.9e-20   72.5   0.0   898  1005    88   195    55   209 0.92 -
JF1A_TRINITY_DN62939_c2_g6_i1.p1JF1A_TRINITY_DN62939_c2_g6   -            681 18614at3193          -           1541   1.6e-19   70.8   0.5   1   2    0.0012      0.67    9.1   0.1   353   372   152   171   147   174 0.92 -
JF1A_TRINITY_DN62939_c2_g6_i1.p1JF1A_TRINITY_DN62939_c2_g6   -            681 18614at3193          -           1541   1.6e-19   70.8   0.5   2   2   5.6e-19   3.2e-16   59.9   0.0   384   623   304   548   298   573 0.80 -
JF1A_TRINITY_DN60807_c4_g3_i1.p1JF1A_TRINITY_DN60807_c4_g3   -            165 18614at3193          -           1541   4.8e-19   69.2   0.0   1   1     1e-21   5.9e-19   68.9   0.0   890  1005    19   135     9   143 0.88 -
JF1A_TRINITY_DN34607_c0_g1_i2.p1JF1A_TRINITY_DN34607_c0_g1   -            155 18614at3193          -           1541   3.6e-17   63.0   7.9   1   2   1.8e-19     1e-16   61.5   6.8   948  1019     1    71     1   124 0.65 -
JF1A_TRINITY_DN34607_c0_g1_i2.p1JF1A_TRINITY_DN34607_c0_g1   -            155 18614at3193          -           1541   3.6e-17   63.0   7.9   2   2       0.5   2.8e+02    0.4   2.6   244   283    90   128    71   142 0.76 -
JF1A_TRINITY_DN43938_c0_g2_i1.p1JF1A_TRINITY_DN43938_c0_g2   -            109 18614at3193          -           1541   4.7e-17   62.6   0.0   1   1   9.9e-20   5.6e-17   62.4   0.0   424   505    22   104    12   107 0.91 -
JF1A_TRINITY_DN29333_c0_g1_i2.p1JF1A_TRINITY_DN29333_c0_g1   -            162 18614at3193          -           1541   1.1e-15   58.1   0.3   1   1   2.2e-18   1.2e-15   57.9   0.3   453   583    25   161    10   162 0.89 -
JF1A_TRINITY_DN66740_c1_g4_i1.p1JF1A_TRINITY_DN66740_c1_g4   -            127 18614at3193          -           1541   1.3e-14   54.5   0.0   1   1   2.6e-17   1.5e-14   54.3   0.0   284   399    11   125     2   127 0.89 -
JF1A_TRINITY_DN58344_c0_g1_i2.p1JF1A_TRINITY_DN58344_c0_g1   -            243 18614at3193          -           1541   1.3e-14   54.5   0.0   1   1     3e-17   1.7e-14   54.1   0.0   873   986    91   204    87   216 0.95 -
JF1J_TRINITY_DN69168_c0_g4_i3.p1JF1J_TRINITY_DN69168_c0_g4   -            169 18614at3193          -           1541     3e-14   53.3   0.6   1   2   1.2e-12     7e-10   38.8   0.1   880   932     1    55     1    60 0.92 -
JF1J_TRINITY_DN69168_c0_g4_i3.p1JF1J_TRINITY_DN69168_c0_g4   -            169 18614at3193          -           1541     3e-14   53.3   0.6   2   2     4e-05     0.022   14.0   0.1   973  1011    59    97    55   136 0.75 -
JF1A_TRINITY_DN65065_c2_g1_i14.p1JF1A_TRINITY_DN65065_c2_g1  -            498 18614at3193          -           1541   1.1e-13   51.5   3.1   1   1   2.6e-16   1.5e-13   51.0   3.1    24   125    16   117     2   170 0.83 -
JF1A_TRINITY_DN45503_c0_g1_i1.p1JF1A_TRINITY_DN45503_c0_g1   -            147 18614at3193          -           1541   3.7e-13   49.7   0.0   1   1   8.5e-16   4.8e-13   49.3   0.0   895   966    34   107    31   114 0.93 -
JF2A_TRINITY_DN26112_c0_g1_i2.p1JF2A_TRINITY_DN26112_c0_g1   -            211 18614at3193          -           1541   1.2e-12   48.0   0.1   1   1   2.4e-15   1.3e-12   47.9   0.1   944  1011    38   105    28   173 0.83 -
JF2A_TRINITY_DN28501_c0_g1_i1.p1JF2A_TRINITY_DN28501_c0_g1   -            103 18614at3193          -           1541   3.2e-12   46.6   0.0   1   1   6.3e-15   3.6e-12   46.4   0.0   363   440    12    93     9   100 0.76 -
JF1A_TRINITY_DN63233_c0_g6_i2.p1JF1A_TRINITY_DN63233_c0_g6   -            138 18614at3193          -           1541   4.5e-12   46.1   0.0   1   1   9.3e-15   5.2e-12   45.9   0.0   301   397    41   136    14   137 0.82 -
JF1J_TRINITY_DN55302_c0_g1_i2.p1JF1J_TRINITY_DN55302_c0_g1   -            142 18614at3193          -           1541   4.3e-11   42.9   0.0   1   1   9.5e-14   5.4e-11   42.5   0.0   457   526    50   119    47   131 0.95 -
JF1A_TRINITY_DN9386_c0_g1_i1.p1JF1A_TRINITY_DN9386_c0_g1     -            114 18614at3193          -           1541     2e-10   40.7   0.0   1   1   3.8e-13   2.2e-10   40.5   0.0   455   526    12    84     5    98 0.90 -
JF3J_TRINITY_DN69789_c5_g1_i2.p1JF3J_TRINITY_DN69789_c5_g1   -            109 18614at3193          -           1541     4e-09   36.3   0.1   1   1   8.3e-12   4.7e-09   36.1   0.1   379   449     5    82     2    86 0.84 -
JF1A_TRINITY_DN63190_c1_g3_i1.p1JF1A_TRINITY_DN63190_c1_g3   -            292 18614at3193          -           1541   9.8e-08   31.7   0.0   1   1   2.5e-10   1.4e-07   31.2   0.0   457   496   248   287   245   289 0.96 -
JF3J_TRINITY_DN68988_c5_g1_i3.p1JF3J_TRINITY_DN68988_c5_g1   -            248 18614at3193          -           1541     1e-07   31.6   0.3   1   2   4.3e-10   2.4e-07   30.4   0.0   454   526   106   178    99   204 0.84 -
JF3J_TRINITY_DN68988_c5_g1_i3.p1JF3J_TRINITY_DN68988_c5_g1   -            248 18614at3193          -           1541     1e-07   31.6   0.3   2   2       5.6   3.1e+03   -3.1   0.0   455   471   216   232   215   236 0.87 -
JF1A_TRINITY_DN70234_c0_g1_i1.p1JF1A_TRINITY_DN70234_c0_g1   -            108 18614at3193          -           1541   1.1e-07   31.6   0.0   1   1   1.9e-10   1.1e-07   31.6   0.0   949  1014     1    65     1    87 0.90 -
JF2A_TRINITY_DN46482_c0_g1_i1.p1JF2A_TRINITY_DN46482_c0_g1   -            102 18614at3193          -           1541   1.2e-07   31.4   0.0   1   1   2.3e-10   1.3e-07   31.3   0.0   488   559     2    78     1    90 0.89 -
JF1A_TRINITY_DN23380_c0_g1_i1.p1JF1A_TRINITY_DN23380_c0_g1   -            115 18614at3193          -           1541   1.7e-07   30.9   0.1   1   1   3.8e-10   2.2e-07   30.6   0.1   452   503    61   112    38   113 0.84 -
JF1J_TRINITY_DN62143_c0_g5_i3.p1JF1J_TRINITY_DN62143_c0_g5   -            114 18614at3193          -           1541   2.4e-07   30.4   0.1   1   1   5.4e-10     3e-07   30.1   0.1   348   405    10    68     6    73 0.88 -
JF1A_TRINITY_DN65065_c2_g3_i4.p1JF1A_TRINITY_DN65065_c2_g3   -            264 18614at3193          -           1541   2.5e-07   30.4   0.0   1   1   5.1e-10   2.9e-07   30.2   0.0  1324  1451    28   159     3   182 0.75 -
JF1A_TRINITY_DN60367_c3_g5_i3.p1JF1A_TRINITY_DN60367_c3_g5   -            223 18614at3193          -           1541   2.5e-07   30.3   1.0   1   2   2.2e-09   1.3e-06   28.0   0.1   457   533    44   118    42   159 0.84 -
JF1A_TRINITY_DN60367_c3_g5_i3.p1JF1A_TRINITY_DN60367_c3_g5   -            223 18614at3193          -           1541   2.5e-07   30.3   1.0   2   2      0.32   1.8e+02    1.0   0.1   108   127   182   201   176   208 0.90 -
JF1A_TRINITY_DN72653_c0_g1_i1.p1JF1A_TRINITY_DN72653_c0_g1   -            138 18614at3193          -           1541   3.9e-07   29.7   0.1   1   1   8.7e-10   4.9e-07   29.4   0.1   348   405    45   103    40   106 0.88 -
JF1A_TRINITY_DN60367_c3_g5_i4.p1JF1A_TRINITY_DN60367_c3_g5   -            186 18614at3193          -           1541   6.3e-07   29.0   2.2   1   2   4.7e-09   2.6e-06   27.0   1.4   457   526    44   112    42   163 0.80 -
JF1A_TRINITY_DN60367_c3_g5_i4.p1JF1A_TRINITY_DN60367_c3_g5   -            186 18614at3193          -           1541   6.3e-07   29.0   2.2   2   2      0.27   1.5e+02    1.3   0.2   108   127   145   164   138   170 0.90 -
JF1A_TRINITY_DN66891_c1_g4_i1.p1JF1A_TRINITY_DN66891_c1_g4   -            145 18614at3193          -           1541   8.3e-07   28.6   0.0   1   1   2.7e-09   1.5e-06   27.8   0.0   357   487     1   144     1   145 0.79 -
JF2A_TRINITY_DN30147_c0_g1_i1.p1JF2A_TRINITY_DN30147_c0_g1   -            155 18614at3193          -           1541   1.7e-06   27.6   0.1   1   2      0.08        45    3.0   0.1   606   622    27    43    18    52 0.85 -
JF2A_TRINITY_DN30147_c0_g1_i1.p1JF2A_TRINITY_DN30147_c0_g1   -            155 18614at3193          -           1541   1.7e-06   27.6   0.1   2   2   7.7e-08   4.4e-05   22.9   0.0   854   931    67   153    50   155 0.79 -
JF2A_TRINITY_DN20285_c0_g1_i1.p1JF2A_TRINITY_DN20285_c0_g1   -            229 18614at3193          -           1541   1.9e-06   27.5   0.1   1   1   4.7e-09   2.7e-06   27.0   0.1   457   509    22    74    20    81 0.93 -
JF1A_TRINITY_DN65999_c3_g3_i1.p1JF1A_TRINITY_DN65999_c3_g3   -            336 18614at3193          -           1541     2e-06   27.4   0.0   1   1   4.5e-09   2.5e-06   27.0   0.0   872   990   167   284   141   307 0.90 -
JF1A_TRINITY_DN72203_c0_g1_i1.p1JF1A_TRINITY_DN72203_c0_g1   -            112 18614at3193          -           1541   3.7e-06   26.5   0.0   1   1   7.4e-09   4.2e-06   26.3   0.0   349   437    19   110    11   111 0.85 -
JF3A_TRINITY_DN55199_c0_g3_i1.p1JF3A_TRINITY_DN55199_c0_g3   -            127 18614at3193          -           1541   5.7e-06   25.9   0.4   1   2     2e-08   1.1e-05   24.9   0.1   461   556     1    89     1   100 0.82 -
JF3A_TRINITY_DN55199_c0_g3_i1.p1JF3A_TRINITY_DN55199_c0_g3   -            127 18614at3193          -           1541   5.7e-06   25.9   0.4   2   2       1.5   8.6e+02   -1.2   0.0   544   561   107   124    96   125 0.83 -
JF1A_TRINITY_DN76881_c0_g1_i1.p1JF1A_TRINITY_DN76881_c0_g1   -            114 18614at3193          -           1541   8.5e-06   25.3   0.0   1   1   1.6e-08   9.1e-06   25.2   0.0   329   404    24   108    14   113 0.74 -
JF1J_TRINITY_DN71737_c2_g4_i4.p1JF1J_TRINITY_DN71737_c2_g4   -            125 18614at3193          -           1541   1.1e-05   24.9   0.0   1   2   3.1e-06    0.0017   17.6   0.0   461   506    17    62     8    73 0.93 -
JF1J_TRINITY_DN71737_c2_g4_i4.p1JF1J_TRINITY_DN71737_c2_g4   -            125 18614at3193          -           1541   1.1e-05   24.9   0.0   2   2     0.014       7.7    5.6   0.0   448   467   105   124   101   125 0.87 -
JF3J_TRINITY_DN73172_c1_g1_i1.p1JF3J_TRINITY_DN73172_c1_g1   -            154 18614at3193          -           1541   1.8e-05   24.2   0.0   1   1   3.4e-08   1.9e-05   24.1   0.0   294   371    74   152    51   154 0.79 -
JF1J_TRINITY_DN62960_c3_g2_i3.p1JF1J_TRINITY_DN62960_c3_g2   -            111 18614at3193          -           1541   3.2e-05   23.4   0.1   1   1   6.5e-08   3.7e-05   23.2   0.1   957  1005    34    82    29    96 0.90 -
JF3J_TRINITY_DN61785_c0_g1_i2.p1JF3J_TRINITY_DN61785_c0_g1   -            300 18614at3193          -           1541   3.7e-05   23.2   0.0   1   1   6.6e-08   3.7e-05   23.2   0.0   325   358   226   259   217   262 0.89 -
JF1J_TRINITY_DN56507_c0_g1_i1.p1JF1J_TRINITY_DN56507_c0_g1   -            114 18614at3193          -           1541   0.00014   21.2   0.0   1   1     3e-07   0.00017   21.0   0.0   436   522    23   111    19   113 0.86 -
JF1A_TRINITY_DN65065_c2_g3_i3.p1JF1A_TRINITY_DN65065_c2_g3   -            102 18614at3193          -           1541    0.0002   20.8   0.0   1   1   3.9e-07   0.00022   20.6   0.0  1347  1395    22    67    13    80 0.87 -
JF1A_TRINITY_DN60286_c0_g1_i1.p1JF1A_TRINITY_DN60286_c0_g1   -            424 18614at3193          -           1541   0.00049   19.5   0.4   1   1   1.2e-06   0.00068   19.0   0.4   352   380   311   339   306   345 0.83 -
JF1J_TRINITY_DN5753_c0_g1_i1.p1JF1J_TRINITY_DN5753_c0_g1     -            106 18614at3193          -           1541     0.001   18.4   0.2   1   1   1.9e-06    0.0011   18.3   0.2   963  1014     4    56     1   101 0.78 -
JF1A_TRINITY_DN60069_c1_g1_i1.p1JF1A_TRINITY_DN60069_c1_g1   -            251 18614at3193          -           1541    0.0012   18.1   0.1   1   2   0.00029      0.16   11.1   0.0   353   373    56    77    51    82 0.85 -
JF1A_TRINITY_DN60069_c1_g1_i1.p1JF1A_TRINITY_DN60069_c1_g1   -            251 18614at3193          -           1541    0.0012   18.1   0.1   2   2      0.02        11    5.0   0.0   367   402   203   238   195   249 0.87 -
JF1A_TRINITY_DN64672_c0_g1_i12.p1JF1A_TRINITY_DN64672_c0_g1  -            197 18614at3193          -           1541    0.0021   17.4   0.0   1   2   7.2e-06    0.0041   16.4   0.0   461   507    17    63     9    73 0.93 -
JF1A_TRINITY_DN64672_c0_g1_i12.p1JF1A_TRINITY_DN64672_c0_g1  -            197 18614at3193          -           1541    0.0021   17.4   0.0   2   2       5.1   2.9e+03   -3.0   0.0   544   593   131   182   106   189 0.71 -
JF2A_TRINITY_DN37060_c0_g1_i2.p1JF2A_TRINITY_DN37060_c0_g1   -            252 18614at3193          -           1541    0.0036   16.6   0.3   1   1   8.3e-06    0.0047   16.2   0.3   511   589    13    96     2   137 0.64 -
JF3J_TRINITY_DN65010_c2_g2_i1.p1JF3J_TRINITY_DN65010_c2_g2   -            126 18614at3193          -           1541    0.0059   15.9   0.0   1   1   1.3e-05    0.0075   15.5   0.0   352   371    27    46    11    49 0.80 -
JF2A_TRINITY_DN31164_c0_g1_i1.p1JF2A_TRINITY_DN31164_c0_g1   -            149 18614at3193          -           1541    0.0063   15.8  10.4   1   1   1.3e-05    0.0076   15.5  10.4   209   317    28   138    15   144 0.63 -
JF1J_TRINITY_DN67282_c3_g4_i1.p1JF1J_TRINITY_DN67282_c3_g4   -            110 18614at3193          -           1541      0.01   15.1   0.1   1   1   2.5e-05     0.014   14.6   0.1   353   371     6    24     3    28 0.92 -
JF1A_TRINITY_DN64672_c0_g1_i3.p1JF1A_TRINITY_DN64672_c0_g1   -            154 18614at3193          -           1541     0.012   14.9   3.7   1   2      0.96   5.4e+02   -0.6   4.1  1221  1274    21    73     4   101 0.56 -
JF1A_TRINITY_DN64672_c0_g1_i3.p1JF1A_TRINITY_DN64672_c0_g1   -            154 18614at3193          -           1541     0.012   14.9   3.7   2   2   5.8e-05     0.033   13.4   0.0   448   492   110   154   106   154 0.94 -
JF3J_TRINITY_DN73431_c1_g2_i10.p1JF3J_TRINITY_DN73431_c1_g2  -            104 18614at3193          -           1541     0.012   14.8   0.1   1   1   2.3e-05     0.013   14.8   0.1   968  1006     2    40     1    62 0.85 -
JF1A_TRINITY_DN64672_c0_g1_i10.p1JF1A_TRINITY_DN64672_c0_g1  -            199 18614at3193          -           1541      0.04   13.1   0.0   1   1   9.4e-05     0.053   12.7   0.0   449   492   156   199   152   199 0.94 -
JF3J_TRINITY_DN66256_c1_g3_i3.p1JF3J_TRINITY_DN66256_c1_g3   -            117 18614at3193          -           1541     0.041   13.1   0.0   1   1   7.3e-05     0.041   13.1   0.0   350   373    45    68    33   107 0.86 -
JF1J_TRINITY_DN48865_c0_g1_i1.p1JF1J_TRINITY_DN48865_c0_g1   -            156 18614at3193          -           1541     0.042   13.0   0.1   1   1   9.5e-05     0.053   12.7   0.1   454   517    67   130    60   141 0.90 -
JF1A_TRINITY_DN62575_c3_g1_i2.p1JF1A_TRINITY_DN62575_c3_g1   -            275 18614at3193          -           1541     0.067   12.4   0.1   1   1   0.00016     0.088   12.0   0.1   862   970   107   214    99   222 0.88 -
JF1A_TRINITY_DN56997_c0_g1_i1.p1JF1A_TRINITY_DN56997_c0_g1   -            262 18614at3193          -           1541       0.2   10.8   0.0   1   1   0.00073      0.41    9.8   0.0  1334  1369    21    57     5    70 0.81 -
JF1A_TRINITY_DN29373_c0_g1_i2.p1JF1A_TRINITY_DN29373_c0_g1   -            161 18614at3193          -           1541      0.26   10.4   1.8   1   2    0.0061       3.4    6.7   0.1  1335  1371    20    57     8    72 0.84 -
JF1A_TRINITY_DN29373_c0_g1_i2.p1JF1A_TRINITY_DN29373_c0_g1   -            161 18614at3193          -           1541      0.26   10.4   1.8   2   2     0.055        31    3.5   0.3  1311  1362    98   152    70   159 0.67 -
JF3A_TRINITY_DN44378_c0_g1_i1.p1JF3A_TRINITY_DN44378_c0_g1   -            132 18614at3193          -           1541      0.37    9.9   0.1   1   1   0.00083      0.47    9.6   0.1   358   382     7    31     3    36 0.80 -
JF1J_TRINITY_DN71911_c0_g1_i6.p1JF1J_TRINITY_DN71911_c0_g1   -            152 18614at3193          -           1541      0.66    9.1   0.2   1   1    0.0012       0.7    9.0   0.2   764   826    45   111    27   137 0.79 -
JF3J_TRINITY_DN59790_c0_g1_i1.p1JF3J_TRINITY_DN59790_c0_g1   -            109 18614at3193          -           1541      0.77    8.9   0.0   1   1    0.0014      0.78    8.9   0.0   486   513     3    30     1    59 0.78 -
JF2J_TRINITY_DN29265_c0_g1_i16.p1JF2J_TRINITY_DN29265_c0_g1  -            151 18614at3193          -           1541       1.5    7.9  16.6   1   1     0.003       1.7    7.7  16.6  1231  1357     7   130     1   142 0.83 -
JF1J_TRINITY_DN18875_c0_g1_i2.p1JF1J_TRINITY_DN18875_c0_g1   -            142 18614at3193          -           1541       1.9    7.5   2.9   1   1     0.004       2.3    7.3   2.9   219   311     7    96     2   108 0.70 -
#
# Program:         hmmsearch
# Version:         3.2.1 (June 2018)
# Pipeline mode:   SEARCH
# Query file:      /isg/shared/databases/BUSCO/odb10/embryophyta_odb10/hmms/18614at3193.hmm
# Target file:     Juniper_final_annotations_no_contam_lvl0.faa
# Option settings: /usr/local/bin/hmmsearch --domtblout /labs/Wegrzyn/Juniper_Pine/BUSCO/NEW/busco_juniper/run_embryophyta_odb10/hmmer_output/18614at3193.out --cpu 1 /isg/shared/databases/BUSCO/odb10/embryophyta_odb10/hmms/18614at3193.hmm Juniper_final_annotations_no_contam_lvl0.faa 
# Current dir:     /labs/Wegrzyn/Juniper_Pine/BUSCO/NEW
# Date:            Thu Aug  6 16:13:30 2020
# [ok]
