#                                                                                                                  --- full sequence --- -------------- this domain -------------   hmm coord   ali coord   env coord
# target name                                              accession   tlen query name           accession   qlen   E-value  score  bias   #  of  c-Evalue  i-Evalue  score  bias  from    to  from    to  from    to  acc description of target
#                                      ------------------- ---------- ----- -------------------- ---------- ----- --------- ------ ----- --- --- --------- --------- ------ ----- ----- ----- ----- ----- ----- ----- ---- ---------------------
JF2A_TRINITY_DN41722_c2_g3_i2.p1JF2A_TRINITY_DN41722_c2_g3 -            302 186996at3193         -            163   4.6e-44  151.9   0.1   1   2      0.86   9.9e+03   -2.0   0.2    34    48    92   106    68   127 0.41 -
JF2A_TRINITY_DN41722_c2_g3_i2.p1JF2A_TRINITY_DN41722_c2_g3 -            302 186996at3193         -            163   4.6e-44  151.9   0.1   2   2     4e-48   4.6e-44  151.9   0.1     7   163   136   301   132   301 0.84 -
JF1J_TRINITY_DN70816_c0_g4_i1.p1JF1J_TRINITY_DN70816_c0_g4 -            116 186996at3193         -            163     0.059   15.0   0.8   1   1   6.7e-06     0.077   14.6   0.8   131   162    12    43     2    44 0.86 -
JF1A_TRINITY_DN60882_c2_g2_i1.p1JF1A_TRINITY_DN60882_c2_g2 -            103 186996at3193         -            163      0.39   12.3   0.3   1   1     4e-05      0.47   12.0   0.3   132   162    35    65    23    66 0.87 -
JF3A_TRINITY_DN52463_c2_g2_i1.p1JF3A_TRINITY_DN52463_c2_g2 -            104 186996at3193         -            163      0.42   12.2   0.7   1   1   4.1e-05      0.48   12.0   0.7    17    95    14    91     2    98 0.69 -
JF3A_TRINITY_DN58283_c2_g1_i3.p1JF3A_TRINITY_DN58283_c2_g1 -            104 186996at3193         -            163      0.71   11.4   5.0   1   1     7e-05      0.81   11.3   5.0    13    78    11    75     5    98 0.72 -
JF1A_TRINITY_DN64039_c1_g1_i8.p1JF1A_TRINITY_DN64039_c1_g1 -            124 186996at3193         -            163         2   10.0   2.8   1   1    0.0002       2.4    9.8   2.8    14    91    10    86     1    91 0.63 -
#
# Program:         hmmsearch
# Version:         3.2.1 (June 2018)
# Pipeline mode:   SEARCH
# Query file:      /isg/shared/databases/BUSCO/odb10/embryophyta_odb10/hmms/186996at3193.hmm
# Target file:     Juniper_final_annotations_no_contam_lvl0.faa
# Option settings: /usr/local/bin/hmmsearch --domtblout /labs/Wegrzyn/Juniper_Pine/BUSCO/NEW/busco_juniper/run_embryophyta_odb10/hmmer_output/186996at3193.out --cpu 1 /isg/shared/databases/BUSCO/odb10/embryophyta_odb10/hmms/186996at3193.hmm Juniper_final_annotations_no_contam_lvl0.faa 
# Current dir:     /labs/Wegrzyn/Juniper_Pine/BUSCO/NEW
# Date:            Thu Aug  6 16:13:32 2020
# [ok]
