#                                                                                                                    --- full sequence --- -------------- this domain -------------   hmm coord   ali coord   env coord
# target name                                                accession   tlen query name           accession   qlen   E-value  score  bias   #  of  c-Evalue  i-Evalue  score  bias  from    to  from    to  from    to  acc description of target
#                                        ------------------- ---------- ----- -------------------- ---------- ----- --------- ------ ----- --- --- --------- --------- ------ ----- ----- ----- ----- ----- ----- ----- ---- ---------------------
JF1A_TRINITY_DN64844_c1_g2_i9.p1JF1A_TRINITY_DN64844_c1_g2   -            255 187437at3193         -            150   3.9e-61  207.3   1.4   1   2   1.2e-06   0.00082   21.3   0.6     2    19    71    88    70    93 0.90 -
JF1A_TRINITY_DN64844_c1_g2_i9.p1JF1A_TRINITY_DN64844_c1_g2   -            255 187437at3193         -            150   3.9e-61  207.3   1.4   2   2   5.9e-57   3.9e-54  184.6   0.0    23   150   116   253   107   253 0.88 -
JF1A_TRINITY_DN62554_c0_g5_i1.p1JF1A_TRINITY_DN62554_c0_g5   -            170 187437at3193         -            150   5.6e-15   57.5   0.0   1   1   1.1e-17   7.3e-15   57.1   0.0    25    89    20    82    10   115 0.82 -
JF2A_TRINITY_DN41515_c0_g1_i6.p1JF2A_TRINITY_DN41515_c0_g1   -            160 187437at3193         -            150   1.9e-14   55.8   0.1   1   1   3.6e-17   2.3e-14   55.5   0.1    23    96    83   158    72   160 0.85 -
JF3A_TRINITY_DN52155_c1_g2_i1.p1JF3A_TRINITY_DN52155_c1_g2   -            127 187437at3193         -            150   1.6e-13   52.7   0.0   1   1   2.9e-16   1.9e-13   52.6   0.0    24    93    26    96     5   118 0.80 -
JF3J_TRINITY_DN72971_c1_g1_i10.p1JF3J_TRINITY_DN72971_c1_g1  -            173 187437at3193         -            150     2e-13   52.5   0.0   1   1   3.9e-16   2.5e-13   52.1   0.0    24   104    44   125    30   142 0.85 -
JF3J_TRINITY_DN72971_c1_g1_i12.p1JF3J_TRINITY_DN72971_c1_g1  -            114 187437at3193         -            150   2.9e-13   51.9   0.0   1   1   5.5e-16   3.6e-13   51.6   0.0    14    88    12    90     4    95 0.80 -
JF1A_TRINITY_DN64397_c5_g1_i3.p1JF1A_TRINITY_DN64397_c5_g1   -            197 187437at3193         -            150     5e-13   51.2   0.1   1   1   1.1e-15     7e-13   50.7   0.1    22    94    87   160    74   174 0.87 -
JF1J_TRINITY_DN71456_c0_g2_i1.p1JF1J_TRINITY_DN71456_c0_g2   -            155 187437at3193         -            150   5.7e-13   51.0   0.0   1   1   1.1e-15   7.3e-13   50.6   0.0    24    92    74   143    60   151 0.85 -
JF1A_TRINITY_DN57667_c0_g1_i2.p1JF1A_TRINITY_DN57667_c0_g1   -            131 187437at3193         -            150   5.8e-13   51.0   0.1   1   1   1.1e-15   7.1e-13   50.7   0.1    24    88    36   102    16   115 0.81 -
JF1J_TRINITY_DN71456_c0_g2_i18.p1JF1J_TRINITY_DN71456_c0_g2  -            171 187437at3193         -            150   6.1e-13   50.9   0.0   1   1   1.2e-15   7.7e-13   50.6   0.0    24    92    74   143    59   161 0.84 -
JF3J_TRINITY_DN72971_c1_g1_i11.p1JF3J_TRINITY_DN72971_c1_g1  -            102 187437at3193         -            150   8.7e-13   50.4   0.0   1   1   1.5e-15   9.7e-13   50.2   0.0    14    91    12    93     4   101 0.78 -
JF2J_TRINITY_DN24582_c0_g2_i2.p1JF2J_TRINITY_DN24582_c0_g2   -            176 187437at3193         -            150   2.1e-12   49.2   0.1   1   1   4.4e-15   2.9e-12   48.7   0.1    24    88    58   123    40   132 0.87 -
JF1J_TRINITY_DN71456_c0_g2_i4.p1JF1J_TRINITY_DN71456_c0_g2   -            183 187437at3193         -            150     3e-12   48.7   0.0   1   1     6e-15     4e-12   48.3   0.0    24    93    78   148    64   169 0.84 -
JF1A_TRINITY_DN66506_c2_g1_i10.p1JF1A_TRINITY_DN66506_c2_g1  -            445 187437at3193         -            150   3.9e-12   48.3   0.2   1   1   1.1e-14   7.3e-12   47.4   0.2    24    84    93   151    82   157 0.89 -
JF1J_TRINITY_DN71456_c0_g2_i25.p1JF1J_TRINITY_DN71456_c0_g2  -            207 187437at3193         -            150     4e-12   48.2   0.0   1   1   8.5e-15   5.6e-12   47.8   0.0    24    93   102   172    91   193 0.84 -
JF3J_TRINITY_DN72511_c2_g1_i1.p1JF3J_TRINITY_DN72511_c2_g1   -            150 187437at3193         -            150   4.3e-12   48.1   0.1   1   1   8.2e-15   5.4e-12   47.8   0.1    24    88    37   102    16   111 0.86 -
JF1A_TRINITY_DN63762_c0_g7_i1.p1JF1A_TRINITY_DN63762_c0_g7   -            125 187437at3193         -            150   5.4e-12   47.8   0.2   1   1   1.1e-14   7.1e-12   47.4   0.2    25    84     9    68     2    75 0.94 -
JF2A_TRINITY_DN42112_c1_g1_i23.p1JF2A_TRINITY_DN42112_c1_g1  -            140 187437at3193         -            150   5.5e-12   47.8   0.0   1   1   9.8e-15   6.4e-12   47.6   0.0    24    89    23    89    14   120 0.88 -
JF1A_TRINITY_DN63212_c0_g1_i3.p2JF1A_TRINITY_DN63212_c0_g1   -            147 187437at3193         -            150   5.7e-12   47.7   0.0   1   1   1.1e-14   7.1e-12   47.4   0.0    23   105    46   129    38   139 0.84 -
JF1J_TRINITY_DN63232_c6_g2_i7.p1JF1J_TRINITY_DN63232_c6_g2   -            179 187437at3193         -            150     6e-12   47.7   0.0   1   1   1.2e-14   7.7e-12   47.3   0.0    23    94    78   150    70   168 0.84 -
JF3J_TRINITY_DN62772_c5_g3_i3.p1JF3J_TRINITY_DN62772_c5_g3   -            161 187437at3193         -            150   6.4e-12   47.6   0.0   1   1   1.3e-14   8.2e-12   47.2   0.0    23    95    60   133    52   150 0.84 -
JF1A_TRINITY_DN62549_c3_g3_i1.p1JF1A_TRINITY_DN62549_c3_g3   -            127 187437at3193         -            150   6.5e-12   47.6   0.3   1   1   1.3e-14   8.5e-12   47.2   0.3    24    84    19    77     9    84 0.92 -
JF1A_TRINITY_DN63833_c2_g6_i3.p1JF1A_TRINITY_DN63833_c2_g6   -            178 187437at3193         -            150   7.1e-12   47.4   0.2   1   1   1.5e-14   9.6e-12   47.0   0.2    24    98    24    96     9   116 0.83 -
JF1A_TRINITY_DN63467_c0_g1_i2.p1JF1A_TRINITY_DN63467_c0_g1   -            138 187437at3193         -            150     8e-12   47.3   0.0   1   1   1.6e-14     1e-11   46.9   0.0    25    90    43   110    31   129 0.84 -
JF3J_TRINITY_DN72511_c2_g1_i8.p1JF3J_TRINITY_DN72511_c2_g1   -            176 187437at3193         -            150   8.2e-12   47.2   0.1   1   1   1.6e-14   1.1e-11   46.8   0.1    24    88    59   124    38   133 0.86 -
JF1J_TRINITY_DN63289_c3_g5_i1.p1JF1J_TRINITY_DN63289_c3_g5   -            180 187437at3193         -            150     9e-12   47.1   0.1   1   1   2.1e-14   1.4e-11   46.5   0.1    24    86    21    82    14   119 0.82 -
JF2A_TRINITY_DN42470_c0_g1_i9.p1JF2A_TRINITY_DN42470_c0_g1   -            137 187437at3193         -            150   1.4e-11   46.5   0.0   1   1   2.6e-14   1.7e-11   46.2   0.0    30   107     3    81     1    87 0.85 -
JF2A_TRINITY_DN42112_c1_g1_i22.p1JF2A_TRINITY_DN42112_c1_g1  -            133 187437at3193         -            150   1.4e-11   46.4   0.0   1   1   2.6e-14   1.7e-11   46.2   0.0    25    89    17    82    11   113 0.89 -
JF1A_TRINITY_DN63428_c4_g3_i6.p1JF1A_TRINITY_DN63428_c4_g3   -            125 187437at3193         -            150   1.6e-11   46.3   0.2   1   1     3e-14   1.9e-11   46.0   0.2    25    84     9    68     2    77 0.94 -
JF2J_TRINITY_DN28719_c0_g1_i6.p1JF2J_TRINITY_DN28719_c0_g1   -            139 187437at3193         -            150   1.8e-11   46.1   0.0   1   1   3.8e-14   2.5e-11   45.7   0.0    24    85    72   134    59   138 0.86 -
JF1A_TRINITY_DN63497_c2_g7_i3.p1JF1A_TRINITY_DN63497_c2_g7   -            164 187437at3193         -            150   2.1e-11   45.9   0.2   1   1   4.4e-14   2.9e-11   45.5   0.2    24    84    29    87    20    97 0.90 -
JF1J_TRINITY_DN71456_c0_g2_i29.p1JF1J_TRINITY_DN71456_c0_g2  -            151 187437at3193         -            150     3e-11   45.4   0.0   1   1   5.8e-14   3.8e-11   45.1   0.0    24    91    76   144    64   150 0.84 -
JF2A_TRINITY_DN40305_c0_g1_i8.p1JF2A_TRINITY_DN40305_c0_g1   -            234 187437at3193         -            150   4.4e-11   44.9   0.1   1   1   1.2e-13   7.7e-11   44.1   0.1    24    87    14    80     3   126 0.84 -
JF3A_TRINITY_DN58442_c1_g1_i9.p1JF3A_TRINITY_DN58442_c1_g1   -            172 187437at3193         -            150     5e-11   44.7   0.1   1   1   1.1e-13   7.2e-11   44.2   0.1    24    88    62   127    54   135 0.88 -
JF2A_TRINITY_DN42112_c1_g1_i9.p1JF2A_TRINITY_DN42112_c1_g1   -            209 187437at3193         -            150   6.8e-11   44.2   0.0   1   1   1.5e-13   9.7e-11   43.7   0.0    24    88    93   158    86   181 0.89 -
JF1A_TRINITY_DN4593_c0_g1_i1.p1JF1A_TRINITY_DN4593_c0_g1     -            182 187437at3193         -            150   7.5e-11   44.1   0.2   1   1   1.6e-13   1.1e-10   43.6   0.2    24    86    87   148    74   164 0.86 -
JF1A_TRINITY_DN62846_c0_g1_i6.p1JF1A_TRINITY_DN62846_c0_g1   -            320 187437at3193         -            150   8.3e-11   44.0   0.0   1   1     2e-13   1.3e-10   43.3   0.0    12    89    65   140    55   154 0.83 -
JF1A_TRINITY_DN66242_c2_g1_i6.p1JF1A_TRINITY_DN66242_c2_g1   -            269 187437at3193         -            150   8.9e-11   43.9   0.4   1   2   1.4e-13   8.9e-11   43.9   0.4    23   102    79   163    64   198 0.75 -
JF1A_TRINITY_DN66242_c2_g1_i6.p1JF1A_TRINITY_DN66242_c2_g1   -            269 187437at3193         -            150   8.9e-11   43.9   0.4   2   2       4.7   3.1e+03   -0.1   0.1    64    90   231   257   203   264 0.80 -
JF1J_TRINITY_DN63232_c6_g4_i2.p1JF1J_TRINITY_DN63232_c6_g4   -            173 187437at3193         -            150   2.3e-10   42.5   0.0   1   1   4.7e-13   3.1e-10   42.1   0.0    18    80   107   170    99   173 0.90 -
JF1A_TRINITY_DN67242_c2_g3_i3.p1JF1A_TRINITY_DN67242_c2_g3   -            204 187437at3193         -            150   2.4e-10   42.5   0.3   1   2   8.2e-13   5.4e-10   41.3   0.2    24    85    39    99    26   147 0.84 -
JF1A_TRINITY_DN67242_c2_g3_i3.p1JF1A_TRINITY_DN67242_c2_g3   -            204 187437at3193         -            150   2.4e-10   42.5   0.3   2   2       7.6     5e+03   -0.8   0.0    67   115   120   168   107   201 0.57 -
JF1A_TRINITY_DN65730_c1_g9_i1.p1JF1A_TRINITY_DN65730_c1_g9   -            131 187437at3193         -            150   2.7e-10   42.3   0.1   1   1   5.3e-13   3.5e-10   41.9   0.1    14    83    60   130    51   131 0.86 -
JF2A_TRINITY_DN42112_c1_g1_i2.p1JF2A_TRINITY_DN42112_c1_g1   -            174 187437at3193         -            150   4.8e-10   41.5   0.0   1   1   9.3e-13   6.1e-10   41.2   0.0    24    89    57   123    50   154 0.88 -
JF1A_TRINITY_DN61985_c1_g1_i4.p2JF1A_TRINITY_DN61985_c1_g1   -            116 187437at3193         -            150   6.2e-10   41.1   0.5   1   2   7.7e-12   5.1e-09   38.2   0.2    24    84    17    72    10    81 0.92 -
JF1A_TRINITY_DN61985_c1_g1_i4.p2JF1A_TRINITY_DN61985_c1_g1   -            116 187437at3193         -            150   6.2e-10   41.1   0.5   2   2       1.9   1.2e+03    1.2   0.0    38    52    97   111    91   116 0.84 -
JF3J_TRINITY_DN73718_c3_g1_i1.p1JF3J_TRINITY_DN73718_c3_g1   -            179 187437at3193         -            150   1.1e-09   40.3   0.3   1   1   2.4e-12   1.5e-09   39.8   0.3    25    84     9    68     3    74 0.93 -
JF1A_TRINITY_DN61507_c1_g3_i2.p1JF1A_TRINITY_DN61507_c1_g3   -            106 187437at3193         -            150   2.9e-09   39.0   0.2   1   1   5.2e-12   3.4e-09   38.7   0.2    24    90    14    85     5   103 0.75 -
JF1A_TRINITY_DN61507_c1_g3_i1.p1JF1A_TRINITY_DN61507_c1_g3   -            140 187437at3193         -            150   3.3e-09   38.8   0.2   1   1   6.3e-12   4.1e-09   38.5   0.2    24    92    14    87     5   133 0.69 -
JF3J_TRINITY_DN74113_c1_g3_i1.p1JF3J_TRINITY_DN74113_c1_g3   -            101 187437at3193         -            150   4.5e-09   38.3   0.0   1   1   8.2e-12   5.4e-09   38.1   0.0    24    85    17    73     9    93 0.89 -
JF3A_TRINITY_DN48940_c0_g1_i2.p1JF3A_TRINITY_DN48940_c0_g1   -            104 187437at3193         -            150     5e-09   38.2   0.1   1   1   9.1e-12     6e-09   37.9   0.1    24    85    21    77    12    95 0.89 -
JF3J_TRINITY_DN66466_c1_g1_i1.p1JF3J_TRINITY_DN66466_c1_g1   -            201 187437at3193         -            150   1.5e-08   36.6   0.1   1   1   3.3e-11   2.2e-08   36.1   0.1    24    89   110   173   100   192 0.84 -
JF1A_TRINITY_DN66083_c0_g1_i13.p1JF1A_TRINITY_DN66083_c0_g1  -            125 187437at3193         -            150   1.8e-08   36.4   0.1   1   1   4.3e-11   2.8e-08   35.8   0.0    34    89    18    74    12   105 0.88 -
JF1A_TRINITY_DN61985_c1_g1_i5.p1JF1A_TRINITY_DN61985_c1_g1   -            269 187437at3193         -            150   1.9e-08   36.3   0.2   1   1   5.1e-11   3.3e-08   35.5   0.2    24    84    17    72    10    80 0.92 -
JF3J_TRINITY_DN60053_c0_g3_i2.p1JF3J_TRINITY_DN60053_c0_g3   -            137 187437at3193         -            150   3.7e-08   35.4   0.1   1   1   6.6e-11   4.3e-08   35.1   0.1    27    89    18    85     5   124 0.74 -
JF3A_TRINITY_DN58442_c1_g4_i10.p1JF3A_TRINITY_DN58442_c1_g4  -            129 187437at3193         -            150   4.4e-08   35.1   0.1   1   1   7.9e-11   5.2e-08   34.9   0.1    20    77    54   112    34   123 0.78 -
JF2A_TRINITY_DN40506_c0_g1_i2.p1JF2A_TRINITY_DN40506_c0_g1   -            145 187437at3193         -            150   1.1e-07   33.8   0.5   1   1   2.1e-10   1.4e-07   33.5   0.5    25   100    57   133    38   141 0.84 -
JF1A_TRINITY_DN63210_c2_g2_i3.p1JF1A_TRINITY_DN63210_c2_g2   -            206 187437at3193         -            150   1.2e-07   33.7   1.1   1   1   2.4e-10   1.6e-07   33.3   1.1    31   107    75   150    52   169 0.84 -
JF1A_TRINITY_DN67453_c2_g1_i3.p1JF1A_TRINITY_DN67453_c2_g1   -            356 187437at3193         -            150   1.4e-07   33.5   0.4   1   1   4.5e-10   2.9e-07   32.4   0.0    24    84    10    69     3    80 0.89 -
JF1A_TRINITY_DN66649_c0_g1_i12.p1JF1A_TRINITY_DN66649_c0_g1  -            364 187437at3193         -            150   1.5e-07   33.4   0.0   1   1   6.1e-10     4e-07   32.0   0.0    24    85    10    70     2    80 0.88 -
JF1A_TRINITY_DN68589_c0_g3_i16.p1JF1A_TRINITY_DN68589_c0_g3  -            424 187437at3193         -            150   1.8e-07   33.2   0.2   1   1   2.7e-10   1.8e-07   33.2   0.2    24    84    17    72    10    80 0.92 -
JF1A_TRINITY_DN64680_c0_g2_i9.p1JF1A_TRINITY_DN64680_c0_g2   -            122 187437at3193         -            150     2e-07   33.0   0.0   1   1   3.9e-10   2.5e-07   32.7   0.0    23    75    49    99    39   111 0.88 -
JF3A_TRINITY_DN44327_c0_g1_i1.p1JF3A_TRINITY_DN44327_c0_g1   -            103 187437at3193         -            150   2.3e-07   32.8   0.5   1   1     4e-10   2.6e-07   32.6   0.5    52    92    52    92    18   102 0.77 -
JF1J_TRINITY_DN72927_c8_g1_i2.p1JF1J_TRINITY_DN72927_c8_g1   -            112 187437at3193         -            150   2.3e-07   32.8   0.0   1   1     8e-10   5.2e-07   31.6   0.0    24    87     8    81     2    99 0.78 -
JF3J_TRINITY_DN57148_c0_g1_i1.p1JF3J_TRINITY_DN57148_c0_g1   -            157 187437at3193         -            150   2.8e-07   32.5   0.1   1   1   9.2e-10     6e-07   31.4   0.1    24    89    12    87     4   123 0.73 -
JF1J_TRINITY_DN64536_c1_g3_i2.p1JF1J_TRINITY_DN64536_c1_g3   -            118 187437at3193         -            150     3e-07   32.4   0.0   1   1   8.8e-10   5.8e-07   31.5   0.0    23    76    19    70    11    77 0.87 -
JF3A_TRINITY_DN48940_c0_g1_i9.p1JF3A_TRINITY_DN48940_c0_g1   -            112 187437at3193         -            150   3.5e-07   32.2   0.0   1   1   7.4e-10   4.8e-07   31.7   0.0    27    84    14    66     9    80 0.92 -
JF1J_TRINITY_DN63594_c1_g1_i4.p1JF1J_TRINITY_DN63594_c1_g1   -            177 187437at3193         -            150   4.1e-07   32.0   0.3   1   1   9.3e-10   6.1e-07   31.4   0.3    52    92   114   154    86   170 0.76 -
JF1A_TRINITY_DN64680_c0_g2_i6.p1JF1A_TRINITY_DN64680_c0_g2   -            151 187437at3193         -            150   5.4e-07   31.6   0.0   1   1   1.4e-09     9e-07   30.9   0.0    23    76    49   100    39   108 0.86 -
JF1A_TRINITY_DN65829_c0_g1_i7.p1JF1A_TRINITY_DN65829_c0_g1   -            126 187437at3193         -            150   6.5e-07   31.3   0.1   1   1   1.2e-09     8e-07   31.0   0.1    25    85    30    89    18   105 0.88 -
JF1A_TRINITY_DN66445_c3_g1_i18.p1JF1A_TRINITY_DN66445_c3_g1  -            192 187437at3193         -            150   1.5e-06   30.2   1.8   1   1   2.3e-09   1.5e-06   30.1   0.5    24    85     6    71     2    83 0.83 -
JF3J_TRINITY_DN68609_c2_g2_i3.p1JF3J_TRINITY_DN68609_c2_g2   -            128 187437at3193         -            150     3e-06   29.2   0.1   1   1   7.7e-09     5e-06   28.4   0.1    24    74    48    96    38   114 0.83 -
JF1A_TRINITY_DN65452_c3_g1_i6.p1JF1A_TRINITY_DN65452_c3_g1   -            146 187437at3193         -            150   4.3e-06   28.7   0.1   1   1   1.1e-08     7e-06   28.0   0.1    24    74    50    98    38   116 0.84 -
JF1A_TRINITY_DN65020_c0_g3_i4.p1JF1A_TRINITY_DN65020_c0_g3   -            222 187437at3193         -            150   4.5e-06   28.6   0.0   1   1   1.4e-08   9.3e-06   27.6   0.0    24    79    57   111    49   121 0.82 -
JF1J_TRINITY_DN49912_c0_g1_i2.p1JF1J_TRINITY_DN49912_c0_g1   -            147 187437at3193         -            150   5.4e-06   28.3   0.0   1   1   1.3e-08   8.4e-06   27.7   0.0    24    84    64   121    53   140 0.89 -
JF1A_TRINITY_DN67985_c0_g3_i3.p1JF1A_TRINITY_DN67985_c0_g3   -            288 187437at3193         -            150   5.5e-06   28.3   0.0   1   1   1.5e-08   9.5e-06   27.5   0.0    24    90    80   143    69   158 0.87 -
JF2A_TRINITY_DN40374_c0_g1_i1.p1JF2A_TRINITY_DN40374_c0_g1   -            321 187437at3193         -            150   5.5e-06   28.3   0.1   1   1   1.8e-08   1.2e-05   27.3   0.1    24    79    58   112    51   120 0.82 -
JF1A_TRINITY_DN65020_c0_g3_i2.p1JF1A_TRINITY_DN65020_c0_g3   -            176 187437at3193         -            150   6.3e-06   28.1   0.0   1   1   9.6e-09   6.3e-06   28.1   0.0    24    79    81   135    73   142 0.82 -
JF1A_TRINITY_DN64278_c6_g1_i1.p1JF1A_TRINITY_DN64278_c6_g1   -            162 187437at3193         -            150   7.6e-06   27.9   0.2   1   1   1.5e-08     1e-05   27.5   0.2    25    91    59   124    51   140 0.85 -
JF2J_TRINITY_DN28719_c0_g2_i4.p1JF2J_TRINITY_DN28719_c0_g2   -            123 187437at3193         -            150   9.4e-06   27.6   0.1   1   1   1.6e-08   1.1e-05   27.4   0.1    39   105     9    76     1    93 0.80 -
JF1A_TRINITY_DN64430_c5_g1_i4.p1JF1A_TRINITY_DN64430_c5_g1   -            354 187437at3193         -            150   2.2e-05   26.4   0.0   1   1   5.4e-08   3.5e-05   25.7   0.0    21    84    74   139    54   148 0.82 -
JF2A_TRINITY_DN42168_c0_g3_i3.p1JF2A_TRINITY_DN42168_c0_g3   -            219 187437at3193         -            150   2.2e-05   26.3   0.0   1   1   6.2e-08     4e-05   25.5   0.0    24    83    14    72     8    80 0.89 -
JF3J_TRINITY_DN52383_c0_g1_i1.p1JF3J_TRINITY_DN52383_c0_g1   -            170 187437at3193         -            150   6.6e-05   24.8   0.0   1   1   1.4e-07   9.3e-05   24.3   0.0    24   101    44   116    34   124 0.79 -
JF3J_TRINITY_DN56589_c0_g1_i2.p1JF3J_TRINITY_DN56589_c0_g1   -            169 187437at3193         -            150   9.5e-05   24.3   0.1   1   1   2.1e-07   0.00014   23.7   0.1    24    96    76   146    66   164 0.87 -
JF1J_TRINITY_DN64047_c2_g1_i2.p1JF1J_TRINITY_DN64047_c2_g1   -            255 187437at3193         -            150    0.0001   24.2   0.0   1   1   2.7e-07   0.00018   23.4   0.0    24    79    28    80    20    86 0.79 -
JF1A_TRINITY_DN61783_c4_g1_i6.p1JF1A_TRINITY_DN61783_c4_g1   -            323 187437at3193         -            150   0.00012   24.0   0.0   1   1   2.9e-07   0.00019   23.3   0.0    25   105    72   150    61   194 0.81 -
JF2A_TRINITY_DN10549_c0_g1_i1.p1JF2A_TRINITY_DN10549_c0_g1   -            138 187437at3193         -            150   0.00015   23.7   0.2   1   1   3.3e-07   0.00022   23.1   0.2     2    19    71    88    70   108 0.92 -
JF1A_TRINITY_DN66900_c0_g5_i1.p1JF1A_TRINITY_DN66900_c0_g5   -            139 187437at3193         -            150   0.00026   22.9   0.0   1   1     8e-07   0.00052   21.9   0.0    24    51   105   132    97   135 0.91 -
JF1A_TRINITY_DN60716_c3_g4_i3.p1JF1A_TRINITY_DN60716_c3_g4   -            253 187437at3193         -            150    0.0004   22.3   0.4   1   2   3.7e-05     0.025   16.5   0.0    23    52   139   168   117   198 0.83 -
JF1A_TRINITY_DN60716_c3_g4_i3.p1JF1A_TRINITY_DN60716_c3_g4   -            253 187437at3193         -            150    0.0004   22.3   0.4   2   2      0.28   1.8e+02    3.9   0.1    60    85   195   220   188   230 0.78 -
JF1A_TRINITY_DN64381_c0_g4_i1.p1JF1A_TRINITY_DN64381_c0_g4   -            170 187437at3193         -            150    0.0011   20.9   0.1   1   1   3.6e-06    0.0024   19.8   0.1    46    89     2    43     1    64 0.81 -
JF1A_TRINITY_DN60208_c1_g1_i1.p1JF1A_TRINITY_DN60208_c1_g1   -            582 187437at3193         -            150     0.006   18.5   0.3   1   1   2.2e-05     0.014   17.2   0.1    25    90    62   124    57   176 0.87 -
JF2A_TRINITY_DN30310_c0_g1_i1.p1JF2A_TRINITY_DN30310_c0_g1   -            106 187437at3193         -            150    0.0071   18.2   0.1   1   1   1.4e-05    0.0092   17.9   0.1    47    98    11    61     7    70 0.83 -
JF2A_TRINITY_DN39535_c0_g1_i3.p1JF2A_TRINITY_DN39535_c0_g1   -            112 187437at3193         -            150    0.0092   17.9   0.0   1   1   1.8e-05     0.012   17.5   0.0    24    70    14    65     5    72 0.74 -
JF1A_TRINITY_DN67022_c0_g4_i2.p3JF1A_TRINITY_DN67022_c0_g4   -            130 187437at3193         -            150      0.01   17.7   0.0   1   1     2e-05     0.013   17.3   0.0    25    84    71   128    49   130 0.85 -
JF2A_TRINITY_DN52941_c0_g1_i1.p1JF2A_TRINITY_DN52941_c0_g1   -            264 187437at3193         -            150     0.013   17.3   0.1   1   1   4.9e-05     0.032   16.1   0.1    23    52   194   223   171   232 0.89 -
JF1A_TRINITY_DN33977_c0_g1_i1.p1JF1A_TRINITY_DN33977_c0_g1   -            134 187437at3193         -            150     0.015   17.2   0.1   1   1     4e-05     0.026   16.4   0.0    20    74     5    62     1    67 0.79 -
JF1A_TRINITY_DN66083_c0_g1_i5.p1JF1A_TRINITY_DN66083_c0_g1   -            104 187437at3193         -            150      0.02   16.8   0.0   1   1   3.5e-05     0.023   16.6   0.0    59    89    23    53    18    84 0.91 -
JF1J_TRINITY_DN65400_c0_g1_i3.p1JF1J_TRINITY_DN65400_c0_g1   -            140 187437at3193         -            150     0.026   16.4   2.5   1   2   6.7e-05     0.044   15.6   0.5    65   108     1    44     1    62 0.86 -
JF1J_TRINITY_DN65400_c0_g1_i3.p1JF1J_TRINITY_DN65400_c0_g1   -            140 187437at3193         -            150     0.026   16.4   2.5   2   2       2.8   1.8e+03    0.7   0.1     7    31    99   123    95   140 0.72 -
JF1A_TRINITY_DN67242_c2_g3_i5.p1JF1A_TRINITY_DN67242_c2_g3   -            155 187437at3193         -            150     0.032   16.1   0.2   1   1     9e-05     0.059   15.2   0.1    57    85    26    53     2    91 0.73 -
JF3J_TRINITY_DN56589_c0_g1_i3.p1JF3J_TRINITY_DN56589_c0_g1   -            188 187437at3193         -            150     0.034   16.0   0.0   1   1   8.2e-05     0.054   15.4   0.0    24    80    76   130    66   146 0.85 -
JF1A_TRINITY_DN68492_c2_g1_i1.p1JF1A_TRINITY_DN68492_c2_g1   -            216 187437at3193         -            150      0.04   15.8   0.3   1   2   0.00049      0.32   12.8   0.2    60    98    14    52    10    61 0.85 -
JF1A_TRINITY_DN68492_c2_g1_i1.p1JF1A_TRINITY_DN68492_c2_g1   -            216 187437at3193         -            150      0.04   15.8   0.3   2   2       3.1     2e+03    0.5   0.0     7    33   117   143   113   150 0.83 -
JF1A_TRINITY_DN62277_c0_g5_i7.p1JF1A_TRINITY_DN62277_c0_g5   -            289 187437at3193         -            150     0.066   15.1   0.0   1   1    0.0002      0.13   14.1   0.0    60    84     6    30     2    41 0.87 -
JF1A_TRINITY_DN61413_c0_g10_i1.p1JF1A_TRINITY_DN61413_c0_g10 -            113 187437at3193         -            150     0.084   14.7   0.0   1   1   0.00016      0.11   14.4   0.0    18    52    51    85    39   103 0.81 -
JF1A_TRINITY_DN57443_c0_g1_i1.p1JF1A_TRINITY_DN57443_c0_g1   -            125 187437at3193         -            150     0.091   14.6   0.0   1   1    0.0002      0.13   14.1   0.0    25    79    71   123    52   125 0.82 -
JF3J_TRINITY_DN69625_c2_g1_i5.p1JF3J_TRINITY_DN69625_c2_g1   -            104 187437at3193         -            150     0.097   14.5   0.0   1   1    0.0002      0.13   14.1   0.0    25    71    42    87    34    93 0.88 -
JF1A_TRINITY_DN64001_c0_g1_i8.p1JF1A_TRINITY_DN64001_c0_g1   -            544 187437at3193         -            150       0.1   14.5   0.1   1   1    0.0003      0.19   13.6   0.1    31    73   210   248   191   253 0.84 -
JF1J_TRINITY_DN72924_c5_g1_i11.p1JF1J_TRINITY_DN72924_c5_g1  -            105 187437at3193         -            150      0.12   14.2   0.1   1   1   0.00034      0.22   13.4   0.0    62    84    15    37     6    46 0.84 -
JF1A_TRINITY_DN61395_c1_g3_i7.p1JF1A_TRINITY_DN61395_c1_g3   -            230 187437at3193         -            150       0.4   12.5   0.0   1   1     0.001      0.69   11.8   0.0    61    89   177   205   171   213 0.84 -
JF2A_TRINITY_DN41290_c0_g2_i1.p1JF2A_TRINITY_DN41290_c0_g2   -            141 187437at3193         -            150       0.5   12.2   0.8   1   1    0.0021       1.4   10.8   0.3    87   122    73   107    61   115 0.79 -
#
# Program:         hmmsearch
# Version:         3.2.1 (June 2018)
# Pipeline mode:   SEARCH
# Query file:      /isg/shared/databases/BUSCO/odb10/embryophyta_odb10/hmms/187437at3193.hmm
# Target file:     Juniper_final_annotations_no_contam_lvl0.faa
# Option settings: /usr/local/bin/hmmsearch --domtblout /labs/Wegrzyn/Juniper_Pine/BUSCO/NEW/busco_juniper/run_embryophyta_odb10/hmmer_output/187437at3193.out --cpu 1 /isg/shared/databases/BUSCO/odb10/embryophyta_odb10/hmms/187437at3193.hmm Juniper_final_annotations_no_contam_lvl0.faa 
# Current dir:     /labs/Wegrzyn/Juniper_Pine/BUSCO/NEW
# Date:            Thu Aug  6 16:13:34 2020
# [ok]
