#                                                                                                                   --- full sequence --- -------------- this domain -------------   hmm coord   ali coord   env coord
# target name                                               accession   tlen query name           accession   qlen   E-value  score  bias   #  of  c-Evalue  i-Evalue  score  bias  from    to  from    to  from    to  acc description of target
#                                       ------------------- ---------- ----- -------------------- ---------- ----- --------- ------ ----- --- --- --------- --------- ------ ----- ----- ----- ----- ----- ----- ----- ---- ---------------------
JF1A_TRINITY_DN71073_c0_g1_i1.p1JF1A_TRINITY_DN71073_c0_g1  -            106 18777at3193          -            692   6.2e-26   92.8   2.0   1   1   9.7e-30   1.3e-25   91.7   2.0   148   230     7   105     2   106 0.89 -
JF1A_TRINITY_DN52776_c0_g2_i1.p1JF1A_TRINITY_DN52776_c0_g2  -            101 18777at3193          -            692     4e-14   53.8   0.1   1   1   3.3e-18   4.6e-14   53.6   0.1    86   128     6    48     4    62 0.93 -
JF1A_TRINITY_DN68072_c2_g5_i1.p1JF1A_TRINITY_DN68072_c2_g5  -            119 18777at3193          -            692       0.2   11.8   0.2   1   1   1.7e-05      0.23   11.6   0.2   518   588    16    85    11    99 0.90 -
JF3A_TRINITY_DN56106_c1_g1_i19.p1JF3A_TRINITY_DN56106_c1_g1 -            230 18777at3193          -            692      0.44   10.7   0.2   1   1   3.7e-05      0.52   10.5   0.2    36    79    42    85    28   121 0.87 -
JF1J_TRINITY_DN49899_c0_g1_i1.p1JF1J_TRINITY_DN49899_c0_g1  -            245 18777at3193          -            692      0.69   10.0   0.0   1   1   6.7e-05      0.93    9.6   0.0   233   289   121   177   114   187 0.92 -
#
# Program:         hmmsearch
# Version:         3.2.1 (June 2018)
# Pipeline mode:   SEARCH
# Query file:      /isg/shared/databases/BUSCO/odb10/embryophyta_odb10/hmms/18777at3193.hmm
# Target file:     Juniper_final_annotations_no_contam_lvl0.faa
# Option settings: /usr/local/bin/hmmsearch --domtblout /labs/Wegrzyn/Juniper_Pine/BUSCO/NEW/busco_juniper/run_embryophyta_odb10/hmmer_output/18777at3193.out --cpu 1 /isg/shared/databases/BUSCO/odb10/embryophyta_odb10/hmms/18777at3193.hmm Juniper_final_annotations_no_contam_lvl0.faa 
# Current dir:     /labs/Wegrzyn/Juniper_Pine/BUSCO/NEW
# Date:            Thu Aug  6 16:13:36 2020
# [ok]
