#                                                                                                                  --- full sequence --- -------------- this domain -------------   hmm coord   ali coord   env coord
# target name                                              accession   tlen query name           accession   qlen   E-value  score  bias   #  of  c-Evalue  i-Evalue  score  bias  from    to  from    to  from    to  acc description of target
#                                      ------------------- ---------- ----- -------------------- ---------- ----- --------- ------ ----- --- --- --------- --------- ------ ----- ----- ----- ----- ----- ----- ----- ---- ---------------------
JF1A_TRINITY_DN65683_c2_g2_i3.p1JF1A_TRINITY_DN65683_c2_g2 -            252 188047at3193         -            178  3.1e-100  335.3   0.9   1   1  1.1e-103   1.3e-99  333.3   0.9     2   178    61   251    60   251 0.97 -
JF1A_TRINITY_DN65683_c2_g2_i1.p1JF1A_TRINITY_DN65683_c2_g2 -            276 188047at3193         -            178   2.3e-78  264.1   0.4   1   1   8.6e-82   9.9e-78  262.0   0.4     2   142   115   269   114   275 0.95 -
JF1A_TRINITY_DN65683_c2_g2_i2.p1JF1A_TRINITY_DN65683_c2_g2 -            245 188047at3193         -            178   8.3e-67  226.4   3.3   1   2   3.9e-26   4.5e-22   80.7   0.2     2    49   115   162   114   162 0.98 -
JF1A_TRINITY_DN65683_c2_g2_i2.p1JF1A_TRINITY_DN65683_c2_g2 -            245 188047at3193         -            178   8.3e-67  226.4   3.3   2   2   1.1e-47   1.3e-43  150.9   0.2    64   142   159   238   158   244 0.96 -
JF3A_TRINITY_DN54405_c2_g3_i1.p1JF3A_TRINITY_DN54405_c2_g3 -            134 188047at3193         -            178   4.1e-31  110.2   0.1   1   2   0.00013       1.5   10.6   0.0     2    17    17    32    16    35 0.94 -
JF3A_TRINITY_DN54405_c2_g3_i1.p1JF3A_TRINITY_DN54405_c2_g3 -            134 188047at3193         -            178   4.1e-31  110.2   0.1   2   2   2.4e-31   2.8e-27   97.7   0.0     2    56    73   127    72   132 0.96 -
JF2J_TRINITY_DN24776_c0_g1_i1.p1JF2J_TRINITY_DN24776_c0_g1 -            108 188047at3193         -            178   2.9e-24   87.9   0.0   1   1     3e-28   3.4e-24   87.6   0.0     2    60    21    81    20    92 0.88 -
JF1A_TRINITY_DN29642_c0_g1_i3.p2JF1A_TRINITY_DN29642_c0_g1 -            124 188047at3193         -            178       2.2   10.1   7.9   1   2   0.00039       4.5    9.1   1.1    40    75    59    94    49    98 0.89 -
JF1A_TRINITY_DN29642_c0_g1_i3.p2JF1A_TRINITY_DN29642_c0_g1 -            124 188047at3193         -            178       2.2   10.1   7.9   2   2    0.0062        72    5.1   1.0    43    68    99   124    94   124 0.90 -
#
# Program:         hmmsearch
# Version:         3.2.1 (June 2018)
# Pipeline mode:   SEARCH
# Query file:      /isg/shared/databases/BUSCO/odb10/embryophyta_odb10/hmms/188047at3193.hmm
# Target file:     Juniper_final_annotations_no_contam_lvl0.faa
# Option settings: /usr/local/bin/hmmsearch --domtblout /labs/Wegrzyn/Juniper_Pine/BUSCO/NEW/busco_juniper/run_embryophyta_odb10/hmmer_output/188047at3193.out --cpu 1 /isg/shared/databases/BUSCO/odb10/embryophyta_odb10/hmms/188047at3193.hmm Juniper_final_annotations_no_contam_lvl0.faa 
# Current dir:     /labs/Wegrzyn/Juniper_Pine/BUSCO/NEW
# Date:            Thu Aug  6 16:13:37 2020
# [ok]
