#                                                                                                                   --- full sequence --- -------------- this domain -------------   hmm coord   ali coord   env coord
# target name                                               accession   tlen query name           accession   qlen   E-value  score  bias   #  of  c-Evalue  i-Evalue  score  bias  from    to  from    to  from    to  acc description of target
#                                       ------------------- ---------- ----- -------------------- ---------- ----- --------- ------ ----- --- --- --------- --------- ------ ----- ----- ----- ----- ----- ----- ----- ---- ---------------------
JF1J_TRINITY_DN66560_c5_g1_i15.p1JF1J_TRINITY_DN66560_c5_g1 -            230 189828at3193         -            144   0.00013   24.2   0.0   1   4     0.072     1e+03    1.8   0.0    36    69    48    81    40    87 0.83 -
JF1J_TRINITY_DN66560_c5_g1_i15.p1JF1J_TRINITY_DN66560_c5_g1 -            230 189828at3193         -            144   0.00013   24.2   0.0   2   4    0.0003       4.2    9.5   0.0    34    72    94   132    82   134 0.92 -
JF1J_TRINITY_DN66560_c5_g1_i15.p1JF1J_TRINITY_DN66560_c5_g1 -            230 189828at3193         -            144   0.00013   24.2   0.0   3   4   0.00075        10    8.2   0.0    35    72   119   156   118   160 0.92 -
JF1J_TRINITY_DN66560_c5_g1_i15.p1JF1J_TRINITY_DN66560_c5_g1 -            230 189828at3193         -            144   0.00013   24.2   0.0   4   4    0.0047        66    5.7   0.0    35    68   167   200   163   206 0.86 -
JF3J_TRINITY_DN65465_c2_g1_i5.p3JF3J_TRINITY_DN65465_c2_g1  -            140 189828at3193         -            144    0.0021   20.2   0.0   1   3   0.00049       6.8    8.9   0.0    35    70    25    60    14    64 0.90 -
JF3J_TRINITY_DN65465_c2_g1_i5.p3JF3J_TRINITY_DN65465_c2_g1  -            140 189828at3193         -            144    0.0021   20.2   0.0   2   3     0.004        56    5.9   0.0    35    69    73   107    61   110 0.89 -
JF3J_TRINITY_DN65465_c2_g1_i5.p3JF3J_TRINITY_DN65465_c2_g1  -            140 189828at3193         -            144    0.0021   20.2   0.0   3   3      0.02   2.8e+02    3.6   0.0    39    72   101   134    97   136 0.81 -
JF1J_TRINITY_DN66560_c5_g1_i1.p1JF1J_TRINITY_DN66560_c5_g1  -            221 189828at3193         -            144     0.047   15.9   0.0   1   3     0.071   9.8e+02    1.9   0.0    36    69    63    96    57   102 0.83 -
JF1J_TRINITY_DN66560_c5_g1_i1.p1JF1J_TRINITY_DN66560_c5_g1  -            221 189828at3193         -            144     0.047   15.9   0.0   2   3   0.00088        12    8.0   0.0    34    72   109   147    99   150 0.92 -
JF1J_TRINITY_DN66560_c5_g1_i1.p1JF1J_TRINITY_DN66560_c5_g1  -            221 189828at3193         -            144     0.047   15.9   0.0   3   3     0.066   9.2e+02    1.9   0.0    35    68   158   191   155   197 0.82 -
JF2A_TRINITY_DN42485_c1_g1_i10.p1JF2A_TRINITY_DN42485_c1_g1 -            633 189828at3193         -            144      0.18   14.0   0.0   1   3       1.4   1.9e+04   -2.3   0.0    37    63   429   455   424   465 0.80 -
JF2A_TRINITY_DN42485_c1_g1_i10.p1JF2A_TRINITY_DN42485_c1_g1 -            633 189828at3193         -            144      0.18   14.0   0.0   2   3      0.01   1.4e+02    4.6   0.0    34    72   474   512   462   515 0.92 -
JF2A_TRINITY_DN42485_c1_g1_i10.p1JF2A_TRINITY_DN42485_c1_g1 -            633 189828at3193         -            144      0.18   14.0   0.0   3   3    0.0049        69    5.6   0.0    35    70   571   606   567   610 0.90 -
JF2J_TRINITY_DN22461_c0_g1_i2.p1JF2J_TRINITY_DN22461_c0_g1  -            202 189828at3193         -            144      0.39   12.9   0.0   1   5      0.84   1.2e+04   -1.6   0.0    47    67     4    24     2    31 0.80 -
JF2J_TRINITY_DN22461_c0_g1_i2.p1JF2J_TRINITY_DN22461_c0_g1  -            202 189828at3193         -            144      0.39   12.9   0.0   2   5     0.026   3.6e+02    3.3   0.0    34    64    39    69    27    77 0.89 -
JF2J_TRINITY_DN22461_c0_g1_i2.p1JF2J_TRINITY_DN22461_c0_g1  -            202 189828at3193         -            144      0.39   12.9   0.0   3   5     0.051   7.1e+02    2.3   0.0    37    69   105   137    89   143 0.75 -
JF2J_TRINITY_DN22461_c0_g1_i2.p1JF2J_TRINITY_DN22461_c0_g1  -            202 189828at3193         -            144      0.39   12.9   0.0   4   5     0.037   5.1e+02    2.8   0.0    38    72   130   164   126   168 0.82 -
JF2J_TRINITY_DN22461_c0_g1_i2.p1JF2J_TRINITY_DN22461_c0_g1  -            202 189828at3193         -            144      0.39   12.9   0.0   5   5      0.06   8.4e+02    2.1   0.0    35    63   151   179   148   187 0.85 -
#
# Program:         hmmsearch
# Version:         3.2.1 (June 2018)
# Pipeline mode:   SEARCH
# Query file:      /isg/shared/databases/BUSCO/odb10/embryophyta_odb10/hmms/189828at3193.hmm
# Target file:     Juniper_final_annotations_no_contam_lvl0.faa
# Option settings: /usr/local/bin/hmmsearch --domtblout /labs/Wegrzyn/Juniper_Pine/BUSCO/NEW/busco_juniper/run_embryophyta_odb10/hmmer_output/189828at3193.out --cpu 1 /isg/shared/databases/BUSCO/odb10/embryophyta_odb10/hmms/189828at3193.hmm Juniper_final_annotations_no_contam_lvl0.faa 
# Current dir:     /labs/Wegrzyn/Juniper_Pine/BUSCO/NEW
# Date:            Thu Aug  6 16:14:13 2020
# [ok]
