#                                                                                                                   --- full sequence --- -------------- this domain -------------   hmm coord   ali coord   env coord
# target name                                               accession   tlen query name           accession   qlen   E-value  score  bias   #  of  c-Evalue  i-Evalue  score  bias  from    to  from    to  from    to  acc description of target
#                                       ------------------- ---------- ----- -------------------- ---------- ----- --------- ------ ----- --- --- --------- --------- ------ ----- ----- ----- ----- ----- ----- ----- ---- ---------------------
JF1J_TRINITY_DN72145_c0_g1_i21.p1JF1J_TRINITY_DN72145_c0_g1 -            743 19287at3193          -            624         0 1259.3   0.3   1   1         0         0 1256.4   0.3     2   624    61   738    60   738 0.95 -
JF2J_TRINITY_DN28699_c0_g1_i2.p1JF2J_TRINITY_DN28699_c0_g1  -            160 19287at3193          -            624   4.5e-77  261.7   3.2   1   2     9e-05      0.69   10.0   0.1    64    80     6    22     1    23 0.89 -
JF2J_TRINITY_DN28699_c0_g1_i2.p1JF2J_TRINITY_DN28699_c0_g1  -            160 19287at3193          -            624   4.5e-77  261.7   3.2   2   2   1.7e-79   1.3e-75  256.8   1.0    50   186    20   157    18   160 0.96 -
JF2A_TRINITY_DN42592_c0_g1_i18.p1JF2A_TRINITY_DN42592_c0_g1 -            112 19287at3193          -            624   5.6e-53  182.1   0.1   1   1   8.7e-57   6.7e-53  181.8   0.1   527   608    15    96    11   106 0.96 -
JF2J_TRINITY_DN26364_c0_g3_i2.p1JF2J_TRINITY_DN26364_c0_g3  -            118 19287at3193          -            624   2.6e-48  166.7   0.4   1   1   3.8e-52   2.9e-48  166.5   0.4   324   421     1   105     1   115 0.95 -
JF3A_TRINITY_DN57840_c0_g1_i7.p1JF3A_TRINITY_DN57840_c0_g1  -            195 19287at3193          -            624   1.6e-44  154.1   3.1   1   1   7.9e-48   6.1e-44  152.2   3.0   351   453     1   112     1   185 0.90 -
JF3A_TRINITY_DN51601_c2_g2_i1.p1JF3A_TRINITY_DN51601_c2_g2  -            102 19287at3193          -            624   1.3e-43  151.2   6.8   1   2   6.9e-08   0.00053   20.3   0.2    56    77     7    28     3    30 0.91 -
JF3A_TRINITY_DN51601_c2_g2_i1.p1JF3A_TRINITY_DN51601_c2_g2  -            102 19287at3193          -            624   1.3e-43  151.2   6.8   2   2   1.9e-42   1.5e-38  134.4   2.4    26    98    30   102    27   102 0.98 -
JF3A_TRINITY_DN57840_c0_g1_i20.p1JF3A_TRINITY_DN57840_c0_g1 -            153 19287at3193          -            624   1.3e-28  101.6   0.6   1   1   5.2e-31     4e-27   96.7   0.6   398   496    12   139     5   143 0.78 -
JF3A_TRINITY_DN51601_c2_g1_i2.p1JF3A_TRINITY_DN51601_c2_g1  -            127 19287at3193          -            624   8.1e-19   69.2   0.2   1   1   1.2e-22   9.1e-19   69.0   0.2   118   156    89   127    64   127 0.92 -
JF3A_TRINITY_DN53486_c0_g1_i1.p1JF3A_TRINITY_DN53486_c0_g1  -            121 19287at3193          -            624      0.64   10.1   0.0   1   1   9.3e-05      0.72    9.9   0.0   304   356    49   101    31   113 0.87 -
#
# Program:         hmmsearch
# Version:         3.2.1 (June 2018)
# Pipeline mode:   SEARCH
# Query file:      /isg/shared/databases/BUSCO/odb10/embryophyta_odb10/hmms/19287at3193.hmm
# Target file:     Juniper_final_annotations_no_contam_lvl0.faa
# Option settings: /usr/local/bin/hmmsearch --domtblout /labs/Wegrzyn/Juniper_Pine/BUSCO/NEW/busco_juniper/run_embryophyta_odb10/hmmer_output/19287at3193.out --cpu 1 /isg/shared/databases/BUSCO/odb10/embryophyta_odb10/hmms/19287at3193.hmm Juniper_final_annotations_no_contam_lvl0.faa 
# Current dir:     /labs/Wegrzyn/Juniper_Pine/BUSCO/NEW
# Date:            Thu Aug  6 16:14:28 2020
# [ok]
