#                                                                                                                   --- full sequence --- -------------- this domain -------------   hmm coord   ali coord   env coord
# target name                                               accession   tlen query name           accession   qlen   E-value  score  bias   #  of  c-Evalue  i-Evalue  score  bias  from    to  from    to  from    to  acc description of target
#                                       ------------------- ---------- ----- -------------------- ---------- ----- --------- ------ ----- --- --- --------- --------- ------ ----- ----- ----- ----- ----- ----- ----- ---- ---------------------
JF1A_TRINITY_DN61525_c0_g1_i3.p1JF1A_TRINITY_DN61525_c0_g1  -            473 19439at3193          -            730  6.4e-184  615.2   7.3   1   1  4.6e-187  1.4e-183  614.1   7.3   359   729    44   447    37   448 0.92 -
JF1A_TRINITY_DN61525_c0_g1_i5.p1JF1A_TRINITY_DN61525_c0_g1  -            440 19439at3193          -            730  2.5e-171  573.6   0.5   1   1    1e-174  3.2e-171  573.2   0.5     1   359     1   398     1   408 0.92 -
JF1A_TRINITY_DN43621_c0_g1_i1.p1JF1A_TRINITY_DN43621_c0_g1  -            220 19439at3193          -            730  9.5e-127  426.2   9.7   1   1  3.5e-130  1.1e-126  426.0   9.7   429   646     1   220     1   220 0.99 -
JF1A_TRINITY_DN65378_c0_g5_i1.p1JF1A_TRINITY_DN65378_c0_g5  -            224 19439at3193          -            730  5.4e-107  360.9   2.6   1   1  2.2e-110  6.5e-107  360.6   2.6    18   213    15   223    10   223 0.96 -
JF1J_TRINITY_DN63609_c1_g3_i4.p1JF1J_TRINITY_DN63609_c1_g3  -            336 19439at3193          -            730  6.4e-103  347.4   2.5   1   2   1.2e-38   3.6e-35  123.4   0.1    36   126     3   100     2   101 0.95 -
JF1J_TRINITY_DN63609_c1_g3_i4.p1JF1J_TRINITY_DN63609_c1_g3  -            336 19439at3193          -            730  6.4e-103  347.4   2.5   2   2   8.7e-70   2.6e-66  226.4   0.5   198   358    99   287    97   296 0.86 -
JF1J_TRINITY_DN61723_c0_g1_i1.p1JF1J_TRINITY_DN61723_c0_g1  -            212 19439at3193          -            730   1.3e-98  333.2   7.2   1   2   3.8e-87   1.1e-83  283.8   3.6   498   654     1   158     1   159 0.99 -
JF1J_TRINITY_DN61723_c0_g1_i1.p1JF1J_TRINITY_DN61723_c0_g1  -            212 19439at3193          -            730   1.3e-98  333.2   7.2   2   2   3.6e-17   1.1e-13   52.4   0.1   678   724   159   210   157   212 0.89 -
JF1J_TRINITY_DN61723_c0_g1_i2.p1JF1J_TRINITY_DN61723_c0_g1  -            186 19439at3193          -            730   1.6e-98  332.9   3.7   1   1  5.9e-102   1.8e-98  332.7   3.7   498   682     1   186     1   186 0.99 -
JF3J_TRINITY_DN66415_c1_g1_i4.p1JF3J_TRINITY_DN66415_c1_g1  -            251 19439at3193          -            730   8.7e-91  307.3   2.0   1   1   8.6e-94   2.6e-90  305.7   2.0   365   560     8   231     3   249 0.86 -
JF3A_TRINITY_DN43309_c0_g1_i1.p1JF3A_TRINITY_DN43309_c0_g1  -            138 19439at3193          -            730   4.4e-57  195.9   0.9   1   1   1.8e-60   5.3e-57  195.6   0.9   557   670    18   131     9   136 0.97 -
JF1A_TRINITY_DN19947_c0_g1_i1.p1JF1A_TRINITY_DN19947_c0_g1  -            129 19439at3193          -            730   3.6e-50  173.0   3.5   1   2     3e-28   9.1e-25   89.0   0.4   109   174     3    68     1    69 0.96 -
JF1A_TRINITY_DN19947_c0_g1_i1.p1JF1A_TRINITY_DN19947_c0_g1  -            129 19439at3193          -            730   3.6e-50  173.0   3.5   2   2   1.9e-27   5.7e-24   86.4   0.2   113   174    68   129    68   129 0.99 -
JF1J_TRINITY_DN6636_c0_g1_i1.p1JF1J_TRINITY_DN6636_c0_g1    -            117 19439at3193          -            730   2.9e-47  163.4   0.1   1   1   1.1e-50   3.4e-47  163.2   0.1    21   122     6   117     3   117 0.94 -
JF1J_TRINITY_DN61723_c0_g1_i3.p1JF1J_TRINITY_DN61723_c0_g1  -            124 19439at3193          -            730   1.2e-29  105.1   0.1   1   1   4.1e-33   1.2e-29  105.1   0.1   610   682    52   124    15   124 0.90 -
JF1A_TRINITY_DN62949_c0_g8_i3.p1JF1A_TRINITY_DN62949_c0_g8  -            313 19439at3193          -            730     3e-26   93.9   0.1   1   1   1.3e-29   3.9e-26   93.6   0.1   414   591    51   230    35   241 0.94 -
JF1A_TRINITY_DN58852_c0_g1_i1.p1JF1A_TRINITY_DN58852_c0_g1  -            125 19439at3193          -            730   1.8e-16   61.6   0.4   1   1   1.2e-19   3.7e-16   60.6   0.4   365   428    38   109    25   125 0.80 -
JF1A_TRINITY_DN58852_c0_g1_i3.p1JF1A_TRINITY_DN58852_c0_g1  -            140 19439at3193          -            730   4.3e-15   57.0   0.1   1   1   1.7e-18   5.1e-15   56.8   0.1   365   411    38    92    25   105 0.85 -
JF3A_TRINITY_DN49371_c0_g4_i1.p1JF3A_TRINITY_DN49371_c0_g4  -            192 19439at3193          -            730   1.5e-12   48.6   0.0   1   1   6.8e-16     2e-12   48.2   0.0   303   357     1    68     1    77 0.83 -
JF1A_TRINITY_DN40185_c0_g1_i1.p1JF1A_TRINITY_DN40185_c0_g1  -            259 19439at3193          -            730   4.4e-12   47.1   1.0   1   2   3.6e-14   1.1e-10   42.5   0.1   521   590    18    87     7   103 0.92 -
JF1A_TRINITY_DN40185_c0_g1_i1.p1JF1A_TRINITY_DN40185_c0_g1  -            259 19439at3193          -            730   4.4e-12   47.1   1.0   2   2     0.023        70    3.4   0.1   605   694   139   234   129   249 0.77 -
JF1A_TRINITY_DN74566_c0_g1_i1.p1JF1A_TRINITY_DN74566_c0_g1  -            119 19439at3193          -            730   2.7e-09   37.9   0.1   1   1   1.1e-12   3.3e-09   37.6   0.1   549   591     3    45     1    51 0.93 -
JF2A_TRINITY_DN32597_c0_g1_i3.p1JF2A_TRINITY_DN32597_c0_g1  -            292 19439at3193          -            730    0.0099   16.2   0.2   1   2       2.1   6.4e+03   -3.0   0.0   646   673    85   112    80   129 0.78 -
JF2A_TRINITY_DN32597_c0_g1_i3.p1JF2A_TRINITY_DN32597_c0_g1  -            292 19439at3193          -            730    0.0099   16.2   0.2   2   2   5.9e-06     0.018   15.3   0.1    84   179   197   289   152   291 0.80 -
JF1A_TRINITY_DN66579_c0_g1_i10.p1JF1A_TRINITY_DN66579_c0_g1 -            396 19439at3193          -            730     0.019   15.3   0.0   1   2       0.1   3.1e+02    1.3   0.0    93   138   106   155    99   192 0.78 -
JF1A_TRINITY_DN66579_c0_g1_i10.p1JF1A_TRINITY_DN66579_c0_g1 -            396 19439at3193          -            730     0.019   15.3   0.0   2   2   7.4e-05      0.22   11.7   0.0   268   314   330   377   309   384 0.86 -
JF1J_TRINITY_DN72306_c1_g4_i1.p1JF1J_TRINITY_DN72306_c1_g4  -            140 19439at3193          -            730     0.099   12.9   0.2   1   1   3.6e-05      0.11   12.8   0.2   594   656    30    89    17   114 0.80 -
JF2A_TRINITY_DN2605_c0_g1_i1.p1JF2A_TRINITY_DN2605_c0_g1    -            151 19439at3193          -            730      0.26   11.5   0.1   1   1     9e-05      0.27   11.4   0.1   542   649    32   147     9   151 0.76 -
JF1A_TRINITY_DN61696_c0_g2_i3.p1JF1A_TRINITY_DN61696_c0_g2  -            105 19439at3193          -            730      0.33   11.2   0.0   1   1   0.00012      0.36   11.0   0.0   268   312    40    85    19    91 0.80 -
#
# Program:         hmmsearch
# Version:         3.2.1 (June 2018)
# Pipeline mode:   SEARCH
# Query file:      /isg/shared/databases/BUSCO/odb10/embryophyta_odb10/hmms/19439at3193.hmm
# Target file:     Juniper_final_annotations_no_contam_lvl0.faa
# Option settings: /usr/local/bin/hmmsearch --domtblout /labs/Wegrzyn/Juniper_Pine/BUSCO/NEW/busco_juniper/run_embryophyta_odb10/hmmer_output/19439at3193.out --cpu 1 /isg/shared/databases/BUSCO/odb10/embryophyta_odb10/hmms/19439at3193.hmm Juniper_final_annotations_no_contam_lvl0.faa 
# Current dir:     /labs/Wegrzyn/Juniper_Pine/BUSCO/NEW
# Date:            Thu Aug  6 16:15:16 2020
# [ok]
