#                                                                                                                  --- full sequence --- -------------- this domain -------------   hmm coord   ali coord   env coord
# target name                                              accession   tlen query name           accession   qlen   E-value  score  bias   #  of  c-Evalue  i-Evalue  score  bias  from    to  from    to  from    to  acc description of target
#                                      ------------------- ---------- ----- -------------------- ---------- ----- --------- ------ ----- --- --- --------- --------- ------ ----- ----- ----- ----- ----- ----- ----- ---- ---------------------
JF1A_TRINITY_DN66860_c3_g1_i1.p1JF1A_TRINITY_DN66860_c3_g1 -            637 1998at3193           -           1127  8.7e-117  393.2   7.2   1   2   1.3e-26   1.1e-22   81.5   0.1   103   190     2    98     1   103 0.86 -
JF1A_TRINITY_DN66860_c3_g1_i1.p1JF1A_TRINITY_DN66860_c3_g1 -            637 1998at3193           -           1127  8.7e-117  393.2   7.2   2   2   2.3e-94     2e-90  305.9   2.6   206   583   144   622   129   637 0.79 -
JF1A_TRINITY_DN64234_c0_g3_i1.p1JF1A_TRINITY_DN64234_c0_g3 -            179 1998at3193           -           1127     3e-63  215.9   0.2   1   1   5.1e-67   4.5e-63  215.3   0.2   984  1127    12   175     4   175 0.90 -
JF1A_TRINITY_DN57961_c0_g1_i1.p1JF1A_TRINITY_DN57961_c0_g1 -            118 1998at3193           -           1127   6.4e-18   65.8   1.5   1   2   3.2e-12   2.8e-08   33.9   0.1   869   895     2    28     1    34 0.92 -
JF1A_TRINITY_DN57961_c0_g1_i1.p1JF1A_TRINITY_DN57961_c0_g1 -            118 1998at3193           -           1127   6.4e-18   65.8   1.5   2   2   1.5e-11   1.3e-07   31.6   0.2   894   943    59   118    44   118 0.83 -
JF1A_TRINITY_DN66860_c3_g4_i1.p1JF1A_TRINITY_DN66860_c3_g4 -            148 1998at3193           -           1127   8.6e-14   52.1   0.0   1   1   1.3e-17   1.1e-13   51.7   0.0     1    94     1   121     1   131 0.74 -
JF3A_TRINITY_DN51080_c1_g1_i4.p1JF3A_TRINITY_DN51080_c1_g1 -            189 1998at3193           -           1127     7e-09   35.8   0.4   1   2   1.6e-06     0.014   15.0   0.1   169   190    16    40    11    45 0.79 -
JF3A_TRINITY_DN51080_c1_g1_i4.p1JF3A_TRINITY_DN51080_c1_g1 -            189 1998at3193           -           1127     7e-09   35.8   0.4   2   2   5.1e-07    0.0044   16.6   0.0   206   259    86   145    71   185 0.69 -
JF1A_TRINITY_DN57961_c0_g1_i2.p1JF1A_TRINITY_DN57961_c0_g1 -            125 1998at3193           -           1127   2.4e-08   34.1   0.1   1   1   3.5e-12     3e-08   33.7   0.1   869   895     2    28     1    34 0.92 -
JF1A_TRINITY_DN68635_c0_g3_i2.p1JF1A_TRINITY_DN68635_c0_g3 -            124 1998at3193           -           1127     0.031   13.8   0.0   1   1   3.6e-06     0.031   13.8   0.0   159   193    88   122    49   124 0.69 -
JF1A_TRINITY_DN10449_c0_g1_i1.p1JF1A_TRINITY_DN10449_c0_g1 -            122 1998at3193           -           1127      0.68    9.4   0.0   1   1   8.1e-05       0.7    9.3   0.0    25   105     5    88     1   106 0.79 -
#
# Program:         hmmsearch
# Version:         3.2.1 (June 2018)
# Pipeline mode:   SEARCH
# Query file:      /isg/shared/databases/BUSCO/odb10/embryophyta_odb10/hmms/1998at3193.hmm
# Target file:     Juniper_final_annotations_no_contam_lvl0.faa
# Option settings: /usr/local/bin/hmmsearch --domtblout /labs/Wegrzyn/Juniper_Pine/BUSCO/NEW/busco_juniper/run_embryophyta_odb10/hmmer_output/1998at3193.out --cpu 1 /isg/shared/databases/BUSCO/odb10/embryophyta_odb10/hmms/1998at3193.hmm Juniper_final_annotations_no_contam_lvl0.faa 
# Current dir:     /labs/Wegrzyn/Juniper_Pine/BUSCO/NEW
# Date:            Thu Aug  6 16:15:43 2020
# [ok]
