#                                                                                                                  --- full sequence --- -------------- this domain -------------   hmm coord   ali coord   env coord
# target name                                              accession   tlen query name           accession   qlen   E-value  score  bias   #  of  c-Evalue  i-Evalue  score  bias  from    to  from    to  from    to  acc description of target
#                                      ------------------- ---------- ----- -------------------- ---------- ----- --------- ------ ----- --- --- --------- --------- ------ ----- ----- ----- ----- ----- ----- ----- ---- ---------------------
JF1A_TRINITY_DN56360_c0_g1_i1.p1JF1A_TRINITY_DN56360_c0_g1 -            218 199845at3193         -            150   1.2e-58  198.9   0.3   1   1   1.4e-62   1.7e-58  198.4   0.3    21   149    82   212    71   213 0.94 -
JF1A_TRINITY_DN56360_c0_g1_i2.p1JF1A_TRINITY_DN56360_c0_g1 -            225 199845at3193         -            150   1.3e-58  198.8   0.3   1   1   1.6e-62   1.8e-58  198.3   0.3    21   149    89   219    78   220 0.94 -
JF1A_TRINITY_DN61670_c5_g1_i1.p1JF1A_TRINITY_DN61670_c5_g1 -            169 199845at3193         -            150   0.00073   21.1   0.0   1   1   8.9e-08     0.001   20.6   0.0    19   101    79   161    61   167 0.73 -
JF3J_TRINITY_DN73035_c6_g2_i1.p1JF3J_TRINITY_DN73035_c6_g2 -            126 199845at3193         -            150      0.13   13.8   0.3   1   2   2.2e-05      0.25   12.9   0.1    11    71    25    86    17    91 0.82 -
JF3J_TRINITY_DN73035_c6_g2_i1.p1JF3J_TRINITY_DN73035_c6_g2 -            126 199845at3193         -            150      0.13   13.8   0.3   2   2      0.61     7e+03   -1.6   0.0    31    50    92   111    83   118 0.63 -
JF2A_TRINITY_DN25530_c0_g1_i2.p1JF2A_TRINITY_DN25530_c0_g1 -            163 199845at3193         -            150      0.21   13.1   0.4   1   2      0.24   2.8e+03   -0.3   0.0    80   108   109   137   105   142 0.82 -
JF2A_TRINITY_DN25530_c0_g1_i2.p1JF2A_TRINITY_DN25530_c0_g1 -            163 199845at3193         -            150      0.21   13.1   0.4   2   2   7.4e-05      0.86   11.1   0.2    52    73   141   162   131   163 0.87 -
JF1J_TRINITY_DN66777_c5_g1_i1.p1JF1J_TRINITY_DN66777_c5_g1 -            132 199845at3193         -            150      0.26   12.8   0.0   1   1   3.5e-05       0.4   12.2   0.0    15    55    69   109    57   118 0.80 -
#
# Program:         hmmsearch
# Version:         3.2.1 (June 2018)
# Pipeline mode:   SEARCH
# Query file:      /isg/shared/databases/BUSCO/odb10/embryophyta_odb10/hmms/199845at3193.hmm
# Target file:     Juniper_final_annotations_no_contam_lvl0.faa
# Option settings: /usr/local/bin/hmmsearch --domtblout /labs/Wegrzyn/Juniper_Pine/BUSCO/NEW/busco_juniper/run_embryophyta_odb10/hmmer_output/199845at3193.out --cpu 1 /isg/shared/databases/BUSCO/odb10/embryophyta_odb10/hmms/199845at3193.hmm Juniper_final_annotations_no_contam_lvl0.faa 
# Current dir:     /labs/Wegrzyn/Juniper_Pine/BUSCO/NEW
# Date:            Thu Aug  6 16:15:41 2020
# [ok]
