#                                                                                                                    --- full sequence --- -------------- this domain -------------   hmm coord   ali coord   env coord
# target name                                                accession   tlen query name           accession   qlen   E-value  score  bias   #  of  c-Evalue  i-Evalue  score  bias  from    to  from    to  from    to  acc description of target
#                                        ------------------- ---------- ----- -------------------- ---------- ----- --------- ------ ----- --- --- --------- --------- ------ ----- ----- ----- ----- ----- ----- ----- ---- ---------------------
JF1A_TRINITY_DN68113_c2_g2_i13.p1JF1A_TRINITY_DN68113_c2_g2  -           1091 20489at3193          -            642   3.3e-72  245.7   0.3   1   2   5.3e-36   3.5e-33  116.8   0.0    78   361   206   487   196   491 0.82 -
JF1A_TRINITY_DN68113_c2_g2_i13.p1JF1A_TRINITY_DN68113_c2_g2  -           1091 20489at3193          -            642   3.3e-72  245.7   0.3   2   2   4.8e-39   3.2e-36  126.8   0.1   394   572   501   681   493   691 0.90 -
JF1A_TRINITY_DN66573_c0_g2_i14.p1JF1A_TRINITY_DN66573_c0_g2  -            533 20489at3193          -            642   1.4e-68  233.7   0.1   1   2   1.5e-34   9.8e-32  112.0   0.0    98   361    15   287     8   297 0.80 -
JF1A_TRINITY_DN66573_c0_g2_i14.p1JF1A_TRINITY_DN66573_c0_g2  -            533 20489at3193          -            642   1.4e-68  233.7   0.1   2   2   5.2e-37   3.4e-34  120.1   0.1   394   565   298   469   286   480 0.92 -
JF1A_TRINITY_DN68223_c1_g3_i3.p1JF1A_TRINITY_DN68223_c1_g3   -           1448 20489at3193          -            642   3.9e-64  219.0   0.1   1   1     1e-65   6.7e-63  214.9   0.1    77   523   674  1124   655  1141 0.82 -
JF1A_TRINITY_DN62457_c1_g6_i3.p1JF1A_TRINITY_DN62457_c1_g6   -            594 20489at3193          -            642     2e-45  157.2   1.7   1   1   2.9e-46   1.9e-43  150.7   1.7   196   551    13   344     4   400 0.84 -
JF1A_TRINITY_DN65776_c10_g2_i2.p1JF1A_TRINITY_DN65776_c10_g2 -            436 20489at3193          -            642   1.4e-40  141.2   0.2   1   2   1.6e-12     1e-09   39.2   0.0   192   330    13   142     7   197 0.78 -
JF1A_TRINITY_DN65776_c10_g2_i2.p1JF1A_TRINITY_DN65776_c10_g2 -            436 20489at3193          -            642   1.4e-40  141.2   0.2   2   2   6.5e-31   4.3e-28   99.9   0.0   395   546   252   401   218   425 0.89 -
JF1A_TRINITY_DN45503_c0_g1_i2.p1JF1A_TRINITY_DN45503_c0_g1   -            221 20489at3193          -            642   9.3e-38  131.9   0.0   1   1   1.6e-40   1.1e-37  131.7   0.0   437   571    30   166    10   198 0.90 -
JF1A_TRINITY_DN61789_c0_g1_i3.p1JF1A_TRINITY_DN61789_c0_g1   -            778 20489at3193          -            642   2.5e-35  123.8   0.0   1   1   1.1e-37   7.5e-35  122.3   0.0    75   337   368   648   353   709 0.79 -
JF3J_TRINITY_DN64967_c0_g1_i3.p1JF3J_TRINITY_DN64967_c0_g1   -            378 20489at3193          -            642     4e-35  123.2   2.4   1   1   7.9e-38   5.2e-35  122.8   2.4   397   571    46   220    38   252 0.90 -
JF1A_TRINITY_DN67243_c0_g3_i1.p1JF1A_TRINITY_DN67243_c0_g3   -            876 20489at3193          -            642   8.6e-35  122.1   0.6   1   4   5.7e-05     0.037   14.3   0.0    72   117   110   158    97   166 0.80 -
JF1A_TRINITY_DN67243_c0_g3_i1.p1JF1A_TRINITY_DN67243_c0_g3   -            876 20489at3193          -            642   8.6e-35  122.1   0.6   2   4      0.37   2.5e+02    1.6   0.0   134   183   224   277   216   286 0.72 -
JF1A_TRINITY_DN67243_c0_g3_i1.p1JF1A_TRINITY_DN67243_c0_g3   -            876 20489at3193          -            642   8.6e-35  122.1   0.6   3   4   5.5e-11   3.6e-08   34.1   0.0   198   362   351   520   344   552 0.75 -
JF1A_TRINITY_DN67243_c0_g3_i1.p1JF1A_TRINITY_DN67243_c0_g3   -            876 20489at3193          -            642   8.6e-35  122.1   0.6   4   4   6.7e-21   4.4e-18   66.9   0.0   417   567   720   873   699   875 0.87 -
JF1A_TRINITY_DN64588_c0_g3_i7.p1JF1A_TRINITY_DN64588_c0_g3   -            285 20489at3193          -            642   8.6e-33  115.5   0.1   1   1   2.7e-35   1.8e-32  114.4   0.1   396   562    66   232    22   239 0.90 -
JF3J_TRINITY_DN20400_c0_g1_i1.p1JF3J_TRINITY_DN20400_c0_g1   -            144 20489at3193          -            642     7e-32  112.5   0.2   1   1   1.1e-34   7.5e-32  112.4   0.2   426   562     7   143     1   144 0.90 -
JF3A_TRINITY_DN59164_c0_g1_i17.p1JF3A_TRINITY_DN59164_c0_g1  -            221 20489at3193          -            642   1.8e-31  111.1   0.1   1   1     3e-34     2e-31  111.0   0.1   414   587     3   176     1   200 0.91 -
JF1A_TRINITY_DN64588_c0_g2_i4.p1JF1A_TRINITY_DN64588_c0_g2   -            309 20489at3193          -            642   3.5e-31  110.2   0.0   1   1   6.5e-34   4.3e-31  109.9   0.0    78   316    54   306    48   309 0.84 -
JF3J_TRINITY_DN67173_c0_g1_i9.p1JF3J_TRINITY_DN67173_c0_g1   -            374 20489at3193          -            642   8.8e-31  108.8   0.5   1   3       1.7   1.1e+03   -0.5   0.0   202   229     1    28     1    33 0.93 -
JF3J_TRINITY_DN67173_c0_g1_i9.p1JF3J_TRINITY_DN67173_c0_g1   -            374 20489at3193          -            642   8.8e-31  108.8   0.5   2   3   1.8e-28   1.2e-25   91.9   0.0   135   328    41   250    29   265 0.83 -
JF3J_TRINITY_DN67173_c0_g1_i9.p1JF3J_TRINITY_DN67173_c0_g1   -            374 20489at3193          -            642   8.8e-31  108.8   0.5   3   3   6.6e-05     0.044   14.0   0.0   285   328   294   337   263   345 0.87 -
JF1A_TRINITY_DN68210_c0_g1_i1.p1JF1A_TRINITY_DN68210_c0_g1   -            251 20489at3193          -            642   8.9e-31  108.8   0.1   1   1   1.7e-33   1.1e-30  108.5   0.1   395   570    24   204    14   225 0.88 -
JF1J_TRINITY_DN71487_c3_g6_i1.p1JF1J_TRINITY_DN71487_c3_g6   -            220 20489at3193          -            642   3.8e-30  106.7   0.2   1   1     7e-33   4.6e-30  106.5   0.2   416   570     8   162     1   181 0.94 -
JF1J_TRINITY_DN70018_c0_g2_i9.p1JF1J_TRINITY_DN70018_c0_g2   -            494 20489at3193          -            642   5.7e-30  106.2   2.7   1   2       1.8   1.2e+03   -0.6   0.1   263   309    30    76    19    80 0.80 -
JF1J_TRINITY_DN70018_c0_g2_i9.p1JF1J_TRINITY_DN70018_c0_g2   -            494 20489at3193          -            642   5.7e-30  106.2   2.7   2   2   1.4e-32   9.2e-30  105.5   0.4    75   359   188   489   177   493 0.80 -
JF1A_TRINITY_DN76881_c0_g1_i1.p1JF1A_TRINITY_DN76881_c0_g1   -            114 20489at3193          -            642     5e-28   99.7   0.1   1   1   8.8e-31   5.8e-28   99.5   0.1    68   157    17   111    14   114 0.93 -
JF3J_TRINITY_DN73960_c1_g1_i9.p1JF3J_TRINITY_DN73960_c1_g1   -            188 20489at3193          -            642   4.6e-27   96.6   0.0   1   1   8.6e-30   5.7e-27   96.2   0.0   424   564     6   147     2   159 0.90 -
JF1J_TRINITY_DN46529_c0_g1_i2.p1JF1J_TRINITY_DN46529_c0_g1   -            123 20489at3193          -            642   6.6e-27   96.0   0.1   1   1   1.2e-29   7.9e-27   95.8   0.1   438   540    16   117     6   119 0.94 -
JF1A_TRINITY_DN60807_c4_g3_i1.p1JF1A_TRINITY_DN60807_c4_g3   -            165 20489at3193          -            642   4.9e-26   93.2   0.0   1   1   8.7e-29   5.8e-26   92.9   0.0   443   550    26   133    12   152 0.92 -
JF1A_TRINITY_DN9386_c0_g1_i1.p1JF1A_TRINITY_DN9386_c0_g1     -            114 20489at3193          -            642     2e-25   91.1   0.1   1   1   3.4e-28   2.3e-25   91.0   0.1   196   288    12   109     6   114 0.86 -
JF1A_TRINITY_DN68712_c1_g1_i1.p1JF1A_TRINITY_DN68712_c1_g1   -            161 20489at3193          -            642     6e-25   89.6   0.1   1   1   9.8e-28   6.5e-25   89.5   0.1   408   567     2   159     1   160 0.93 -
JF1A_TRINITY_DN62838_c0_g7_i2.p1JF1A_TRINITY_DN62838_c0_g7   -            481 20489at3193          -            642   6.3e-25   89.5   0.2   1   1   1.5e-27     1e-24   88.8   0.2   195   361    23   190     1   211 0.83 -
JF1J_TRINITY_DN71814_c2_g2_i8.p1JF1J_TRINITY_DN71814_c2_g2   -            131 20489at3193          -            642   1.8e-24   88.0   0.2   1   1   4.5e-27     3e-24   87.3   0.2   449   552    13   116     6   130 0.90 -
JF1A_TRINITY_DN29333_c0_g1_i2.p1JF1A_TRINITY_DN29333_c0_g1   -            162 20489at3193          -            642   2.3e-24   87.6   0.0   1   1   3.8e-27   2.5e-24   87.5   0.0   178   326     6   162     1   162 0.89 -
JF1A_TRINITY_DN66612_c1_g3_i7.p1JF1A_TRINITY_DN66612_c1_g3   -            337 20489at3193          -            642     1e-23   85.5   0.4   1   1   1.5e-24   9.6e-22   79.0   0.4   175   474    43   331    37   336 0.84 -
JF2A_TRINITY_DN26284_c0_g1_i1.p1JF2A_TRINITY_DN26284_c0_g1   -            274 20489at3193          -            642     1e-23   85.5   0.1   1   1   1.9e-26   1.3e-23   85.2   0.1   408   567   111   271    96   273 0.86 -
JF1A_TRINITY_DN68506_c2_g1_i11.p1JF1A_TRINITY_DN68506_c2_g1  -            433 20489at3193          -            642   1.1e-23   85.4   0.1   1   1   2.7e-26   1.8e-23   84.7   0.1   437   570   236   370   223   377 0.88 -
JF1A_TRINITY_DN60367_c3_g6_i1.p1JF1A_TRINITY_DN60367_c3_g6   -            239 20489at3193          -            642   5.7e-22   79.7   0.0   1   1     1e-24   6.7e-22   79.5   0.0   411   559    50   202    39   236 0.82 -
JF3J_TRINITY_DN64967_c0_g1_i5.p1JF3J_TRINITY_DN64967_c0_g1   -            137 20489at3193          -            642     1e-21   78.9   1.0   1   2    0.0026       1.7    8.8   0.1   430   458     3    31     1    35 0.83 -
JF3J_TRINITY_DN64967_c0_g1_i5.p1JF3J_TRINITY_DN64967_c0_g1   -            137 20489at3193          -            642     1e-21   78.9   1.0   2   2   5.7e-22   3.8e-19   70.4   0.1   416   508    33   124    29   130 0.94 -
JF1A_TRINITY_DN66612_c1_g3_i1.p1JF1A_TRINITY_DN66612_c1_g3   -            161 20489at3193          -            642   2.8e-21   77.4   0.0   1   1   4.6e-24     3e-21   77.3   0.0   453   558     9   114     2   147 0.89 -
JF1A_TRINITY_DN63261_c1_g2_i1.p1JF1A_TRINITY_DN63261_c1_g2   -            278 20489at3193          -            642   2.8e-18   67.5   2.0   1   1   2.7e-20   1.8e-17   64.9   2.0   175   361    22   202    10   267 0.84 -
JF1J_TRINITY_DN69168_c0_g4_i2.p1JF1J_TRINITY_DN69168_c0_g4   -            123 20489at3193          -            642   2.8e-18   67.5   0.0   1   1   5.2e-21   3.4e-18   67.2   0.0   415   521     9   116     2   121 0.88 -
JF1A_TRINITY_DN61835_c1_g1_i1.p1JF1A_TRINITY_DN61835_c1_g1   -            143 20489at3193          -            642     3e-18   67.4   0.0   1   1   4.7e-21   3.1e-18   67.4   0.0   439   567     9   140     1   142 0.86 -
JF1A_TRINITY_DN62193_c0_g4_i1.p1JF1A_TRINITY_DN62193_c0_g4   -            451 20489at3193          -            642   1.2e-17   65.4   1.3   1   1   1.4e-19   9.1e-17   62.5   1.3   348   539   216   401    49   439 0.82 -
JF1A_TRINITY_DN72653_c0_g1_i1.p1JF1A_TRINITY_DN72653_c0_g1   -            138 20489at3193          -            642   2.4e-17   64.5   0.1   1   1     4e-20   2.6e-17   64.3   0.1    68   156     9   104     6   129 0.82 -
JF1A_TRINITY_DN45503_c0_g1_i1.p1JF1A_TRINITY_DN45503_c0_g1   -            147 20489at3193          -            642   2.9e-17   64.2   0.0   1   1   4.9e-20   3.3e-17   64.0   0.0   436   515    29   109     8   124 0.87 -
JF1A_TRINITY_DN53099_c0_g2_i1.p1JF1A_TRINITY_DN53099_c0_g2   -            213 20489at3193          -            642     6e-17   63.1   0.0   1   1   1.1e-19   7.5e-17   62.8   0.0   176   330    32   193    23   206 0.84 -
JF1A_TRINITY_DN62939_c2_g6_i1.p1JF1A_TRINITY_DN62939_c2_g6   -            681 20489at3193          -            642   1.2e-16   62.1   0.0   1   2   0.00038      0.25   11.5   0.0    96   119   149   172   140   180 0.87 -
JF1A_TRINITY_DN62939_c2_g6_i1.p1JF1A_TRINITY_DN62939_c2_g6   -            681 20489at3193          -            642   1.2e-16   62.1   0.0   2   2   2.9e-15   1.9e-12   48.2   0.0   132   361   302   546   288   560 0.73 -
JF3A_TRINITY_DN59053_c0_g3_i1.p1JF3A_TRINITY_DN59053_c0_g3   -            121 20489at3193          -            642   4.2e-16   60.3   0.0   1   1   7.2e-19   4.8e-16   60.2   0.0   471   547    16    91    11   112 0.86 -
JF1A_TRINITY_DN62193_c0_g4_i4.p1JF1A_TRINITY_DN62193_c0_g4   -            348 20489at3193          -            642   8.2e-16   59.4   0.1   1   2      0.13        86    3.2   0.0   143   250     5   123     1   141 0.68 -
JF1A_TRINITY_DN62193_c0_g4_i4.p1JF1A_TRINITY_DN62193_c0_g4   -            348 20489at3193          -            642   8.2e-16   59.4   0.1   2   2   4.3e-17   2.8e-14   54.3   0.0   442   536   242   336   216   346 0.88 -
JF1J_TRINITY_DN70018_c0_g2_i8.p1JF1J_TRINITY_DN70018_c0_g2   -            215 20489at3193          -            642   1.3e-15   58.8   1.3   1   1   2.4e-18   1.6e-15   58.4   1.3   194   359    36   210    18   214 0.81 -
JF3J_TRINITY_DN67636_c2_g1_i3.p1JF3J_TRINITY_DN67636_c2_g1   -            194 20489at3193          -            642   6.5e-15   56.4   0.1   1   1   1.2e-17   8.2e-15   56.1   0.1   173   316    34   179    27   190 0.83 -
JF2A_TRINITY_DN37060_c0_g1_i2.p1JF2A_TRINITY_DN37060_c0_g1   -            252 20489at3193          -            642   9.9e-15   55.8   0.0   1   1   1.9e-17   1.3e-14   55.4   0.0   240   364     1   136     1   185 0.81 -
JF1A_TRINITY_DN62881_c4_g3_i1.p1JF1A_TRINITY_DN62881_c4_g3   -            224 20489at3193          -            642   1.5e-14   55.3   0.1   1   1   2.8e-17   1.8e-14   54.9   0.1   425   567    47   189    29   205 0.88 -
JF1J_TRINITY_DN55302_c0_g1_i2.p1JF1J_TRINITY_DN55302_c0_g1   -            142 20489at3193          -            642   1.6e-14   55.1   0.2   1   1     3e-17     2e-14   54.8   0.2   195   280    47   136    40   140 0.87 -
JF2A_TRINITY_DN28010_c0_g1_i1.p1JF2A_TRINITY_DN28010_c0_g1   -            206 20489at3193          -            642   3.5e-14   54.0   0.0   1   1     6e-17   3.9e-14   53.8   0.0   471   549     1    80     1   120 0.88 -
JF1A_TRINITY_DN70234_c0_g1_i1.p1JF1A_TRINITY_DN70234_c0_g1   -            108 20489at3193          -            642   8.4e-14   52.7   0.1   1   1   1.4e-16     9e-14   52.6   0.1   496   549     1    54     1   105 0.85 -
JF1J_TRINITY_DN71814_c2_g2_i10.p1JF1J_TRINITY_DN71814_c2_g2  -            145 20489at3193          -            642   2.2e-13   51.4   0.2   1   1     4e-16   2.7e-13   51.1   0.2   491   572    16   100    13   115 0.85 -
JF1J_TRINITY_DN62143_c0_g5_i3.p1JF1J_TRINITY_DN62143_c0_g5   -            114 20489at3193          -            642   2.8e-13   51.0   0.0   1   1   4.2e-16   2.8e-13   51.0   0.0    97   156    13    69     3   111 0.86 -
JF3J_TRINITY_DN73431_c1_g2_i10.p1JF3J_TRINITY_DN73431_c1_g2  -            104 20489at3193          -            642   6.1e-13   49.9   0.1   1   1   9.9e-16   6.5e-13   49.8   0.1   515   571     2    59     1    78 0.92 -
JF1J_TRINITY_DN55665_c0_g1_i2.p1JF1J_TRINITY_DN55665_c0_g1   -            150 20489at3193          -            642   8.7e-13   49.4   0.0   1   1   1.6e-15     1e-12   49.1   0.0   191   274    14   100     5   114 0.89 -
JF1A_TRINITY_DN66573_c0_g2_i10.p1JF1A_TRINITY_DN66573_c0_g2  -            179 20489at3193          -            642   4.6e-12   47.0   0.0   1   1   8.4e-15   5.6e-12   46.7   0.0    98   219    15   141     8   158 0.76 -
JF1A_TRINITY_DN62311_c1_g2_i3.p1JF1A_TRINITY_DN62311_c1_g2   -            147 20489at3193          -            642   8.4e-12   46.1   0.0   1   1   1.8e-14   1.2e-11   45.6   0.0    99   211    10   134     5   142 0.71 -
JF3A_TRINITY_DN15611_c0_g1_i1.p1JF3A_TRINITY_DN15611_c0_g1   -            102 20489at3193          -            642   2.7e-11   44.5   0.0   1   1   4.3e-14   2.9e-11   44.4   0.0   175   253    13    94     3   101 0.85 -
JF2A_TRINITY_DN46482_c0_g1_i1.p1JF2A_TRINITY_DN46482_c0_g1   -            102 20489at3193          -            642   5.6e-11   43.4   0.0   1   1   9.3e-14   6.2e-11   43.3   0.0   228   299     1    76     1    88 0.87 -
JF1A_TRINITY_DN64946_c0_g1_i8.p1JF1A_TRINITY_DN64946_c0_g1   -            158 20489at3193          -            642   1.1e-10   42.5   0.0   1   1   1.8e-13   1.2e-10   42.3   0.0   165   277    31   146    13   156 0.75 -
JF1J_TRINITY_DN62957_c0_g2_i5.p1JF1J_TRINITY_DN62957_c0_g2   -            214 20489at3193          -            642   1.6e-10   41.9   0.0   1   1     3e-13     2e-10   41.6   0.0    77   206    60   201    32   203 0.72 -
JF1A_TRINITY_DN34607_c0_g1_i2.p1JF1A_TRINITY_DN34607_c0_g1   -            155 20489at3193          -            642   2.1e-10   41.5   0.1   1   1   3.7e-13   2.4e-10   41.3   0.1   495   558     1    65     1    88 0.87 -
JF1A_TRINITY_DN53099_c0_g1_i1.p1JF1A_TRINITY_DN53099_c0_g1   -            100 20489at3193          -            642   3.3e-09   37.6   0.0   1   1   5.5e-12   3.7e-09   37.4   0.0    76   153    24    96     5    98 0.82 -
JF1A_TRINITY_DN60367_c3_g5_i4.p1JF1A_TRINITY_DN60367_c3_g5   -            186 20489at3193          -            642   4.2e-09   37.2   0.1   1   1   7.8e-12   5.2e-09   36.9   0.1   197   260    43   108    26   123 0.88 -
JF1A_TRINITY_DN60367_c3_g5_i3.p1JF1A_TRINITY_DN60367_c3_g5   -            223 20489at3193          -            642   4.7e-09   37.1   0.0   1   1   9.1e-12     6e-09   36.7   0.0   197   261    43   109    28   132 0.87 -
JF2A_TRINITY_DN33126_c0_g1_i1.p1JF2A_TRINITY_DN33126_c0_g1   -            136 20489at3193          -            642   9.2e-09   36.1   0.1   1   2       7.3   4.8e+03   -2.6   0.0   348   361    13    26     8    38 0.81 -
JF2A_TRINITY_DN33126_c0_g1_i1.p1JF2A_TRINITY_DN33126_c0_g1   -            136 20489at3193          -            642   9.2e-09   36.1   0.1   2   2   2.5e-11   1.6e-08   35.3   0.1   394   478    42   125    32   131 0.92 -
JF2A_TRINITY_DN40645_c0_g1_i2.p1JF2A_TRINITY_DN40645_c0_g1   -            405 20489at3193          -            642   2.3e-08   34.8   0.0   1   1     5e-11   3.3e-08   34.3   0.0    78   160   303   381   296   396 0.83 -
JF1J_TRINITY_DN62960_c3_g2_i3.p1JF1J_TRINITY_DN62960_c3_g2   -            111 20489at3193          -            642   2.7e-08   34.6   0.2   1   1   4.5e-11     3e-08   34.4   0.2   504   559    34    89    27   108 0.82 -
JF2A_TRINITY_DN26112_c0_g1_i2.p1JF2A_TRINITY_DN26112_c0_g1   -            211 20489at3193          -            642   3.3e-08   34.2   0.0   1   1   5.7e-11   3.8e-08   34.1   0.0   492   564    39   112    31   148 0.86 -
JF1A_TRINITY_DN63190_c1_g3_i1.p1JF1A_TRINITY_DN63190_c1_g3   -            292 20489at3193          -            642   4.5e-08   33.8   0.1   1   1   9.4e-11   6.2e-08   33.3   0.1   195   238   245   288   238   291 0.94 -
JF1A_TRINITY_DN66891_c1_g4_i1.p1JF1A_TRINITY_DN66891_c1_g4   -            145 20489at3193          -            642   4.5e-08   33.8   0.0   1   2   1.7e-07   0.00011   22.6   0.0   103   150     1    43     1    55 0.90 -
JF1A_TRINITY_DN66891_c1_g4_i1.p1JF1A_TRINITY_DN66891_c1_g4   -            145 20489at3193          -            642   4.5e-08   33.8   0.0   2   2    0.0016       1.1    9.5   0.0   191   229   107   145   102   145 0.94 -
JF3J_TRINITY_DN68988_c5_g1_i3.p1JF3J_TRINITY_DN68988_c5_g1   -            248 20489at3193          -            642     6e-08   33.4   0.0   1   2   1.9e-10   1.3e-07   32.3   0.0   198   275   109   187   101   205 0.84 -
JF3J_TRINITY_DN68988_c5_g1_i3.p1JF3J_TRINITY_DN68988_c5_g1   -            248 20489at3193          -            642     6e-08   33.4   0.0   2   2       6.9   4.6e+03   -2.6   0.0   198   218   218   238   212   243 0.82 -
JF1A_TRINITY_DN58344_c0_g1_i2.p1JF1A_TRINITY_DN58344_c0_g1   -            243 20489at3193          -            642   8.9e-08   32.8   0.0   1   1   1.7e-10   1.1e-07   32.5   0.0   418   534    90   205    82   220 0.90 -
JF1J_TRINITY_DN62957_c0_g2_i1.p1JF1J_TRINITY_DN62957_c0_g2   -            320 20489at3193          -            642   1.4e-07   32.2   0.0   1   1   2.6e-10   1.7e-07   31.9   0.0    77   155   186   267   164   314 0.80 -
JF1A_TRINITY_DN62838_c0_g9_i1.p1JF1A_TRINITY_DN62838_c0_g9   -            289 20489at3193          -            642     2e-07   31.7   0.0   1   1     4e-10   2.7e-07   31.3   0.0    73   150   211   284   203   289 0.89 -
JF1A_TRINITY_DN66740_c1_g4_i1.p1JF1A_TRINITY_DN66740_c1_g4   -            127 20489at3193          -            642   4.5e-07   30.5   0.0   1   1   7.9e-10   5.2e-07   30.3   0.0    78   150    59   126    47   127 0.90 -
JF1A_TRINITY_DN43938_c0_g2_i1.p1JF1A_TRINITY_DN43938_c0_g2   -            109 20489at3193          -            642   1.1e-06   29.2   0.0   1   1   1.9e-09   1.3e-06   29.0   0.0   176   247    30   105    17   108 0.81 -
JF1A_TRINITY_DN63233_c0_g6_i2.p1JF1A_TRINITY_DN63233_c0_g6   -            138 20489at3193          -            642   1.7e-06   28.6   0.0   1   1   3.1e-09   2.1e-06   28.3   0.0    78   147    71   136    63   138 0.90 -
JF3A_TRINITY_DN58448_c2_g4_i2.p1JF3A_TRINITY_DN58448_c2_g4   -            108 20489at3193          -            642   1.8e-06   28.5   0.0   1   1   2.7e-09   1.8e-06   28.5   0.0    99   155     8    60     3    95 0.82 -
JF3J_TRINITY_DN66256_c1_g3_i3.p1JF3J_TRINITY_DN66256_c1_g3   -            117 20489at3193          -            642   3.8e-06   27.5   0.0   1   1   6.3e-09   4.2e-06   27.3   0.0    99   158    48   113    19   115 0.79 -
JF1A_TRINITY_DN23380_c0_g1_i1.p1JF1A_TRINITY_DN23380_c0_g1   -            115 20489at3193          -            642   4.5e-06   27.2   0.0   1   1   7.3e-09   4.8e-06   27.1   0.0   177   244    42   112    22   114 0.84 -
JF1J_TRINITY_DN5753_c0_g1_i1.p1JF1J_TRINITY_DN5753_c0_g1     -            106 20489at3193          -            642   8.2e-06   26.4   0.2   1   1   1.3e-08   8.5e-06   26.3   0.2   508   569     2    68     1    97 0.75 -
JF1J_TRINITY_DN71737_c2_g4_i4.p1JF1J_TRINITY_DN71737_c2_g4   -            125 20489at3193          -            642   1.2e-05   25.8   0.0   1   1   2.7e-08   1.8e-05   25.2   0.0   192   248     8    63     3    80 0.88 -
JF1A_TRINITY_DN64672_c0_g1_i12.p1JF1A_TRINITY_DN64672_c0_g1  -            197 20489at3193          -            642   4.4e-05   23.9   0.0   1   1   1.1e-07   7.3e-05   23.2   0.0   193   247     9    62     3    72 0.91 -
JF2A_TRINITY_DN20285_c0_g1_i1.p1JF2A_TRINITY_DN20285_c0_g1   -            229 20489at3193          -            642   0.00016   22.1   0.0   1   1   3.6e-07   0.00024   21.5   0.0   196   250    20    74    15    81 0.91 -
JF1J_TRINITY_DN71487_c3_g8_i2.p1JF1J_TRINITY_DN71487_c3_g8   -            156 20489at3193          -            642   0.00017   22.0   0.6   1   1   6.6e-07   0.00044   20.6   0.6   222   361     3   133     1   137 0.78 -
JF1J_TRINITY_DN69168_c0_g4_i3.p1JF1J_TRINITY_DN69168_c0_g4   -            169 20489at3193          -            642   0.00024   21.5   0.9   1   2   4.1e-06    0.0027   18.0   0.1   440   478    17    54     1    57 0.83 -
JF1J_TRINITY_DN69168_c0_g4_i3.p1JF1J_TRINITY_DN69168_c0_g4   -            169 20489at3193          -            642   0.00024   21.5   0.9   2   2      0.11        72    3.4   0.1   516   551    55    90    53   143 0.75 -
JF1J_TRINITY_DN40690_c0_g1_i1.p1JF1J_TRINITY_DN40690_c0_g1   -            121 20489at3193          -            642   0.00038   20.8   0.0   1   1   6.2e-07   0.00041   20.7   0.0   316   363     2    51     1    81 0.82 -
JF3J_TRINITY_DN73172_c1_g1_i1.p1JF3J_TRINITY_DN73172_c1_g1   -            154 20489at3193          -            642   0.00064   20.1   0.0   1   1   1.1e-06   0.00075   19.9   0.0    78   116   113   151    92   154 0.88 -
JF3A_TRINITY_DN55199_c0_g3_i1.p1JF3A_TRINITY_DN55199_c0_g3   -            127 20489at3193          -            642   0.00099   19.5   0.0   1   1   1.5e-06   0.00099   19.5   0.0   202   251     1    50     1    95 0.88 -
JF1J_TRINITY_DN73047_c0_g3_i1.p1JF1J_TRINITY_DN73047_c0_g3   -            101 20489at3193          -            642     0.001   19.4   0.0   1   1   1.9e-06    0.0012   19.1   0.0    73   117    48    92    39    97 0.90 -
JF3J_TRINITY_DN65010_c2_g2_i1.p1JF3J_TRINITY_DN65010_c2_g2   -            126 20489at3193          -            642    0.0014   19.0   0.0   1   1   2.2e-06    0.0015   18.9   0.0    94   119    23    48    17   105 0.87 -
JF1J_TRINITY_DN67282_c3_g4_i1.p1JF1J_TRINITY_DN67282_c3_g4   -            110 20489at3193          -            642    0.0025   18.1   0.1   1   1   4.6e-06    0.0031   17.8   0.1    96   119     3    26     1    38 0.89 -
JF2A_TRINITY_DN40217_c0_g3_i3.p1JF2A_TRINITY_DN40217_c0_g3   -            302 20489at3193          -            642    0.0035   17.7   1.0   1   1   7.7e-06    0.0051   17.1   1.0   267   361    12   113     4   122 0.79 -
JF2A_TRINITY_DN28501_c0_g1_i1.p1JF2A_TRINITY_DN28501_c0_g1   -            103 20489at3193          -            642    0.0044   17.3   0.0   1   1   6.6e-06    0.0044   17.3   0.0   109   155    12    54     9   100 0.75 -
JF1A_TRINITY_DN65999_c3_g3_i1.p1JF1A_TRINITY_DN65999_c3_g3   -            336 20489at3193          -            642      0.02   15.1   0.0   1   1   3.8e-05     0.025   14.8   0.0   413   536   162   283   129   311 0.74 -
JF1A_TRINITY_DN60069_c1_g1_i1.p1JF1A_TRINITY_DN60069_c1_g1   -            251 20489at3193          -            642     0.022   15.0   0.0   1   2    0.0015      0.98    9.6   0.0    95   121    52    78    47    92 0.75 -
JF1A_TRINITY_DN60069_c1_g1_i1.p1JF1A_TRINITY_DN60069_c1_g1   -            251 20489at3193          -            642     0.022   15.0   0.0   2   2      0.11        73    3.4   0.0   132   155   218   241   200   249 0.80 -
JF2A_TRINITY_DN30147_c0_g1_i1.p1JF2A_TRINITY_DN30147_c0_g1   -            155 20489at3193          -            642     0.037   14.3   0.1   1   1   0.00014     0.095   12.9   0.1   393   479    61   154    16   155 0.78 -
JF1J_TRINITY_DN56507_c0_g1_i1.p1JF1J_TRINITY_DN56507_c0_g1   -            114 20489at3193          -            642     0.037   14.3   0.0   1   1   6.3e-05     0.042   14.1   0.0   195   258    41   106    15   111 0.74 -
JF3J_TRINITY_DN67752_c4_g1_i4.p1JF3J_TRINITY_DN67752_c4_g1   -            197 20489at3193          -            642     0.054   13.7   0.1   1   1   0.00011     0.071   13.3   0.1   525   591    69   133    56   139 0.86 -
JF1A_TRINITY_DN67520_c0_g2_i1.p1JF1A_TRINITY_DN67520_c0_g2   -            209 20489at3193          -            642     0.064   13.5   0.0   1   1   0.00011     0.073   13.3   0.0   433   523    91   183    43   204 0.73 -
JF2A_TRINITY_DN47661_c0_g1_i1.p1JF2A_TRINITY_DN47661_c0_g1   -            129 20489at3193          -            642     0.065   13.5   0.0   1   1   0.00013     0.083   13.1   0.0    97   156    11    64     6    82 0.79 -
JF3J_TRINITY_DN67752_c4_g1_i5.p1JF3J_TRINITY_DN67752_c4_g1   -            217 20489at3193          -            642     0.066   13.4   0.1   1   1   0.00014     0.091   13.0   0.1   525   591    69   133    56   138 0.86 -
JF1A_TRINITY_DN64672_c0_g1_i3.p1JF1A_TRINITY_DN64672_c0_g1   -            154 20489at3193          -            642     0.067   13.4   0.0   1   2         5   3.3e+03   -2.1   0.1   537   568    23    54     8    98 0.63 -
JF1A_TRINITY_DN64672_c0_g1_i3.p1JF1A_TRINITY_DN64672_c0_g1   -            154 20489at3193          -            642     0.067   13.4   0.0   2   2   0.00021      0.14   12.4   0.0   189   233   112   154   106   154 0.91 -
JF1A_TRINITY_DN64672_c0_g1_i10.p1JF1A_TRINITY_DN64672_c0_g1  -            199 20489at3193          -            642      0.15   12.3   0.0   1   1   0.00033      0.22   11.7   0.0   189   233   157   199   152   199 0.91 -
JF1J_TRINITY_DN48865_c0_g1_i1.p1JF1J_TRINITY_DN48865_c0_g1   -            156 20489at3193          -            642      0.16   12.2   0.0   1   1    0.0003       0.2   11.8   0.0   200   261    72   133    66   150 0.82 -
JF1A_TRINITY_DN60286_c0_g1_i1.p1JF1A_TRINITY_DN60286_c0_g1   -            424 20489at3193          -            642      0.22   11.7   0.1   1   1   0.00048      0.31   11.2   0.1    97   119   310   332   301   345 0.86 -
#
# Program:         hmmsearch
# Version:         3.2.1 (June 2018)
# Pipeline mode:   SEARCH
# Query file:      /isg/shared/databases/BUSCO/odb10/embryophyta_odb10/hmms/20489at3193.hmm
# Target file:     Juniper_final_annotations_no_contam_lvl0.faa
# Option settings: /usr/local/bin/hmmsearch --domtblout /labs/Wegrzyn/Juniper_Pine/BUSCO/NEW/busco_juniper/run_embryophyta_odb10/hmmer_output/20489at3193.out --cpu 1 /isg/shared/databases/BUSCO/odb10/embryophyta_odb10/hmms/20489at3193.hmm Juniper_final_annotations_no_contam_lvl0.faa 
# Current dir:     /labs/Wegrzyn/Juniper_Pine/BUSCO/NEW
# Date:            Thu Aug  6 16:16:08 2020
# [ok]
