#                                                                                                                  --- full sequence --- -------------- this domain -------------   hmm coord   ali coord   env coord
# target name                                              accession   tlen query name           accession   qlen   E-value  score  bias   #  of  c-Evalue  i-Evalue  score  bias  from    to  from    to  from    to  acc description of target
#                                      ------------------- ---------- ----- -------------------- ---------- ----- --------- ------ ----- --- --- --------- --------- ------ ----- ----- ----- ----- ----- ----- ----- ---- ---------------------
JF1J_TRINITY_DN71562_c4_g1_i1.p1JF1J_TRINITY_DN71562_c4_g1 -            197 206888at3193         -             92      0.22   13.3   0.1   1   1     4e-05       1.4   10.8   0.1    18    79   103   170    94   179 0.70 -
JF1J_TRINITY_DN68910_c4_g2_i1.p1JF1J_TRINITY_DN68910_c4_g2 -            165 206888at3193         -             92      0.56   12.0   1.4   1   2     0.063   2.2e+03    0.5   0.1    36    51    51    66    48    93 0.74 -
JF1J_TRINITY_DN68910_c4_g2_i1.p1JF1J_TRINITY_DN68910_c4_g2 -            165 206888at3193         -             92      0.56   12.0   1.4   2   2   6.6e-05       2.3   10.1   0.1    31    69   103   141    89   159 0.86 -
#
# Program:         hmmsearch
# Version:         3.2.1 (June 2018)
# Pipeline mode:   SEARCH
# Query file:      /isg/shared/databases/BUSCO/odb10/embryophyta_odb10/hmms/206888at3193.hmm
# Target file:     Juniper_final_annotations_no_contam_lvl0.faa
# Option settings: /usr/local/bin/hmmsearch --domtblout /labs/Wegrzyn/Juniper_Pine/BUSCO/NEW/busco_juniper/run_embryophyta_odb10/hmmer_output/206888at3193.out --cpu 1 /isg/shared/databases/BUSCO/odb10/embryophyta_odb10/hmms/206888at3193.hmm Juniper_final_annotations_no_contam_lvl0.faa 
# Current dir:     /labs/Wegrzyn/Juniper_Pine/BUSCO/NEW
# Date:            Thu Aug  6 16:16:14 2020
# [ok]
