#                                                                                                                   --- full sequence --- -------------- this domain -------------   hmm coord   ali coord   env coord
# target name                                               accession   tlen query name           accession   qlen   E-value  score  bias   #  of  c-Evalue  i-Evalue  score  bias  from    to  from    to  from    to  acc description of target
#                                       ------------------- ---------- ----- -------------------- ---------- ----- --------- ------ ----- --- --- --------- --------- ------ ----- ----- ----- ----- ----- ----- ----- ---- ---------------------
JF1J_TRINITY_DN62296_c0_g1_i5.p1JF1J_TRINITY_DN62296_c0_g1  -            117 206860at3193         -             84     2e-44  151.4   0.4   1   1   4.3e-48   4.3e-44  150.4   0.4     1    84    23   115    23   115 0.95 -
JF3J_TRINITY_DN70710_c1_g1_i13.p1JF3J_TRINITY_DN70710_c1_g1 -            207 206860at3193         -             84   2.9e-32  112.5   0.1   1   2     0.019   1.9e+02    4.1   0.0     7    23     7    23     2    30 0.83 -
JF3J_TRINITY_DN70710_c1_g1_i13.p1JF3J_TRINITY_DN70710_c1_g1 -            207 206860at3193         -             84   2.9e-32  112.5   0.1   2   2   2.9e-34   2.9e-30  106.0   0.1     1    84    31   123    31   123 0.91 -
JF3A_TRINITY_DN52759_c0_g1_i9.p1JF3A_TRINITY_DN52759_c0_g1  -            224 206860at3193         -             84   8.8e-31  107.7   0.1   1   2      0.89   8.8e+03   -1.3   0.0    16    35    47    66    33    69 0.78 -
JF3A_TRINITY_DN52759_c0_g1_i9.p1JF3A_TRINITY_DN52759_c0_g1  -            224 206860at3193         -             84   8.8e-31  107.7   0.1   2   2   3.5e-34   3.5e-30  105.8   0.1     1    84    91   183    91   183 0.91 -
JF1A_TRINITY_DN67310_c2_g1_i4.p1JF1A_TRINITY_DN67310_c2_g1  -            311 206860at3193         -             84   2.1e-30  106.5   0.1   1   2       1.6   1.6e+04   -2.1   0.0    16    34    57    75    44    78 0.79 -
JF1A_TRINITY_DN67310_c2_g1_i4.p1JF1A_TRINITY_DN67310_c2_g1  -            311 206860at3193         -             84   2.1e-30  106.5   0.1   2   2   7.1e-34     7e-30  104.8   0.1     1    84   101   193   101   193 0.91 -
JF1J_TRINITY_DN63072_c1_g1_i4.p1JF1J_TRINITY_DN63072_c1_g1  -            311 206860at3193         -             84      0.11   14.4   0.0   1   2         1     1e+04   -1.4   0.0    71    81    18    28     7    31 0.73 -
JF1J_TRINITY_DN63072_c1_g1_i4.p1JF1J_TRINITY_DN63072_c1_g1  -            311 206860at3193         -             84      0.11   14.4   0.0   2   2   4.2e-05      0.42   12.6   0.0     9    50    36    79    29   110 0.78 -
JF1J_TRINITY_DN63072_c1_g1_i6.p1JF1J_TRINITY_DN63072_c1_g1  -            311 206860at3193         -             84      0.12   14.4   0.0   1   2         1     1e+04   -1.4   0.0    71    81    18    28     7    31 0.73 -
JF1J_TRINITY_DN63072_c1_g1_i6.p1JF1J_TRINITY_DN63072_c1_g1  -            311 206860at3193         -             84      0.12   14.4   0.0   2   2   4.2e-05      0.42   12.6   0.0     9    50    36    79    29   110 0.78 -
JF1A_TRINITY_DN66274_c1_g5_i3.p1JF1A_TRINITY_DN66274_c1_g5  -            163 206860at3193         -             84      0.45   12.5   0.0   1   2   0.00011       1.1   11.2   0.0     8    47    43    84    36    95 0.82 -
JF1A_TRINITY_DN66274_c1_g5_i3.p1JF1A_TRINITY_DN66274_c1_g5  -            163 206860at3193         -             84      0.45   12.5   0.0   2   2       4.8   4.8e+04   -3.6   0.0    11    29   114   132   111   135 0.67 -
#
# Program:         hmmsearch
# Version:         3.2.1 (June 2018)
# Pipeline mode:   SEARCH
# Query file:      /isg/shared/databases/BUSCO/odb10/embryophyta_odb10/hmms/206860at3193.hmm
# Target file:     Juniper_final_annotations_no_contam_lvl0.faa
# Option settings: /usr/local/bin/hmmsearch --domtblout /labs/Wegrzyn/Juniper_Pine/BUSCO/NEW/busco_juniper/run_embryophyta_odb10/hmmer_output/206860at3193.out --cpu 1 /isg/shared/databases/BUSCO/odb10/embryophyta_odb10/hmms/206860at3193.hmm Juniper_final_annotations_no_contam_lvl0.faa 
# Current dir:     /labs/Wegrzyn/Juniper_Pine/BUSCO/NEW
# Date:            Thu Aug  6 16:16:13 2020
# [ok]
