#                                                                                                                   --- full sequence --- -------------- this domain -------------   hmm coord   ali coord   env coord
# target name                                               accession   tlen query name           accession   qlen   E-value  score  bias   #  of  c-Evalue  i-Evalue  score  bias  from    to  from    to  from    to  acc description of target
#                                       ------------------- ---------- ----- -------------------- ---------- ----- --------- ------ ----- --- --- --------- --------- ------ ----- ----- ----- ----- ----- ----- ----- ---- ---------------------
JF1A_TRINITY_DN57071_c0_g1_i1.p1JF1A_TRINITY_DN57071_c0_g1  -            116 209041at3193         -            119   1.4e-29  104.1   0.1   1   1   8.8e-33     1e-28  101.3   0.1    26   115     1   111     1   114 0.86 -
JF1J_TRINITY_DN42667_c0_g1_i1.p1JF1J_TRINITY_DN42667_c0_g1  -            116 209041at3193         -            119     2e-11   45.5   0.3   1   1   1.5e-14   1.7e-10   42.5   0.3    42    89     1    59     1    94 0.84 -
JF3A_TRINITY_DN54844_c4_g3_i1.p1JF3A_TRINITY_DN54844_c4_g3  -            122 209041at3193         -            119     0.036   15.7   0.1   1   2    0.0007       8.1    8.1   0.0    96   116    26    46    22    49 0.87 -
JF3A_TRINITY_DN54844_c4_g3_i1.p1JF3A_TRINITY_DN54844_c4_g3  -            122 209041at3193         -            119     0.036   15.7   0.1   2   2    0.0041        48    5.6   0.0    96   112    83    99    79   103 0.87 -
JF2A_TRINITY_DN4897_c0_g1_i1.p1JF2A_TRINITY_DN4897_c0_g1    -            222 209041at3193         -            119      0.35   12.4   0.0   1   1   0.00055       6.3    8.4   0.0    28    81   131   186   118   206 0.74 -
JF1A_TRINITY_DN63305_c0_g3_i5.p1JF1A_TRINITY_DN63305_c0_g3  -            249 209041at3193         -            119      0.51   11.9   0.0   1   2    0.0084        97    4.6   0.0    40    65    52    77    43    83 0.83 -
JF1A_TRINITY_DN63305_c0_g3_i5.p1JF1A_TRINITY_DN63305_c0_g3  -            249 209041at3193         -            119      0.51   11.9   0.0   2   2    0.0079        91    4.7   0.0    40    65   189   214   175   220 0.83 -
JF1A_TRINITY_DN67240_c1_g1_i21.p1JF1A_TRINITY_DN67240_c1_g1 -            285 209041at3193         -            119      0.67   11.6   0.2   1   2    0.0083        96    4.6   0.0    21    35    24    38    14    46 0.76 -
JF1A_TRINITY_DN67240_c1_g1_i21.p1JF1A_TRINITY_DN67240_c1_g1 -            285 209041at3193         -            119      0.67   11.6   0.2   2   2    0.0079        92    4.7   0.0    22    35   207   220   194   228 0.76 -
#
# Program:         hmmsearch
# Version:         3.2.1 (June 2018)
# Pipeline mode:   SEARCH
# Query file:      /isg/shared/databases/BUSCO/odb10/embryophyta_odb10/hmms/209041at3193.hmm
# Target file:     Juniper_final_annotations_no_contam_lvl0.faa
# Option settings: /usr/local/bin/hmmsearch --domtblout /labs/Wegrzyn/Juniper_Pine/BUSCO/NEW/busco_juniper/run_embryophyta_odb10/hmmer_output/209041at3193.out --cpu 1 /isg/shared/databases/BUSCO/odb10/embryophyta_odb10/hmms/209041at3193.hmm Juniper_final_annotations_no_contam_lvl0.faa 
# Current dir:     /labs/Wegrzyn/Juniper_Pine/BUSCO/NEW
# Date:            Thu Aug  6 16:16:17 2020
# [ok]
