#                                                                                                                  --- full sequence --- -------------- this domain -------------   hmm coord   ali coord   env coord
# target name                                              accession   tlen query name           accession   qlen   E-value  score  bias   #  of  c-Evalue  i-Evalue  score  bias  from    to  from    to  from    to  acc description of target
#                                      ------------------- ---------- ----- -------------------- ---------- ----- --------- ------ ----- --- --- --------- --------- ------ ----- ----- ----- ----- ----- ----- ----- ---- ---------------------
JF1A_TRINITY_DN66864_c1_g1_i2.p1JF1A_TRINITY_DN66864_c1_g1 -            503 21064at3193          -            586  4.5e-211  704.1   9.0   1   2    2e-167  5.7e-164  548.6   1.1   188   439     1   254     1   261 0.99 -
JF1A_TRINITY_DN66864_c1_g1_i2.p1JF1A_TRINITY_DN66864_c1_g1 -            503 21064at3193          -            586  4.5e-211  704.1   9.0   2   2   9.3e-50   2.7e-46  160.0   1.4   428   554   272   422   263   426 0.84 -
JF1J_TRINITY_DN69229_c1_g1_i8.p1JF1J_TRINITY_DN69229_c1_g1 -            262 21064at3193          -            586  8.1e-106  356.6   6.0   1   2   1.1e-84   3.3e-81  275.3   0.3   315   439    15   139     3   149 0.95 -
JF1J_TRINITY_DN69229_c1_g1_i8.p1JF1J_TRINITY_DN69229_c1_g1 -            262 21064at3193          -            586  8.1e-106  356.6   6.0   2   2   1.2e-26   3.4e-23   83.7   1.1   428   524   157   251   149   254 0.85 -
JF1A_TRINITY_DN61972_c3_g1_i2.p1JF1A_TRINITY_DN61972_c3_g1 -            349 21064at3193          -            586   1.2e-87  296.5   0.1   1   1   5.3e-91   1.5e-87  296.2   0.1   207   490    50   329    11   348 0.94 -
JF1A_TRINITY_DN68517_c2_g4_i1.p1JF1A_TRINITY_DN68517_c2_g4 -            321 21064at3193          -            586   3.9e-87  294.9   0.0   1   1   1.6e-90   4.7e-87  294.6   0.0   228   521     2   300     1   317 0.91 -
JF3A_TRINITY_DN39466_c0_g1_i2.p1JF3A_TRINITY_DN39466_c0_g1 -            136 21064at3193          -            586   4.8e-79  268.2   0.9   1   1   1.8e-82   5.2e-79  268.0   0.9    57   188     1   136     1   136 0.97 -
JF1A_TRINITY_DN67564_c6_g1_i3.p1JF1A_TRINITY_DN67564_c6_g1 -            166 21064at3193          -            586   4.5e-64  218.7   0.1   1   1   1.8e-67   5.3e-64  218.5   0.1   231   387    10   166     2   166 0.98 -
JF2J_TRINITY_DN21817_c0_g1_i3.p1JF2J_TRINITY_DN21817_c0_g1 -            125 21064at3193          -            586   1.2e-59  204.2   0.1   1   1   4.4e-63   1.3e-59  204.0   0.1   227   326     1   100     1   113 0.97 -
JF1A_TRINITY_DN56719_c0_g1_i2.p1JF1A_TRINITY_DN56719_c0_g1 -            172 21064at3193          -            586   1.2e-51  177.7   0.3   1   1   4.6e-55   1.3e-51  177.5   0.3   302   473     2   171     1   172 0.94 -
JF3A_TRINITY_DN56427_c1_g1_i7.p1JF3A_TRINITY_DN56427_c1_g1 -            213 21064at3193          -            586   6.5e-43  148.9   9.1   1   2     2e-07   0.00058   20.3   0.3   421   439     1    19     1    28 0.95 -
JF3A_TRINITY_DN56427_c1_g1_i7.p1JF3A_TRINITY_DN56427_c1_g1 -            213 21064at3193          -            586   6.5e-43  148.9   9.1   2   2   3.5e-41     1e-37  131.7   3.6   427   554    36   167    28   171 0.83 -
JF1A_TRINITY_DN65782_c0_g5_i2.p1JF1A_TRINITY_DN65782_c0_g5 -            132 21064at3193          -            586   1.3e-38  134.7   0.1   1   1   5.4e-42   1.6e-38  134.4   0.1   340   438     2   100     1   102 0.98 -
JF2A_TRINITY_DN40431_c0_g1_i1.p1JF2A_TRINITY_DN40431_c0_g1 -            101 21064at3193          -            586   8.5e-30  105.6   0.5   1   1   3.4e-33   9.8e-30  105.3   0.5   453   529     2    86     1    95 0.89 -
JF2A_TRINITY_DN4318_c0_g1_i2.p1JF2A_TRINITY_DN4318_c0_g1   -            286 21064at3193          -            586   3.6e-24   87.0   1.5   1   1   1.9e-26   5.5e-23   83.1   1.2   379   526     1   176     1   195 0.79 -
JF2A_TRINITY_DN26660_c0_g1_i1.p1JF2A_TRINITY_DN26660_c0_g1 -            175 21064at3193          -            586   2.2e-15   57.9   0.0   1   1   8.9e-19   2.6e-15   57.7   0.0    48   181    11   148     3   170 0.87 -
JF1A_TRINITY_DN68517_c2_g1_i1.p1JF1A_TRINITY_DN68517_c2_g1 -            160 21064at3193          -            586   9.3e-13   49.3   0.0   1   1   3.3e-16   9.5e-13   49.2   0.0   117   194    23   103     7   142 0.83 -
JF1A_TRINITY_DN61972_c3_g7_i1.p1JF1A_TRINITY_DN61972_c3_g7 -            207 21064at3193          -            586   1.5e-12   48.6   0.0   1   1     6e-16   1.7e-12   48.4   0.0    52   183    49   181     2   187 0.79 -
JF2A_TRINITY_DN662_c0_g1_i1.p1JF2A_TRINITY_DN662_c0_g1     -            149 21064at3193          -            586     3e-10   41.0   0.0   1   1   1.2e-13   3.4e-10   40.8   0.0   126   213    55   144    30   148 0.87 -
JF2J_TRINITY_DN15611_c0_g1_i2.p1JF2J_TRINITY_DN15611_c0_g1 -            117 21064at3193          -            586     1e-08   36.0   0.0   1   1   4.1e-12   1.2e-08   35.7   0.0     1    60    40   117    40   117 0.81 -
JF1A_TRINITY_DN67964_c3_g2_i2.p1JF1A_TRINITY_DN67964_c3_g2 -            106 21064at3193          -            586   4.8e-05   23.8   0.0   1   1   1.7e-08     5e-05   23.8   0.0   110   180    35   104     8   106 0.82 -
JF1A_TRINITY_DN67171_c3_g2_i2.p1JF1A_TRINITY_DN67171_c3_g2 -            134 21064at3193          -            586   0.00015   22.2   0.2   1   1   9.5e-08   0.00027   21.3   0.2    43   153     9   129     3   134 0.72 -
JF2A_TRINITY_DN44547_c0_g1_i1.p1JF2A_TRINITY_DN44547_c0_g1 -            100 21064at3193          -            586    0.0045   17.3   0.1   1   1   1.6e-06    0.0045   17.3   0.1   480   534     2    71     1    97 0.69 -
JF1J_TRINITY_DN72687_c3_g1_i9.p1JF1J_TRINITY_DN72687_c3_g1 -            119 21064at3193          -            586    0.0068   16.7   0.0   1   1   2.3e-06    0.0068   16.7   0.0    52   106    43    96     4   106 0.78 -
JF1A_TRINITY_DN62795_c0_g1_i1.p1JF1A_TRINITY_DN62795_c0_g1 -            126 21064at3193          -            586    0.0084   16.4   0.0   1   1   2.9e-06    0.0084   16.4   0.0   493   536     3    51     1   100 0.78 -
JF2A_TRINITY_DN39346_c0_g1_i1.p1JF2A_TRINITY_DN39346_c0_g1 -            362 21064at3193          -            586      0.11   12.7   0.0   1   1   5.1e-05      0.15   12.3   0.0   336   418   154   240   125   256 0.78 -
JF1A_TRINITY_DN63169_c0_g6_i3.p1JF1A_TRINITY_DN63169_c0_g6 -            245 21064at3193          -            586      0.48   10.6   0.1   1   1   0.00022      0.64   10.2   0.1   262   308    16    63    10    79 0.80 -
#
# Program:         hmmsearch
# Version:         3.2.1 (June 2018)
# Pipeline mode:   SEARCH
# Query file:      /isg/shared/databases/BUSCO/odb10/embryophyta_odb10/hmms/21064at3193.hmm
# Target file:     Juniper_final_annotations_no_contam_lvl0.faa
# Option settings: /usr/local/bin/hmmsearch --domtblout /labs/Wegrzyn/Juniper_Pine/BUSCO/NEW/busco_juniper/run_embryophyta_odb10/hmmer_output/21064at3193.out --cpu 1 /isg/shared/databases/BUSCO/odb10/embryophyta_odb10/hmms/21064at3193.hmm Juniper_final_annotations_no_contam_lvl0.faa 
# Current dir:     /labs/Wegrzyn/Juniper_Pine/BUSCO/NEW
# Date:            Thu Aug  6 16:16:21 2020
# [ok]
