#                                                                                                                   --- full sequence --- -------------- this domain -------------   hmm coord   ali coord   env coord
# target name                                               accession   tlen query name           accession   qlen   E-value  score  bias   #  of  c-Evalue  i-Evalue  score  bias  from    to  from    to  from    to  acc description of target
#                                       ------------------- ---------- ----- -------------------- ---------- ----- --------- ------ ----- --- --- --------- --------- ------ ----- ----- ----- ----- ----- ----- ----- ---- ---------------------
JF1A_TRINITY_DN62154_c0_g2_i1.p1JF1A_TRINITY_DN62154_c0_g2  -            180 214962at3193         -             70   2.5e-34  119.0   0.1   1   1   1.5e-38   3.6e-34  118.6   0.1     1    70   101   171   101   171 0.98 -
JF3J_TRINITY_DN71891_c0_g2_i12.p1JF3J_TRINITY_DN71891_c0_g2 -            162 214962at3193         -             70     0.042   15.8   0.0   1   2    0.0019        45    6.1   0.0    29    50     2    23     1    30 0.88 -
JF3J_TRINITY_DN71891_c0_g2_i12.p1JF3J_TRINITY_DN71891_c0_g2 -            162 214962at3193         -             70     0.042   15.8   0.0   2   2   0.00071        16    7.5   0.0    28    50   100   122    89   129 0.84 -
JF1J_TRINITY_DN72444_c2_g1_i12.p1JF1J_TRINITY_DN72444_c2_g1 -            163 214962at3193         -             70      0.31   13.1   0.0   1   2    0.0031        71    5.5   0.0    16    37     6    27     3    35 0.89 -
JF1J_TRINITY_DN72444_c2_g1_i12.p1JF1J_TRINITY_DN72444_c2_g1 -            163 214962at3193         -             70      0.31   13.1   0.0   2   2    0.0034        80    5.3   0.0    15    37   123   145   119   151 0.91 -
#
# Program:         hmmsearch
# Version:         3.2.1 (June 2018)
# Pipeline mode:   SEARCH
# Query file:      /isg/shared/databases/BUSCO/odb10/embryophyta_odb10/hmms/214962at3193.hmm
# Target file:     Juniper_final_annotations_no_contam_lvl0.faa
# Option settings: /usr/local/bin/hmmsearch --domtblout /labs/Wegrzyn/Juniper_Pine/BUSCO/NEW/busco_juniper/run_embryophyta_odb10/hmmer_output/214962at3193.out --cpu 1 /isg/shared/databases/BUSCO/odb10/embryophyta_odb10/hmms/214962at3193.hmm Juniper_final_annotations_no_contam_lvl0.faa 
# Current dir:     /labs/Wegrzyn/Juniper_Pine/BUSCO/NEW
# Date:            Thu Aug  6 16:16:28 2020
# [ok]
