#                                                                                                                   --- full sequence --- -------------- this domain -------------   hmm coord   ali coord   env coord
# target name                                               accession   tlen query name           accession   qlen   E-value  score  bias   #  of  c-Evalue  i-Evalue  score  bias  from    to  from    to  from    to  acc description of target
#                                       ------------------- ---------- ----- -------------------- ---------- ----- --------- ------ ----- --- --- --------- --------- ------ ----- ----- ----- ----- ----- ----- ----- ---- ---------------------
JF2A_TRINITY_DN6370_c0_g1_i1.p1JF2A_TRINITY_DN6370_c0_g1    -            166 218126at3193         -            115   2.6e-16   61.8   0.4   1   4   3.4e-16   5.9e-12   47.7   0.0    45   100     9    64     7    68 0.95 -
JF2A_TRINITY_DN6370_c0_g1_i1.p1JF2A_TRINITY_DN6370_c0_g1    -            166 218126at3193         -            115   2.6e-16   61.8   0.4   2   4      0.24   4.2e+03   -0.1   0.0   101   115    88   102    84   102 0.86 -
JF2A_TRINITY_DN6370_c0_g1_i1.p1JF2A_TRINITY_DN6370_c0_g1    -            166 218126at3193         -            115   2.6e-16   61.8   0.4   3   4    0.0014        25    7.0   0.0    71    99    98   126    89   131 0.86 -
JF2A_TRINITY_DN6370_c0_g1_i1.p1JF2A_TRINITY_DN6370_c0_g1    -            166 218126at3193         -            115   2.6e-16   61.8   0.4   4   4     0.024   4.1e+02    3.1   0.0   103   115   153   165   138   165 0.79 -
JF1A_TRINITY_DN66575_c1_g1_i13.p1JF1A_TRINITY_DN66575_c1_g1 -            117 218126at3193         -            115   4.3e-12   48.2   0.7   1   1   3.4e-16     6e-12   47.7   0.7     2    46    52    98    51   103 0.88 -
JF1A_TRINITY_DN64195_c1_g5_i1.p1JF1A_TRINITY_DN64195_c1_g5  -            236 218126at3193         -            115      0.18   13.9   1.0   1   2   1.8e-05      0.31   13.2   0.4     9    37    74   102    60   116 0.74 -
JF1A_TRINITY_DN64195_c1_g5_i1.p1JF1A_TRINITY_DN64195_c1_g5  -            236 218126at3193         -            115      0.18   13.9   1.0   2   2         2   3.5e+04   -3.1   0.0    75    94   203   224   201   233 0.60 -
JF3J_TRINITY_DN72590_c0_g1_i1.p1JF3J_TRINITY_DN72590_c0_g1  -            144 218126at3193         -            115      0.75   11.9   0.3   1   1   7.1e-05       1.2   11.3   0.3    13    54    53    94    48    97 0.94 -
#
# Program:         hmmsearch
# Version:         3.2.1 (June 2018)
# Pipeline mode:   SEARCH
# Query file:      /isg/shared/databases/BUSCO/odb10/embryophyta_odb10/hmms/218126at3193.hmm
# Target file:     Juniper_final_annotations_no_contam_lvl0.faa
# Option settings: /usr/local/bin/hmmsearch --domtblout /labs/Wegrzyn/Juniper_Pine/BUSCO/NEW/busco_juniper/run_embryophyta_odb10/hmmer_output/218126at3193.out --cpu 1 /isg/shared/databases/BUSCO/odb10/embryophyta_odb10/hmms/218126at3193.hmm Juniper_final_annotations_no_contam_lvl0.faa 
# Current dir:     /labs/Wegrzyn/Juniper_Pine/BUSCO/NEW
# Date:            Thu Aug  6 16:16:47 2020
# [ok]
