#                                                                                                                   --- full sequence --- -------------- this domain -------------   hmm coord   ali coord   env coord
# target name                                               accession   tlen query name           accession   qlen   E-value  score  bias   #  of  c-Evalue  i-Evalue  score  bias  from    to  from    to  from    to  acc description of target
#                                       ------------------- ---------- ----- -------------------- ---------- ----- --------- ------ ----- --- --- --------- --------- ------ ----- ----- ----- ----- ----- ----- ----- ---- ---------------------
JF1A_TRINITY_DN58635_c0_g1_i2.p1JF1A_TRINITY_DN58635_c0_g1  -            172 21873at3193          -            937   2.4e-66  226.2   5.7   1   1     6e-70   3.2e-66  225.8   5.7   157   311     6   172     3   172 0.90 -
JF1A_TRINITY_DN59541_c0_g1_i1.p1JF1A_TRINITY_DN59541_c0_g1  -            255 21873at3193          -            937   4.1e-58  199.0   2.0   1   2   3.8e-10     2e-06   27.9   0.0   763   816     2    56     1    59 0.88 -
JF1A_TRINITY_DN59541_c0_g1_i1.p1JF1A_TRINITY_DN59541_c0_g1  -            255 21873at3193          -            937   4.1e-58  199.0   2.0   2   2     2e-53     1e-49  171.2   0.6   485   658    59   244    55   249 0.87 -
JF2A_TRINITY_DN3468_c0_g1_i1.p1JF2A_TRINITY_DN3468_c0_g1    -            127 21873at3193          -            937   9.4e-29  101.8   0.4   1   1     2e-32     1e-28  101.7   0.4   454   570     1   127     1   127 0.86 -
JF1A_TRINITY_DN66597_c4_g6_i1.p1JF1A_TRINITY_DN66597_c4_g6  -            344 21873at3193          -            937     1e-07   32.2   2.6   1   3    0.0092        49    3.5   0.2   185   266     9    91     4    99 0.84 -
JF1A_TRINITY_DN66597_c4_g6_i1.p1JF1A_TRINITY_DN66597_c4_g6  -            344 21873at3193          -            937     1e-07   32.2   2.6   2   3    0.0025        13    5.3   0.0   838   869   122   155   112   164 0.83 -
JF1A_TRINITY_DN66597_c4_g6_i1.p1JF1A_TRINITY_DN66597_c4_g6  -            344 21873at3193          -            937     1e-07   32.2   2.6   3   3   3.2e-08   0.00017   21.5   0.1   824   902   258   333   223   344 0.84 -
JF1J_TRINITY_DN73480_c0_g1_i1.p1JF1J_TRINITY_DN73480_c0_g1  -            121 21873at3193          -            937   1.9e-05   24.7   0.1   1   1   3.7e-09     2e-05   24.6   0.1   826   903    37   111    24   121 0.83 -
JF1A_TRINITY_DN68023_c1_g1_i19.p1JF1A_TRINITY_DN68023_c1_g1 -            753 21873at3193          -            937   4.6e-05   23.4   1.2   1   2   0.00014      0.73    9.5   0.3   817   872   253   309   181   323 0.64 -
JF1A_TRINITY_DN68023_c1_g1_i19.p1JF1A_TRINITY_DN68023_c1_g1 -            753 21873at3193          -            937   4.6e-05   23.4   1.2   2   2   2.1e-05      0.11   12.2   0.0   609   669   544   604   527   641 0.83 -
JF1A_TRINITY_DN60347_c0_g1_i1.p1JF1A_TRINITY_DN60347_c0_g1  -            362 21873at3193          -            937   0.00021   21.2   6.8   1   2    0.0011       5.8    6.5   1.4   836   892     3    66     1    80 0.78 -
JF1A_TRINITY_DN60347_c0_g1_i1.p1JF1A_TRINITY_DN60347_c0_g1  -            362 21873at3193          -            937   0.00021   21.2   6.8   2   2   1.1e-06    0.0061   16.4   0.7   790   910   104   223    68   233 0.71 -
JF2A_TRINITY_DN37812_c0_g1_i3.p1JF2A_TRINITY_DN37812_c0_g1  -            294 21873at3193          -            937   0.00085   19.2   0.7   1   1   2.1e-07    0.0011   18.9   0.7   183   307    65   182    36   187 0.79 -
JF2A_TRINITY_DN41909_c0_g2_i2.p1JF2A_TRINITY_DN41909_c0_g2  -            139 21873at3193          -            937    0.0081   16.0   0.3   1   1   1.8e-06    0.0096   15.7   0.3   389   426   101   139    91   139 0.84 -
JF3A_TRINITY_DN54549_c6_g1_i2.p1JF3A_TRINITY_DN54549_c6_g1  -            171 21873at3193          -            937     0.019   14.8   0.0   1   1   1.5e-05     0.078   12.7   0.0   773   896    37   159    20   165 0.72 -
JF1A_TRINITY_DN11939_c0_g1_i1.p1JF1A_TRINITY_DN11939_c0_g1  -            161 21873at3193          -            937     0.083   12.6  10.3   1   4    0.0022        12    5.5   1.7   133   180     6    53     1    57 0.82 -
JF1A_TRINITY_DN11939_c0_g1_i1.p1JF1A_TRINITY_DN11939_c0_g1  -            161 21873at3193          -            937     0.083   12.6  10.3   2   4   4.3e-05      0.23   11.2   1.5   838   895    46   100    39   105 0.54 -
JF1A_TRINITY_DN11939_c0_g1_i1.p1JF1A_TRINITY_DN11939_c0_g1  -            161 21873at3193          -            937     0.083   12.6  10.3   3   4     0.032   1.7e+02    1.7   0.1   605   628    99   122    94   152 0.83 -
JF1A_TRINITY_DN11939_c0_g1_i1.p1JF1A_TRINITY_DN11939_c0_g1  -            161 21873at3193          -            937     0.083   12.6  10.3   4   4       0.2   1.1e+03   -1.0   0.0   606   627   133   154   122   160 0.79 -
JF1A_TRINITY_DN66274_c1_g2_i3.p1JF1A_TRINITY_DN66274_c1_g2  -            250 21873at3193          -            937       0.3   10.8   0.0   1   1   6.4e-05      0.34   10.6   0.0   785   856    64   134     4   143 0.73 -
JF3A_TRINITY_DN49452_c0_g1_i1.p1JF3A_TRINITY_DN49452_c0_g1  -            102 21873at3193          -            937      0.36   10.5   0.0   1   1   7.8e-05      0.42   10.3   0.0   253   326    21    94    12   100 0.87 -
#
# Program:         hmmsearch
# Version:         3.2.1 (June 2018)
# Pipeline mode:   SEARCH
# Query file:      /isg/shared/databases/BUSCO/odb10/embryophyta_odb10/hmms/21873at3193.hmm
# Target file:     Juniper_final_annotations_no_contam_lvl0.faa
# Option settings: /usr/local/bin/hmmsearch --domtblout /labs/Wegrzyn/Juniper_Pine/BUSCO/NEW/busco_juniper/run_embryophyta_odb10/hmmer_output/21873at3193.out --cpu 1 /isg/shared/databases/BUSCO/odb10/embryophyta_odb10/hmms/21873at3193.hmm Juniper_final_annotations_no_contam_lvl0.faa 
# Current dir:     /labs/Wegrzyn/Juniper_Pine/BUSCO/NEW
# Date:            Thu Aug  6 16:16:49 2020
# [ok]
