#                                                                                                                  --- full sequence --- -------------- this domain -------------   hmm coord   ali coord   env coord
# target name                                              accession   tlen query name           accession   qlen   E-value  score  bias   #  of  c-Evalue  i-Evalue  score  bias  from    to  from    to  from    to  acc description of target
#                                      ------------------- ---------- ----- -------------------- ---------- ----- --------- ------ ----- --- --- --------- --------- ------ ----- ----- ----- ----- ----- ----- ----- ---- ---------------------
JF2A_TRINITY_DN40385_c0_g1_i3.p1JF2A_TRINITY_DN40385_c0_g1 -            696 23064at3193          -            646  2.5e-227  758.2   0.1   1   3   2.1e-05      0.16   12.2   0.2    36    54   100   118    57   129 0.74 -
JF2A_TRINITY_DN40385_c0_g1_i3.p1JF2A_TRINITY_DN40385_c0_g1 -            696 23064at3193          -            646  2.5e-227  758.2   0.1   2   3     0.011        88    3.1   0.0    48    71   134   157   131   162 0.92 -
JF2A_TRINITY_DN40385_c0_g1_i3.p1JF2A_TRINITY_DN40385_c0_g1 -            696 23064at3193          -            646  2.5e-227  758.2   0.1   3   3  1.4e-223  1.1e-219  732.9   0.0    70   511   194   696   175   696 0.90 -
JF1A_TRINITY_DN63999_c4_g2_i8.p1JF1A_TRINITY_DN63999_c4_g2 -            359 23064at3193          -            646  3.2e-128  430.8   2.0   1   1  5.9e-131  4.6e-127  426.9   2.0   324   645     2   357     1   358 0.88 -
JF1J_TRINITY_DN68915_c1_g2_i5.p1JF1J_TRINITY_DN68915_c1_g2 -            228 23064at3193          -            646  6.6e-102  343.8   4.8   1   3   8.6e-19   6.6e-15   56.4   0.2   163   196     1    34     1    35 0.98 -
JF1J_TRINITY_DN68915_c1_g2_i5.p1JF1J_TRINITY_DN68915_c1_g2 -            228 23064at3193          -            646  6.6e-102  343.8   4.8   2   3   1.2e-07   0.00096   19.5   0.1   308   329    34    55    33    56 0.92 -
JF1J_TRINITY_DN68915_c1_g2_i5.p1JF1J_TRINITY_DN68915_c1_g2 -            228 23064at3193          -            646  6.6e-102  343.8   4.8   3   3   5.9e-84   4.6e-80  271.6   0.1   197   358    55   221    54   226 0.95 -
JF3A_TRINITY_DN45298_c0_g1_i2.p1JF3A_TRINITY_DN45298_c0_g1 -            188 23064at3193          -            646   2.7e-17   64.2   0.0   1   3   3.8e-06     0.029   14.6   0.0    36    54    37    55    10    66 0.74 -
JF3A_TRINITY_DN45298_c0_g1_i2.p1JF3A_TRINITY_DN45298_c0_g1 -            188 23064at3193          -            646   2.7e-17   64.2   0.0   2   3    0.0021        16    5.5   0.0    47    71    70    94    67   100 0.92 -
JF3A_TRINITY_DN45298_c0_g1_i2.p1JF3A_TRINITY_DN45298_c0_g1 -            188 23064at3193          -            646   2.7e-17   64.2   0.0   3   3   4.2e-14   3.2e-10   40.9   0.0    70   110   131   172   112   187 0.78 -
JF1J_TRINITY_DN67582_c3_g2_i7.p1JF1J_TRINITY_DN67582_c3_g2 -            383 23064at3193          -            646   7.7e-07   29.7   0.0   1   1   1.5e-10   1.1e-06   29.2   0.0   186   416   111   353    66   367 0.72 -
JF1A_TRINITY_DN67206_c0_g5_i2.p1JF1A_TRINITY_DN67206_c0_g5 -            100 23064at3193          -            646    0.0078   16.5   0.0   1   1   1.1e-06    0.0087   16.3   0.0   242   291    22    71     7    87 0.80 -
JF1A_TRINITY_DN61367_c1_g1_i1.p1JF1A_TRINITY_DN61367_c1_g1 -            296 23064at3193          -            646     0.013   15.7   0.0   1   1   2.3e-06     0.017   15.3   0.0   200   277   172   246   163   266 0.84 -
JF1A_TRINITY_DN67206_c0_g5_i1.p1JF1A_TRINITY_DN67206_c0_g5 -            184 23064at3193          -            646     0.046   13.9   0.0   1   1   7.5e-06     0.058   13.6   0.0   242   289    22    69     7    87 0.84 -
JF2A_TRINITY_DN22289_c0_g1_i1.p1JF2A_TRINITY_DN22289_c0_g1 -            214 23064at3193          -            646      0.39   10.9   0.0   1   1   6.5e-05       0.5   10.5   0.0   470   508    41    79    34   103 0.83 -
#
# Program:         hmmsearch
# Version:         3.2.1 (June 2018)
# Pipeline mode:   SEARCH
# Query file:      /isg/shared/databases/BUSCO/odb10/embryophyta_odb10/hmms/23064at3193.hmm
# Target file:     Juniper_final_annotations_no_contam_lvl0.faa
# Option settings: /usr/local/bin/hmmsearch --domtblout /labs/Wegrzyn/Juniper_Pine/BUSCO/NEW/busco_juniper/run_embryophyta_odb10/hmmer_output/23064at3193.out --cpu 1 /isg/shared/databases/BUSCO/odb10/embryophyta_odb10/hmms/23064at3193.hmm Juniper_final_annotations_no_contam_lvl0.faa 
# Current dir:     /labs/Wegrzyn/Juniper_Pine/BUSCO/NEW
# Date:            Thu Aug  6 16:17:17 2020
# [ok]
