#                                                                                                                    --- full sequence --- -------------- this domain -------------   hmm coord   ali coord   env coord
# target name                                                accession   tlen query name           accession   qlen   E-value  score  bias   #  of  c-Evalue  i-Evalue  score  bias  from    to  from    to  from    to  acc description of target
#                                        ------------------- ---------- ----- -------------------- ---------- ----- --------- ------ ----- --- --- --------- --------- ------ ----- ----- ----- ----- ----- ----- ----- ---- ---------------------
JF3A_TRINITY_DN55777_c1_g1_i9.p1JF3A_TRINITY_DN55777_c1_g1   -            514 255at3193            -           2073  4.5e-218  728.9  11.6   1   2   4.5e-82   6.9e-79  267.4   0.2   785   953    17   193     1   205 0.92 -
JF3A_TRINITY_DN55777_c1_g1_i9.p1JF3A_TRINITY_DN55777_c1_g1   -            514 255at3193            -           2073  4.5e-218  728.9  11.6   2   2  1.5e-141  2.3e-138  464.6   6.5   955  1207   233   504   212   511 0.91 -
JF1A_TRINITY_DN67938_c1_g2_i6.p1JF1A_TRINITY_DN67938_c1_g2   -            390 255at3193            -           2073  7.2e-202  675.2   2.3   1   1  5.6e-205  8.6e-202  674.9   2.3     3   363     4   380     2   386 0.96 -
JF2A_TRINITY_DN42189_c0_g3_i2.p1JF2A_TRINITY_DN42189_c0_g3   -            440 255at3193            -           2073  1.1e-166  558.5  11.1   1   2   1.5e-75   2.3e-72  245.7   1.2   239   384     9   160     2   171 0.94 -
JF2A_TRINITY_DN42189_c0_g3_i2.p1JF2A_TRINITY_DN42189_c0_g3   -            440 255at3193            -           2073  1.1e-166  558.5  11.1   2   2   8.8e-97   1.4e-93  316.1   3.2   362   586   174   439   161   440 0.88 -
JF2A_TRINITY_DN41457_c1_g3_i1.p1JF2A_TRINITY_DN41457_c1_g3   -            250 255at3193            -           2073  7.1e-159  532.6   0.0   1   1  5.6e-162  8.7e-159  532.3   0.0  1717  1961     3   250     2   250 0.98 -
JF2A_TRINITY_DN39673_c0_g1_i3.p1JF2A_TRINITY_DN39673_c0_g1   -            351 255at3193            -           2073  3.6e-152  510.4   2.3   1   1  2.8e-155  4.3e-152  510.1   2.3  1116  1410     1   330     1   339 0.94 -
JF3A_TRINITY_DN47231_c5_g1_i5.p1JF3A_TRINITY_DN47231_c5_g1   -            219 255at3193            -           2073   6.5e-76  257.5   0.7   1   1   5.1e-79   7.8e-76  257.2   0.7   431   605     9   203     2   214 0.90 -
JF3A_TRINITY_DN55652_c3_g1_i5.p1JF3A_TRINITY_DN55652_c3_g1   -            159 255at3193            -           2073   4.5e-70  238.1   0.2   1   1   3.6e-73   5.6e-70  237.8   0.2   192   320    21   154    14   157 0.96 -
JF3A_TRINITY_DN44638_c0_g1_i2.p1JF3A_TRINITY_DN44638_c0_g1   -            159 255at3193            -           2073     1e-67  230.3   8.6   1   2   2.5e-45   3.9e-42  145.5   0.9  1599  1681     1    85     1    86 0.98 -
JF3A_TRINITY_DN44638_c0_g1_i2.p1JF3A_TRINITY_DN44638_c0_g1   -            159 255at3193            -           2073     1e-67  230.3   8.6   2   2     2e-28   3.1e-25   89.5   1.1  1622  1681    86   147    85   157 0.95 -
JF3J_TRINITY_DN70147_c1_g2_i16.p1JF3J_TRINITY_DN70147_c1_g2  -            178 255at3193            -           2073   2.7e-67  228.9  13.2   1   2   1.4e-34   2.1e-31  109.9   0.7   591   670     2    71     1    72 0.97 -
JF3J_TRINITY_DN70147_c1_g2_i16.p1JF3J_TRINITY_DN70147_c1_g2  -            178 255at3193            -           2073   2.7e-67  228.9  13.2   2   2   3.8e-38   5.9e-35  121.7   5.8   535   624    71   177    70   177 0.83 -
JF1J_TRINITY_DN67143_c0_g5_i2.p1JF1J_TRINITY_DN67143_c0_g5   -            153 255at3193            -           2073   3.9e-67  228.4   0.2   1   1   2.9e-70   4.5e-67  228.2   0.2  1595  1722     1   133     1   142 0.96 -
JF1A_TRINITY_DN62923_c0_g1_i4.p1JF1A_TRINITY_DN62923_c0_g1   -            137 255at3193            -           2073   8.2e-67  227.3   2.4   1   1   5.9e-70   9.1e-67  227.2   2.4  1551  1673     1   125     1   134 0.97 -
JF1J_TRINITY_DN69633_c0_g1_i5.p1JF1J_TRINITY_DN69633_c0_g1   -            182 255at3193            -           2073   1.5e-55  190.0   5.0   1   1   4.7e-57   7.2e-54  184.4   5.0   858   993    16   180    13   182 0.85 -
JF1J_TRINITY_DN69633_c0_g1_i18.p1JF1J_TRINITY_DN69633_c0_g1  -            171 255at3193            -           2073   8.6e-55  187.4   0.2   1   1   6.8e-58     1e-54  187.2   0.2   771   899    12   154     3   156 0.92 -
JF1A_TRINITY_DN63830_c4_g3_i3.p1JF1A_TRINITY_DN63830_c4_g3   -            172 255at3193            -           2073   1.9e-54  186.3   1.1   1   2   0.00013      0.21   10.4   0.1   681   701    42    62    37    71 0.87 -
JF1A_TRINITY_DN63830_c4_g3_i3.p1JF1A_TRINITY_DN63830_c4_g3   -            172 255at3193            -           2073   1.9e-54  186.3   1.1   2   2     3e-54   4.7e-51  175.1   0.1   681   779    72   170    67   172 0.98 -
JF1A_TRINITY_DN63830_c4_g3_i1.p1JF1A_TRINITY_DN63830_c4_g3   -            142 255at3193            -           2073     2e-51  176.3   0.1   1   1   1.4e-54   2.2e-51  176.1   0.1   681   779    42   140    28   142 0.97 -
JF2A_TRINITY_DN37268_c0_g1_i1.p1JF2A_TRINITY_DN37268_c0_g1   -            161 255at3193            -           2073   6.5e-51  174.6   1.5   1   2   1.2e-52   1.9e-49  169.8   0.2   584   677     3    96     2   120 0.95 -
JF2A_TRINITY_DN37268_c0_g1_i1.p1JF2A_TRINITY_DN37268_c0_g1   -            161 255at3193            -           2073   6.5e-51  174.6   1.5   2   2    0.0087        13    4.4   0.1   681   707   131   155   113   160 0.79 -
JF3J_TRINITY_DN67550_c1_g1_i3.p1JF3J_TRINITY_DN67550_c1_g1   -            133 255at3193            -           2073   2.5e-42  146.1   0.6   1   2   3.1e-06    0.0048   15.8   0.1   868   890     1    23     1    24 0.93 -
JF3J_TRINITY_DN67550_c1_g1_i3.p1JF3J_TRINITY_DN67550_c1_g1   -            133 255at3193            -           2073   2.5e-42  146.1   0.6   2   2   4.5e-41     7e-38  131.4   0.1   805   893    21   114    20   126 0.94 -
JF1J_TRINITY_DN67365_c0_g1_i7.p1JF1J_TRINITY_DN67365_c0_g1   -            120 255at3193            -           2073   1.3e-41  143.8   0.4   1   2   8.5e-35   1.3e-31  110.6   0.1    59   134     1    77     1    79 0.97 -
JF1J_TRINITY_DN67365_c0_g1_i7.p1JF1J_TRINITY_DN67365_c0_g1   -            120 255at3193            -           2073   1.3e-41  143.8   0.4   2   2   9.6e-12   1.5e-08   34.1   0.1    31    65    77   111    76   114 0.95 -
JF3A_TRINITY_DN56698_c1_g2_i3.p1JF3A_TRINITY_DN56698_c1_g2   -            117 255at3193            -           2073   8.1e-41  141.1   0.1   1   1   6.1e-44   9.4e-41  140.9   0.1  1209  1295     1    98     1   106 0.94 -
JF3J_TRINITY_DN70147_c1_g2_i3.p1JF3J_TRINITY_DN70147_c1_g2   -            112 255at3193            -           2073     1e-36  127.5   1.3   1   1   1.2e-38   1.9e-35  123.3   1.3   481   566     8   109     4   111 0.85 -
JF1A_TRINITY_DN60793_c1_g1_i3.p1JF1A_TRINITY_DN60793_c1_g1   -            256 255at3193            -           2073   3.7e-36  125.7   0.1   1   1   2.9e-39   4.5e-36  125.4   0.1  1858  2010    44   195    30   206 0.86 -
JF1A_TRINITY_DN61917_c0_g12_i2.p1JF1A_TRINITY_DN61917_c0_g12 -            164 255at3193            -           2073   9.5e-30  104.4   0.0   1   1   6.7e-33     1e-29  104.3   0.0  1882  1996     1   114     1   141 0.93 -
JF2A_TRINITY_DN41457_c1_g7_i2.p1JF2A_TRINITY_DN41457_c1_g7   -            155 255at3193            -           2073   4.9e-26   92.1   2.5   1   3     0.071   1.1e+02    1.4   0.0  1987  2006     4    23     1    37 0.85 -
JF2A_TRINITY_DN41457_c1_g7_i2.p1JF2A_TRINITY_DN41457_c1_g7   -            155 255at3193            -           2073   4.9e-26   92.1   2.5   2   3   2.8e-20   4.3e-17   62.4   0.1  2001  2046    45    90    22    94 0.91 -
JF2A_TRINITY_DN41457_c1_g7_i2.p1JF2A_TRINITY_DN41457_c1_g7   -            155 255at3193            -           2073   4.9e-26   92.1   2.5   3   3   9.9e-10   1.5e-06   27.4   0.0  2047  2073   123   149   117   149 0.95 -
JF1J_TRINITY_DN59173_c0_g1_i1.p1JF1J_TRINITY_DN59173_c0_g1   -            109 255at3193            -           2073   3.1e-20   72.8   0.1   1   1   2.3e-23   3.6e-20   72.6   0.1  1730  1817     2    89     1    95 0.96 -
JF2A_TRINITY_DN26551_c0_g1_i1.p1JF2A_TRINITY_DN26551_c0_g1   -            104 255at3193            -           2073   9.2e-20   71.3   0.4   1   1   7.3e-23   1.1e-19   71.0   0.4  1407  1478     5   104     2   104 0.84 -
JF1A_TRINITY_DN51335_c0_g1_i1.p1JF1A_TRINITY_DN51335_c0_g1   -            146 255at3193            -           2073   8.3e-15   54.8   0.0   1   1   5.9e-18     9e-15   54.7   0.0  1873  1950    43   120    33   145 0.94 -
JF1A_TRINITY_DN64450_c3_g3_i1.p1JF1A_TRINITY_DN64450_c3_g3   -            148 255at3193            -           2073   6.7e-11   41.9   1.0   1   2   4.4e-08   6.8e-05   22.0   0.1  1742  1821     2    76     1    86 0.89 -
JF1A_TRINITY_DN64450_c3_g3_i1.p1JF1A_TRINITY_DN64450_c3_g3   -            148 255at3193            -           2073   6.7e-11   41.9   1.0   2   2   3.4e-07   0.00053   19.0   0.1  1885  1925   101   140    96   146 0.90 -
JF2A_TRINITY_DN39891_c2_g4_i1.p1JF2A_TRINITY_DN39891_c2_g4   -            224 255at3193            -           2073   2.1e-10   40.3   0.0   1   1   1.7e-13   2.6e-10   39.9   0.0  1884  1995    25   136    10   150 0.89 -
JF1A_TRINITY_DN26848_c0_g2_i1.p1JF1A_TRINITY_DN26848_c0_g2   -            133 255at3193            -           2073   1.2e-09   37.7   0.2   1   1     1e-12   1.6e-09   37.4   0.2  1508  1606     7   106     5   112 0.94 -
JF1A_TRINITY_DN64450_c3_g2_i1.p1JF1A_TRINITY_DN64450_c3_g2   -            187 255at3193            -           2073   6.1e-09   35.4   0.0   1   1     5e-12   7.7e-09   35.1   0.0  1885  1982    35   129    30   136 0.86 -
JF1A_TRINITY_DN63129_c1_g11_i1.p1JF1A_TRINITY_DN63129_c1_g11 -            209 255at3193            -           2073   1.1e-07   31.2   0.0   1   1   7.7e-11   1.2e-07   31.1   0.0  1144  1284    56   207    22   209 0.76 -
JF1J_TRINITY_DN69633_c0_g1_i8.p1JF1J_TRINITY_DN69633_c0_g1   -            138 255at3193            -           2073   2.7e-07   29.9   0.0   1   1   2.1e-10   3.2e-07   29.7   0.0   771   825    12    75     3    81 0.81 -
JF1A_TRINITY_DN61917_c0_g12_i1.p1JF1A_TRINITY_DN61917_c0_g12 -            125 255at3193            -           2073   2.9e-07   29.8   0.0   1   1   2.4e-10   3.7e-07   29.5   0.0  1882  1923     1    42     1    46 0.96 -
JF1J_TRINITY_DN70058_c1_g1_i3.p1JF1J_TRINITY_DN70058_c1_g1   -            268 255at3193            -           2073   4.7e-07   29.1   0.3   1   4   3.1e-05     0.048   12.5   0.0  1882  1946     2    65     1    76 0.82 -
JF1J_TRINITY_DN70058_c1_g1_i3.p1JF1J_TRINITY_DN70058_c1_g1   -            268 255at3193            -           2073   4.7e-07   29.1   0.3   2   4      0.17   2.6e+02    0.1   0.0  1343  1357    78    92    67   110 0.81 -
JF1J_TRINITY_DN70058_c1_g1_i3.p1JF1J_TRINITY_DN70058_c1_g1   -            268 255at3193            -           2073   4.7e-07   29.1   0.3   3   4      0.43   6.6e+02   -1.2   0.0  1786  1809   156   179   144   186 0.83 -
JF1J_TRINITY_DN70058_c1_g1_i3.p1JF1J_TRINITY_DN70058_c1_g1   -            268 255at3193            -           2073   4.7e-07   29.1   0.3   4   4   5.4e-05     0.083   11.7   0.0  1880  1930   210   259   204   265 0.90 -
JF1J_TRINITY_DN63478_c1_g3_i6.p1JF1J_TRINITY_DN63478_c1_g3   -            535 255at3193            -           2073   5.1e-07   29.0   0.3   1   2     0.022        34    3.1   0.2  1459  1586    35   167     7   173 0.65 -
JF1J_TRINITY_DN63478_c1_g3_i6.p1JF1J_TRINITY_DN63478_c1_g3   -            535 255at3193            -           2073   5.1e-07   29.0   0.3   2   2   1.1e-08   1.6e-05   24.0   0.0  1641  1801   347   520   331   524 0.63 -
JF1A_TRINITY_DN66880_c0_g7_i2.p1JF1A_TRINITY_DN66880_c0_g7   -            639 255at3193            -           2073   6.4e-06   25.4   1.5   1   4      0.45     7e+02   -1.3   0.0   838   920    20   108     5   135 0.65 -
JF1A_TRINITY_DN66880_c0_g7_i2.p1JF1A_TRINITY_DN66880_c0_g7   -            639 255at3193            -           2073   6.4e-06   25.4   1.5   2   4      0.56   8.7e+02   -1.6   0.0   844   909   147   211   135   248 0.61 -
JF1A_TRINITY_DN66880_c0_g7_i2.p1JF1A_TRINITY_DN66880_c0_g7   -            639 255at3193            -           2073   6.4e-06   25.4   1.5   3   4   7.1e-08   0.00011   21.3   0.2   479   624   301   452   296   498 0.75 -
JF1A_TRINITY_DN66880_c0_g7_i2.p1JF1A_TRINITY_DN66880_c0_g7   -            639 255at3193            -           2073   6.4e-06   25.4   1.5   4   4      0.39     6e+02   -1.1   0.0   835   898   516   579   504   594 0.61 -
JF1A_TRINITY_DN63129_c1_g8_i1.p1JF1A_TRINITY_DN63129_c1_g8   -            179 255at3193            -           2073     7e-05   21.9   0.0   1   1   5.3e-08   8.2e-05   21.7   0.0  1310  1406    33   122    21   144 0.80 -
JF1A_TRINITY_DN60290_c0_g1_i2.p1JF1A_TRINITY_DN60290_c0_g1   -            209 255at3193            -           2073     0.001   18.0   0.3   1   1   1.9e-06    0.0029   16.6   0.3  1469  1559    91   202    84   208 0.69 -
JF1J_TRINITY_DN70058_c1_g1_i2.p1JF1J_TRINITY_DN70058_c1_g1   -            219 255at3193            -           2073     0.005   15.8   0.1   1   2   2.2e-05     0.033   13.1   0.0  1882  1946     2    65     1    76 0.82 -
JF1J_TRINITY_DN70058_c1_g1_i2.p1JF1J_TRINITY_DN70058_c1_g1   -            219 255at3193            -           2073     0.005   15.8   0.1   2   2      0.14   2.1e+02    0.5   0.0  1343  1357    78    92    67   107 0.80 -
JF1A_TRINITY_DN49804_c0_g1_i1.p1JF1A_TRINITY_DN49804_c0_g1   -            136 255at3193            -           2073     0.064   12.1   0.0   1   1   4.4e-05     0.067   12.0   0.0   859   932    32   105     4   120 0.77 -
JF1A_TRINITY_DN63763_c1_g8_i2.p1JF1A_TRINITY_DN63763_c1_g8   -            326 255at3193            -           2073      0.08   11.8   0.0   1   1   6.8e-05       0.1   11.4   0.0  1470  1558    71   161    58   171 0.81 -
JF1A_TRINITY_DN54980_c0_g1_i2.p1JF1A_TRINITY_DN54980_c0_g1   -            149 255at3193            -           2073      0.13   11.1   0.3   1   1   9.4e-05      0.15   10.9   0.3   829   934    38   143     8   148 0.74 -
JF2A_TRINITY_DN40003_c1_g1_i4.p1JF2A_TRINITY_DN40003_c1_g1   -            223 255at3193            -           2073      0.33    9.8   0.0   1   1   0.00027      0.41    9.4   0.0   771   868    79   174    74   186 0.86 -
JF1A_TRINITY_DN62284_c4_g4_i2.p1JF1A_TRINITY_DN62284_c4_g4   -            300 255at3193            -           2073      0.36    9.6   0.0   1   2      0.24   3.7e+02   -0.3   0.0   864   926    78   143    58   160 0.70 -
JF1A_TRINITY_DN62284_c4_g4_i2.p1JF1A_TRINITY_DN62284_c4_g4   -            300 255at3193            -           2073      0.36    9.6   0.0   2   2    0.0018       2.7    6.7   0.0   562   632   194   262   177   268 0.83 -
JF1A_TRINITY_DN33395_c0_g1_i1.p1JF1A_TRINITY_DN33395_c0_g1   -            130 255at3193            -           2073      0.49    9.2   0.0   1   1   0.00038      0.59    8.9   0.0  1338  1404    40   107    34   114 0.87 -
#
# Program:         hmmsearch
# Version:         3.2.1 (June 2018)
# Pipeline mode:   SEARCH
# Query file:      /isg/shared/databases/BUSCO/odb10/embryophyta_odb10/hmms/255at3193.hmm
# Target file:     Juniper_final_annotations_no_contam_lvl0.faa
# Option settings: /usr/local/bin/hmmsearch --domtblout /labs/Wegrzyn/Juniper_Pine/BUSCO/NEW/busco_juniper/run_embryophyta_odb10/hmmer_output/255at3193.out --cpu 1 /isg/shared/databases/BUSCO/odb10/embryophyta_odb10/hmms/255at3193.hmm Juniper_final_annotations_no_contam_lvl0.faa 
# Current dir:     /labs/Wegrzyn/Juniper_Pine/BUSCO/NEW
# Date:            Thu Aug  6 16:18:41 2020
# [ok]
