#                                                                                                                  --- full sequence --- -------------- this domain -------------   hmm coord   ali coord   env coord
# target name                                              accession   tlen query name           accession   qlen   E-value  score  bias   #  of  c-Evalue  i-Evalue  score  bias  from    to  from    to  from    to  acc description of target
#                                      ------------------- ---------- ----- -------------------- ---------- ----- --------- ------ ----- --- --- --------- --------- ------ ----- ----- ----- ----- ----- ----- ----- ---- ---------------------
JF1A_TRINITY_DN63562_c0_g5_i1.p1JF1A_TRINITY_DN63562_c0_g5 -            366 26282at3193          -            586  6.3e-143  479.3   6.4   1   1    1e-146  1.2e-142  478.4   6.4    54   373     8   366     4   366 0.89 -
JF1A_TRINITY_DN63562_c0_g8_i1.p1JF1A_TRINITY_DN63562_c0_g8 -            246 26282at3193          -            586   2.1e-86  292.7   3.2   1   1   1.1e-89   1.3e-85  290.1   3.2   374   585     1   244     1   245 0.88 -
JF1A_TRINITY_DN63562_c0_g8_i2.p1JF1A_TRINITY_DN63562_c0_g8 -            156 26282at3193          -            586   8.7e-40  138.8   2.8   1   1   6.9e-43     8e-39  135.6   2.8   468   585    10   154     7   155 0.82 -
JF3A_TRINITY_DN42890_c0_g1_i1.p1JF3A_TRINITY_DN42890_c0_g1 -            101 26282at3193          -            586   4.1e-34  120.1   0.1   1   1   4.4e-38     5e-34  119.8   0.1   183   280    11   101     3   101 0.92 -
JF1J_TRINITY_DN51577_c0_g1_i2.p1JF1J_TRINITY_DN51577_c0_g1 -            104 26282at3193          -            586    0.0011   19.6   0.0   1   1   1.2e-07    0.0014   19.2   0.0    37    87    29    77     4    79 0.71 -
JF1A_TRINITY_DN46229_c0_g1_i1.p1JF1A_TRINITY_DN46229_c0_g1 -            160 26282at3193          -            586      0.29   11.6   0.0   1   2     0.017   1.9e+02    2.3   0.0   459   482    36    57    32    79 0.75 -
JF1A_TRINITY_DN46229_c0_g1_i1.p1JF1A_TRINITY_DN46229_c0_g1 -            160 26282at3193          -            586      0.29   11.6   0.0   2   2   0.00031       3.6    8.0   0.0   190   225    76   111    57   132 0.81 -
#
# Program:         hmmsearch
# Version:         3.2.1 (June 2018)
# Pipeline mode:   SEARCH
# Query file:      /isg/shared/databases/BUSCO/odb10/embryophyta_odb10/hmms/26282at3193.hmm
# Target file:     Juniper_final_annotations_no_contam_lvl0.faa
# Option settings: /usr/local/bin/hmmsearch --domtblout /labs/Wegrzyn/Juniper_Pine/BUSCO/NEW/busco_juniper/run_embryophyta_odb10/hmmer_output/26282at3193.out --cpu 1 /isg/shared/databases/BUSCO/odb10/embryophyta_odb10/hmms/26282at3193.hmm Juniper_final_annotations_no_contam_lvl0.faa 
# Current dir:     /labs/Wegrzyn/Juniper_Pine/BUSCO/NEW
# Date:            Thu Aug  6 16:19:00 2020
# [ok]
