#                                                                                                                    --- full sequence --- -------------- this domain -------------   hmm coord   ali coord   env coord
# target name                                                accession   tlen query name           accession   qlen   E-value  score  bias   #  of  c-Evalue  i-Evalue  score  bias  from    to  from    to  from    to  acc description of target
#                                        ------------------- ---------- ----- -------------------- ---------- ----- --------- ------ ----- --- --- --------- --------- ------ ----- ----- ----- ----- ----- ----- ----- ---- ---------------------
JF1A_TRINITY_DN65187_c1_g8_i3.p1JF1A_TRINITY_DN65187_c1_g8   -            405 26794at3193          -            608  1.6e-193  646.2   0.3   1   1  6.5e-196  2.5e-193  645.6   0.3    87   440    10   381     6   392 0.95 -
JF1A_TRINITY_DN64745_c0_g1_i5.p1JF1A_TRINITY_DN64745_c0_g1   -            420 26794at3193          -            608   1.1e-82  280.2   0.0   1   1   3.5e-85   1.4e-82  279.8   0.0    21   381     7   374     2   379 0.94 -
JF2A_TRINITY_DN42449_c0_g1_i13.p1JF2A_TRINITY_DN42449_c0_g1  -            381 26794at3193          -            608   1.1e-62  214.0   0.7   1   1   3.9e-65   1.5e-62  213.6   0.7    15   346    24   361    17   372 0.93 -
JF1A_TRINITY_DN65301_c1_g5_i5.p1JF1A_TRINITY_DN65301_c1_g5   -            470 26794at3193          -            608   1.5e-60  207.0   0.0   1   1   4.8e-63   1.9e-60  206.7   0.0    33   350     2   333     1   351 0.91 -
JF1A_TRINITY_DN68479_c1_g1_i13.p1JF1A_TRINITY_DN68479_c1_g1  -            767 26794at3193          -            608   7.7e-58  198.1   0.0   1   1   3.1e-60   1.2e-57  197.4   0.0    16   345   140   484   132   499 0.91 -
JF1A_TRINITY_DN63544_c4_g6_i2.p1JF1A_TRINITY_DN63544_c4_g6   -            490 26794at3193          -            608   1.1e-56  194.3   0.0   1   1   3.6e-59   1.4e-56  193.9   0.0    16   342   120   457   111   464 0.89 -
JF1A_TRINITY_DN63815_c0_g3_i4.p1JF1A_TRINITY_DN63815_c0_g3   -            315 26794at3193          -            608   1.7e-56  193.7   0.5   1   1   5.6e-59   2.2e-56  193.3   0.5    65   364     7   308     3   312 0.95 -
JF2A_TRINITY_DN42449_c0_g1_i4.p1JF2A_TRINITY_DN42449_c0_g1   -            335 26794at3193          -            608   3.1e-55  189.5   1.6   1   1     1e-57   3.9e-55  189.1   1.6    66   364    28   328    17   332 0.93 -
JF1A_TRINITY_DN65090_c1_g1_i1.p1JF1A_TRINITY_DN65090_c1_g1   -            303 26794at3193          -            608   3.3e-54  186.1   1.4   1   1     1e-56   3.9e-54  185.8   1.4    71   364     1   296     1   300 0.94 -
JF2A_TRINITY_DN39517_c0_g1_i1.p1JF2A_TRINITY_DN39517_c0_g1   -            408 26794at3193          -            608   5.2e-53  182.1   0.0   1   1   2.1e-55   8.1e-53  181.5   0.0     7   300    93   401    89   406 0.90 -
JF1A_TRINITY_DN67888_c2_g2_i11.p1JF1A_TRINITY_DN67888_c2_g2  -            428 26794at3193          -            608   7.2e-52  178.4   0.3   1   1   2.4e-54   9.4e-52  178.0   0.3    14   344    57   396    43   413 0.88 -
JF1A_TRINITY_DN65592_c6_g1_i9.p1JF1A_TRINITY_DN65592_c6_g1   -            464 26794at3193          -            608     1e-50  174.5   0.3   1   1   3.5e-53   1.4e-50  174.1   0.3    14   343    93   431    79   447 0.87 -
JF1A_TRINITY_DN61745_c0_g1_i11.p1JF1A_TRINITY_DN61745_c0_g1  -            345 26794at3193          -            608     1e-49  171.3   0.6   1   1   3.2e-52   1.3e-49  170.9   0.6    95   385     4   302     2   325 0.90 -
JF1A_TRINITY_DN66521_c2_g2_i2.p1JF1A_TRINITY_DN66521_c2_g2   -            702 26794at3193          -            608   4.1e-47  162.6   0.0   1   1   1.6e-49   6.3e-47  162.0   0.0    16   344   122   468   110   548 0.80 -
JF3J_TRINITY_DN65778_c1_g3_i2.p1JF3J_TRINITY_DN65778_c1_g3   -            256 26794at3193          -            608   3.4e-44  153.0   0.0   1   1   1.1e-46   4.2e-44  152.7   0.0   112   344     8   242     4   248 0.92 -
JF1A_TRINITY_DN62840_c3_g1_i13.p1JF1A_TRINITY_DN62840_c3_g1  -            199 26794at3193          -            608   4.1e-43  149.4   0.0   1   1   1.1e-45   4.5e-43  149.3   0.0    22   196     7   193     1   199 0.88 -
JF1A_TRINITY_DN64664_c1_g1_i19.p1JF1A_TRINITY_DN64664_c1_g1  -            341 26794at3193          -            608   7.6e-43  148.6   0.0   1   1   3.2e-45   1.3e-42  147.8   0.0     7   249    76   333    72   339 0.87 -
JF1A_TRINITY_DN62249_c1_g1_i10.p1JF1A_TRINITY_DN62249_c1_g1  -            288 26794at3193          -            608   1.1e-41  144.7   0.0   1   1   3.2e-44   1.2e-41  144.5   0.0    24   285     9   284     1   288 0.90 -
JF3J_TRINITY_DN65778_c1_g3_i1.p1JF3J_TRINITY_DN65778_c1_g3   -            269 26794at3193          -            608   1.4e-41  144.3   0.0   1   2   2.5e-42   9.8e-40  138.3   0.0   112   335     8   236     5   240 0.90 -
JF3J_TRINITY_DN65778_c1_g3_i1.p1JF3J_TRINITY_DN65778_c1_g3   -            269 26794at3193          -            608   1.4e-41  144.3   0.0   2   2     0.059        23    4.9   0.0   265   296   238   269   233   269 0.92 -
JF1A_TRINITY_DN64932_c1_g1_i1.p1JF1A_TRINITY_DN64932_c1_g1   -            202 26794at3193          -            608   8.8e-40  138.4   0.0   1   1   2.7e-42     1e-39  138.2   0.0    18   195    12   199     5   202 0.90 -
JF1A_TRINITY_DN67202_c1_g4_i1.p1JF1A_TRINITY_DN67202_c1_g4   -            492 26794at3193          -            608   2.6e-39  136.9   0.4   1   2   2.4e-25   9.4e-23   82.2   0.0    16   169    44   214    29   219 0.85 -
JF1A_TRINITY_DN67202_c1_g4_i1.p1JF1A_TRINITY_DN67202_c1_g4   -            492 26794at3193          -            608   2.6e-39  136.9   0.4   2   2   1.3e-15   5.1e-13   50.0   0.1   170   341   261   451   254   462 0.70 -
JF1A_TRINITY_DN62575_c3_g1_i2.p1JF1A_TRINITY_DN62575_c3_g1   -            275 26794at3193          -            608   3.5e-39  136.5   0.2   1   1   1.5e-40   5.9e-38  132.4   0.2   143   365     5   246     2   252 0.88 -
JF1A_TRINITY_DN60376_c0_g3_i4.p1JF1A_TRINITY_DN60376_c0_g3   -            217 26794at3193          -            608   1.6e-38  134.3   0.1   1   1   4.9e-41   1.9e-38  134.0   0.1   136   336    15   216     8   217 0.93 -
JF1A_TRINITY_DN62250_c0_g2_i2.p1JF1A_TRINITY_DN62250_c0_g2   -            255 26794at3193          -            608   2.2e-38  133.8   0.0   1   1     1e-40   3.9e-38  133.0   0.0   109   334     7   254     1   255 0.81 -
JF1J_TRINITY_DN72081_c1_g1_i8.p1JF1J_TRINITY_DN72081_c1_g1   -            292 26794at3193          -            608   2.3e-38  133.8   0.1   1   1   6.9e-41   2.7e-38  133.5   0.1    84   364     2   282     1   288 0.91 -
JF1A_TRINITY_DN67888_c2_g2_i13.p1JF1A_TRINITY_DN67888_c2_g2  -            377 26794at3193          -            608   6.5e-37  129.0   0.2   1   1   2.2e-39   8.6e-37  128.6   0.2    14   301    57   353    43   359 0.87 -
JF1A_TRINITY_DN65187_c1_g3_i1.p1JF1A_TRINITY_DN65187_c1_g3   -            219 26794at3193          -            608   1.6e-34  121.1   8.9   1   2   6.8e-32   2.7e-29  103.8   1.4   504   587    22   115    16   122 0.85 -
JF1A_TRINITY_DN65187_c1_g3_i1.p1JF1A_TRINITY_DN65187_c1_g3   -            219 26794at3193          -            608   1.6e-34  121.1   8.9   2   2   4.7e-07   0.00018   21.8   1.2   577   607   146   175   115   176 0.72 -
JF2A_TRINITY_DN32549_c0_g1_i3.p1JF2A_TRINITY_DN32549_c0_g1   -            268 26794at3193          -            608   3.1e-34  120.1   0.4   1   1   9.4e-37   3.7e-34  119.9   0.4   112   364     6   258     1   264 0.89 -
JF3A_TRINITY_DN26895_c0_g1_i1.p1JF3A_TRINITY_DN26895_c0_g1   -            166 26794at3193          -            608   2.2e-33  117.3   0.0   1   1   6.5e-36   2.5e-33  117.1   0.0    13   163     2   160     1   164 0.90 -
JF1A_TRINITY_DN62569_c2_g4_i1.p1JF1A_TRINITY_DN62569_c2_g4   -            250 26794at3193          -            608     8e-33  115.5   0.0   1   2   1.8e-31     7e-29  102.4   0.0    20   168    12   171     7   183 0.89 -
JF1A_TRINITY_DN62569_c2_g4_i1.p1JF1A_TRINITY_DN62569_c2_g4   -            250 26794at3193          -            608     8e-33  115.5   0.0   2   2    0.0012      0.46   10.6   0.0   170   201   196   227   191   241 0.87 -
JF1J_TRINITY_DN71139_c1_g2_i5.p1JF1J_TRINITY_DN71139_c1_g2   -            239 26794at3193          -            608   8.1e-33  115.4   0.0   1   2   3.9e-08   1.5e-05   25.4   0.0   320   367    29    76    20    81 0.90 -
JF1J_TRINITY_DN71139_c1_g2_i5.p1JF1J_TRINITY_DN71139_c1_g2   -            239 26794at3193          -            608   8.1e-33  115.4   0.0   2   2   3.1e-27   1.2e-24   88.5   0.0   163   317    81   234    77   238 0.96 -
JF1A_TRINITY_DN62840_c3_g1_i12.p1JF1A_TRINITY_DN62840_c3_g1  -            305 26794at3193          -            608   1.5e-31  111.2   0.0   1   1   5.1e-34     2e-31  110.9   0.0   150   350    15   226     9   247 0.88 -
JF2A_TRINITY_DN42400_c3_g1_i1.p1JF2A_TRINITY_DN42400_c3_g1   -            200 26794at3193          -            608   4.1e-31  109.8   0.0   1   1   1.4e-33   5.3e-31  109.4   0.0   175   351     6   182     3   190 0.92 -
JF1J_TRINITY_DN71864_c2_g3_i1.p1JF1J_TRINITY_DN71864_c2_g3   -            133 26794at3193          -            608   9.9e-30  105.2   0.0   1   2   1.1e-14   4.4e-12   47.0   0.0   286   341     3    58     1    63 0.94 -
JF1J_TRINITY_DN71864_c2_g3_i1.p1JF1J_TRINITY_DN71864_c2_g3   -            133 26794at3193          -            608   9.9e-30  105.2   0.0   2   2   9.5e-18   3.7e-15   57.1   0.0   267   336    63   132    57   133 0.96 -
JF1A_TRINITY_DN66294_c1_g2_i2.p1JF1A_TRINITY_DN66294_c1_g2   -            264 26794at3193          -            608   4.6e-29  103.0   0.0   1   1   1.5e-31   5.8e-29  102.7   0.0    15   159   103   250    88   262 0.91 -
JF2J_TRINITY_DN24959_c0_g1_i27.p1JF2J_TRINITY_DN24959_c0_g1  -            233 26794at3193          -            608   1.2e-28  101.7   0.0   1   1   3.8e-31   1.5e-28  101.4   0.0     7   183    28   213    24   228 0.88 -
JF1A_TRINITY_DN60376_c0_g3_i2.p1JF1A_TRINITY_DN60376_c0_g3   -            371 26794at3193          -            608   4.2e-28   99.9   0.0   1   1   1.6e-30   6.2e-28   99.3   0.0    14   163   203   369   194   370 0.84 -
JF1A_TRINITY_DN63646_c0_g3_i2.p1JF1A_TRINITY_DN63646_c0_g3   -            434 26794at3193          -            608   7.1e-28   99.1   0.1   1   1   2.5e-30   9.8e-28   98.6   0.1    14   175   253   433   242   433 0.84 -
JF3J_TRINITY_DN45155_c0_g1_i2.p1JF3J_TRINITY_DN45155_c0_g1   -            305 26794at3193          -            608   8.5e-27   95.5   0.0   1   1   2.9e-29   1.1e-26   95.1   0.0     5   133   163   298   159   302 0.87 -
JF1J_TRINITY_DN72929_c0_g1_i19.p1JF1J_TRINITY_DN72929_c0_g1  -            360 26794at3193          -            608   9.8e-27   95.3   0.8   1   2   4.5e-18   1.7e-15   58.2   0.1    16   133   140   269   132   276 0.85 -
JF1J_TRINITY_DN72929_c0_g1_i19.p1JF1J_TRINITY_DN72929_c0_g1  -            360 26794at3193          -            608   9.8e-27   95.3   0.8   2   2   2.3e-11   8.7e-09   36.1   0.1   100   175   278   355   266   357 0.83 -
JF2J_TRINITY_DN24959_c0_g1_i33.p1JF2J_TRINITY_DN24959_c0_g1  -            155 26794at3193          -            608   3.8e-26   93.4   0.1   1   1   1.1e-28   4.1e-26   93.3   0.1   252   367    25   140     6   151 0.89 -
JF3A_TRINITY_DN54682_c3_g1_i3.p1JF3A_TRINITY_DN54682_c3_g1   -            150 26794at3193          -            608   5.1e-25   89.7   0.0   1   1   1.6e-27   6.2e-25   89.4   0.0    88   200    26   141    19   147 0.92 -
JF1J_TRINITY_DN71139_c1_g2_i2.p1JF1J_TRINITY_DN71139_c1_g2   -            155 26794at3193          -            608   2.4e-24   87.4   0.0   1   2   2.8e-19   1.1e-16   62.2   0.0    90   167     3    80     1    82 0.95 -
JF1J_TRINITY_DN71139_c1_g2_i2.p1JF1J_TRINITY_DN71139_c1_g2   -            155 26794at3193          -            608   2.4e-24   87.4   0.0   2   2     8e-09   3.1e-06   27.6   0.0   119   153    78   112    74   121 0.93 -
JF1A_TRINITY_DN45948_c0_g1_i1.p2JF1A_TRINITY_DN45948_c0_g1   -            135 26794at3193          -            608   3.6e-24   86.9   0.0   1   1   1.1e-26   4.1e-24   86.7   0.0    44   168     4   130     1   133 0.93 -
JF1A_TRINITY_DN62292_c0_g3_i1.p1JF1A_TRINITY_DN62292_c0_g3   -            411 26794at3193          -            608   5.2e-24   86.3   0.1   1   1   1.3e-26   5.2e-24   86.3   0.1   139   350     7   232     2   270 0.80 -
JF1A_TRINITY_DN67202_c1_g4_i2.p1JF1A_TRINITY_DN67202_c1_g4   -            247 26794at3193          -            608   5.7e-24   86.2   0.0   1   1   3.9e-26   1.5e-23   84.8   0.0    16   169    44   214    29   220 0.85 -
JF3J_TRINITY_DN67760_c2_g1_i1.p1JF3J_TRINITY_DN67760_c2_g1   -            195 26794at3193          -            608   1.1e-23   85.3   0.1   1   1   3.6e-26   1.4e-23   84.9   0.1    16   132    71   195    64   195 0.89 -
JF2A_TRINITY_DN41932_c0_g13_i2.p1JF2A_TRINITY_DN41932_c0_g13 -            175 26794at3193          -            608   7.6e-23   82.5   0.1   1   1   2.3e-25   8.9e-23   82.3   0.1   221   348     8   136     4   161 0.92 -
JF1A_TRINITY_DN53938_c0_g1_i1.p1JF1A_TRINITY_DN53938_c0_g1   -            152 26794at3193          -            608   1.7e-22   81.3   0.0   1   1   5.4e-25   2.1e-22   81.0   0.0   237   347     8   118     3   137 0.93 -
JF3J_TRINITY_DN75617_c0_g1_i1.p1JF3J_TRINITY_DN75617_c0_g1   -            126 26794at3193          -            608   2.4e-22   80.9   0.0   1   1   8.9e-25   3.5e-22   80.3   0.0    15   118     9   124     3   126 0.86 -
JF1J_TRINITY_DN72929_c0_g1_i30.p1JF1J_TRINITY_DN72929_c0_g1  -            492 26794at3193          -            608   5.1e-22   79.8   0.0   1   1   1.7e-24   6.8e-22   79.4   0.0   181   345     2   167     1   185 0.92 -
JF1J_TRINITY_DN68187_c1_g1_i1.p1JF1J_TRINITY_DN68187_c1_g1   -            133 26794at3193          -            608   6.3e-22   79.5   0.0   1   1     2e-24   7.7e-22   79.2   0.0   234   350     6   120     3   131 0.90 -
JF1J_TRINITY_DN19451_c0_g1_i1.p1JF1J_TRINITY_DN19451_c0_g1   -            132 26794at3193          -            608   6.5e-22   79.4   0.0   1   1   1.9e-24   7.2e-22   79.3   0.0    52   169     1   131     1   132 0.86 -
JF3J_TRINITY_DN70195_c2_g3_i17.p1JF3J_TRINITY_DN70195_c2_g3  -            202 26794at3193          -            608   7.6e-22   79.2   0.0   1   1   2.5e-24   9.5e-22   78.9   0.0     6   156    19   177    16   194 0.83 -
JF2A_TRINITY_DN41547_c8_g4_i1.p1JF2A_TRINITY_DN41547_c8_g4   -            157 26794at3193          -            608   1.7e-21   78.0   0.0   1   1     5e-24   1.9e-21   77.8   0.0   237   346    15   124     4   143 0.93 -
JF1J_TRINITY_DN66598_c4_g1_i1.p1JF1J_TRINITY_DN66598_c4_g1   -            128 26794at3193          -            608   2.2e-21   77.7   0.0   1   1   6.2e-24   2.4e-21   77.5   0.0   288   382    21   116     8   126 0.89 -
JF1A_TRINITY_DN66863_c0_g2_i3.p1JF1A_TRINITY_DN66863_c0_g2   -            300 26794at3193          -            608   2.3e-21   77.6   0.0   1   1   7.7e-24     3e-21   77.2   0.0    14   102   205   300   192   300 0.89 -
JF1J_TRINITY_DN73737_c0_g1_i1.p1JF1J_TRINITY_DN73737_c0_g1   -            145 26794at3193          -            608   3.3e-21   77.1   0.0   1   1   9.3e-24   3.6e-21   77.0   0.0   219   332    25   144     8   145 0.85 -
JF2A_TRINITY_DN37821_c0_g1_i1.p1JF2A_TRINITY_DN37821_c0_g1   -            138 26794at3193          -            608   4.3e-21   76.7   0.0   1   1   1.3e-23   5.2e-21   76.4   0.0    71   196     5   131     3   137 0.91 -
JF1A_TRINITY_DN60355_c3_g2_i2.p1JF1A_TRINITY_DN60355_c3_g2   -            207 26794at3193          -            608   6.5e-21   76.1   0.0   1   1     2e-23   7.7e-21   75.9   0.0    94   273     3   194     1   200 0.82 -
JF1J_TRINITY_DN67857_c0_g2_i1.p1JF1J_TRINITY_DN67857_c0_g2   -            212 26794at3193          -            608   1.3e-20   75.2   1.3   1   2    0.0016      0.63   10.1   0.2   320   344     4    28     1    37 0.86 -
JF1J_TRINITY_DN67857_c0_g2_i1.p1JF1J_TRINITY_DN67857_c0_g2   -            212 26794at3193          -            608   1.3e-20   75.2   1.3   2   2   5.6e-20   2.2e-17   64.5   0.0   215   344    52   180    29   188 0.84 -
JF2A_TRINITY_DN44749_c0_g1_i1.p1JF2A_TRINITY_DN44749_c0_g1   -            153 26794at3193          -            608     3e-20   73.9   0.0   1   1     9e-23   3.5e-20   73.7   0.0   217   349    11   142     4   151 0.91 -
JF2A_TRINITY_DN49835_c0_g1_i1.p1JF2A_TRINITY_DN49835_c0_g1   -            132 26794at3193          -            608   1.4e-19   71.7   0.0   1   1   4.2e-22   1.6e-19   71.5   0.0   208   329    10   131     7   132 0.97 -
JF1A_TRINITY_DN61705_c1_g2_i1.p1JF1A_TRINITY_DN61705_c1_g2   -            200 26794at3193          -            608   1.5e-19   71.6   0.0   1   1   4.3e-22   1.7e-19   71.5   0.0   237   344    47   162    10   193 0.82 -
JF1A_TRINITY_DN63646_c0_g1_i1.p1JF1A_TRINITY_DN63646_c0_g1   -            285 26794at3193          -            608   1.8e-19   71.4   0.0   1   1   5.4e-22   2.1e-19   71.1   0.0   170   382     2   224     1   240 0.79 -
JF1A_TRINITY_DN66616_c2_g1_i3.p1JF1A_TRINITY_DN66616_c2_g1   -            111 26794at3193          -            608   1.3e-18   68.6   0.0   1   1   3.9e-21   1.5e-18   68.3   0.0     7    83    21   104    16   109 0.86 -
JF1J_TRINITY_DN68187_c1_g3_i2.p1JF1J_TRINITY_DN68187_c1_g3   -            134 26794at3193          -            608   1.8e-18   68.0   0.0   1   1     5e-21   1.9e-18   68.0   0.0   102   208     2   110     1   124 0.87 -
JF1A_TRINITY_DN62569_c2_g2_i1.p1JF1A_TRINITY_DN62569_c2_g2   -            325 26794at3193          -            608   2.7e-18   67.5   0.2   1   1   1.3e-20   4.9e-18   66.6   0.2   266   456   103   287    19   321 0.76 -
JF1A_TRINITY_DN61238_c6_g2_i2.p1JF1A_TRINITY_DN61238_c6_g2   -            181 26794at3193          -            608   3.3e-18   67.2   0.3   1   2   8.1e-11   3.1e-08   34.2   0.1   154   275     2   128     1   139 0.82 -
JF1A_TRINITY_DN61238_c6_g2_i2.p1JF1A_TRINITY_DN61238_c6_g2   -            181 26794at3193          -            608   3.3e-18   67.2   0.3   2   2   1.2e-10   4.6e-08   33.7   0.0   106   159   128   181   123   181 0.93 -
JF2A_TRINITY_DN41981_c0_g1_i17.p1JF2A_TRINITY_DN41981_c0_g1  -            250 26794at3193          -            608   3.4e-18   67.1   0.0   1   1   1.2e-20   4.7e-18   66.7   0.0     6   145    34   181    31   245 0.83 -
JF1J_TRINITY_DN65070_c1_g3_i1.p1JF1J_TRINITY_DN65070_c1_g3   -            224 26794at3193          -            608   5.9e-18   66.3   0.1   1   1   1.9e-20   7.2e-18   66.1   0.1   198   343    17   162    11   173 0.86 -
JF1J_TRINITY_DN65190_c0_g1_i1.p1JF1J_TRINITY_DN65190_c0_g1   -            124 26794at3193          -            608     6e-18   66.3   0.0   1   1   1.7e-20   6.6e-18   66.2   0.0   101   199     7   110     2   120 0.88 -
JF3J_TRINITY_DN62396_c0_g2_i1.p1JF3J_TRINITY_DN62396_c0_g2   -            150 26794at3193          -            608   6.2e-18   66.3   0.0   1   1   1.9e-20   7.2e-18   66.0   0.0     7    87    58   145    53   150 0.84 -
JF2A_TRINITY_DN12943_c0_g1_i1.p1JF2A_TRINITY_DN12943_c0_g1   -            122 26794at3193          -            608   9.6e-18   65.6   0.0   1   1     3e-20   1.1e-17   65.4   0.0   267   356     6    95     2   106 0.88 -
JF1A_TRINITY_DN62575_c3_g1_i4.p1JF1A_TRINITY_DN62575_c3_g1   -            168 26794at3193          -            608   1.3e-17   65.2   0.0   1   1   6.7e-20   2.6e-17   64.2   0.0    15   132    58   166    49   167 0.92 -
JF1A_TRINITY_DN67520_c0_g10_i1.p1JF1A_TRINITY_DN67520_c0_g10 -            221 26794at3193          -            608     2e-17   64.6   0.0   1   1   7.5e-20   2.9e-17   64.1   0.0    15   165    42   206    32   216 0.84 -
JF2A_TRINITY_DN41932_c0_g13_i1.p1JF2A_TRINITY_DN41932_c0_g13 -            119 26794at3193          -            608   2.1e-17   64.5   0.1   1   1   5.7e-20   2.2e-17   64.5   0.1   271   349     2    81     1   106 0.90 -
JF1A_TRINITY_DN66678_c0_g1_i1.p1JF1A_TRINITY_DN66678_c0_g1   -            195 26794at3193          -            608   2.7e-17   64.1   0.0   1   1   9.1e-20   3.5e-17   63.8   0.0    14   134    47   182    39   192 0.78 -
JF1A_TRINITY_DN61238_c6_g2_i1.p1JF1A_TRINITY_DN61238_c6_g2   -            160 26794at3193          -            608   7.9e-17   62.6   0.3   1   1   2.4e-19   9.2e-17   62.4   0.3   154   302     2   155     1   159 0.87 -
JF3J_TRINITY_DN70865_c2_g2_i8.p1JF3J_TRINITY_DN70865_c2_g2   -            231 26794at3193          -            608   1.1e-16   62.1   0.1   1   1   7.7e-19     3e-16   60.7   0.1     7   165    70   221    66   228 0.88 -
JF1A_TRINITY_DN63544_c4_g6_i3.p1JF1A_TRINITY_DN63544_c4_g6   -            140 26794at3193          -            608   1.9e-16   61.4   0.0   1   1   5.6e-19   2.2e-16   61.2   0.0   101   201    27   129     4   139 0.83 -
JF3J_TRINITY_DN61551_c0_g2_i1.p2JF3J_TRINITY_DN61551_c0_g2   -            102 26794at3193          -            608   5.4e-16   59.9   0.0   1   1   1.5e-18   5.8e-16   59.8   0.0   292   354     3    65     1    86 0.90 -
JF1A_TRINITY_DN62250_c0_g2_i3.p1JF1A_TRINITY_DN62250_c0_g2   -            207 26794at3193          -            608     7e-16   59.5   0.0   1   1   2.4e-18   9.4e-16   59.1   0.0   109   203     7   105     1   178 0.76 -
JF1A_TRINITY_DN64004_c0_g1_i2.p1JF1A_TRINITY_DN64004_c0_g1   -            173 26794at3193          -            608   7.2e-16   59.5   0.0   1   1   2.1e-18   8.2e-16   59.3   0.0   266   363    16   114     9   153 0.83 -
JF1A_TRINITY_DN64664_c1_g1_i16.p1JF1A_TRINITY_DN64664_c1_g1  -            140 26794at3193          -            608   1.3e-15   58.6   0.0   1   1   4.3e-18   1.7e-15   58.3   0.0     9   114    11   125     7   130 0.87 -
JF1A_TRINITY_DN64004_c0_g1_i1.p1JF1A_TRINITY_DN64004_c0_g1   -            267 26794at3193          -            608   2.2e-15   57.8   0.0   1   1   6.7e-18   2.6e-15   57.6   0.0   267   357    17   107     9   182 0.88 -
JF1A_TRINITY_DN67520_c0_g2_i1.p1JF1A_TRINITY_DN67520_c0_g2   -            209 26794at3193          -            608   2.7e-15   57.6   0.1   1   1   9.1e-18   3.5e-15   57.2   0.1   221   345    57   189    53   195 0.83 -
JF1J_TRINITY_DN68119_c0_g1_i7.p1JF1J_TRINITY_DN68119_c0_g1   -            106 26794at3193          -            608   2.8e-15   57.5   0.0   1   1   7.6e-18   2.9e-15   57.4   0.0    81   172     2    92     1   105 0.90 -
JF1A_TRINITY_DN62249_c1_g1_i3.p1JF1A_TRINITY_DN62249_c1_g1   -            365 26794at3193          -            608   5.2e-15   56.6   0.0   1   1   1.5e-17     6e-15   56.4   0.0   287   380     6    99     1   175 0.76 -
JF1A_TRINITY_DN63815_c0_g3_i5.p1JF1A_TRINITY_DN63815_c0_g3   -            123 26794at3193          -            608   1.4e-14   55.2   0.0   1   1   4.4e-17   1.7e-14   54.9   0.0    65   176     7   112     3   120 0.89 -
JF1A_TRINITY_DN62292_c0_g5_i1.p1JF1A_TRINITY_DN62292_c0_g5   -            110 26794at3193          -            608   1.8e-14   54.9   0.0   1   1   1.3e-16   4.9e-14   53.4   0.0    48   133     8   106     3   109 0.86 -
JF1A_TRINITY_DN61835_c1_g6_i2.p1JF1A_TRINITY_DN61835_c1_g6   -            278 26794at3193          -            608   2.1e-14   54.6   0.0   1   1   7.8e-17     3e-14   54.1   0.0    17    84   195   276   183   278 0.81 -
JF2A_TRINITY_DN41981_c0_g2_i8.p1JF2A_TRINITY_DN41981_c0_g2   -            163 26794at3193          -            608   2.4e-14   54.4   0.0   1   1   7.4e-17   2.9e-14   54.2   0.0     6   110    32   144    29   162 0.81 -
JF1J_TRINITY_DN67510_c5_g1_i1.p1JF1J_TRINITY_DN67510_c5_g1   -            101 26794at3193          -            608   3.2e-14   54.0   0.0   1   1   9.8e-17   3.8e-14   53.8   0.0    82   165    14    93     6    97 0.88 -
JF2A_TRINITY_DN36607_c0_g1_i1.p1JF2A_TRINITY_DN36607_c0_g1   -            140 26794at3193          -            608   3.4e-14   53.9   0.1   1   1   1.1e-16   4.2e-14   53.6   0.1   283   347     1    65     1    73 0.93 -
JF3A_TRINITY_DN54399_c3_g2_i1.p1JF3A_TRINITY_DN54399_c3_g2   -            164 26794at3193          -            608   3.7e-14   53.8   0.0   1   1   1.1e-16   4.3e-14   53.6   0.0    68   194     9   140     2   154 0.83 -
JF1J_TRINITY_DN65190_c0_g1_i2.p1JF1J_TRINITY_DN65190_c0_g1   -            159 26794at3193          -            608   4.4e-14   53.6   0.0   1   1   1.4e-16   5.4e-14   53.3   0.0   139   247    39   150    32   154 0.92 -
JF1A_TRINITY_DN62902_c0_g3_i1.p1JF1A_TRINITY_DN62902_c0_g3   -            124 26794at3193          -            608   5.5e-14   53.2   0.1   1   1   1.6e-16   6.2e-14   53.1   0.1    69   156    21   107    14   122 0.91 -
JF1A_TRINITY_DN64016_c1_g1_i1.p1JF1A_TRINITY_DN64016_c1_g1   -            150 26794at3193          -            608   5.7e-14   53.2   0.0   1   2   5.7e-09   2.2e-06   28.1   0.0    24    65    34    76    19    83 0.90 -
JF1A_TRINITY_DN64016_c1_g1_i1.p1JF1A_TRINITY_DN64016_c1_g1   -            150 26794at3193          -            608   5.7e-14   53.2   0.0   2   2   1.6e-07   6.2e-05   23.3   0.0    66   109   103   146    96   150 0.88 -
JF1J_TRINITY_DN63499_c0_g4_i1.p1JF1J_TRINITY_DN63499_c0_g4   -            158 26794at3193          -            608   9.2e-14   52.5   0.0   1   1   2.4e-16   9.3e-14   52.5   0.0   266   343     6    83     2   145 0.78 -
JF1A_TRINITY_DN62658_c1_g3_i1.p1JF1A_TRINITY_DN62658_c1_g3   -            165 26794at3193          -            608     2e-13   51.4   0.0   1   1   5.6e-16   2.2e-13   51.3   0.0   137   252     3   123     1   144 0.88 -
JF1A_TRINITY_DN15893_c0_g1_i2.p1JF1A_TRINITY_DN15893_c0_g1   -            165 26794at3193          -            608   2.5e-13   51.0   0.0   1   2   7.5e-12   2.9e-09   37.6   0.0    70   150    21   100    16   119 0.91 -
JF1A_TRINITY_DN15893_c0_g1_i2.p1JF1A_TRINITY_DN15893_c0_g1   -            165 26794at3193          -            608   2.5e-13   51.0   0.0   2   2   0.00052       0.2   11.7   0.0    70   111   122   163   117   165 0.93 -
JF2A_TRINITY_DN44183_c0_g1_i1.p1JF2A_TRINITY_DN44183_c0_g1   -            154 26794at3193          -            608   2.8e-13   50.9   0.0   1   1   8.9e-16   3.5e-13   50.6   0.0    64   200     5   147     3   152 0.85 -
JF3J_TRINITY_DN66641_c3_g2_i1.p1JF3J_TRINITY_DN66641_c3_g2   -            130 26794at3193          -            608   1.3e-12   48.7   0.0   1   2   2.5e-12   9.9e-10   39.2   0.0   103   168    12    77     5    84 0.87 -
JF3J_TRINITY_DN66641_c3_g2_i1.p1JF3J_TRINITY_DN66641_c3_g2   -            130 26794at3193          -            608   1.3e-12   48.7   0.0   2   2    0.0082       3.2    7.8   0.0   170   196   102   128    98   130 0.91 -
JF1J_TRINITY_DN73846_c0_g1_i1.p1JF1J_TRINITY_DN73846_c0_g1   -            111 26794at3193          -            608   1.9e-12   48.2   0.0   1   1     5e-15   1.9e-12   48.1   0.0   258   347     3    91     1   109 0.86 -
JF1A_TRINITY_DN46743_c0_g1_i1.p1JF1A_TRINITY_DN46743_c0_g1   -            111 26794at3193          -            608   4.6e-12   46.9   0.1   1   1   1.4e-14   5.6e-12   46.6   0.1    20    80    44   105    38   109 0.89 -
JF1A_TRINITY_DN60376_c0_g3_i5.p1JF1A_TRINITY_DN60376_c0_g3   -            361 26794at3193          -            608   5.8e-12   46.6   0.0   1   1   2.4e-14   9.4e-12   45.9   0.0    14    90   214   302   205   308 0.80 -
JF3A_TRINITY_DN57695_c1_g1_i1.p1JF3A_TRINITY_DN57695_c1_g1   -            182 26794at3193          -            608   6.4e-12   46.4   0.1   1   1   4.4e-14   1.7e-11   45.0   0.1    49   196    17   157     5   175 0.81 -
JF1J_TRINITY_DN65070_c1_g2_i7.p1JF1J_TRINITY_DN65070_c1_g2   -            127 26794at3193          -            608   7.9e-12   46.1   0.0   1   1   2.3e-14     9e-12   45.9   0.0    41   131     1    97     1   111 0.82 -
JF1A_TRINITY_DN65983_c1_g1_i6.p1JF1A_TRINITY_DN65983_c1_g1   -            196 26794at3193          -            608   9.9e-12   45.8   0.0   1   1   3.4e-14   1.3e-11   45.4   0.0     7    94    86   180    82   184 0.88 -
JF1A_TRINITY_DN63028_c1_g4_i4.p1JF1A_TRINITY_DN63028_c1_g4   -            209 26794at3193          -            608   1.6e-11   45.1   0.2   1   1   7.1e-14   2.8e-11   44.3   0.0    15    67   135   187   120   194 0.90 -
JF1A_TRINITY_DN6094_c0_g1_i1.p1JF1A_TRINITY_DN6094_c0_g1     -            131 26794at3193          -            608   1.6e-11   45.1   0.1   1   1   4.5e-14   1.8e-11   45.0   0.1   239   346    21   129     6   131 0.92 -
JF2A_TRINITY_DN52576_c0_g1_i1.p1JF2A_TRINITY_DN52576_c0_g1   -            107 26794at3193          -            608   1.7e-11   45.0   0.1   1   1   4.4e-14   1.7e-11   45.0   0.1    89   184     6   104     1   107 0.85 -
JF1J_TRINITY_DN72929_c0_g1_i12.p1JF1J_TRINITY_DN72929_c0_g1  -            126 26794at3193          -            608     2e-11   44.8   0.1   1   1   5.7e-14   2.2e-11   44.6   0.1   122   200    15    95     9   119 0.86 -
JF1J_TRINITY_DN67857_c0_g2_i7.p1JF1J_TRINITY_DN67857_c0_g2   -            173 26794at3193          -            608     3e-11   44.2   0.3   1   1   9.2e-14   3.6e-11   43.9   0.3   200   325    33   158    22   168 0.83 -
JF3J_TRINITY_DN70195_c2_g3_i15.p1JF3J_TRINITY_DN70195_c2_g3  -            127 26794at3193          -            608   9.8e-11   42.5   0.0   1   1     3e-13   1.2e-10   42.2   0.0    52   152     6   111     2   120 0.84 -
JF1A_TRINITY_DN2752_c0_g1_i2.p1JF1A_TRINITY_DN2752_c0_g1     -            121 26794at3193          -            608   1.3e-10   42.1   0.1   1   1   4.7e-11   1.8e-08   35.0   0.1    64   155     6   118     1   120 0.75 -
JF1A_TRINITY_DN61705_c1_g4_i3.p1JF1A_TRINITY_DN61705_c1_g4   -            246 26794at3193          -            608   1.4e-10   42.0   0.0   1   1   4.8e-13   1.8e-10   41.6   0.0    16   105   124   220   108   229 0.81 -
JF3J_TRINITY_DN72177_c2_g1_i2.p1JF3J_TRINITY_DN72177_c2_g1   -            177 26794at3193          -            608   1.5e-10   41.9   0.0   1   1   5.2e-13     2e-10   41.5   0.0    21    70   104   153    95   165 0.88 -
JF1J_TRINITY_DN59668_c0_g1_i1.p1JF1J_TRINITY_DN59668_c0_g1   -            101 26794at3193          -            608   2.2e-10   41.3   0.0   1   1   6.5e-13   2.5e-10   41.1   0.0    91   170     9    87     3    96 0.88 -
JF1A_TRINITY_DN65408_c1_g2_i1.p1JF1A_TRINITY_DN65408_c1_g2   -            202 26794at3193          -            608   2.2e-10   41.3   0.1   1   2    0.0032       1.2    9.1   0.0   201   294    11   105     5   110 0.82 -
JF1A_TRINITY_DN65408_c1_g2_i1.p1JF1A_TRINITY_DN65408_c1_g2   -            202 26794at3193          -            608   2.2e-10   41.3   0.1   2   2   1.1e-09   4.1e-07   30.5   0.0   296   356   140   200   117   202 0.84 -
JF1A_TRINITY_DN67888_c2_g2_i12.p1JF1A_TRINITY_DN67888_c2_g2  -            137 26794at3193          -            608   2.8e-10   41.0   0.1   1   1   8.5e-13   3.3e-10   40.8   0.1   232   324    30   122     8   129 0.87 -
JF1J_TRINITY_DN71864_c2_g2_i9.p1JF1J_TRINITY_DN71864_c2_g2   -            254 26794at3193          -            608   2.9e-10   40.9   0.0   1   2   5.2e-09     2e-06   28.2   0.0   120   168    57   105    50   117 0.92 -
JF1J_TRINITY_DN71864_c2_g2_i9.p1JF1J_TRINITY_DN71864_c2_g2   -            254 26794at3193          -            608   2.9e-10   40.9   0.0   2   2    0.0011      0.43   10.7   0.0   170   201   130   161   125   181 0.87 -
JF2A_TRINITY_DN36735_c0_g1_i2.p1JF2A_TRINITY_DN36735_c0_g1   -            269 26794at3193          -            608   4.5e-10   40.3   0.0   1   1   1.6e-12   6.3e-10   39.8   0.0    14    64   206   256   194   260 0.91 -
JF3J_TRINITY_DN73889_c1_g1_i5.p1JF3J_TRINITY_DN73889_c1_g1   -            155 26794at3193          -            608   4.7e-10   40.2   0.0   1   1   2.2e-12   8.4e-10   39.4   0.0    16   110    41   147    32   152 0.80 -
JF3A_TRINITY_DN57695_c1_g1_i5.p1JF3A_TRINITY_DN57695_c1_g1   -            158 26794at3193          -            608   7.8e-10   39.5   0.0   1   1   2.3e-12   8.8e-10   39.3   0.0    95   197    30   134    14   153 0.84 -
JF3A_TRINITY_DN54253_c0_g2_i1.p1JF3A_TRINITY_DN54253_c0_g2   -            158 26794at3193          -            608   1.7e-09   38.4   0.0   1   1   4.8e-12   1.9e-09   38.3   0.0   302   389     6    94     3   145 0.76 -
JF2A_TRINITY_DN50392_c0_g1_i1.p1JF2A_TRINITY_DN50392_c0_g1   -            106 26794at3193          -            608     3e-09   37.6   0.0   1   1   8.5e-12   3.3e-09   37.5   0.0   270   330     9    68     4    88 0.88 -
JF2A_TRINITY_DN44678_c0_g1_i1.p1JF2A_TRINITY_DN44678_c0_g1   -            101 26794at3193          -            608   3.8e-09   37.3   0.0   1   1   9.7e-12   3.8e-09   37.3   0.0   139   194     2    60     1    99 0.82 -
JF1A_TRINITY_DN74514_c0_g1_i1.p1JF1A_TRINITY_DN74514_c0_g1   -            122 26794at3193          -            608     5e-09   36.9   0.0   1   1   1.6e-11   6.3e-09   36.5   0.0    16    66    31    81    25    87 0.91 -
JF3A_TRINITY_DN56049_c1_g2_i8.p1JF3A_TRINITY_DN56049_c1_g2   -            190 26794at3193          -            608   5.5e-09   36.7   0.0   1   1   1.9e-11   7.2e-09   36.3   0.0    15    66   136   187   126   189 0.92 -
JF2A_TRINITY_DN40952_c0_g1_i3.p1JF2A_TRINITY_DN40952_c0_g1   -            123 26794at3193          -            608   6.3e-09   36.5   0.0   1   1   2.1e-11     8e-09   36.2   0.0    13    65    61   113    55   119 0.92 -
JF1A_TRINITY_DN64016_c1_g2_i1.p1JF1A_TRINITY_DN64016_c1_g2   -            127 26794at3193          -            608   8.5e-09   36.1   0.0   1   1   2.6e-11     1e-08   35.8   0.0    92   167    12    89     4    96 0.91 -
JF3J_TRINITY_DN63439_c4_g3_i2.p1JF3J_TRINITY_DN63439_c4_g3   -            132 26794at3193          -            608     1e-08   35.9   0.1   1   1   2.9e-11   1.1e-08   35.7   0.1   223   315    39   131    27   132 0.89 -
JF3A_TRINITY_DN56049_c1_g2_i10.p1JF3A_TRINITY_DN56049_c1_g2  -            154 26794at3193          -            608   1.2e-08   35.6   0.0   1   1   4.2e-11   1.6e-08   35.2   0.0    19    66   104   151    99   153 0.92 -
JF1A_TRINITY_DN61238_c6_g3_i3.p1JF1A_TRINITY_DN61238_c6_g3   -            108 26794at3193          -            608   1.3e-08   35.5   0.0   1   1   3.3e-11   1.3e-08   35.5   0.0   306   350     5    49     1    90 0.81 -
JF1A_TRINITY_DN61705_c1_g3_i1.p1JF1A_TRINITY_DN61705_c1_g3   -            201 26794at3193          -            608   1.4e-08   35.3   0.0   1   1   5.6e-11   2.2e-08   34.8   0.0     8    83   112   197   107   199 0.79 -
JF2A_TRINITY_DN41981_c0_g1_i10.p1JF2A_TRINITY_DN41981_c0_g1  -            123 26794at3193          -            608   2.6e-08   34.5   0.1   1   1   8.1e-11   3.1e-08   34.2   0.1   234   315    24   105    13   109 0.90 -
JF3A_TRINITY_DN53474_c0_g4_i2.p1JF3A_TRINITY_DN53474_c0_g4   -            113 26794at3193          -            608   3.5e-08   34.1   0.0   1   1   9.9e-11   3.8e-08   33.9   0.0   227   308    24   104     7   108 0.88 -
JF1A_TRINITY_DN66521_c2_g2_i1.p1JF1A_TRINITY_DN66521_c2_g2   -            236 26794at3193          -            608   1.5e-07   32.0   0.0   1   1   5.5e-10   2.1e-07   31.5   0.0    15    66   121   172   109   199 0.89 -
JF1A_TRINITY_DN66706_c0_g5_i1.p1JF1A_TRINITY_DN66706_c0_g5   -            147 26794at3193          -            608   2.4e-07   31.3   0.0   1   1   7.5e-10   2.9e-07   31.0   0.0   146   272     2   141     1   144 0.77 -
JF1A_TRINITY_DN65592_c6_g1_i6.p1JF1A_TRINITY_DN65592_c6_g1   -            114 26794at3193          -            608   2.8e-07   31.1   0.0   1   1   8.1e-10   3.1e-07   30.9   0.0    40   112     4    81     1    89 0.80 -
JF2A_TRINITY_DN41981_c0_g1_i18.p1JF2A_TRINITY_DN41981_c0_g1  -            135 26794at3193          -            608   3.3e-07   30.8   0.3   1   1   9.9e-10   3.8e-07   30.6   0.3   126   232     8   118     3   130 0.81 -
JF1J_TRINITY_DN72081_c1_g1_i16.p1JF1J_TRINITY_DN72081_c1_g1  -            166 26794at3193          -            608   4.8e-07   30.3   0.1   1   1   1.5e-09   5.7e-07   30.1   0.1   159   275     5   119     3   142 0.84 -
JF1J_TRINITY_DN72929_c0_g1_i1.p1JF1J_TRINITY_DN72929_c0_g1   -            129 26794at3193          -            608     7e-07   29.8   0.0   1   1     2e-09   7.8e-07   29.6   0.0    16    89    39   114    30   126 0.82 -
JF3J_TRINITY_DN13401_c0_g1_i1.p1JF3J_TRINITY_DN13401_c0_g1   -            113 26794at3193          -            608     1e-06   29.3   0.0   1   1   2.8e-09   1.1e-06   29.1   0.0   296   342    50    96    23   109 0.83 -
JF2A_TRINITY_DN42449_c0_g1_i8.p1JF2A_TRINITY_DN42449_c0_g1   -            101 26794at3193          -            608   1.5e-06   28.7   0.0   1   1   4.2e-09   1.6e-06   28.5   0.0   119   185    19    87     5    96 0.82 -
JF1A_TRINITY_DN60797_c2_g3_i1.p1JF1A_TRINITY_DN60797_c2_g3   -            323 26794at3193          -            608     4e-06   27.3   0.0   1   1   1.4e-08   5.3e-06   26.9   0.0    88   205   171   290   149   317 0.82 -
JF1A_TRINITY_DN66706_c0_g5_i2.p1JF1A_TRINITY_DN66706_c0_g5   -            118 26794at3193          -            608   7.2e-06   26.4   0.0   1   1   1.9e-08   7.2e-06   26.4   0.0   146   251     2   113     1   117 0.65 -
JF1A_TRINITY_DN62292_c0_g2_i1.p1JF1A_TRINITY_DN62292_c0_g2   -            194 26794at3193          -            608   2.2e-05   24.8   0.1   1   2       3.9   1.5e+03   -1.1   0.0   396   436    75   116    58   131 0.68 -
JF1A_TRINITY_DN62292_c0_g2_i1.p1JF1A_TRINITY_DN62292_c0_g2   -            194 26794at3193          -            608   2.2e-05   24.8   0.1   2   2   1.4e-07   5.4e-05   23.5   0.0    14    61   130   177   116   184 0.87 -
JF1J_TRINITY_DN65027_c2_g1_i2.p1JF1J_TRINITY_DN65027_c2_g1   -            131 26794at3193          -            608   3.8e-05   24.0   0.0   1   1     1e-07   3.9e-05   24.0   0.0   320   350    29    59     7   100 0.78 -
JF1J_TRINITY_DN75948_c0_g1_i1.p1JF1J_TRINITY_DN75948_c0_g1   -            108 26794at3193          -            608   7.1e-05   23.1   0.0   1   1   1.9e-07   7.4e-05   23.1   0.0   279   340    20    78     6   102 0.81 -
JF1A_TRINITY_DN67888_c2_g2_i9.p1JF1A_TRINITY_DN67888_c2_g2   -            110 26794at3193          -            608   7.2e-05   23.1   0.0   1   1   2.1e-07   8.1e-05   22.9   0.0   232   306    30   104     8   107 0.84 -
JF1A_TRINITY_DN64664_c1_g4_i1.p1JF1A_TRINITY_DN64664_c1_g4   -            152 26794at3193          -            608   0.00012   22.4   0.0   1   1   4.4e-07   0.00017   21.9   0.0    13    54    96   137    91   144 0.94 -
JF1A_TRINITY_DN67759_c0_g9_i1.p1JF1A_TRINITY_DN67759_c0_g9   -            212 26794at3193          -            608   0.00013   22.3   0.0   1   1   4.3e-07   0.00017   21.9   0.0   269   331    43   105    24   114 0.86 -
JF2J_TRINITY_DN24623_c0_g1_i2.p1JF2J_TRINITY_DN24623_c0_g1   -            105 26794at3193          -            608   0.00013   22.2   0.0   1   1   3.7e-07   0.00014   22.2   0.0   153   232    13    94     8   104 0.85 -
JF1A_TRINITY_DN65408_c1_g1_i1.p1JF1A_TRINITY_DN65408_c1_g1   -            107 26794at3193          -            608   0.00014   22.1   0.0   1   1   4.2e-07   0.00016   22.0   0.0   116   181    15    86     9    99 0.80 -
JF3A_TRINITY_DN49033_c1_g1_i1.p1JF3A_TRINITY_DN49033_c1_g1   -            114 26794at3193          -            608   0.00029   21.1   0.0   1   1   8.1e-07   0.00032   21.0   0.0   236   309    40   113    29   114 0.92 -
JF2A_TRINITY_DN52728_c0_g1_i1.p1JF2A_TRINITY_DN52728_c0_g1   -            126 26794at3193          -            608   0.00043   20.5   0.0   1   1   1.2e-06   0.00047   20.4   0.0   120   183     2    70     1    94 0.82 -
JF3J_TRINITY_DN69897_c2_g2_i5.p1JF3J_TRINITY_DN69897_c2_g2   -            121 26794at3193          -            608     0.001   19.3   0.0   1   1   3.1e-06    0.0012   19.1   0.0   170   244    37   110    23   116 0.84 -
JF2A_TRINITY_DN12124_c0_g1_i1.p1JF2A_TRINITY_DN12124_c0_g1   -            174 26794at3193          -            608    0.0013   19.0   0.0   1   1   4.1e-06    0.0016   18.7   0.0    30   128    47   149    31   158 0.82 -
JF1J_TRINITY_DN71864_c2_g2_i2.p1JF1J_TRINITY_DN71864_c2_g2   -            101 26794at3193          -            608    0.0017   18.6   0.0   1   1   4.5e-06    0.0017   18.6   0.0    55   109    39    94     7   101 0.72 -
JF1A_TRINITY_DN62534_c2_g1_i4.p1JF1A_TRINITY_DN62534_c2_g1   -            412 26794at3193          -            608     0.013   15.6   0.0   1   1   5.3e-05      0.02   15.0   0.0    33   180   165   312   154   328 0.73 -
JF1J_TRINITY_DN69168_c0_g4_i2.p1JF1J_TRINITY_DN69168_c0_g4   -            123 26794at3193          -            608     0.018   15.2   0.0   1   1   4.9e-05     0.019   15.1   0.0   264   334    41   113     2   121 0.69 -
JF3A_TRINITY_DN56281_c0_g1_i2.p1JF3A_TRINITY_DN56281_c0_g1   -            136 26794at3193          -            608     0.019   15.1   0.0   1   1   6.6e-05     0.026   14.7   0.0    36    67    99   130    85   135 0.90 -
JF1A_TRINITY_DN64154_c0_g1_i2.p1JF1A_TRINITY_DN64154_c0_g1   -            104 26794at3193          -            608     0.023   14.9   0.0   1   1   5.9e-05     0.023   14.9   0.0   281   329     2    50     1    75 0.92 -
JF3A_TRINITY_DN53599_c1_g2_i2.p1JF3A_TRINITY_DN53599_c1_g2   -            108 26794at3193          -            608     0.026   14.7   0.0   1   1   7.9e-05     0.031   14.4   0.0    15    45    78   108    62   108 0.87 -
JF1J_TRINITY_DN71487_c3_g6_i1.p1JF1J_TRINITY_DN71487_c3_g6   -            220 26794at3193          -            608     0.039   14.1   0.1   1   1   0.00011     0.044   13.9   0.1   235   337     8   113     1   149 0.85 -
JF1A_TRINITY_DN66434_c2_g4_i1.p1JF1A_TRINITY_DN66434_c2_g4   -            210 26794at3193          -            608     0.052   13.7   0.0   1   1   0.00016     0.061   13.4   0.0   240   304   143   207   106   210 0.88 -
JF1A_TRINITY_DN67283_c0_g1_i6.p1JF1A_TRINITY_DN67283_c0_g1   -            240 26794at3193          -            608      0.06   13.5   0.0   1   1   0.00029      0.11   12.6   0.0    27   188    67   219    57   238 0.63 -
JF2A_TRINITY_DN41712_c2_g2_i1.p1JF2A_TRINITY_DN41712_c2_g2   -            529 26794at3193          -            608      0.12   12.5   0.0   1   1    0.0005      0.19   11.8   0.0   394   500    57   164    34   179 0.86 -
JF1A_TRINITY_DN60221_c0_g1_i4.p1JF1A_TRINITY_DN60221_c0_g1   -            107 26794at3193          -            608      0.13   12.4   0.0   1   1   0.00041      0.16   12.1   0.0    62   121    39    96    32   102 0.85 -
JF1A_TRINITY_DN66893_c2_g1_i1.p1JF1A_TRINITY_DN66893_c2_g1   -            103 26794at3193          -            608      0.13   12.3   0.2   1   1   0.00036      0.14   12.3   0.2   448   483    35    69    23    92 0.80 -
JF1A_TRINITY_DN68210_c0_g1_i1.p1JF1A_TRINITY_DN68210_c0_g1   -            251 26794at3193          -            608      0.15   12.2   0.0   1   1   0.00048      0.19   11.9   0.0   234   343    43   157    20   172 0.83 -
JF2J_TRINITY_DN24959_c0_g1_i19.p1JF2J_TRINITY_DN24959_c0_g1  -            124 26794at3193          -            608       0.2   11.8   0.2   1   1   0.00058      0.22   11.6   0.2   156   245    16   106    11   122 0.83 -
JF1J_TRINITY_DN71542_c0_g1_i1.p1JF1J_TRINITY_DN71542_c0_g1   -            100 26794at3193          -            608      0.23   11.6   0.0   1   1   0.00076       0.3   11.2   0.0   143   168     5    30     2    38 0.88 -
JF1A_TRINITY_DN64154_c0_g1_i1.p1JF1A_TRINITY_DN64154_c0_g1   -            116 26794at3193          -            608      0.26   11.3   0.0   1   1   0.00074      0.29   11.2   0.0   281   327     2    48     1    71 0.87 -
JF3A_TRINITY_DN45861_c7_g2_i1.p1JF3A_TRINITY_DN45861_c7_g2   -            103 26794at3193          -            608      0.33   11.0   0.0   1   1   0.00095      0.37   10.9   0.0    33   104    19    89     8    95 0.76 -
JF1J_TRINITY_DN61971_c0_g2_i1.p1JF1J_TRINITY_DN61971_c0_g2   -            125 26794at3193          -            608      0.41   10.7   0.1   1   1    0.0011      0.41   10.7   0.1    24    79    14    67     5   119 0.82 -
#
# Program:         hmmsearch
# Version:         3.2.1 (June 2018)
# Pipeline mode:   SEARCH
# Query file:      /isg/shared/databases/BUSCO/odb10/embryophyta_odb10/hmms/26794at3193.hmm
# Target file:     Juniper_final_annotations_no_contam_lvl0.faa
# Option settings: /usr/local/bin/hmmsearch --domtblout /labs/Wegrzyn/Juniper_Pine/BUSCO/NEW/busco_juniper/run_embryophyta_odb10/hmmer_output/26794at3193.out --cpu 1 /isg/shared/databases/BUSCO/odb10/embryophyta_odb10/hmms/26794at3193.hmm Juniper_final_annotations_no_contam_lvl0.faa 
# Current dir:     /labs/Wegrzyn/Juniper_Pine/BUSCO/NEW
# Date:            Thu Aug  6 16:19:31 2020
# [ok]
