#                                                                                                                  --- full sequence --- -------------- this domain -------------   hmm coord   ali coord   env coord
# target name                                              accession   tlen query name           accession   qlen   E-value  score  bias   #  of  c-Evalue  i-Evalue  score  bias  from    to  from    to  from    to  acc description of target
#                                      ------------------- ---------- ----- -------------------- ---------- ----- --------- ------ ----- --- --- --------- --------- ------ ----- ----- ----- ----- ----- ----- ----- ---- ---------------------
JF1A_TRINITY_DN67107_c0_g2_i5.p1JF1A_TRINITY_DN67107_c0_g2 -            318 28757at3193          -            558  2.8e-135  453.8   0.1   1   1  3.4e-139  3.4e-135  453.6   0.1     1   248     1   255     1   267 0.96 -
JF1A_TRINITY_DN67107_c0_g2_i1.p1JF1A_TRINITY_DN67107_c0_g2 -            117 28757at3193          -            558   3.9e-46  159.5   0.2   1   1   4.3e-50   4.3e-46  159.4   0.2     1    81     1    81     1    95 0.94 -
JF1J_TRINITY_DN26336_c0_g1_i2.p1JF1J_TRINITY_DN26336_c0_g1 -            187 28757at3193          -            558   1.6e-34  121.2   0.2   1   2   2.8e-33   2.8e-29  103.9   0.0   179   249     6    77     1    90 0.92 -
JF1J_TRINITY_DN26336_c0_g1_i2.p1JF1J_TRINITY_DN26336_c0_g1 -            187 28757at3193          -            558   1.6e-34  121.2   0.2   2   2   1.5e-06     0.015   15.7   0.1   246   293   127   187   113   187 0.70 -
JF1J_TRINITY_DN58114_c0_g1_i1.p1JF1J_TRINITY_DN58114_c0_g1 -            201 28757at3193          -            558   1.1e-07   32.6   0.1   1   2   3.9e-10   3.9e-06   27.5   0.0   358   419    84   146    70   155 0.79 -
JF1J_TRINITY_DN58114_c0_g1_i1.p1JF1J_TRINITY_DN58114_c0_g1 -            201 28757at3193          -            558   1.1e-07   32.6   0.1   2   2    0.0012        12    6.1   0.1   280   322   143   180   135   195 0.79 -
JF2A_TRINITY_DN24877_c0_g1_i1.p1JF2A_TRINITY_DN24877_c0_g1 -            177 28757at3193          -            558   2.7e-07   31.3   0.1   1   1   5.2e-11   5.2e-07   30.4   0.1   357   449    62   156    48   161 0.73 -
JF2A_TRINITY_DN24877_c0_g1_i2.p1JF2A_TRINITY_DN24877_c0_g1 -            188 28757at3193          -            558   3.3e-07   31.1   0.1   1   1   6.4e-11   6.4e-07   30.1   0.1   357   449    73   167    59   171 0.73 -
JF1A_TRINITY_DN51419_c0_g1_i1.p1JF1A_TRINITY_DN51419_c0_g1 -            115 28757at3193          -            558   6.2e-05   23.5   0.0   1   1   6.3e-09   6.2e-05   23.5   0.0   440   468    46    74     3   100 0.85 -
#
# Program:         hmmsearch
# Version:         3.2.1 (June 2018)
# Pipeline mode:   SEARCH
# Query file:      /isg/shared/databases/BUSCO/odb10/embryophyta_odb10/hmms/28757at3193.hmm
# Target file:     Juniper_final_annotations_no_contam_lvl0.faa
# Option settings: /usr/local/bin/hmmsearch --domtblout /labs/Wegrzyn/Juniper_Pine/BUSCO/NEW/busco_juniper/run_embryophyta_odb10/hmmer_output/28757at3193.out --cpu 1 /isg/shared/databases/BUSCO/odb10/embryophyta_odb10/hmms/28757at3193.hmm Juniper_final_annotations_no_contam_lvl0.faa 
# Current dir:     /labs/Wegrzyn/Juniper_Pine/BUSCO/NEW
# Date:            Thu Aug  6 16:20:25 2020
# [ok]
