#                                                                                                                  --- full sequence --- -------------- this domain -------------   hmm coord   ali coord   env coord
# target name                                              accession   tlen query name           accession   qlen   E-value  score  bias   #  of  c-Evalue  i-Evalue  score  bias  from    to  from    to  from    to  acc description of target
#                                      ------------------- ---------- ----- -------------------- ---------- ----- --------- ------ ----- --- --- --------- --------- ------ ----- ----- ----- ----- ----- ----- ----- ---- ---------------------
JF1A_TRINITY_DN55705_c0_g2_i1.p1JF1A_TRINITY_DN55705_c0_g2 -            143 31559at3193          -            572   1.1e-61  210.9   1.6   1   1   2.6e-65   2.2e-61  209.8   1.6   111   232     5   143     2   143 0.90 -
JF1A_TRINITY_DN55705_c0_g1_i1.p1JF1A_TRINITY_DN55705_c0_g1 -            180 31559at3193          -            572     9e-56  191.3   9.6   1   2   1.5e-14   1.3e-10   42.2   0.0   325   359     2    36     1    43 0.93 -
JF1A_TRINITY_DN55705_c0_g1_i1.p1JF1A_TRINITY_DN55705_c0_g1 -            180 31559at3193          -            572     9e-56  191.3   9.6   2   2   2.6e-45   2.2e-41  143.8   8.1   359   449    72   177    57   180 0.85 -
JF2A_TRINITY_DN2746_c0_g1_i1.p1JF2A_TRINITY_DN2746_c0_g1   -            101 31559at3193          -            572     1e-48  168.1   0.4   1   1   1.3e-52   1.1e-48  167.9   0.4   455   548     1   101     1   101 0.94 -
JF1A_TRINITY_DN1595_c0_g1_i1.p1JF1A_TRINITY_DN1595_c0_g1   -            172 31559at3193          -            572   1.6e-21   78.3   1.1   1   1   2.9e-25   2.5e-21   77.6   1.1   351   489     9   161     2   168 0.77 -
JF2A_TRINITY_DN39633_c0_g2_i1.p1JF2A_TRINITY_DN39633_c0_g2 -            198 31559at3193          -            572   2.2e-16   61.3   0.9   1   2   9.9e-07    0.0086   16.4   0.1   286   327     3    44     1    86 0.75 -
JF2A_TRINITY_DN39633_c0_g2_i1.p1JF2A_TRINITY_DN39633_c0_g2 -            198 31559at3193          -            572   2.2e-16   61.3   0.9   2   2   3.9e-15   3.3e-11   44.2   0.1   344   412   102   170    69   180 0.92 -
JF1A_TRINITY_DN64967_c0_g7_i1.p1JF1A_TRINITY_DN64967_c0_g7 -            207 31559at3193          -            572   8.7e-09   36.2   0.0   1   1   1.7e-12   1.5e-08   35.5   0.0   355   411   144   200   134   204 0.92 -
JF1A_TRINITY_DN56117_c0_g1_i1.p1JF1A_TRINITY_DN56117_c0_g1 -            261 31559at3193          -            572   2.5e-07   31.4   0.1   1   2      0.04   3.5e+02    1.2   0.0   288   313   103   128    64   172 0.83 -
JF1A_TRINITY_DN56117_c0_g1_i1.p1JF1A_TRINITY_DN56117_c0_g1 -            261 31559at3193          -            572   2.5e-07   31.4   0.1   2   2   2.6e-10   2.2e-06   28.3   0.0   356   413   197   254   187   260 0.90 -
JF3J_TRINITY_DN56623_c0_g1_i1.p1JF3J_TRINITY_DN56623_c0_g1 -            104 31559at3193          -            572      0.15   12.3   0.0   1   1     2e-05      0.17   12.1   0.0   346   411    20    85     8    91 0.79 -
#
# Program:         hmmsearch
# Version:         3.2.1 (June 2018)
# Pipeline mode:   SEARCH
# Query file:      /isg/shared/databases/BUSCO/odb10/embryophyta_odb10/hmms/31559at3193.hmm
# Target file:     Juniper_final_annotations_no_contam_lvl0.faa
# Option settings: /usr/local/bin/hmmsearch --domtblout /labs/Wegrzyn/Juniper_Pine/BUSCO/NEW/busco_juniper/run_embryophyta_odb10/hmmer_output/31559at3193.out --cpu 1 /isg/shared/databases/BUSCO/odb10/embryophyta_odb10/hmms/31559at3193.hmm Juniper_final_annotations_no_contam_lvl0.faa 
# Current dir:     /labs/Wegrzyn/Juniper_Pine/BUSCO/NEW
# Date:            Thu Aug  6 16:22:20 2020
# [ok]
