#                                                                                                                  --- full sequence --- -------------- this domain -------------   hmm coord   ali coord   env coord
# target name                                              accession   tlen query name           accession   qlen   E-value  score  bias   #  of  c-Evalue  i-Evalue  score  bias  from    to  from    to  from    to  acc description of target
#                                      ------------------- ---------- ----- -------------------- ---------- ----- --------- ------ ----- --- --- --------- --------- ------ ----- ----- ----- ----- ----- ----- ----- ---- ---------------------
JF1A_TRINITY_DN61952_c0_g3_i3.p1JF1A_TRINITY_DN61952_c0_g3 -            423 32798at3193          -            576  1.5e-129  434.8   0.1   1   1  1.6e-132  1.8e-129  434.5   0.1     1   334    63   418    63   422 0.94 -
JF2A_TRINITY_DN50592_c0_g1_i1.p1JF2A_TRINITY_DN50592_c0_g1 -            448 32798at3193          -            576  1.7e-106  358.7   2.9   1   2   2.7e-23     3e-20   73.9   0.5    60   119     1    61     1    69 0.92 -
JF2A_TRINITY_DN50592_c0_g1_i1.p1JF2A_TRINITY_DN50592_c0_g1 -            448 32798at3193          -            576  1.7e-106  358.7   2.9   2   2     3e-87   3.4e-84  285.0   0.1   121   416   113   419   100   439 0.94 -
JF1A_TRINITY_DN59113_c0_g1_i1.p1JF1A_TRINITY_DN59113_c0_g1 -            183 32798at3193          -            576  4.3e-104  350.7   0.1   1   1  4.3e-107  4.8e-104  350.6   0.1   221   398     1   183     1   183 0.98 -
JF1A_TRINITY_DN67496_c3_g3_i3.p1JF1A_TRINITY_DN67496_c3_g3 -            315 32798at3193          -            576  1.3e-102  345.9   0.3   1   1  1.3e-105  1.5e-102  345.7   0.3     1   264    31   315    31   315 0.91 -
JF1A_TRINITY_DN59807_c0_g1_i1.p1JF1A_TRINITY_DN59807_c0_g1 -            219 32798at3193          -            576  5.8e-100  337.1   0.1   1   1  5.9e-103  6.6e-100  336.9   0.1     7   206     1   219     1   219 0.94 -
JF1A_TRINITY_DN67926_c0_g3_i5.p1JF1A_TRINITY_DN67926_c0_g3 -            308 32798at3193          -            576   2.8e-77  262.2   0.0   1   1   3.3e-80   3.6e-77  261.8   0.0   156   414    14   282     2   289 0.92 -
JF1J_TRINITY_DN62541_c3_g3_i1.p1JF1J_TRINITY_DN62541_c3_g3 -            157 32798at3193          -            576   1.2e-69  237.0   0.3   1   2   1.1e-72   1.2e-69  237.0   0.3   249   369     1   126     1   136 0.95 -
JF1J_TRINITY_DN62541_c3_g3_i1.p1JF1J_TRINITY_DN62541_c3_g3 -            157 32798at3193          -            576   1.2e-69  237.0   0.3   2   2      0.53     6e+02    0.3   0.9   434   447   139   156   135   157 0.88 -
JF1A_TRINITY_DN59113_c0_g1_i2.p1JF1A_TRINITY_DN59113_c0_g1 -            134 32798at3193          -            576   1.3e-63  217.1   3.1   1   2     7e-05     0.079   13.1   0.3   241   255     1    15     1    16 0.95 -
JF1A_TRINITY_DN59113_c0_g1_i2.p1JF1A_TRINITY_DN59113_c0_g1 -            134 32798at3193          -            576   1.3e-63  217.1   3.1   2   2   2.8e-63   3.2e-60  205.9   0.5   285   398    16   134    14   134 0.97 -
JF1A_TRINITY_DN66655_c0_g6_i3.p1JF1A_TRINITY_DN66655_c0_g6 -            373 32798at3193          -            576   1.9e-60  206.6   0.0   1   2   2.6e-42   2.9e-39  136.7   0.0     1   166     8   186     8   197 0.89 -
JF1A_TRINITY_DN66655_c0_g6_i3.p1JF1A_TRINITY_DN66655_c0_g6 -            373 32798at3193          -            576   1.9e-60  206.6   0.0   2   2   1.7e-21   1.9e-18   67.9   0.0   169   270   263   362   251   369 0.90 -
JF1A_TRINITY_DN63562_c0_g4_i1.p1JF1A_TRINITY_DN63562_c0_g4 -            224 32798at3193          -            576   2.8e-59  202.8   0.0   1   1   2.9e-62   3.3e-59  202.6   0.0   211   401    23   223     4   224 0.90 -
JF3J_TRINITY_DN72053_c1_g3_i3.p1JF3J_TRINITY_DN72053_c1_g3 -            122 32798at3193          -            576   6.6e-59  201.5   2.4   1   2   4.4e-57     5e-54  185.4   1.0   223   317     1   100     1   101 0.96 -
JF3J_TRINITY_DN72053_c1_g3_i3.p1JF3J_TRINITY_DN72053_c1_g3 -            122 32798at3193          -            576   6.6e-59  201.5   2.4   2   2   1.8e-06     0.002   18.4   0.0   368   389   100   121    92   122 0.85 -
JF1A_TRINITY_DN67496_c3_g3_i4.p1JF1A_TRINITY_DN67496_c3_g3 -            186 32798at3193          -            576   8.1e-59  201.3   1.3   1   2   1.8e-52     2e-49  170.2   0.3     1   114    31   151    31   154 0.93 -
JF1A_TRINITY_DN67496_c3_g3_i4.p1JF1A_TRINITY_DN67496_c3_g3 -            186 32798at3193          -            576   8.1e-59  201.3   1.3   2   2   3.1e-10   3.5e-07   30.8   0.0    48    79   154   186   150   186 0.90 -
JF1J_TRINITY_DN11924_c0_g1_i1.p1JF1J_TRINITY_DN11924_c0_g1 -            162 32798at3193          -            576   1.9e-56  193.4   0.0   1   1     2e-59   2.2e-56  193.2   0.0    32   180     1   162     1   162 0.91 -
JF1A_TRINITY_DN63599_c9_g2_i2.p1JF1A_TRINITY_DN63599_c9_g2 -            385 32798at3193          -            576   1.1e-52  181.0   0.0   1   1   1.3e-55   1.4e-52  180.6   0.0   165   444     2   291     1   328 0.83 -
JF1J_TRINITY_DN60285_c0_g1_i2.p1JF1J_TRINITY_DN60285_c0_g1 -            225 32798at3193          -            576   3.6e-51  176.0   0.2   1   1   3.7e-54   4.2e-51  175.8   0.2     1   136    79   224    79   225 0.93 -
JF1A_TRINITY_DN61731_c0_g4_i8.p1JF1A_TRINITY_DN61731_c0_g4 -            438 32798at3193          -            576   3.7e-47  162.8   0.4   1   2   2.2e-40   2.4e-37  130.4   0.1     2   118   184   313   183   320 0.90 -
JF1A_TRINITY_DN61731_c0_g4_i8.p1JF1A_TRINITY_DN61731_c0_g4 -            438 32798at3193          -            576   3.7e-47  162.8   0.4   2   2   3.7e-10   4.2e-07   30.5   0.0   121   198   341   431   335   435 0.79 -
JF2A_TRINITY_DN46733_c0_g1_i1.p1JF2A_TRINITY_DN46733_c0_g1 -            165 32798at3193          -            576   1.8e-46  160.5   0.0   1   1   1.8e-49     2e-46  160.3   0.0   265   414     2   154     1   160 0.94 -
JF1A_TRINITY_DN65604_c2_g5_i2.p1JF1A_TRINITY_DN65604_c2_g5 -            273 32798at3193          -            576   3.9e-44  152.8   0.0   1   1   4.7e-47   5.3e-44  152.3   0.0   316   548     1   260     1   273 0.81 -
JF1A_TRINITY_DN65663_c1_g3_i1.p1JF1A_TRINITY_DN65663_c1_g3 -            314 32798at3193          -            576   5.2e-41  142.5   0.0   1   2   6.3e-08     7e-05   23.2   0.0   123   166     1    44     1    52 0.94 -
JF1A_TRINITY_DN65663_c1_g3_i1.p1JF1A_TRINITY_DN65663_c1_g3 -            314 32798at3193          -            576   5.2e-41  142.5   0.0   2   2   1.8e-36     2e-33  117.4   0.0   169   342   122   297   110   309 0.90 -
JF1J_TRINITY_DN62541_c3_g2_i1.p1JF1J_TRINITY_DN62541_c3_g2 -            105 32798at3193          -            576   6.8e-41  142.1   0.4   1   1   7.2e-44   8.1e-41  141.8   0.4    58   142     2    90     1    93 0.94 -
JF1J_TRINITY_DN42117_c0_g1_i1.p1JF1J_TRINITY_DN42117_c0_g1 -            194 32798at3193          -            576   5.9e-40  139.0   0.0   1   1   6.2e-43     7e-40  138.7   0.0   235   417     3   189     1   192 0.95 -
JF3J_TRINITY_DN18617_c0_g1_i1.p1JF3J_TRINITY_DN18617_c0_g1 -            133 32798at3193          -            576   4.5e-39  136.1   0.2   1   1   4.8e-42   5.4e-39  135.8   0.2    17   116    13   120     9   129 0.91 -
JF1A_TRINITY_DN66655_c0_g6_i4.p1JF1A_TRINITY_DN66655_c0_g6 -            198 32798at3193          -            576   1.1e-36  128.1   0.1   1   1   1.1e-39   1.3e-36  128.0   0.1     1   172     8   191     8   196 0.85 -
JF2A_TRINITY_DN26567_c0_g1_i1.p1JF2A_TRINITY_DN26567_c0_g1 -            122 32798at3193          -            576   5.7e-35  122.5   0.0   1   1   5.7e-38   6.4e-35  122.4   0.0   208   316     8   116     1   120 0.94 -
JF2A_TRINITY_DN22819_c0_g1_i2.p1JF2A_TRINITY_DN22819_c0_g1 -            172 32798at3193          -            576   1.5e-32  114.5   0.1   1   1   1.5e-35   1.7e-32  114.4   0.1     1   134    24   170    24   172 0.87 -
JF2J_TRINITY_DN20976_c0_g1_i1.p2JF2J_TRINITY_DN20976_c0_g1 -            107 32798at3193          -            576   1.6e-29  104.5   0.5   1   1   1.6e-32   1.8e-29  104.3   0.5     1    77     7    90     7   104 0.91 -
JF1J_TRINITY_DN53798_c0_g1_i1.p1JF1J_TRINITY_DN53798_c0_g1 -            205 32798at3193          -            576     2e-29  104.2   0.2   1   2   8.5e-13   9.5e-10   39.2   0.2    79   119     2    42     1    51 0.91 -
JF1J_TRINITY_DN53798_c0_g1_i1.p1JF1J_TRINITY_DN53798_c0_g1 -            205 32798at3193          -            576     2e-29  104.2   0.2   2   2   5.9e-20   6.6e-17   62.9   0.0   121   206    94   188    81   200 0.84 -
JF1A_TRINITY_DN31663_c0_g1_i2.p1JF1A_TRINITY_DN31663_c0_g1 -            153 32798at3193          -            576   3.9e-29  103.3   0.0   1   1   4.1e-32   4.6e-29  103.0   0.0   237   381     5   153     2   153 0.96 -
JF1A_TRINITY_DN65604_c2_g5_i3.p1JF1A_TRINITY_DN65604_c2_g5 -            276 32798at3193          -            576   2.6e-28  100.5   0.0   1   1   3.5e-31   3.9e-28   99.9   0.0   373   548    59   263    52   276 0.77 -
JF1A_TRINITY_DN21243_c0_g1_i1.p1JF1A_TRINITY_DN21243_c0_g1 -            171 32798at3193          -            576   7.1e-28   99.1   0.0   1   1   7.1e-31   7.9e-28   98.9   0.0   250   396     1   151     1   170 0.89 -
JF1J_TRINITY_DN71522_c1_g3_i2.p1JF1J_TRINITY_DN71522_c1_g3 -            242 32798at3193          -            576   1.2e-27   98.4   0.0   1   1   1.5e-30   1.6e-27   97.9   0.0   241   308   168   235   160   238 0.97 -
JF1J_TRINITY_DN24711_c0_g1_i1.p1JF1J_TRINITY_DN24711_c0_g1 -            108 32798at3193          -            576   1.3e-27   98.2   0.0   1   1   1.3e-30   1.4e-27   98.1   0.0   274   378     1   108     1   108 0.94 -
JF1J_TRINITY_DN25517_c0_g1_i1.p1JF1J_TRINITY_DN25517_c0_g1 -            114 32798at3193          -            576   4.3e-26   93.2   0.0   1   1   4.4e-29   4.9e-26   93.0   0.0   145   248     3   114     1   114 0.91 -
JF1A_TRINITY_DN54123_c1_g1_i1.p1JF1A_TRINITY_DN54123_c1_g1 -            195 32798at3193          -            576   8.2e-24   85.7   0.0   1   1     1e-26   1.2e-23   85.2   0.0     2   106    73   188    72   190 0.85 -
JF1J_TRINITY_DN56138_c1_g1_i2.p1JF1J_TRINITY_DN56138_c1_g1 -            150 32798at3193          -            576   8.4e-22   79.0   0.6   1   1   8.4e-25   9.4e-22   78.9   0.6     4   116    30   145    27   149 0.85 -
JF3J_TRINITY_DN67282_c2_g1_i1.p1JF3J_TRINITY_DN67282_c2_g1 -            124 32798at3193          -            576   3.1e-21   77.2   0.1   1   1   3.2e-24   3.6e-21   76.9   0.1   251   330     9    92     2   103 0.82 -
JF2A_TRINITY_DN45602_c0_g1_i1.p1JF2A_TRINITY_DN45602_c0_g1 -            115 32798at3193          -            576   1.4e-19   71.7   0.1   1   1   1.4e-22   1.6e-19   71.5   0.1    28   117    23   115    12   115 0.92 -
JF1A_TRINITY_DN74404_c0_g1_i1.p1JF1A_TRINITY_DN74404_c0_g1 -            112 32798at3193          -            576   2.2e-18   67.7   0.5   1   1   2.3e-21   2.6e-18   67.5   0.5     2    58    49   112    48   112 0.89 -
JF3J_TRINITY_DN74165_c7_g2_i1.p1JF3J_TRINITY_DN74165_c7_g2 -            119 32798at3193          -            576   6.7e-18   66.1   0.0   1   1     7e-21   7.9e-18   65.9   0.0   285   390     2   111     1   115 0.93 -
JF1A_TRINITY_DN12124_c0_g1_i2.p1JF1A_TRINITY_DN12124_c0_g1 -            183 32798at3193          -            576   1.7e-16   61.5   0.0   1   1   1.9e-19   2.1e-16   61.2   0.0   173   260    98   183    77   183 0.87 -
JF1A_TRINITY_DN59695_c0_g1_i1.p1JF1A_TRINITY_DN59695_c0_g1 -            205 32798at3193          -            576   2.3e-16   61.1   0.0   1   1   2.6e-19     3e-16   60.7   0.0     1    94    80   182    80   201 0.80 -
JF1J_TRINITY_DN69216_c1_g3_i1.p1JF1J_TRINITY_DN69216_c1_g3 -            114 32798at3193          -            576   7.3e-15   56.1   0.0   1   1   7.7e-18   8.6e-15   55.9   0.0   341   414    28   100    21   107 0.91 -
JF1J_TRINITY_DN61604_c1_g2_i2.p1JF1J_TRINITY_DN61604_c1_g2 -            146 32798at3193          -            576   1.2e-13   52.1   0.5   1   1   1.5e-16   1.7e-13   51.6   0.5   437   548     3   132     1   140 0.73 -
JF3J_TRINITY_DN61919_c0_g1_i3.p1JF3J_TRINITY_DN61919_c0_g1 -            116 32798at3193          -            576   4.1e-13   50.4   0.1   1   1   4.3e-16   4.8e-13   50.1   0.1     1    69     8    84     8    90 0.81 -
JF1A_TRINITY_DN59695_c0_g2_i2.p2JF1A_TRINITY_DN59695_c0_g2 -            113 32798at3193          -            576   1.3e-11   45.4   0.0   1   1   1.4e-14   1.5e-11   45.2   0.0   117   164    10    57     1    64 0.88 -
JF1A_TRINITY_DN68430_c2_g6_i1.p1JF1A_TRINITY_DN68430_c2_g6 -            188 32798at3193          -            576     7e-11   43.0   0.2   1   1   7.4e-14   8.2e-11   42.7   0.2    49   142    15   113     4   155 0.78 -
JF1A_TRINITY_DN47145_c0_g1_i1.p1JF1A_TRINITY_DN47145_c0_g1 -            112 32798at3193          -            576     1e-10   42.5   0.2   1   1   1.1e-13   1.2e-10   42.2   0.2   317   413     4   101     2   105 0.89 -
JF1A_TRINITY_DN67926_c0_g3_i1.p1JF1A_TRINITY_DN67926_c0_g3 -            208 32798at3193          -            576   1.6e-10   41.8   0.4   1   1   1.7e-12   1.9e-09   38.3   0.4   429   549    32   173    16   192 0.70 -
JF1A_TRINITY_DN67496_c3_g6_i1.p1JF1A_TRINITY_DN67496_c3_g6 -            197 32798at3193          -            576   3.4e-08   34.1   0.0   1   1   3.5e-11   3.9e-08   33.9   0.0   448   547     4   115     1   143 0.70 -
JF1J_TRINITY_DN28829_c0_g1_i1.p1JF1J_TRINITY_DN28829_c0_g1 -            162 32798at3193          -            576   9.2e-08   32.7   0.0   1   1   8.9e-11   9.9e-08   32.6   0.0   339   441     6   125     1   158 0.72 -
JF3J_TRINITY_DN73784_c1_g2_i2.p1JF3J_TRINITY_DN73784_c1_g2 -            122 32798at3193          -            576   7.9e-07   29.6   0.0   1   1   8.3e-10   9.3e-07   29.4   0.0   503   546    73   116    49   119 0.89 -
JF1A_TRINITY_DN5838_c0_g1_i1.p1JF1A_TRINITY_DN5838_c0_g1   -            171 32798at3193          -            576   9.9e-07   29.3   0.0   1   1   1.1e-09   1.2e-06   29.0   0.0   483   548    38   107    31   132 0.81 -
JF1A_TRINITY_DN20933_c0_g1_i1.p1JF1A_TRINITY_DN20933_c0_g1 -            124 32798at3193          -            576   6.8e-06   26.5   0.1   1   1   8.3e-09   9.4e-06   26.1   0.1     2    28    92   118    91   120 0.95 -
JF2A_TRINITY_DN41543_c1_g1_i1.p1JF2A_TRINITY_DN41543_c1_g1 -            110 32798at3193          -            576   2.2e-05   24.8   0.1   1   1     2e-08   2.3e-05   24.8   0.1   497   548    22    70    14   100 0.83 -
JF2A_TRINITY_DN17397_c0_g1_i1.p1JF2A_TRINITY_DN17397_c0_g1 -            135 32798at3193          -            576   3.3e-05   24.2   0.0   1   1   3.2e-08   3.5e-05   24.1   0.0   468   537    68   134    38   135 0.85 -
JF1A_TRINITY_DN54123_c1_g1_i2.p1JF1A_TRINITY_DN54123_c1_g1 -            118 32798at3193          -            576   8.9e-05   22.8   0.0   1   1   8.1e-08   9.1e-05   22.8   0.0    53    91     4    43     1    79 0.78 -
JF1A_TRINITY_DN65386_c1_g5_i1.p1JF1A_TRINITY_DN65386_c1_g5 -            140 32798at3193          -            576   0.00063   20.0   1.7   1   2   1.2e-06    0.0014   18.9   0.5   517   548     2    33     1    52 0.91 -
JF1A_TRINITY_DN65386_c1_g5_i1.p1JF1A_TRINITY_DN65386_c1_g5 -            140 32798at3193          -            576   0.00063   20.0   1.7   2   2      0.44   4.9e+02    0.6   0.1   466   545    43   127    35   134 0.59 -
JF1A_TRINITY_DN47645_c0_g1_i2.p1JF1A_TRINITY_DN47645_c0_g1 -            226 32798at3193          -            576    0.0023   18.2   0.0   1   1     3e-06    0.0033   17.6   0.0   514   545    16    47     2    57 0.83 -
JF2A_TRINITY_DN42388_c0_g6_i1.p1JF2A_TRINITY_DN42388_c0_g6 -            110 32798at3193          -            576    0.0053   16.9   0.0   1   1   4.9e-06    0.0055   16.9   0.0   429   472     9    61     5   101 0.78 -
JF3A_TRINITY_DN47081_c0_g4_i1.p1JF3A_TRINITY_DN47081_c0_g4 -            140 32798at3193          -            576      0.12   12.5   0.1   1   1   0.00013      0.15   12.2   0.1     1    22    99   120    99   139 0.90 -
JF1A_TRINITY_DN68408_c0_g3_i1.p1JF1A_TRINITY_DN68408_c0_g3 -            165 32798at3193          -            576      0.32   11.1   0.0   1   1   0.00035      0.39   10.8   0.0     3    29    16    42    14    98 0.88 -
JF1A_TRINITY_DN66408_c2_g2_i4.p1JF1A_TRINITY_DN66408_c2_g2 -            161 32798at3193          -            576      0.34   11.0   0.1   1   2     0.049        55    3.7   0.0     4    17    38    51    36    64 0.84 -
JF1A_TRINITY_DN66408_c2_g2_i4.p1JF1A_TRINITY_DN66408_c2_g2 -            161 32798at3193          -            576      0.34   11.0   0.1   2   2     0.015        16    5.4   0.0     4    22    91   108    88   132 0.80 -
#
# Program:         hmmsearch
# Version:         3.2.1 (June 2018)
# Pipeline mode:   SEARCH
# Query file:      /isg/shared/databases/BUSCO/odb10/embryophyta_odb10/hmms/32798at3193.hmm
# Target file:     Juniper_final_annotations_no_contam_lvl0.faa
# Option settings: /usr/local/bin/hmmsearch --domtblout /labs/Wegrzyn/Juniper_Pine/BUSCO/NEW/busco_juniper/run_embryophyta_odb10/hmmer_output/32798at3193.out --cpu 1 /isg/shared/databases/BUSCO/odb10/embryophyta_odb10/hmms/32798at3193.hmm Juniper_final_annotations_no_contam_lvl0.faa 
# Current dir:     /labs/Wegrzyn/Juniper_Pine/BUSCO/NEW
# Date:            Thu Aug  6 16:22:30 2020
# [ok]
