#                                                                                                                  --- full sequence --- -------------- this domain -------------   hmm coord   ali coord   env coord
# target name                                              accession   tlen query name           accession   qlen   E-value  score  bias   #  of  c-Evalue  i-Evalue  score  bias  from    to  from    to  from    to  acc description of target
#                                      ------------------- ---------- ----- -------------------- ---------- ----- --------- ------ ----- --- --- --------- --------- ------ ----- ----- ----- ----- ----- ----- ----- ---- ---------------------
JF2A_TRINITY_DN33983_c0_g1_i1.p1JF2A_TRINITY_DN33983_c0_g1 -            135 32900at3193          -            476   5.4e-45  156.1   1.8   1   2   1.1e-42   2.6e-38  134.1   0.0   161   243     1    97     1    99 0.89 -
JF2A_TRINITY_DN33983_c0_g1_i1.p1JF2A_TRINITY_DN33983_c0_g1 -            135 32900at3193          -            476   5.4e-45  156.1   1.8   2   2   9.7e-09   0.00023   22.2   0.4   290   314    99   123    97   131 0.90 -
JF1A_TRINITY_DN58754_c0_g1_i1.p1JF1A_TRINITY_DN58754_c0_g1 -            247 32900at3193          -            476   3.2e-08   34.9   0.0   1   1   7.6e-12   1.8e-07   32.4   0.0     8    63    32    93    29   131 0.82 -
JF1A_TRINITY_DN56808_c0_g2_i1.p1JF1A_TRINITY_DN56808_c0_g2 -            172 32900at3193          -            476      0.39   11.5   0.0   1   1   2.4e-05      0.56   11.0   0.0   258   305   118   165   114   168 0.93 -
#
# Program:         hmmsearch
# Version:         3.2.1 (June 2018)
# Pipeline mode:   SEARCH
# Query file:      /isg/shared/databases/BUSCO/odb10/embryophyta_odb10/hmms/32900at3193.hmm
# Target file:     Juniper_final_annotations_no_contam_lvl0.faa
# Option settings: /usr/local/bin/hmmsearch --domtblout /labs/Wegrzyn/Juniper_Pine/BUSCO/NEW/busco_juniper/run_embryophyta_odb10/hmmer_output/32900at3193.out --cpu 1 /isg/shared/databases/BUSCO/odb10/embryophyta_odb10/hmms/32900at3193.hmm Juniper_final_annotations_no_contam_lvl0.faa 
# Current dir:     /labs/Wegrzyn/Juniper_Pine/BUSCO/NEW
# Date:            Thu Aug  6 16:22:33 2020
# [ok]
