#                                                                                                                   --- full sequence --- -------------- this domain -------------   hmm coord   ali coord   env coord
# target name                                               accession   tlen query name           accession   qlen   E-value  score  bias   #  of  c-Evalue  i-Evalue  score  bias  from    to  from    to  from    to  acc description of target
#                                       ------------------- ---------- ----- -------------------- ---------- ----- --------- ------ ----- --- --- --------- --------- ------ ----- ----- ----- ----- ----- ----- ----- ---- ---------------------
JF3J_TRINITY_DN72453_c0_g2_i4.p1JF3J_TRINITY_DN72453_c0_g2  -            651 36176at3193          -            483  7.5e-249  828.1   9.1   1   2   6.3e-13   8.4e-10   39.7   0.2    14    54    39    89    32    97 0.85 -
JF3J_TRINITY_DN72453_c0_g2_i4.p1JF3J_TRINITY_DN72453_c0_g2  -            651 36176at3193          -            483  7.5e-249  828.1   9.1   2   2  6.9e-241  9.2e-238  791.5   3.7    50   483   115   590    94   590 0.93 -
JF2J_TRINITY_DN22437_c0_g1_i8.p1JF2J_TRINITY_DN22437_c0_g1  -            256 36176at3193          -            483    3e-108  364.4   0.0   1   1  2.7e-111  3.6e-108  364.1   0.0   287   483    25   227    16   227 0.97 -
JF1A_TRINITY_DN63098_c0_g1_i5.p1JF1A_TRINITY_DN63098_c0_g1  -            257 36176at3193          -            483   2.2e-81  275.8   0.3   1   1   2.2e-84     3e-81  275.3   0.3   174   395    25   256    10   257 0.92 -
JF1J_TRINITY_DN67557_c1_g1_i12.p1JF1J_TRINITY_DN67557_c1_g1 -            176 36176at3193          -            483     6e-73  248.0   0.1   1   1   5.5e-76   7.3e-73  247.7   0.1   237   369    28   160    13   166 0.97 -
JF3A_TRINITY_DN56619_c1_g5_i3.p1JF3A_TRINITY_DN56619_c1_g5  -            162 36176at3193          -            483   2.2e-61  209.8   0.1   1   1   1.9e-64   2.5e-61  209.6   0.1   359   483    23   149     8   149 0.92 -
JF1A_TRINITY_DN62944_c2_g1_i13.p1JF1A_TRINITY_DN62944_c2_g1 -            125 36176at3193          -            483   4.7e-47  162.6   0.1   1   1   3.9e-50   5.2e-47  162.4   0.1   241   329    37   125    17   125 0.92 -
JF1A_TRINITY_DN62944_c2_g1_i16.p1JF1A_TRINITY_DN62944_c2_g1 -            136 36176at3193          -            483   6.2e-46  158.9   0.5   1   1   5.4e-49   7.2e-46  158.6   0.5    76   170     9   112     4   134 0.85 -
JF1A_TRINITY_DN63098_c0_g1_i1.p1JF1A_TRINITY_DN63098_c0_g1  -            257 36176at3193          -            483   1.2e-43  151.4   0.1   1   1   1.1e-46   1.5e-43  151.0   0.1    71   224    82   245    68   256 0.83 -
JF1A_TRINITY_DN62944_c2_g1_i4.p1JF1A_TRINITY_DN62944_c2_g1  -            103 36176at3193          -            483   9.7e-42  145.0   0.7   1   1   8.9e-45   1.2e-41  144.7   0.7   135   212    14    95     7    99 0.94 -
JF3A_TRINITY_DN55820_c1_g1_i5.p1JF3A_TRINITY_DN55820_c1_g1  -            200 36176at3193          -            483   1.3e-41  144.7   2.0   1   2   8.4e-14   1.1e-10   42.6   0.2    13    54    18    69     9    78 0.85 -
JF3A_TRINITY_DN55820_c1_g1_i5.p1JF3A_TRINITY_DN55820_c1_g1  -            200 36176at3193          -            483   1.3e-41  144.7   2.0   2   2   1.1e-31   1.5e-28  101.5   0.1    50   119    95   175    76   181 0.81 -
JF1J_TRINITY_DN60953_c0_g1_i2.p1JF1J_TRINITY_DN60953_c0_g1  -            115 36176at3193          -            483   4.9e-35  122.9   0.4   1   1   4.5e-38     6e-35  122.6   0.4    98   191     1   107     1   112 0.90 -
JF3A_TRINITY_DN55820_c1_g1_i4.p1JF3A_TRINITY_DN55820_c1_g1  -            104 36176at3193          -            483     4e-32  113.3   0.5   1   1   3.6e-35   4.8e-32  113.1   0.5    76   150     5    89     2   100 0.89 -
JF3J_TRINITY_DN72453_c0_g2_i7.p1JF3J_TRINITY_DN72453_c0_g2  -            109 36176at3193          -            483   7.5e-32  112.4   0.6   1   1   6.9e-35   9.2e-32  112.1   0.6   105   172     6    83     2    89 0.90 -
JF3J_TRINITY_DN72453_c0_g2_i10.p1JF3J_TRINITY_DN72453_c0_g2 -            107 36176at3193          -            483   7.5e-28   99.2   0.1   1   1   5.7e-31   7.6e-28   99.2   0.1    65   119    17    71     3   102 0.83 -
JF3A_TRINITY_DN56619_c1_g5_i2.p1JF3A_TRINITY_DN56619_c1_g5  -            113 36176at3193          -            483   2.7e-27   97.4   0.0   1   1   2.3e-30     3e-27   97.2   0.0   408   483    21   100     9   100 0.92 -
JF1A_TRINITY_DN67707_c0_g2_i15.p1JF1A_TRINITY_DN67707_c0_g2 -            535 36176at3193          -            483   2.4e-24   87.7   0.1   1   3     4e-18   5.4e-15   56.8   0.0    91   202    92   212    83   229 0.85 -
JF1A_TRINITY_DN67707_c0_g2_i15.p1JF1A_TRINITY_DN67707_c0_g2 -            535 36176at3193          -            483   2.4e-24   87.7   0.1   2   3      0.45     6e+02    0.6   0.0   275   298   329   352   316   364 0.80 -
JF1A_TRINITY_DN67707_c0_g2_i15.p1JF1A_TRINITY_DN67707_c0_g2 -            535 36176at3193          -            483   2.4e-24   87.7   0.1   3   3   7.7e-09     1e-05   26.2   0.1   350   417   438   504   370   513 0.70 -
JF2A_TRINITY_DN42515_c1_g5_i2.p1JF2A_TRINITY_DN42515_c1_g5  -            262 36176at3193          -            483   5.6e-15   56.8   0.0   1   1   5.6e-18   7.4e-15   56.4   0.0    91   203    98   219    89   257 0.83 -
JF1A_TRINITY_DN63777_c1_g4_i2.p1JF1A_TRINITY_DN63777_c1_g4  -            213 36176at3193          -            483   3.4e-14   54.2   0.0   1   1   3.1e-17   4.2e-14   53.9   0.0    92   203    54   174    46   212 0.83 -
JF1A_TRINITY_DN63777_c1_g4_i1.p1JF1A_TRINITY_DN63777_c1_g4  -            257 36176at3193          -            483   5.4e-14   53.5   0.0   1   1   5.6e-17   7.5e-14   53.1   0.0    92   202    98   217    90   255 0.84 -
JF2A_TRINITY_DN41271_c0_g4_i2.p1JF2A_TRINITY_DN41271_c0_g4  -            224 36176at3193          -            483   7.7e-14   53.0   0.7   1   2       3.8   5.1e+03   -2.4   0.1   273   286    47    60    13    68 0.73 -
JF2A_TRINITY_DN41271_c0_g4_i2.p1JF2A_TRINITY_DN41271_c0_g4  -            224 36176at3193          -            483   7.7e-14   53.0   0.7   2   2   5.7e-17   7.7e-14   53.0   0.7   310   416   105   219    98   222 0.85 -
JF2A_TRINITY_DN41271_c0_g5_i2.p1JF2A_TRINITY_DN41271_c0_g5  -            151 36176at3193          -            483   1.5e-13   52.1   1.1   1   1   1.4e-16   1.9e-13   51.7   1.1   310   416    34   148    28   150 0.83 -
JF1A_TRINITY_DN63522_c0_g2_i10.p1JF1A_TRINITY_DN63522_c0_g2 -            274 36176at3193          -            483   1.8e-13   51.8   1.7   1   1   6.6e-16   8.8e-13   49.5   1.7   275   425    70   253    59   263 0.69 -
JF1A_TRINITY_DN64122_c0_g1_i1.p1JF1A_TRINITY_DN64122_c0_g1  -            254 36176at3193          -            483   4.5e-12   47.2   0.9   1   2       1.7   2.3e+03   -1.3   0.0   271   287    77    93    34   110 0.74 -
JF1A_TRINITY_DN64122_c0_g1_i1.p1JF1A_TRINITY_DN64122_c0_g1  -            254 36176at3193          -            483   4.5e-12   47.2   0.9   2   2   3.4e-15   4.5e-12   47.2   0.9   310   416   137   251   131   253 0.85 -
JF1A_TRINITY_DN64122_c0_g1_i2.p1JF1A_TRINITY_DN64122_c0_g1  -            286 36176at3193          -            483   5.9e-12   46.8   0.9   1   3       2.9   3.9e+03   -2.1   0.0   343   367     9    33     5    38 0.77 -
JF1A_TRINITY_DN64122_c0_g1_i2.p1JF1A_TRINITY_DN64122_c0_g1  -            286 36176at3193          -            483   5.9e-12   46.8   0.9   2   3       2.6   3.5e+03   -1.9   0.0   271   287   109   125    78   141 0.77 -
JF1A_TRINITY_DN64122_c0_g1_i2.p1JF1A_TRINITY_DN64122_c0_g1  -            286 36176at3193          -            483   5.9e-12   46.8   0.9   3   3   4.4e-15   5.9e-12   46.8   0.9   310   416   169   283   163   285 0.85 -
JF1A_TRINITY_DN64148_c2_g3_i1.p1JF1A_TRINITY_DN64148_c2_g3  -            158 36176at3193          -            483   2.4e-11   44.8   0.2   1   1   2.2e-14     3e-11   44.5   0.2   307   411    11   124     6   148 0.78 -
JF1A_TRINITY_DN61538_c4_g3_i1.p1JF1A_TRINITY_DN61538_c4_g3  -            273 36176at3193          -            483   3.3e-11   44.3   0.8   1   2     0.085   1.1e+02    3.0   0.0   271   306   106   141    92   153 0.79 -
JF1A_TRINITY_DN61538_c4_g3_i1.p1JF1A_TRINITY_DN61538_c4_g3  -            273 36176at3193          -            483   3.3e-11   44.3   0.8   2   2   5.3e-13   7.1e-10   39.9   0.2   309   404   165   270   156   273 0.74 -
JF1J_TRINITY_DN62233_c3_g5_i4.p1JF1J_TRINITY_DN62233_c3_g5  -            135 36176at3193          -            483     3e-10   41.2   0.1   1   1   2.6e-13   3.4e-10   41.0   0.1   139   202     5    72     1   109 0.88 -
JF1J_TRINITY_DN60849_c0_g1_i7.p1JF1J_TRINITY_DN60849_c0_g1  -            226 36176at3193          -            483   4.3e-10   40.7   0.2   1   2   8.4e-13   1.1e-09   39.3   0.1    87   199    50   171    21   184 0.78 -
JF1J_TRINITY_DN60849_c0_g1_i7.p1JF1J_TRINITY_DN60849_c0_g1  -            226 36176at3193          -            483   4.3e-10   40.7   0.2   2   2       1.4   1.9e+03   -1.1   0.0   342   367   184   209   176   216 0.78 -
JF2A_TRINITY_DN3985_c0_g1_i2.p1JF2A_TRINITY_DN3985_c0_g1    -            153 36176at3193          -            483     3e-09   37.9   0.1   1   1   3.4e-12   4.5e-09   37.3   0.1   311   414     7   123     3   146 0.81 -
JF2J_TRINITY_DN17417_c0_g1_i1.p1JF2J_TRINITY_DN17417_c0_g1  -            123 36176at3193          -            483   3.5e-09   37.7   0.0   1   1   3.1e-12   4.1e-09   37.4   0.0   116   201     4    96     2   106 0.84 -
JF3J_TRINITY_DN35484_c0_g1_i3.p1JF3J_TRINITY_DN35484_c0_g1  -            105 36176at3193          -            483     5e-09   37.1   0.1   1   1   3.8e-12     5e-09   37.1   0.1   139   203     2    70     1    96 0.87 -
JF2A_TRINITY_DN40885_c3_g4_i2.p1JF2A_TRINITY_DN40885_c3_g4  -            166 36176at3193          -            483   9.2e-09   36.3   0.0   1   1   8.1e-12   1.1e-08   36.0   0.0   128   236    36   150    28   162 0.78 -
JF1A_TRINITY_DN68562_c5_g1_i1.p1JF1A_TRINITY_DN68562_c5_g1  -            132 36176at3193          -            483   1.2e-08   35.9   0.1   1   1     1e-11   1.4e-08   35.7   0.1   362   413    48    99    28   111 0.88 -
JF1A_TRINITY_DN48452_c0_g1_i1.p1JF1A_TRINITY_DN48452_c0_g1  -            102 36176at3193          -            483   2.5e-07   31.5   0.0   1   1   1.9e-10   2.5e-07   31.5   0.0   358   411    37    89     2    98 0.84 -
JF3J_TRINITY_DN72393_c5_g2_i1.p1JF3J_TRINITY_DN72393_c5_g2  -            203 36176at3193          -            483   4.4e-07   30.7   0.0   1   1   3.8e-10   5.1e-07   30.5   0.0   114   200    14   107     5   144 0.82 -
JF1A_TRINITY_DN60366_c0_g1_i1.p1JF1A_TRINITY_DN60366_c0_g1  -            263 36176at3193          -            483   6.6e-07   30.2   0.4   1   2     4e-08   5.4e-05   23.8   0.1   138   202     3    72     1   113 0.82 -
JF1A_TRINITY_DN60366_c0_g1_i1.p1JF1A_TRINITY_DN60366_c0_g1  -            263 36176at3193          -            483   6.6e-07   30.2   0.4   2   2     0.048        64    3.8   0.0   270   301   180   211   151   262 0.75 -
JF1A_TRINITY_DN61445_c0_g1_i26.p2JF1A_TRINITY_DN61445_c0_g1 -            161 36176at3193          -            483   7.7e-07   29.9   0.1   1   2     0.038        50    4.2   0.0    91   115    21    45    14    51 0.85 -
JF1A_TRINITY_DN61445_c0_g1_i26.p2JF1A_TRINITY_DN61445_c0_g1 -            161 36176at3193          -            483   7.7e-07   29.9   0.1   2   2   2.5e-08   3.3e-05   24.5   0.0   139   200    50   115    45   153 0.82 -
JF1J_TRINITY_DN62233_c3_g5_i2.p1JF1J_TRINITY_DN62233_c3_g5  -            132 36176at3193          -            483   1.1e-06   29.4   0.1   1   1     9e-10   1.2e-06   29.3   0.1   152   202    13    66     8   103 0.89 -
JF2A_TRINITY_DN27994_c0_g1_i2.p1JF2A_TRINITY_DN27994_c0_g1  -            147 36176at3193          -            483   1.9e-06   28.7   0.0   1   1   1.7e-09   2.3e-06   28.4   0.0    91   170    47   133    37   142 0.83 -
JF1J_TRINITY_DN70998_c3_g2_i2.p1JF1J_TRINITY_DN70998_c3_g2  -            125 36176at3193          -            483   2.8e-06   28.1   0.0   1   1   2.2e-09   2.9e-06   28.0   0.0    89   166    38   121    20   125 0.83 -
JF1A_TRINITY_DN63777_c1_g1_i5.p1JF1A_TRINITY_DN63777_c1_g1  -            126 36176at3193          -            483   1.8e-05   25.4   0.1   1   1   1.6e-08   2.1e-05   25.2   0.1   334   412    13    92     4   106 0.84 -
JF3J_TRINITY_DN77473_c0_g1_i1.p1JF3J_TRINITY_DN77473_c0_g1  -            133 36176at3193          -            483   3.9e-05   24.3   0.0   1   1   2.9e-08   3.9e-05   24.3   0.0   121   201     5    92     1   122 0.77 -
JF1J_TRINITY_DN60849_c0_g1_i1.p1JF1J_TRINITY_DN60849_c0_g1  -            204 36176at3193          -            483   8.2e-05   23.2   0.1   1   2   1.8e-07   0.00024   21.7   0.0   112   199    55   149    10   162 0.71 -
JF1J_TRINITY_DN60849_c0_g1_i1.p1JF1J_TRINITY_DN60849_c0_g1  -            204 36176at3193          -            483   8.2e-05   23.2   0.1   2   2       1.3   1.7e+03   -0.9   0.0   342   367   162   187   155   194 0.77 -
JF1A_TRINITY_DN63777_c1_g1_i2.p1JF1A_TRINITY_DN63777_c1_g1  -            287 36176at3193          -            483   0.00014   22.5   0.1   1   2       1.2   1.6e+03   -0.8   0.0   272   285    78    91    57    96 0.84 -
JF1A_TRINITY_DN63777_c1_g1_i2.p1JF1A_TRINITY_DN63777_c1_g1  -            287 36176at3193          -            483   0.00014   22.5   0.1   2   2   3.8e-07    0.0005   20.6   0.0   353   412   193   253   126   265 0.75 -
JF2A_TRINITY_DN40562_c1_g2_i1.p1JF2A_TRINITY_DN40562_c1_g2  -            143 36176at3193          -            483   0.00031   21.3   0.1   1   2   4.5e-07   0.00061   20.4   0.0   143   199     7    67     1    77 0.79 -
JF2A_TRINITY_DN40562_c1_g2_i1.p1JF2A_TRINITY_DN40562_c1_g2  -            143 36176at3193          -            483   0.00031   21.3   0.1   2   2       2.8   3.8e+03   -2.0   0.0   348   367    86   105    74   110 0.78 -
JF1A_TRINITY_DN64122_c0_g8_i2.p1JF1A_TRINITY_DN64122_c0_g8  -            173 36176at3193          -            483    0.0041   17.6   0.0   1   1   4.1e-06    0.0055   17.2   0.0    88   148    92   157    74   166 0.76 -
JF1A_TRINITY_DN36376_c0_g1_i1.p1JF1A_TRINITY_DN36376_c0_g1  -            126 36176at3193          -            483     0.033   14.6   0.1   1   1   2.5e-05     0.034   14.6   0.1   177   210     1    34     1   116 0.60 -
JF1A_TRINITY_DN64122_c0_g1_i6.p1JF1A_TRINITY_DN64122_c0_g1  -            108 36176at3193          -            483     0.039   14.4   0.1   1   1   3.9e-05     0.052   14.0   0.1   310   380    13    92     8    97 0.81 -
JF1J_TRINITY_DN60849_c0_g1_i4.p1JF1J_TRINITY_DN60849_c0_g1  -            118 36176at3193          -            483     0.055   13.9   0.2   1   2   0.00026      0.35   11.3   0.0   165   199    29    63    16    72 0.86 -
JF1J_TRINITY_DN60849_c0_g1_i4.p1JF1J_TRINITY_DN60849_c0_g1  -            118 36176at3193          -            483     0.055   13.9   0.2   2   2       0.5   6.7e+02    0.5   0.0   341   367    75   101    69   110 0.78 -
JF1J_TRINITY_DN72031_c2_g1_i4.p1JF1J_TRINITY_DN72031_c2_g1  -            217 36176at3193          -            483     0.087   13.3   0.5   1   3      0.48   6.4e+02    0.5   0.0   414   464    18    67     6    74 0.83 -
JF1J_TRINITY_DN72031_c2_g1_i4.p1JF1J_TRINITY_DN72031_c2_g1  -            217 36176at3193          -            483     0.087   13.3   0.5   2   3   0.00085       1.1    9.6   0.1   418   465    82   128    63   145 0.83 -
JF1J_TRINITY_DN72031_c2_g1_i4.p1JF1J_TRINITY_DN72031_c2_g1  -            217 36176at3193          -            483     0.087   13.3   0.5   3   3       1.3   1.8e+03   -1.0   0.0   314   336   186   208   175   211 0.83 -
JF1A_TRINITY_DN64122_c0_g4_i1.p1JF1A_TRINITY_DN64122_c0_g4  -            159 36176at3193          -            483      0.22   12.0   0.0   1   1   0.00019      0.25   11.8   0.0    91   133    99   143    85   159 0.80 -
JF3J_TRINITY_DN69413_c0_g1_i1.p1JF3J_TRINITY_DN69413_c0_g1  -            124 36176at3193          -            483      0.48   10.8   0.0   1   1   0.00044      0.59   10.5   0.0   410   459    33    81    23    88 0.83 -
#
# Program:         hmmsearch
# Version:         3.2.1 (June 2018)
# Pipeline mode:   SEARCH
# Query file:      /isg/shared/databases/BUSCO/odb10/embryophyta_odb10/hmms/36176at3193.hmm
# Target file:     Juniper_final_annotations_no_contam_lvl0.faa
# Option settings: /usr/local/bin/hmmsearch --domtblout /labs/Wegrzyn/Juniper_Pine/BUSCO/NEW/busco_juniper/run_embryophyta_odb10/hmmer_output/36176at3193.out --cpu 1 /isg/shared/databases/BUSCO/odb10/embryophyta_odb10/hmms/36176at3193.hmm Juniper_final_annotations_no_contam_lvl0.faa 
# Current dir:     /labs/Wegrzyn/Juniper_Pine/BUSCO/NEW
# Date:            Thu Aug  6 16:23:27 2020
# [ok]
