#                                                                                                                   --- full sequence --- -------------- this domain -------------   hmm coord   ali coord   env coord
# target name                                               accession   tlen query name           accession   qlen   E-value  score  bias   #  of  c-Evalue  i-Evalue  score  bias  from    to  from    to  from    to  acc description of target
#                                       ------------------- ---------- ----- -------------------- ---------- ----- --------- ------ ----- --- --- --------- --------- ------ ----- ----- ----- ----- ----- ----- ----- ---- ---------------------
JF2A_TRINITY_DN42487_c3_g2_i5.p1JF2A_TRINITY_DN42487_c3_g2  -            554 37755at3193          -            545  1.8e-104  352.1   3.7   1   1  1.7e-107  2.6e-104  351.6   3.7     4   391   112   541   110   549 0.86 -
JF1A_TRINITY_DN62231_c1_g1_i1.p1JF1A_TRINITY_DN62231_c1_g1  -            207 37755at3193          -            545   2.3e-94  318.8   0.2   1   1   1.8e-97   2.6e-94  318.6   0.2   360   545     1   200     1   200 0.96 -
JF1A_TRINITY_DN62231_c1_g7_i1.p1JF1A_TRINITY_DN62231_c1_g7  -            227 37755at3193          -            545     6e-87  294.3   1.4   1   1     5e-90   7.3e-87  294.0   1.4   188   369     1   207     1   215 0.91 -
JF1A_TRINITY_DN67823_c0_g4_i1.p1JF1A_TRINITY_DN67823_c0_g4  -            135 37755at3193          -            545   1.2e-68  233.9   0.3   1   1   9.3e-72   1.4e-68  233.7   0.3     1   111    21   134    21   135 0.98 -
JF1A_TRINITY_DN62231_c1_g1_i2.p1JF1A_TRINITY_DN62231_c1_g1  -            171 37755at3193          -            545   5.1e-58  198.8   0.2   1   1     4e-61     6e-58  198.6   0.2   360   484     1   136     1   144 0.93 -
JF1J_TRINITY_DN71537_c4_g2_i1.p1JF1J_TRINITY_DN71537_c4_g2  -            138 37755at3193          -            545   3.2e-54  186.3   0.9   1   1   2.4e-57   3.6e-54  186.1   0.9   295   407     1   124     1   133 0.92 -
JF3J_TRINITY_DN70703_c0_g3_i10.p1JF3J_TRINITY_DN70703_c0_g3 -            186 37755at3193          -            545     4e-47  162.9   0.3   1   1   3.5e-50   5.2e-47  162.5   0.3    11   156    18   168    14   174 0.91 -
JF3J_TRINITY_DN69492_c0_g2_i4.p1JF3J_TRINITY_DN69492_c0_g2  -            258 37755at3193          -            545   5.9e-47  162.3   0.1   1   1   4.7e-50     7e-47  162.1   0.1   316   536    13   250     6   257 0.85 -
JF1A_TRINITY_DN68384_c1_g3_i11.p1JF1A_TRINITY_DN68384_c1_g3 -            800 37755at3193          -            545   2.2e-32  114.2   0.4   1   4   1.7e-25   2.5e-22   81.0   0.0     5   126   112   242   109   269 0.89 -
JF1A_TRINITY_DN68384_c1_g3_i11.p1JF1A_TRINITY_DN68384_c1_g3 -            800 37755at3193          -            545   2.2e-32  114.2   0.4   2   4       3.6   5.4e+03   -2.6   0.0   156   185   358   386   348   388 0.80 -
JF1A_TRINITY_DN68384_c1_g3_i11.p1JF1A_TRINITY_DN68384_c1_g3 -            800 37755at3193          -            545   2.2e-32  114.2   0.4   3   4   4.2e-07   0.00063   20.3   0.0   231   361   468   595   409   605 0.80 -
JF1A_TRINITY_DN68384_c1_g3_i11.p1JF1A_TRINITY_DN68384_c1_g3 -            800 37755at3193          -            545   2.2e-32  114.2   0.4   4   4    0.0016       2.4    8.5   0.0   355   395   704   744   696   780 0.81 -
JF2A_TRINITY_DN39653_c0_g4_i2.p1JF2A_TRINITY_DN39653_c0_g4  -            345 37755at3193          -            545   5.2e-31  109.7   0.0   1   1   6.8e-34     1e-30  108.7   0.0     3   214    82   304    80   335 0.81 -
JF1A_TRINITY_DN66700_c2_g1_i4.p1JF1A_TRINITY_DN66700_c2_g1  -            212 37755at3193          -            545   1.7e-29  104.7   0.0   1   2      0.27   3.9e+02    1.2   0.0   108   139     7    40     4    62 0.75 -
JF1A_TRINITY_DN66700_c2_g1_i4.p1JF1A_TRINITY_DN66700_c2_g1  -            212 37755at3193          -            545   1.7e-29  104.7   0.0   2   2   9.5e-32   1.4e-28  101.6   0.0     3   129    63   200    61   208 0.86 -
JF1J_TRINITY_DN72760_c1_g3_i4.p1JF1J_TRINITY_DN72760_c1_g3  -            339 37755at3193          -            545   2.5e-26   94.2   0.0   1   2   9.9e-07    0.0015   19.1   0.0    71   126     6    61     2    94 0.93 -
JF1J_TRINITY_DN72760_c1_g3_i4.p1JF1J_TRINITY_DN72760_c1_g3  -            339 37755at3193          -            545   2.5e-26   94.2   0.0   2   2   3.8e-23   5.6e-20   73.3   0.0     5   116   216   336   213   339 0.88 -
JF1A_TRINITY_DN67895_c2_g1_i4.p1JF1A_TRINITY_DN67895_c2_g1  -            366 37755at3193          -            545   1.3e-25   91.8   0.0   1   1   1.2e-27   1.7e-24   88.2   0.0     2   189    49   247    48   286 0.72 -
JF1A_TRINITY_DN66646_c2_g1_i14.p1JF1A_TRINITY_DN66646_c2_g1 -            245 37755at3193          -            545   1.6e-24   88.2   1.9   1   1     1e-25   1.5e-22   81.8   1.9     4   133    18   170    16   183 0.82 -
JF1A_TRINITY_DN57841_c0_g2_i3.p1JF1A_TRINITY_DN57841_c0_g2  -            358 37755at3193          -            545   9.9e-24   85.7   0.1   1   2   1.4e-26   2.1e-23   84.6   0.1     3   126    30   165    28   174 0.88 -
JF1A_TRINITY_DN57841_c0_g2_i3.p1JF1A_TRINITY_DN57841_c0_g2  -            358 37755at3193          -            545   9.9e-24   85.7   0.1   2   2       4.1     6e+03   -2.7   0.0   156   187   280   310   252   318 0.75 -
JF3A_TRINITY_DN55267_c4_g2_i2.p1JF3A_TRINITY_DN55267_c4_g2  -            176 37755at3193          -            545     3e-19   70.9   0.0   1   1   2.4e-22   3.6e-19   70.6   0.0   189   314    16   154     8   168 0.80 -
JF1A_TRINITY_DN66427_c2_g2_i3.p1JF1A_TRINITY_DN66427_c2_g2  -            453 37755at3193          -            545   7.7e-18   66.2   0.9   1   1   1.4e-20   2.1e-17   64.8   0.9     7   243    91   364    86   376 0.71 -
JF1A_TRINITY_DN64814_c0_g7_i7.p1JF1A_TRINITY_DN64814_c0_g7  -            488 37755at3193          -            545   3.3e-17   64.1   0.0   1   1   3.3e-20   4.9e-17   63.6   0.0     4   129   122   260   119   270 0.81 -
JF2A_TRINITY_DN42902_c0_g1_i2.p1JF2A_TRINITY_DN42902_c0_g1  -            217 37755at3193          -            545   1.4e-16   62.1   0.0   1   1   1.1e-19   1.6e-16   61.9   0.0     7   146    23   170    16   206 0.81 -
JF2A_TRINITY_DN42711_c0_g1_i4.p1JF2A_TRINITY_DN42711_c0_g1  -            820 37755at3193          -            545   1.3e-15   58.9   1.5   1   3   1.1e-15   1.6e-12   48.6   0.4    61   133    74   146    25   157 0.83 -
JF2A_TRINITY_DN42711_c0_g1_i4.p1JF2A_TRINITY_DN42711_c0_g1  -            820 37755at3193          -            545   1.3e-15   58.9   1.5   2   3     0.022        33    4.7   0.1   210   376   390   567   350   594 0.57 -
JF2A_TRINITY_DN42711_c0_g1_i4.p1JF2A_TRINITY_DN42711_c0_g1  -            820 37755at3193          -            545   1.3e-15   58.9   1.5   3   3       1.1   1.6e+03   -0.8   0.0   354   419   701   771   671   782 0.66 -
JF2J_TRINITY_DN26868_c0_g1_i7.p1JF2J_TRINITY_DN26868_c0_g1  -            141 37755at3193          -            545   1.7e-14   55.2   0.0   1   1   1.3e-17   1.9e-14   55.0   0.0   111   212     7   125     1   135 0.81 -
JF3A_TRINITY_DN33240_c0_g1_i1.p1JF3A_TRINITY_DN33240_c0_g1  -            142 37755at3193          -            545   1.3e-10   42.4   0.3   1   2   5.9e-13   8.7e-10   39.6   0.1    66   131     5    70     2    86 0.92 -
JF3A_TRINITY_DN33240_c0_g1_i1.p1JF3A_TRINITY_DN33240_c0_g1  -            142 37755at3193          -            545   1.3e-10   42.4   0.3   2   2      0.28   4.2e+02    1.1   0.0   391   431    98   137    79   140 0.84 -
JF1A_TRINITY_DN60872_c0_g3_i1.p1JF1A_TRINITY_DN60872_c0_g3  -            338 37755at3193          -            545   2.6e-10   41.3   0.2   1   1   2.5e-13   3.8e-10   40.8   0.2    59   243    13   221     7   235 0.74 -
JF1J_TRINITY_DN61878_c2_g3_i2.p1JF1J_TRINITY_DN61878_c2_g3  -            253 37755at3193          -            545   2.5e-09   38.1   0.1   1   1   2.1e-12   3.1e-09   37.8   0.1     2    90   150   253   149   253 0.77 -
JF3J_TRINITY_DN73932_c1_g2_i15.p1JF3J_TRINITY_DN73932_c1_g2 -            153 37755at3193          -            545   1.5e-07   32.2   0.1   1   1   9.7e-10   1.4e-06   29.0   0.1     7    98     9   122     4   130 0.72 -
JF1A_TRINITY_DN68349_c2_g1_i28.p1JF1A_TRINITY_DN68349_c2_g1 -            787 37755at3193          -            545   6.3e-07   30.2   0.1   1   1   8.1e-10   1.2e-06   29.3   0.1     9   131   263   381   256   421 0.79 -
JF2J_TRINITY_DN25485_c1_g1_i3.p1JF2J_TRINITY_DN25485_c1_g1  -            142 37755at3193          -            545   9.9e-07   29.5   0.5   1   1   1.4e-09   2.1e-06   28.5   0.5    13   125    15   122    11   129 0.81 -
JF1J_TRINITY_DN73178_c2_g1_i8.p1JF1J_TRINITY_DN73178_c2_g1  -            172 37755at3193          -            545   1.3e-06   29.1   0.1   1   1   6.8e-09     1e-05   26.2   0.1     7    98     9   122     4   150 0.74 -
JF1A_TRINITY_DN66700_c2_g1_i3.p1JF1A_TRINITY_DN66700_c2_g1  -            132 37755at3193          -            545   8.1e-06   26.5   0.9   1   2      0.21   3.1e+02    1.5   0.0   108   139     7    40     4    47 0.79 -
JF1A_TRINITY_DN66700_c2_g1_i3.p1JF1A_TRINITY_DN66700_c2_g1  -            132 37755at3193          -            545   8.1e-06   26.5   0.9   2   2   3.7e-08   5.4e-05   23.8   0.2    80   139    54   115    43   125 0.87 -
JF3J_TRINITY_DN71820_c2_g3_i1.p1JF3J_TRINITY_DN71820_c2_g3  -            279 37755at3193          -            545   8.3e-06   26.5   0.0   1   1   7.8e-09   1.2e-05   26.0   0.0     9   125    75   198    66   205 0.79 -
JF1A_TRINITY_DN68606_c3_g1_i10.p1JF1A_TRINITY_DN68606_c3_g1 -            448 37755at3193          -            545     9e-06   26.4   0.1   1   1     3e-08   4.4e-05   24.1   0.1     7    99     9   123     4   193 0.66 -
JF2J_TRINITY_DN28065_c0_g1_i18.p1JF2J_TRINITY_DN28065_c0_g1 -            421 37755at3193          -            545   1.2e-05   26.0   0.1   1   1   4.4e-08   6.5e-05   23.5   0.1     7    99     9   123     4   183 0.69 -
JF1A_TRINITY_DN66580_c2_g2_i7.p1JF1A_TRINITY_DN66580_c2_g2  -            105 37755at3193          -            545   1.5e-05   25.6   0.0   1   1   1.1e-08   1.6e-05   25.6   0.0    45   126     1    93     1   105 0.74 -
JF3A_TRINITY_DN58752_c2_g1_i1.p1JF3A_TRINITY_DN58752_c2_g1  -            232 37755at3193          -            545   3.2e-05   24.6   1.9   1   1     6e-08   8.8e-05   23.1   1.9    84   243    18   207     8   218 0.67 -
JF2J_TRINITY_DN28856_c0_g1_i6.p1JF2J_TRINITY_DN28856_c0_g1  -            126 37755at3193          -            545     4e-05   24.3   0.0   1   1   3.2e-08   4.7e-05   24.0   0.0   361   446    13   107     7   116 0.75 -
JF2A_TRINITY_DN42693_c1_g1_i1.p1JF2A_TRINITY_DN42693_c1_g1  -            342 37755at3193          -            545   0.00061   20.3   0.0   1   1   8.2e-07    0.0012   19.4   0.0   234   354    28   144     3   152 0.81 -
JF3A_TRINITY_DN52062_c5_g1_i1.p1JF3A_TRINITY_DN52062_c5_g1  -            125 37755at3193          -            545   0.00083   19.9   0.1   1   1   7.7e-07    0.0011   19.4   0.1     4    22    93   111    90   118 0.88 -
JF3A_TRINITY_DN52062_c5_g1_i2.p1JF3A_TRINITY_DN52062_c5_g1  -            123 37755at3193          -            545   0.00084   19.9   0.1   1   1   7.5e-07    0.0011   19.5   0.1     4    22    91   109    88   116 0.88 -
JF1A_TRINITY_DN60872_c0_g5_i2.p1JF1A_TRINITY_DN60872_c0_g5  -            118 37755at3193          -            545    0.0014   19.1   0.1   1   1   1.2e-06    0.0018   18.8   0.1     7    54    61   112    56   117 0.68 -
JF1A_TRINITY_DN68349_c2_g1_i10.p1JF1A_TRINITY_DN68349_c2_g1 -            496 37755at3193          -            545    0.0041   17.6   0.4   1   1   5.9e-06    0.0087   16.5   0.4     9   103    30   119    23   137 0.75 -
JF1J_TRINITY_DN67907_c4_g3_i6.p1JF1J_TRINITY_DN67907_c4_g3  -            114 37755at3193          -            545     0.022   15.2   0.0   1   1   0.00014      0.21   12.0   0.0     7    72     9    96     4   110 0.63 -
JF3A_TRINITY_DN45937_c0_g1_i3.p1JF3A_TRINITY_DN45937_c0_g1  -            112 37755at3193          -            545     0.023   15.1   0.0   1   1   1.6e-05     0.024   15.1   0.0    46   124    27   105     8   109 0.81 -
JF2A_TRINITY_DN43520_c0_g1_i1.p1JF2A_TRINITY_DN43520_c0_g1  -            102 37755at3193          -            545     0.032   14.7   0.0   1   1   2.2e-05     0.032   14.6   0.0    65   147     1    94     1   102 0.79 -
JF1A_TRINITY_DN66870_c4_g8_i1.p1JF1A_TRINITY_DN66870_c4_g8  -            128 37755at3193          -            545      0.06   13.8   0.0   1   1   0.00013      0.19   12.1   0.0     5    32    46    73    42   126 0.83 -
JF1J_TRINITY_DN57220_c0_g1_i4.p1JF1J_TRINITY_DN57220_c0_g1  -            118 37755at3193          -            545      0.14   12.5   0.0   1   1   0.00011      0.16   12.4   0.0   234   291    28    85     3   103 0.81 -
JF1J_TRINITY_DN57220_c0_g1_i1.p1JF1J_TRINITY_DN57220_c0_g1  -            154 37755at3193          -            545      0.26   11.7   0.0   1   1   0.00025      0.36   11.2   0.0   234   288    34    88     7   102 0.81 -
JF3J_TRINITY_DN69616_c2_g3_i2.p1JF3J_TRINITY_DN69616_c2_g3  -            165 37755at3193          -            545      0.33   11.3   0.0   1   1   0.00027       0.4   11.0   0.0   234   287    34    87     3    98 0.79 -
#
# Program:         hmmsearch
# Version:         3.2.1 (June 2018)
# Pipeline mode:   SEARCH
# Query file:      /isg/shared/databases/BUSCO/odb10/embryophyta_odb10/hmms/37755at3193.hmm
# Target file:     Juniper_final_annotations_no_contam_lvl0.faa
# Option settings: /usr/local/bin/hmmsearch --domtblout /labs/Wegrzyn/Juniper_Pine/BUSCO/NEW/busco_juniper/run_embryophyta_odb10/hmmer_output/37755at3193.out --cpu 1 /isg/shared/databases/BUSCO/odb10/embryophyta_odb10/hmms/37755at3193.hmm Juniper_final_annotations_no_contam_lvl0.faa 
# Current dir:     /labs/Wegrzyn/Juniper_Pine/BUSCO/NEW
# Date:            Thu Aug  6 16:23:48 2020
# [ok]
