#                                                                                                                  --- full sequence --- -------------- this domain -------------   hmm coord   ali coord   env coord
# target name                                              accession   tlen query name           accession   qlen   E-value  score  bias   #  of  c-Evalue  i-Evalue  score  bias  from    to  from    to  from    to  acc description of target
#                                      ------------------- ---------- ----- -------------------- ---------- ----- --------- ------ ----- --- --- --------- --------- ------ ----- ----- ----- ----- ----- ----- ----- ---- ---------------------
JF1A_TRINITY_DN33353_c0_g1_i1.p1JF1A_TRINITY_DN33353_c0_g1 -            149 38883at3193          -            455   5.1e-72  245.0   0.0   1   1   1.8e-76   6.2e-72  244.8   0.0   114   235    19   149    13   149 0.95 -
JF2A_TRINITY_DN38798_c0_g1_i2.p1JF2A_TRINITY_DN38798_c0_g1 -            153 38883at3193          -            455   9.8e-05   23.2   0.0   1   1   3.5e-09   0.00012   22.9   0.0   312   452     7   146     1   149 0.83 -
#
# Program:         hmmsearch
# Version:         3.2.1 (June 2018)
# Pipeline mode:   SEARCH
# Query file:      /isg/shared/databases/BUSCO/odb10/embryophyta_odb10/hmms/38883at3193.hmm
# Target file:     Juniper_final_annotations_no_contam_lvl0.faa
# Option settings: /usr/local/bin/hmmsearch --domtblout /labs/Wegrzyn/Juniper_Pine/BUSCO/NEW/busco_juniper/run_embryophyta_odb10/hmmer_output/38883at3193.out --cpu 1 /isg/shared/databases/BUSCO/odb10/embryophyta_odb10/hmms/38883at3193.hmm Juniper_final_annotations_no_contam_lvl0.faa 
# Current dir:     /labs/Wegrzyn/Juniper_Pine/BUSCO/NEW
# Date:            Thu Aug  6 16:24:20 2020
# [ok]
