#                                                                                                                   --- full sequence --- -------------- this domain -------------   hmm coord   ali coord   env coord
# target name                                               accession   tlen query name           accession   qlen   E-value  score  bias   #  of  c-Evalue  i-Evalue  score  bias  from    to  from    to  from    to  acc description of target
#                                       ------------------- ---------- ----- -------------------- ---------- ----- --------- ------ ----- --- --- --------- --------- ------ ----- ----- ----- ----- ----- ----- ----- ---- ---------------------
JF1A_TRINITY_DN60302_c0_g1_i2.p1JF1A_TRINITY_DN60302_c0_g1  -            454 40351at3193          -            453  1.7e-134  450.8   7.4   1   2   1.6e-19   7.3e-16   59.7   2.2     1    69    50   121    50   134 0.91 -
JF1A_TRINITY_DN60302_c0_g1_i2.p1JF1A_TRINITY_DN60302_c0_g1  -            454 40351at3193          -            453  1.7e-134  450.8   7.4   2   2  3.6e-119  1.7e-115  388.2   0.3    66   330   145   454   126   454 0.86 -
JF1J_TRINITY_DN68555_c6_g2_i1.p1JF1J_TRINITY_DN68555_c6_g2  -            175 40351at3193          -            453   2.3e-68  232.8   2.5   1   1   2.3e-71   1.1e-67  230.6   2.5    66   238     9   175     5   175 0.87 -
JF1A_TRINITY_DN26208_c0_g1_i2.p1JF1A_TRINITY_DN26208_c0_g1  -            128 40351at3193          -            453   2.7e-48  166.7   0.2   1   1   6.5e-52     3e-48  166.5   0.2   347   453     3   120     1   120 0.90 -
JF3J_TRINITY_DN68793_c1_g2_i1.p1JF3J_TRINITY_DN68793_c1_g2  -            110 40351at3193          -            453   3.6e-32  113.5   0.6   1   2   3.6e-09   1.7e-05   25.6   0.1   222   245     1    24     1    25 0.97 -
JF3J_TRINITY_DN68793_c1_g2_i1.p1JF3J_TRINITY_DN68793_c1_g2  -            110 40351at3193          -            453   3.6e-32  113.5   0.6   2   2   5.5e-28   2.6e-24   87.6   0.1   220   281    25    87    24    93 0.96 -
JF2A_TRINITY_DN39054_c0_g1_i2.p1JF2A_TRINITY_DN39054_c0_g1  -            167 40351at3193          -            453   1.4e-26   95.1   1.0   1   2   1.7e-15   7.7e-12   46.5   0.4   102   150    12    59     3    65 0.87 -
JF2A_TRINITY_DN39054_c0_g1_i2.p1JF2A_TRINITY_DN39054_c0_g1  -            167 40351at3193          -            453   1.4e-26   95.1   1.0   2   2     7e-16   3.2e-12   47.7   0.0   188   262    67   140    59   150 0.90 -
JF1A_TRINITY_DN64925_c3_g1_i3.p1JF1A_TRINITY_DN64925_c3_g1  -            213 40351at3193          -            453   2.1e-22   81.3   0.1   1   1   1.1e-24   5.1e-21   76.7   0.1   292   382    33   126    26   182 0.81 -
JF1J_TRINITY_DN58889_c0_g1_i1.p1JF1J_TRINITY_DN58889_c0_g1  -            121 40351at3193          -            453     2e-17   64.9   0.0   1   1   5.2e-21   2.4e-17   64.6   0.0   303   382     9    91     5    98 0.89 -
JF1A_TRINITY_DN64470_c5_g2_i2.p1JF1A_TRINITY_DN64470_c5_g2  -            304 40351at3193          -            453    0.0081   16.7   0.1   1   2    0.0013       6.2    7.2   0.0    99   118   170   189   165   199 0.87 -
JF1A_TRINITY_DN64470_c5_g2_i2.p1JF1A_TRINITY_DN64470_c5_g2  -            304 40351at3193          -            453    0.0081   16.7   0.1   2   2    0.0013       6.1    7.2   0.0    99   118   266   285   259   294 0.87 -
JF1A_TRINITY_DN67234_c3_g2_i19.p1JF1A_TRINITY_DN67234_c3_g2 -            433 40351at3193          -            453     0.009   16.6   0.0   1   2    0.0015       7.1    7.0   0.0   100   124   170   194   158   208 0.85 -
JF1A_TRINITY_DN67234_c3_g2_i19.p1JF1A_TRINITY_DN67234_c3_g2 -            433 40351at3193          -            453     0.009   16.6   0.0   2   2    0.0019       8.6    6.8   0.0   100   121   219   240   213   250 0.83 -
JF1J_TRINITY_DN59112_c0_g1_i1.p1JF1J_TRINITY_DN59112_c0_g1  -            101 40351at3193          -            453     0.029   14.9   2.0   1   1     7e-06     0.032   14.8   2.0     7    69    25    87    18   100 0.88 -
JF3J_TRINITY_DN66379_c1_g1_i2.p1JF3J_TRINITY_DN66379_c1_g1  -            178 40351at3193          -            453      0.35   11.3   0.1   1   2    0.0058        27    5.1   0.0   382   415    48    81    24    96 0.80 -
JF3J_TRINITY_DN66379_c1_g1_i2.p1JF3J_TRINITY_DN66379_c1_g1  -            178 40351at3193          -            453      0.35   11.3   0.1   2   2    0.0087        40    4.6   0.0   382   413   137   168   113   177 0.82 -
JF1A_TRINITY_DN64558_c1_g3_i5.p1JF1A_TRINITY_DN64558_c1_g3  -            384 40351at3193          -            453      0.39   11.2   0.0   1   1   0.00015      0.69   10.4   0.0    99   126   160   187   154   192 0.87 -
JF3A_TRINITY_DN55985_c4_g2_i2.p1JF3A_TRINITY_DN55985_c4_g2  -            131 40351at3193          -            453      0.43   11.1   0.0   1   1   9.2e-05      0.43   11.1   0.0    99   139    72   113    12   130 0.80 -
JF1A_TRINITY_DN64558_c1_g1_i1.p1JF1A_TRINITY_DN64558_c1_g1  -            452 40351at3193          -            453      0.48   10.9   0.0   1   1   0.00018      0.84   10.1   0.0    99   126   228   255   222   260 0.87 -
JF3A_TRINITY_DN51617_c3_g4_i10.p1JF3A_TRINITY_DN51617_c3_g4 -            100 40351at3193          -            453       1.4    9.4   2.0   1   2     0.031   1.4e+02    2.7   0.1    35    78    12    54     3    61 0.67 -
JF3A_TRINITY_DN51617_c3_g4_i10.p1JF3A_TRINITY_DN51617_c3_g4 -            100 40351at3193          -            453       1.4    9.4   2.0   2   2    0.0015       6.8    7.1   0.3   215   242    61    88    53    94 0.84 -
#
# Program:         hmmsearch
# Version:         3.2.1 (June 2018)
# Pipeline mode:   SEARCH
# Query file:      /isg/shared/databases/BUSCO/odb10/embryophyta_odb10/hmms/40351at3193.hmm
# Target file:     Juniper_final_annotations_no_contam_lvl0.faa
# Option settings: /usr/local/bin/hmmsearch --domtblout /labs/Wegrzyn/Juniper_Pine/BUSCO/NEW/busco_juniper/run_embryophyta_odb10/hmmer_output/40351at3193.out --cpu 1 /isg/shared/databases/BUSCO/odb10/embryophyta_odb10/hmms/40351at3193.hmm Juniper_final_annotations_no_contam_lvl0.faa 
# Current dir:     /labs/Wegrzyn/Juniper_Pine/BUSCO/NEW
# Date:            Thu Aug  6 16:25:01 2020
# [ok]
