#                                                                                                                  --- full sequence --- -------------- this domain -------------   hmm coord   ali coord   env coord
# target name                                              accession   tlen query name           accession   qlen   E-value  score  bias   #  of  c-Evalue  i-Evalue  score  bias  from    to  from    to  from    to  acc description of target
#                                      ------------------- ---------- ----- -------------------- ---------- ----- --------- ------ ----- --- --- --------- --------- ------ ----- ----- ----- ----- ----- ----- ----- ---- ---------------------
JF3A_TRINITY_DN34905_c0_g1_i1.p1JF3A_TRINITY_DN34905_c0_g1 -            187 4343at3193           -            998  1.6e-109  369.2   1.0   1   1  3.1e-113  1.8e-109  369.0   1.0   278   451    11   187     3   187 0.97 -
JF1A_TRINITY_DN56158_c0_g4_i1.p1JF1A_TRINITY_DN56158_c0_g4 -            197 4343at3193           -            998   1.1e-58  200.9   0.4   1   1   2.2e-62   1.3e-58  200.6   0.4   101   248     1   183     1   191 0.84 -
JF1A_TRINITY_DN54980_c0_g1_i2.p1JF1A_TRINITY_DN54980_c0_g1 -            149 4343at3193           -            998   1.4e-54  187.3   0.3   1   1   2.9e-58   1.7e-54  187.1   0.3   519   642     1   135     1   141 0.92 -
JF1A_TRINITY_DN56158_c0_g1_i2.p1JF1A_TRINITY_DN56158_c0_g1 -            222 4343at3193           -            998   3.9e-46  159.3   2.8   1   2   7.1e-05      0.41   10.3   0.2   738   758     1    21     1    34 0.84 -
JF1A_TRINITY_DN56158_c0_g1_i2.p1JF1A_TRINITY_DN56158_c0_g1 -            222 4343at3193           -            998   3.9e-46  159.3   2.8   2   2   5.1e-46   2.9e-42  146.5   0.3   753   894    47   219    25   220 0.85 -
JF1A_TRINITY_DN22461_c0_g1_i1.p1JF1A_TRINITY_DN22461_c0_g1 -            129 4343at3193           -            998   2.8e-34  120.1   0.9   1   1   5.8e-38   3.3e-34  119.8   0.9     5    98    26   129    21   129 0.91 -
JF1A_TRINITY_DN56158_c0_g3_i1.p1JF1A_TRINITY_DN56158_c0_g3 -            113 4343at3193           -            998   2.8e-31  110.2   1.5   1   2     1e-14   6.1e-11   42.8   0.1   662   712     3    57     1    65 0.86 -
JF1A_TRINITY_DN56158_c0_g3_i1.p1JF1A_TRINITY_DN56158_c0_g3 -            113 4343at3193           -            998   2.8e-31  110.2   1.5   2   2   3.9e-22   2.2e-18   67.4   0.2   707   748    72   113    55   113 0.88 -
JF1J_TRINITY_DN11902_c0_g1_i1.p1JF1J_TRINITY_DN11902_c0_g1 -            115 4343at3193           -            998     5e-21   76.2   0.0   1   1   9.6e-25   5.6e-21   76.1   0.0   199   278    17   112    12   115 0.82 -
JF2A_TRINITY_DN42328_c0_g7_i1.p1JF2A_TRINITY_DN42328_c0_g7 -            116 4343at3193           -            998   1.2e-20   75.0   0.0   1   1   2.6e-24   1.5e-20   74.7   0.0   903   983     7    97     2   105 0.85 -
JF2A_TRINITY_DN51187_c0_g1_i1.p1JF2A_TRINITY_DN51187_c0_g1 -            104 4343at3193           -            998    0.0097   15.7   0.1   1   1     2e-06     0.012   15.4   0.1     5    34    43    72    38    90 0.81 -
JF1J_TRINITY_DN67306_c0_g1_i9.p1JF1J_TRINITY_DN67306_c0_g1 -            189 4343at3193           -            998      0.03   14.1   0.0   1   2   2.8e-05      0.16   11.6   0.0   287   334    79   126    64   138 0.88 -
JF1J_TRINITY_DN67306_c0_g1_i9.p1JF1J_TRINITY_DN67306_c0_g1 -            189 4343at3193           -            998      0.03   14.1   0.0   2   2     0.074   4.3e+02    0.3   0.0    49    69   159   179   139   188 0.79 -
JF1A_TRINITY_DN62737_c0_g2_i9.p1JF1A_TRINITY_DN62737_c0_g2 -            167 4343at3193           -            998      0.11   12.2   0.1   1   1   2.2e-05      0.12   12.0   0.1   506   576    28    97    21   143 0.91 -
JF1A_TRINITY_DN67150_c0_g1_i1.p1JF1A_TRINITY_DN67150_c0_g1 -            382 4343at3193           -            998      0.38   10.4   0.0   1   1    0.0001      0.58    9.8   0.0   287   333   296   342   287   352 0.87 -
#
# Program:         hmmsearch
# Version:         3.2.1 (June 2018)
# Pipeline mode:   SEARCH
# Query file:      /isg/shared/databases/BUSCO/odb10/embryophyta_odb10/hmms/4343at3193.hmm
# Target file:     Juniper_final_annotations_no_contam_lvl0.faa
# Option settings: /usr/local/bin/hmmsearch --domtblout /labs/Wegrzyn/Juniper_Pine/BUSCO/NEW/busco_juniper/run_embryophyta_odb10/hmmer_output/4343at3193.out --cpu 1 /isg/shared/databases/BUSCO/odb10/embryophyta_odb10/hmms/4343at3193.hmm Juniper_final_annotations_no_contam_lvl0.faa 
# Current dir:     /labs/Wegrzyn/Juniper_Pine/BUSCO/NEW
# Date:            Thu Aug  6 16:26:27 2020
# [ok]
