#                                                                                                                    --- full sequence --- -------------- this domain -------------   hmm coord   ali coord   env coord
# target name                                                accession   tlen query name           accession   qlen   E-value  score  bias   #  of  c-Evalue  i-Evalue  score  bias  from    to  from    to  from    to  acc description of target
#                                        ------------------- ---------- ----- -------------------- ---------- ----- --------- ------ ----- --- --- --------- --------- ------ ----- ----- ----- ----- ----- ----- ----- ---- ---------------------
JF2A_TRINITY_DN41669_c0_g7_i1.p1JF2A_TRINITY_DN41669_c0_g7   -            311 4482at3193           -           1242  2.1e-152  511.1   0.1   1   1  4.9e-155  3.2e-152  510.5   0.1   417   678     2   280     1   283 0.94 -
JF1A_TRINITY_DN63074_c0_g3_i11.p1JF1A_TRINITY_DN63074_c0_g3  -            209 4482at3193           -           1242  1.6e-106  359.2   1.2   1   1  3.1e-109    2e-106  358.8   1.2   530   702     9   183     6   189 0.96 -
JF1A_TRINITY_DN61562_c7_g1_i1.p1JF1A_TRINITY_DN61562_c7_g1   -            244 4482at3193           -           1242   1.5e-65  223.5   0.0   1   1   2.7e-68   1.8e-65  223.2   0.0    50   214    77   244    67   244 0.96 -
JF1A_TRINITY_DN63868_c2_g10_i1.p1JF1A_TRINITY_DN63868_c2_g10 -            281 4482at3193           -           1242   2.6e-63  216.0   0.6   1   2     5e-58   3.3e-55  189.2   0.1  1058  1187     1   148     1   179 0.85 -
JF1A_TRINITY_DN63868_c2_g10_i1.p1JF1A_TRINITY_DN63868_c2_g10 -            281 4482at3193           -           1242   2.6e-63  216.0   0.6   2   2   1.5e-08   9.6e-06   25.3   0.0  1194  1236   191   234   173   240 0.82 -
JF1A_TRINITY_DN63868_c2_g7_i2.p1JF1A_TRINITY_DN63868_c2_g7   -            217 4482at3193           -           1242   1.3e-58  200.5   2.2   1   2   7.3e-46   4.8e-43  148.9   0.8   910  1014    30   135    17   159 0.88 -
JF1A_TRINITY_DN63868_c2_g7_i2.p1JF1A_TRINITY_DN63868_c2_g7   -            217 4482at3193           -           1242   1.3e-58  200.5   2.2   2   2     2e-16   1.3e-13   51.4   0.0  1011  1056   162   207   145   213 0.88 -
JF2A_TRINITY_DN44168_c0_g1_i1.p1JF2A_TRINITY_DN44168_c0_g1   -            147 4482at3193           -           1242   1.7e-23   84.1   0.8   1   1   1.7e-25   1.1e-22   81.4   0.8   680   745     1    85     1    93 0.83 -
JF3J_TRINITY_DN43317_c0_g1_i1.p1JF3J_TRINITY_DN43317_c0_g1   -            103 4482at3193           -           1242   2.2e-20   73.9   0.2   1   2   5.1e-09   3.3e-06   26.9   0.2   338   368    27    57    14    58 0.84 -
JF3J_TRINITY_DN43317_c0_g1_i1.p1JF3J_TRINITY_DN43317_c0_g1   -            103 4482at3193           -           1242   2.2e-20   73.9   0.2   2   2   6.5e-15   4.3e-12   46.4   0.0    87   125    58    96    56   102 0.93 -
JF1A_TRINITY_DN59352_c0_g1_i1.p1JF1A_TRINITY_DN59352_c0_g1   -            300 4482at3193           -           1242     7e-11   42.4   0.3   1   5      0.62   4.1e+02    0.1   0.0   185   245     9    68     3    90 0.80 -
JF1A_TRINITY_DN59352_c0_g1_i1.p1JF1A_TRINITY_DN59352_c0_g1   -            300 4482at3193           -           1242     7e-11   42.4   0.3   2   5   8.9e-06    0.0059   16.1   0.0   186   231    95   139    87   139 0.88 -
JF1A_TRINITY_DN59352_c0_g1_i1.p1JF1A_TRINITY_DN59352_c0_g1   -            300 4482at3193           -           1242     7e-11   42.4   0.3   3   5   3.4e-06    0.0022   17.5   0.0   185   239   136   190   133   213 0.87 -
JF1A_TRINITY_DN59352_c0_g1_i1.p1JF1A_TRINITY_DN59352_c0_g1   -            300 4482at3193           -           1242     7e-11   42.4   0.3   4   5     0.003         2    7.7   0.0   179   227   173   221   165   237 0.85 -
JF1A_TRINITY_DN59352_c0_g1_i1.p1JF1A_TRINITY_DN59352_c0_g1   -            300 4482at3193           -           1242     7e-11   42.4   0.3   5   5     0.044        29    3.9   0.0   187   234   226   272   213   287 0.72 -
JF2A_TRINITY_DN45968_c0_g1_i1.p1JF2A_TRINITY_DN45968_c0_g1   -            113 4482at3193           -           1242   1.6e-10   41.2   0.0   1   1     4e-12   2.6e-09   37.1   0.0   759   834     7   111     2   113 0.78 -
JF1A_TRINITY_DN67162_c1_g6_i1.p1JF1A_TRINITY_DN67162_c1_g6   -            269 4482at3193           -           1242   5.1e-08   32.9   0.1   1   3     3e-05      0.02   14.3   0.0   189   225    27    63    21    67 0.89 -
JF1A_TRINITY_DN67162_c1_g6_i1.p1JF1A_TRINITY_DN67162_c1_g6   -            269 4482at3193           -           1242   5.1e-08   32.9   0.1   2   3    0.0066       4.4    6.6   0.0   184   223    66   106    61   115 0.81 -
JF1A_TRINITY_DN67162_c1_g6_i1.p1JF1A_TRINITY_DN67162_c1_g6   -            269 4482at3193           -           1242   5.1e-08   32.9   0.1   3   3    0.0013      0.84    9.0   0.0   189   235   177   223   163   244 0.79 -
JF3A_TRINITY_DN46128_c3_g5_i1.p1JF3A_TRINITY_DN46128_c3_g5   -            119 4482at3193           -           1242   5.1e-08   32.9   2.3   1   1   8.1e-11   5.3e-08   32.8   2.3    18    66    44    94    35   118 0.75 -
JF2J_TRINITY_DN22251_c0_g1_i2.p1JF2J_TRINITY_DN22251_c0_g1   -            142 4482at3193           -           1242   6.5e-08   32.5   1.5   1   1   1.3e-10   8.5e-08   32.1   1.5    21    64    77   122    68   140 0.79 -
JF1A_TRINITY_DN67961_c0_g4_i3.p1JF1A_TRINITY_DN67961_c0_g4   -            315 4482at3193           -           1242   7.2e-08   32.4   0.6   1   1   1.5e-10   9.7e-08   32.0   0.6    28    67   186   225   167   267 0.72 -
JF2A_TRINITY_DN32941_c0_g1_i1.p1JF2A_TRINITY_DN32941_c0_g1   -            323 4482at3193           -           1242     3e-07   30.3   0.2   1   4    0.0046         3    7.1   0.0   179   231    27    77    12    78 0.81 -
JF2A_TRINITY_DN32941_c0_g1_i1.p1JF2A_TRINITY_DN32941_c0_g1   -            323 4482at3193           -           1242     3e-07   30.3   0.2   2   4   1.5e-05      0.01   15.3   0.0   181   252    70   140    61   175 0.82 -
JF2A_TRINITY_DN32941_c0_g1_i1.p1JF2A_TRINITY_DN32941_c0_g1   -            323 4482at3193           -           1242     3e-07   30.3   0.2   3   4       2.5   1.7e+03   -2.0   0.0   185   227   157   199   150   204 0.86 -
JF2A_TRINITY_DN32941_c0_g1_i1.p1JF2A_TRINITY_DN32941_c0_g1   -            323 4482at3193           -           1242     3e-07   30.3   0.2   4   4    0.0051       3.4    7.0   0.0   184   225   249   290   228   318 0.90 -
JF1A_TRINITY_DN61424_c0_g1_i3.p1JF1A_TRINITY_DN61424_c0_g1   -            490 4482at3193           -           1242     5e-06   26.3   0.1   1   3   2.6e-07   0.00017   21.2   0.0   184   231    56   103    10   108 0.78 -
JF1A_TRINITY_DN61424_c0_g1_i3.p1JF1A_TRINITY_DN61424_c0_g1   -            490 4482at3193           -           1242     5e-06   26.3   0.1   2   3      0.07        46    3.2   0.0   189   258   103   172    99   189 0.74 -
JF1A_TRINITY_DN61424_c0_g1_i3.p1JF1A_TRINITY_DN61424_c0_g1   -            490 4482at3193           -           1242     5e-06   26.3   0.1   3   3       3.3   2.2e+03   -2.3   0.0   187   215   185   213   177   218 0.88 -
JF1A_TRINITY_DN44081_c0_g1_i1.p1JF1A_TRINITY_DN44081_c0_g1   -            193 4482at3193           -           1242   5.6e-06   26.1   0.2   1   3      0.56   3.7e+02    0.2   0.0   189   224    30    65    21    72 0.77 -
JF1A_TRINITY_DN44081_c0_g1_i1.p1JF1A_TRINITY_DN44081_c0_g1   -            193 4482at3193           -           1242   5.6e-06   26.1   0.2   2   3   0.00055      0.36   10.2   0.0   187   229    75   118    60   121 0.78 -
JF1A_TRINITY_DN44081_c0_g1_i1.p1JF1A_TRINITY_DN44081_c0_g1   -            193 4482at3193           -           1242   5.6e-06   26.1   0.2   3   3   3.5e-05     0.023   14.1   0.0   186   251   117   181   113   192 0.83 -
JF3A_TRINITY_DN48736_c1_g2_i1.p1JF3A_TRINITY_DN48736_c1_g2   -            115 4482at3193           -           1242   4.4e-05   23.2   0.0   1   2   0.00074      0.49    9.7   0.0   188   230     9    50     3    51 0.88 -
JF3A_TRINITY_DN48736_c1_g2_i1.p1JF3A_TRINITY_DN48736_c1_g2   -            115 4482at3193           -           1242   4.4e-05   23.2   0.0   2   2   2.6e-05     0.017   14.6   0.0   184   241    47   104    45   112 0.88 -
JF1A_TRINITY_DN61479_c2_g1_i2.p1JF1A_TRINITY_DN61479_c2_g1   -            523 4482at3193           -           1242   0.00012   21.7   1.4   1   4    0.0081       5.4    6.3   0.0   184   219   200   235   192   246 0.84 -
JF1A_TRINITY_DN61479_c2_g1_i2.p1JF1A_TRINITY_DN61479_c2_g1   -            523 4482at3193           -           1242   0.00012   21.7   1.4   2   4       3.6   2.4e+03   -2.5   0.0   192   232   277   316   269   338 0.52 -
JF1A_TRINITY_DN61479_c2_g1_i2.p1JF1A_TRINITY_DN61479_c2_g1   -            523 4482at3193           -           1242   0.00012   21.7   1.4   3   4     0.012       7.9    5.7   0.0   188   255   357   424   347   429 0.81 -
JF1A_TRINITY_DN61479_c2_g1_i2.p1JF1A_TRINITY_DN61479_c2_g1   -            523 4482at3193           -           1242   0.00012   21.7   1.4   4   4    0.0083       5.5    6.3   0.0   186   220   439   473   429   483 0.86 -
JF1A_TRINITY_DN63574_c0_g3_i12.p1JF1A_TRINITY_DN63574_c0_g3  -            317 4482at3193           -           1242   0.00013   21.6   0.5   1   4    0.0073       4.8    6.5   0.0   188   247    66   125    20   136 0.82 -
JF1A_TRINITY_DN63574_c0_g3_i12.p1JF1A_TRINITY_DN63574_c0_g3  -            317 4482at3193           -           1242   0.00013   21.6   0.5   2   4       1.2   8.1e+02   -0.9   0.1   350   370   170   190   162   197 0.86 -
JF1A_TRINITY_DN63574_c0_g3_i12.p1JF1A_TRINITY_DN63574_c0_g3  -            317 4482at3193           -           1242   0.00013   21.6   0.5   3   4       4.9   3.2e+03   -2.9   0.0   188   217   197   226   193   241 0.85 -
JF1A_TRINITY_DN63574_c0_g3_i12.p1JF1A_TRINITY_DN63574_c0_g3  -            317 4482at3193           -           1242   0.00013   21.6   0.5   4   4   0.00019      0.12   11.7   0.0   181   214   279   313   263   315 0.87 -
JF1A_TRINITY_DN65950_c1_g1_i2.p1JF1A_TRINITY_DN65950_c1_g1   -            364 4482at3193           -           1242   0.00014   21.5   0.0   1   2   3.7e-06    0.0025   17.4   0.0   177   257    22   105     8   126 0.80 -
JF1A_TRINITY_DN65950_c1_g1_i2.p1JF1A_TRINITY_DN65950_c1_g1   -            364 4482at3193           -           1242   0.00014   21.5   0.0   2   2      0.16     1e+02    2.0   0.0   183   242   253   314   247   319 0.78 -
JF2A_TRINITY_DN21722_c0_g1_i2.p1JF2A_TRINITY_DN21722_c0_g1   -            362 4482at3193           -           1242   0.00014   21.5   0.1   1   4     0.013       8.5    5.6   0.0   185   239    62   116    54   130 0.84 -
JF2A_TRINITY_DN21722_c0_g1_i2.p1JF2A_TRINITY_DN21722_c0_g1   -            362 4482at3193           -           1242   0.00014   21.5   0.1   2   4      0.16     1e+02    2.0   0.0   160   216   122   179   114   189 0.75 -
JF2A_TRINITY_DN21722_c0_g1_i2.p1JF2A_TRINITY_DN21722_c0_g1   -            362 4482at3193           -           1242   0.00014   21.5   0.1   3   4   0.00073      0.49    9.8   0.0   185   230   189   233   166   240 0.82 -
JF2A_TRINITY_DN21722_c0_g1_i2.p1JF2A_TRINITY_DN21722_c0_g1   -            362 4482at3193           -           1242   0.00014   21.5   0.1   4   4      0.36   2.4e+02    0.8   0.0   185   216   231   262   225   280 0.76 -
JF1J_TRINITY_DN65124_c0_g2_i18.p1JF1J_TRINITY_DN65124_c0_g2  -            131 4482at3193           -           1242   0.00025   20.6   0.1   1   1   4.2e-07   0.00028   20.5   0.1   855   884    87   116    60   130 0.86 -
JF1A_TRINITY_DN65899_c4_g1_i9.p1JF1A_TRINITY_DN65899_c4_g1   -            494 4482at3193           -           1242   0.00054   19.5   0.0   1   1   1.4e-06   0.00093   18.8   0.0   177   255    55   136    45   141 0.84 -
JF1A_TRINITY_DN60870_c1_g4_i3.p1JF1A_TRINITY_DN60870_c1_g4   -            151 4482at3193           -           1242   0.00067   19.2   0.0   1   2      0.11        71    2.6   0.0   189   231    18    58    10    61 0.86 -
JF1A_TRINITY_DN60870_c1_g4_i3.p1JF1A_TRINITY_DN60870_c1_g4   -            151 4482at3193           -           1242   0.00067   19.2   0.0   2   2   2.3e-06    0.0015   18.1   0.0   173   249    43   118    22   135 0.79 -
JF1J_TRINITY_DN62606_c0_g1_i1.p1JF1J_TRINITY_DN62606_c0_g1   -            280 4482at3193           -           1242    0.0012   18.5   0.0   1   1   2.3e-06    0.0015   18.1   0.0   177   258    61   145    47   165 0.80 -
JF1A_TRINITY_DN66018_c2_g5_i3.p1JF1A_TRINITY_DN66018_c2_g5   -            247 4482at3193           -           1242    0.0016   18.0   0.0   1   2     0.032        21    4.3   0.0   192   253    18    79     6   104 0.58 -
JF1A_TRINITY_DN66018_c2_g5_i3.p1JF1A_TRINITY_DN66018_c2_g5   -            247 4482at3193           -           1242    0.0016   18.0   0.0   2   2   0.00018      0.12   11.8   0.0   185   224   202   241   168   247 0.87 -
JF3J_TRINITY_DN62951_c1_g3_i5.p1JF3J_TRINITY_DN62951_c1_g3   -            319 4482at3193           -           1242    0.0017   17.9   0.1   1   3   9.1e-06     0.006   16.1   0.0   182   256    75   148    69   154 0.83 -
JF3J_TRINITY_DN62951_c1_g3_i5.p1JF3J_TRINITY_DN62951_c1_g3   -            319 4482at3193           -           1242    0.0017   17.9   0.1   2   3       4.7   3.1e+03   -2.9   0.0   185   219   162   196   158   199 0.88 -
JF3J_TRINITY_DN62951_c1_g3_i5.p1JF3J_TRINITY_DN62951_c1_g3   -            319 4482at3193           -           1242    0.0017   17.9   0.1   3   3       5.2   3.4e+03   -3.0   0.0   199   246   229   276   217   289 0.63 -
JF1J_TRINITY_DN62421_c3_g6_i1.p1JF1J_TRINITY_DN62421_c3_g6   -            133 4482at3193           -           1242     0.002   17.7   0.0   1   2   6.2e-06    0.0041   16.6   0.0   184   242    23    81    10   106 0.86 -
JF1J_TRINITY_DN62421_c3_g6_i1.p1JF1J_TRINITY_DN62421_c3_g6   -            133 4482at3193           -           1242     0.002   17.7   0.0   2   2      0.05        33    3.7   0.0   184   230    66   111    59   122 0.81 -
JF1A_TRINITY_DN67583_c1_g6_i1.p1JF1A_TRINITY_DN67583_c1_g6   -            320 4482at3193           -           1242    0.0025   17.3   0.1   1   2     0.099        65    2.7   0.0   185   238    38    89    31   118 0.74 -
JF1A_TRINITY_DN67583_c1_g6_i1.p1JF1A_TRINITY_DN67583_c1_g6   -            320 4482at3193           -           1242    0.0025   17.3   0.1   2   2    0.0001     0.068   12.6   0.0   186   224   122   160   109   171 0.86 -
JF1A_TRINITY_DN65899_c4_g1_i8.p1JF1A_TRINITY_DN65899_c4_g1   -            102 4482at3193           -           1242    0.0028   17.2   0.0   1   1   4.6e-06    0.0031   17.1   0.0   176   214    43    81    27    93 0.90 -
JF1A_TRINITY_DN63189_c2_g2_i1.p1JF1A_TRINITY_DN63189_c2_g2   -            196 4482at3193           -           1242    0.0036   16.8   0.0   1   2       2.5   1.7e+03   -2.0   0.0   190   223    40    73    15    84 0.76 -
JF1A_TRINITY_DN63189_c2_g2_i1.p1JF1A_TRINITY_DN63189_c2_g2   -            196 4482at3193           -           1242    0.0036   16.8   0.0   2   2   1.8e-05     0.012   15.1   0.0   185   269    85   171    68   192 0.81 -
JF1A_TRINITY_DN60891_c0_g1_i6.p1JF1A_TRINITY_DN60891_c0_g1   -            352 4482at3193           -           1242    0.0049   16.4   0.0   1   3   0.00011     0.075   12.4   0.0   186   285     7   111     1   124 0.79 -
JF1A_TRINITY_DN60891_c0_g1_i6.p1JF1A_TRINITY_DN60891_c0_g1   -            352 4482at3193           -           1242    0.0049   16.4   0.0   2   3      0.42   2.8e+02    0.6   0.0   185   231   134   182   123   199 0.82 -
JF1A_TRINITY_DN60891_c0_g1_i6.p1JF1A_TRINITY_DN60891_c0_g1   -            352 4482at3193           -           1242    0.0049   16.4   0.0   3   3       1.8   1.2e+03   -1.5   0.0   184   222   237   275   227   284 0.84 -
JF2A_TRINITY_DN33236_c0_g1_i3.p1JF2A_TRINITY_DN33236_c0_g1   -            297 4482at3193           -           1242    0.0049   16.4   0.2   1   2     2e-05     0.013   15.0   0.1   171   255     5    92     2   112 0.81 -
JF2A_TRINITY_DN33236_c0_g1_i3.p1JF2A_TRINITY_DN33236_c0_g1   -            297 4482at3193           -           1242    0.0049   16.4   0.2   2   2       1.6   1.1e+03   -1.3   0.0   183   211   218   245   173   250 0.63 -
JF1J_TRINITY_DN67163_c0_g1_i6.p1JF1J_TRINITY_DN67163_c0_g1   -            283 4482at3193           -           1242    0.0055   16.2   0.0   1   2     0.022        14    4.9   0.0   185   254    14    83     7    96 0.82 -
JF1J_TRINITY_DN67163_c0_g1_i6.p1JF1J_TRINITY_DN67163_c0_g1   -            283 4482at3193           -           1242    0.0055   16.2   0.0   2   2   0.00099      0.66    9.3   0.0   180   229   190   239   176   255 0.79 -
JF1A_TRINITY_DN60565_c0_g2_i1.p1JF1A_TRINITY_DN60565_c0_g2   -            274 4482at3193           -           1242    0.0059   16.1   0.1   1   2     0.027        18    4.6   0.0   195   257    39   103    19   140 0.81 -
JF1A_TRINITY_DN60565_c0_g2_i1.p1JF1A_TRINITY_DN60565_c0_g2   -            274 4482at3193           -           1242    0.0059   16.1   0.1   2   2   0.00066      0.44    9.9   0.0   186   257   170   241   157   263 0.86 -
JF1A_TRINITY_DN65899_c4_g2_i2.p1JF1A_TRINITY_DN65899_c4_g2   -            186 4482at3193           -           1242    0.0062   16.0   0.2   1   1   1.1e-05    0.0072   15.8   0.2   177   255    51   132    36   154 0.80 -
JF1A_TRINITY_DN62104_c0_g2_i3.p1JF1A_TRINITY_DN62104_c0_g2   -            327 4482at3193           -           1242    0.0064   16.0   0.0   1   2      0.03        20    4.4   0.0   185   254    10    79     5    91 0.81 -
JF1A_TRINITY_DN62104_c0_g2_i3.p1JF1A_TRINITY_DN62104_c0_g2   -            327 4482at3193           -           1242    0.0064   16.0   0.0   2   2   0.00086      0.57    9.5   0.0   180   233   186   239   172   262 0.78 -
JF1A_TRINITY_DN65899_c4_g2_i1.p1JF1A_TRINITY_DN65899_c4_g2   -            195 4482at3193           -           1242    0.0065   16.0   0.2   1   1   1.1e-05    0.0075   15.7   0.2   177   255    51   132    36   158 0.80 -
JF1A_TRINITY_DN62736_c0_g1_i8.p1JF1A_TRINITY_DN62736_c0_g1   -            158 4482at3193           -           1242    0.0068   15.9   0.9   1   1   1.2e-05     0.008   15.7   0.9  1109  1181    67   152    45   156 0.73 -
JF2A_TRINITY_DN39801_c0_g1_i2.p1JF2A_TRINITY_DN39801_c0_g1   -            121 4482at3193           -           1242    0.0084   15.6   1.3   1   1   1.5e-05      0.01   15.3   1.3  1111  1181    32   115    20   119 0.76 -
JF1A_TRINITY_DN61473_c0_g1_i1.p1JF1A_TRINITY_DN61473_c0_g1   -            352 4482at3193           -           1242    0.0098   15.4   0.2   1   2   0.00011      0.07   12.5   0.1   173   243   159   226   102   237 0.81 -
JF1A_TRINITY_DN61473_c0_g1_i1.p1JF1A_TRINITY_DN61473_c0_g1   -            352 4482at3193           -           1242    0.0098   15.4   0.2   2   2      0.35   2.3e+02    0.9   0.0   172   214   240   282   234   295 0.85 -
JF1A_TRINITY_DN63467_c3_g3_i3.p1JF1A_TRINITY_DN63467_c3_g3   -            262 4482at3193           -           1242     0.013   15.0   0.0   1   3   0.00014     0.092   12.1   0.0   164   230    63   132    59   139 0.78 -
JF1A_TRINITY_DN63467_c3_g3_i3.p1JF1A_TRINITY_DN63467_c3_g3   -            262 4482at3193           -           1242     0.013   15.0   0.0   2   3      0.14        94    2.2   0.0   185   225   130   174   122   204 0.80 -
JF1A_TRINITY_DN63467_c3_g3_i3.p1JF1A_TRINITY_DN63467_c3_g3   -            262 4482at3193           -           1242     0.013   15.0   0.0   3   3       3.6   2.4e+03   -2.5   0.0   184   224   179   219   166   239 0.72 -
JF1J_TRINITY_DN69652_c1_g1_i3.p1JF1J_TRINITY_DN69652_c1_g1   -            215 4482at3193           -           1242     0.015   14.8   0.4   1   3      0.68   4.5e+02   -0.1   0.1   350   370    68    88    59    99 0.87 -
JF1J_TRINITY_DN69652_c1_g1_i3.p1JF1J_TRINITY_DN69652_c1_g1   -            215 4482at3193           -           1242     0.015   14.8   0.4   2   3       1.3   8.7e+02   -1.0   0.0   188   219    95   126    90   164 0.76 -
JF1J_TRINITY_DN69652_c1_g1_i3.p1JF1J_TRINITY_DN69652_c1_g1   -            215 4482at3193           -           1242     0.015   14.8   0.4   3   3    0.0002      0.13   11.6   0.0   181   214   177   211   161   213 0.87 -
JF1A_TRINITY_DN66612_c1_g5_i1.p1JF1A_TRINITY_DN66612_c1_g5   -            183 4482at3193           -           1242     0.016   14.7   0.4   1   2    0.0039       2.6    7.3   0.1   185   232    41    87    28   111 0.81 -
JF1A_TRINITY_DN66612_c1_g5_i1.p1JF1A_TRINITY_DN66612_c1_g5   -            183 4482at3193           -           1242     0.016   14.7   0.4   2   2     0.015        10    5.4   0.0   175   230   119   174   111   180 0.87 -
JF1A_TRINITY_DN60565_c0_g1_i3.p1JF1A_TRINITY_DN60565_c0_g1   -            349 4482at3193           -           1242     0.021   14.2   0.2   1   3      0.21   1.4e+02    1.6   0.0   183   231    30    77     4    81 0.83 -
JF1A_TRINITY_DN60565_c0_g1_i3.p1JF1A_TRINITY_DN60565_c0_g1   -            349 4482at3193           -           1242     0.021   14.2   0.2   2   3     0.014       9.3    5.5   0.0   184   245    73   137    66   150 0.76 -
JF1A_TRINITY_DN60565_c0_g1_i3.p1JF1A_TRINITY_DN60565_c0_g1   -            349 4482at3193           -           1242     0.021   14.2   0.2   3   3     0.033        22    4.3   0.0   182   224   158   200   146   226 0.81 -
JF3J_TRINITY_DN66424_c6_g2_i2.p1JF3J_TRINITY_DN66424_c6_g2   -            130 4482at3193           -           1242     0.023   14.1   0.0   1   1   3.9e-05     0.026   14.0   0.0   183   264    19   101     9   119 0.88 -
JF1A_TRINITY_DN60784_c1_g2_i4.p1JF1A_TRINITY_DN60784_c1_g2   -            359 4482at3193           -           1242     0.023   14.1   0.1   1   2    0.0011      0.71    9.2   0.1   185   279    90   187    45   205 0.86 -
JF1A_TRINITY_DN60784_c1_g2_i4.p1JF1A_TRINITY_DN60784_c1_g2   -            359 4482at3193           -           1242     0.023   14.1   0.1   2   2     0.095        63    2.8   0.0   195   253   290   350   269   357 0.48 -
JF1A_TRINITY_DN61473_c0_g1_i4.p1JF1A_TRINITY_DN61473_c0_g1   -            500 4482at3193           -           1242     0.023   14.1   0.2   1   2   0.00019      0.13   11.7   0.1   173   243   159   226   102   238 0.81 -
JF1A_TRINITY_DN61473_c0_g1_i4.p1JF1A_TRINITY_DN61473_c0_g1   -            500 4482at3193           -           1242     0.023   14.1   0.2   2   2      0.62   4.1e+02    0.1   0.0   172   214   240   282   234   290 0.84 -
JF3A_TRINITY_DN54306_c1_g1_i1.p1JF3A_TRINITY_DN54306_c1_g1   -            145 4482at3193           -           1242     0.026   14.0   0.0   1   2      0.13        89    2.3   0.0   189   249    47   107    40   108 0.74 -
JF3A_TRINITY_DN54306_c1_g1_i1.p1JF3A_TRINITY_DN54306_c1_g1   -            145 4482at3193           -           1242     0.026   14.0   0.0   2   2   7.5e-05      0.05   13.0   0.0   184   218    84   118    69   131 0.88 -
JF1A_TRINITY_DN67638_c0_g3_i1.p1JF1A_TRINITY_DN67638_c0_g3   -            275 4482at3193           -           1242     0.046   13.1   0.0   1   1   9.8e-05     0.065   12.7   0.0   185   216   111   143   102   153 0.82 -
JF1A_TRINITY_DN67163_c2_g3_i1.p1JF1A_TRINITY_DN67163_c2_g3   -            275 4482at3193           -           1242     0.046   13.1   0.0   1   2     0.012       7.7    5.8   0.0   180   237    16    74     7   109 0.77 -
JF1A_TRINITY_DN67163_c2_g3_i1.p1JF1A_TRINITY_DN67163_c2_g3   -            275 4482at3193           -           1242     0.046   13.1   0.0   2   2     0.014       9.6    5.5   0.0   183   218   149   184   136   201 0.84 -
JF1A_TRINITY_DN65150_c1_g1_i2.p1JF1A_TRINITY_DN65150_c1_g1   -            298 4482at3193           -           1242     0.052   13.0   0.0   1   3       5.4   3.6e+03   -3.0   0.0   189   213    64    88    61    95 0.87 -
JF1A_TRINITY_DN65150_c1_g1_i2.p1JF1A_TRINITY_DN65150_c1_g1   -            298 4482at3193           -           1242     0.052   13.0   0.0   2   3      0.63   4.1e+02    0.0   0.0   177   230    94   147    88   156 0.82 -
JF1A_TRINITY_DN65150_c1_g1_i2.p1JF1A_TRINITY_DN65150_c1_g1   -            298 4482at3193           -           1242     0.052   13.0   0.0   3   3   0.00061       0.4   10.0   0.0   184   233   191   240   174   254 0.86 -
JF1A_TRINITY_DN60111_c0_g2_i2.p1JF1A_TRINITY_DN60111_c0_g2   -            138 4482at3193           -           1242     0.052   13.0   0.6   1   1   8.1e-05     0.054   12.9   0.6  1145  1194    30    84     4   106 0.75 -
JF1A_TRINITY_DN63948_c4_g3_i1.p1JF1A_TRINITY_DN63948_c4_g3   -            248 4482at3193           -           1242     0.056   12.9   0.1   1   3      0.46     3e+02    0.5   0.0   197   224    12    39     8    46 0.83 -
JF1A_TRINITY_DN63948_c4_g3_i1.p1JF1A_TRINITY_DN63948_c4_g3   -            248 4482at3193           -           1242     0.056   12.9   0.1   2   3     0.027        18    4.6   0.1   181   216    44    79    28    84 0.82 -
JF1A_TRINITY_DN63948_c4_g3_i1.p1JF1A_TRINITY_DN63948_c4_g3   -            248 4482at3193           -           1242     0.056   12.9   0.1   3   3     0.024        16    4.7   0.0   185   218    94   127    87   141 0.86 -
JF1A_TRINITY_DN60654_c2_g5_i1.p1JF1A_TRINITY_DN60654_c2_g5   -            264 4482at3193           -           1242     0.056   12.9   0.0   1   2     0.012       7.9    5.7   0.0   184   219    45    80    13   114 0.84 -
JF1A_TRINITY_DN60654_c2_g5_i1.p1JF1A_TRINITY_DN60654_c2_g5   -            264 4482at3193           -           1242     0.056   12.9   0.0   2   2     0.017        11    5.2   0.0   191   218   181   208   173   222 0.87 -
JF1A_TRINITY_DN62394_c2_g2_i3.p1JF1A_TRINITY_DN62394_c2_g2   -            336 4482at3193           -           1242     0.062   12.7   0.1   1   3      0.13        87    2.3   0.0   196   243    51    98    18   145 0.75 -
JF1A_TRINITY_DN62394_c2_g2_i3.p1JF1A_TRINITY_DN62394_c2_g2   -            336 4482at3193           -           1242     0.062   12.7   0.1   2   3    0.0046       3.1    7.1   0.0   180   228   214   261   154   290 0.79 -
JF1A_TRINITY_DN62394_c2_g2_i3.p1JF1A_TRINITY_DN62394_c2_g2   -            336 4482at3193           -           1242     0.062   12.7   0.1   3   3      0.34   2.2e+02    0.9   0.0   186   221   262   297   253   317 0.80 -
JF1A_TRINITY_DN60565_c0_g1_i2.p1JF1A_TRINITY_DN60565_c0_g1   -            417 4482at3193           -           1242     0.071   12.5   0.3   1   3         3     2e+03   -2.2   0.0   183   216    30    63     5    79 0.81 -
JF1A_TRINITY_DN60565_c0_g1_i2.p1JF1A_TRINITY_DN60565_c0_g1   -            417 4482at3193           -           1242     0.071   12.5   0.3   2   3    0.0038       2.5    7.4   0.1   184   270   141   235   127   247 0.67 -
JF1A_TRINITY_DN60565_c0_g1_i2.p1JF1A_TRINITY_DN60565_c0_g1   -            417 4482at3193           -           1242     0.071   12.5   0.3   3   3      0.04        26    4.0   0.0   181   224   225   268   213   296 0.81 -
JF1A_TRINITY_DN61997_c1_g7_i2.p1JF1A_TRINITY_DN61997_c1_g7   -            147 4482at3193           -           1242     0.071   12.5   0.0   1   1   0.00013     0.086   12.2   0.0   181   273    26   119    20   136 0.86 -
JF2A_TRINITY_DN42391_c0_g1_i1.p1JF2A_TRINITY_DN42391_c0_g1   -            499 4482at3193           -           1242     0.073   12.5   0.1   1   2     0.084        55    2.9   0.0   181   231   232   282   201   292 0.78 -
JF2A_TRINITY_DN42391_c0_g1_i1.p1JF2A_TRINITY_DN42391_c0_g1   -            499 4482at3193           -           1242     0.073   12.5   0.1   2   2    0.0031       2.1    7.7   0.0   183   253   319   390   297   494 0.88 -
JF1A_TRINITY_DN72646_c0_g1_i1.p1JF1A_TRINITY_DN72646_c0_g1   -            132 4482at3193           -           1242     0.094   12.1   0.1   1   2     0.019        13    5.1   0.0   204   236    15    47     3    69 0.83 -
JF1A_TRINITY_DN72646_c0_g1_i1.p1JF1A_TRINITY_DN72646_c0_g1   -            132 4482at3193           -           1242     0.094   12.1   0.1   2   2      0.01       6.9    5.9   0.1   164   219    76   128    49   132 0.73 -
JF1A_TRINITY_DN63541_c1_g3_i2.p1JF1A_TRINITY_DN63541_c1_g3   -            246 4482at3193           -           1242     0.095   12.1   0.1   1   3       1.5   9.8e+02   -1.2   0.0   190   225     3    38     1    53 0.72 -
JF1A_TRINITY_DN63541_c1_g3_i2.p1JF1A_TRINITY_DN63541_c1_g3   -            246 4482at3193           -           1242     0.095   12.1   0.1   2   3    0.0059       3.9    6.8   0.0   196   263    53   120    44   129 0.80 -
JF1A_TRINITY_DN63541_c1_g3_i2.p1JF1A_TRINITY_DN63541_c1_g3   -            246 4482at3193           -           1242     0.095   12.1   0.1   3   3      0.12        79    2.4   0.0   190   251   179   241   143   244 0.81 -
JF3J_TRINITY_DN71551_c0_g1_i13.p1JF3J_TRINITY_DN71551_c0_g1  -            334 4482at3193           -           1242     0.097   12.1   0.0   1   2     0.015       9.9    5.4   0.0   183   223   101   142    81   174 0.83 -
JF3J_TRINITY_DN71551_c0_g1_i13.p1JF3J_TRINITY_DN71551_c0_g1  -            334 4482at3193           -           1242     0.097   12.1   0.0   2   2     0.025        17    4.7   0.0   190   238   211   258   200   285 0.64 -
JF1A_TRINITY_DN68258_c1_g4_i4.p1JF1A_TRINITY_DN68258_c1_g4   -            155 4482at3193           -           1242     0.098   12.1   0.0   1   1    0.0002      0.13   11.6   0.0   184   240    11    69     3    95 0.78 -
JF1A_TRINITY_DN65583_c1_g7_i1.p1JF1A_TRINITY_DN65583_c1_g7   -            150 4482at3193           -           1242      0.11   11.9   0.8   1   2      0.32   2.1e+02    1.0   0.0   192   217    17    42    10    45 0.86 -
JF1A_TRINITY_DN65583_c1_g7_i1.p1JF1A_TRINITY_DN65583_c1_g7   -            150 4482at3193           -           1242      0.11   11.9   0.8   2   2   0.00058      0.38   10.1   0.2   173   262    42   132    38   149 0.73 -
JF1A_TRINITY_DN60891_c0_g1_i5.p1JF1A_TRINITY_DN60891_c0_g1   -            196 4482at3193           -           1242      0.11   11.9   0.0   1   1   0.00018      0.12   11.8   0.0   186   253     7    74     1   129 0.83 -
JF1A_TRINITY_DN65150_c1_g1_i10.p1JF1A_TRINITY_DN65150_c1_g1  -            398 4482at3193           -           1242      0.12   11.8   0.0   1   2      0.97   6.4e+02   -0.6   0.0   177   230   161   214   155   223 0.82 -
JF1A_TRINITY_DN65150_c1_g1_i10.p1JF1A_TRINITY_DN65150_c1_g1  -            398 4482at3193           -           1242      0.12   11.8   0.0   2   2   0.00097      0.64    9.4   0.0   184   233   258   307   242   320 0.86 -
JF3J_TRINITY_DN63627_c5_g1_i1.p1JF3J_TRINITY_DN63627_c5_g1   -            170 4482at3193           -           1242      0.14   11.6   0.0   1   1   0.00023      0.15   11.5   0.0   122   217    57   155    31   168 0.77 -
JF1J_TRINITY_DN74786_c0_g1_i1.p1JF1J_TRINITY_DN74786_c0_g1   -            112 4482at3193           -           1242      0.14   11.5   0.5   1   1   0.00023      0.15   11.4   0.5  1140  1204     6    80     4   101 0.67 -
JF1A_TRINITY_DN65134_c1_g6_i2.p2JF1A_TRINITY_DN65134_c1_g6   -            115 4482at3193           -           1242      0.14   11.5   0.0   1   1   0.00022      0.15   11.5   0.0   187   216    12    41     5    77 0.88 -
JF1A_TRINITY_DN62317_c4_g1_i1.p1JF1A_TRINITY_DN62317_c4_g1   -            257 4482at3193           -           1242      0.15   11.5   0.0   1   2       3.9   2.6e+03   -2.6   0.0   204   222     8    26     7    34 0.85 -
JF1A_TRINITY_DN62317_c4_g1_i1.p1JF1A_TRINITY_DN62317_c4_g1   -            257 4482at3193           -           1242      0.15   11.5   0.0   2   2   0.00041      0.27   10.6   0.0   181   221    56    97    21   115 0.78 -
JF1J_TRINITY_DN67163_c0_g1_i1.p1JF1J_TRINITY_DN67163_c0_g1   -            146 4482at3193           -           1242      0.15   11.4   0.0   1   1   0.00025      0.17   11.3   0.0   182   234    35    87    23   114 0.81 -
JF1J_TRINITY_DN69174_c1_g2_i2.p1JF1J_TRINITY_DN69174_c1_g2   -            182 4482at3193           -           1242      0.16   11.4   0.0   1   1   0.00031       0.2   11.0   0.0   161   217    96   149    84   161 0.80 -
JF2A_TRINITY_DN47161_c0_g1_i1.p1JF2A_TRINITY_DN47161_c0_g1   -            102 4482at3193           -           1242      0.16   11.3   7.4   1   1   0.00029       0.2   11.1   7.4  1139  1180    42    95    35    98 0.73 -
JF1A_TRINITY_DN67126_c2_g1_i1.p1JF1A_TRINITY_DN67126_c2_g1   -            173 4482at3193           -           1242      0.23   10.8   0.6   1   1   0.00038      0.25   10.7   0.6  1140  1187    69   121    21   127 0.75 -
JF1A_TRINITY_DN68025_c3_g1_i2.p1JF1A_TRINITY_DN68025_c3_g1   -            257 4482at3193           -           1242      0.24   10.8   0.9   1   1   0.00042      0.28   10.6   0.9  1143  1182   203   252   158   256 0.79 -
JF1A_TRINITY_DN57326_c0_g1_i1.p1JF1A_TRINITY_DN57326_c0_g1   -            185 4482at3193           -           1242      0.24   10.8   0.0   1   1    0.0004      0.27   10.6   0.0   181   258    26   102    10   123 0.80 -
JF2A_TRINITY_DN40141_c0_g1_i7.p1JF2A_TRINITY_DN40141_c0_g1   -            279 4482at3193           -           1242      0.25   10.7   0.1   1   2       7.2   4.8e+03   -3.5   0.0   193   217    50    74    12    83 0.63 -
JF2A_TRINITY_DN40141_c0_g1_i7.p1JF2A_TRINITY_DN40141_c0_g1   -            279 4482at3193           -           1242      0.25   10.7   0.1   2   2   0.00069      0.45    9.9   0.0   180   233   176   229   162   250 0.78 -
JF1A_TRINITY_DN65345_c2_g1_i12.p1JF1A_TRINITY_DN65345_c2_g1  -            421 4482at3193           -           1242      0.28   10.5   0.3   1   3      0.45     3e+02    0.5   0.1   203   256   136   188   117   220 0.69 -
JF1A_TRINITY_DN65345_c2_g1_i12.p1JF1A_TRINITY_DN65345_c2_g1  -            421 4482at3193           -           1242      0.28   10.5   0.3   2   3       0.4   2.7e+02    0.7   0.1   166   220   182   236   159   248 0.65 -
JF1A_TRINITY_DN65345_c2_g1_i12.p1JF1A_TRINITY_DN65345_c2_g1  -            421 4482at3193           -           1242      0.28   10.5   0.3   3   3    0.0066       4.4    6.6   0.0   194   263   250   319   242   342 0.82 -
JF2A_TRINITY_DN51052_c0_g1_i1.p1JF2A_TRINITY_DN51052_c0_g1   -            155 4482at3193           -           1242      0.31   10.4   0.1   1   2     0.048        32    3.7   0.0   197   242     2    47     1    64 0.81 -
JF2A_TRINITY_DN51052_c0_g1_i1.p1JF2A_TRINITY_DN51052_c0_g1   -            155 4482at3193           -           1242      0.31   10.4   0.1   2   2     0.036        24    4.2   0.1   189   235    81   127    66   148 0.73 -
JF2J_TRINITY_DN28711_c0_g3_i1.p1JF2J_TRINITY_DN28711_c0_g3   -            106 4482at3193           -           1242      0.31   10.4   0.0   1   1   0.00052      0.34   10.3   0.0   193   256     1    67     1    79 0.87 -
JF1A_TRINITY_DN67819_c3_g2_i17.p1JF1A_TRINITY_DN67819_c3_g2  -            986 4482at3193           -           1242      0.32   10.4   0.0   1   2    0.0011      0.72    9.2   0.0   123   216    58   154    37   158 0.76 -
JF1A_TRINITY_DN67819_c3_g2_i17.p1JF1A_TRINITY_DN67819_c3_g2  -            986 4482at3193           -           1242      0.32   10.4   0.0   2   2       8.7   5.8e+03   -3.7   0.0   190   220   177   208   170   213 0.75 -
JF1A_TRINITY_DN64607_c0_g2_i2.p1JF1A_TRINITY_DN64607_c0_g2   -            621 4482at3193           -           1242      0.32   10.3   0.0   1   2      0.11        76    2.5   0.0   146   219   382   446   351   463 0.73 -
JF1A_TRINITY_DN64607_c0_g2_i2.p1JF1A_TRINITY_DN64607_c0_g2   -            621 4482at3193           -           1242      0.32   10.3   0.0   2   2     0.014       9.2    5.5   0.0   168   215   489   536   475   544 0.83 -
JF1A_TRINITY_DN66265_c2_g2_i10.p1JF1A_TRINITY_DN66265_c2_g2  -            253 4482at3193           -           1242      0.33   10.3   0.1   1   2     0.022        14    4.9   0.0   185   227    57   100    41   122 0.84 -
JF1A_TRINITY_DN66265_c2_g2_i10.p1JF1A_TRINITY_DN66265_c2_g2  -            253 4482at3193           -           1242      0.33   10.3   0.1   2   2     0.059        39    3.5   0.0   180   219   134   172   107   183 0.79 -
JF1A_TRINITY_DN60245_c0_g2_i1.p1JF1A_TRINITY_DN60245_c0_g2   -            156 4482at3193           -           1242      0.35   10.2   0.1   1   2    0.0013      0.88    8.9   0.0   179   214    41    76     5    83 0.80 -
JF1A_TRINITY_DN60245_c0_g2_i1.p1JF1A_TRINITY_DN60245_c0_g2   -            156 4482at3193           -           1242      0.35   10.2   0.1   2   2    0.0011      0.76    9.1   0.0   179   215    41    77    34   107 0.81 -
JF2A_TRINITY_DN38444_c0_g1_i2.p1JF2A_TRINITY_DN38444_c0_g1   -            161 4482at3193           -           1242      0.37   10.1   0.1   1   1    0.0006       0.4   10.0   0.1   186   256    34   107     7   131 0.75 -
JF1A_TRINITY_DN67815_c4_g4_i1.p1JF1A_TRINITY_DN67815_c4_g4   -            239 4482at3193           -           1242      0.39   10.1   1.7   1   1   0.00067      0.44    9.9   1.7  1117  1182   150   229   135   238 0.66 -
JF3J_TRINITY_DN66941_c0_g1_i3.p1JF3J_TRINITY_DN66941_c0_g1   -            137 4482at3193           -           1242       0.4   10.0   0.0   1   1   0.00066      0.43    9.9   0.0   195   264     6    75     2   108 0.81 -
JF1A_TRINITY_DN65597_c0_g1_i2.p1JF1A_TRINITY_DN65597_c0_g1   -            137 4482at3193           -           1242      0.41   10.0   0.0   1   1   0.00071      0.47    9.8   0.0   187   254    59   124    31   130 0.84 -
JF1J_TRINITY_DN66213_c2_g1_i5.p1JF1J_TRINITY_DN66213_c2_g1   -            147 4482at3193           -           1242      0.43    9.9   0.0   1   1   0.00082      0.54    9.6   0.0   188   257    11    80     5   100 0.82 -
JF3J_TRINITY_DN68328_c0_g1_i2.p1JF3J_TRINITY_DN68328_c0_g1   -            103 4482at3193           -           1242      0.44    9.9   0.0   1   1   0.00072      0.48    9.8   0.0   179   230    32    83    18    98 0.78 -
JF1A_TRINITY_DN63341_c0_g1_i2.p1JF1A_TRINITY_DN63341_c0_g1   -            203 4482at3193           -           1242      0.46    9.8   1.1   1   1     0.001      0.67    9.3   1.1  1145  1180   144   186   135   197 0.80 -
JF1J_TRINITY_DN67568_c0_g1_i2.p1JF1J_TRINITY_DN67568_c0_g1   -            298 4482at3193           -           1242       0.5    9.7   0.0   1   1   0.00098      0.65    9.3   0.0   111   223     5   120     2   138 0.79 -
JF3J_TRINITY_DN65009_c4_g1_i4.p1JF3J_TRINITY_DN65009_c4_g1   -            108 4482at3193           -           1242      0.52    9.7   0.0   1   1    0.0009      0.59    9.5   0.0   174   215    12    53     2    68 0.83 -
JF1A_TRINITY_DN61586_c1_g3_i2.p1JF1A_TRINITY_DN61586_c1_g3   -            263 4482at3193           -           1242      0.53    9.6   0.0   1   2     0.087        57    2.9   0.0   186   231     7    54     3    75 0.72 -
JF1A_TRINITY_DN61586_c1_g3_i2.p1JF1A_TRINITY_DN61586_c1_g3   -            263 4482at3193           -           1242      0.53    9.6   0.0   2   2     0.037        24    4.1   0.0   187   238    97   147    81   171 0.74 -
JF2A_TRINITY_DN30259_c0_g1_i1.p1JF2A_TRINITY_DN30259_c0_g1   -            224 4482at3193           -           1242      0.53    9.6   0.0   1   1    0.0011      0.76    9.1   0.0   185   249   115   179   106   191 0.80 -
JF1J_TRINITY_DN63923_c4_g1_i8.p1JF1J_TRINITY_DN63923_c4_g1   -            190 4482at3193           -           1242      0.56    9.5   0.0   1   2      0.36   2.4e+02    0.8   0.0   202   231    28    56     7    65 0.70 -
JF1J_TRINITY_DN63923_c4_g1_i8.p1JF1J_TRINITY_DN63923_c4_g1   -            190 4482at3193           -           1242      0.56    9.5   0.0   2   2     0.007       4.7    6.5   0.0   183   245    93   156    71   165 0.85 -
JF1A_TRINITY_DN67462_c0_g3_i6.p1JF1A_TRINITY_DN67462_c0_g3   -            173 4482at3193           -           1242      0.78    9.1   0.0   1   1    0.0015         1    8.7   0.0   186   219   121   154   111   161 0.86 -
JF1A_TRINITY_DN63877_c0_g4_i1.p1JF1A_TRINITY_DN63877_c0_g4   -            440 4482at3193           -           1242      0.79    9.1   0.1   1   3       2.1   1.4e+03   -1.7   0.0   185   223   186   224   179   234 0.83 -
JF1A_TRINITY_DN63877_c0_g4_i1.p1JF1A_TRINITY_DN63877_c0_g4   -            440 4482at3193           -           1242      0.79    9.1   0.1   2   3     0.063        42    3.4   0.0   185   216   230   261   219   273 0.89 -
JF1A_TRINITY_DN63877_c0_g4_i1.p1JF1A_TRINITY_DN63877_c0_g4   -            440 4482at3193           -           1242      0.79    9.1   0.1   3   3      0.11        75    2.5   0.0   187   239   278   331   263   359 0.77 -
JF1A_TRINITY_DN65799_c0_g4_i8.p1JF1A_TRINITY_DN65799_c0_g4   -            373 4482at3193           -           1242      0.91    8.9   1.0   1   3    0.0029       1.9    7.8   0.1   185   228   106   148    74   167 0.86 -
JF1A_TRINITY_DN65799_c0_g4_i8.p1JF1A_TRINITY_DN65799_c0_g4   -            373 4482at3193           -           1242      0.91    8.9   1.0   2   3       9.4   6.2e+03   -3.9   0.0   194   232   198   235   188   245 0.61 -
JF1A_TRINITY_DN65799_c0_g4_i8.p1JF1A_TRINITY_DN65799_c0_g4   -            373 4482at3193           -           1242      0.91    8.9   1.0   3   3       1.7   1.1e+03   -1.4   0.0  1160  1202   259   302   255   337 0.62 -
JF1A_TRINITY_DN63199_c1_g1_i9.p1JF1A_TRINITY_DN63199_c1_g1   -            305 4482at3193           -           1242      0.95    8.8   1.8   1   3      0.11        76    2.5   0.0   184   223    61   100    52   126 0.80 -
JF1A_TRINITY_DN63199_c1_g1_i9.p1JF1A_TRINITY_DN63199_c1_g1   -            305 4482at3193           -           1242      0.95    8.8   1.8   2   3      0.16     1e+02    2.0   0.1   175   215   147   187   136   194 0.85 -
JF1A_TRINITY_DN63199_c1_g1_i9.p1JF1A_TRINITY_DN63199_c1_g1   -            305 4482at3193           -           1242      0.95    8.8   1.8   3   3      0.17   1.1e+02    1.9   0.0   147   220   224   301   209   303 0.66 -
JF3A_TRINITY_DN1862_c0_g1_i1.p1JF3A_TRINITY_DN1862_c0_g1     -            181 4482at3193           -           1242       1.1    8.6   0.0   1   1    0.0019       1.3    8.4   0.0   186   237    66   116    46   126 0.86 -
JF1A_TRINITY_DN64533_c5_g1_i7.p1JF1A_TRINITY_DN64533_c5_g1   -            232 4482at3193           -           1242       1.1    8.6   0.5   1   3      0.35   2.3e+02    0.9   0.0   183   226    10    53     2    80 0.74 -
JF1A_TRINITY_DN64533_c5_g1_i7.p1JF1A_TRINITY_DN64533_c5_g1   -            232 4482at3193           -           1242       1.1    8.6   0.5   2   3      0.02        14    5.0   0.1   187   249    56   117    29   132 0.71 -
JF1A_TRINITY_DN64533_c5_g1_i7.p1JF1A_TRINITY_DN64533_c5_g1   -            232 4482at3193           -           1242       1.1    8.6   0.5   3   3      0.73   4.8e+02   -0.2   0.0   185   234   138   188   114   203 0.81 -
JF2A_TRINITY_DN42274_c2_g2_i2.p1JF2A_TRINITY_DN42274_c2_g2   -            185 4482at3193           -           1242       1.3    8.4   6.5   1   1    0.0028       1.9    7.8   6.5  1138  1181    81   136    72   153 0.69 -
JF2A_TRINITY_DN40343_c2_g1_i3.p1JF2A_TRINITY_DN40343_c2_g1   -            726 4482at3193           -           1242       1.4    8.2   1.2   1   1    0.0026       1.7    7.9   1.2  1143  1182   672   721   633   725 0.80 -
JF3A_TRINITY_DN55822_c0_g2_i1.p1JF3A_TRINITY_DN55822_c0_g2   -            274 4482at3193           -           1242       7.2    5.9   7.2   1   4    0.0073       4.8    6.5   0.0   189   247    67   125    58   136 0.76 -
JF3A_TRINITY_DN55822_c0_g2_i1.p1JF3A_TRINITY_DN55822_c0_g2   -            274 4482at3193           -           1242       7.2    5.9   7.2   2   4      0.55   3.6e+02    0.2   2.1  1129  1177   140   188   134   197 0.90 -
JF3A_TRINITY_DN55822_c0_g2_i1.p1JF3A_TRINITY_DN55822_c0_g2   -            274 4482at3193           -           1242       7.2    5.9   7.2   3   4      0.94   6.2e+02   -0.5   0.0   350   370   198   218   190   230 0.87 -
JF3A_TRINITY_DN55822_c0_g2_i1.p1JF3A_TRINITY_DN55822_c0_g2   -            274 4482at3193           -           1242       7.2    5.9   7.2   4   4       3.4   2.2e+03   -2.4   0.0   188   217   225   254   205   259 0.87 -
#
# Program:         hmmsearch
# Version:         3.2.1 (June 2018)
# Pipeline mode:   SEARCH
# Query file:      /isg/shared/databases/BUSCO/odb10/embryophyta_odb10/hmms/4482at3193.hmm
# Target file:     Juniper_final_annotations_no_contam_lvl0.faa
# Option settings: /usr/local/bin/hmmsearch --domtblout /labs/Wegrzyn/Juniper_Pine/BUSCO/NEW/busco_juniper/run_embryophyta_odb10/hmmer_output/4482at3193.out --cpu 1 /isg/shared/databases/BUSCO/odb10/embryophyta_odb10/hmms/4482at3193.hmm Juniper_final_annotations_no_contam_lvl0.faa 
# Current dir:     /labs/Wegrzyn/Juniper_Pine/BUSCO/NEW
# Date:            Thu Aug  6 16:26:47 2020
# [ok]
