#                                                                                                                  --- full sequence --- -------------- this domain -------------   hmm coord   ali coord   env coord
# target name                                              accession   tlen query name           accession   qlen   E-value  score  bias   #  of  c-Evalue  i-Evalue  score  bias  from    to  from    to  from    to  acc description of target
#                                      ------------------- ---------- ----- -------------------- ---------- ----- --------- ------ ----- --- --- --------- --------- ------ ----- ----- ----- ----- ----- ----- ----- ---- ---------------------
JF2A_TRINITY_DN37812_c0_g1_i3.p1JF2A_TRINITY_DN37812_c0_g1 -            294 4547at3193           -           1678     4e-97  328.3   9.5   1   1  8.6e-101     5e-97  328.0   9.5  1010  1260    31   287    20   291 0.93 -
JF1A_TRINITY_DN65677_c4_g1_i1.p1JF1A_TRINITY_DN65677_c4_g1 -            159 4547at3193           -           1678   7.4e-58  198.1   1.1   1   1   1.5e-61   8.7e-58  197.9   1.1  1469  1619     7   157     2   159 0.97 -
JF1A_TRINITY_DN64226_c0_g2_i3.p1JF1A_TRINITY_DN64226_c0_g2 -            264 4547at3193           -           1678   3.3e-28   99.9   2.9   1   1   6.9e-32     4e-28   99.6   2.9   741   917    41   217     7   228 0.72 -
JF3A_TRINITY_DN37593_c0_g1_i1.p1JF3A_TRINITY_DN37593_c0_g1 -            122 4547at3193           -           1678   2.6e-25   90.2   0.2   1   1   5.2e-29     3e-25   90.0   0.2  1146  1246    17   121    16   122 0.94 -
JF1A_TRINITY_DN71003_c0_g1_i1.p1JF1A_TRINITY_DN71003_c0_g1 -            153 4547at3193           -           1678     9e-23   81.8   2.5   1   1   5.5e-26   3.2e-22   80.0   2.5  1340  1464     6   148     3   152 0.71 -
JF2A_TRINITY_DN31561_c0_g1_i2.p1JF2A_TRINITY_DN31561_c0_g1 -            594 4547at3193           -           1678     3e-19   70.1  16.6   1   1   6.3e-23   3.7e-19   69.9  16.6   369   679    87   433     6   583 0.48 -
JF1A_TRINITY_DN65743_c1_g1_i1.p1JF1A_TRINITY_DN65743_c1_g1 -            216 4547at3193           -           1678   8.1e-07   29.0   7.1   1   2   1.8e-05      0.11   12.0   1.6   181   257     6    86     3   102 0.86 -
JF1A_TRINITY_DN65743_c1_g1_i1.p1JF1A_TRINITY_DN65743_c1_g1 -            216 4547at3193           -           1678   8.1e-07   29.0   7.1   2   2   8.2e-08   0.00048   19.8   1.5   237   313    96   196    85   215 0.58 -
JF3J_TRINITY_DN72518_c1_g1_i6.p1JF3J_TRINITY_DN72518_c1_g1 -            106 4547at3193           -           1678   0.00045   19.8   0.0   1   1   8.8e-08   0.00051   19.7   0.0   959  1044     2    95     1   101 0.77 -
JF3J_TRINITY_DN72881_c2_g3_i1.p1JF3J_TRINITY_DN72881_c2_g3 -            121 4547at3193           -           1678     0.077   12.5   2.4   1   1   1.3e-05     0.076   12.5   2.4   115   172    49   110     6   118 0.73 -
JF1A_TRINITY_DN61587_c0_g3_i4.p1JF1A_TRINITY_DN61587_c0_g3 -            222 4547at3193           -           1678      0.14   11.6   1.2   1   2     0.012        71    2.6   0.0  1039  1064    80   105    73   135 0.86 -
JF1A_TRINITY_DN61587_c0_g3_i4.p1JF1A_TRINITY_DN61587_c0_g3 -            222 4547at3193           -           1678      0.14   11.6   1.2   2   2    0.0003       1.7    8.0   0.4  1281  1335   138   192   131   217 0.90 -
JF3J_TRINITY_DN62895_c7_g1_i1.p1JF3J_TRINITY_DN62895_c7_g1 -            111 4547at3193           -           1678      0.16   11.4   0.1   1   1   3.1e-05      0.18   11.2   0.1  1027  1059    23    55     7    59 0.84 -
JF1A_TRINITY_DN1456_c0_g1_i1.p1JF1A_TRINITY_DN1456_c0_g1   -            118 4547at3193           -           1678      0.55    9.6   7.4   1   1   9.9e-05      0.57    9.6   7.4   199   287    20   109     6   118 0.73 -
#
# Program:         hmmsearch
# Version:         3.2.1 (June 2018)
# Pipeline mode:   SEARCH
# Query file:      /isg/shared/databases/BUSCO/odb10/embryophyta_odb10/hmms/4547at3193.hmm
# Target file:     Juniper_final_annotations_no_contam_lvl0.faa
# Option settings: /usr/local/bin/hmmsearch --domtblout /labs/Wegrzyn/Juniper_Pine/BUSCO/NEW/busco_juniper/run_embryophyta_odb10/hmmer_output/4547at3193.out --cpu 1 /isg/shared/databases/BUSCO/odb10/embryophyta_odb10/hmms/4547at3193.hmm Juniper_final_annotations_no_contam_lvl0.faa 
# Current dir:     /labs/Wegrzyn/Juniper_Pine/BUSCO/NEW
# Date:            Thu Aug  6 16:27:08 2020
# [ok]
