#                                                                                                                  --- full sequence --- -------------- this domain -------------   hmm coord   ali coord   env coord
# target name                                              accession   tlen query name           accession   qlen   E-value  score  bias   #  of  c-Evalue  i-Evalue  score  bias  from    to  from    to  from    to  acc description of target
#                                      ------------------- ---------- ----- -------------------- ---------- ----- --------- ------ ----- --- --- --------- --------- ------ ----- ----- ----- ----- ----- ----- ----- ---- ---------------------
JF1A_TRINITY_DN66246_c2_g4_i1.p1JF1A_TRINITY_DN66246_c2_g4 -            547 4582at3193           -            911  5.8e-268  893.7   8.4   1   2  2.2e-242  2.2e-238  795.8   0.4   379   761    29   426    23   443 0.96 -
JF1A_TRINITY_DN66246_c2_g4_i1.p1JF1A_TRINITY_DN66246_c2_g4 -            547 4582at3193           -            911  5.8e-268  893.7   8.4   2   2   1.6e-32   1.6e-28  101.3   3.0   749   843   443   543   430   547 0.85 -
JF3J_TRINITY_DN70870_c0_g6_i2.p1JF3J_TRINITY_DN70870_c0_g6 -            324 4582at3193           -            911  5.3e-124  417.3   5.1   1   2     2e-48     2e-44  154.0   1.2   177   274     9   114     5   115 0.94 -
JF3J_TRINITY_DN70870_c0_g6_i2.p1JF3J_TRINITY_DN70870_c0_g6 -            324 4582at3193           -            911  5.3e-124  417.3   5.1   2   2   2.4e-82   2.3e-78  266.2   0.1   182   336   115   282   114   288 0.93 -
JF2A_TRINITY_DN40134_c0_g2_i1.p1JF2A_TRINITY_DN40134_c0_g2 -            278 4582at3193           -            911  1.5e-114  386.0   2.8   1   2   1.5e-75   1.5e-71  243.7   0.2   164   312    38   194    24   199 0.91 -
JF2A_TRINITY_DN40134_c0_g2_i1.p1JF2A_TRINITY_DN40134_c0_g2 -            278 4582at3193           -            911  1.5e-114  386.0   2.8   2   2     4e-45     4e-41  143.1   0.2   492   567   200   278   197   278 0.96 -
JF1J_TRINITY_DN63992_c0_g2_i5.p1JF1J_TRINITY_DN63992_c0_g2 -            186 4582at3193           -            911   1.5e-74  253.6   0.2   1   1   1.8e-78   1.8e-74  253.4   0.2   153   303    19   186    13   186 0.92 -
JF1A_TRINITY_DN57137_c0_g2_i1.p1JF1A_TRINITY_DN57137_c0_g2 -            159 4582at3193           -            911     2e-41  144.1   4.2   1   2    0.0068        67    3.3   0.0     1    15     9    23     9    32 0.87 -
JF1A_TRINITY_DN57137_c0_g2_i1.p1JF1A_TRINITY_DN57137_c0_g2 -            159 4582at3193           -            911     2e-41  144.1   4.2   2   2   1.9e-44   1.9e-40  140.8   2.4     3   101    55   156    53   158 0.92 -
JF3J_TRINITY_DN70870_c0_g2_i1.p1JF3J_TRINITY_DN70870_c0_g2 -            154 4582at3193           -            911   1.1e-36  128.3   0.0   1   1   1.6e-40   1.6e-36  127.8   0.0    81   173     7   133     3   148 0.80 -
JF3A_TRINITY_DN49588_c0_g4_i1.p1JF3A_TRINITY_DN49588_c0_g4 -            103 4582at3193           -            911   3.6e-25   90.2   0.4   1   1   3.9e-29   3.9e-25   90.2   0.4   807   898    12   103     3   103 0.87 -
#
# Program:         hmmsearch
# Version:         3.2.1 (June 2018)
# Pipeline mode:   SEARCH
# Query file:      /isg/shared/databases/BUSCO/odb10/embryophyta_odb10/hmms/4582at3193.hmm
# Target file:     Juniper_final_annotations_no_contam_lvl0.faa
# Option settings: /usr/local/bin/hmmsearch --domtblout /labs/Wegrzyn/Juniper_Pine/BUSCO/NEW/busco_juniper/run_embryophyta_odb10/hmmer_output/4582at3193.out --cpu 1 /isg/shared/databases/BUSCO/odb10/embryophyta_odb10/hmms/4582at3193.hmm Juniper_final_annotations_no_contam_lvl0.faa 
# Current dir:     /labs/Wegrzyn/Juniper_Pine/BUSCO/NEW
# Date:            Thu Aug  6 16:27:36 2020
# [ok]
