#                                                                                                                   --- full sequence --- -------------- this domain -------------   hmm coord   ali coord   env coord
# target name                                               accession   tlen query name           accession   qlen   E-value  score  bias   #  of  c-Evalue  i-Evalue  score  bias  from    to  from    to  from    to  acc description of target
#                                       ------------------- ---------- ----- -------------------- ---------- ----- --------- ------ ----- --- --- --------- --------- ------ ----- ----- ----- ----- ----- ----- ----- ---- ---------------------
JF1A_TRINITY_DN60301_c1_g1_i1.p1JF1A_TRINITY_DN60301_c1_g1  -            115 46242at3193          -            453   1.1e-16   62.5   0.6   1   1   1.9e-18     5e-15   57.1   0.6    63   140     2   106     1   111 0.81 -
JF1A_TRINITY_DN76684_c0_g1_i1.p1JF1A_TRINITY_DN76684_c0_g1  -            107 46242at3193          -            453   6.8e-15   56.7   0.0   1   1   3.6e-18   9.6e-15   56.2   0.0   244   304    26    98    13   103 0.86 -
JF1J_TRINITY_DN71286_c3_g1_i6.p1JF1J_TRINITY_DN71286_c3_g1  -            238 46242at3193          -            453   2.4e-06   28.5   0.0   1   2   0.00035      0.94   10.1   0.0     1    23    10    32    10    89 0.80 -
JF1J_TRINITY_DN71286_c3_g1_i6.p1JF1J_TRINITY_DN71286_c3_g1  -            238 46242at3193          -            453   2.4e-06   28.5   0.0   2   2   3.1e-06    0.0084   16.8   0.0   159   225   122   189   106   219 0.80 -
JF1A_TRINITY_DN62551_c2_g3_i1.p1JF1A_TRINITY_DN62551_c2_g3  -            315 46242at3193          -            453   7.2e-06   26.9   0.0   1   2   0.00068       1.8    9.1   0.0     1    23     1    23     1    81 0.87 -
JF1A_TRINITY_DN62551_c2_g3_i1.p1JF1A_TRINITY_DN62551_c2_g3  -            315 46242at3193          -            453   7.2e-06   26.9   0.0   2   2   5.6e-06     0.015   16.0   0.0   159   225   116   183   101   213 0.80 -
JF2A_TRINITY_DN40806_c0_g2_i2.p1JF2A_TRINITY_DN40806_c0_g2  -            448 46242at3193          -            453   1.3e-05   26.1   0.0   1   2   0.00077       2.1    8.9   0.0     1    24     1    24     1    84 0.72 -
JF2A_TRINITY_DN40806_c0_g2_i2.p1JF2A_TRINITY_DN40806_c0_g2  -            448 46242at3193          -            453   1.3e-05   26.1   0.0   2   2     1e-05     0.028   15.1   0.0   159   225   116   183   101   213 0.81 -
JF1A_TRINITY_DN67153_c2_g2_i6.p1JF1A_TRINITY_DN67153_c2_g2  -            525 46242at3193          -            453     3e-05   24.9   0.0   1   2    0.0012       3.3    8.3   0.0     1    23     1    23     1    77 0.89 -
JF1A_TRINITY_DN67153_c2_g2_i6.p1JF1A_TRINITY_DN67153_c2_g2  -            525 46242at3193          -            453     3e-05   24.9   0.0   2   2   1.5e-05      0.04   14.6   0.0   160   225   114   180    98   210 0.81 -
JF1J_TRINITY_DN69689_c2_g3_i5.p1JF1J_TRINITY_DN69689_c2_g3  -            159 46242at3193          -            453     0.005   17.5   0.0   1   1   2.4e-06    0.0064   17.2   0.0   159   224    69   135    53   142 0.83 -
JF1J_TRINITY_DN70871_c2_g2_i6.p1JF1J_TRINITY_DN70871_c2_g2  -            215 46242at3193          -            453    0.0062   17.2   0.0   1   1   2.8e-06    0.0073   17.0   0.0   160   225    87   153    70   184 0.79 -
JF2A_TRINITY_DN40806_c0_g1_i3.p1JF2A_TRINITY_DN40806_c0_g1  -            227 46242at3193          -            453    0.0064   17.2   0.0   1   1   3.1e-06    0.0083   16.8   0.0   160   225   100   166    83   197 0.79 -
JF3A_TRINITY_DN55630_c1_g3_i2.p1JF3A_TRINITY_DN55630_c1_g3  -            296 46242at3193          -            453    0.0093   16.7   0.0   1   1   4.9e-06     0.013   16.2   0.0   159   225    67   134    51   164 0.80 -
JF1A_TRINITY_DN66566_c2_g1_i11.p1JF1A_TRINITY_DN66566_c2_g1 -            358 46242at3193          -            453     0.014   16.0   0.0   1   1   7.9e-06     0.021   15.5   0.0   160   225    65   131    48   161 0.80 -
JF3J_TRINITY_DN72537_c0_g2_i3.p1JF3J_TRINITY_DN72537_c0_g2  -            380 46242at3193          -            453     0.016   15.9   0.0   1   1     9e-06     0.024   15.3   0.0   160   225    49   115    33   145 0.80 -
JF2A_TRINITY_DN41389_c0_g1_i2.p1JF2A_TRINITY_DN41389_c0_g1  -            295 46242at3193          -            453     0.022   15.4   0.0   1   2       2.5   6.5e+03   -2.6   0.0     1    22     1    22     1    25 0.92 -
JF2A_TRINITY_DN41389_c0_g1_i2.p1JF2A_TRINITY_DN41389_c0_g1  -            295 46242at3193          -            453     0.022   15.4   0.0   2   2   1.7e-05     0.045   14.4   0.0   149   251   107   210    64   216 0.71 -
JF1A_TRINITY_DN67848_c2_g1_i2.p1JF1A_TRINITY_DN67848_c2_g1  -            200 46242at3193          -            453     0.031   14.9   0.0   1   1   1.6e-05     0.041   14.5   0.0   149   251    46   149    32   155 0.79 -
JF3A_TRINITY_DN58481_c0_g2_i6.p1JF3A_TRINITY_DN58481_c0_g2  -            227 46242at3193          -            453     0.034   14.8   0.0   1   2   0.00036      0.96   10.0   0.0     1    23    42    64    42   119 0.85 -
JF3A_TRINITY_DN58481_c0_g2_i6.p1JF3A_TRINITY_DN58481_c0_g2  -            227 46242at3193          -            453     0.034   14.8   0.0   2   2     0.048   1.3e+02    3.0   0.0   160   182   155   177   138   185 0.78 -
JF2A_TRINITY_DN43876_c0_g1_i1.p1JF2A_TRINITY_DN43876_c0_g1  -            118 46242at3193          -            453     0.034   14.8   0.0   1   1   1.4e-05     0.038   14.6   0.0   149   224    19    93    11   106 0.81 -
JF2A_TRINITY_DN41389_c0_g1_i19.p1JF2A_TRINITY_DN41389_c0_g1 -            207 46242at3193          -            453     0.042   14.5   0.0   1   2       1.4   3.8e+03   -1.9   0.0     1    22     1    22     1    28 0.92 -
JF2A_TRINITY_DN41389_c0_g1_i19.p1JF2A_TRINITY_DN41389_c0_g1 -            207 46242at3193          -            453     0.042   14.5   0.0   2   2   3.4e-05     0.091   13.4   0.0   149   223   107   180    72   195 0.75 -
JF2A_TRINITY_DN41654_c1_g1_i21.p1JF2A_TRINITY_DN41654_c1_g1 -            450 46242at3193          -            453     0.045   14.4   0.0   1   2      0.57   1.5e+03   -0.5   0.0     1    22     1    22     1    35 0.92 -
JF2A_TRINITY_DN41654_c1_g1_i21.p1JF2A_TRINITY_DN41654_c1_g1 -            450 46242at3193          -            453     0.045   14.4   0.0   2   2   7.7e-05      0.21   12.2   0.0   149   251   107   210    77   215 0.73 -
JF2J_TRINITY_DN28743_c0_g1_i3.p1JF2J_TRINITY_DN28743_c0_g1  -            414 46242at3193          -            453     0.046   14.4   0.1   1   2       3.9     1e+04   -3.3   0.0     1    22     1    22     1    24 0.91 -
JF2J_TRINITY_DN28743_c0_g1_i3.p1JF2J_TRINITY_DN28743_c0_g1  -            414 46242at3193          -            453     0.046   14.4   0.1   2   2   3.5e-05     0.092   13.4   0.0   149   251   107   210    66   215 0.72 -
JF1J_TRINITY_DN72854_c0_g1_i3.p2JF1J_TRINITY_DN72854_c0_g1  -            192 46242at3193          -            453     0.052   14.2   0.0   1   2    0.0012       3.1    8.3   0.0   149   206    20    76    11    79 0.80 -
JF1J_TRINITY_DN72854_c0_g1_i3.p2JF1J_TRINITY_DN72854_c0_g1  -            192 46242at3193          -            453     0.052   14.2   0.0   2   2     0.024        63    4.0   0.0   149   182   144   175   103   189 0.70 -
JF1A_TRINITY_DN67848_c2_g1_i11.p1JF1A_TRINITY_DN67848_c2_g1 -            452 46242at3193          -            453     0.059   14.0   0.0   1   2       5.1   1.4e+04   -3.7   0.0     1    22     1    22     1    23 0.91 -
JF1A_TRINITY_DN67848_c2_g1_i11.p1JF1A_TRINITY_DN67848_c2_g1 -            452 46242at3193          -            453     0.059   14.0   0.0   2   2   4.4e-05      0.12   13.0   0.0   149   251   107   210    69   216 0.73 -
JF3A_TRINITY_DN55992_c2_g3_i1.p1JF3A_TRINITY_DN55992_c2_g3  -            117 46242at3193          -            453       0.1   13.2   0.0   1   1   4.4e-05      0.12   13.0   0.0   149   224    10    84     3    97 0.83 -
JF3A_TRINITY_DN59706_c5_g1_i3.p1JF3A_TRINITY_DN59706_c5_g1  -            117 46242at3193          -            453      0.21   12.2   0.0   1   1   8.9e-05      0.24   12.0   0.0    95   174     4    85     1    91 0.87 -
JF2J_TRINITY_DN27134_c3_g2_i5.p1JF2J_TRINITY_DN27134_c3_g2  -            117 46242at3193          -            453      0.44   11.1   0.0   1   1    0.0002      0.53   10.9   0.0   159   205    67   114    50   116 0.79 -
JF1J_TRINITY_DN71103_c2_g2_i1.p1JF1J_TRINITY_DN71103_c2_g2  -            172 46242at3193          -            453      0.63   10.6   0.0   1   1   0.00026      0.69   10.5   0.0   149   207    29    86     2   119 0.76 -
JF2J_TRINITY_DN28247_c0_g2_i3.p2JF2J_TRINITY_DN28247_c0_g2  -            175 46242at3193          -            453      0.65   10.6   0.0   1   2      0.98   2.6e+03   -1.3   0.0     1    23     1    23     1    35 0.88 -
JF2J_TRINITY_DN28247_c0_g2_i3.p2JF2J_TRINITY_DN28247_c0_g2  -            175 46242at3193          -            453      0.65   10.6   0.0   2   2    0.0006       1.6    9.3   0.0   149   205   107   162    63   167 0.73 -
#
# Program:         hmmsearch
# Version:         3.2.1 (June 2018)
# Pipeline mode:   SEARCH
# Query file:      /isg/shared/databases/BUSCO/odb10/embryophyta_odb10/hmms/46242at3193.hmm
# Target file:     Juniper_final_annotations_no_contam_lvl0.faa
# Option settings: /usr/local/bin/hmmsearch --domtblout /labs/Wegrzyn/Juniper_Pine/BUSCO/NEW/busco_juniper/run_embryophyta_odb10/hmmer_output/46242at3193.out --cpu 1 /isg/shared/databases/BUSCO/odb10/embryophyta_odb10/hmms/46242at3193.hmm Juniper_final_annotations_no_contam_lvl0.faa 
# Current dir:     /labs/Wegrzyn/Juniper_Pine/BUSCO/NEW
# Date:            Thu Aug  6 16:27:45 2020
# [ok]
