#                                                                                                                  --- full sequence --- -------------- this domain -------------   hmm coord   ali coord   env coord
# target name                                              accession   tlen query name           accession   qlen   E-value  score  bias   #  of  c-Evalue  i-Evalue  score  bias  from    to  from    to  from    to  acc description of target
#                                      ------------------- ---------- ----- -------------------- ---------- ----- --------- ------ ----- --- --- --------- --------- ------ ----- ----- ----- ----- ----- ----- ----- ---- ---------------------
JF1A_TRINITY_DN63143_c2_g5_i1.p1JF1A_TRINITY_DN63143_c2_g5 -            233 51745at3193          -           1591   2.9e-80  272.5   1.2   1   1   1.5e-82   8.5e-79  267.7   1.2  1365  1544     1   226     1   227 0.85 -
JF1A_TRINITY_DN67074_c1_g5_i1.p1JF1A_TRINITY_DN67074_c1_g5 -            157 51745at3193          -           1591   2.1e-50  173.5   2.0   1   1   4.5e-54   2.6e-50  173.2   2.0  1223  1363     7   149     3   151 0.95 -
JF1A_TRINITY_DN57211_c0_g1_i1.p1JF1A_TRINITY_DN57211_c0_g1 -            330 51745at3193          -           1591   1.2e-42  147.8  11.1   1   3   6.4e-12   3.7e-08   33.5   0.1   773   858    31   119     2   127 0.76 -
JF1A_TRINITY_DN57211_c0_g1_i1.p1JF1A_TRINITY_DN57211_c0_g1 -            330 51745at3193          -           1591   1.2e-42  147.8  11.1   2   3   6.4e-09   3.7e-05   23.6   0.5   846   888   156   199   150   230 0.78 -
JF1A_TRINITY_DN57211_c0_g1_i1.p1JF1A_TRINITY_DN57211_c0_g1 -            330 51745at3193          -           1591   1.2e-42  147.8  11.1   3   3   8.3e-31   4.8e-27   96.1   2.2   876   983   218   328   212   330 0.87 -
JF1A_TRINITY_DN62136_c0_g4_i3.p1JF1A_TRINITY_DN62136_c0_g4 -            166 51745at3193          -           1591     5e-42  145.8   1.5   1   1   1.1e-45   6.2e-42  145.5   1.5    54   149     2    98     1   101 0.98 -
JF1A_TRINITY_DN62136_c0_g8_i1.p1JF1A_TRINITY_DN62136_c0_g8 -            151 51745at3193          -           1591   4.3e-34  119.5   6.3   1   1   9.2e-38   5.3e-34  119.2   6.3   229   367     4   148     2   150 0.95 -
JF1A_TRINITY_DN62136_c0_g4_i4.p1JF1A_TRINITY_DN62136_c0_g4 -            134 51745at3193          -           1591   1.4e-21   78.0   0.3   1   1   2.9e-25   1.7e-21   77.8   0.3     4    82    35   117    24   120 0.87 -
JF1A_TRINITY_DN67074_c1_g4_i1.p1JF1A_TRINITY_DN67074_c1_g4 -            200 51745at3193          -           1591   8.2e-16   58.9   1.5   1   2   0.00021       1.2    8.6   0.1  1095  1137    11    60     8    72 0.82 -
JF1A_TRINITY_DN67074_c1_g4_i1.p1JF1A_TRINITY_DN67074_c1_g4 -            200 51745at3193          -           1591   8.2e-16   58.9   1.5   2   2   7.9e-17   4.6e-13   49.8   0.2  1136  1226    85   188    66   198 0.81 -
JF1A_TRINITY_DN68170_c1_g1_i3.p1JF1A_TRINITY_DN68170_c1_g1 -            315 51745at3193          -           1591   3.4e-09   36.9   7.3   1   2   2.4e-06     0.014   15.0   0.1   503   535     9    41     2   120 0.84 -
JF1A_TRINITY_DN68170_c1_g1_i3.p1JF1A_TRINITY_DN68170_c1_g1 -            315 51745at3193          -           1591   3.4e-09   36.9   7.3   2   2   1.4e-08     8e-05   22.5   3.6   591   646   205   271   203   314 0.64 -
JF3J_TRINITY_DN58842_c0_g1_i1.p1JF3J_TRINITY_DN58842_c0_g1 -            119 51745at3193          -           1591   4.5e-06   26.6   0.2   1   1   8.3e-10   4.8e-06   26.5   0.2   846   882    34    70    26   110 0.81 -
JF2A_TRINITY_DN52979_c0_g1_i1.p1JF2A_TRINITY_DN52979_c0_g1 -            105 51745at3193          -           1591     2e-05   24.5   0.0   1   1   3.4e-09     2e-05   24.5   0.0   710   752    25    67     9    98 0.84 -
JF2A_TRINITY_DN15142_c0_g1_i1.p1JF2A_TRINITY_DN15142_c0_g1 -            136 51745at3193          -           1591    0.0032   17.2   0.4   1   2   0.00021       1.2    8.6   0.1  1101  1137    10    53     3    65 0.81 -
JF2A_TRINITY_DN15142_c0_g1_i1.p1JF2A_TRINITY_DN15142_c0_g1 -            136 51745at3193          -           1591    0.0032   17.2   0.4   2   2   0.00051       2.9    7.3   0.1  1136  1175    78   122    59   131 0.77 -
JF1A_TRINITY_DN63753_c0_g7_i1.p1JF1A_TRINITY_DN63753_c0_g7 -            219 51745at3193          -           1591      0.61    9.6   0.0   1   2    0.0013       7.4    6.0   0.0  1231  1305    79   158    61   174 0.74 -
JF1A_TRINITY_DN63753_c0_g7_i1.p1JF1A_TRINITY_DN63753_c0_g7 -            219 51745at3193          -           1591      0.61    9.6   0.0   2   2     0.025   1.4e+02    1.7   0.0  1550  1580   176   206   170   209 0.91 -
#
# Program:         hmmsearch
# Version:         3.2.1 (June 2018)
# Pipeline mode:   SEARCH
# Query file:      /isg/shared/databases/BUSCO/odb10/embryophyta_odb10/hmms/51745at3193.hmm
# Target file:     Juniper_final_annotations_no_contam_lvl0.faa
# Option settings: /usr/local/bin/hmmsearch --domtblout /labs/Wegrzyn/Juniper_Pine/BUSCO/NEW/busco_juniper/run_embryophyta_odb10/hmmer_output/51745at3193.out --cpu 1 /isg/shared/databases/BUSCO/odb10/embryophyta_odb10/hmms/51745at3193.hmm Juniper_final_annotations_no_contam_lvl0.faa 
# Current dir:     /labs/Wegrzyn/Juniper_Pine/BUSCO/NEW
# Date:            Thu Aug  6 16:29:41 2020
# [ok]
