#                                                                                                                  --- full sequence --- -------------- this domain -------------   hmm coord   ali coord   env coord
# target name                                              accession   tlen query name           accession   qlen   E-value  score  bias   #  of  c-Evalue  i-Evalue  score  bias  from    to  from    to  from    to  acc description of target
#                                      ------------------- ---------- ----- -------------------- ---------- ----- --------- ------ ----- --- --- --------- --------- ------ ----- ----- ----- ----- ----- ----- ----- ---- ---------------------
JF1A_TRINITY_DN65869_c0_g1_i6.p1JF1A_TRINITY_DN65869_c0_g1 -            448 54177at3193          -            523  4.3e-176  588.5   0.5   1   2      0.13   5.8e+02    0.7   0.0   130   154     2    25     1    42 0.73 -
JF1A_TRINITY_DN65869_c0_g1_i6.p1JF1A_TRINITY_DN65869_c0_g1 -            448 54177at3193          -            523  4.3e-176  588.5   0.5   2   2  5.9e-179  2.7e-175  585.9   0.1   154   441   141   428   117   434 0.98 -
JF1A_TRINITY_DN65869_c0_g1_i8.p1JF1A_TRINITY_DN65869_c0_g1 -            299 54177at3193          -            523  1.8e-142  477.6   0.2   1   1  4.9e-146  2.3e-142  477.3   0.2   162   398    42   278    11   284 0.96 -
JF3J_TRINITY_DN74324_c2_g1_i1.p1JF3J_TRINITY_DN74324_c2_g1 -            231 54177at3193          -            523   8.7e-64  217.9   0.3   1   1   2.2e-67     1e-63  217.7   0.3   154   275    94   214    66   229 0.88 -
JF1A_TRINITY_DN47517_c0_g1_i1.p1JF1A_TRINITY_DN47517_c0_g1 -            231 54177at3193          -            523   3.6e-37  130.1   5.4   1   1   9.2e-41   4.2e-37  129.9   5.4     2   120    48   179    47   222 0.81 -
JF2A_TRINITY_DN39243_c0_g2_i1.p1JF2A_TRINITY_DN39243_c0_g2 -            206 54177at3193          -            523   1.4e-31  111.7   1.9   1   2   3.9e-08   0.00018   22.2   0.3   118   154     1    36     1    54 0.79 -
JF2A_TRINITY_DN39243_c0_g2_i1.p1JF2A_TRINITY_DN39243_c0_g2 -            206 54177at3193          -            523   1.4e-31  111.7   1.9   2   2   1.8e-28   8.5e-25   89.3   0.1   154   205   140   191   111   199 0.89 -
JF1A_TRINITY_DN65896_c1_g1_i3.p1JF1A_TRINITY_DN65896_c1_g1 -            233 54177at3193          -            523   2.4e-28  101.0   0.1   1   1   1.4e-31   6.3e-28   99.6   0.1   165   375     3   223     1   230 0.78 -
JF1A_TRINITY_DN67031_c0_g2_i1.p1JF1A_TRINITY_DN67031_c0_g2 -            267 54177at3193          -            523   2.7e-14   54.6   0.0   1   1   7.2e-18   3.3e-14   54.3   0.0   228   447    10   221     3   234 0.81 -
JF3J_TRINITY_DN56878_c0_g1_i1.p1JF3J_TRINITY_DN56878_c0_g1 -            182 54177at3193          -            523   1.6e-09   38.9   0.1   1   1   3.8e-13   1.7e-09   38.8   0.1   251   331   104   182    65   182 0.86 -
JF1J_TRINITY_DN66773_c3_g1_i2.p1JF1J_TRINITY_DN66773_c3_g1 -            102 54177at3193          -            523   1.4e-07   32.5   0.0   1   1   3.7e-11   1.7e-07   32.2   0.0   251   303    23    75    17    85 0.93 -
JF3J_TRINITY_DN62541_c0_g1_i1.p1JF3J_TRINITY_DN62541_c0_g1 -            285 54177at3193          -            523   3.6e-05   24.5   0.0   1   1   9.3e-09   4.3e-05   24.3   0.0   228   315   140   226    88   249 0.85 -
JF3A_TRINITY_DN55259_c0_g1_i1.p1JF3A_TRINITY_DN55259_c0_g1 -            186 54177at3193          -            523      0.13   12.8   1.4   1   3     0.049   2.3e+02    2.1   0.0    59    85    11    37     7    62 0.79 -
JF3A_TRINITY_DN55259_c0_g1_i1.p1JF3A_TRINITY_DN55259_c0_g1 -            186 54177at3193          -            523      0.13   12.8   1.4   2   3       0.1   4.8e+02    1.0   0.1    59    74    65    80    51    91 0.79 -
JF3A_TRINITY_DN55259_c0_g1_i1.p1JF3A_TRINITY_DN55259_c0_g1 -            186 54177at3193          -            523      0.13   12.8   1.4   3   3    0.0013         6    7.3   0.0    59    80   113   133   102   150 0.74 -
JF1A_TRINITY_DN61162_c0_g2_i1.p1JF1A_TRINITY_DN61162_c0_g2 -            182 54177at3193          -            523      0.27   11.8   0.0   1   2   0.00085       3.9    7.9   0.1   446   496    40    93    22   107 0.79 -
JF1A_TRINITY_DN61162_c0_g2_i1.p1JF1A_TRINITY_DN61162_c0_g2 -            182 54177at3193          -            523      0.27   11.8   0.0   2   2     0.049   2.3e+02    2.1   0.0   364   407   137   179   104   182 0.75 -
JF1A_TRINITY_DN63061_c1_g3_i1.p1JF1A_TRINITY_DN63061_c1_g3 -            318 54177at3193          -            523       0.3   11.6   0.7   1   3      0.14   6.6e+02    0.6   0.0    54    74    55    75    44    85 0.79 -
JF1A_TRINITY_DN63061_c1_g3_i1.p1JF1A_TRINITY_DN63061_c1_g3 -            318 54177at3193          -            523       0.3   11.6   0.7   2   3    0.0044        20    5.6   0.0    49    83   118   149    94   172 0.75 -
JF1A_TRINITY_DN63061_c1_g3_i1.p1JF1A_TRINITY_DN63061_c1_g3 -            318 54177at3193          -            523       0.3   11.6   0.7   3   3     0.047   2.2e+02    2.2   0.0    45    73   278   306   255   315 0.74 -
JF1J_TRINITY_DN62548_c1_g1_i6.p1JF1J_TRINITY_DN62548_c1_g1 -            107 54177at3193          -            523      0.55   10.7   0.0   1   1   0.00015      0.69   10.4   0.0   315   361    14    61     7    64 0.87 -
JF1A_TRINITY_DN63233_c0_g2_i3.p1JF1A_TRINITY_DN63233_c0_g2 -            262 54177at3193          -            523       2.3    8.7   3.2   1   2     0.011        50    4.3   1.4    58   103    71   125    63   129 0.58 -
JF1A_TRINITY_DN63233_c0_g2_i3.p1JF1A_TRINITY_DN63233_c0_g2 -            262 54177at3193          -            523       2.3    8.7   3.2   2   2     0.022     1e+02    3.3   0.0    56    74   176   194   167   220 0.81 -
#
# Program:         hmmsearch
# Version:         3.2.1 (June 2018)
# Pipeline mode:   SEARCH
# Query file:      /isg/shared/databases/BUSCO/odb10/embryophyta_odb10/hmms/54177at3193.hmm
# Target file:     Juniper_final_annotations_no_contam_lvl0.faa
# Option settings: /usr/local/bin/hmmsearch --domtblout /labs/Wegrzyn/Juniper_Pine/BUSCO/NEW/busco_juniper/run_embryophyta_odb10/hmmer_output/54177at3193.out --cpu 1 /isg/shared/databases/BUSCO/odb10/embryophyta_odb10/hmms/54177at3193.hmm Juniper_final_annotations_no_contam_lvl0.faa 
# Current dir:     /labs/Wegrzyn/Juniper_Pine/BUSCO/NEW
# Date:            Thu Aug  6 16:30:26 2020
# [ok]
