#                                                                                                                  --- full sequence --- -------------- this domain -------------   hmm coord   ali coord   env coord
# target name                                              accession   tlen query name           accession   qlen   E-value  score  bias   #  of  c-Evalue  i-Evalue  score  bias  from    to  from    to  from    to  acc description of target
#                                      ------------------- ---------- ----- -------------------- ---------- ----- --------- ------ ----- --- --- --------- --------- ------ ----- ----- ----- ----- ----- ----- ----- ---- ---------------------
JF1A_TRINITY_DN68323_c1_g8_i1.p1JF1A_TRINITY_DN68323_c1_g8 -            153 54931at3193          -            713   1.4e-78  266.6   0.8   1   1   1.1e-82   1.6e-78  266.3   0.8   136   275     1   141     1   148 0.96 -
JF1J_TRINITY_DN39492_c0_g1_i1.p1JF1J_TRINITY_DN39492_c0_g1 -            165 54931at3193          -            713   7.6e-64  217.8   0.5   1   2   1.7e-40   2.3e-36  127.0   0.0   640   710    34   104    30   105 0.97 -
JF1J_TRINITY_DN39492_c0_g1_i1.p1JF1J_TRINITY_DN39492_c0_g1 -            165 54931at3193          -            713   7.6e-64  217.8   0.5   2   2   2.2e-29     3e-25   90.2   0.0   657   711   105   159   104   161 0.97 -
JF1A_TRINITY_DN68462_c3_g1_i1.p1JF1A_TRINITY_DN68462_c3_g1 -            120 54931at3193          -            713      0.25   11.1   0.0   1   2     0.018   2.5e+02    1.2   0.0   634   666     6    38     3    51 0.88 -
JF1A_TRINITY_DN68462_c3_g1_i1.p1JF1A_TRINITY_DN68462_c3_g1 -            120 54931at3193          -            713      0.25   11.1   0.0   2   2   0.00018       2.4    7.9   0.0   634   674    73   113    63   118 0.88 -
JF1J_TRINITY_DN70138_c1_g5_i1.p1JF1J_TRINITY_DN70138_c1_g5 -            231 54931at3193          -            713      0.36   10.6   0.0   1   1   3.7e-05      0.52   10.1   0.0   650   694    93   139    86   148 0.78 -
JF1J_TRINITY_DN55347_c0_g1_i1.p1JF1J_TRINITY_DN55347_c0_g1 -            107 54931at3193          -            713      0.39   10.5   0.1   1   1   3.1e-05      0.42   10.4   0.1   202   268     9    75     3    89 0.87 -
#
# Program:         hmmsearch
# Version:         3.2.1 (June 2018)
# Pipeline mode:   SEARCH
# Query file:      /isg/shared/databases/BUSCO/odb10/embryophyta_odb10/hmms/54931at3193.hmm
# Target file:     Juniper_final_annotations_no_contam_lvl0.faa
# Option settings: /usr/local/bin/hmmsearch --domtblout /labs/Wegrzyn/Juniper_Pine/BUSCO/NEW/busco_juniper/run_embryophyta_odb10/hmmer_output/54931at3193.out --cpu 1 /isg/shared/databases/BUSCO/odb10/embryophyta_odb10/hmms/54931at3193.hmm Juniper_final_annotations_no_contam_lvl0.faa 
# Current dir:     /labs/Wegrzyn/Juniper_Pine/BUSCO/NEW
# Date:            Thu Aug  6 16:30:44 2020
# [ok]
