#                                                                                                                   --- full sequence --- -------------- this domain -------------   hmm coord   ali coord   env coord
# target name                                               accession   tlen query name           accession   qlen   E-value  score  bias   #  of  c-Evalue  i-Evalue  score  bias  from    to  from    to  from    to  acc description of target
#                                       ------------------- ---------- ----- -------------------- ---------- ----- --------- ------ ----- --- --- --------- --------- ------ ----- ----- ----- ----- ----- ----- ----- ---- ---------------------
JF1A_TRINITY_DN63826_c1_g1_i17.p1JF1A_TRINITY_DN63826_c1_g1 -            374 56690at3193          -            431  1.1e-141  474.6  27.2   1   1  2.2e-145  3.1e-141  473.2  27.2     2   285    60   369    59   372 0.95 -
JF1A_TRINITY_DN63826_c1_g1_i3.p1JF1A_TRINITY_DN63826_c1_g1  -            206 56690at3193          -            431     3e-40  140.4   0.5   1   1   2.8e-44   3.9e-40  140.0   0.5     2    82    41   122    40   147 0.94 -
JF1A_TRINITY_DN59848_c0_g1_i4.p1JF1A_TRINITY_DN59848_c0_g1  -            287 56690at3193          -            431   1.7e-07   32.5   4.9   1   1   1.4e-11     2e-07   32.3   4.9   192   301     4   122     1   177 0.78 -
JF1A_TRINITY_DN61104_c1_g6_i2.p1JF1A_TRINITY_DN61104_c1_g6  -            237 56690at3193          -            431     2e-05   25.6   6.7   1   1   5.6e-09   7.8e-05   23.7   6.2   104   227   121   234    83   236 0.75 -
JF1A_TRINITY_DN67951_c2_g1_i7.p1JF1A_TRINITY_DN67951_c2_g1  -            113 56690at3193          -            431     0.039   14.8   0.8   1   1   3.1e-06     0.043   14.7   0.8   252   328    14    92     7   108 0.81 -
#
# Program:         hmmsearch
# Version:         3.2.1 (June 2018)
# Pipeline mode:   SEARCH
# Query file:      /isg/shared/databases/BUSCO/odb10/embryophyta_odb10/hmms/56690at3193.hmm
# Target file:     Juniper_final_annotations_no_contam_lvl0.faa
# Option settings: /usr/local/bin/hmmsearch --domtblout /labs/Wegrzyn/Juniper_Pine/BUSCO/NEW/busco_juniper/run_embryophyta_odb10/hmmer_output/56690at3193.out --cpu 1 /isg/shared/databases/BUSCO/odb10/embryophyta_odb10/hmms/56690at3193.hmm Juniper_final_annotations_no_contam_lvl0.faa 
# Current dir:     /labs/Wegrzyn/Juniper_Pine/BUSCO/NEW
# Date:            Thu Aug  6 16:31:06 2020
# [ok]
