#                                                                                                                  --- full sequence --- -------------- this domain -------------   hmm coord   ali coord   env coord
# target name                                              accession   tlen query name           accession   qlen   E-value  score  bias   #  of  c-Evalue  i-Evalue  score  bias  from    to  from    to  from    to  acc description of target
#                                      ------------------- ---------- ----- -------------------- ---------- ----- --------- ------ ----- --- --- --------- --------- ------ ----- ----- ----- ----- ----- ----- ----- ---- ---------------------
JF1A_TRINITY_DN63958_c3_g1_i6.p1JF1A_TRINITY_DN63958_c3_g1 -            432 57984at3193          -            315  2.7e-168  561.2  10.0   1   1  1.6e-170  1.4e-166  555.6  10.0     3   315    85   431    83   431 0.92 -
JF1A_TRINITY_DN63958_c3_g1_i5.p1JF1A_TRINITY_DN63958_c3_g1 -            260 57984at3193          -            315   3.1e-95  321.2   1.9   1   1     3e-97   2.6e-93  314.8   1.9   104   303    34   257    26   259 0.88 -
JF3J_TRINITY_DN39594_c0_g1_i1.p1JF3J_TRINITY_DN39594_c0_g1 -            118 57984at3193          -            315   2.3e-43  150.8  11.5   1   1   3.2e-47   2.8e-43  150.5  11.5     3    76    36   109    34   115 0.97 -
JF3A_TRINITY_DN57106_c1_g1_i1.p1JF3A_TRINITY_DN57106_c1_g1 -            170 57984at3193          -            315   5.4e-15   57.6   0.1   1   1   8.3e-19   7.2e-15   57.2   0.1   225   285    99   161    74   167 0.81 -
JF1A_TRINITY_DN67246_c1_g7_i2.p1JF1A_TRINITY_DN67246_c1_g7 -            395 57984at3193          -            315   2.7e-10   42.1   7.6   1   2   2.1e-08   0.00018   23.0   4.7    10    86   110   184   104   201 0.89 -
JF1A_TRINITY_DN67246_c1_g7_i2.p1JF1A_TRINITY_DN67246_c1_g7 -            395 57984at3193          -            315   2.7e-10   42.1   7.6   2   2     2e-07    0.0017   19.8   0.0    95   246   216   371   211   374 0.74 -
JF1J_TRINITY_DN57408_c0_g1_i1.p1JF1J_TRINITY_DN57408_c0_g1 -            124 57984at3193          -            315   3.2e-06   28.8   4.6   1   1   4.4e-10   3.8e-06   28.5   4.6    10   103    29   120    22   122 0.91 -
JF1A_TRINITY_DN64254_c2_g6_i1.p1JF1A_TRINITY_DN64254_c2_g6 -            128 57984at3193          -            315      0.27   12.6   0.0   1   1   3.5e-05      0.31   12.4   0.0   184   226    55    97    48   124 0.81 -
JF3J_TRINITY_DN73452_c2_g1_i2.p1JF3J_TRINITY_DN73452_c2_g1 -            202 57984at3193          -            315      0.69   11.2   0.0   1   2      0.35   3.1e+03   -0.8   0.0    60    86     3    29     2    45 0.80 -
JF3J_TRINITY_DN73452_c2_g1_i2.p1JF3J_TRINITY_DN73452_c2_g1 -            202 57984at3193          -            315      0.69   11.2   0.0   2   2    0.0003       2.6    9.3   0.0   174   230    86   146    80   160 0.84 -
#
# Program:         hmmsearch
# Version:         3.2.1 (June 2018)
# Pipeline mode:   SEARCH
# Query file:      /isg/shared/databases/BUSCO/odb10/embryophyta_odb10/hmms/57984at3193.hmm
# Target file:     Juniper_final_annotations_no_contam_lvl0.faa
# Option settings: /usr/local/bin/hmmsearch --domtblout /labs/Wegrzyn/Juniper_Pine/BUSCO/NEW/busco_juniper/run_embryophyta_odb10/hmmer_output/57984at3193.out --cpu 1 /isg/shared/databases/BUSCO/odb10/embryophyta_odb10/hmms/57984at3193.hmm Juniper_final_annotations_no_contam_lvl0.faa 
# Current dir:     /labs/Wegrzyn/Juniper_Pine/BUSCO/NEW
# Date:            Thu Aug  6 16:31:31 2020
# [ok]
