#                                                                                                                   --- full sequence --- -------------- this domain -------------   hmm coord   ali coord   env coord
# target name                                               accession   tlen query name           accession   qlen   E-value  score  bias   #  of  c-Evalue  i-Evalue  score  bias  from    to  from    to  from    to  acc description of target
#                                       ------------------- ---------- ----- -------------------- ---------- ----- --------- ------ ----- --- --- --------- --------- ------ ----- ----- ----- ----- ----- ----- ----- ---- ---------------------
JF1A_TRINITY_DN62682_c2_g3_i7.p1JF1A_TRINITY_DN62682_c2_g3  -            311 58847at3193          -            375   1.4e-94  318.9   0.1   1   1   3.8e-98   1.7e-94  318.5   0.1     1   204    76   290    76   305 0.94 -
JF1J_TRINITY_DN72953_c0_g1_i3.p1JF1J_TRINITY_DN72953_c0_g1  -            119 58847at3193          -            375   1.9e-36  127.6   5.8   1   2   2.3e-37   1.1e-33  118.5   0.9    63   144     4    88     2    91 0.91 -
JF1J_TRINITY_DN72953_c0_g1_i3.p1JF1J_TRINITY_DN72953_c0_g1  -            119 58847at3193          -            375   1.9e-36  127.6   5.8   2   2   2.8e-05      0.13   12.9   0.5   126   154    88   119    83   119 0.82 -
JF3J_TRINITY_DN30129_c0_g1_i1.p1JF3J_TRINITY_DN30129_c0_g1  -            121 58847at3193          -            375   8.1e-30  105.7   0.0   1   1   2.1e-33   9.5e-30  105.5   0.0   260   359     1   120     1   121 0.85 -
JF1J_TRINITY_DN69731_c0_g1_i10.p1JF1J_TRINITY_DN69731_c0_g1 -            115 58847at3193          -            375   2.9e-05   24.9   0.1   1   2    0.0043        20    5.7   0.0   201   229     8    36     6    47 0.75 -
JF1J_TRINITY_DN69731_c0_g1_i10.p1JF1J_TRINITY_DN69731_c0_g1 -            115 58847at3193          -            375   2.9e-05   24.9   0.1   2   2     1e-06    0.0048   17.6   0.0   201   244    49    92    46   103 0.94 -
JF1J_TRINITY_DN66162_c0_g3_i3.p1JF1J_TRINITY_DN66162_c0_g3  -            103 58847at3193          -            375     4e-05   24.5   0.0   1   1   9.2e-09   4.2e-05   24.4   0.0   171   219    20    68     9    91 0.82 -
JF3J_TRINITY_DN4012_c0_g1_i1.p1JF3J_TRINITY_DN4012_c0_g1    -            111 58847at3193          -            375   5.1e-05   24.1   0.0   1   1   1.2e-08   5.5e-05   24.0   0.0   172   219     9    56     4    84 0.81 -
JF2A_TRINITY_DN36888_c0_g1_i2.p1JF2A_TRINITY_DN36888_c0_g1  -            315 58847at3193          -            375     0.014   16.0   0.0   1   1     5e-06     0.023   15.4   0.0   201   244   249   292   232   300 0.92 -
JF1A_TRINITY_DN57759_c0_g1_i1.p1JF1A_TRINITY_DN57759_c0_g1  -            161 58847at3193          -            375     0.026   15.2   0.1   1   1   1.7e-05     0.079   13.6   0.1   314   367    92   153     8   159 0.63 -
JF2A_TRINITY_DN36391_c0_g1_i1.p1JF2A_TRINITY_DN36391_c0_g1  -            222 58847at3193          -            375     0.072   13.7   0.0   1   1   2.8e-05      0.13   12.9   0.0   201   245   154   198   142   202 0.91 -
JF3J_TRINITY_DN62178_c1_g2_i1.p1JF3J_TRINITY_DN62178_c1_g2  -            104 58847at3193          -            375     0.096   13.3   0.2   1   1   2.4e-05      0.11   13.1   0.2   316   360    14    58     5    70 0.88 -
JF1A_TRINITY_DN68362_c1_g1_i1.p1JF1A_TRINITY_DN68362_c1_g1  -            105 58847at3193          -            375      0.11   13.1   0.0   1   1   2.9e-05      0.14   12.8   0.0   201   244    60   103    52   105 0.87 -
JF1A_TRINITY_DN39373_c0_g1_i1.p1JF1A_TRINITY_DN39373_c0_g1  -            162 58847at3193          -            375      0.18   12.5   0.0   1   1   5.5e-05      0.25   11.9   0.0   203   250     6    53     3    59 0.92 -
JF1A_TRINITY_DN56095_c0_g1_i2.p1JF1A_TRINITY_DN56095_c0_g1  -            257 58847at3193          -            375      0.19   12.4   0.0   1   1   6.1e-05      0.28   11.8   0.0   201   246    10    55     5    64 0.88 -
JF1A_TRINITY_DN68507_c0_g2_i6.p1JF1A_TRINITY_DN68507_c0_g2  -            158 58847at3193          -            375      0.59   10.7   0.0   1   1   0.00014      0.67   10.6   0.0    68   126    35    94    18   116 0.85 -
JF1A_TRINITY_DN65213_c1_g8_i1.p1JF1A_TRINITY_DN65213_c1_g8  -            180 58847at3193          -            375      0.63   10.6   0.0   1   1   0.00018      0.83   10.3   0.0   195   249    36    93    18   116 0.81 -
#
# Program:         hmmsearch
# Version:         3.2.1 (June 2018)
# Pipeline mode:   SEARCH
# Query file:      /isg/shared/databases/BUSCO/odb10/embryophyta_odb10/hmms/58847at3193.hmm
# Target file:     Juniper_final_annotations_no_contam_lvl0.faa
# Option settings: /usr/local/bin/hmmsearch --domtblout /labs/Wegrzyn/Juniper_Pine/BUSCO/NEW/busco_juniper/run_embryophyta_odb10/hmmer_output/58847at3193.out --cpu 1 /isg/shared/databases/BUSCO/odb10/embryophyta_odb10/hmms/58847at3193.hmm Juniper_final_annotations_no_contam_lvl0.faa 
# Current dir:     /labs/Wegrzyn/Juniper_Pine/BUSCO/NEW
# Date:            Thu Aug  6 16:32:01 2020
# [ok]
