#                                                                                                                   --- full sequence --- -------------- this domain -------------   hmm coord   ali coord   env coord
# target name                                               accession   tlen query name           accession   qlen   E-value  score  bias   #  of  c-Evalue  i-Evalue  score  bias  from    to  from    to  from    to  acc description of target
#                                       ------------------- ---------- ----- -------------------- ---------- ----- --------- ------ ----- --- --- --------- --------- ------ ----- ----- ----- ----- ----- ----- ----- ---- ---------------------
JF1A_TRINITY_DN65337_c1_g4_i2.p1JF1A_TRINITY_DN65337_c1_g4  -            411 59331at3193          -            462   1.8e-27   97.8   0.6   1   3   3.9e-26   1.9e-22   81.2   0.1   237   318     2    84     1   119 0.88 -
JF1A_TRINITY_DN65337_c1_g4_i2.p1JF1A_TRINITY_DN65337_c1_g4  -            411 59331at3193          -            462   1.8e-27   97.8   0.6   2   3     0.057   2.8e+02    1.6   0.0   361   410   203   260   190   266 0.65 -
JF1A_TRINITY_DN65337_c1_g4_i2.p1JF1A_TRINITY_DN65337_c1_g4  -            411 59331at3193          -            462   1.8e-27   97.8   0.6   3   3   4.1e-05       0.2   11.9   0.1   397   452   273   325   255   333 0.72 -
JF3J_TRINITY_DN56053_c0_g1_i1.p1JF3J_TRINITY_DN56053_c0_g1  -            102 59331at3193          -            462   2.4e-26   94.1   0.6   1   1   5.3e-30   2.6e-26   94.0   0.6    20   109     1   102     1   102 0.89 -
JF1J_TRINITY_DN58971_c0_g1_i4.p1JF1J_TRINITY_DN58971_c0_g1  -            178 59331at3193          -            462   6.5e-06   26.7   0.1   1   2   4.8e-06     0.024   15.0   0.0   133   200    23    93    14   106 0.80 -
JF1J_TRINITY_DN58971_c0_g1_i4.p1JF1J_TRINITY_DN58971_c0_g1  -            178 59331at3193          -            462   6.5e-06   26.7   0.1   2   2   0.00014      0.69   10.2   0.0   133   156   110   133   101   148 0.87 -
JF1A_TRINITY_DN65337_c1_g5_i2.p1JF1A_TRINITY_DN65337_c1_g5  -            158 59331at3193          -            462   6.8e-06   26.7   0.9   1   1   4.3e-09   2.1e-05   25.1   0.9   133   232    30   150    22   153 0.74 -
JF1J_TRINITY_DN58971_c0_g1_i3.p1JF1J_TRINITY_DN58971_c0_g1  -            121 59331at3193          -            462   1.6e-05   25.5   0.2   1   2   1.7e-05     0.084   13.2   0.0   132   172    22    65    14    80 0.78 -
JF1J_TRINITY_DN58971_c0_g1_i3.p1JF1J_TRINITY_DN58971_c0_g1  -            121 59331at3193          -            462   1.6e-05   25.5   0.2   2   2   9.4e-05      0.46   10.7   0.0   133   156    85   108    77   114 0.87 -
JF1A_TRINITY_DN67756_c0_g1_i16.p1JF1A_TRINITY_DN67756_c0_g1 -            273 59331at3193          -            462   7.3e-05   23.3   0.0   1   2       2.2   1.1e+04   -3.6   0.1   428   450     9    31     8    34 0.80 -
JF1A_TRINITY_DN67756_c0_g1_i16.p1JF1A_TRINITY_DN67756_c0_g1 -            273 59331at3193          -            462   7.3e-05   23.3   0.0   2   2   2.8e-08   0.00014   22.4   0.0   260   357   166   263   155   271 0.75 -
JF1A_TRINITY_DN67053_c1_g7_i5.p1JF1A_TRINITY_DN67053_c1_g7  -            275 59331at3193          -            462    0.0025   18.2   0.0   1   1   7.1e-07    0.0035   17.7   0.0   270   339   177   246   159   263 0.78 -
JF1J_TRINITY_DN64035_c0_g4_i3.p1JF1J_TRINITY_DN64035_c0_g4  -            272 59331at3193          -            462    0.0037   17.7   0.0   1   1   1.1e-06    0.0055   17.1   0.0   254   356   160   262   151   265 0.75 -
JF3J_TRINITY_DN72439_c1_g2_i5.p1JF3J_TRINITY_DN72439_c1_g2  -            139 59331at3193          -            462     0.016   15.6   0.0   1   1   3.6e-06     0.018   15.4   0.0   253   298    82   128    50   133 0.82 -
JF3A_TRINITY_DN52043_c0_g1_i1.p1JF3A_TRINITY_DN52043_c0_g1  -            106 59331at3193          -            462     0.084   13.2   0.0   1   1   1.9e-05     0.095   13.0   0.0   253   300    39    87    30    99 0.81 -
JF1A_TRINITY_DN61847_c0_g8_i2.p1JF1A_TRINITY_DN61847_c0_g8  -            217 59331at3193          -            462      0.17   12.2   0.0   1   2    0.0018       9.2    6.5   0.0   254   310    81   137    74   151 0.87 -
JF1A_TRINITY_DN61847_c0_g8_i2.p1JF1A_TRINITY_DN61847_c0_g8  -            217 59331at3193          -            462      0.17   12.2   0.0   2   2     0.011        57    3.9   0.0   258   311   156   209   147   215 0.86 -
JF2A_TRINITY_DN36423_c0_g1_i1.p1JF2A_TRINITY_DN36423_c0_g1  -            101 59331at3193          -            462      0.23   11.7   0.1   1   1   5.6e-05      0.28   11.5   0.1    85   125    35    75    23    83 0.87 -
JF1A_TRINITY_DN67237_c0_g5_i1.p1JF1A_TRINITY_DN67237_c0_g5  -            105 59331at3193          -            462      0.41   10.9   0.0   1   1   8.3e-05      0.41   10.9   0.0   383   413    69    99    27   102 0.89 -
JF3A_TRINITY_DN36030_c0_g1_i1.p1JF3A_TRINITY_DN36030_c0_g1  -            197 59331at3193          -            462      0.61   10.4   0.0   1   2    0.0088        44    4.2   0.0   300   357     9    66     3    85 0.81 -
JF3A_TRINITY_DN36030_c0_g1_i1.p1JF3A_TRINITY_DN36030_c0_g1  -            197 59331at3193          -            462      0.61   10.4   0.0   2   2    0.0079        39    4.4   0.0   299   357   103   161    95   179 0.82 -
#
# Program:         hmmsearch
# Version:         3.2.1 (June 2018)
# Pipeline mode:   SEARCH
# Query file:      /isg/shared/databases/BUSCO/odb10/embryophyta_odb10/hmms/59331at3193.hmm
# Target file:     Juniper_final_annotations_no_contam_lvl0.faa
# Option settings: /usr/local/bin/hmmsearch --domtblout /labs/Wegrzyn/Juniper_Pine/BUSCO/NEW/busco_juniper/run_embryophyta_odb10/hmmer_output/59331at3193.out --cpu 1 /isg/shared/databases/BUSCO/odb10/embryophyta_odb10/hmms/59331at3193.hmm Juniper_final_annotations_no_contam_lvl0.faa 
# Current dir:     /labs/Wegrzyn/Juniper_Pine/BUSCO/NEW
# Date:            Thu Aug  6 16:32:11 2020
# [ok]
