#                                                                                                                   --- full sequence --- -------------- this domain -------------   hmm coord   ali coord   env coord
# target name                                               accession   tlen query name           accession   qlen   E-value  score  bias   #  of  c-Evalue  i-Evalue  score  bias  from    to  from    to  from    to  acc description of target
#                                       ------------------- ---------- ----- -------------------- ---------- ----- --------- ------ ----- --- --- --------- --------- ------ ----- ----- ----- ----- ----- ----- ----- ---- ---------------------
JF1A_TRINITY_DN65147_c0_g1_i13.p1JF1A_TRINITY_DN65147_c0_g1 -            495 62778at3193          -            423  1.3e-203  678.6   9.9   1   1  4.7e-205  6.6e-202  672.9   9.9     1   423     7   474     7   474 0.94 -
JF3J_TRINITY_DN72200_c1_g5_i3.p1JF3J_TRINITY_DN72200_c1_g5  -            213 62778at3193          -            423   4.1e-90  304.7   1.8   1   1   3.5e-93     5e-90  304.4   1.8   156   330     2   183     1   189 0.97 -
JF1A_TRINITY_DN64984_c0_g1_i8.p1JF1A_TRINITY_DN64984_c0_g1  -            543 62778at3193          -            423     4e-43  149.9  12.8   1   3   5.3e-13   7.4e-10   40.3   0.0   136   220    22   111     6   122 0.85 -
JF1A_TRINITY_DN64984_c0_g1_i8.p1JF1A_TRINITY_DN64984_c0_g1  -            543 62778at3193          -            423     4e-43  149.9  12.8   2   3   3.5e-21   4.9e-18   67.2   3.1   162   308   105   268   104   269 0.81 -
JF1A_TRINITY_DN64984_c0_g1_i8.p1JF1A_TRINITY_DN64984_c0_g1  -            543 62778at3193          -            423     4e-43  149.9  12.8   3   3   5.4e-20   7.6e-17   63.3   1.1   179   397   173   408   170   412 0.83 -
JF1A_TRINITY_DN65678_c5_g2_i3.p1JF1A_TRINITY_DN65678_c5_g2  -            314 62778at3193          -            423   9.9e-43  148.6   6.7   1   2      0.01        14    6.4   0.0   193   219    45    71    38    76 0.73 -
JF1A_TRINITY_DN65678_c5_g2_i3.p1JF1A_TRINITY_DN65678_c5_g2  -            314 62778at3193          -            423   9.9e-43  148.6   6.7   2   2   4.1e-44   5.8e-41  142.8   3.8   121   345    78   309    70   313 0.89 -
JF1A_TRINITY_DN61807_c3_g1_i2.p1JF1A_TRINITY_DN61807_c3_g1  -            569 62778at3193          -            423   5.1e-41  142.9  10.8   1   3       2.6   3.6e+03   -1.5   0.1   289   309   259   280   240   296 0.81 -
JF1A_TRINITY_DN61807_c3_g1_i2.p1JF1A_TRINITY_DN61807_c3_g1  -            569 62778at3193          -            423   5.1e-41  142.9  10.8   2   3   1.2e-31   1.7e-28  101.7   1.8   163   340   297   481   282   487 0.77 -
JF1A_TRINITY_DN61807_c3_g1_i2.p1JF1A_TRINITY_DN61807_c3_g1  -            569 62778at3193          -            423   5.1e-41  142.9  10.8   3   3   6.5e-15   9.2e-12   46.6   0.2   136   206   494   563   484   567 0.94 -
JF1J_TRINITY_DN66342_c2_g1_i3.p1JF1J_TRINITY_DN66342_c2_g1  -            118 62778at3193          -            423   1.9e-39  137.7   0.8   1   2   1.8e-32   2.6e-29  104.4   0.1   224   286     2    64     1    72 0.96 -
JF1J_TRINITY_DN66342_c2_g1_i3.p1JF1J_TRINITY_DN66342_c2_g1  -            118 62778at3193          -            423   1.9e-39  137.7   0.8   2   2   9.2e-11   1.3e-07   32.9   0.1    35    70    77   112    64   118 0.82 -
JF2A_TRINITY_DN28855_c0_g1_i1.p1JF2A_TRINITY_DN28855_c0_g1  -            110 62778at3193          -            423   5.4e-37  129.7   0.2   1   1   4.8e-40   6.8e-37  129.3   0.2   220   296    10    86     6    90 0.97 -
JF1A_TRINITY_DN67773_c4_g9_i1.p1JF1A_TRINITY_DN67773_c4_g9  -            213 62778at3193          -            423   1.2e-26   95.6  10.0   1   4   1.6e-09   2.2e-06   28.8   1.0   251   317    14    88     7    91 0.77 -
JF1A_TRINITY_DN67773_c4_g9_i1.p1JF1A_TRINITY_DN67773_c4_g9  -            213 62778at3193          -            423   1.2e-26   95.6  10.0   2   4   1.2e-10   1.6e-07   32.5   0.1   162   222    87   146    84   149 0.91 -
JF1A_TRINITY_DN67773_c4_g9_i1.p1JF1A_TRINITY_DN67773_c4_g9  -            213 62778at3193          -            423   1.2e-26   95.6  10.0   3   4   7.4e-12   1.1e-08   36.5   0.2   275   318   150   193   144   201 0.84 -
JF1A_TRINITY_DN67773_c4_g9_i1.p1JF1A_TRINITY_DN67773_c4_g9  -            213 62778at3193          -            423   1.2e-26   95.6  10.0   4   4     0.012        17    6.2   0.0   163   184   192   213   189   213 0.95 -
JF1A_TRINITY_DN64890_c0_g5_i2.p1JF1A_TRINITY_DN64890_c0_g5  -            210 62778at3193          -            423     1e-25   92.5   1.8   1   2     1e-16   1.4e-13   52.5   0.8   221   317    36   131    27   134 0.91 -
JF1A_TRINITY_DN64890_c0_g5_i2.p1JF1A_TRINITY_DN64890_c0_g5  -            210 62778at3193          -            423     1e-25   92.5   1.8   2   2   2.2e-13   3.2e-10   41.5   0.0   159   220   127   188   125   191 0.95 -
JF3J_TRINITY_DN68249_c2_g1_i2.p1JF3J_TRINITY_DN68249_c2_g1  -            221 62778at3193          -            423   6.3e-23   83.3   1.9   1   1   7.6e-26   1.1e-22   82.6   0.9   162   301    60   204    43   211 0.88 -
JF1A_TRINITY_DN67773_c4_g4_i1.p1JF1A_TRINITY_DN67773_c4_g4  -            219 62778at3193          -            423     3e-22   81.1   2.8   1   2       0.9   1.3e+03   -0.0   0.3   290   311    32    54    20    64 0.76 -
JF1A_TRINITY_DN67773_c4_g4_i1.p1JF1A_TRINITY_DN67773_c4_g4  -            219 62778at3193          -            423     3e-22   81.1   2.8   2   2   2.1e-25     3e-22   81.1   2.8   163   304    69   215    61   217 0.80 -
JF1A_TRINITY_DN64984_c0_g1_i5.p1JF1A_TRINITY_DN64984_c0_g1  -            249 62778at3193          -            423   3.6e-22   80.9   3.3   1   3   1.5e-13   2.1e-10   42.1   0.0   136   220    22   111     6   121 0.86 -
JF1A_TRINITY_DN64984_c0_g1_i5.p1JF1A_TRINITY_DN64984_c0_g1  -            249 62778at3193          -            423   3.6e-22   80.9   3.3   2   3   1.7e-09   2.5e-06   28.7   0.1   162   228   105   171   103   176 0.95 -
JF1A_TRINITY_DN64984_c0_g1_i5.p1JF1A_TRINITY_DN64984_c0_g1  -            249 62778at3193          -            423   3.6e-22   80.9   3.3   3   3   1.3e-05     0.018   16.0   0.2   170   211   178   219   172   228 0.88 -
JF3A_TRINITY_DN52935_c3_g4_i1.p1JF3A_TRINITY_DN52935_c3_g4  -            131 62778at3193          -            423   4.2e-22   80.6   0.0   1   1   3.5e-25     5e-22   80.4   0.0   221   317    17   111     2   127 0.88 -
JF2A_TRINITY_DN6183_c0_g1_i2.p1JF2A_TRINITY_DN6183_c0_g1    -            122 62778at3193          -            423   2.5e-21   78.1   0.5   1   1   2.1e-24     3e-21   77.8   0.5   220   317    15   115     3   121 0.91 -
JF1A_TRINITY_DN67205_c1_g7_i1.p1JF1A_TRINITY_DN67205_c1_g7  -            210 62778at3193          -            423   7.7e-21   76.5   2.5   1   2    0.0017       2.4    8.9   0.1   187   237     1    55     1    59 0.74 -
JF1A_TRINITY_DN67205_c1_g7_i1.p1JF1A_TRINITY_DN67205_c1_g7  -            210 62778at3193          -            423   7.7e-21   76.5   2.5   2   2   1.7e-13   2.4e-10   41.9   0.1   161   246   122   209   109   210 0.90 -
JF1A_TRINITY_DN64559_c3_g1_i11.p1JF1A_TRINITY_DN64559_c3_g1 -            509 62778at3193          -            423   6.9e-20   73.3   3.3   1   3   1.9e-18   2.7e-15   58.2   0.1   196   299     1   107     1   112 0.89 -
JF1A_TRINITY_DN64559_c3_g1_i11.p1JF1A_TRINITY_DN64559_c3_g1 -            509 62778at3193          -            423   6.9e-20   73.3   3.3   2   3      0.01        15    6.3   0.0   268   298   132   162   124   166 0.77 -
JF1A_TRINITY_DN64559_c3_g1_i11.p1JF1A_TRINITY_DN64559_c3_g1 -            509 62778at3193          -            423   6.9e-20   73.3   3.3   3   3    0.0028         4    8.2   0.1   166   197   174   205   163   240 0.65 -
JF2A_TRINITY_DN33979_c0_g1_i1.p1JF2A_TRINITY_DN33979_c0_g1  -            173 62778at3193          -            423   1.4e-17   65.8   4.4   1   2   1.6e-07   0.00023   22.2   0.4   279   313    13    47     5    51 0.90 -
JF2A_TRINITY_DN33979_c0_g1_i1.p1JF2A_TRINITY_DN33979_c0_g1  -            173 62778at3193          -            423   1.4e-17   65.8   4.4   2   2   1.2e-13   1.7e-10   42.4   0.2   158   249    46   144    44   148 0.69 -
JF1A_TRINITY_DN61066_c4_g6_i2.p1JF1A_TRINITY_DN61066_c4_g6  -            163 62778at3193          -            423     2e-17   65.2   0.5   1   1   1.8e-20   2.5e-17   64.9   0.5   289   415     3   146     1   154 0.78 -
JF1A_TRINITY_DN65147_c0_g1_i15.p1JF1A_TRINITY_DN65147_c0_g1 -            137 62778at3193          -            423   5.5e-17   63.8   0.3   1   1   6.1e-18   8.6e-15   56.5   0.3     1    79     7   113     7   123 0.82 -
JF3J_TRINITY_DN67404_c3_g1_i2.p1JF3J_TRINITY_DN67404_c3_g1  -            196 62778at3193          -            423   7.2e-17   63.4   0.1   1   1   5.2e-20   7.3e-17   63.3   0.1   167   291     2   130     1   188 0.88 -
JF1J_TRINITY_DN67891_c2_g1_i3.p1JF1J_TRINITY_DN67891_c2_g1  -            207 62778at3193          -            423   1.9e-16   62.0   2.7   1   1     5e-18   7.1e-15   56.8   2.7   124   298     1   172     1   176 0.80 -
JF3J_TRINITY_DN61381_c1_g1_i2.p1JF3J_TRINITY_DN61381_c1_g1  -            167 62778at3193          -            423   3.5e-16   61.1   2.0   1   1   5.6e-17   7.9e-14   53.4   2.0   196   300    25   149    18   154 0.76 -
JF3J_TRINITY_DN68249_c2_g1_i3.p1JF3J_TRINITY_DN68249_c2_g1  -            145 62778at3193          -            423     2e-15   58.6   0.2   1   1   3.3e-18   4.7e-15   57.4   0.2   159   248    33   129    20   140 0.66 -
JF3J_TRINITY_DN67105_c5_g2_i1.p1JF3J_TRINITY_DN67105_c5_g2  -            140 62778at3193          -            423   6.8e-15   56.9   0.4   1   1   1.2e-17   1.8e-14   55.5   0.4   213   318     6   126     1   139 0.74 -
JF3J_TRINITY_DN66404_c5_g3_i5.p1JF3J_TRINITY_DN66404_c5_g3  -            189 62778at3193          -            423   1.1e-14   56.1   6.2   1   2     0.039        56    4.4   0.5   190   211     3    24     1    35 0.71 -
JF3J_TRINITY_DN66404_c5_g3_i5.p1JF3J_TRINITY_DN66404_c5_g3  -            189 62778at3193          -            423   1.1e-14   56.1   6.2   2   2   1.5e-17   2.2e-14   55.2   0.6   172   285    65   182    26   187 0.56 -
JF1A_TRINITY_DN64188_c3_g1_i1.p1JF1A_TRINITY_DN64188_c3_g1  -            323 62778at3193          -            423   1.9e-14   55.4   0.7   1   2   1.9e-08   2.6e-05   25.3   0.1   160   232    28   107    19   121 0.80 -
JF1A_TRINITY_DN64188_c3_g1_i1.p1JF1A_TRINITY_DN64188_c3_g1  -            323 62778at3193          -            423   1.9e-14   55.4   0.7   2   2   1.7e-09   2.4e-06   28.7   0.1   172   308   126   279   108   304 0.73 -
JF1A_TRINITY_DN45759_c0_g1_i1.p1JF1A_TRINITY_DN45759_c0_g1  -            153 62778at3193          -            423   2.6e-14   55.0   5.8   1   3      0.45   6.4e+02    1.0   0.0   194   212    15    33     9    46 0.77 -
JF1A_TRINITY_DN45759_c0_g1_i1.p1JF1A_TRINITY_DN45759_c0_g1  -            153 62778at3193          -            423   2.6e-14   55.0   5.8   2   3   2.4e-09   3.4e-06   28.2   0.5   272   309    52    89    35    96 0.80 -
JF1A_TRINITY_DN45759_c0_g1_i1.p1JF1A_TRINITY_DN45759_c0_g1  -            153 62778at3193          -            423   2.6e-14   55.0   5.8   3   3   3.6e-09   5.1e-06   27.6   0.1   161   208    98   145    90   148 0.90 -
JF2A_TRINITY_DN23352_c1_g1_i2.p1JF2A_TRINITY_DN23352_c1_g1  -            196 62778at3193          -            423   1.8e-13   52.2   2.3   1   2   1.7e-06    0.0024   18.8   0.1    19    67   102   150    59   156 0.90 -
JF2A_TRINITY_DN23352_c1_g1_i2.p1JF2A_TRINITY_DN23352_c1_g1  -            196 62778at3193          -            423   1.8e-13   52.2   2.3   2   2   7.7e-10   1.1e-06   29.8   0.3   172   212   155   194   149   196 0.85 -
JF1A_TRINITY_DN57057_c0_g1_i1.p1JF1A_TRINITY_DN57057_c0_g1  -            117 62778at3193          -            423   3.8e-13   51.1   0.0   1   1   3.2e-16   4.5e-13   50.9   0.0   196   288     1    95     1   102 0.89 -
JF2A_TRINITY_DN40747_c4_g4_i1.p1JF2A_TRINITY_DN40747_c4_g4  -            101 62778at3193          -            423   1.1e-11   46.2   0.1   1   1   9.7e-15   1.4e-11   46.0   0.1   157   237    13    97     7   101 0.78 -
JF1A_TRINITY_DN70751_c0_g1_i1.p1JF1A_TRINITY_DN70751_c0_g1  -            102 62778at3193          -            423   1.8e-10   42.3   0.1   1   1   1.4e-13     2e-10   42.1   0.1   190   285     1   101     1   102 0.85 -
JF1A_TRINITY_DN64890_c0_g4_i2.p1JF1A_TRINITY_DN64890_c0_g4  -            135 62778at3193          -            423   2.3e-10   42.0   0.1   1   1   1.8e-13   2.5e-10   41.8   0.1   219   272    17    70     1    90 0.46 -
JF1A_TRINITY_DN53686_c0_g1_i1.p1JF1A_TRINITY_DN53686_c0_g1  -            143 62778at3193          -            423   2.6e-09   38.5   0.0   1   1   2.3e-12   3.2e-09   38.2   0.0   161   240    39   118    29   129 0.89 -
JF2A_TRINITY_DN38408_c0_g1_i1.p1JF2A_TRINITY_DN38408_c0_g1  -            278 62778at3193          -            423   5.3e-09   37.5   0.0   1   1   4.8e-12   6.8e-09   37.1   0.0   160   247    44   138    19   153 0.77 -
JF2A_TRINITY_DN40747_c4_g5_i1.p1JF2A_TRINITY_DN40747_c4_g5  -            124 62778at3193          -            423   7.1e-09   37.0   0.2   1   1   5.6e-12     8e-09   36.9   0.2   191   255     3    75     1    90 0.80 -
JF2J_TRINITY_DN25206_c1_g2_i2.p1JF2J_TRINITY_DN25206_c1_g2  -            151 62778at3193          -            423   8.1e-09   36.8   0.1   1   1   7.1e-12     1e-08   36.5   0.1   177   247    30   105    18   121 0.78 -
JF3A_TRINITY_DN49405_c0_g1_i2.p1JF3A_TRINITY_DN49405_c0_g1  -            172 62778at3193          -            423   9.5e-09   36.6   0.1   1   1   8.4e-12   1.2e-08   36.3   0.1   176   247    15    91     3   107 0.78 -
JF3A_TRINITY_DN58162_c0_g2_i1.p1JF3A_TRINITY_DN58162_c0_g2  -            118 62778at3193          -            423   4.1e-08   34.5   0.9   1   1   3.5e-11     5e-08   34.2   0.9   117   187    34   103    13   112 0.85 -
JF1J_TRINITY_DN72679_c0_g3_i1.p1JF1J_TRINITY_DN72679_c0_g3  -            100 62778at3193          -            423   1.2e-07   32.9   0.2   1   2   7.8e-09   1.1e-05   26.5   0.1   258   317     2    62     1    68 0.89 -
JF1J_TRINITY_DN72679_c0_g3_i1.p1JF1J_TRINITY_DN72679_c0_g3  -            100 62778at3193          -            423   1.2e-07   32.9   0.2   2   2     0.046        66    4.2   0.0   221   238    72    89    68    98 0.81 -
JF3A_TRINITY_DN43098_c0_g1_i1.p1JF3A_TRINITY_DN43098_c0_g1  -            119 62778at3193          -            423   1.6e-07   32.6   0.3   1   2    0.0014         2    9.2   0.0   298   319     1    22     1    33 0.89 -
JF3A_TRINITY_DN43098_c0_g1_i1.p1JF3A_TRINITY_DN43098_c0_g1  -            119 62778at3193          -            423   1.6e-07   32.6   0.3   2   2   2.2e-07   0.00031   21.7   0.1   272   314    42    84    30    96 0.68 -
JF1A_TRINITY_DN59159_c0_g1_i2.p1JF1A_TRINITY_DN59159_c0_g1  -            120 62778at3193          -            423   2.6e-07   31.9   0.4   1   2   1.1e-06    0.0016   19.4   0.1   241   301     5    63     1    72 0.84 -
JF1A_TRINITY_DN59159_c0_g1_i2.p1JF1A_TRINITY_DN59159_c0_g1  -            120 62778at3193          -            423   2.6e-07   31.9   0.4   2   2   0.00022      0.31   11.9   0.1   190   237    66   117    63   119 0.83 -
JF3J_TRINITY_DN37243_c0_g1_i1.p1JF3J_TRINITY_DN37243_c0_g1  -            109 62778at3193          -            423   2.9e-07   31.7   0.3   1   2   2.9e-05     0.042   14.7   0.0   180   218    23    61    11    64 0.88 -
JF3J_TRINITY_DN37243_c0_g1_i1.p1JF3J_TRINITY_DN37243_c0_g1  -            109 62778at3193          -            423   2.9e-07   31.7   0.3   2   2   8.6e-06     0.012   16.5   0.1   193   219    62    88    59   107 0.63 -
JF3A_TRINITY_DN8856_c0_g1_i1.p1JF3A_TRINITY_DN8856_c0_g1    -            101 62778at3193          -            423     3e-07   31.7   0.0   1   1   2.2e-10   3.1e-07   31.6   0.0   184   222     2    40     1    72 0.74 -
JF1A_TRINITY_DN53686_c0_g1_i2.p1JF1A_TRINITY_DN53686_c0_g1  -            144 62778at3193          -            423   3.5e-07   31.4   0.0   1   2   6.3e-08   8.9e-05   23.5   0.0   161   208    39    86    29    97 0.86 -
JF1A_TRINITY_DN53686_c0_g1_i2.p1JF1A_TRINITY_DN53686_c0_g1  -            144 62778at3193          -            423   3.5e-07   31.4   0.0   2   2    0.0096        14    6.5   0.0   196   228    99   135    91   144 0.61 -
JF3J_TRINITY_DN59875_c0_g1_i2.p1JF3J_TRINITY_DN59875_c0_g1  -            202 62778at3193          -            423    0.0011   19.9   0.7   1   2    0.0029       4.1    8.2   0.0   268   298    90   120    81   124 0.78 -
JF3J_TRINITY_DN59875_c0_g1_i2.p1JF3J_TRINITY_DN59875_c0_g1  -            202 62778at3193          -            423    0.0011   19.9   0.7   2   2   0.00066      0.94   10.3   0.2   165   197   131   163   121   199 0.64 -
JF3J_TRINITY_DN66432_c1_g1_i3.p1JF3J_TRINITY_DN66432_c1_g1  -            149 62778at3193          -            423    0.0029   18.6   0.0   1   1   2.4e-06    0.0034   18.3   0.0   272   300    75   105    37   110 0.81 -
JF1J_TRINITY_DN62403_c1_g4_i3.p1JF1J_TRINITY_DN62403_c1_g4  -            127 62778at3193          -            423    0.0029   18.5   0.0   1   2   1.2e-05     0.017   16.0   0.0   258   300     7    51     4    56 0.89 -
JF1J_TRINITY_DN62403_c1_g4_i3.p1JF1J_TRINITY_DN62403_c1_g4  -            127 62778at3193          -            423    0.0029   18.5   0.0   2   2      0.49     7e+02    0.8   0.0   363   411    56   104    51   115 0.64 -
JF1A_TRINITY_DN62578_c0_g9_i1.p1JF1A_TRINITY_DN62578_c0_g9  -            217 62778at3193          -            423     0.044   14.7   0.8   1   2     0.003       4.2    8.1   0.2   284   308    31    56    11   100 0.68 -
JF1A_TRINITY_DN62578_c0_g9_i1.p1JF1A_TRINITY_DN62578_c0_g9  -            217 62778at3193          -            423     0.044   14.7   0.8   2   2     0.021        30    5.3   0.0   173   204   111   142   105   186 0.81 -
JF3J_TRINITY_DN49362_c0_g1_i1.p1JF3J_TRINITY_DN49362_c0_g1  -            227 62778at3193          -            423      0.42   11.4   0.1   1   1   0.00042       0.6   10.9   0.1   171   245   143   219   122   223 0.72 -
#
# Program:         hmmsearch
# Version:         3.2.1 (June 2018)
# Pipeline mode:   SEARCH
# Query file:      /isg/shared/databases/BUSCO/odb10/embryophyta_odb10/hmms/62778at3193.hmm
# Target file:     Juniper_final_annotations_no_contam_lvl0.faa
# Option settings: /usr/local/bin/hmmsearch --domtblout /labs/Wegrzyn/Juniper_Pine/BUSCO/NEW/busco_juniper/run_embryophyta_odb10/hmmer_output/62778at3193.out --cpu 1 /isg/shared/databases/BUSCO/odb10/embryophyta_odb10/hmms/62778at3193.hmm Juniper_final_annotations_no_contam_lvl0.faa 
# Current dir:     /labs/Wegrzyn/Juniper_Pine/BUSCO/NEW
# Date:            Thu Aug  6 16:33:24 2020
# [ok]
