#                                                                                                                    --- full sequence --- -------------- this domain -------------   hmm coord   ali coord   env coord
# target name                                                accession   tlen query name           accession   qlen   E-value  score  bias   #  of  c-Evalue  i-Evalue  score  bias  from    to  from    to  from    to  acc description of target
#                                        ------------------- ---------- ----- -------------------- ---------- ----- --------- ------ ----- --- --- --------- --------- ------ ----- ----- ----- ----- ----- ----- ----- ---- ---------------------
JF1A_TRINITY_DN64410_c2_g1_i2.p1JF1A_TRINITY_DN64410_c2_g1   -            177 63167at3193          -            404   8.6e-41  142.0   8.3   1   1   1.1e-39     1e-36  128.6   8.3    29   165     1   177     1   177 0.78 -
JF3A_TRINITY_DN49570_c4_g2_i2.p1JF3A_TRINITY_DN49570_c4_g2   -            126 63167at3193          -            404   6.8e-18   66.6   0.2   1   1   7.9e-21   7.5e-18   66.4   0.2    20    79     5    67     2    97 0.85 -
JF1A_TRINITY_DN62290_c1_g1_i3.p1JF1A_TRINITY_DN62290_c1_g1   -            427 63167at3193          -            404   3.5e-08   34.6   0.0   1   4     0.014        13    6.4   0.0   269   309    82   122    62   125 0.82 -
JF1A_TRINITY_DN62290_c1_g1_i3.p1JF1A_TRINITY_DN62290_c1_g1   -            427 63167at3193          -            404   3.5e-08   34.6   0.0   2   4    0.0003      0.29   11.8   0.0   270   311   116   157   109   159 0.91 -
JF1A_TRINITY_DN62290_c1_g1_i3.p1JF1A_TRINITY_DN62290_c1_g1   -            427 63167at3193          -            404   3.5e-08   34.6   0.0   3   4   0.00051      0.48   11.1   0.0   272   310   151   189   150   195 0.94 -
JF1A_TRINITY_DN62290_c1_g1_i3.p1JF1A_TRINITY_DN62290_c1_g1   -            427 63167at3193          -            404   3.5e-08   34.6   0.0   4   4    0.0042         4    8.1   0.0   272   313   336   377   304   387 0.91 -
JF1J_TRINITY_DN56867_c1_g1_i3.p1JF1J_TRINITY_DN56867_c1_g1   -            206 63167at3193          -            404   1.1e-07   32.9   0.2   1   3      0.34   3.3e+02    1.8   0.0   272   300    47    73    32    79 0.74 -
JF1J_TRINITY_DN56867_c1_g1_i3.p1JF1J_TRINITY_DN56867_c1_g1   -            206 63167at3193          -            404   1.1e-07   32.9   0.2   2   3   0.00043      0.41   11.3   0.0   273   321    84   132    79   146 0.86 -
JF1J_TRINITY_DN56867_c1_g1_i3.p1JF1J_TRINITY_DN56867_c1_g1   -            206 63167at3193          -            404   1.1e-07   32.9   0.2   3   3   1.4e-05     0.013   16.2   0.1   271   313   148   190   140   204 0.90 -
JF1A_TRINITY_DN68152_c0_g2_i5.p1JF1A_TRINITY_DN68152_c0_g2   -            368 63167at3193          -            404   1.9e-07   32.2   1.1   1   5     0.091        87    3.7   0.0   254   311    41   101    31   104 0.78 -
JF1A_TRINITY_DN68152_c0_g2_i5.p1JF1A_TRINITY_DN68152_c0_g2   -            368 63167at3193          -            404   1.9e-07   32.2   1.1   2   5     0.022        21    5.7   0.1   272   303    95   126    92   135 0.85 -
JF1A_TRINITY_DN68152_c0_g2_i5.p1JF1A_TRINITY_DN68152_c0_g2   -            368 63167at3193          -            404   1.9e-07   32.2   1.1   3   5      0.97   9.2e+02    0.3   0.0   270   295   127   152   121   169 0.86 -
JF1A_TRINITY_DN68152_c0_g2_i5.p1JF1A_TRINITY_DN68152_c0_g2   -            368 63167at3193          -            404   1.9e-07   32.2   1.1   4   5       5.3   5.1e+03   -2.2   0.0   273   306   162   195   152   201 0.81 -
JF1A_TRINITY_DN68152_c0_g2_i5.p1JF1A_TRINITY_DN68152_c0_g2   -            368 63167at3193          -            404   1.9e-07   32.2   1.1   5   5   2.1e-07    0.0002   22.2   0.1   272   320   226   274   217   357 0.72 -
JF1A_TRINITY_DN60481_c4_g9_i1.p1JF1A_TRINITY_DN60481_c4_g9   -            257 63167at3193          -            404   2.1e-07   32.0   0.0   1   4   7.5e-05     0.072   13.8   0.0   273   311     8    46     4    50 0.93 -
JF1A_TRINITY_DN60481_c4_g9_i1.p1JF1A_TRINITY_DN60481_c4_g9   -            257 63167at3193          -            404   2.1e-07   32.0   0.0   2   4      0.34   3.2e+02    1.8   0.0   276   308   131   164   117   168 0.81 -
JF1A_TRINITY_DN60481_c4_g9_i1.p1JF1A_TRINITY_DN60481_c4_g9   -            257 63167at3193          -            404   2.1e-07   32.0   0.0   3   4   8.1e-05     0.077   13.7   0.0   272   311   161   200   154   215 0.91 -
JF1A_TRINITY_DN60481_c4_g9_i1.p1JF1A_TRINITY_DN60481_c4_g9   -            257 63167at3193          -            404   2.1e-07   32.0   0.0   4   4     0.019        18    5.9   0.0   271   312   193   234   187   237 0.92 -
JF1A_TRINITY_DN53585_c0_g1_i1.p1JF1A_TRINITY_DN53585_c0_g1   -            216 63167at3193          -            404   6.6e-07   30.4   0.1   1   3    0.0043       4.1    8.0   0.0   273   314     5    46     2    62 0.90 -
JF1A_TRINITY_DN53585_c0_g1_i1.p1JF1A_TRINITY_DN53585_c0_g1   -            216 63167at3193          -            404   6.6e-07   30.4   0.1   2   3    0.0049       4.7    7.8   0.0   272   314    70   112    63   119 0.90 -
JF1A_TRINITY_DN53585_c0_g1_i1.p1JF1A_TRINITY_DN53585_c0_g1   -            216 63167at3193          -            404   6.6e-07   30.4   0.1   3   3   0.00061      0.58   10.8   0.0   270   313   155   198   147   208 0.90 -
JF1A_TRINITY_DN39777_c0_g1_i1.p1JF1A_TRINITY_DN39777_c0_g1   -            157 63167at3193          -            404   8.5e-07   30.0   0.0   1   2    0.0011         1   10.0   0.0   274   314     2    42     1    49 0.92 -
JF1A_TRINITY_DN39777_c0_g1_i1.p1JF1A_TRINITY_DN39777_c0_g1   -            157 63167at3193          -            404   8.5e-07   30.0   0.0   2   2   3.2e-06    0.0031   18.3   0.0   271   323    65   120    56   145 0.84 -
JF1A_TRINITY_DN66768_c0_g1_i14.p1JF1A_TRINITY_DN66768_c0_g1  -            538 63167at3193          -            404   1.9e-06   28.9   0.1   1   3    0.0003      0.29   11.8   0.1   274   330   208   264   179   294 0.82 -
JF1A_TRINITY_DN66768_c0_g1_i14.p1JF1A_TRINITY_DN66768_c0_g1  -            538 63167at3193          -            404   1.9e-06   28.9   0.1   2   3     0.059        56    4.3   0.0   272   313   317   357   301   373 0.80 -
JF1A_TRINITY_DN66768_c0_g1_i14.p1JF1A_TRINITY_DN66768_c0_g1  -            538 63167at3193          -            404   1.9e-06   28.9   0.1   3   3    0.0033       3.1    8.4   0.0   270   308   384   423   370   432 0.84 -
JF1A_TRINITY_DN63624_c0_g8_i1.p1JF1A_TRINITY_DN63624_c0_g8   -            185 63167at3193          -            404   3.1e-06   28.2   0.0   1   3       8.3   7.9e+03   -2.8   0.0   272   303    21    52    18    64 0.77 -
JF1A_TRINITY_DN63624_c0_g8_i1.p1JF1A_TRINITY_DN63624_c0_g8   -            185 63167at3193          -            404   3.1e-06   28.2   0.0   2   3     0.044        41    4.7   0.0   272   300    66    94    54   102 0.86 -
JF1A_TRINITY_DN63624_c0_g8_i1.p1JF1A_TRINITY_DN63624_c0_g8   -            185 63167at3193          -            404   3.1e-06   28.2   0.0   3   3     4e-07   0.00038   21.3   0.0   272   313   103   144    98   151 0.92 -
JF1A_TRINITY_DN18406_c0_g1_i1.p1JF1A_TRINITY_DN18406_c0_g1   -            106 63167at3193          -            404   2.3e-05   25.3   0.3   1   2     0.012        11    6.6   0.0   271   292     4    25     2    37 0.90 -
JF1A_TRINITY_DN18406_c0_g1_i1.p1JF1A_TRINITY_DN18406_c0_g1   -            106 63167at3193          -            404   2.3e-05   25.3   0.3   2   2   5.8e-06    0.0055   17.5   0.1   271   315    42    87    29    95 0.84 -
JF2A_TRINITY_DN41576_c3_g1_i1.p1JF2A_TRINITY_DN41576_c3_g1   -            356 63167at3193          -            404   3.3e-05   24.8   0.0   1   2      0.11   1.1e+02    3.4   0.0   272   300    66    94    54   102 0.86 -
JF2A_TRINITY_DN41576_c3_g1_i1.p1JF2A_TRINITY_DN41576_c3_g1   -            356 63167at3193          -            404   3.3e-05   24.8   0.0   2   2   1.7e-06    0.0016   19.3   0.0   272   311   103   142    97   147 0.95 -
JF1A_TRINITY_DN64529_c0_g3_i1.p1JF1A_TRINITY_DN64529_c0_g3   -            391 63167at3193          -            404   4.2e-05   24.5   0.0   1   2     3e-05     0.028   15.1   0.0   281   319   141   179   129   210 0.81 -
JF1A_TRINITY_DN64529_c0_g3_i1.p1JF1A_TRINITY_DN64529_c0_g3   -            391 63167at3193          -            404   4.2e-05   24.5   0.0   2   2     0.011        11    6.7   0.0   279   323   236   280   226   321 0.62 -
JF3J_TRINITY_DN69066_c0_g1_i1.p2JF3J_TRINITY_DN69066_c0_g1   -            113 63167at3193          -            404   7.7e-05   23.6   0.1   1   2      0.17   1.6e+02    2.8   0.0   272   292    19    39    13    45 0.89 -
JF3J_TRINITY_DN69066_c0_g1_i1.p2JF3J_TRINITY_DN69066_c0_g1   -            113 63167at3193          -            404   7.7e-05   23.6   0.1   2   2   1.9e-06    0.0018   19.1   0.1   272   311    56    96    39   106 0.85 -
JF1J_TRINITY_DN73150_c4_g1_i1.p1JF1J_TRINITY_DN73150_c4_g1   -            199 63167at3193          -            404    0.0001   23.2   0.0   1   2      0.01       9.5    6.8   0.0   274   312    10    48     4    52 0.90 -
JF1J_TRINITY_DN73150_c4_g1_i1.p1JF1J_TRINITY_DN73150_c4_g1   -            199 63167at3193          -            404    0.0001   23.2   0.0   2   2   5.2e-05      0.05   14.3   0.0   272   314    77   119    73   127 0.90 -
JF1A_TRINITY_DN63864_c1_g5_i4.p1JF1A_TRINITY_DN63864_c1_g5   -            335 63167at3193          -            404    0.0002   22.2   0.1   1   2   3.7e-05     0.035   14.8   0.0   274   311   213   250   207   258 0.90 -
JF1A_TRINITY_DN63864_c1_g5_i4.p1JF1A_TRINITY_DN63864_c1_g5   -            335 63167at3193          -            404    0.0002   22.2   0.1   2   2     0.032        31    5.2   0.0   270   313   275   318   262   328 0.86 -
JF1A_TRINITY_DN66581_c2_g1_i4.p1JF1A_TRINITY_DN66581_c2_g1   -            565 63167at3193          -            404   0.00025   21.9   2.0   1   3      0.21     2e+02    2.5   0.0   271   316    77   123    65   147 0.71 -
JF1A_TRINITY_DN66581_c2_g1_i4.p1JF1A_TRINITY_DN66581_c2_g1   -            565 63167at3193          -            404   0.00025   21.9   2.0   2   3      0.36   3.4e+02    1.7   0.0   272   293   152   173   138   180 0.88 -
JF1A_TRINITY_DN66581_c2_g1_i4.p1JF1A_TRINITY_DN66581_c2_g1   -            565 63167at3193          -            404   0.00025   21.9   2.0   3   3   2.9e-05     0.028   15.2   0.2   271   320   188   238   179   306 0.82 -
JF1A_TRINITY_DN63810_c1_g10_i1.p1JF1A_TRINITY_DN63810_c1_g10 -            132 63167at3193          -            404   0.00029   21.7  16.0   1   2   1.3e-05     0.012   16.3   9.9   358   388     1    31     1    35 0.89 -
JF1A_TRINITY_DN63810_c1_g10_i1.p1JF1A_TRINITY_DN63810_c1_g10 -            132 63167at3193          -            404   0.00029   21.7  16.0   2   2    0.0016       1.5    9.4   0.4   379   402    61    84    46    86 0.78 -
JF3J_TRINITY_DN72203_c1_g2_i11.p1JF3J_TRINITY_DN72203_c1_g2  -            233 63167at3193          -            404   0.00029   21.7   0.2   1   2   0.00062      0.59   10.8   0.0   270   311   107   148    84   156 0.85 -
JF3J_TRINITY_DN72203_c1_g2_i11.p1JF3J_TRINITY_DN72203_c1_g2  -            233 63167at3193          -            404   0.00029   21.7   0.2   2   2    0.0026       2.5    8.7   0.1   270   316   173   219   165   228 0.86 -
JF1A_TRINITY_DN63131_c1_g2_i5.p1JF1A_TRINITY_DN63131_c1_g2   -            378 63167at3193          -            404   0.00039   21.3   0.0   1   3      0.57   5.4e+02    1.0   0.0   270   306   203   239   192   240 0.87 -
JF1A_TRINITY_DN63131_c1_g2_i5.p1JF1A_TRINITY_DN63131_c1_g2   -            378 63167at3193          -            404   0.00039   21.3   0.0   2   3    0.0033       3.1    8.4   0.0   272   323   238   289   230   297 0.86 -
JF1A_TRINITY_DN63131_c1_g2_i5.p1JF1A_TRINITY_DN63131_c1_g2   -            378 63167at3193          -            404   0.00039   21.3   0.0   3   3    0.0018       1.7    9.3   0.0   270   310   302   342   294   347 0.92 -
JF2A_TRINITY_DN37576_c0_g1_i1.p1JF2A_TRINITY_DN37576_c0_g1   -            130 63167at3193          -            404   0.00051   20.9   0.0   1   2     6e-06    0.0057   17.4   0.0   273   313    41    81    14    89 0.79 -
JF2A_TRINITY_DN37576_c0_g1_i1.p1JF2A_TRINITY_DN37576_c0_g1   -            130 63167at3193          -            404   0.00051   20.9   0.0   2   2    0.0056       5.3    7.6   0.0   271   308    72   109    70   113 0.92 -
JF3J_TRINITY_DN65212_c1_g2_i2.p1JF3J_TRINITY_DN65212_c1_g2   -            164 63167at3193          -            404   0.00051   20.9   0.1   1   2    0.0061       5.8    7.5   0.0   287   317     5    35     1    43 0.88 -
JF3J_TRINITY_DN65212_c1_g2_i2.p1JF3J_TRINITY_DN65212_c1_g2   -            164 63167at3193          -            404   0.00051   20.9   0.1   2   2   0.00033      0.31   11.7   0.0   278   317    91   131    67   137 0.80 -
JF3J_TRINITY_DN62463_c0_g1_i1.p1JF3J_TRINITY_DN62463_c0_g1   -            160 63167at3193          -            404   0.00072   20.4   0.0   1   2   7.1e-05     0.068   13.9   0.0   272   314     6    49     2    59 0.86 -
JF3J_TRINITY_DN62463_c0_g1_i1.p1JF3J_TRINITY_DN62463_c0_g1   -            160 63167at3193          -            404   0.00072   20.4   0.0   2   2     0.039        37    4.9   0.0   226   295    69   139    51   144 0.72 -
JF2A_TRINITY_DN40811_c0_g1_i4.p1JF2A_TRINITY_DN40811_c0_g1   -            346 63167at3193          -            404    0.0011   19.8   0.2   1   2    0.0012       1.1    9.9   0.0   270   311   219   260   197   268 0.85 -
JF2A_TRINITY_DN40811_c0_g1_i4.p1JF2A_TRINITY_DN40811_c0_g1   -            346 63167at3193          -            404    0.0011   19.8   0.2   2   2    0.0053       5.1    7.7   0.0   270   315   285   330   277   338 0.86 -
JF1A_TRINITY_DN63220_c3_g2_i3.p1JF1A_TRINITY_DN63220_c3_g2   -            183 63167at3193          -            404    0.0014   19.5   0.1   1   3   0.00014      0.14   12.9   0.0   273   311    59    97    51   100 0.91 -
JF1A_TRINITY_DN63220_c3_g2_i3.p1JF1A_TRINITY_DN63220_c3_g2   -            183 63167at3193          -            404    0.0014   19.5   0.1   2   3     0.026        24    5.5   0.0   273   311    92   130    92   135 0.93 -
JF1A_TRINITY_DN63220_c3_g2_i3.p1JF1A_TRINITY_DN63220_c3_g2   -            183 63167at3193          -            404    0.0014   19.5   0.1   3   3     0.073        70    4.0   0.0   270   312   122   164   114   175 0.89 -
JF2A_TRINITY_DN39302_c0_g1_i7.p1JF2A_TRINITY_DN39302_c0_g1   -            220 63167at3193          -            404    0.0016   19.2   0.1   1   2      0.26   2.5e+02    2.1   0.0   265   296    68    99    56   108 0.74 -
JF2A_TRINITY_DN39302_c0_g1_i7.p1JF2A_TRINITY_DN39302_c0_g1   -            220 63167at3193          -            404    0.0016   19.2   0.1   2   2   3.6e-05     0.034   14.9   0.0   272   319   114   162   107   174 0.89 -
JF1A_TRINITY_DN64663_c0_g3_i3.p1JF1A_TRINITY_DN64663_c0_g3   -            175 63167at3193          -            404     0.002   18.9   0.0   1   3    0.0079       7.6    7.2   0.0   272   299    29    56    15    64 0.90 -
JF1A_TRINITY_DN64663_c0_g3_i3.p1JF1A_TRINITY_DN64663_c0_g3   -            175 63167at3193          -            404     0.002   18.9   0.0   2   3      0.11   1.1e+02    3.4   0.0   272   297    66    91    62   100 0.85 -
JF1A_TRINITY_DN64663_c0_g3_i3.p1JF1A_TRINITY_DN64663_c0_g3   -            175 63167at3193          -            404     0.002   18.9   0.0   3   3     0.037        35    5.0   0.0   273   302   102   133    98   139 0.81 -
JF3A_TRINITY_DN55157_c2_g5_i1.p2JF3A_TRINITY_DN55157_c2_g5   -            108 63167at3193          -            404    0.0021   18.8   0.0   1   1   2.4e-06    0.0023   18.7   0.0   259   319    16    80     6   103 0.77 -
JF3A_TRINITY_DN58063_c0_g2_i1.p1JF3A_TRINITY_DN58063_c0_g2   -            164 63167at3193          -            404    0.0022   18.8   0.1   1   2   0.00014      0.14   12.9   0.0   271   312     9    50     4    56 0.91 -
JF3A_TRINITY_DN58063_c0_g2_i1.p1JF3A_TRINITY_DN58063_c0_g2   -            164 63167at3193          -            404    0.0022   18.8   0.1   2   2   0.00076      0.73   10.5   0.0   270   318    41    91    37   105 0.87 -
JF3J_TRINITY_DN51989_c0_g1_i2.p1JF3J_TRINITY_DN51989_c0_g1   -            114 63167at3193          -            404    0.0027   18.5   0.0   1   1   2.9e-06    0.0028   18.5   0.0   246   313    10    81     2    98 0.81 -
JF1A_TRINITY_DN58343_c0_g1_i3.p1JF1A_TRINITY_DN58343_c0_g1   -            333 63167at3193          -            404    0.0035   18.1   0.1   1   2     0.045        43    4.7   0.0   271   318    57   105    39   116 0.81 -
JF1A_TRINITY_DN58343_c0_g1_i3.p1JF1A_TRINITY_DN58343_c0_g1   -            333 63167at3193          -            404    0.0035   18.1   0.1   2   2   0.00041      0.39   11.4   0.0   268   321   211   266   191   273 0.81 -
JF1A_TRINITY_DN64663_c0_g3_i4.p1JF1A_TRINITY_DN64663_c0_g3   -            140 63167at3193          -            404    0.0038   18.0   0.0   1   2    0.0059       5.7    7.6   0.0   272   299    29    56    23    65 0.90 -
JF1A_TRINITY_DN64663_c0_g3_i4.p1JF1A_TRINITY_DN64663_c0_g3   -            140 63167at3193          -            404    0.0038   18.0   0.0   2   2    0.0029       2.7    8.6   0.0   272   323    66   120    61   126 0.78 -
JF2A_TRINITY_DN42388_c0_g2_i7.p1JF2A_TRINITY_DN42388_c0_g2   -           1215 63167at3193          -            404    0.0039   18.0   0.6   1   4       3.3   3.1e+03   -1.4   0.0   264   297   371   403   355   421 0.68 -
JF2A_TRINITY_DN42388_c0_g2_i7.p1JF2A_TRINITY_DN42388_c0_g2   -           1215 63167at3193          -            404    0.0039   18.0   0.6   2   4      0.14   1.4e+02    3.0   0.0   272   315   449   495   432   510 0.79 -
JF2A_TRINITY_DN42388_c0_g2_i7.p1JF2A_TRINITY_DN42388_c0_g2   -           1215 63167at3193          -            404    0.0039   18.0   0.6   3   4    0.0038       3.6    8.2   0.0   272   311   526   566   515   578 0.85 -
JF2A_TRINITY_DN42388_c0_g2_i7.p1JF2A_TRINITY_DN42388_c0_g2   -           1215 63167at3193          -            404    0.0039   18.0   0.6   4   4      0.36   3.4e+02    1.7   0.0   269   296   634   661   622   679 0.83 -
JF1A_TRINITY_DN64225_c0_g3_i4.p1JF1A_TRINITY_DN64225_c0_g3   -            196 63167at3193          -            404     0.004   17.9   0.0   1   4      0.14   1.3e+02    3.1   0.0   271   307    32    68    13    79 0.85 -
JF1A_TRINITY_DN64225_c0_g3_i4.p1JF1A_TRINITY_DN64225_c0_g3   -            196 63167at3193          -            404     0.004   17.9   0.0   2   4      0.44   4.2e+02    1.4   0.0   270   306    64   100    56   124 0.85 -
JF1A_TRINITY_DN64225_c0_g3_i4.p1JF1A_TRINITY_DN64225_c0_g3   -            196 63167at3193          -            404     0.004   17.9   0.0   3   4    0.0016       1.5    9.4   0.0   275   322   102   149    91   158 0.77 -
JF1A_TRINITY_DN64225_c0_g3_i4.p1JF1A_TRINITY_DN64225_c0_g3   -            196 63167at3193          -            404     0.004   17.9   0.0   4   4   0.00086      0.82   10.3   0.0   272   311   132   171   126   176 0.88 -
JF3J_TRINITY_DN45429_c0_g1_i2.p1JF3J_TRINITY_DN45429_c0_g1   -            104 63167at3193          -            404    0.0044   17.8   0.0   1   1   5.3e-06     0.005   17.6   0.0   270   314    24    69     9    89 0.86 -
JF1A_TRINITY_DN63399_c0_g1_i3.p1JF1A_TRINITY_DN63399_c0_g1   -            453 63167at3193          -            404    0.0051   17.6   3.3   1   5      0.46   4.4e+02    1.3   0.0   267   293    50    76    38    90 0.79 -
JF1A_TRINITY_DN63399_c0_g1_i3.p1JF1A_TRINITY_DN63399_c0_g1   -            453 63167at3193          -            404    0.0051   17.6   3.3   2   5       9.2   8.8e+03   -2.9   0.0   271   293   180   202   174   207 0.88 -
JF1A_TRINITY_DN63399_c0_g1_i3.p1JF1A_TRINITY_DN63399_c0_g1   -            453 63167at3193          -            404    0.0051   17.6   3.3   3   5      0.21     2e+02    2.5   0.0   272   304   215   248   201   250 0.72 -
JF1A_TRINITY_DN63399_c0_g1_i3.p1JF1A_TRINITY_DN63399_c0_g1   -            453 63167at3193          -            404    0.0051   17.6   3.3   4   5   0.00031       0.3   11.8   0.1   272   325   249   304   244   314 0.85 -
JF1A_TRINITY_DN63399_c0_g1_i3.p1JF1A_TRINITY_DN63399_c0_g1   -            453 63167at3193          -            404    0.0051   17.6   3.3   5   5       3.9   3.7e+03   -1.7   0.0   353   374   374   396   367   406 0.78 -
JF1A_TRINITY_DN64547_c2_g3_i2.p1JF1A_TRINITY_DN64547_c2_g3   -            211 63167at3193          -            404    0.0058   17.4   0.0   1   2       4.9   4.7e+03   -2.0   0.0   272   307    78   113    73   118 0.87 -
JF1A_TRINITY_DN64547_c2_g3_i2.p1JF1A_TRINITY_DN64547_c2_g3   -            211 63167at3193          -            404    0.0058   17.4   0.0   2   2   1.4e-05     0.014   16.2   0.0   260   316   138   196   128   209 0.80 -
JF1A_TRINITY_DN20839_c0_g1_i1.p1JF1A_TRINITY_DN20839_c0_g1   -            119 63167at3193          -            404    0.0069   17.2   0.0   1   1   1.4e-05     0.014   16.2   0.0   226   313    25   115     5   117 0.77 -
JF1J_TRINITY_DN64331_c3_g3_i1.p1JF1J_TRINITY_DN64331_c3_g3   -            151 63167at3193          -            404    0.0069   17.2   0.3   1   3       2.1     2e+03   -0.8   0.0   272   290     8    25     5    54 0.61 -
JF1J_TRINITY_DN64331_c3_g3_i1.p1JF1J_TRINITY_DN64331_c3_g3   -            151 63167at3193          -            404    0.0069   17.2   0.3   2   3       1.7   1.6e+03   -0.5   0.0   271   291    57    76    52    85 0.70 -
JF1J_TRINITY_DN64331_c3_g3_i1.p1JF1J_TRINITY_DN64331_c3_g3   -            151 63167at3193          -            404    0.0069   17.2   0.3   3   3   7.4e-05      0.07   13.8   0.0   269   311    92   134    85   141 0.91 -
JF1A_TRINITY_DN37745_c0_g1_i1.p1JF1A_TRINITY_DN37745_c0_g1   -            161 63167at3193          -            404    0.0097   16.7   0.0   1   2    0.0032         3    8.5   0.0   261   312     2    54     1    62 0.83 -
JF1A_TRINITY_DN37745_c0_g1_i1.p1JF1A_TRINITY_DN37745_c0_g1   -            161 63167at3193          -            404    0.0097   16.7   0.0   2   2     0.012        12    6.5   0.0   259   312    79   134    71   143 0.74 -
JF1J_TRINITY_DN75556_c0_g1_i1.p1JF1J_TRINITY_DN75556_c0_g1   -            119 63167at3193          -            404    0.0098   16.7   0.1   1   3   0.00017      0.16   12.6   0.0   272   312    25    66    12    75 0.83 -
JF1J_TRINITY_DN75556_c0_g1_i1.p1JF1J_TRINITY_DN75556_c0_g1   -            119 63167at3193          -            404    0.0098   16.7   0.1   2   3      0.16   1.5e+02    2.9   0.1   272   293    59    80    57   104 0.66 -
JF1J_TRINITY_DN75556_c0_g1_i1.p1JF1J_TRINITY_DN75556_c0_g1   -            119 63167at3193          -            404    0.0098   16.7   0.1   3   3      0.31   2.9e+02    1.9   0.0   270   291    95   116    85   119 0.79 -
JF1A_TRINITY_DN56714_c0_g1_i1.p1JF1A_TRINITY_DN56714_c0_g1   -            214 63167at3193          -            404     0.011   16.5   0.0   1   1   1.5e-05     0.014   16.2   0.0   246   313    16    87     6   102 0.80 -
JF1A_TRINITY_DN60481_c4_g9_i2.p1JF1A_TRINITY_DN60481_c4_g9   -            148 63167at3193          -            404     0.012   16.4   0.0   1   2     3e-05     0.029   15.1   0.0   273   311     8    46     4    50 0.93 -
JF1A_TRINITY_DN60481_c4_g9_i2.p1JF1A_TRINITY_DN60481_c4_g9   -            148 63167at3193          -            404     0.012   16.4   0.0   2   2       4.9   4.6e+03   -2.0   0.0   272   307    73   108    66   116 0.70 -
JF3A_TRINITY_DN42888_c0_g1_i2.p1JF3A_TRINITY_DN42888_c0_g1   -            131 63167at3193          -            404     0.015   16.1   0.2   1   2   4.3e-05     0.041   14.6   0.1   272   325     3    58     1    66 0.84 -
JF3A_TRINITY_DN42888_c0_g1_i2.p1JF3A_TRINITY_DN42888_c0_g1   -            131 63167at3193          -            404     0.015   16.1   0.2   2   2       1.8   1.7e+03   -0.6   0.0   299   321   105   127    64   131 0.67 -
JF1A_TRINITY_DN63652_c1_g2_i16.p1JF1A_TRINITY_DN63652_c1_g2  -            625 63167at3193          -            404      0.02   15.6   0.6   1   2      0.73   6.9e+02    0.7   0.0   276   311   408   443   403   452 0.81 -
JF1A_TRINITY_DN63652_c1_g2_i16.p1JF1A_TRINITY_DN63652_c1_g2  -            625 63167at3193          -            404      0.02   15.6   0.6   2   2   0.00034      0.32   11.7   0.0   268   312   546   590   541   598 0.90 -
JF1A_TRINITY_DN62120_c1_g12_i1.p1JF1A_TRINITY_DN62120_c1_g12 -            104 63167at3193          -            404     0.021   15.6   0.0   1   1   2.2e-05     0.021   15.6   0.0   270   316     9    59     3   102 0.82 -
JF1A_TRINITY_DN66450_c0_g3_i5.p1JF1A_TRINITY_DN66450_c0_g3   -            209 63167at3193          -            404     0.028   15.2   0.0   1   1   3.6e-05     0.035   14.9   0.0   270   329   102   161    91   198 0.88 -
JF1A_TRINITY_DN63546_c1_g6_i1.p1JF1A_TRINITY_DN63546_c1_g6   -            206 63167at3193          -            404      0.03   15.0   0.1   1   2     0.033        32    5.1   0.0   270   300    22    50     4    58 0.80 -
JF1A_TRINITY_DN63546_c1_g6_i1.p1JF1A_TRINITY_DN63546_c1_g6   -            206 63167at3193          -            404      0.03   15.0   0.1   2   2    0.0034       3.3    8.3   0.0   272   293    58    79    52    98 0.80 -
JF2A_TRINITY_DN42207_c4_g3_i1.p1JF2A_TRINITY_DN42207_c4_g3   -            288 63167at3193          -            404     0.032   15.0   0.0   1   2      0.11   1.1e+02    3.4   0.0   252   320     8    75     6    92 0.73 -
JF2A_TRINITY_DN42207_c4_g3_i1.p1JF2A_TRINITY_DN42207_c4_g3   -            288 63167at3193          -            404     0.032   15.0   0.0   2   2    0.0013       1.2    9.8   0.0   272   313    93   134    76   138 0.92 -
JF1A_TRINITY_DN67503_c0_g3_i1.p1JF1A_TRINITY_DN67503_c0_g3   -            116 63167at3193          -            404     0.046   14.5   0.0   1   2      0.45   4.2e+02    1.4   0.0   271   306    15    50     6    51 0.82 -
JF1A_TRINITY_DN67503_c0_g3_i1.p1JF1A_TRINITY_DN67503_c0_g3   -            116 63167at3193          -            404     0.046   14.5   0.0   2   2   0.00019      0.18   12.5   0.0   270   308    47    85    39   107 0.87 -
JF1A_TRINITY_DN53651_c0_g1_i1.p1JF1A_TRINITY_DN53651_c0_g1   -            283 63167at3193          -            404     0.046   14.4   0.2   1   3       2.5   2.4e+03   -1.1   0.1   275   309   123   158   119   168 0.62 -
JF1A_TRINITY_DN53651_c0_g1_i1.p1JF1A_TRINITY_DN53651_c0_g1   -            283 63167at3193          -            404     0.046   14.4   0.2   2   3       2.7   2.6e+03   -1.2   0.1   270   293   152   175   144   196 0.70 -
JF1A_TRINITY_DN53651_c0_g1_i1.p1JF1A_TRINITY_DN53651_c0_g1   -            283 63167at3193          -            404     0.046   14.4   0.2   3   3   0.00022      0.21   12.3   0.0   270   329   194   256   182   279 0.70 -
JF1J_TRINITY_DN39285_c0_g1_i2.p1JF1J_TRINITY_DN39285_c0_g1   -            121 63167at3193          -            404     0.053   14.2   0.1   1   1   7.4e-05      0.07   13.8   0.1   272   314     9    54     2    71 0.82 -
JF1A_TRINITY_DN63753_c0_g11_i1.p1JF1A_TRINITY_DN63753_c0_g11 -            144 63167at3193          -            404     0.059   14.1   0.0   1   1   9.4e-05      0.09   13.5   0.0   235   298    40   103    32   126 0.69 -
JF1A_TRINITY_DN65138_c3_g1_i1.p1JF1A_TRINITY_DN65138_c3_g1   -            216 63167at3193          -            404     0.062   14.0   0.0   1   1   0.00011       0.1   13.3   0.0   270   316    44    91    14   102 0.88 -
JF1A_TRINITY_DN31836_c0_g1_i1.p1JF1A_TRINITY_DN31836_c0_g1   -            201 63167at3193          -            404     0.067   13.9   0.0   1   2   0.00021       0.2   12.3   0.0   271   313    19    62    12    64 0.89 -
JF1A_TRINITY_DN31836_c0_g1_i1.p1JF1A_TRINITY_DN31836_c0_g1   -            201 63167at3193          -            404     0.067   13.9   0.0   2   2      0.17   1.6e+02    2.8   0.0   272   312    54    94    53   121 0.84 -
JF1A_TRINITY_DN9901_c0_g1_i1.p1JF1A_TRINITY_DN9901_c0_g1     -            110 63167at3193          -            404     0.077   13.7   0.0   1   1   9.5e-05     0.091   13.5   0.0   271   325    17    71     9    82 0.90 -
JF2J_TRINITY_DN23265_c0_g1_i5.p1JF2J_TRINITY_DN23265_c0_g1   -            144 63167at3193          -            404     0.081   13.6   0.0   1   1   0.00015      0.14   12.9   0.0   258   320    36   101    30   112 0.80 -
JF3A_TRINITY_DN60229_c0_g1_i1.p1JF3A_TRINITY_DN60229_c0_g1   -            133 63167at3193          -            404     0.082   13.6   0.1   1   1    0.0001     0.098   13.4   0.1   271   313    29    72     9    80 0.84 -
JF1A_TRINITY_DN63909_c1_g2_i12.p1JF1A_TRINITY_DN63909_c1_g2  -            368 63167at3193          -            404     0.098   13.4   0.0   1   2    0.0029       2.8    8.6   0.0   272   311    46    85    35   109 0.89 -
JF1A_TRINITY_DN63909_c1_g2_i12.p1JF1A_TRINITY_DN63909_c1_g2  -            368 63167at3193          -            404     0.098   13.4   0.0   2   2      0.28   2.7e+02    2.1   0.0   268   307   218   257   210   262 0.79 -
JF1A_TRINITY_DN51746_c0_g1_i1.p1JF1A_TRINITY_DN51746_c0_g1   -            220 63167at3193          -            404       0.1   13.3   0.1   1   2     0.012        11    6.6   0.0   270   320    97   147    85   150 0.88 -
JF1A_TRINITY_DN51746_c0_g1_i1.p1JF1A_TRINITY_DN51746_c0_g1   -            220 63167at3193          -            404       0.1   13.3   0.1   2   2     0.037        35    5.0   0.0   283   315   152   185   144   190 0.73 -
JF1A_TRINITY_DN65326_c4_g3_i1.p1JF1A_TRINITY_DN65326_c4_g3   -            236 63167at3193          -            404      0.13   12.9   0.1   1   3     0.001      0.98   10.1   0.0   267   311    47    91    18   134 0.83 -
JF1A_TRINITY_DN65326_c4_g3_i1.p1JF1A_TRINITY_DN65326_c4_g3   -            236 63167at3193          -            404      0.13   12.9   0.1   2   3      0.93   8.8e+02    0.3   0.1   272   297   182   207   178   223 0.85 -
JF1A_TRINITY_DN65326_c4_g3_i1.p1JF1A_TRINITY_DN65326_c4_g3   -            236 63167at3193          -            404      0.13   12.9   0.1   3   3       9.5     9e+03   -3.0   0.0   268   282   221   235   216   236 0.78 -
JF2A_TRINITY_DN39302_c0_g2_i1.p1JF2A_TRINITY_DN39302_c0_g2   -            112 63167at3193          -            404      0.17   12.6   0.0   1   1   0.00018      0.17   12.6   0.0   268   315    31    78    10   106 0.86 -
JF3J_TRINITY_DN71267_c1_g1_i6.p1JF3J_TRINITY_DN71267_c1_g1   -            405 63167at3193          -            404      0.18   12.5   0.5   1   3       2.4   2.3e+03   -1.0   0.1    69    87    31    49    27    76 0.85 -
JF3J_TRINITY_DN71267_c1_g1_i6.p1JF3J_TRINITY_DN71267_c1_g1   -            405 63167at3193          -            404      0.18   12.5   0.5   2   3     0.049        47    4.5   0.0   274   314   290   330   283   345 0.89 -
JF3J_TRINITY_DN71267_c1_g1_i6.p1JF3J_TRINITY_DN71267_c1_g1   -            405 63167at3193          -            404      0.18   12.5   0.5   3   3     0.054        51    4.4   0.0   271   310   353   392   345   398 0.88 -
JF1A_TRINITY_DN63131_c1_g2_i7.p1JF1A_TRINITY_DN63131_c1_g2   -            167 63167at3193          -            404      0.27   11.9   0.0   1   1   0.00045      0.43   11.2   0.0   270   310    91   131    82   140 0.92 -
JF2J_TRINITY_DN23265_c0_g1_i2.p1JF2J_TRINITY_DN23265_c0_g1   -            150 63167at3193          -            404      0.29   11.8   0.0   1   1    0.0005      0.48   11.1   0.0   272   320    56   107    52   128 0.83 -
JF1A_TRINITY_DN61586_c1_g4_i2.p1JF1A_TRINITY_DN61586_c1_g4   -            105 63167at3193          -            404      0.31   11.7   0.0   1   1   0.00039      0.37   11.5   0.0   266   312    41    87    30    93 0.91 -
JF1A_TRINITY_DN65190_c0_g2_i2.p1JF1A_TRINITY_DN65190_c0_g2   -            116 63167at3193          -            404      0.44   11.2   0.0   1   1   0.00099      0.94   10.1   0.0   272   313    15    57     9    67 0.77 -
JF3A_TRINITY_DN57716_c0_g3_i6.p1JF3A_TRINITY_DN57716_c0_g3   -            123 63167at3193          -            404      0.49   11.1   0.0   1   1   0.00056      0.53   11.0   0.0   270   316    63   109    32   118 0.88 -
JF1A_TRINITY_DN65490_c0_g1_i1.p1JF1A_TRINITY_DN65490_c0_g1   -            183 63167at3193          -            404      0.54   10.9   0.0   1   2     0.021        20    5.7   0.0   269   302    60    93    33    99 0.90 -
JF1A_TRINITY_DN65490_c0_g1_i1.p1JF1A_TRINITY_DN65490_c0_g1   -            183 63167at3193          -            404      0.54   10.9   0.0   2   2     0.091        87    3.7   0.0   274   310    99   135    94   146 0.89 -
JF1A_TRINITY_DN66756_c1_g2_i2.p1JF1A_TRINITY_DN66756_c1_g2   -            363 63167at3193          -            404      0.58   10.8   0.0   1   2       2.6   2.4e+03   -1.1   0.0   284   311    69    96    58   136 0.60 -
JF1A_TRINITY_DN66756_c1_g2_i2.p1JF1A_TRINITY_DN66756_c1_g2   -            363 63167at3193          -            404      0.58   10.8   0.0   2   2    0.0023       2.2    8.9   0.0   272   316   190   236   184   258 0.78 -
JF3J_TRINITY_DN74135_c1_g7_i2.p1JF3J_TRINITY_DN74135_c1_g7   -            148 63167at3193          -            404      0.66   10.6   0.0   1   1   0.00081      0.77   10.4   0.0   275   320   101   146    83   147 0.89 -
JF3J_TRINITY_DN74135_c1_g7_i3.p1JF3J_TRINITY_DN74135_c1_g7   -            148 63167at3193          -            404      0.67   10.6   0.0   1   1   0.00081      0.77   10.4   0.0   275   320   101   146    83   147 0.89 -
JF1A_TRINITY_DN40297_c0_g1_i1.p1JF1A_TRINITY_DN40297_c0_g1   -            167 63167at3193          -            404      0.68   10.6   0.0   1   2    0.0024       2.3    8.9   0.0   275   311    79   115    69   134 0.89 -
JF1A_TRINITY_DN40297_c0_g1_i1.p1JF1A_TRINITY_DN40297_c0_g1   -            167 63167at3193          -            404      0.68   10.6   0.0   2   2       2.1     2e+03   -0.8   0.0   269   292   139   162   130   166 0.77 -
#
# Program:         hmmsearch
# Version:         3.2.1 (June 2018)
# Pipeline mode:   SEARCH
# Query file:      /isg/shared/databases/BUSCO/odb10/embryophyta_odb10/hmms/63167at3193.hmm
# Target file:     Juniper_final_annotations_no_contam_lvl0.faa
# Option settings: /usr/local/bin/hmmsearch --domtblout /labs/Wegrzyn/Juniper_Pine/BUSCO/NEW/busco_juniper/run_embryophyta_odb10/hmmer_output/63167at3193.out --cpu 1 /isg/shared/databases/BUSCO/odb10/embryophyta_odb10/hmms/63167at3193.hmm Juniper_final_annotations_no_contam_lvl0.faa 
# Current dir:     /labs/Wegrzyn/Juniper_Pine/BUSCO/NEW
# Date:            Thu Aug  6 16:33:27 2020
# [ok]
