#                                                                                                                   --- full sequence --- -------------- this domain -------------   hmm coord   ali coord   env coord
# target name                                               accession   tlen query name           accession   qlen   E-value  score  bias   #  of  c-Evalue  i-Evalue  score  bias  from    to  from    to  from    to  acc description of target
#                                       ------------------- ---------- ----- -------------------- ---------- ----- --------- ------ ----- --- --- --------- --------- ------ ----- ----- ----- ----- ----- ----- ----- ---- ---------------------
JF1A_TRINITY_DN63735_c0_g1_i1.p1JF1A_TRINITY_DN63735_c0_g1  -            322 64471at3193          -            452   1.7e-82  279.3   0.0   1   1   1.4e-85   2.3e-82  278.9   0.0    39   277    33   293    20   297 0.88 -
JF1A_TRINITY_DN63735_c0_g7_i2.p1JF1A_TRINITY_DN63735_c0_g7  -            151 64471at3193          -            452   2.8e-36  127.0   1.9   1   1   3.8e-38   6.2e-35  122.6   1.9   321   439     1   136     1   146 0.78 -
JF1J_TRINITY_DN58598_c0_g1_i1.p1JF1J_TRINITY_DN58598_c0_g1  -            206 64471at3193          -            452   6.6e-33  115.9   2.9   1   2      0.22   3.5e+02    1.4   0.1     1    31     2    32     2    59 0.57 -
JF1J_TRINITY_DN58598_c0_g1_i1.p1JF1J_TRINITY_DN58598_c0_g1  -            206 64471at3193          -            452   6.6e-33  115.9   2.9   2   2   8.5e-36   1.4e-32  114.9   0.4    36   133    94   199    75   202 0.85 -
JF2A_TRINITY_DN26791_c0_g1_i1.p1JF2A_TRINITY_DN26791_c0_g1  -            109 64471at3193          -            452   4.5e-24   86.8   0.0   1   1   3.5e-27   5.6e-24   86.5   0.0   314   371     2    59     1    69 0.95 -
JF1A_TRINITY_DN61413_c0_g9_i1.p1JF1A_TRINITY_DN61413_c0_g9  -            230 64471at3193          -            452   3.4e-06   27.8   0.0   1   1   3.1e-09     5e-06   27.3   0.0   203   308    54   168     7   187 0.68 -
JF1A_TRINITY_DN58945_c0_g2_i1.p1JF1A_TRINITY_DN58945_c0_g2  -            207 64471at3193          -            452   1.8e-05   25.5   1.0   1   2   3.1e-05      0.05   14.1   0.4    30    78    74   120    44   135 0.72 -
JF1A_TRINITY_DN58945_c0_g2_i1.p1JF1A_TRINITY_DN58945_c0_g2  -            207 64471at3193          -            452   1.8e-05   25.5   1.0   2   2   0.00049      0.79   10.2   0.0    81   114   148   181   143   185 0.90 -
JF1A_TRINITY_DN67100_c1_g7_i1.p1JF1A_TRINITY_DN67100_c1_g7  -            101 64471at3193          -            452   2.2e-05   25.2   0.0   1   1   1.7e-08   2.8e-05   24.8   0.0    50   105     6    61     2    70 0.94 -
JF1A_TRINITY_DN65923_c3_g1_i2.p1JF1A_TRINITY_DN65923_c3_g1  -            305 64471at3193          -            452     6e-05   23.8   0.0   1   2   8.2e-05      0.13   12.7   0.0    77   115    10    48     3    53 0.91 -
JF1A_TRINITY_DN65923_c3_g1_i2.p1JF1A_TRINITY_DN65923_c3_g1  -            305 64471at3193          -            452     6e-05   23.8   0.0   2   2    0.0012         2    8.9   0.0   236   278   211   253   204   267 0.83 -
JF1A_TRINITY_DN67683_c2_g4_i1.p1JF1A_TRINITY_DN67683_c2_g4  -            221 64471at3193          -            452   0.00015   22.5   0.0   1   2     0.023        37    4.7   0.0    87   114     2    29     1    34 0.92 -
JF1A_TRINITY_DN67683_c2_g4_i1.p1JF1A_TRINITY_DN67683_c2_g4  -            221 64471at3193          -            452   0.00015   22.5   0.0   2   2   1.3e-05      0.02   15.4   0.0   214   278   136   199   130   209 0.85 -
JF1A_TRINITY_DN44789_c0_g1_i2.p1JF1A_TRINITY_DN44789_c0_g1  -            169 64471at3193          -            452   0.00075   20.1   0.0   1   1   6.3e-07     0.001   19.7   0.0   224   277     1    54     1    62 0.92 -
JF3A_TRINITY_DN45821_c0_g1_i3.p1JF3A_TRINITY_DN45821_c0_g1  -            166 64471at3193          -            452    0.0011   19.6   0.0   1   1   6.6e-07    0.0011   19.6   0.0    52   113     7    69     2   144 0.90 -
JF1A_TRINITY_DN68010_c0_g3_i5.p1JF1A_TRINITY_DN68010_c0_g3  -            735 64471at3193          -            452    0.0015   19.1   0.3   1   3      0.55     9e+02    0.1   0.0    42    81    18    57     5    86 0.79 -
JF1A_TRINITY_DN68010_c0_g3_i5.p1JF1A_TRINITY_DN68010_c0_g3  -            735 64471at3193          -            452    0.0015   19.1   0.3   2   3   4.4e-05     0.071   13.6   0.0    81   109   250   278   234   284 0.85 -
JF1A_TRINITY_DN68010_c0_g3_i5.p1JF1A_TRINITY_DN68010_c0_g3  -            735 64471at3193          -            452    0.0015   19.1   0.3   3   3      0.34   5.4e+02    0.8   0.0    77   109   502   534   495   552 0.87 -
JF3J_TRINITY_DN73682_c1_g1_i10.p1JF3J_TRINITY_DN73682_c1_g1 -            675 64471at3193          -            452    0.0019   18.8   0.0   1   1     2e-06    0.0032   18.1   0.0   222   276   620   674   601   675 0.89 -
JF1A_TRINITY_DN67805_c3_g1_i12.p1JF1A_TRINITY_DN67805_c3_g1 -            728 64471at3193          -            452    0.0066   17.0   0.1   1   2   8.8e-05      0.14   12.6   0.1    82   109   244   271   232   279 0.90 -
JF1A_TRINITY_DN67805_c3_g1_i12.p1JF1A_TRINITY_DN67805_c3_g1 -            728 64471at3193          -            452    0.0066   17.0   0.1   2   2      0.17   2.7e+02    1.8   0.0    77   109   495   527   488   553 0.83 -
JF1A_TRINITY_DN68079_c0_g3_i9.p1JF1A_TRINITY_DN68079_c0_g3  -            187 64471at3193          -            452    0.0079   16.8   0.0   1   1   5.7e-06    0.0092   16.5   0.0    51   107    94   151    62   162 0.90 -
JF2A_TRINITY_DN41081_c0_g2_i2.p1JF2A_TRINITY_DN41081_c0_g2  -            316 64471at3193          -            452     0.011   16.2   0.1   1   1   9.7e-06     0.016   15.8   0.1    59   155    14   114     4   137 0.81 -
JF1A_TRINITY_DN37824_c0_g2_i1.p1JF1A_TRINITY_DN37824_c0_g2  -            137 64471at3193          -            452     0.012   16.2   0.1   1   1   8.2e-06     0.013   16.0   0.1    35    77    63   105    32   112 0.82 -
JF1A_TRINITY_DN66999_c1_g6_i1.p1JF1A_TRINITY_DN66999_c1_g6  -            174 64471at3193          -            452     0.026   15.0   0.0   1   1   2.1e-05     0.034   14.7   0.0    68   174     8   115     5   139 0.76 -
JF1J_TRINITY_DN72527_c1_g1_i2.p1JF1J_TRINITY_DN72527_c1_g1  -            203 64471at3193          -            452     0.029   14.9   0.1   1   1   2.3e-05     0.037   14.5   0.1    67   156    14   103     5   129 0.84 -
JF1A_TRINITY_DN65595_c1_g2_i2.p1JF1A_TRINITY_DN65595_c1_g2  -            158 64471at3193          -            452     0.035   14.6   0.0   1   2   3.6e-05     0.058   13.9   0.0    81   109    18    46    12    67 0.84 -
JF1A_TRINITY_DN65595_c1_g2_i2.p1JF1A_TRINITY_DN65595_c1_g2  -            158 64471at3193          -            452     0.035   14.6   0.0   2   2       5.1   8.3e+03   -3.1   0.0   159   180   104   125    80   150 0.51 -
JF1A_TRINITY_DN67805_c3_g1_i8.p1JF1A_TRINITY_DN67805_c3_g1  -            507 64471at3193          -            452      0.05   14.1   0.1   1   1   5.5e-05     0.089   13.3   0.1    82   109   244   271   231   280 0.90 -
JF1A_TRINITY_DN68312_c1_g1_i2.p1JF1A_TRINITY_DN68312_c1_g1  -            572 64471at3193          -            452     0.084   13.4   0.0   1   1   8.5e-05      0.14   12.7   0.0    66   170   156   261   153   272 0.70 -
JF1J_TRINITY_DN3504_c0_g1_i1.p1JF1J_TRINITY_DN3504_c0_g1    -            110 64471at3193          -            452      0.11   13.0   0.1   1   1   7.8e-05      0.13   12.8   0.1   236   275     4    43     1    57 0.86 -
JF3J_TRINITY_DN73178_c5_g1_i2.p1JF3J_TRINITY_DN73178_c5_g1  -            173 64471at3193          -            452      0.13   12.7   0.2   1   2      0.12     2e+02    2.3   0.0   160   189     6    35     3    63 0.88 -
JF3J_TRINITY_DN73178_c5_g1_i2.p1JF3J_TRINITY_DN73178_c5_g1  -            173 64471at3193          -            452      0.13   12.7   0.2   2   2    0.0015       2.3    8.6   0.0    81   110   128   157   110   161 0.82 -
JF1J_TRINITY_DN71198_c0_g3_i2.p1JF1J_TRINITY_DN71198_c0_g3  -            137 64471at3193          -            452      0.17   12.4   0.1   1   1   0.00013      0.22   12.0   0.1    81   106    45    70    40    86 0.85 -
JF1A_TRINITY_DN63917_c1_g1_i1.p1JF1A_TRINITY_DN63917_c1_g1  -            194 64471at3193          -            452      0.19   12.2   0.1   1   2   0.00023      0.38   11.2   0.1    81   106    46    71    41    89 0.85 -
JF1A_TRINITY_DN63917_c1_g1_i1.p1JF1A_TRINITY_DN63917_c1_g1  -            194 64471at3193          -            452      0.19   12.2   0.1   2   2       3.6   5.8e+03   -2.6   0.0   172   227   111   168    96   172 0.62 -
JF1A_TRINITY_DN67100_c1_g4_i1.p1JF1A_TRINITY_DN67100_c1_g4  -            135 64471at3193          -            452      0.21   12.1   0.1   1   1   0.00013      0.21   12.1   0.1   222   272    61   111     7   123 0.89 -
JF1J_TRINITY_DN66354_c1_g3_i2.p1JF1J_TRINITY_DN66354_c1_g3  -            304 64471at3193          -            452       0.3   11.5   0.0   1   1   0.00027      0.43   11.0   0.0    82   125    89   130    85   171 0.85 -
JF1J_TRINITY_DN66690_c0_g2_i1.p1JF1J_TRINITY_DN66690_c0_g2  -            226 64471at3193          -            452       0.3   11.5   0.0   1   1   0.00027      0.43   11.0   0.0    72   105   149   182   120   200 0.79 -
JF3A_TRINITY_DN42564_c0_g1_i2.p1JF3A_TRINITY_DN42564_c0_g1  -            183 64471at3193          -            452      0.31   11.5   0.0   1   1   0.00023      0.38   11.2   0.0    67   106    43    82    15   100 0.87 -
JF1A_TRINITY_DN67685_c0_g1_i3.p1JF1A_TRINITY_DN67685_c0_g1  -            257 64471at3193          -            452      0.33   11.4   0.0   1   1   0.00025      0.41   11.1   0.0    74   143    17    86     1   117 0.77 -
JF1A_TRINITY_DN66230_c6_g1_i4.p1JF1A_TRINITY_DN66230_c6_g1  -            224 64471at3193          -            452      0.38   11.2   0.0   1   1   0.00034      0.54   10.7   0.0    51   103   117   171   107   177 0.86 -
JF1A_TRINITY_DN68312_c1_g1_i9.p1JF1A_TRINITY_DN68312_c1_g1  -            186 64471at3193          -            452      0.38   11.2   0.0   1   1   0.00035      0.56   10.7   0.0    66    95   156   185   132   186 0.90 -
JF2A_TRINITY_DN2287_c0_g1_i1.p1JF2A_TRINITY_DN2287_c0_g1    -            165 64471at3193          -            452      0.39   11.2   0.0   1   1   0.00024      0.39   11.2   0.0    73   105     5    37     2   113 0.90 -
JF3A_TRINITY_DN54630_c2_g2_i1.p1JF3A_TRINITY_DN54630_c2_g2  -            162 64471at3193          -            452      0.39   11.2   0.0   1   1   0.00024      0.39   11.2   0.0    73   105     6    38     3   106 0.90 -
JF1A_TRINITY_DN66937_c5_g1_i1.p1JF1A_TRINITY_DN66937_c5_g1  -            237 64471at3193          -            452      0.46   10.9   0.0   1   1   0.00034      0.56   10.7   0.0    80   120    25    64    23   162 0.87 -
JF3J_TRINITY_DN74117_c4_g2_i1.p1JF3J_TRINITY_DN74117_c4_g2  -            119 64471at3193          -            452      0.58   10.6   0.0   1   1   0.00038      0.61   10.5   0.0   201   259    42   103     8   114 0.74 -
JF1A_TRINITY_DN64470_c5_g2_i2.p1JF1A_TRINITY_DN64470_c5_g2  -            304 64471at3193          -            452      0.72   10.3   0.0   1   2     0.035        56    4.1   0.0    84   111   175   202   171   209 0.89 -
JF1A_TRINITY_DN64470_c5_g2_i2.p1JF1A_TRINITY_DN64470_c5_g2  -            304 64471at3193          -            452      0.72   10.3   0.0   2   2     0.038        61    3.9   0.0    84   110   271   297   267   303 0.89 -
JF3A_TRINITY_DN51121_c2_g2_i1.p1JF3A_TRINITY_DN51121_c2_g2  -            167 64471at3193          -            452      0.74   10.3   0.0   1   1    0.0006      0.97    9.9   0.0    51   105    86   142    80   159 0.86 -
JF1J_TRINITY_DN68234_c1_g1_i2.p1JF1J_TRINITY_DN68234_c1_g1  -            112 64471at3193          -            452      0.79   10.2   0.0   1   1   0.00062         1    9.8   0.0    69   105    51    87    43    91 0.86 -
JF1A_TRINITY_DN67320_c0_g8_i1.p1JF1A_TRINITY_DN67320_c0_g8  -            140 64471at3193          -            452      0.86   10.0   0.0   1   1   0.00071       1.1    9.6   0.0    82   106     9    33     5    42 0.89 -
JF1A_TRINITY_DN54549_c0_g1_i2.p1JF1A_TRINITY_DN54549_c0_g1  -            282 64471at3193          -            452      0.87   10.0   0.0   1   1   0.00077       1.2    9.5   0.0    80   101   261   282   252   282 0.89 -
JF3A_TRINITY_DN54735_c0_g2_i8.p1JF3A_TRINITY_DN54735_c0_g2  -            106 64471at3193          -            452       1.2    9.6   0.0   1   1   0.00083       1.3    9.4   0.0    83   106    45    68    36    80 0.88 -
#
# Program:         hmmsearch
# Version:         3.2.1 (June 2018)
# Pipeline mode:   SEARCH
# Query file:      /isg/shared/databases/BUSCO/odb10/embryophyta_odb10/hmms/64471at3193.hmm
# Target file:     Juniper_final_annotations_no_contam_lvl0.faa
# Option settings: /usr/local/bin/hmmsearch --domtblout /labs/Wegrzyn/Juniper_Pine/BUSCO/NEW/busco_juniper/run_embryophyta_odb10/hmmer_output/64471at3193.out --cpu 1 /isg/shared/databases/BUSCO/odb10/embryophyta_odb10/hmms/64471at3193.hmm Juniper_final_annotations_no_contam_lvl0.faa 
# Current dir:     /labs/Wegrzyn/Juniper_Pine/BUSCO/NEW
# Date:            Thu Aug  6 16:34:04 2020
# [ok]
