#                                                                                                                   --- full sequence --- -------------- this domain -------------   hmm coord   ali coord   env coord
# target name                                               accession   tlen query name           accession   qlen   E-value  score  bias   #  of  c-Evalue  i-Evalue  score  bias  from    to  from    to  from    to  acc description of target
#                                       ------------------- ---------- ----- -------------------- ---------- ----- --------- ------ ----- --- --- --------- --------- ------ ----- ----- ----- ----- ----- ----- ----- ---- ---------------------
JF1A_TRINITY_DN66357_c2_g3_i2.p1JF1A_TRINITY_DN66357_c2_g3  -            360 65741at3193          -            404  2.6e-126  423.7   0.1   1   1  8.8e-130  3.6e-126  423.2   0.1    16   239   135   360   131   360 0.98 -
JF1J_TRINITY_DN68533_c4_g1_i5.p1JF1J_TRINITY_DN68533_c4_g1  -            289 65741at3193          -            404   3.1e-80  271.9   0.1   1   1   1.1e-83   4.7e-80  271.3   0.1    16   159   135   280   130   285 0.96 -
JF1A_TRINITY_DN66357_c2_g5_i1.p1JF1A_TRINITY_DN66357_c2_g5  -            189 65741at3193          -            404   2.7e-43  150.3   0.5   1   2     7e-19   2.9e-15   58.0   0.1   245   285     3    43     1    46 0.95 -
JF1A_TRINITY_DN66357_c2_g5_i1.p1JF1A_TRINITY_DN66357_c2_g5  -            189 65741at3193          -            404   2.7e-43  150.3   0.5   2   2     2e-28   8.3e-25   89.4   0.0   281   365    70   171    58   179 0.83 -
JF1A_TRINITY_DN67547_c1_g2_i4.p1JF1A_TRINITY_DN67547_c1_g2  -            213 65741at3193          -            404   1.5e-06   29.3   0.2   1   1   8.5e-10   3.5e-06   28.0   0.2   271   362    18   126    11   156 0.74 -
JF3A_TRINITY_DN48706_c1_g1_i4.p1JF3A_TRINITY_DN48706_c1_g1  -            188 65741at3193          -            404   0.00025   21.9   0.0   1   2   0.00029       1.2    9.8   0.0    57    92    29    65    24    69 0.85 -
JF3A_TRINITY_DN48706_c1_g1_i4.p1JF3A_TRINITY_DN48706_c1_g1  -            188 65741at3193          -            404   0.00025   21.9   0.0   2   2   0.00024      0.99   10.1   0.0    57    92   118   154   115   170 0.86 -
JF3J_TRINITY_DN43724_c0_g1_i2.p1JF3J_TRINITY_DN43724_c0_g1  -            129 65741at3193          -            404    0.0014   19.5   0.0   1   2   8.9e-07    0.0036   18.1   0.0   282   359     3    83     1    94 0.80 -
JF3J_TRINITY_DN43724_c0_g1_i2.p1JF3J_TRINITY_DN43724_c0_g1  -            129 65741at3193          -            404    0.0014   19.5   0.0   2   2      0.43   1.8e+03   -0.6   0.0   102   118    88   106    84   110 0.75 -
JF1A_TRINITY_DN46051_c0_g1_i1.p1JF1A_TRINITY_DN46051_c0_g1  -            130 65741at3193          -            404    0.0014   19.4   0.3   1   1   5.2e-07    0.0021   18.9   0.3    37   136    18   122     4   127 0.71 -
JF1A_TRINITY_DN51336_c0_g1_i1.p1JF1A_TRINITY_DN51336_c0_g1  -            167 65741at3193          -            404    0.0015   19.4   0.0   1   1   7.9e-07    0.0032   18.3   0.0   281   362     9   107     3   130 0.68 -
JF3A_TRINITY_DN48706_c1_g1_i2.p1JF3A_TRINITY_DN48706_c1_g1  -            413 65741at3193          -            404    0.0021   18.9   0.0   1   2   0.00081       3.3    8.3   0.0    57    92    29    65    25    77 0.86 -
JF3A_TRINITY_DN48706_c1_g1_i2.p1JF3A_TRINITY_DN48706_c1_g1  -            413 65741at3193          -            404    0.0021   18.9   0.0   2   2   0.00092       3.8    8.2   0.0    57    92   106   142   103   147 0.85 -
JF1A_TRINITY_DN49949_c0_g1_i1.p1JF1A_TRINITY_DN49949_c0_g1  -            129 65741at3193          -            404     0.053   14.3   0.1   1   1     2e-05      0.08   13.7   0.1    46   118    52   121    35   125 0.71 -
JF1A_TRINITY_DN61794_c1_g1_i18.p1JF1A_TRINITY_DN61794_c1_g1 -            390 65741at3193          -            404      0.23   12.2   0.0   1   1   9.3e-05      0.38   11.4   0.0   156   209    66   119    58   132 0.90 -
JF1A_TRINITY_DN62607_c2_g2_i5.p1JF1A_TRINITY_DN62607_c2_g2  -            303 65741at3193          -            404      0.26   12.0   0.0   1   1   9.1e-05      0.37   11.5   0.0   122   215    62   155    17   168 0.64 -
JF1J_TRINITY_DN72246_c0_g1_i2.p1JF1J_TRINITY_DN72246_c0_g1  -            240 65741at3193          -            404      0.26   12.0   0.1   1   2      0.99   4.1e+03   -1.8   0.0   187   206    52    71    46    84 0.87 -
JF1J_TRINITY_DN72246_c0_g1_i2.p1JF1J_TRINITY_DN72246_c0_g1  -            240 65741at3193          -            404      0.26   12.0   0.1   2   2   0.00014      0.59   10.8   0.1    88   168   141   221    97   238 0.75 -
JF3J_TRINITY_DN65269_c0_g3_i6.p1JF3J_TRINITY_DN65269_c0_g3  -            148 65741at3193          -            404      0.33   11.6   0.0   1   1   9.8e-05       0.4   11.4   0.0   315   372    29    87    12    99 0.85 -
JF1A_TRINITY_DN64998_c2_g1_i2.p1JF1A_TRINITY_DN64998_c2_g1  -            290 65741at3193          -            404      0.43   11.3   0.1   1   2       1.4   5.8e+03   -2.3   0.0   187   206    56    75    53    86 0.88 -
JF1A_TRINITY_DN64998_c2_g1_i2.p1JF1A_TRINITY_DN64998_c2_g1  -            290 65741at3193          -            404      0.43   11.3   0.1   2   2   0.00026       1.1   10.0   0.0    88   160   192   264   170   288 0.72 -
JF1A_TRINITY_DN65595_c1_g2_i2.p1JF1A_TRINITY_DN65595_c1_g2  -            158 65741at3193          -            404      0.43   11.3   0.0   1   1   0.00013      0.52   11.0   0.0   187   238    20    72     4    91 0.85 -
JF1A_TRINITY_DN60512_c1_g2_i1.p1JF1A_TRINITY_DN60512_c1_g2  -            141 65741at3193          -            404      0.44   11.2   0.0   1   1   0.00013      0.52   11.0   0.0   192   223    39    70    31   109 0.71 -
#
# Program:         hmmsearch
# Version:         3.2.1 (June 2018)
# Pipeline mode:   SEARCH
# Query file:      /isg/shared/databases/BUSCO/odb10/embryophyta_odb10/hmms/65741at3193.hmm
# Target file:     Juniper_final_annotations_no_contam_lvl0.faa
# Option settings: /usr/local/bin/hmmsearch --domtblout /labs/Wegrzyn/Juniper_Pine/BUSCO/NEW/busco_juniper/run_embryophyta_odb10/hmmer_output/65741at3193.out --cpu 1 /isg/shared/databases/BUSCO/odb10/embryophyta_odb10/hmms/65741at3193.hmm Juniper_final_annotations_no_contam_lvl0.faa 
# Current dir:     /labs/Wegrzyn/Juniper_Pine/BUSCO/NEW
# Date:            Thu Aug  6 16:34:18 2020
# [ok]
