#                                                                                                                  --- full sequence --- -------------- this domain -------------   hmm coord   ali coord   env coord
# target name                                              accession   tlen query name           accession   qlen   E-value  score  bias   #  of  c-Evalue  i-Evalue  score  bias  from    to  from    to  from    to  acc description of target
#                                      ------------------- ---------- ----- -------------------- ---------- ----- --------- ------ ----- --- --- --------- --------- ------ ----- ----- ----- ----- ----- ----- ----- ---- ---------------------
JF1A_TRINITY_DN67057_c0_g2_i3.p1JF1A_TRINITY_DN67057_c0_g2 -            150 69936at3193          -            348   5.6e-26   93.4   0.0   1   1   9.9e-30   6.9e-26   93.1   0.0   235   346     8   113     2   115 0.94 -
JF1A_TRINITY_DN57817_c0_g1_i3.p1JF1A_TRINITY_DN57817_c0_g1 -            112 69936at3193          -            348   4.7e-19   70.6   2.6   1   2   1.3e-13   9.1e-10   40.0   1.6   139   170     1    32     1    40 0.90 -
JF1A_TRINITY_DN57817_c0_g1_i3.p1JF1A_TRINITY_DN57817_c0_g1 -            112 69936at3193          -            348   4.7e-19   70.6   2.6   2   2   1.4e-10   9.6e-07   30.1   0.0   169   206    71   108    47   112 0.83 -
JF3A_TRINITY_DN42404_c0_g1_i1.p1JF3A_TRINITY_DN42404_c0_g1 -            143 69936at3193          -            348     2e-05   25.7   0.0   1   1   3.4e-09   2.3e-05   25.5   0.0   238   335    18   117     5   129 0.87 -
JF1A_TRINITY_DN62292_c0_g3_i2.p1JF1A_TRINITY_DN62292_c0_g3 -            328 69936at3193          -            348    0.0085   17.1   0.0   1   1   1.7e-06     0.012   16.6   0.0   246   329   207   290   183   306 0.88 -
JF1A_TRINITY_DN61095_c1_g2_i3.p1JF1A_TRINITY_DN61095_c1_g2 -            105 69936at3193          -            348     0.016   16.2   0.0   1   1   2.4e-06     0.017   16.1   0.0   247   312    24    89     6    99 0.90 -
JF1A_TRINITY_DN62526_c0_g9_i1.p1JF1A_TRINITY_DN62526_c0_g9 -            445 69936at3193          -            348     0.016   16.2   0.0   1   1   3.6e-06     0.025   15.6   0.0   230   321   328   422   312   432 0.74 -
JF3J_TRINITY_DN70240_c0_g2_i4.p1JF3J_TRINITY_DN70240_c0_g2 -            147 69936at3193          -            348     0.019   16.0   0.0   1   1   3.2e-06     0.022   15.7   0.0   243   328    42   127    22   136 0.92 -
JF1A_TRINITY_DN64888_c1_g2_i5.p1JF1A_TRINITY_DN64888_c1_g2 -            241 69936at3193          -            348      0.02   15.9   0.0   1   1   4.7e-06     0.033   15.2   0.0   244   330   108   194    90   210 0.89 -
JF2J_TRINITY_DN24593_c0_g2_i1.p1JF2J_TRINITY_DN24593_c0_g2 -            251 69936at3193          -            348     0.032   15.2   0.2   1   2       1.3   9.1e+03   -2.7   0.1   299   323    54    78    33    98 0.56 -
JF2J_TRINITY_DN24593_c0_g2_i1.p1JF2J_TRINITY_DN24593_c0_g2 -            251 69936at3193          -            348     0.032   15.2   0.2   2   2   8.7e-06      0.06   14.3   0.0   246   330   124   208   112   224 0.90 -
JF1A_TRINITY_DN60993_c2_g3_i2.p1JF1A_TRINITY_DN60993_c2_g3 -            174 69936at3193          -            348      0.33   11.9   0.0   1   1   5.2e-05      0.36   11.8   0.0   243   283    57    97    41   157 0.70 -
#
# Program:         hmmsearch
# Version:         3.2.1 (June 2018)
# Pipeline mode:   SEARCH
# Query file:      /isg/shared/databases/BUSCO/odb10/embryophyta_odb10/hmms/69936at3193.hmm
# Target file:     Juniper_final_annotations_no_contam_lvl0.faa
# Option settings: /usr/local/bin/hmmsearch --domtblout /labs/Wegrzyn/Juniper_Pine/BUSCO/NEW/busco_juniper/run_embryophyta_odb10/hmmer_output/69936at3193.out --cpu 1 /isg/shared/databases/BUSCO/odb10/embryophyta_odb10/hmms/69936at3193.hmm Juniper_final_annotations_no_contam_lvl0.faa 
# Current dir:     /labs/Wegrzyn/Juniper_Pine/BUSCO/NEW
# Date:            Thu Aug  6 16:35:09 2020
# [ok]
