#                                                                                                                    --- full sequence --- -------------- this domain -------------   hmm coord   ali coord   env coord
# target name                                                accession   tlen query name           accession   qlen   E-value  score  bias   #  of  c-Evalue  i-Evalue  score  bias  from    to  from    to  from    to  acc description of target
#                                        ------------------- ---------- ----- -------------------- ---------- ----- --------- ------ ----- --- --- --------- --------- ------ ----- ----- ----- ----- ----- ----- ----- ---- ---------------------
JF2A_TRINITY_DN39517_c0_g1_i1.p1JF2A_TRINITY_DN39517_c0_g1   -            408 70143at3193          -            439  2.4e-208  694.0   0.0   1   1    8e-211  3.1e-208  693.6   0.0     6   364    31   405    27   407 0.96 -
JF1A_TRINITY_DN64664_c1_g1_i19.p1JF1A_TRINITY_DN64664_c1_g1  -            341 70143at3193          -            439  4.4e-171  571.2   0.0   1   1  1.4e-173  5.4e-171  570.9   0.0     6   314    14   338    11   340 0.96 -
JF3J_TRINITY_DN65778_c1_g3_i1.p1JF3J_TRINITY_DN65778_c1_g3   -            269 70143at3193          -            439  5.3e-105  353.4   1.0   1   2   1.1e-94   4.4e-92  310.8   0.4   171   394     7   232     3   237 0.96 -
JF3J_TRINITY_DN65778_c1_g3_i1.p1JF3J_TRINITY_DN65778_c1_g3   -            269 70143at3193          -            439  5.3e-105  353.4   1.0   2   2   4.2e-13   1.6e-10   42.0   0.0   321   356   234   269   230   269 0.94 -
JF3J_TRINITY_DN65778_c1_g3_i2.p1JF3J_TRINITY_DN65778_c1_g3   -            256 70143at3193          -            439   1.7e-99  335.2   0.1   1   1  5.7e-102   2.2e-99  334.9   0.1   171   409     7   247     3   250 0.96 -
JF1A_TRINITY_DN62249_c1_g1_i10.p1JF1A_TRINITY_DN62249_c1_g1  -            288 70143at3193          -            439   8.2e-89  300.1   0.0   1   1   2.5e-91   9.7e-89  299.8   0.0    86   345    13   284     4   288 0.93 -
JF1A_TRINITY_DN64932_c1_g1_i1.p1JF1A_TRINITY_DN64932_c1_g1   -            202 70143at3193          -            439     3e-84  285.0   0.1   1   1   8.9e-87   3.4e-84  284.8   0.1    74   260    10   202     2   202 0.95 -
JF1A_TRINITY_DN63544_c4_g6_i2.p1JF1A_TRINITY_DN63544_c4_g6   -            490 70143at3193          -            439   3.8e-76  258.3   0.1   1   1   1.4e-78   5.2e-76  257.9   0.1    75   410   121   465   105   472 0.89 -
JF1A_TRINITY_DN64745_c0_g1_i5.p1JF1A_TRINITY_DN64745_c0_g1   -            420 70143at3193          -            439   1.3e-74  253.3   0.0   1   1   4.1e-77   1.6e-74  253.0   0.0    77   406     5   338     1   350 0.92 -
JF1A_TRINITY_DN68479_c1_g1_i13.p1JF1A_TRINITY_DN68479_c1_g1  -            767 70143at3193          -            439   1.7e-74  252.9   0.0   1   1   6.6e-77   2.5e-74  252.3   0.0    75   411   141   490   130   495 0.90 -
JF1A_TRINITY_DN66521_c2_g2_i2.p1JF1A_TRINITY_DN66521_c2_g2   -            702 70143at3193          -            439     2e-74  252.6   0.0   1   1   7.5e-77   2.9e-74  252.1   0.0    58   403   106   467    70   481 0.85 -
JF3A_TRINITY_DN26895_c0_g1_i1.p1JF3A_TRINITY_DN26895_c0_g1   -            166 70143at3193          -            439   6.5e-73  247.6   0.1   1   1     2e-75   7.7e-73  247.4   0.1    75   223     6   161     1   164 0.94 -
JF2A_TRINITY_DN42449_c0_g1_i13.p1JF2A_TRINITY_DN42449_c0_g1  -            381 70143at3193          -            439     2e-64  219.7   0.6   1   1   6.2e-67   2.4e-64  219.4   0.6    79   423    30   378    21   381 0.86 -
JF1A_TRINITY_DN62840_c3_g1_i13.p1JF1A_TRINITY_DN62840_c3_g1  -            199 70143at3193          -            439   2.9e-63  215.9   0.0   1   1   9.2e-66   3.5e-63  215.6   0.0    81   258     8   193     3   197 0.94 -
JF1A_TRINITY_DN63815_c0_g3_i4.p1JF1A_TRINITY_DN63815_c0_g3   -            315 70143at3193          -            439   8.2e-62  211.1   1.5   1   1   2.8e-64   1.1e-61  210.7   1.5   135   411    12   295     7   304 0.91 -
JF1A_TRINITY_DN65301_c1_g5_i5.p1JF1A_TRINITY_DN65301_c1_g5   -            470 70143at3193          -            439   6.4e-60  204.8   0.0   1   1   2.2e-62   8.3e-60  204.5   0.0    93   411     4   334     1   342 0.88 -
JF1A_TRINITY_DN65090_c1_g1_i1.p1JF1A_TRINITY_DN65090_c1_g1   -            303 70143at3193          -            439   3.5e-59  202.4   1.3   1   1   1.1e-61   4.1e-59  202.2   1.3   136   411     1   283     1   292 0.89 -
JF2A_TRINITY_DN42449_c0_g1_i4.p1JF2A_TRINITY_DN42449_c0_g1   -            335 70143at3193          -            439   6.3e-58  198.3   1.5   1   1   2.1e-60   8.2e-58  197.9   1.5   135   410    32   314    20   323 0.87 -
JF1A_TRINITY_DN62840_c3_g1_i12.p1JF1A_TRINITY_DN62840_c3_g1  -            305 70143at3193          -            439   2.1e-57  196.6   0.0   1   1   7.5e-60   2.9e-57  196.1   0.0   209   419    15   235    10   252 0.85 -
JF1A_TRINITY_DN60376_c0_g3_i4.p1JF1A_TRINITY_DN60376_c0_g3   -            217 70143at3193          -            439   7.9e-56  191.4   0.1   1   1   2.4e-58   9.3e-56  191.1   0.1   195   396    15   216     7   217 0.96 -
JF1A_TRINITY_DN65592_c6_g1_i9.p1JF1A_TRINITY_DN65592_c6_g1   -            464 70143at3193          -            439     8e-56  191.3   0.0   1   1   2.8e-58   1.1e-55  190.9   0.0    78   403    99   431    78   442 0.90 -
JF1A_TRINITY_DN64664_c1_g1_i16.p1JF1A_TRINITY_DN64664_c1_g1  -            140 70143at3193          -            439   1.4e-55  190.5   0.1   1   1   4.4e-58   1.7e-55  190.3   0.1    77   177    21   128     7   137 0.90 -
JF1A_TRINITY_DN67888_c2_g2_i11.p1JF1A_TRINITY_DN67888_c2_g2  -            428 70143at3193          -            439   1.8e-55  190.2   0.0   1   1   5.8e-58   2.2e-55  189.9   0.0    77   403    62   395     8   408 0.86 -
JF1A_TRINITY_DN62575_c3_g1_i2.p1JF1A_TRINITY_DN62575_c3_g1   -            275 70143at3193          -            439   8.2e-55  188.0   0.5   1   1   1.3e-56     5e-54  185.4   0.5   203   418     6   239     3   253 0.87 -
JF1A_TRINITY_DN65187_c1_g8_i3.p1JF1A_TRINITY_DN65187_c1_g8   -            405 70143at3193          -            439   8.7e-55  187.9   0.0   1   1   3.1e-57   1.2e-54  187.5   0.0   157   411    20   278    10   287 0.90 -
JF1J_TRINITY_DN68187_c1_g1_i1.p1JF1J_TRINITY_DN68187_c1_g1   -            133 70143at3193          -            439   1.9e-54  186.8   0.1   1   1   5.6e-57   2.2e-54  186.6   0.1   297   422     9   132     2   133 0.96 -
JF2A_TRINITY_DN40952_c0_g1_i3.p1JF2A_TRINITY_DN40952_c0_g1   -            123 70143at3193          -            439   3.6e-52  179.3   0.0   1   1     1e-54     4e-52  179.1   0.0    22   131     6   121     2   123 0.94 -
JF3J_TRINITY_DN45155_c0_g1_i2.p1JF3J_TRINITY_DN45155_c0_g1   -            305 70143at3193          -            439   5.9e-50  172.0   0.0   1   1   1.9e-52   7.1e-50  171.7   0.0    23   196   115   301    99   305 0.89 -
JF1J_TRINITY_DN68119_c0_g1_i7.p1JF1J_TRINITY_DN68119_c0_g1   -            106 70143at3193          -            439   1.1e-49  171.2   0.2   1   1   3.2e-52   1.2e-49  170.9   0.2   145   230     1    91     1    98 0.94 -
JF1A_TRINITY_DN60376_c0_g3_i2.p1JF1A_TRINITY_DN60376_c0_g3   -            371 70143at3193          -            439   1.9e-48  167.0   0.1   1   1   7.2e-51   2.8e-48  166.5   0.1    35   223   163   370   150   370 0.86 -
JF1A_TRINITY_DN64664_c1_g4_i1.p1JF1A_TRINITY_DN64664_c1_g4   -            152 70143at3193          -            439   5.7e-47  162.2   0.0   1   1   1.8e-49   7.1e-47  161.9   0.0     5   112    24   137    20   141 0.93 -
JF1A_TRINITY_DN61745_c0_g1_i11.p1JF1A_TRINITY_DN61745_c0_g1  -            345 70143at3193          -            439   1.5e-46  160.8   0.0   1   1   5.7e-49   2.2e-46  160.3   0.0   157   411     6   267     3   279 0.87 -
JF1J_TRINITY_DN68187_c1_g3_i2.p1JF1J_TRINITY_DN68187_c1_g3   -            134 70143at3193          -            439   2.8e-46  159.9   0.1   1   1   8.1e-49   3.1e-46  159.7   0.1   161   277     1   118     1   129 0.96 -
JF1A_TRINITY_DN53938_c0_g1_i1.p1JF1A_TRINITY_DN53938_c0_g1   -            152 70143at3193          -            439   2.5e-45  156.8   0.1   1   1     8e-48   3.1e-45  156.5   0.1   297   423     8   134     4   148 0.95 -
JF1A_TRINITY_DN60355_c3_g2_i2.p1JF1A_TRINITY_DN60355_c3_g2   -            207 70143at3193          -            439   4.2e-45  156.0   0.0   1   1   1.4e-47   5.3e-45  155.7   0.0   159   334     8   195     3   202 0.85 -
JF1J_TRINITY_DN72929_c0_g1_i19.p1JF1J_TRINITY_DN72929_c0_g1  -            360 70143at3193          -            439     1e-44  154.7   0.4   1   2     4e-26   1.6e-23   84.9   0.0    75   196   141   272   132   277 0.84 -
JF1J_TRINITY_DN72929_c0_g1_i19.p1JF1J_TRINITY_DN72929_c0_g1  -            360 70143at3193          -            439     1e-44  154.7   0.4   2   2   3.8e-21   1.5e-18   68.5   0.1   159   237   277   355   270   358 0.96 -
JF1A_TRINITY_DN67202_c1_g4_i1.p1JF1A_TRINITY_DN67202_c1_g4   -            492 70143at3193          -            439   1.6e-43  150.8   0.6   1   2   1.2e-24   4.8e-22   80.0   0.0    48   230    16   216     8   222 0.80 -
JF1A_TRINITY_DN67202_c1_g4_i1.p1JF1A_TRINITY_DN67202_c1_g4   -            492 70143at3193          -            439   1.6e-43  150.8   0.6   2   2   4.7e-21   1.8e-18   68.2   0.1   282   403   333   453   256   473 0.82 -
JF2A_TRINITY_DN41547_c8_g4_i1.p1JF2A_TRINITY_DN41547_c8_g4   -            157 70143at3193          -            439   3.6e-43  149.7   0.0   1   1   1.1e-45   4.2e-43  149.4   0.0   296   423    14   141     4   154 0.95 -
JF2A_TRINITY_DN32549_c0_g1_i3.p1JF2A_TRINITY_DN32549_c0_g1   -            268 70143at3193          -            439   6.6e-43  148.8   0.0   1   1   2.1e-45     8e-43  148.5   0.0   171   404     5   238     2   257 0.90 -
JF2A_TRINITY_DN44678_c0_g1_i1.p1JF2A_TRINITY_DN44678_c0_g1   -            101 70143at3193          -            439   2.5e-42  146.9   0.3   1   1     7e-45   2.7e-42  146.8   0.3   197   295     1    99     1   101 0.97 -
JF1A_TRINITY_DN62658_c1_g3_i1.p1JF1A_TRINITY_DN62658_c1_g3   -            165 70143at3193          -            439   3.9e-42  146.2   0.2   1   1   1.2e-44   4.5e-42  146.0   0.2   196   333     3   142     1   148 0.93 -
JF1J_TRINITY_DN65190_c0_g1_i1.p1JF1J_TRINITY_DN65190_c0_g1   -            124 70143at3193          -            439   2.5e-41  143.6   0.0   1   1   7.2e-44   2.8e-41  143.4   0.0   159   264     5   113     1   120 0.92 -
JF2A_TRINITY_DN37821_c0_g1_i1.p1JF2A_TRINITY_DN37821_c0_g1   -            138 70143at3193          -            439   2.8e-41  143.4   0.0   1   1   7.9e-44     3e-41  143.3   0.0   133   263     2   138     1   138 0.93 -
JF3J_TRINITY_DN61551_c0_g2_i1.p2JF3J_TRINITY_DN61551_c0_g2   -            102 70143at3193          -            439     1e-40  141.5   0.1   1   1   3.1e-43   1.2e-40  141.3   0.1   350   432     1    85     1    90 0.90 -
JF1J_TRINITY_DN72081_c1_g1_i8.p1JF1J_TRINITY_DN72081_c1_g1   -            292 70143at3193          -            439   1.1e-40  141.4   0.0   1   1   3.6e-43   1.4e-40  141.1   0.0   162   404    20   262     2   278 0.89 -
JF2A_TRINITY_DN42400_c3_g1_i1.p1JF2A_TRINITY_DN42400_c3_g1   -            200 70143at3193          -            439   1.7e-40  140.8   0.0   1   1   5.4e-43   2.1e-40  140.5   0.0   237   420     6   191     3   195 0.90 -
JF1A_TRINITY_DN62250_c0_g2_i2.p1JF1A_TRINITY_DN62250_c0_g2   -            255 70143at3193          -            439   1.1e-39  138.1   0.0   1   1   1.8e-41   6.8e-39  135.5   0.0   175   394    14   254     1   255 0.80 -
JF1A_TRINITY_DN67888_c2_g2_i13.p1JF1A_TRINITY_DN67888_c2_g2  -            377 70143at3193          -            439   1.5e-38  134.4   0.0   1   1   4.8e-41   1.8e-38  134.1   0.0    77   364    62   356     7   365 0.84 -
JF2A_TRINITY_DN41932_c0_g13_i2.p1JF2A_TRINITY_DN41932_c0_g13 -            175 70143at3193          -            439   3.7e-38  133.1   0.1   1   1   1.2e-40   4.6e-38  132.8   0.1   281   423     8   151     3   159 0.96 -
JF1J_TRINITY_DN19451_c0_g1_i1.p1JF1J_TRINITY_DN19451_c0_g1   -            132 70143at3193          -            439     6e-38  132.4   0.1   1   1   1.6e-40   6.1e-38  132.4   0.1   130   229    28   132     1   132 0.83 -
JF1J_TRINITY_DN65190_c0_g1_i2.p1JF1J_TRINITY_DN65190_c0_g1   -            159 70143at3193          -            439   1.1e-36  128.2   0.1   1   1   3.8e-39   1.5e-36  127.9   0.1   195   311    36   154    25   158 0.93 -
JF1J_TRINITY_DN73737_c0_g1_i1.p1JF1J_TRINITY_DN73737_c0_g1   -            145 70143at3193          -            439   1.4e-36  127.9   0.0   1   1   4.3e-39   1.7e-36  127.7   0.0   273   392    16   144     7   145 0.85 -
JF1J_TRINITY_DN71864_c2_g3_i1.p1JF1J_TRINITY_DN71864_c2_g3   -            133 70143at3193          -            439   7.8e-34  118.9   0.1   1   2   1.1e-16   4.4e-14   53.8   0.0   346   400     3    57     1    61 0.95 -
JF1J_TRINITY_DN71864_c2_g3_i1.p1JF1J_TRINITY_DN71864_c2_g3   -            133 70143at3193          -            439   7.8e-34  118.9   0.1   2   2   9.2e-20   3.5e-17   64.0   0.0   324   396    60   132    57   133 0.97 -
JF2A_TRINITY_DN49835_c0_g1_i1.p1JF2A_TRINITY_DN49835_c0_g1   -            132 70143at3193          -            439     5e-32  112.9   0.1   1   1   1.5e-34   5.7e-32  112.7   0.1   278   389    20   131     4   132 0.92 -
JF1J_TRINITY_DN67857_c0_g2_i1.p1JF1J_TRINITY_DN67857_c0_g2   -            212 70143at3193          -            439   2.2e-30  107.5   0.9   1   2   2.5e-05    0.0096   16.4   0.2   379   403     3    27     1    40 0.88 -
JF1J_TRINITY_DN67857_c0_g2_i1.p1JF1J_TRINITY_DN67857_c0_g2   -            212 70143at3193          -            439   2.2e-30  107.5   0.9   2   2   1.1e-27   4.2e-25   90.1   0.0   280   403    57   179    36   194 0.92 -
JF1A_TRINITY_DN62569_c2_g4_i1.p1JF1A_TRINITY_DN62569_c2_g4   -            250 70143at3193          -            439   3.4e-30  106.9   0.0   1   2   6.1e-31   2.3e-28  100.8   0.0    77   228    11   172     2   179 0.86 -
JF1A_TRINITY_DN62569_c2_g4_i1.p1JF1A_TRINITY_DN62569_c2_g4   -            250 70143at3193          -            439   3.4e-30  106.9   0.0   2   2      0.13        52    4.1   0.0   232   260   196   224   189   240 0.86 -
JF1J_TRINITY_DN71139_c1_g2_i5.p1JF1J_TRINITY_DN71139_c1_g2   -            239 70143at3193          -            439     8e-30  105.6   0.3   1   3       8.3   3.2e+03   -1.8   0.0   211   226     1    16     1    22 0.87 -
JF1J_TRINITY_DN71139_c1_g2_i5.p1JF1J_TRINITY_DN71139_c1_g2   -            239 70143at3193          -            439     8e-30  105.6   0.3   2   3   3.9e-07   0.00015   22.4   0.1   372   406    21    55    11    67 0.85 -
JF1J_TRINITY_DN71139_c1_g2_i5.p1JF1J_TRINITY_DN71139_c1_g2   -            239 70143at3193          -            439     8e-30  105.6   0.3   3   3   6.1e-25   2.4e-22   81.0   0.0   229   376    85   233    75   238 0.92 -
JF2A_TRINITY_DN12943_c0_g1_i1.p1JF2A_TRINITY_DN12943_c0_g1   -            122 70143at3193          -            439   2.2e-29  104.2   0.0   1   1   6.7e-32   2.6e-29  104.0   0.0   331   423    10   102     5   116 0.94 -
JF1A_TRINITY_DN60376_c0_g3_i5.p1JF1A_TRINITY_DN60376_c0_g3   -            361 70143at3193          -            439   4.3e-29  103.2   0.1   1   1   1.7e-31   6.5e-29  102.7   0.1    35   155   174   302   161   310 0.87 -
JF1A_TRINITY_DN63646_c0_g3_i2.p1JF1A_TRINITY_DN63646_c0_g3   -            434 70143at3193          -            439   5.9e-29  102.8   0.4   1   1     2e-31   7.6e-29  102.4   0.4    74   236   255   432   241   433 0.78 -
JF2A_TRINITY_DN41932_c0_g13_i1.p1JF2A_TRINITY_DN41932_c0_g13 -            119 70143at3193          -            439   1.3e-28  101.7   0.1   1   1   3.7e-31   1.4e-28  101.5   0.1   331   423     2    95     1   104 0.96 -
JF1A_TRINITY_DN62292_c0_g3_i1.p1JF1A_TRINITY_DN62292_c0_g3   -            411 70143at3193          -            439   2.2e-27   97.6   0.0   1   1   8.1e-30   3.1e-27   97.1   0.0   202   417    11   239     4   281 0.88 -
JF1J_TRINITY_DN72929_c0_g1_i30.p1JF1J_TRINITY_DN72929_c0_g1  -            492 70143at3193          -            439   3.4e-27   97.0   0.0   1   1   1.2e-29   4.6e-27   96.6   0.0   243   411     2   173     1   178 0.88 -
JF1A_TRINITY_DN62575_c3_g1_i4.p1JF1A_TRINITY_DN62575_c3_g1   -            168 70143at3193          -            439   2.7e-26   94.0   0.2   1   1   8.9e-27   3.4e-24   87.1   0.2    35   193    17   167     8   167 0.89 -
JF1A_TRINITY_DN15893_c0_g1_i2.p1JF1A_TRINITY_DN15893_c0_g1   -            165 70143at3193          -            439   3.5e-26   93.7   0.4   1   2   1.4e-20   5.4e-18   66.7   0.1   132   209    18   100     9   105 0.88 -
JF1A_TRINITY_DN15893_c0_g1_i2.p1JF1A_TRINITY_DN15893_c0_g1   -            165 70143at3193          -            439   3.5e-26   93.7   0.4   2   2   2.3e-08   8.8e-06   26.4   0.0   118   171   101   163   100   165 0.72 -
JF2J_TRINITY_DN24959_c0_g1_i33.p1JF2J_TRINITY_DN24959_c0_g1  -            155 70143at3193          -            439   4.9e-26   93.2   0.0   1   1   1.5e-28   5.7e-26   93.0   0.0   316   416    29   129    19   149 0.87 -
JF1A_TRINITY_DN63544_c4_g6_i3.p1JF1A_TRINITY_DN63544_c4_g6   -            140 70143at3193          -            439   5.2e-26   93.1   0.0   1   1   1.5e-28   5.8e-26   92.9   0.0   150   263    16   130     3   139 0.89 -
JF1A_TRINITY_DN66706_c0_g5_i1.p1JF1A_TRINITY_DN66706_c0_g5   -            147 70143at3193          -            439   1.1e-25   92.0   0.0   1   1   3.3e-28   1.2e-25   91.8   0.0   204   333     1   142     1   145 0.81 -
JF1J_TRINITY_DN65070_c1_g3_i1.p1JF1J_TRINITY_DN65070_c1_g3   -            224 70143at3193          -            439   3.6e-25   90.3   0.0   1   1   1.1e-27   4.3e-25   90.1   0.0   281   404    41   163    11   181 0.89 -
JF1J_TRINITY_DN59668_c0_g1_i1.p1JF1J_TRINITY_DN59668_c0_g1   -            101 70143at3193          -            439   5.2e-25   89.8   0.0   1   1   1.6e-27     6e-25   89.6   0.0   157   229    15    87     4    94 0.95 -
JF3A_TRINITY_DN56049_c1_g2_i8.p1JF3A_TRINITY_DN56049_c1_g2   -            190 70143at3193          -            439   9.4e-25   89.0   0.0   1   1   3.3e-27   1.2e-24   88.5   0.0    41   124   101   187    90   189 0.91 -
JF2J_TRINITY_DN24959_c0_g1_i27.p1JF2J_TRINITY_DN24959_c0_g1  -            233 70143at3193          -            439   2.1e-24   87.8   0.0   1   1   6.8e-27   2.6e-24   87.5   0.0    78   247    44   215    21   231 0.82 -
JF3J_TRINITY_DN75617_c0_g1_i1.p1JF3J_TRINITY_DN75617_c0_g1   -            126 70143at3193          -            439   5.8e-24   86.3   0.1   1   1   1.7e-26   6.5e-24   86.2   0.1    75   180    11   126     3   126 0.90 -
JF1A_TRINITY_DN67202_c1_g4_i2.p1JF1A_TRINITY_DN67202_c1_g4   -            247 70143at3193          -            439   5.1e-23   83.2   0.0   1   1   1.8e-25   6.9e-23   82.8   0.0    48   230    16   216     8   222 0.80 -
JF1A_TRINITY_DN62249_c1_g1_i3.p1JF1A_TRINITY_DN62249_c1_g1   -            365 70143at3193          -            439   6.7e-23   82.8   0.0   1   1   2.3e-25   8.7e-23   82.5   0.0   347   422     6    81     1    91 0.93 -
JF1J_TRINITY_DN63499_c0_g4_i1.p1JF1J_TRINITY_DN63499_c0_g4   -            158 70143at3193          -            439   7.1e-23   82.8   0.0   1   1   2.4e-25   9.2e-23   82.4   0.0   323   404     3    84     2   100 0.93 -
JF1A_TRINITY_DN61705_c1_g2_i1.p1JF1A_TRINITY_DN61705_c1_g2   -            200 70143at3193          -            439   8.2e-23   82.6   0.0   1   1   2.3e-25   8.7e-23   82.5   0.0   297   407    47   165     1   179 0.78 -
JF1J_TRINITY_DN67510_c5_g1_i1.p1JF1J_TRINITY_DN67510_c5_g1   -            101 70143at3193          -            439   8.3e-23   82.5   0.0   1   1   2.6e-25   9.8e-23   82.3   0.0   154   224    23    93    10    98 0.90 -
JF3A_TRINITY_DN54682_c3_g1_i3.p1JF3A_TRINITY_DN54682_c3_g1   -            150 70143at3193          -            439   5.3e-22   79.9   0.0   1   1   1.7e-24   6.6e-22   79.6   0.0   157   265    35   144    27   148 0.93 -
JF1A_TRINITY_DN63646_c0_g1_i1.p1JF1A_TRINITY_DN63646_c0_g1   -            285 70143at3193          -            439   2.1e-21   77.9   0.0   1   1   6.7e-24   2.6e-21   77.6   0.0   232   399     2   177     1   192 0.78 -
JF3A_TRINITY_DN57695_c1_g1_i1.p1JF3A_TRINITY_DN57695_c1_g1   -            182 70143at3193          -            439   1.1e-20   75.6   0.1   1   1   3.4e-23   1.3e-20   75.3   0.1   135   275    42   173    30   181 0.87 -
JF1A_TRINITY_DN66294_c1_g2_i2.p1JF1A_TRINITY_DN66294_c1_g2   -            264 70143at3193          -            439   3.9e-20   73.7   0.0   1   1   1.3e-22   5.1e-20   73.3   0.0    78   213   108   245    77   253 0.84 -
JF1A_TRINITY_DN6094_c0_g1_i1.p1JF1A_TRINITY_DN6094_c0_g1     -            131 70143at3193          -            439   4.1e-20   73.7   0.0   1   1   1.2e-22   4.8e-20   73.4   0.0   285   403     6   126     2   130 0.90 -
JF3J_TRINITY_DN67760_c2_g1_i1.p1JF3J_TRINITY_DN67760_c2_g1   -            195 70143at3193          -            439     1e-19   72.4   0.0   1   1   3.1e-22   1.2e-19   72.1   0.0    75   190    72   193    53   195 0.80 -
JF1J_TRINITY_DN71139_c1_g2_i2.p1JF1J_TRINITY_DN71139_c1_g2   -            155 70143at3193          -            439   2.8e-19   70.9   0.2   1   2   5.6e-15   2.2e-12   48.2   0.1   157   226    10    80     5    81 0.90 -
JF1J_TRINITY_DN71139_c1_g2_i2.p1JF1J_TRINITY_DN71139_c1_g2   -            155 70143at3193          -            439   2.8e-19   70.9   0.2   2   2   1.6e-07     6e-05   23.7   0.0   179   211    78   111    74   115 0.87 -
JF3J_TRINITY_DN70865_c2_g2_i8.p1JF3J_TRINITY_DN70865_c2_g2   -            231 70143at3193          -            439   3.4e-19   70.6   0.0   1   1   1.1e-21   4.4e-19   70.3   0.0    78   224    86   221    65   228 0.85 -
JF1A_TRINITY_DN45948_c0_g1_i1.p2JF1A_TRINITY_DN45948_c0_g1   -            135 70143at3193          -            439     4e-19   70.4   0.0   1   1   1.2e-21   4.6e-19   70.2   0.0   101   227     3   130     1   134 0.90 -
JF1A_TRINITY_DN62250_c0_g2_i3.p1JF1A_TRINITY_DN62250_c0_g2   -            207 70143at3193          -            439   7.7e-19   69.5   0.0   1   1   3.5e-21   1.3e-18   68.7   0.0   175   263    14   103     1   113 0.89 -
JF3A_TRINITY_DN56049_c1_g2_i10.p1JF3A_TRINITY_DN56049_c1_g2  -            154 70143at3193          -            439     8e-19   69.4   0.0   1   1   2.8e-21   1.1e-18   69.0   0.0    70   124    97   151    85   153 0.95 -
JF1A_TRINITY_DN62569_c2_g2_i1.p1JF1A_TRINITY_DN62569_c2_g2   -            325 70143at3193          -            439   1.7e-18   68.3   0.0   1   1   6.7e-21   2.6e-18   67.7   0.0   321   412    98   189    91   196 0.93 -
JF3J_TRINITY_DN70195_c2_g3_i17.p1JF3J_TRINITY_DN70195_c2_g3  -            202 70143at3193          -            439   1.7e-18   68.3   0.0   1   1   5.1e-21     2e-18   68.1   0.0    78   215    36   177     9   192 0.87 -
JF2A_TRINITY_DN44749_c0_g1_i1.p1JF2A_TRINITY_DN44749_c0_g1   -            153 70143at3193          -            439   3.1e-18   67.5   0.0   1   1   9.4e-21   3.6e-18   67.2   0.0   294   401    27   134    12   147 0.86 -
JF1A_TRINITY_DN46743_c0_g1_i1.p1JF1A_TRINITY_DN46743_c0_g1   -            111 70143at3193          -            439   4.9e-18   66.8   0.0   1   1   1.4e-20   5.3e-18   66.7   0.0    38   141     1   111     1   111 0.83 -
JF1A_TRINITY_DN61835_c1_g6_i2.p1JF1A_TRINITY_DN61835_c1_g6   -            278 70143at3193          -            439   7.7e-18   66.2   0.0   1   1   2.5e-20   9.5e-18   65.9   0.0    44   151   159   278   147   278 0.80 -
JF1A_TRINITY_DN61238_c6_g2_i2.p1JF1A_TRINITY_DN61238_c6_g2   -            181 70143at3193          -            439   9.5e-18   65.9   0.1   1   2   3.6e-10   1.4e-07   32.4   0.0   212   337     1   130     1   139 0.87 -
JF1A_TRINITY_DN61238_c6_g2_i2.p1JF1A_TRINITY_DN61238_c6_g2   -            181 70143at3193          -            439   9.5e-18   65.9   0.1   2   2   3.4e-10   1.3e-07   32.4   0.1   173   218   135   181   130   181 0.89 -
JF1J_TRINITY_DN63588_c0_g7_i3.p2JF1J_TRINITY_DN63588_c0_g7   -            108 70143at3193          -            439   1.3e-17   65.4   0.0   1   1   4.3e-20   1.7e-17   65.1   0.0     5    64    30    92    26    98 0.94 -
JF1J_TRINITY_DN67857_c0_g2_i7.p1JF1J_TRINITY_DN67857_c0_g2   -            173 70143at3193          -            439   1.7e-17   65.0   0.1   1   1   5.1e-20     2e-17   64.8   0.1   280   385    54   158    24   162 0.91 -
JF1J_TRINITY_DN72929_c0_g1_i12.p1JF1J_TRINITY_DN72929_c0_g1  -            126 70143at3193          -            439   1.8e-17   64.9   0.0   1   1   4.9e-20   1.9e-17   64.9   0.0   177   265    10    98     2   119 0.90 -
JF1A_TRINITY_DN66863_c0_g2_i3.p1JF1A_TRINITY_DN66863_c0_g2   -            300 70143at3193          -            439   1.9e-17   64.9   0.0   1   1   6.4e-20   2.5e-17   64.5   0.0    76   161   209   294   182   298 0.90 -
JF3A_TRINITY_DN57695_c1_g1_i5.p1JF3A_TRINITY_DN57695_c1_g1   -            158 70143at3193          -            439   2.1e-17   64.7   0.0   1   1   6.6e-20   2.5e-17   64.5   0.0   159   275    35   149    20   157 0.86 -
JF1A_TRINITY_DN66706_c0_g5_i2.p1JF1A_TRINITY_DN66706_c0_g5   -            118 70143at3193          -            439   2.3e-17   64.6   0.0   1   1   6.6e-20   2.5e-17   64.5   0.0   204   289     1    92     1   105 0.77 -
JF1A_TRINITY_DN67888_c2_g2_i12.p1JF1A_TRINITY_DN67888_c2_g2  -            137 70143at3193          -            439   3.9e-17   63.9   0.0   1   1   1.2e-19   4.7e-17   63.6   0.0   280   384    19   122     7   128 0.93 -
JF2A_TRINITY_DN44183_c0_g1_i1.p1JF2A_TRINITY_DN44183_c0_g1   -            154 70143at3193          -            439   4.3e-17   63.7   0.1   1   1   1.2e-19   4.6e-17   63.6   0.1   131   267     7   152     1   154 0.81 -
JF1J_TRINITY_DN66598_c4_g1_i1.p1JF1J_TRINITY_DN66598_c4_g1   -            128 70143at3193          -            439   6.3e-17   63.2   0.0   1   1   1.9e-19   7.5e-17   62.9   0.0   344   411    17    84     7    98 0.90 -
JF2A_TRINITY_DN41981_c0_g1_i17.p1JF2A_TRINITY_DN41981_c0_g1  -            250 70143at3193          -            439   1.1e-16   62.4   0.1   1   2   2.5e-15   9.6e-13   49.4   0.0    78   203    51   180    37   186 0.85 -
JF2A_TRINITY_DN41981_c0_g1_i17.p1JF2A_TRINITY_DN41981_c0_g1  -            250 70143at3193          -            439   1.1e-16   62.4   0.1   2   2   0.00063      0.24   11.8   0.0   285   349   182   246   180   250 0.87 -
JF3A_TRINITY_DN54253_c0_g2_i1.p1JF3A_TRINITY_DN54253_c0_g2   -            158 70143at3193          -            439   1.1e-16   62.3   0.0   1   1   3.8e-19   1.5e-16   62.0   0.0   361   422     5    66     2    80 0.93 -
JF3A_TRINITY_DN54399_c3_g2_i1.p1JF3A_TRINITY_DN54399_c3_g2   -            164 70143at3193          -            439   1.5e-16   61.9   0.0   1   1   4.6e-19   1.8e-16   61.7   0.0   135   257    11   141     3   156 0.86 -
JF1A_TRINITY_DN67520_c0_g10_i1.p1JF1A_TRINITY_DN67520_c0_g10 -            221 70143at3193          -            439   2.1e-16   61.4   0.0   1   1   6.8e-19   2.6e-16   61.1   0.0    63   215    29   196    22   219 0.79 -
JF1A_TRINITY_DN66616_c2_g1_i3.p1JF1A_TRINITY_DN66616_c2_g1   -            111 70143at3193          -            439   2.8e-16   61.0   0.1   1   1     9e-19   3.4e-16   60.7   0.1    73   151    32   107    17   109 0.88 -
JF3J_TRINITY_DN62396_c0_g2_i1.p1JF3J_TRINITY_DN62396_c0_g2   -            150 70143at3193          -            439   5.1e-16   60.2   0.0   1   1   1.5e-18   5.8e-16   60.0   0.0    73   153    69   146    53   150 0.87 -
JF1A_TRINITY_DN64004_c0_g1_i2.p1JF1A_TRINITY_DN64004_c0_g1   -            173 70143at3193          -            439   1.5e-15   58.6   0.1   1   1   5.6e-18   2.1e-15   58.1   0.1   329   401    19    91    13   109 0.90 -
JF1A_TRINITY_DN66678_c0_g1_i1.p1JF1A_TRINITY_DN66678_c0_g1   -            195 70143at3193          -            439   1.6e-15   58.5   0.1   1   1   6.3e-18   2.4e-15   57.9   0.1    61   159    33   131    16   193 0.84 -
JF2A_TRINITY_DN52576_c0_g1_i1.p1JF2A_TRINITY_DN52576_c0_g1   -            107 70143at3193          -            439     2e-15   58.2   0.0   1   1   5.7e-18   2.2e-15   58.1   0.0   159   246    17   104     5   107 0.92 -
JF1A_TRINITY_DN61238_c6_g2_i1.p1JF1A_TRINITY_DN61238_c6_g2   -            160 70143at3193          -            439   2.8e-15   57.7   0.0   1   1     8e-18   3.1e-15   57.6   0.0   212   363     1   156     1   160 0.90 -
JF1A_TRINITY_DN64004_c0_g1_i1.p1JF1A_TRINITY_DN64004_c0_g1   -            267 70143at3193          -            439   3.9e-15   57.2   0.1   1   1   1.5e-17   5.6e-15   56.7   0.1   329   401    19    91    13   108 0.90 -
JF1J_TRINITY_DN73846_c0_g1_i1.p1JF1J_TRINITY_DN73846_c0_g1   -            111 70143at3193          -            439   4.2e-15   57.1   0.0   1   1   1.2e-17   4.5e-15   57.0   0.0   318   405     3    89     1   106 0.90 -
JF3J_TRINITY_DN73889_c1_g1_i5.p1JF3J_TRINITY_DN73889_c1_g1   -            155 70143at3193          -            439   2.2e-14   54.8   0.0   1   1     7e-17   2.7e-14   54.5   0.0    75   170    42   147    30   153 0.81 -
JF2A_TRINITY_DN41981_c0_g1_i10.p1JF2A_TRINITY_DN41981_c0_g1  -            123 70143at3193          -            439   2.3e-14   54.7   0.0   1   1   7.4e-17   2.8e-14   54.4   0.0   284   378    14   108     8   112 0.93 -
JF2A_TRINITY_DN36607_c0_g1_i1.p1JF2A_TRINITY_DN36607_c0_g1   -            140 70143at3193          -            439   3.2e-14   54.2   0.1   1   1     1e-16   3.9e-14   54.0   0.1   344   412     2    70     1    81 0.91 -
JF1A_TRINITY_DN63815_c0_g3_i5.p1JF1A_TRINITY_DN63815_c0_g3   -            123 70143at3193          -            439   5.4e-14   53.5   0.0   1   1   1.7e-16   6.4e-14   53.2   0.0   135   219    12   101     7   116 0.86 -
JF2A_TRINITY_DN42449_c0_g1_i8.p1JF2A_TRINITY_DN42449_c0_g1   -            101 70143at3193          -            439   1.9e-13   51.7   0.0   1   1   6.1e-16   2.3e-13   51.4   0.0   176   255    16    95    11    99 0.94 -
JF3A_TRINITY_DN53474_c0_g4_i2.p1JF3A_TRINITY_DN53474_c0_g4   -            113 70143at3193          -            439   2.4e-13   51.3   0.0   1   1   7.7e-16     3e-13   51.1   0.0   287   368    24   104    17   108 0.89 -
JF3J_TRINITY_DN66641_c3_g2_i1.p1JF3J_TRINITY_DN66641_c3_g2   -            130 70143at3193          -            439   4.3e-13   50.5   0.0   1   2   1.2e-14   4.6e-12   47.1   0.0   161   229    10    79     6    91 0.89 -
JF3J_TRINITY_DN66641_c3_g2_i1.p1JF3J_TRINITY_DN66641_c3_g2   -            130 70143at3193          -            439   4.3e-13   50.5   0.0   2   2      0.81   3.1e+02    1.6   0.0   233   259   103   129    97   130 0.90 -
JF1A_TRINITY_DN67520_c0_g2_i1.p1JF1A_TRINITY_DN67520_c0_g2   -            209 70143at3193          -            439   4.5e-13   50.5   0.0   1   1   1.5e-15   5.8e-13   50.1   0.0   286   412    62   196    54   205 0.77 -
JF2A_TRINITY_DN50392_c0_g1_i1.p1JF2A_TRINITY_DN50392_c0_g1   -            106 70143at3193          -            439   5.6e-13   50.1   0.0   1   1   1.7e-15   6.5e-13   49.9   0.0   333   412    12    92     4    98 0.86 -
JF1A_TRINITY_DN65408_c1_g2_i1.p1JF1A_TRINITY_DN65408_c1_g2   -            202 70143at3193          -            439   1.3e-12   48.9   0.1   1   2     0.029        11    6.3   0.0   286   355    37   106     8   121 0.83 -
JF1A_TRINITY_DN65408_c1_g2_i1.p1JF1A_TRINITY_DN65408_c1_g2   -            202 70143at3193          -            439   1.3e-12   48.9   0.1   2   2   7.6e-13   2.9e-10   41.2   0.0   349   405   133   189   109   200 0.82 -
JF1A_TRINITY_DN62902_c0_g3_i1.p1JF1A_TRINITY_DN62902_c0_g3   -            124 70143at3193          -            439   3.6e-11   44.2   0.1   1   1   1.1e-13   4.3e-11   43.9   0.1   136   216    23   108    15   120 0.82 -
JF1A_TRINITY_DN64016_c1_g1_i1.p1JF1A_TRINITY_DN64016_c1_g1   -            150 70143at3193          -            439   9.8e-11   42.8   0.2   1   1   2.4e-12   9.1e-10   39.6   0.2    81   158    33   133    24   148 0.66 -
JF3J_TRINITY_DN63439_c4_g3_i2.p1JF3J_TRINITY_DN63439_c4_g3   -            132 70143at3193          -            439   1.2e-10   42.5   0.0   1   1   3.6e-13   1.4e-10   42.3   0.0   280   375    37   131    26   132 0.88 -
JF1A_TRINITY_DN61705_c1_g4_i3.p1JF1A_TRINITY_DN61705_c1_g4   -            246 70143at3193          -            439   1.4e-10   42.3   0.0   1   1   4.8e-13   1.8e-10   41.9   0.0    64   163   111   213    93   224 0.83 -
JF1A_TRINITY_DN62292_c0_g5_i1.p1JF1A_TRINITY_DN62292_c0_g5   -            110 70143at3193          -            439   1.8e-10   41.9   0.0   1   1   4.9e-13   1.9e-10   41.8   0.0   106   193     8   106     1   110 0.76 -
JF3J_TRINITY_DN13401_c0_g1_i1.p1JF3J_TRINITY_DN13401_c0_g1   -            113 70143at3193          -            439   2.1e-10   41.6   0.0   1   1   6.5e-13   2.5e-10   41.4   0.0   348   399    42    93    13   100 0.83 -
JF1J_TRINITY_DN71864_c2_g2_i9.p1JF1J_TRINITY_DN71864_c2_g2   -            254 70143at3193          -            439   4.6e-10   40.6   0.0   1   2   8.8e-11   3.4e-08   34.4   0.0   172   228    49   106    26   113 0.83 -
JF1J_TRINITY_DN71864_c2_g2_i9.p1JF1J_TRINITY_DN71864_c2_g2   -            254 70143at3193          -            439   4.6e-10   40.6   0.0   2   2      0.13        50    4.2   0.0   232   260   130   158   123   178 0.86 -
JF2A_TRINITY_DN41981_c0_g1_i18.p1JF2A_TRINITY_DN41981_c0_g1  -            135 70143at3193          -            439   4.7e-10   40.5   0.1   1   1   1.4e-12   5.2e-10   40.4   0.1   184   281     6   105     2   125 0.81 -
JF1A_TRINITY_DN61238_c6_g3_i3.p1JF1A_TRINITY_DN61238_c6_g3   -            108 70143at3193          -            439   1.3e-09   39.1   0.0   1   1   3.4e-12   1.3e-09   39.1   0.0   365   413     4    52     1    90 0.89 -
JF1A_TRINITY_DN49109_c0_g1_i1.p1JF1A_TRINITY_DN49109_c0_g1   -            165 70143at3193          -            439   1.6e-09   38.7   0.1   1   1   5.6e-12   2.1e-09   38.3   0.1     7    77    87   160    81   164 0.84 -
JF1A_TRINITY_DN60797_c2_g3_i1.p1JF1A_TRINITY_DN60797_c2_g3   -            323 70143at3193          -            439     2e-09   38.4   0.0   1   1   6.9e-12   2.7e-09   38.0   0.0    91   283   104   308    92   318 0.81 -
JF1A_TRINITY_DN67888_c2_g2_i9.p1JF1A_TRINITY_DN67888_c2_g2   -            110 70143at3193          -            439   2.7e-09   38.0   0.0   1   1   8.4e-12   3.2e-09   37.7   0.0   280   364    19   102     6   106 0.91 -
JF2A_TRINITY_DN41981_c0_g2_i8.p1JF2A_TRINITY_DN41981_c0_g2   -            163 70143at3193          -            439   5.6e-09   37.0   0.0   1   1   1.6e-11     6e-09   36.9   0.0    77   156    48   124     2   144 0.80 -
JF1A_TRINITY_DN61705_c1_g3_i1.p1JF1A_TRINITY_DN61705_c1_g3   -            201 70143at3193          -            439     1e-08   36.1   0.0   1   1   3.6e-11   1.4e-08   35.7   0.0    62   148   108   197    93   199 0.83 -
JF1J_TRINITY_DN75948_c0_g1_i1.p1JF1J_TRINITY_DN75948_c0_g1   -            108 70143at3193          -            439   1.2e-08   35.9   0.0   1   1   3.3e-11   1.3e-08   35.8   0.0   336   410    17    88     7   105 0.78 -
JF1A_TRINITY_DN64016_c1_g2_i1.p1JF1A_TRINITY_DN64016_c1_g2   -            127 70143at3193          -            439   3.5e-08   34.4   0.0   1   1   9.4e-11   3.6e-08   34.3   0.0   158   229    18    92    11   125 0.81 -
JF3J_TRINITY_DN70195_c2_g3_i15.p1JF3J_TRINITY_DN70195_c2_g3  -            127 70143at3193          -            439   5.5e-08   33.7   0.0   1   1   1.6e-10   6.2e-08   33.5   0.0   111   211     7   111     2   123 0.79 -
JF1A_TRINITY_DN64154_c0_g1_i2.p1JF1A_TRINITY_DN64154_c0_g1   -            104 70143at3193          -            439   5.7e-08   33.6   0.0   1   1   1.5e-10   5.7e-08   33.6   0.0   341   389     2    50     1    81 0.86 -
JF1A_TRINITY_DN23561_c0_g1_i1.p1JF1A_TRINITY_DN23561_c0_g1   -            159 70143at3193          -            439   8.5e-08   33.1   0.0   1   1   2.7e-10     1e-07   32.8   0.0   330   404     7    81     2   101 0.85 -
JF3J_TRINITY_DN72177_c2_g1_i2.p1JF3J_TRINITY_DN72177_c2_g1   -            177 70143at3193          -            439   1.6e-07   32.2   0.0   1   1   4.8e-10   1.8e-07   32.0   0.0    65   125    92   150    58   164 0.89 -
JF1A_TRINITY_DN63028_c1_g4_i4.p1JF1A_TRINITY_DN63028_c1_g4   -            209 70143at3193          -            439   2.5e-07   31.5   0.0   1   1   8.2e-10   3.2e-07   31.2   0.0    78   132   140   194   111   203 0.83 -
JF3J_TRINITY_DN69897_c2_g2_i5.p1JF3J_TRINITY_DN69897_c2_g2   -            121 70143at3193          -            439   3.5e-07   31.1   0.0   1   1   4.8e-09   1.9e-06   28.7   0.0   224   304    29   110     1   119 0.65 -
JF1A_TRINITY_DN65983_c1_g1_i6.p1JF1A_TRINITY_DN65983_c1_g1   -            196 70143at3193          -            439   5.2e-07   30.5   0.1   1   1   2.6e-09     1e-06   29.5   0.1    78   156   102   177    86   191 0.82 -
JF1A_TRINITY_DN67759_c0_g9_i1.p1JF1A_TRINITY_DN67759_c0_g9   -            212 70143at3193          -            439   5.2e-07   30.5   0.0   1   1   1.7e-09   6.6e-07   30.1   0.0   334   392    48   106    32   127 0.88 -
JF1A_TRINITY_DN62292_c0_g2_i1.p1JF1A_TRINITY_DN62292_c0_g2   -            194 70143at3193          -            439   6.7e-07   30.1   0.0   1   1   2.1e-09   8.2e-07   29.8   0.0    57   118   111   176    83   185 0.82 -
JF1A_TRINITY_DN64154_c0_g1_i1.p1JF1A_TRINITY_DN64154_c0_g1   -            116 70143at3193          -            439   7.7e-07   29.9   0.0   1   1   2.2e-09   8.6e-07   29.8   0.0   341   386     2    47     1    65 0.93 -
JF1J_TRINITY_DN72081_c1_g1_i16.p1JF1J_TRINITY_DN72081_c1_g1  -            166 70143at3193          -            439   9.5e-07   29.6   0.0   1   1     3e-09   1.1e-06   29.3   0.0   218   338     2   122     1   128 0.87 -
JF1J_TRINITY_DN65070_c1_g2_i7.p1JF1J_TRINITY_DN65070_c1_g2   -            127 70143at3193          -            439   1.1e-06   29.4   0.0   1   1   3.2e-09   1.2e-06   29.2   0.0   100   192     2    98     1   110 0.80 -
JF2A_TRINITY_DN36735_c0_g1_i2.p1JF2A_TRINITY_DN36735_c0_g1   -            269 70143at3193          -            439   1.4e-06   29.1   0.0   1   1     5e-09   1.9e-06   28.6   0.0    74   127   208   261   194   266 0.85 -
JF1J_TRINITY_DN65027_c2_g1_i2.p1JF1J_TRINITY_DN65027_c2_g1   -            131 70143at3193          -            439   1.4e-06   29.0   0.0   1   1   4.1e-09   1.6e-06   28.9   0.0   358   413    10    62     3    94 0.81 -
JF1A_TRINITY_DN66521_c2_g2_i1.p1JF1A_TRINITY_DN66521_c2_g2   -            236 70143at3193          -            439   2.4e-06   28.3   0.0   1   1     8e-09   3.1e-06   27.9   0.0    57   121   105   169    66   179 0.80 -
JF3A_TRINITY_DN49033_c1_g1_i1.p1JF3A_TRINITY_DN49033_c1_g1   -            114 70143at3193          -            439   6.4e-06   26.9   0.0   1   1   1.9e-08   7.4e-06   26.7   0.0   298   369    42   113    37   114 0.89 -
JF1J_TRINITY_DN71542_c0_g1_i1.p1JF1J_TRINITY_DN71542_c0_g1   -            100 70143at3193          -            439   8.9e-06   26.4   0.0   1   1   2.3e-08   8.9e-06   26.4   0.0   203   227     6    30     2    75 0.89 -
JF1J_TRINITY_DN72929_c0_g1_i1.p1JF1J_TRINITY_DN72929_c0_g1   -            129 70143at3193          -            439   1.5e-05   25.6   0.0   1   1   4.8e-08   1.8e-05   25.4   0.0    75   121    40    86    24    96 0.89 -
JF1A_TRINITY_DN2752_c0_g1_i2.p1JF1A_TRINITY_DN2752_c0_g1     -            121 70143at3193          -            439   1.9e-05   25.3   0.3   1   1   1.1e-06   0.00042   20.9   0.3   176   214    79   118     8   120 0.91 -
JF1A_TRINITY_DN74514_c0_g1_i1.p1JF1A_TRINITY_DN74514_c0_g1   -            122 70143at3193          -            439   2.6e-05   24.9   0.0   1   1   8.2e-08   3.1e-05   24.6   0.0    75   120    32    77    26    88 0.91 -
JF1A_TRINITY_DN65408_c1_g1_i1.p1JF1A_TRINITY_DN65408_c1_g1   -            107 70143at3193          -            439   3.8e-05   24.4   0.0   1   1   1.1e-07   4.3e-05   24.1   0.0   179   247    18    90     7    97 0.81 -
JF1A_TRINITY_DN65592_c6_g1_i6.p1JF1A_TRINITY_DN65592_c6_g1   -            114 70143at3193          -            439   0.00015   22.4   0.0   1   1   4.2e-07   0.00016   22.3   0.0    98   178     4    87     1    99 0.77 -
JF1A_TRINITY_DN65438_c0_g1_i7.p1JF1A_TRINITY_DN65438_c0_g1   -            289 70143at3193          -            439   0.00017   22.2   0.0   1   1   6.2e-07   0.00024   21.7   0.0   291   408   127   247   108   277 0.78 -
JF2A_TRINITY_DN52728_c0_g1_i1.p1JF2A_TRINITY_DN52728_c0_g1   -            126 70143at3193          -            439   0.00029   21.5   0.0   1   1   8.4e-07   0.00032   21.3   0.0   180   252     2    72     1    88 0.84 -
JF1A_TRINITY_DN66573_c0_g2_i14.p1JF1A_TRINITY_DN66573_c0_g2  -            533 70143at3193          -            439    0.0012   19.4   0.0   1   1   5.6e-06    0.0021   18.6   0.0   275   386   298   419   277   425 0.83 -
JF2A_TRINITY_DN8251_c0_g1_i1.p1JF2A_TRINITY_DN8251_c0_g1     -            126 70143at3193          -            439    0.0029   18.1   0.0   1   1   9.6e-06    0.0037   17.8   0.0    11    56    72   120    61   124 0.85 -
JF3J_TRINITY_DN20400_c0_g1_i1.p1JF3J_TRINITY_DN20400_c0_g1   -            144 70143at3193          -            439    0.0096   16.4   0.1   1   1   2.6e-05    0.0099   16.4   0.1   299   388     1    95     1   122 0.82 -
JF3A_TRINITY_DN56281_c0_g1_i2.p1JF3A_TRINITY_DN56281_c0_g1   -            136 70143at3193          -            439      0.01   16.3   0.0   1   1   4.5e-05     0.017   15.6   0.0    95   120   100   125    86   133 0.89 -
JF2J_TRINITY_DN24623_c0_g1_i2.p1JF2J_TRINITY_DN24623_c0_g1   -            105 70143at3193          -            439     0.012   16.1   0.0   1   1   3.1e-05     0.012   16.1   0.0   224   268    22    67    14    92 0.81 -
JF1A_TRINITY_DN66612_c1_g3_i7.p1JF1A_TRINITY_DN66612_c1_g3   -            337 70143at3193          -            439     0.018   15.5   0.0   1   1   7.5e-05     0.029   14.8   0.0   270   353   247   331   239   336 0.91 -
JF1J_TRINITY_DN61971_c0_g2_i1.p1JF1J_TRINITY_DN61971_c0_g2   -            125 70143at3193          -            439     0.027   15.0   0.0   1   1     7e-05     0.027   15.0   0.0    82   121    14    53     3   107 0.87 -
JF2A_TRINITY_DN37844_c0_g1_i2.p1JF2A_TRINITY_DN37844_c0_g1   -            166 70143at3193          -            439     0.036   14.5   0.0   1   1    0.0001     0.039   14.4   0.0    41    81    49    89    38   138 0.80 -
JF2A_TRINITY_DN12124_c0_g1_i1.p1JF2A_TRINITY_DN12124_c0_g1   -            174 70143at3193          -            439      0.04   14.4   0.0   1   1   0.00011     0.041   14.3   0.0    73   146    32   101    11   166 0.72 -
JF1J_TRINITY_DN70981_c2_g1_i1.p1JF1J_TRINITY_DN70981_c2_g1   -            112 70143at3193          -            439     0.057   13.9   0.0   1   1   0.00015     0.057   13.9   0.0   221   293    28    99    10   112 0.76 -
JF1A_TRINITY_DN68113_c2_g2_i13.p1JF1A_TRINITY_DN68113_c2_g2  -           1091 70143at3193          -            439     0.079   13.4   0.1   1   1   0.00052       0.2   12.1   0.1   282   386   508   622   499   650 0.77 -
JF2J_TRINITY_DN24959_c0_g1_i19.p1JF2J_TRINITY_DN24959_c0_g1  -            124 70143at3193          -            439     0.086   13.3   0.1   1   1   0.00026       0.1   13.0   0.1   234   307    33   108    21   113 0.75 -
JF1A_TRINITY_DN64932_c1_g2_i1.p1JF1A_TRINITY_DN64932_c1_g2   -            109 70143at3193          -            439      0.12   12.8   0.0   1   1   0.00034      0.13   12.7   0.0    42    80    64   102    42   107 0.91 -
JF1A_TRINITY_DN74255_c0_g1_i1.p1JF1A_TRINITY_DN74255_c0_g1   -            148 70143at3193          -            439      0.29   11.5   0.1   1   1    0.0012      0.46   10.9   0.0   380   411     1    32     1    52 0.85 -
JF1A_TRINITY_DN63599_c9_g2_i2.p1JF1A_TRINITY_DN63599_c9_g2   -            385 70143at3193          -            439      0.32   11.4   0.0   1   1    0.0014      0.54   10.6   0.0   297   370    14    87     2   102 0.91 -
JF2A_TRINITY_DN33126_c0_g1_i1.p1JF2A_TRINITY_DN33126_c0_g1   -            136 70143at3193          -            439      0.56   10.6   0.0   1   1    0.0017      0.63   10.4   0.0   256   347    22   115    10   126 0.82 -
#
# Program:         hmmsearch
# Version:         3.2.1 (June 2018)
# Pipeline mode:   SEARCH
# Query file:      /isg/shared/databases/BUSCO/odb10/embryophyta_odb10/hmms/70143at3193.hmm
# Target file:     Juniper_final_annotations_no_contam_lvl0.faa
# Option settings: /usr/local/bin/hmmsearch --domtblout /labs/Wegrzyn/Juniper_Pine/BUSCO/NEW/busco_juniper/run_embryophyta_odb10/hmmer_output/70143at3193.out --cpu 1 /isg/shared/databases/BUSCO/odb10/embryophyta_odb10/hmms/70143at3193.hmm Juniper_final_annotations_no_contam_lvl0.faa 
# Current dir:     /labs/Wegrzyn/Juniper_Pine/BUSCO/NEW
# Date:            Thu Aug  6 16:35:15 2020
# [ok]
