#                                                                                                                  --- full sequence --- -------------- this domain -------------   hmm coord   ali coord   env coord
# target name                                              accession   tlen query name           accession   qlen   E-value  score  bias   #  of  c-Evalue  i-Evalue  score  bias  from    to  from    to  from    to  acc description of target
#                                      ------------------- ---------- ----- -------------------- ---------- ----- --------- ------ ----- --- --- --------- --------- ------ ----- ----- ----- ----- ----- ----- ----- ---- ---------------------
JF1A_TRINITY_DN59312_c0_g3_i2.p1JF1A_TRINITY_DN59312_c0_g3 -            229 72761at3193          -            386   7.6e-73  247.5   1.6   1   1   1.7e-76   1.5e-72  246.5   1.6     1   182     3   219     3   229 0.88 -
JF1A_TRINITY_DN59312_c0_g4_i1.p1JF1A_TRINITY_DN59312_c0_g4 -            171 72761at3193          -            386   2.8e-30  107.3  11.9   1   2   3.7e-25   3.2e-21   77.5   4.5   251   312     1    78     1    86 0.85 -
JF1A_TRINITY_DN59312_c0_g4_i1.p1JF1A_TRINITY_DN59312_c0_g4 -            171 72761at3193          -            386   2.8e-30  107.3  11.9   2   2   2.4e-10   2.1e-06   28.7   0.7   311   355   106   150   101   170 0.81 -
JF1J_TRINITY_DN62289_c5_g1_i1.p1JF1J_TRINITY_DN62289_c5_g1 -            101 72761at3193          -            386     1e-29  105.5   0.0   1   1   1.3e-33   1.1e-29  105.3   0.0    33   105    28   100    17   100 0.94 -
JF2A_TRINITY_DN3434_c0_g1_i1.p1JF2A_TRINITY_DN3434_c0_g1   -            143 72761at3193          -            386   1.5e-23   85.2   0.2   1   1   2.9e-27   2.5e-23   84.4   0.2   105   189    30   143    18   143 0.84 -
JF3A_TRINITY_DN5032_c0_g1_i1.p1JF3A_TRINITY_DN5032_c0_g1   -            107 72761at3193          -            386      0.05   14.3   0.0   1   1   7.1e-06     0.061   14.0   0.0    83   136    22    73     3    80 0.78 -
JF1A_TRINITY_DN67885_c4_g1_i2.p1JF1A_TRINITY_DN67885_c4_g1 -            125 72761at3193          -            386       0.1   13.3   0.2   1   1   1.4e-05      0.12   13.1   0.2   229   292     8    77     3   107 0.79 -
JF2J_TRINITY_DN29203_c2_g1_i1.p1JF2J_TRINITY_DN29203_c2_g1 -            129 72761at3193          -            386      0.16   12.6   0.0   1   1   2.5e-05      0.22   12.2   0.0    83   136    42    93    34    96 0.84 -
JF1A_TRINITY_DN64732_c0_g1_i3.p1JF1A_TRINITY_DN64732_c0_g1 -            136 72761at3193          -            386      0.56   10.9   2.0   1   2     0.041   3.6e+02    1.6   0.2   241   262     6    28     2    33 0.82 -
JF1A_TRINITY_DN64732_c0_g1_i3.p1JF1A_TRINITY_DN64732_c0_g1 -            136 72761at3193          -            386      0.56   10.9   2.0   2   2   0.00025       2.2    8.9   0.1   223   262    38    80    32    88 0.82 -
#
# Program:         hmmsearch
# Version:         3.2.1 (June 2018)
# Pipeline mode:   SEARCH
# Query file:      /isg/shared/databases/BUSCO/odb10/embryophyta_odb10/hmms/72761at3193.hmm
# Target file:     Juniper_final_annotations_no_contam_lvl0.faa
# Option settings: /usr/local/bin/hmmsearch --domtblout /labs/Wegrzyn/Juniper_Pine/BUSCO/NEW/busco_juniper/run_embryophyta_odb10/hmmer_output/72761at3193.out --cpu 1 /isg/shared/databases/BUSCO/odb10/embryophyta_odb10/hmms/72761at3193.hmm Juniper_final_annotations_no_contam_lvl0.faa 
# Current dir:     /labs/Wegrzyn/Juniper_Pine/BUSCO/NEW
# Date:            Thu Aug  6 16:35:37 2020
# [ok]
