#                                                                                                                  --- full sequence --- -------------- this domain -------------   hmm coord   ali coord   env coord
# target name                                              accession   tlen query name           accession   qlen   E-value  score  bias   #  of  c-Evalue  i-Evalue  score  bias  from    to  from    to  from    to  acc description of target
#                                      ------------------- ---------- ----- -------------------- ---------- ----- --------- ------ ----- --- --- --------- --------- ------ ----- ----- ----- ----- ----- ----- ----- ---- ---------------------
JF1A_TRINITY_DN63386_c2_g1_i3.p1JF1A_TRINITY_DN63386_c2_g1 -            202 74392at3193          -            370   5.7e-53  182.2   0.0   1   1   9.6e-57   7.4e-53  181.8   0.0     1   118    68   202    68   202 0.92 -
JF1A_TRINITY_DN18109_c0_g1_i1.p1JF1A_TRINITY_DN18109_c0_g1 -            162 74392at3193          -            370   1.4e-52  180.9   4.7   1   1   1.1e-55   8.6e-52  178.3   4.7   239   369     1   158     1   159 0.88 -
JF1A_TRINITY_DN63159_c0_g4_i3.p1JF1A_TRINITY_DN63159_c0_g4 -            342 74392at3193          -            370   3.3e-44  153.3   0.0   1   1   5.5e-48   4.2e-44  153.0   0.0     7   288    28   333    22   339 0.84 -
JF3J_TRINITY_DN63700_c1_g1_i1.p1JF3J_TRINITY_DN63700_c1_g1 -            157 74392at3193          -            370   9.4e-17   63.0   0.0   1   1   1.4e-20   1.1e-16   62.8   0.0   147   230    40   124     3   144 0.76 -
JF1A_TRINITY_DN63159_c0_g3_i2.p1JF1A_TRINITY_DN63159_c0_g3 -            114 74392at3193          -            370   3.1e-06   28.4   0.0   1   1   4.3e-10   3.3e-06   28.3   0.0   293   360    31    97     9   107 0.77 -
JF1A_TRINITY_DN63159_c0_g4_i1.p1JF1A_TRINITY_DN63159_c0_g4 -            143 74392at3193          -            370   0.00016   22.8   0.0   1   1   2.7e-08   0.00021   22.4   0.0   209   289    58   135    54   140 0.84 -
JF3J_TRINITY_DN63700_c1_g1_i3.p1JF3J_TRINITY_DN63700_c1_g1 -            155 74392at3193          -            370   0.00061   20.9   0.0   1   1   8.6e-08   0.00066   20.7   0.0   210   281    17    85    11   129 0.84 -
JF1A_TRINITY_DN46600_c1_g1_i1.p1JF1A_TRINITY_DN46600_c1_g1 -            123 74392at3193          -            370      0.02   15.9   0.0   1   1   2.8e-06     0.022   15.7   0.0   185   261    27    98    13   111 0.82 -
JF1J_TRINITY_DN62544_c1_g1_i2.p1JF1J_TRINITY_DN62544_c1_g1 -            132 74392at3193          -            370     0.065   14.2   0.0   1   1   8.9e-06     0.069   14.1   0.0   329   360    84   115    42   125 0.78 -
#
# Program:         hmmsearch
# Version:         3.2.1 (June 2018)
# Pipeline mode:   SEARCH
# Query file:      /isg/shared/databases/BUSCO/odb10/embryophyta_odb10/hmms/74392at3193.hmm
# Target file:     Juniper_final_annotations_no_contam_lvl0.faa
# Option settings: /usr/local/bin/hmmsearch --domtblout /labs/Wegrzyn/Juniper_Pine/BUSCO/NEW/busco_juniper/run_embryophyta_odb10/hmmer_output/74392at3193.out --cpu 1 /isg/shared/databases/BUSCO/odb10/embryophyta_odb10/hmms/74392at3193.hmm Juniper_final_annotations_no_contam_lvl0.faa 
# Current dir:     /labs/Wegrzyn/Juniper_Pine/BUSCO/NEW
# Date:            Thu Aug  6 16:35:57 2020
# [ok]
