#                                                                                                                  --- full sequence --- -------------- this domain -------------   hmm coord   ali coord   env coord
# target name                                              accession   tlen query name           accession   qlen   E-value  score  bias   #  of  c-Evalue  i-Evalue  score  bias  from    to  from    to  from    to  acc description of target
#                                      ------------------- ---------- ----- -------------------- ---------- ----- --------- ------ ----- --- --- --------- --------- ------ ----- ----- ----- ----- ----- ----- ----- ---- ---------------------
JF1A_TRINITY_DN62035_c0_g3_i2.p1JF1A_TRINITY_DN62035_c0_g3 -            250 7511at3193           -            739   8.2e-93  314.3   0.9   1   1   3.8e-95   1.5e-91  310.1   0.9   300   515     1   242     1   247 0.85 -
JF1J_TRINITY_DN9027_c0_g1_i1.p1JF1J_TRINITY_DN9027_c0_g1   -            103 7511at3193           -            739   1.5e-60  207.6   0.6   1   1   3.9e-64   1.6e-60  207.5   0.6   160   259     1   100     1   103 0.99 -
JF1A_TRINITY_DN63618_c1_g1_i1.p1JF1A_TRINITY_DN63618_c1_g1 -            157 7511at3193           -            739   3.5e-32  113.8   1.0   1   1   1.1e-35   4.4e-32  113.5   1.0   233   342     1   108     1   116 0.88 -
JF1A_TRINITY_DN63059_c0_g2_i1.p1JF1A_TRINITY_DN63059_c0_g2 -            168 7511at3193           -            739   1.7e-24   88.4   0.6   1   2   2.8e-17   1.1e-13   52.6   0.0   542   623     3    85     1    98 0.89 -
JF1A_TRINITY_DN63059_c0_g2_i1.p1JF1A_TRINITY_DN63059_c0_g2 -            168 7511at3193           -            739   1.7e-24   88.4   0.6   2   2   7.8e-12   3.2e-08   34.6   0.2   586   635    99   148    91   157 0.92 -
JF1A_TRINITY_DN73641_c0_g1_i1.p1JF1A_TRINITY_DN73641_c0_g1 -            102 7511at3193           -            739   3.4e-09   37.8   2.1   1   1   9.9e-13     4e-09   37.6   2.1   299   342    42    85    32    96 0.91 -
JF1A_TRINITY_DN61776_c1_g4_i2.p1JF1A_TRINITY_DN61776_c1_g4 -            179 7511at3193           -            739   1.3e-06   29.3   0.1   1   2   0.00021      0.84   10.1   0.0    23    54    21    52    15    58 0.91 -
JF1A_TRINITY_DN61776_c1_g4_i2.p1JF1A_TRINITY_DN61776_c1_g4 -            179 7511at3193           -            739   1.3e-06   29.3   0.1   2   2   1.1e-06    0.0047   17.5   0.0    11    55    70   116    63   151 0.79 -
JF1A_TRINITY_DN65054_c1_g4_i3.p1JF1A_TRINITY_DN65054_c1_g4 -            119 7511at3193           -            739   2.3e-06   28.5   2.1   1   1   1.3e-09   5.5e-06   27.2   2.1    46   137     2   116     1   119 0.71 -
JF1A_TRINITY_DN68589_c0_g8_i1.p1JF1A_TRINITY_DN68589_c0_g8 -            218 7511at3193           -            739   1.7e-05   25.6   0.5   1   1   1.3e-08   5.1e-05   24.0   0.5   215   323    51   181    38   203 0.69 -
JF1A_TRINITY_DN66671_c2_g2_i2.p1JF1A_TRINITY_DN66671_c2_g2 -            108 7511at3193           -            739   3.2e-05   24.7   0.0   1   1   9.4e-09   3.8e-05   24.4   0.0   102   175    13   100     2   103 0.77 -
JF1A_TRINITY_DN618_c0_g1_i1.p1JF1A_TRINITY_DN618_c0_g1     -            154 7511at3193           -            739    0.0044   17.6   0.0   1   1   1.4e-06    0.0057   17.2   0.0   299   346    96   142    77   148 0.84 -
JF1A_TRINITY_DN61776_c1_g4_i3.p1JF1A_TRINITY_DN61776_c1_g4 -            318 7511at3193           -            739     0.011   16.3   0.0   1   1   3.4e-06     0.014   15.9   0.0    12    55   210   255   203   290 0.80 -
JF1J_TRINITY_DN63176_c3_g4_i3.p1JF1J_TRINITY_DN63176_c3_g4 -            129 7511at3193           -            739     0.013   16.0   0.0   1   1     4e-06     0.016   15.7   0.0   299   345    22    67     9    80 0.86 -
JF1A_TRINITY_DN67586_c2_g3_i3.p1JF1A_TRINITY_DN67586_c2_g3 -            243 7511at3193           -            739     0.017   15.7   0.0   1   1   4.6e-06     0.019   15.5   0.0   299   341   124   166   110   223 0.89 -
JF1A_TRINITY_DN58398_c0_g2_i2.p1JF1A_TRINITY_DN58398_c0_g2 -            164 7511at3193           -            739     0.021   15.3   0.0   1   1   6.4e-06     0.026   15.1   0.0   299   345    72   117    58   132 0.86 -
JF1J_TRINITY_DN69336_c3_g1_i2.p1JF1J_TRINITY_DN69336_c3_g1 -            128 7511at3193           -            739     0.022   15.3   0.0   1   1     6e-06     0.024   15.1   0.0    13    81    34   105    26   125 0.85 -
JF2A_TRINITY_DN39348_c0_g3_i1.p1JF2A_TRINITY_DN39348_c0_g3 -            211 7511at3193           -            739     0.077   13.5   0.0   1   1   2.4e-05       0.1   13.1   0.0    13    80    57   127    49   138 0.85 -
JF1A_TRINITY_DN62630_c3_g3_i4.p1JF1A_TRINITY_DN62630_c3_g3 -            226 7511at3193           -            739     0.089   13.3   0.0   1   1   2.8e-05      0.12   12.9   0.0    13    80    60   130    52   141 0.85 -
#
# Program:         hmmsearch
# Version:         3.2.1 (June 2018)
# Pipeline mode:   SEARCH
# Query file:      /isg/shared/databases/BUSCO/odb10/embryophyta_odb10/hmms/7511at3193.hmm
# Target file:     Juniper_final_annotations_no_contam_lvl0.faa
# Option settings: /usr/local/bin/hmmsearch --domtblout /labs/Wegrzyn/Juniper_Pine/BUSCO/NEW/busco_juniper/run_embryophyta_odb10/hmmer_output/7511at3193.out --cpu 1 /isg/shared/databases/BUSCO/odb10/embryophyta_odb10/hmms/7511at3193.hmm Juniper_final_annotations_no_contam_lvl0.faa 
# Current dir:     /labs/Wegrzyn/Juniper_Pine/BUSCO/NEW
# Date:            Thu Aug  6 16:36:10 2020
# [ok]
