#                                                                                                                   --- full sequence --- -------------- this domain -------------   hmm coord   ali coord   env coord
# target name                                               accession   tlen query name           accession   qlen   E-value  score  bias   #  of  c-Evalue  i-Evalue  score  bias  from    to  from    to  from    to  acc description of target
#                                       ------------------- ---------- ----- -------------------- ---------- ----- --------- ------ ----- --- --- --------- --------- ------ ----- ----- ----- ----- ----- ----- ----- ---- ---------------------
JF2J_TRINITY_DN29507_c1_g1_i14.p1JF2J_TRINITY_DN29507_c1_g1 -            465 75889at3193          -            344  3.2e-102  343.8   0.2   1   1    1e-105    4e-102  343.5   0.2    28   342   106   443    83   445 0.83 -
JF2J_TRINITY_DN29507_c1_g1_i2.p1JF2J_TRINITY_DN29507_c1_g1  -            260 75889at3193          -            344   6.9e-90  303.3   0.0   1   1   2.3e-93     9e-90  302.9   0.0    81   294    18   231    10   235 0.96 -
JF3A_TRINITY_DN59559_c1_g1_i13.p1JF3A_TRINITY_DN59559_c1_g1 -            229 75889at3193          -            344   3.2e-76  258.3   0.1   1   1   1.1e-79   4.1e-76  258.0   0.1    97   281    42   225    32   227 0.95 -
JF1A_TRINITY_DN68705_c3_g3_i3.p1JF1A_TRINITY_DN68705_c3_g3  -            140 75889at3193          -            344   3.3e-65  222.1   0.6   1   1     1e-68   3.9e-65  221.9   0.6    82   191    29   140    20   140 0.96 -
JF1A_TRINITY_DN68705_c3_g4_i1.p1JF1A_TRINITY_DN68705_c3_g4  -            112 75889at3193          -            344   1.6e-61  210.0   0.4   1   1   4.5e-65   1.7e-61  209.9   0.4   197   301     1   106     1   112 0.94 -
JF3J_TRINITY_DN69920_c0_g1_i1.p1JF3J_TRINITY_DN69920_c0_g1  -            104 75889at3193          -            344   2.9e-50  173.0   1.8   1   1     5e-52   1.9e-48  167.0   1.8    69   178     7    99     3   104 0.96 -
JF1A_TRINITY_DN59533_c1_g1_i2.p1JF1A_TRINITY_DN59533_c1_g1  -            149 75889at3193          -            344   8.7e-38  132.0   0.0   1   1   2.4e-41   9.4e-38  131.8   0.0   197   333     1   147     1   149 0.84 -
JF2J_TRINITY_DN29507_c1_g1_i12.p1JF2J_TRINITY_DN29507_c1_g1 -            120 75889at3193          -            344   2.3e-31  110.9   0.0   1   1   6.9e-35   2.7e-31  110.6   0.0   215   294    19    98    10   113 0.94 -
JF3J_TRINITY_DN69920_c0_g1_i2.p1JF3J_TRINITY_DN69920_c0_g1  -            100 75889at3193          -            344     1e-30  108.7   0.0   1   1   2.6e-34     1e-30  108.7   0.0   121   178    38    95    18   100 0.93 -
JF3J_TRINITY_DN25413_c0_g1_i1.p1JF3J_TRINITY_DN25413_c0_g1  -            124 75889at3193          -            344   1.4e-29  104.9   0.5   1   1   4.5e-33   1.7e-29  104.7   0.5     2    63    62   124    61   124 0.97 -
JF3A_TRINITY_DN59559_c1_g1_i11.p1JF3A_TRINITY_DN59559_c1_g1 -            129 75889at3193          -            344   3.4e-24   87.3   0.1   1   2   1.2e-12   4.5e-09   37.5   0.0   216   240     5    29     2    30 0.94 -
JF3A_TRINITY_DN59559_c1_g1_i11.p1JF3A_TRINITY_DN59559_c1_g1 -            129 75889at3193          -            344   3.4e-24   87.3   0.1   2   2   5.7e-16   2.2e-12   48.4   0.0   261   335    30   115    28   118 0.82 -
JF1J_TRINITY_DN69093_c3_g2_i3.p1JF1J_TRINITY_DN69093_c3_g2  -            173 75889at3193          -            344     1e-17   65.9   0.0   1   1   3.7e-21   1.4e-17   65.5   0.0   235   294     1    60     1    66 0.96 -
JF2J_TRINITY_DN29507_c1_g1_i25.p1JF2J_TRINITY_DN29507_c1_g1 -            130 75889at3193          -            344   2.1e-17   64.9   0.0   1   1   6.2e-21   2.4e-17   64.7   0.0   241   316    18    96     7   111 0.89 -
JF3A_TRINITY_DN59317_c0_g1_i10.p1JF3A_TRINITY_DN59317_c0_g1 -            142 75889at3193          -            344   1.6e-12   48.8   0.0   1   1   4.8e-16   1.9e-12   48.7   0.0     8   107    25   132    18   141 0.72 -
JF2A_TRINITY_DN42636_c1_g1_i18.p1JF2A_TRINITY_DN42636_c1_g1 -            119 75889at3193          -            344   5.1e-07   30.8   0.0   1   1   1.6e-10     6e-07   30.6   0.0   276   343    17    98    11    99 0.76 -
JF3A_TRINITY_DN57104_c0_g1_i3.p1JF3A_TRINITY_DN57104_c0_g1  -            172 75889at3193          -            344     0.029   15.2   0.0   1   2    0.0028        11    6.7   0.0   219   243    13    37     7    58 0.86 -
JF3A_TRINITY_DN57104_c0_g1_i3.p1JF3A_TRINITY_DN57104_c0_g1  -            172 75889at3193          -            344     0.029   15.2   0.0   2   2    0.0029        11    6.6   0.0   219   243   105   129    98   157 0.89 -
JF3J_TRINITY_DN64032_c2_g3_i4.p1JF3J_TRINITY_DN64032_c2_g3  -            132 75889at3193          -            344     0.034   14.9   0.0   1   1     1e-05     0.038   14.7   0.0   101   179    33   115    16   128 0.80 -
JF1A_TRINITY_DN64737_c0_g2_i6.p1JF1A_TRINITY_DN64737_c0_g2  -            591 75889at3193          -            344      0.25   12.1   0.0   1   1   0.00014      0.54   11.0   0.0   101   180   264   347   244   378 0.80 -
#
# Program:         hmmsearch
# Version:         3.2.1 (June 2018)
# Pipeline mode:   SEARCH
# Query file:      /isg/shared/databases/BUSCO/odb10/embryophyta_odb10/hmms/75889at3193.hmm
# Target file:     Juniper_final_annotations_no_contam_lvl0.faa
# Option settings: /usr/local/bin/hmmsearch --domtblout /labs/Wegrzyn/Juniper_Pine/BUSCO/NEW/busco_juniper/run_embryophyta_odb10/hmmer_output/75889at3193.out --cpu 1 /isg/shared/databases/BUSCO/odb10/embryophyta_odb10/hmms/75889at3193.hmm Juniper_final_annotations_no_contam_lvl0.faa 
# Current dir:     /labs/Wegrzyn/Juniper_Pine/BUSCO/NEW
# Date:            Thu Aug  6 16:36:27 2020
# [ok]
