#                                                                                                                   --- full sequence --- -------------- this domain -------------   hmm coord   ali coord   env coord
# target name                                               accession   tlen query name           accession   qlen   E-value  score  bias   #  of  c-Evalue  i-Evalue  score  bias  from    to  from    to  from    to  acc description of target
#                                       ------------------- ---------- ----- -------------------- ---------- ----- --------- ------ ----- --- --- --------- --------- ------ ----- ----- ----- ----- ----- ----- ----- ---- ---------------------
JF1A_TRINITY_DN65254_c0_g1_i1.p1JF1A_TRINITY_DN65254_c0_g1  -            207 76883at3193          -            395  3.9e-116  389.9   0.1   1   1  1.4e-118  4.5e-116  389.7   0.1   150   340     1   191     1   205 0.98 -
JF1A_TRINITY_DN67271_c1_g2_i1.p1JF1A_TRINITY_DN67271_c1_g2  -            439 76883at3193          -            395   1.7e-88  298.9   0.0   1   2     1e-88   3.5e-86  291.3   0.0   102   345   110   353   106   364 0.96 -
JF1A_TRINITY_DN67271_c1_g2_i1.p1JF1A_TRINITY_DN67271_c1_g2  -            439 76883at3193          -            395   1.7e-88  298.9   0.0   2   2     0.088        29    5.1   0.0   364   394   406   436   396   437 0.92 -
JF1A_TRINITY_DN63416_c2_g3_i5.p1JF1A_TRINITY_DN63416_c2_g3  -            349 76883at3193          -            395   2.3e-86  291.9   0.0   1   1   9.3e-89   3.1e-86  291.5   0.0   105   343   112   349   103   349 0.95 -
JF2A_TRINITY_DN42163_c1_g1_i3.p1JF2A_TRINITY_DN42163_c1_g1  -            667 76883at3193          -            395   2.2e-81  275.5   0.2   1   1   2.6e-83   8.6e-81  273.6   0.1   119   393   359   652   325   654 0.88 -
JF1A_TRINITY_DN68460_c0_g1_i17.p1JF1A_TRINITY_DN68460_c0_g1 -           1265 76883at3193          -            395   2.7e-81  275.2   0.4   1   2       1.7   5.6e+02    0.9   0.0   130   195   457   529   428   539 0.72 -
JF1A_TRINITY_DN68460_c0_g1_i17.p1JF1A_TRINITY_DN68460_c0_g1 -           1265 76883at3193          -            395   2.7e-81  275.2   0.4   2   2   1.4e-82   4.7e-80  271.1   0.2   120   393   958  1250   924  1252 0.89 -
JF1A_TRINITY_DN63416_c2_g3_i3.p1JF1A_TRINITY_DN63416_c2_g3  -            291 76883at3193          -            395   2.5e-75  255.6   0.0   1   1     1e-77   3.4e-75  255.2   0.0   147   343    96   291    88   291 0.94 -
JF2A_TRINITY_DN39346_c0_g1_i1.p1JF2A_TRINITY_DN39346_c0_g1  -            362 76883at3193          -            395   1.1e-74  253.5   0.0   1   1     4e-77   1.3e-74  253.2   0.0   118   376    52   313    15   330 0.91 -
JF1A_TRINITY_DN64102_c1_g1_i14.p1JF1A_TRINITY_DN64102_c1_g1 -            274 76883at3193          -            395   9.1e-74  250.4   0.0   1   1   3.2e-76     1e-73  250.3   0.0   146   393     3   259     1   261 0.91 -
JF1A_TRINITY_DN65254_c0_g1_i10.p1JF1A_TRINITY_DN65254_c0_g1 -            142 76883at3193          -            395   2.8e-73  248.8   0.1   1   1   9.4e-76   3.1e-73  248.7   0.1   255   394     1   140     1   141 0.99 -
JF2A_TRINITY_DN39826_c0_g1_i5.p1JF2A_TRINITY_DN39826_c0_g1  -            402 76883at3193          -            395   9.4e-73  247.1   0.1   1   1   3.6e-75   1.2e-72  246.8   0.1   103   378    60   339    18   356 0.88 -
JF1A_TRINITY_DN68361_c1_g2_i15.p1JF1A_TRINITY_DN68361_c1_g2 -            535 76883at3193          -            395   1.4e-67  230.1   0.0   1   2     3e-13   9.8e-11   42.9   0.0   284   380    97   198    88   203 0.78 -
JF1A_TRINITY_DN68361_c1_g2_i15.p1JF1A_TRINITY_DN68361_c1_g2 -            535 76883at3193          -            395   1.4e-67  230.1   0.0   2   2   1.5e-56   4.9e-54  185.5   0.0   115   388   200   490   195   497 0.84 -
JF1A_TRINITY_DN67234_c3_g2_i19.p1JF1A_TRINITY_DN67234_c3_g2 -            433 76883at3193          -            395   8.5e-64  217.6   0.0   1   2   2.7e-17   8.8e-15   56.2   0.0   105   191   118   205    40   209 0.91 -
JF1A_TRINITY_DN67234_c3_g2_i19.p1JF1A_TRINITY_DN67234_c3_g2 -            433 76883at3193          -            395   8.5e-64  217.6   0.0   2   2   1.3e-48   4.1e-46  159.4   0.0   149   349   211   415   206   424 0.87 -
JF2A_TRINITY_DN40319_c0_g3_i2.p1JF2A_TRINITY_DN40319_c0_g3  -            239 76883at3193          -            395   8.5e-63  214.3   0.0   1   1   3.1e-65     1e-62  214.0   0.0   163   346     1   184     1   195 0.96 -
JF2A_TRINITY_DN40851_c0_g1_i4.p1JF2A_TRINITY_DN40851_c0_g1  -            340 76883at3193          -            395   6.4e-53  181.8   0.1   1   1   2.5e-55   8.3e-53  181.4   0.1   107   350    64   311    54   334 0.89 -
JF1A_TRINITY_DN65956_c1_g1_i9.p1JF1A_TRINITY_DN65956_c1_g1  -            418 76883at3193          -            395   8.7e-52  178.1   0.0   1   1     4e-54   1.3e-51  177.5   0.0   111   351   151   394   144   415 0.91 -
JF1A_TRINITY_DN65729_c0_g3_i1.p1JF1A_TRINITY_DN65729_c0_g3  -            324 76883at3193          -            395   5.8e-51  175.4   0.0   1   1   2.1e-53   6.8e-51  175.1   0.0   110   271   156   320    83   323 0.90 -
JF1A_TRINITY_DN64558_c1_g3_i5.p1JF1A_TRINITY_DN64558_c1_g3  -            384 76883at3193          -            395   9.6e-51  174.6   0.2   1   1   3.9e-53   1.3e-50  174.2   0.2   108   358   112   365    98   374 0.89 -
JF3J_TRINITY_DN68773_c0_g4_i5.p1JF3J_TRINITY_DN68773_c0_g4  -            211 76883at3193          -            395   1.2e-50  174.3   0.1   1   1   4.5e-53   1.5e-50  174.0   0.1   187   348     1   162     1   174 0.95 -
JF1A_TRINITY_DN64558_c1_g1_i1.p1JF1A_TRINITY_DN64558_c1_g1  -            452 76883at3193          -            395   1.2e-50  174.3   0.1   1   1   5.2e-53   1.7e-50  173.8   0.1   109   358   181   433   166   442 0.89 -
JF1A_TRINITY_DN64470_c5_g2_i3.p1JF1A_TRINITY_DN64470_c5_g2  -            399 76883at3193          -            395   2.1e-50  173.6   0.0   1   1   1.3e-52   4.3e-50  172.5   0.0   100   349   114   366    42   397 0.83 -
JF1J_TRINITY_DN63573_c0_g1_i4.p1JF1J_TRINITY_DN63573_c0_g1  -            145 76883at3193          -            395   3.4e-47  162.9   0.0   1   2   1.1e-47   3.6e-45  156.3   0.0   151   273     3   125     1   127 0.95 -
JF1J_TRINITY_DN63573_c0_g1_i4.p1JF1J_TRINITY_DN63573_c0_g1  -            145 76883at3193          -            395   3.4e-47  162.9   0.0   2   2     0.051        17    5.9   0.0   239   258   125   144   124   145 0.89 -
JF1A_TRINITY_DN62321_c4_g2_i1.p1JF1A_TRINITY_DN62321_c4_g2  -            371 76883at3193          -            395   2.8e-45  156.6   0.1   1   1   1.1e-47   3.7e-45  156.2   0.1   120   354    79   313    72   339 0.89 -
JF1A_TRINITY_DN64600_c1_g5_i14.p1JF1A_TRINITY_DN64600_c1_g5 -            549 76883at3193          -            395   8.6e-44  151.7   0.1   1   1   3.9e-46   1.3e-43  151.2   0.1   119   344   237   467   222   483 0.89 -
JF3J_TRINITY_DN70828_c1_g1_i4.p1JF3J_TRINITY_DN70828_c1_g1  -            445 76883at3193          -            395   2.7e-43  150.1   0.0   1   1   1.1e-45   3.5e-43  149.7   0.0    83   346   138   411   104   428 0.85 -
JF1A_TRINITY_DN68569_c3_g1_i15.p1JF1A_TRINITY_DN68569_c3_g1 -            695 76883at3193          -            395   5.9e-43  149.0   0.3   1   1   4.4e-45   1.5e-42  147.7   0.0   120   351   230   463   223   473 0.89 -
JF1J_TRINITY_DN70381_c0_g1_i11.p1JF1J_TRINITY_DN70381_c0_g1 -            427 76883at3193          -            395   7.6e-43  148.6   0.0   1   1   3.4e-45   1.1e-42  148.1   0.0   111   346   155   393   135   410 0.90 -
JF2J_TRINITY_DN25089_c1_g2_i2.p1JF2J_TRINITY_DN25089_c1_g2  -            299 76883at3193          -            395   2.7e-42  146.8   0.0   1   1   1.1e-44   3.6e-42  146.4   0.0   120   343    52   277    44   286 0.90 -
JF1A_TRINITY_DN62386_c0_g2_i1.p1JF1A_TRINITY_DN62386_c0_g2  -            350 76883at3193          -            395   1.3e-41  144.6   0.2   1   2   2.2e-07   7.1e-05   23.6   0.0   309   345     2    38     1    57 0.88 -
JF1A_TRINITY_DN62386_c0_g2_i1.p1JF1A_TRINITY_DN62386_c0_g2  -            350 76883at3193          -            395   1.3e-41  144.6   0.2   2   2   3.2e-36     1e-33  118.6   0.0   113   255   157   302   100   314 0.90 -
JF1J_TRINITY_DN72926_c1_g1_i14.p1JF1J_TRINITY_DN72926_c1_g1 -            241 76883at3193          -            395   1.3e-41  144.6   0.0   1   2   5.4e-11   1.8e-08   35.5   0.1   313   380     6    79     2    84 0.78 -
JF1J_TRINITY_DN72926_c1_g1_i14.p1JF1J_TRINITY_DN72926_c1_g1 -            241 76883at3193          -            395   1.3e-41  144.6   0.0   2   2   5.1e-33   1.7e-30  108.0   0.0   115   239    81   206    75   222 0.91 -
JF1A_TRINITY_DN60479_c3_g4_i2.p1JF1A_TRINITY_DN60479_c3_g4  -            289 76883at3193          -            395   2.3e-41  143.8   0.0   1   1   8.9e-44   2.9e-41  143.4   0.0   119   337    57   281    48   285 0.90 -
JF1A_TRINITY_DN64470_c5_g2_i2.p1JF1A_TRINITY_DN64470_c5_g2  -            304 76883at3193          -            395   3.9e-41  143.0   0.0   1   2     4e-31   1.3e-28  101.8   0.0   100   232   114   247    65   251 0.80 -
JF1A_TRINITY_DN64470_c5_g2_i2.p1JF1A_TRINITY_DN64470_c5_g2  -            304 76883at3193          -            395   3.9e-41  143.0   0.0   2   2   6.4e-12   2.1e-09   38.5   0.0   155   192   266   303   258   304 0.92 -
JF2A_TRINITY_DN41603_c1_g3_i1.p1JF2A_TRINITY_DN41603_c1_g3  -            375 76883at3193          -            395   5.3e-40  139.3   0.0   1   1   2.1e-42   6.9e-40  138.9   0.0   113   343    74   302    70   342 0.90 -
JF1A_TRINITY_DN67138_c0_g2_i2.p1JF1A_TRINITY_DN67138_c0_g2  -            653 76883at3193          -            395   8.6e-40  138.6   0.0   1   1     4e-42   1.3e-39  138.0   0.0   121   350   169   402   157   424 0.87 -
JF1A_TRINITY_DN66740_c1_g5_i2.p1JF1A_TRINITY_DN66740_c1_g5  -            155 76883at3193          -            395   1.4e-39  137.9   0.1   1   1   4.8e-42   1.6e-39  137.7   0.1   203   348     5   150     2   155 0.94 -
JF1A_TRINITY_DN68323_c1_g2_i20.p1JF1A_TRINITY_DN68323_c1_g2 -            664 76883at3193          -            395     2e-39  137.4   0.0   1   1   9.1e-42     3e-39  136.8   0.0   113   343   305   533   301   568 0.90 -
JF1A_TRINITY_DN63916_c0_g1_i7.p1JF1A_TRINITY_DN63916_c0_g1  -            393 76883at3193          -            395   2.7e-39  136.9   0.0   1   1   1.1e-41   3.5e-39  136.6   0.0   120   351   101   337    86   362 0.87 -
JF1A_TRINITY_DN64717_c3_g1_i5.p1JF1A_TRINITY_DN64717_c3_g1  -            635 76883at3193          -            395   3.8e-39  136.4   0.2   1   2       0.2        66    4.0   0.0   115   146    21    52    18    69 0.85 -
JF1A_TRINITY_DN64717_c3_g1_i5.p1JF1A_TRINITY_DN64717_c3_g1  -            635 76883at3193          -            395   3.8e-39  136.4   0.2   2   2   1.8e-39     6e-37  129.2   0.3   115   352   158   397    82   408 0.85 -
JF1J_TRINITY_DN63773_c0_g1_i3.p1JF1J_TRINITY_DN63773_c0_g1  -            215 76883at3193          -            395   1.1e-38  135.0   0.0   1   1   3.8e-41   1.3e-38  134.8   0.0   163   345     1   185     1   197 0.90 -
JF1J_TRINITY_DN66290_c1_g2_i2.p1JF1J_TRINITY_DN66290_c1_g2  -            103 76883at3193          -            395   8.3e-38  132.0   0.0   1   1   2.9e-40   9.6e-38  131.8   0.0   311   394    18   101    13   102 0.97 -
JF2A_TRINITY_DN42630_c0_g2_i1.p2JF2A_TRINITY_DN42630_c0_g2  -            228 76883at3193          -            395   1.1e-37  131.7   0.0   1   1   4.1e-40   1.4e-37  131.4   0.0   150   338    28   222    21   226 0.88 -
JF1A_TRINITY_DN67311_c0_g1_i8.p2JF1A_TRINITY_DN67311_c0_g1  -            265 76883at3193          -            395     5e-37  129.5   0.0   1   1   1.9e-39   6.4e-37  129.1   0.0   156   346    39   231    30   250 0.89 -
JF3A_TRINITY_DN57993_c0_g1_i10.p1JF3A_TRINITY_DN57993_c0_g1 -            188 76883at3193          -            395   1.3e-36  128.1   0.0   1   1   5.1e-39   1.7e-36  127.7   0.0   118   272    18   174    12   182 0.93 -
JF3J_TRINITY_DN67020_c3_g1_i5.p1JF3J_TRINITY_DN67020_c3_g1  -            329 76883at3193          -            395   1.5e-36  127.9   0.0   1   1   6.3e-39   2.1e-36  127.4   0.0   116   352    37   283    29   296 0.84 -
JF1J_TRINITY_DN63249_c2_g1_i8.p1JF1J_TRINITY_DN63249_c2_g1  -            178 76883at3193          -            395   1.6e-34  121.3   0.3   1   2   0.00058      0.19   12.3   0.0   334   377     3    48     1    59 0.85 -
JF1J_TRINITY_DN63249_c2_g1_i8.p1JF1J_TRINITY_DN63249_c2_g1  -            178 76883at3193          -            395   1.6e-34  121.3   0.3   2   2   4.6e-33   1.5e-30  108.1   0.1   189   306    60   177    46   178 0.94 -
JF1A_TRINITY_DN65933_c3_g1_i1.p1JF1A_TRINITY_DN65933_c3_g1  -            278 76883at3193          -            395     2e-34  120.9   0.2   1   1   8.3e-37   2.7e-34  120.5   0.2   218   378    54   215    48   232 0.92 -
JF3A_TRINITY_DN52965_c1_g1_i2.p1JF3A_TRINITY_DN52965_c1_g1  -            154 76883at3193          -            395   7.9e-34  119.0   0.0   1   1   2.9e-36   9.5e-34  118.7   0.0   117   235    11   130     7   151 0.90 -
JF2A_TRINITY_DN51102_c0_g1_i1.p1JF2A_TRINITY_DN51102_c0_g1  -            102 76883at3193          -            395   7.9e-34  119.0   0.0   1   1   2.7e-36   8.7e-34  118.8   0.0   154   241    14   102     5   102 0.94 -
JF1A_TRINITY_DN62164_c1_g1_i1.p1JF1A_TRINITY_DN62164_c1_g1  -            124 76883at3193          -            395   2.5e-32  114.0   0.2   1   1   8.7e-35   2.9e-32  113.8   0.2   204   310     1   114     1   118 0.88 -
JF1A_TRINITY_DN67265_c0_g1_i11.p1JF1A_TRINITY_DN67265_c0_g1 -            375 76883at3193          -            395   2.5e-32  114.0   0.3   1   1   1.2e-34   4.1e-32  113.3   0.0   103   207   268   375   218   375 0.87 -
JF2J_TRINITY_DN23379_c0_g2_i2.p1JF2J_TRINITY_DN23379_c0_g2  -            204 76883at3193          -            395   6.5e-32  112.7   0.0   1   1   2.5e-34   8.1e-32  112.3   0.0   122   297    21   193    10   201 0.86 -
JF2A_TRINITY_DN42326_c1_g6_i1.p1JF2A_TRINITY_DN42326_c1_g6  -            355 76883at3193          -            395   1.8e-30  107.9   0.0   1   1   8.2e-33   2.7e-30  107.3   0.0   120   280   182   343   176   352 0.90 -
JF1A_TRINITY_DN64737_c0_g2_i6.p1JF1A_TRINITY_DN64737_c0_g2  -            591 76883at3193          -            395   2.3e-30  107.6   0.1   1   2   4.8e-30   1.6e-27   98.2   0.0   156   377   258   495   252   508 0.83 -
JF1A_TRINITY_DN64737_c0_g2_i6.p1JF1A_TRINITY_DN64737_c0_g2  -            591 76883at3193          -            395   2.3e-30  107.6   0.1   2   2     0.021         7    7.2   0.0   156   190   538   572   520   578 0.87 -
JF1A_TRINITY_DN62386_c0_g2_i5.p2JF1A_TRINITY_DN62386_c0_g2  -            133 76883at3193          -            395   2.9e-30  107.2   0.0   1   1     1e-32   3.4e-30  107.0   0.0   162   280     1   119     1   127 0.93 -
JF1J_TRINITY_DN63249_c2_g1_i10.p1JF1J_TRINITY_DN63249_c2_g1 -            122 76883at3193          -            395   3.6e-29  103.6   0.0   1   1   1.4e-31   4.5e-29  103.3   0.0   157   240    10    93     4   100 0.96 -
JF3J_TRINITY_DN67020_c3_g1_i4.p1JF3J_TRINITY_DN67020_c3_g1  -            223 76883at3193          -            395   2.4e-28  100.9   0.0   1   2   2.1e-06   0.00069   20.4   0.0   198   238     1    41     1    44 0.88 -
JF3J_TRINITY_DN67020_c3_g1_i4.p1JF3J_TRINITY_DN67020_c3_g1  -            223 76883at3193          -            395   2.4e-28  100.9   0.0   2   2   3.7e-24   1.2e-21   78.8   0.0   164   304    45   196    43   213 0.82 -
JF1J_TRINITY_DN71808_c2_g1_i21.p1JF1J_TRINITY_DN71808_c2_g1 -            189 76883at3193          -            395   1.6e-27   98.2   0.7   1   2   1.2e-09   3.9e-07   31.1   0.1   164   203     2    41     1    48 0.91 -
JF1J_TRINITY_DN71808_c2_g1_i21.p1JF1J_TRINITY_DN71808_c2_g1 -            189 76883at3193          -            395   1.6e-27   98.2   0.7   2   2   2.8e-20   9.1e-18   66.1   0.0   157   232    50   123    42   130 0.92 -
JF1A_TRINITY_DN66554_c0_g5_i3.p1JF1A_TRINITY_DN66554_c0_g5  -            192 76883at3193          -            395   2.8e-27   97.4   0.0   1   1   9.3e-30   3.1e-27   97.3   0.0   118   221    76   181    25   189 0.85 -
JF1A_TRINITY_DN65741_c0_g8_i4.p1JF1A_TRINITY_DN65741_c0_g8  -            250 76883at3193          -            395   5.7e-27   96.4   0.0   1   1   2.3e-29   7.6e-27   96.0   0.0   157   337    63   243    60   247 0.83 -
JF1A_TRINITY_DN60603_c1_g9_i1.p1JF1A_TRINITY_DN60603_c1_g9  -            204 76883at3193          -            395   5.7e-26   93.1   0.0   1   1   3.1e-28     1e-25   92.2   0.0   118   255    60   198    26   202 0.94 -
JF1A_TRINITY_DN64615_c3_g3_i1.p1JF1A_TRINITY_DN64615_c3_g3  -            356 76883at3193          -            395   7.3e-26   92.7   0.0   1   1     3e-28   9.9e-26   92.3   0.0   119   252   223   356   212   356 0.88 -
JF1A_TRINITY_DN65357_c1_g3_i8.p1JF1A_TRINITY_DN65357_c1_g3  -            309 76883at3193          -            395   1.8e-25   91.5   0.0   1   1   7.4e-28   2.4e-25   91.0   0.0   116   241    93   218    85   226 0.91 -
JF1J_TRINITY_DN44218_c0_g1_i1.p1JF1J_TRINITY_DN44218_c0_g1  -            195 76883at3193          -            395   1.3e-24   88.6   0.0   1   1   4.8e-27   1.6e-24   88.3   0.0   102   179   110   187    89   190 0.93 -
JF1A_TRINITY_DN66554_c0_g4_i4.p1JF1A_TRINITY_DN66554_c0_g4  -            130 76883at3193          -            395   1.6e-24   88.3   0.0   1   1   5.5e-27   1.8e-24   88.1   0.0   106   200    33   130    26   130 0.90 -
JF1J_TRINITY_DN63146_c0_g1_i12.p1JF1J_TRINITY_DN63146_c0_g1 -            390 76883at3193          -            395     8e-24   86.0   1.2   1   2   3.5e-08   1.1e-05   26.2   0.1   147   202    27    81    13    86 0.83 -
JF1J_TRINITY_DN63146_c0_g1_i12.p1JF1J_TRINITY_DN63146_c0_g1 -            390 76883at3193          -            395     8e-24   86.0   1.2   2   2   3.7e-18   1.2e-15   59.0   0.1   259   351   120   211    79   226 0.78 -
JF1A_TRINITY_DN67311_c0_g1_i13.p1JF1A_TRINITY_DN67311_c0_g1 -            286 76883at3193          -            395     1e-23   85.6   0.0   1   1   4.6e-26   1.5e-23   85.1   0.0   110   221   156   268   132   272 0.94 -
JF1A_TRINITY_DN67245_c0_g3_i2.p1JF1A_TRINITY_DN67245_c0_g3  -            249 76883at3193          -            395   1.1e-22   82.2   0.0   1   1     5e-25   1.6e-22   81.7   0.0   116   232   133   249   105   249 0.90 -
JF3A_TRINITY_DN57993_c0_g1_i11.p1JF3A_TRINITY_DN57993_c0_g1 -            135 76883at3193          -            395   1.1e-21   79.0   0.2   1   1   3.9e-24   1.3e-21   78.7   0.2   238   347    10   118     2   130 0.88 -
JF3A_TRINITY_DN52965_c1_g2_i1.p1JF3A_TRINITY_DN52965_c1_g2  -            120 76883at3193          -            395   2.3e-21   77.9   0.0   1   1   8.2e-24   2.7e-21   77.7   0.0   128   217    30   120    25   120 0.93 -
JF1J_TRINITY_DN72926_c1_g1_i9.p1JF1J_TRINITY_DN72926_c1_g1  -            162 76883at3193          -            395   2.4e-21   77.9   0.1   1   1   8.1e-24   2.7e-21   77.7   0.1   185   307     4   126     1   137 0.91 -
JF1J_TRINITY_DN69397_c0_g2_i13.p1JF1J_TRINITY_DN69397_c0_g2 -            190 76883at3193          -            395   2.6e-21   77.7   0.0   1   1   8.8e-24   2.9e-21   77.6   0.0   197   332     2   135     1   160 0.92 -
JF2A_TRINITY_DN42367_c1_g7_i9.p1JF2A_TRINITY_DN42367_c1_g7  -            387 76883at3193          -            395   7.3e-21   76.3   0.1   1   1   3.8e-23   1.3e-20   75.5   0.1   205   345    14   155     9   171 0.90 -
JF1A_TRINITY_DN65741_c0_g1_i2.p1JF1A_TRINITY_DN65741_c0_g1  -            109 76883at3193          -            395     4e-20   73.8   0.0   1   1   1.5e-22   4.8e-20   73.6   0.0   146   233    16   104     6   108 0.89 -
JF3J_TRINITY_DN67557_c0_g5_i3.p1JF3J_TRINITY_DN67557_c0_g5  -            287 76883at3193          -            395   5.8e-19   70.0   0.0   1   1   2.4e-21   7.8e-19   69.6   0.0   116   212   185   282   177   286 0.93 -
JF1J_TRINITY_DN68513_c0_g3_i3.p1JF1J_TRINITY_DN68513_c0_g3  -            165 76883at3193          -            395   7.2e-19   69.7   0.2   1   2   5.8e-17   1.9e-14   55.1   0.1   246   355     3   111     1   115 0.87 -
JF1J_TRINITY_DN68513_c0_g3_i3.p1JF1J_TRINITY_DN68513_c0_g3  -            165 76883at3193          -            395   7.2e-19   69.7   0.2   2   2   0.00026     0.084   13.5   0.0   282   333   115   165   109   165 0.81 -
JF3A_TRINITY_DN57993_c0_g1_i19.p1JF3A_TRINITY_DN57993_c0_g1 -            153 76883at3193          -            395   9.1e-19   69.4   0.0   1   1   3.4e-21   1.1e-18   69.0   0.0   239   348    35   143    25   149 0.91 -
JF1A_TRINITY_DN48775_c0_g1_i1.p1JF1A_TRINITY_DN48775_c0_g1  -            132 76883at3193          -            395   9.4e-19   69.3   0.2   1   1     4e-21   1.3e-18   68.8   0.2    41   103     2    67     1    86 0.87 -
JF3A_TRINITY_DN58987_c2_g1_i15.p1JF3A_TRINITY_DN58987_c2_g1 -            118 76883at3193          -            395   8.9e-18   66.1   0.0   1   1   3.2e-20   1.1e-17   65.8   0.0   123   206    26   109    20   115 0.88 -
JF3A_TRINITY_DN52461_c2_g1_i5.p1JF3A_TRINITY_DN52461_c2_g1  -            123 76883at3193          -            395   6.1e-17   63.3   0.2   1   1   2.1e-19   6.9e-17   63.2   0.2   270   349     4    82     1    93 0.90 -
JF1J_TRINITY_DN63573_c0_g1_i12.p1JF1J_TRINITY_DN63573_c0_g1 -            145 76883at3193          -            395   6.3e-17   63.3   0.0   1   1   2.4e-19   7.8e-17   63.0   0.0   196   252    83   140    73   144 0.92 -
JF1J_TRINITY_DN72926_c1_g1_i24.p1JF1J_TRINITY_DN72926_c1_g1 -            135 76883at3193          -            395   1.6e-16   62.0   0.0   1   1   5.6e-19   1.9e-16   61.8   0.0   259   346     9    97     2   114 0.89 -
JF1J_TRINITY_DN68115_c2_g1_i3.p1JF1J_TRINITY_DN68115_c2_g1  -            102 76883at3193          -            395   1.9e-16   61.7   0.1   1   1     7e-19   2.3e-16   61.5   0.1   166   241    10    85     7    92 0.92 -
JF3J_TRINITY_DN63448_c0_g1_i6.p1JF3J_TRINITY_DN63448_c0_g1  -            155 76883at3193          -            395   2.5e-16   61.3   0.0   1   1   9.4e-19   3.1e-16   61.0   0.0   121   216    51   146    39   151 0.91 -
JF2A_TRINITY_DN50775_c0_g1_i1.p1JF2A_TRINITY_DN50775_c0_g1  -            137 76883at3193          -            395   4.8e-16   60.4   0.0   1   1   1.7e-18   5.5e-16   60.2   0.0   265   388     1   130     1   135 0.85 -
JF3A_TRINITY_DN58096_c1_g1_i2.p1JF3A_TRINITY_DN58096_c1_g1  -            150 76883at3193          -            395   5.3e-16   60.3   0.0   1   1   1.9e-18   6.2e-16   60.0   0.0   198   326     2   132     1   135 0.91 -
JF3A_TRINITY_DN58096_c1_g2_i6.p1JF3A_TRINITY_DN58096_c1_g2  -            154 76883at3193          -            395   7.9e-16   59.7   0.0   1   1   3.2e-18     1e-15   59.3   0.0   121   214    23   116    18   122 0.91 -
JF3J_TRINITY_DN72963_c1_g4_i2.p1JF3J_TRINITY_DN72963_c1_g4  -            142 76883at3193          -            395     1e-15   59.3   0.0   1   1   3.8e-18   1.3e-15   59.0   0.0   115   182    67   135    45   140 0.92 -
JF1A_TRINITY_DN67458_c0_g1_i9.p1JF1A_TRINITY_DN67458_c0_g1  -            164 76883at3193          -            395   2.3e-15   58.2   0.0   1   1   8.4e-18   2.8e-15   57.9   0.0   238   379    17   148     4   160 0.78 -
JF1A_TRINITY_DN69164_c0_g1_i1.p1JF1A_TRINITY_DN69164_c0_g1  -            122 76883at3193          -            395   3.4e-15   57.6   0.0   1   1   1.1e-17   3.8e-15   57.4   0.0   157   244    33   121    17   122 0.93 -
JF1J_TRINITY_DN63430_c0_g3_i1.p1JF1J_TRINITY_DN63430_c0_g3  -            182 76883at3193          -            395   4.6e-15   57.2   0.0   1   1   1.8e-17   5.8e-15   56.8   0.0   116   205    50   139    41   160 0.85 -
JF1A_TRINITY_DN67458_c0_g2_i1.p1JF1A_TRINITY_DN67458_c0_g2  -            125 76883at3193          -            395   8.3e-15   56.3   0.5   1   2   1.4e-07   4.6e-05   24.3   0.1   313   347     5    39     2    68 0.83 -
JF1A_TRINITY_DN67458_c0_g2_i1.p1JF1A_TRINITY_DN67458_c0_g2  -            125 76883at3193          -            395   8.3e-15   56.3   0.5   2   2   8.5e-10   2.8e-07   31.5   0.1   109   168    64   124    50   125 0.89 -
JF2A_TRINITY_DN3376_c0_g1_i1.p1JF2A_TRINITY_DN3376_c0_g1    -            141 76883at3193          -            395     2e-14   55.1   0.0   1   1   7.6e-17   2.5e-14   54.7   0.0   100   154    86   140    53   141 0.94 -
JF3J_TRINITY_DN63448_c0_g1_i1.p1JF3J_TRINITY_DN63448_c0_g1  -            150 76883at3193          -            395   2.4e-13   51.5   0.0   1   1   9.4e-16   3.1e-13   51.2   0.0   121   202    47   128    41   134 0.89 -
JF1A_TRINITY_DN64615_c3_g3_i4.p1JF1A_TRINITY_DN64615_c3_g3  -            170 76883at3193          -            395   1.1e-12   49.3   0.0   1   1     4e-15   1.3e-12   49.1   0.0   247   342     9   103     6   140 0.89 -
JF3A_TRINITY_DN58096_c1_g2_i7.p1JF3A_TRINITY_DN58096_c1_g2  -            131 76883at3193          -            395   1.9e-12   48.5   0.1   1   1   6.9e-15   2.3e-12   48.3   0.1   144   215    28   100    16   110 0.84 -
JF3J_TRINITY_DN64032_c2_g3_i4.p1JF3J_TRINITY_DN64032_c2_g3  -            132 76883at3193          -            395     4e-12   47.5   0.0   1   1   1.6e-14   5.1e-12   47.1   0.0   156   235    27   115    22   121 0.82 -
JF2A_TRINITY_DN40943_c0_g5_i1.p1JF2A_TRINITY_DN40943_c0_g5  -            495 76883at3193          -            395   6.9e-12   46.7   0.1   1   1   4.5e-14   1.5e-11   45.6   0.1   174   330     7   172     3   178 0.80 -
JF3A_TRINITY_DN58096_c1_g2_i9.p1JF3A_TRINITY_DN58096_c1_g2  -            119 76883at3193          -            395   1.1e-11   46.0   0.0   1   1   3.8e-14   1.2e-11   45.9   0.0   120   193    27   100     7   112 0.86 -
JF1J_TRINITY_DN66535_c1_g2_i2.p1JF1J_TRINITY_DN66535_c1_g2  -            136 76883at3193          -            395     3e-11   44.6   0.1   1   1   1.1e-13   3.7e-11   44.3   0.1   156   214    72   130    65   133 0.93 -
JF3J_TRINITY_DN66467_c3_g1_i2.p1JF3J_TRINITY_DN66467_c3_g1  -            130 76883at3193          -            395   4.2e-11   44.1   0.1   1   1   4.7e-13   1.6e-10   42.3   0.1   312   393    17   115     3   117 0.74 -
JF1A_TRINITY_DN67805_c3_g1_i12.p1JF1A_TRINITY_DN67805_c3_g1 -            728 76883at3193          -            395   5.1e-11   43.8   0.0   1   2   3.7e-09   1.2e-06   29.4   0.0   160   301   246   380   237   391 0.82 -
JF1A_TRINITY_DN67805_c3_g1_i12.p1JF1A_TRINITY_DN67805_c3_g1 -            728 76883at3193          -            395   5.1e-11   43.8   0.0   2   2    0.0016      0.53   10.9   0.0   161   359   503   705   481   722 0.77 -
JF3A_TRINITY_DN50087_c1_g2_i4.p1JF3A_TRINITY_DN50087_c1_g2  -            138 76883at3193          -            395   7.6e-11   43.3   0.0   1   1   2.7e-13   8.9e-11   43.1   0.0   113   198    40   125    33   137 0.81 -
JF1J_TRINITY_DN58130_c0_g1_i2.p1JF1J_TRINITY_DN58130_c0_g1  -            138 76883at3193          -            395   1.1e-10   42.8   0.3   1   1   7.9e-13   2.6e-10   41.5   0.3   212   303    10   118     3   135 0.76 -
JF3A_TRINITY_DN57993_c0_g1_i14.p1JF3A_TRINITY_DN57993_c0_g1 -            208 76883at3193          -            395   1.8e-10   42.0   0.0   1   1   7.1e-13   2.3e-10   41.7   0.0   239   310    35   106    25   133 0.86 -
JF1J_TRINITY_DN58130_c0_g1_i1.p1JF1J_TRINITY_DN58130_c0_g1  -            150 76883at3193          -            395   2.9e-10   41.4   0.4   1   1   2.3e-12   7.4e-10   40.0   0.4   212   301    10   116     3   121 0.76 -
JF1J_TRINITY_DN63773_c0_g4_i5.p1JF1J_TRINITY_DN63773_c0_g4  -            120 76883at3193          -            395   3.9e-10   40.9   0.1   1   2   6.3e-09   2.1e-06   28.7   0.1   163   194     1    32     1    53 0.89 -
JF1J_TRINITY_DN63773_c0_g4_i5.p1JF1J_TRINITY_DN63773_c0_g4  -            120 76883at3193          -            395   3.9e-10   40.9   0.1   2   2    0.0021       0.7   10.5   0.0   118   153    73   108    63   115 0.90 -
JF1A_TRINITY_DN67234_c3_g2_i13.p1JF1A_TRINITY_DN67234_c3_g2 -            118 76883at3193          -            395   4.7e-10   40.7   0.0   1   1   1.6e-12   5.3e-10   40.5   0.0   233   335    16   117     7   118 0.85 -
JF1A_TRINITY_DN68323_c1_g2_i9.p1JF1A_TRINITY_DN68323_c1_g2  -            448 76883at3193          -            395   5.9e-10   40.3   0.0   1   1   3.4e-12   1.1e-09   39.4   0.0   113   198   344   429   340   444 0.81 -
JF1A_TRINITY_DN68010_c0_g3_i5.p1JF1A_TRINITY_DN68010_c0_g3  -            735 76883at3193          -            395     6e-10   40.3   0.0   1   2   2.8e-09   9.2e-07   29.8   0.0   160   301   253   387   240   418 0.82 -
JF1A_TRINITY_DN68010_c0_g3_i5.p1JF1A_TRINITY_DN68010_c0_g3  -            735 76883at3193          -            395     6e-10   40.3   0.0   2   2     0.015       4.9    7.7   0.0   273   352   627   706   614   726 0.87 -
JF3J_TRINITY_DN71386_c0_g1_i3.p1JF3J_TRINITY_DN71386_c0_g1  -            207 76883at3193          -            395   7.9e-10   39.9   0.0   1   1   2.6e-12   8.4e-10   39.8   0.0   246   344    50   147    17   188 0.86 -
JF1A_TRINITY_DN58899_c0_g1_i1.p1JF1A_TRINITY_DN58899_c0_g1  -            125 76883at3193          -            395   9.9e-10   39.6   0.0   1   1   3.4e-12   1.1e-09   39.4   0.0   226   341     1   115     1   122 0.88 -
JF1J_TRINITY_DN66535_c1_g2_i6.p1JF1J_TRINITY_DN66535_c1_g2  -            123 76883at3193          -            395   1.7e-09   38.8   0.1   1   1   6.2e-12     2e-09   38.6   0.1   160   214    67   122    58   123 0.91 -
JF1A_TRINITY_DN21242_c0_g1_i1.p1JF1A_TRINITY_DN21242_c0_g1  -            119 76883at3193          -            395   2.9e-09   38.1   0.0   1   1     1e-11   3.3e-09   37.9   0.0   157   210    44   106    21   112 0.87 -
JF1J_TRINITY_DN72372_c1_g1_i6.p1JF1J_TRINITY_DN72372_c1_g1  -            342 76883at3193          -            395   4.5e-09   37.4   0.0   1   1   2.2e-11   7.2e-09   36.8   0.0   120   176   230   286   223   311 0.84 -
JF3A_TRINITY_DN58987_c2_g1_i12.p1JF3A_TRINITY_DN58987_c2_g1 -            100 76883at3193          -            395     9e-09   36.4   0.0   1   1   3.3e-11   1.1e-08   36.2   0.0   123   174    26    77    20    85 0.84 -
JF3J_TRINITY_DN63448_c0_g4_i1.p1JF3J_TRINITY_DN63448_c0_g4  -            146 76883at3193          -            395   2.3e-08   35.1   0.3   1   1     8e-11   2.6e-08   34.9   0.3   221   303     1    87     1   107 0.73 -
JF1A_TRINITY_DN65741_c0_g8_i1.p1JF1A_TRINITY_DN65741_c0_g8  -            113 76883at3193          -            395   2.7e-08   34.9   0.0   1   1   9.2e-11     3e-08   34.7   0.0   284   351    27    93    21   108 0.85 -
JF1A_TRINITY_DN66331_c1_g1_i13.p1JF1A_TRINITY_DN66331_c1_g1 -            474 76883at3193          -            395   4.2e-08   34.3   0.0   1   2   0.00026     0.086   13.5   0.0   133   178   100   146    54   164 0.78 -
JF1A_TRINITY_DN66331_c1_g1_i13.p1JF1A_TRINITY_DN66331_c1_g1 -            474 76883at3193          -            395   4.2e-08   34.3   0.0   2   2     2e-05    0.0064   17.2   0.0   133   281   294   453   272   462 0.58 -
JF1J_TRINITY_DN63573_c0_g1_i11.p1JF1J_TRINITY_DN63573_c0_g1 -            100 76883at3193          -            395   5.8e-08   33.8   0.0   1   1   2.1e-10   6.8e-08   33.6   0.0   285   346    22    83    15    94 0.90 -
JF1A_TRINITY_DN66947_c0_g3_i1.p1JF1A_TRINITY_DN66947_c0_g3  -            190 76883at3193          -            395   1.5e-07   32.4   0.0   1   1   1.1e-09   3.6e-07   31.2   0.0   207   305     3    99     1   161 0.84 -
JF1A_TRINITY_DN67805_c3_g1_i8.p1JF1A_TRINITY_DN67805_c3_g1  -            507 76883at3193          -            395   1.6e-07   32.3   0.2   1   1   1.9e-09   6.1e-07   30.4   0.0   160   301   246   380   229   390 0.82 -
JF2A_TRINITY_DN41399_c2_g1_i2.p1JF2A_TRINITY_DN41399_c2_g1  -            352 76883at3193          -            395   1.9e-07   32.1   0.0   1   1   8.5e-10   2.8e-07   31.5   0.0   160   244    90   178    83   196 0.77 -
JF1J_TRINITY_DN18409_c0_g1_i1.p1JF1J_TRINITY_DN18409_c0_g1  -            106 76883at3193          -            395     3e-07   31.4   0.1   1   1   1.1e-09   3.6e-07   31.2   0.1   159   229    10    86     3    91 0.85 -
JF1A_TRINITY_DN63404_c2_g3_i2.p1JF1A_TRINITY_DN63404_c2_g3  -            232 76883at3193          -            395   4.1e-07   31.0   0.1   1   1   1.7e-09   5.5e-07   30.6   0.1   160   244    58   146    49   165 0.82 -
JF1A_TRINITY_DN64615_c3_g3_i3.p1JF1A_TRINITY_DN64615_c3_g3  -            105 76883at3193          -            395     8e-07   30.0   0.0   1   1     3e-09   9.8e-07   29.7   0.0   247   304     9    66     6    73 0.89 -
JF1A_TRINITY_DN63803_c1_g2_i1.p1JF1A_TRINITY_DN63803_c1_g2  -            277 76883at3193          -            395   2.1e-06   28.6   0.0   1   1   1.1e-08   3.8e-06   27.8   0.0   154   314    17   187     6   203 0.68 -
JF1A_TRINITY_DN66331_c1_g1_i2.p1JF1A_TRINITY_DN66331_c1_g1  -            579 76883at3193          -            395   3.7e-06   27.8   0.0   1   2   0.00038      0.13   12.9   0.0   133   178   213   259   168   272 0.78 -
JF1A_TRINITY_DN66331_c1_g1_i2.p1JF1A_TRINITY_DN66331_c1_g1  -            579 76883at3193          -            395   3.7e-06   27.8   0.0   2   2    0.0013      0.42   11.2   0.0   144   280   358   508   328   514 0.54 -
JF3J_TRINITY_DN65068_c1_g1_i14.p1JF3J_TRINITY_DN65068_c1_g1 -            174 76883at3193          -            395   5.6e-06   27.2   1.7   1   2       2.6   8.4e+02    0.3   0.9    71   112    38    79    28    89 0.70 -
JF3J_TRINITY_DN65068_c1_g1_i14.p1JF3J_TRINITY_DN65068_c1_g1 -            174 76883at3193          -            395   5.6e-06   27.2   1.7   2   2   4.8e-08   1.6e-05   25.8   0.0   212   281    91   161    81   166 0.79 -
JF2J_TRINITY_DN26364_c0_g2_i5.p1JF2J_TRINITY_DN26364_c0_g2  -            154 76883at3193          -            395   9.2e-06   26.5   0.0   1   1   3.4e-08   1.1e-05   26.3   0.0   246   330    19   102     5   109 0.82 -
JF1A_TRINITY_DN46956_c0_g2_i1.p1JF1A_TRINITY_DN46956_c0_g2  -            141 76883at3193          -            395   1.7e-05   25.6   0.0   1   1   6.3e-08   2.1e-05   25.4   0.0   154   227    67   140    54   141 0.81 -
JF2A_TRINITY_DN40408_c0_g1_i4.p1JF2A_TRINITY_DN40408_c0_g1  -            349 76883at3193          -            395   2.1e-05   25.4   0.0   1   1   3.3e-07   0.00011   23.0   0.0   133   311    60   251    25   269 0.67 -
JF3A_TRINITY_DN52461_c2_g1_i3.p1JF3A_TRINITY_DN52461_c2_g1  -            101 76883at3193          -            395   2.4e-05   25.2   0.0   1   1   8.4e-08   2.8e-05   25.0   0.0   321   349    32    60     4    71 0.73 -
JF1A_TRINITY_DN63803_c1_g2_i3.p1JF1A_TRINITY_DN63803_c1_g2  -            424 76883at3193          -            395   2.6e-05   25.0   0.0   1   1   1.3e-07   4.3e-05   24.3   0.0   154   300   183   339   172   358 0.66 -
JF3J_TRINITY_DN69498_c2_g2_i8.p1JF3J_TRINITY_DN69498_c2_g2  -            109 76883at3193          -            395   3.4e-05   24.7   0.0   1   1   1.1e-07   3.8e-05   24.5   0.0   288   344     8    65     4    90 0.90 -
JF1A_TRINITY_DN60128_c3_g3_i2.p1JF1A_TRINITY_DN60128_c3_g3  -            263 76883at3193          -            395   3.4e-05   24.7   0.0   1   1   1.4e-07   4.6e-05   24.2   0.0   134   231   158   263   150   263 0.70 -
JF3J_TRINITY_DN70054_c0_g2_i2.p1JF3J_TRINITY_DN70054_c0_g2  -            101 76883at3193          -            395   3.5e-05   24.6   0.0   1   1   1.2e-07   3.9e-05   24.5   0.0   244   308    24    88    10    97 0.86 -
JF1A_TRINITY_DN66962_c0_g2_i23.p1JF1A_TRINITY_DN66962_c0_g2 -            605 76883at3193          -            395     4e-05   24.5   0.2   1   2    0.0047       1.6    9.3   0.0   146   237    39   143     8   154 0.66 -
JF1A_TRINITY_DN66962_c0_g2_i23.p1JF1A_TRINITY_DN66962_c0_g2 -            605 76883at3193          -            395     4e-05   24.5   0.2   2   2   0.00075      0.25   12.0   0.1   153   180   449   476   423   539 0.79 -
JF3A_TRINITY_DN54060_c0_g1_i13.p1JF3A_TRINITY_DN54060_c0_g1 -            122 76883at3193          -            395   5.1e-05   24.1   0.1   1   2   2.8e-05    0.0092   16.7   0.0   258   301    49    92     8   100 0.76 -
JF3A_TRINITY_DN54060_c0_g1_i13.p1JF3A_TRINITY_DN54060_c0_g1 -            122 76883at3193          -            395   5.1e-05   24.1   0.1   2   2     0.082        27    5.3   0.0   260   280   102   122    98   122 0.85 -
JF1A_TRINITY_DN66962_c0_g2_i25.p1JF1A_TRINITY_DN66962_c0_g2 -            504 76883at3193          -            395   7.1e-05   23.6   0.2   1   2     0.011       3.6    8.1   0.0   155   237     7   102     3   113 0.62 -
JF1A_TRINITY_DN66962_c0_g2_i25.p1JF1A_TRINITY_DN66962_c0_g2 -            504 76883at3193          -            395   7.1e-05   23.6   0.2   2   2   0.00055      0.18   12.4   0.1   153   180   298   325   271   389 0.78 -
JF1A_TRINITY_DN66665_c2_g4_i2.p1JF1A_TRINITY_DN66665_c2_g4  -            232 76883at3193          -            395   9.1e-05   23.3   0.0   1   1   5.2e-07   0.00017   22.4   0.0   156   211   136   199   119   226 0.80 -
JF3A_TRINITY_DN52461_c2_g1_i4.p1JF3A_TRINITY_DN52461_c2_g1  -            114 76883at3193          -            395   9.6e-05   23.2   0.0   1   1   1.6e-06   0.00053   20.7   0.0   328   393    11    93     5    95 0.72 -
JF1A_TRINITY_DN59278_c0_g1_i1.p1JF1A_TRINITY_DN59278_c0_g1  -            218 76883at3193          -            395    0.0002   22.1   0.1   1   1   8.8e-07   0.00029   21.6   0.1   139   180    41    87    32    96 0.83 -
JF3A_TRINITY_DN57104_c0_g1_i6.p1JF3A_TRINITY_DN57104_c0_g1  -            520 76883at3193          -            395   0.00021   22.0   0.0   1   1   1.2e-05    0.0038   17.9   0.0   144   304   229   404   198   424 0.62 -
JF2A_TRINITY_DN40943_c0_g5_i3.p1JF2A_TRINITY_DN40943_c0_g5  -            201 76883at3193          -            395   0.00036   21.3   0.1   1   1   1.5e-06    0.0005   20.8   0.1   174   272     7   113     3   117 0.73 -
JF1A_TRINITY_DN24561_c0_g1_i1.p1JF1A_TRINITY_DN24561_c0_g1  -            147 76883at3193          -            395   0.00036   21.3   0.0   1   1   1.4e-06   0.00047   20.9   0.0   160   198   105   143    92   146 0.86 -
JF1A_TRINITY_DN47859_c0_g1_i1.p1JF1A_TRINITY_DN47859_c0_g1  -            281 76883at3193          -            395   0.00041   21.1   0.7   1   2      0.11        35    4.9   0.1   241   289    61   107    52   150 0.80 -
JF1A_TRINITY_DN47859_c0_g1_i1.p1JF1A_TRINITY_DN47859_c0_g1  -            281 76883at3193          -            395   0.00041   21.1   0.7   2   2    0.0001     0.033   14.8   0.1   141   179   178   221   162   231 0.80 -
JF1A_TRINITY_DN58899_c0_g2_i2.p1JF1A_TRINITY_DN58899_c0_g2  -            207 76883at3193          -            395   0.00045   21.0   0.0   1   2   0.00035      0.12   13.0   0.0   286   345    75   134    58   176 0.78 -
JF1A_TRINITY_DN58899_c0_g2_i2.p1JF1A_TRINITY_DN58899_c0_g2  -            207 76883at3193          -            395   0.00045   21.0   0.0   2   2     0.041        14    6.2   0.0   121   145   183   207   177   207 0.91 -
JF2A_TRINITY_DN49388_c0_g1_i1.p1JF2A_TRINITY_DN49388_c0_g1  -            110 76883at3193          -            395   0.00062   20.5   0.3   1   1   2.2e-06   0.00072   20.3   0.3   131   179    18    72     9    84 0.80 -
JF3A_TRINITY_DN58096_c1_g1_i5.p1JF3A_TRINITY_DN58096_c1_g1  -            106 76883at3193          -            395   0.00063   20.5   0.0   1   1     2e-06   0.00065   20.5   0.0   312   346    45    79    13    93 0.79 -
JF3J_TRINITY_DN70023_c7_g5_i1.p1JF3J_TRINITY_DN70023_c7_g5  -            106 76883at3193          -            395   0.00064   20.5   0.0   1   1   2.5e-06   0.00083   20.1   0.0   147   228    14    88    10   100 0.71 -
JF1A_TRINITY_DN67683_c2_g4_i1.p1JF1A_TRINITY_DN67683_c2_g4  -            221 76883at3193          -            395    0.0011   19.7   0.0   1   1   4.9e-06    0.0016   19.2   0.0   162   229     1    69     1    90 0.91 -
JF1J_TRINITY_DN69397_c0_g2_i12.p1JF1J_TRINITY_DN69397_c0_g2 -            150 76883at3193          -            395    0.0011   19.6   0.0   1   1     4e-06    0.0013   19.5   0.0   274   345    14    86     8   128 0.83 -
JF1A_TRINITY_DN64737_c0_g2_i3.p1JF1A_TRINITY_DN64737_c0_g2  -            317 76883at3193          -            395    0.0012   19.6   0.0   1   2    0.0052       1.7    9.2   0.0   308   378   150   222   130   234 0.74 -
JF1A_TRINITY_DN64737_c0_g2_i3.p1JF1A_TRINITY_DN64737_c0_g2  -            317 76883at3193          -            395    0.0012   19.6   0.0   2   2    0.0093       3.1    8.4   0.0   156   190   264   298   245   304 0.87 -
JF3A_TRINITY_DN49629_c2_g1_i4.p1JF3A_TRINITY_DN49629_c2_g1  -            138 76883at3193          -            395    0.0012   19.5   0.0   1   1   5.2e-06    0.0017   19.1   0.0   160   208    59   108    51   116 0.86 -
JF3J_TRINITY_DN69981_c4_g3_i1.p1JF3J_TRINITY_DN69981_c4_g3  -            100 76883at3193          -            395    0.0013   19.5   0.0   1   1   4.4e-06    0.0014   19.3   0.0   245   313     5    73     2    94 0.77 -
JF2A_TRINITY_DN40360_c0_g1_i5.p1JF2A_TRINITY_DN40360_c0_g1  -            713 76883at3193          -            395    0.0013   19.5   0.1   1   2     0.019       6.3    7.3   0.0   154   240   143   243   134   251 0.61 -
JF2A_TRINITY_DN40360_c0_g1_i5.p1JF2A_TRINITY_DN40360_c0_g1  -            713 76883at3193          -            395    0.0013   19.5   0.1   2   2    0.0047       1.5    9.3   0.0   154   179   541   566   514   571 0.78 -
JF3A_TRINITY_DN52965_c1_g2_i4.p1JF3A_TRINITY_DN52965_c1_g2  -            122 76883at3193          -            395    0.0015   19.3   0.0   1   1   5.8e-06    0.0019   18.9   0.0   128   170    74   117    69   120 0.87 -
JF2J_TRINITY_DN23991_c0_g2_i1.p1JF2J_TRINITY_DN23991_c0_g2  -            204 76883at3193          -            395    0.0019   18.9   0.0   1   1   1.1e-05    0.0038   17.9   0.0   118   164   157   204   135   204 0.92 -
JF1A_TRINITY_DN64345_c0_g2_i15.p1JF1A_TRINITY_DN64345_c0_g2 -            204 76883at3193          -            395    0.0023   18.7   0.0   1   1   1.4e-05    0.0045   17.7   0.0   118   164   157   204   135   204 0.92 -
JF1A_TRINITY_DN22278_c0_g1_i1.p1JF1A_TRINITY_DN22278_c0_g1  -            118 76883at3193          -            395    0.0034   18.1   0.0   1   1   1.3e-05    0.0042   17.8   0.0   156   245     8    92     3   106 0.67 -
JF1A_TRINITY_DN66554_c0_g4_i7.p1JF1A_TRINITY_DN66554_c0_g4  -            107 76883at3193          -            395    0.0035   18.0   0.0   1   1   1.2e-05    0.0039   17.9   0.0    90   144    41   101    24   106 0.69 -
JF3J_TRINITY_DN65647_c3_g3_i2.p1JF3J_TRINITY_DN65647_c3_g3  -            107 76883at3193          -            395    0.0038   17.9   0.0   1   1   1.5e-05    0.0049   17.6   0.0   102   131    65    94    61    98 0.90 -
JF1J_TRINITY_DN73083_c4_g2_i1.p1JF1J_TRINITY_DN73083_c4_g2  -            116 76883at3193          -            395     0.004   17.8   0.0   1   1   1.4e-05    0.0046   17.7   0.0   154   228    10    76     2   108 0.64 -
JF1A_TRINITY_DN65709_c6_g2_i1.p1JF1A_TRINITY_DN65709_c6_g2  -            181 76883at3193          -            395     0.006   17.3   0.1   1   1   3.1e-05      0.01   16.5   0.1   148   179    65    96    44   108 0.85 -
JF1A_TRINITY_DN67444_c2_g4_i5.p1JF1A_TRINITY_DN67444_c2_g4  -            273 76883at3193          -            395    0.0088   16.7   0.1   1   1   7.6e-05     0.025   15.2   0.0   157   206     3    54     1    63 0.85 -
JF3A_TRINITY_DN53336_c2_g2_i3.p1JF3A_TRINITY_DN53336_c2_g2  -            108 76883at3193          -            395     0.015   16.0   0.0   1   1   5.2e-05     0.017   15.8   0.0   204   233     5    34     1    47 0.89 -
JF1A_TRINITY_DN61987_c2_g1_i5.p1JF1A_TRINITY_DN61987_c2_g1  -            393 76883at3193          -            395     0.017   15.8   0.0   1   1     8e-05     0.026   15.2   0.0   152   227   111   196    79   209 0.70 -
JF1A_TRINITY_DN66407_c2_g2_i1.p1JF1A_TRINITY_DN66407_c2_g2  -           1076 76883at3193          -            395     0.019   15.6   0.6   1   2    0.0016      0.51   10.9   0.1   150   179   154   183   129   193 0.78 -
JF1A_TRINITY_DN66407_c2_g2_i1.p1JF1A_TRINITY_DN66407_c2_g2  -           1076 76883at3193          -            395     0.019   15.6   0.6   2   2      0.64   2.1e+02    2.3   0.0   208   234  1000  1026   991  1033 0.81 -
JF1A_TRINITY_DN67830_c0_g3_i19.p1JF1A_TRINITY_DN67830_c0_g3 -            260 76883at3193          -            395     0.026   15.2   0.0   1   1   0.00015      0.05   14.2   0.0    86   240    28   203    14   212 0.66 -
JF3J_TRINITY_DN67020_c3_g1_i2.p1JF3J_TRINITY_DN67020_c3_g1  -            109 76883at3193          -            395     0.031   14.9   0.1   1   2         1   3.4e+02    1.6   0.0   334   351     3    20     1    27 0.78 -
JF3J_TRINITY_DN67020_c3_g1_i2.p1JF3J_TRINITY_DN67020_c3_g1  -            109 76883at3193          -            395     0.031   14.9   0.1   2   2   0.00063      0.21   12.2   0.0   312   352    23    63    16    81 0.84 -
JF1A_TRINITY_DN68649_c1_g2_i1.p1JF1A_TRINITY_DN68649_c1_g2  -            832 76883at3193          -            395     0.035   14.7   0.0   1   2      0.14        48    4.4   0.0   158   235   295   384   281   398 0.65 -
JF1A_TRINITY_DN68649_c1_g2_i1.p1JF1A_TRINITY_DN68649_c1_g2  -            832 76883at3193          -            395     0.035   14.7   0.0   2   2     0.018       5.8    7.4   0.0   152   180   629   660   611   720 0.76 -
JF3J_TRINITY_DN65068_c1_g1_i8.p1JF3J_TRINITY_DN65068_c1_g1  -            280 76883at3193          -            395     0.041   14.5   0.0   1   1   0.00018      0.06   14.0   0.0   204   233     5    34     1    69 0.86 -
JF1A_TRINITY_DN55206_c0_g2_i1.p1JF1A_TRINITY_DN55206_c0_g2  -            184 76883at3193          -            395     0.043   14.5   0.1   1   1   0.00018     0.059   14.0   0.1   150   179    75   104    48   110 0.75 -
JF1A_TRINITY_DN67679_c1_g1_i3.p1JF1A_TRINITY_DN67679_c1_g1  -            173 76883at3193          -            395     0.061   14.0   0.0   1   1   0.00019     0.061   14.0   0.0   156   178   130   152    37   163 0.83 -
JF1J_TRINITY_DN69838_c0_g1_i8.p1JF1J_TRINITY_DN69838_c0_g1  -            217 76883at3193          -            395     0.066   13.8   0.3   1   1   0.00035      0.12   13.0   0.1   150   179   125   154    99   160 0.79 -
JF1J_TRINITY_DN69422_c1_g2_i5.p1JF1J_TRINITY_DN69422_c1_g2  -            156 76883at3193          -            395      0.08   13.6   0.0   1   1   0.00031       0.1   13.2   0.0   160   198    21    59    13    78 0.78 -
JF3J_TRINITY_DN65086_c0_g1_i5.p1JF3J_TRINITY_DN65086_c0_g1  -            231 76883at3193          -            395     0.081   13.6   0.9   1   1   0.00034      0.11   13.1   0.1   151   182   161   192   151   195 0.90 -
JF1A_TRINITY_DN64863_c1_g1_i14.p1JF1A_TRINITY_DN64863_c1_g1 -            432 76883at3193          -            395     0.085   13.5   0.0   1   1    0.0004      0.13   12.9   0.0   139   194    63   123    44   131 0.76 -
JF1J_TRINITY_DN61596_c0_g2_i1.p1JF1J_TRINITY_DN61596_c0_g2  -            128 76883at3193          -            395     0.086   13.5   0.0   1   1   0.00026     0.086   13.5   0.0   357   393    75   113    21   115 0.84 -
JF1A_TRINITY_DN64737_c0_g2_i2.p2JF1A_TRINITY_DN64737_c0_g2  -            104 76883at3193          -            395      0.12   13.0   0.0   1   1   0.00045      0.15   12.7   0.0   305   377     4    78     2    89 0.80 -
JF1A_TRINITY_DN66654_c0_g1_i7.p1JF1A_TRINITY_DN66654_c0_g1  -            405 76883at3193          -            395      0.12   13.0   1.9   1   2     0.047        15    6.1   0.1   150   187    59    96    30   117 0.88 -
JF1A_TRINITY_DN66654_c0_g1_i7.p1JF1A_TRINITY_DN66654_c0_g1  -            405 76883at3193          -            395      0.12   13.0   1.9   2   2     0.038        12    6.4   0.1   150   187   154   191   121   200 0.88 -
JF1A_TRINITY_DN66593_c0_g7_i1.p1JF1A_TRINITY_DN66593_c0_g7  -            152 76883at3193          -            395      0.13   12.9   0.0   1   1   0.00046      0.15   12.7   0.0   235   322    24   112    18   131 0.86 -
JF1A_TRINITY_DN68326_c1_g3_i10.p1JF1A_TRINITY_DN68326_c1_g3 -           1141 76883at3193          -            395      0.13   12.9   0.0   1   2      0.02       6.7    7.2   0.0   148   207   242   308   236   323 0.65 -
JF1A_TRINITY_DN68326_c1_g3_i10.p1JF1A_TRINITY_DN68326_c1_g3 -           1141 76883at3193          -            395      0.13   12.9   0.0   2   2      0.36   1.2e+02    3.2   0.0   154   176   592   614   580   623 0.84 -
JF1J_TRINITY_DN39492_c0_g1_i1.p1JF1J_TRINITY_DN39492_c0_g1  -            165 76883at3193          -            395      0.15   12.7   0.2   1   2     0.043        14    6.2   0.0   115   160    50    95    32   104 0.83 -
JF1J_TRINITY_DN39492_c0_g1_i1.p1JF1J_TRINITY_DN39492_c0_g1  -            165 76883at3193          -            395      0.15   12.7   0.2   2   2     0.079        26    5.3   0.1   117   160   106   149    94   155 0.81 -
JF2A_TRINITY_DN22632_c0_g1_i2.p1JF2A_TRINITY_DN22632_c0_g1  -            111 76883at3193          -            395      0.18   12.4   0.0   1   1   0.00064      0.21   12.2   0.0   314   349     9    45     3    83 0.74 -
JF1J_TRINITY_DN72813_c0_g1_i20.p1JF1J_TRINITY_DN72813_c0_g1 -            194 76883at3193          -            395      0.21   12.2   0.1   1   1    0.0009      0.29   11.7   0.1   151   179    54    82    44    91 0.88 -
JF1A_TRINITY_DN68240_c1_g2_i1.p1JF1A_TRINITY_DN68240_c1_g2  -            187 76883at3193          -            395      0.22   12.1   0.0   1   1    0.0011      0.35   11.4   0.0   154   179    28    53    12    79 0.85 -
JF1J_TRINITY_DN63430_c0_g2_i4.p1JF1J_TRINITY_DN63430_c0_g2  -            129 76883at3193          -            395      0.22   12.1   0.0   1   1   0.00075      0.25   12.0   0.0   246   304    45   103    27   119 0.82 -
JF1A_TRINITY_DN67830_c0_g3_i23.p1JF1A_TRINITY_DN67830_c0_g3 -            244 76883at3193          -            395      0.24   12.0   0.0   1   1    0.0011      0.37   11.4   0.0   154   179    30    55     3    61 0.78 -
JF1J_TRINITY_DN46763_c0_g1_i1.p1JF1J_TRINITY_DN46763_c0_g1  -            131 76883at3193          -            395      0.24   12.0   0.0   1   1   0.00079      0.26   11.9   0.0   103   172    31    97     7   116 0.71 -
JF1A_TRINITY_DN49705_c0_g1_i1.p1JF1A_TRINITY_DN49705_c0_g1  -            130 76883at3193          -            395      0.24   12.0   0.0   1   1   0.00088      0.29   11.7   0.0   261   339    26   108    21   125 0.83 -
JF3A_TRINITY_DN4681_c0_g1_i1.p1JF3A_TRINITY_DN4681_c0_g1    -            102 76883at3193          -            395      0.25   11.9   0.1   1   1     0.001      0.34   11.5   0.1    13    33    82   102    74   102 0.86 -
JF3J_TRINITY_DN65086_c0_g1_i14.p1JF3J_TRINITY_DN65086_c0_g1 -            226 76883at3193          -            395       0.3   11.7   0.9   1   1    0.0011      0.37   11.4   0.1   151   179   130   158   120   169 0.89 -
JF3J_TRINITY_DN65885_c5_g1_i1.p2JF3J_TRINITY_DN65885_c5_g1  -            106 76883at3193          -            395       0.3   11.7   0.0   1   1    0.0011      0.37   11.4   0.0   120   140    63    83    54    91 0.89 -
JF3J_TRINITY_DN68106_c1_g6_i1.p1JF3J_TRINITY_DN68106_c1_g6  -            168 76883at3193          -            395      0.32   11.6   0.0   1   1    0.0018      0.58   10.7   0.0   244   311    70   139    15   147 0.79 -
JF1A_TRINITY_DN64600_c1_g5_i5.p1JF1A_TRINITY_DN64600_c1_g5  -            314 76883at3193          -            395      0.33   11.6   0.0   1   1    0.0018       0.6   10.7   0.0   313   344    10    41     4    62 0.89 -
JF1A_TRINITY_DN67040_c1_g1_i2.p1JF1A_TRINITY_DN67040_c1_g1  -            295 76883at3193          -            395      0.33   11.5   0.1   1   1    0.0016      0.54   10.8   0.1   151   179    26    54    17    65 0.89 -
JF1J_TRINITY_DN63773_c0_g3_i3.p1JF1J_TRINITY_DN63773_c0_g3  -            115 76883at3193          -            395      0.33   11.5   0.0   1   1     0.001      0.33   11.5   0.0   117   153    67   103    23   111 0.91 -
JF3J_TRINITY_DN62121_c0_g1_i4.p1JF3J_TRINITY_DN62121_c0_g1  -            161 76883at3193          -            395      0.34   11.5   0.0   1   1    0.0011      0.35   11.4   0.0   232   322    21   112     3   146 0.84 -
JF3A_TRINITY_DN2589_c0_g1_i2.p1JF3A_TRINITY_DN2589_c0_g1    -            118 76883at3193          -            395      0.41   11.2   0.1   1   1    0.0021      0.68   10.5   0.0   162   206     1    47     1    58 0.86 -
JF1A_TRINITY_DN63857_c0_g1_i3.p1JF1A_TRINITY_DN63857_c0_g1  -            311 76883at3193          -            395      0.42   11.2   0.0   1   1    0.0017      0.55   10.8   0.0   138   177    54    94    33   183 0.78 -
JF3J_TRINITY_DN63475_c3_g1_i5.p1JF3J_TRINITY_DN63475_c3_g1  -            271 76883at3193          -            395      0.46   11.1   0.0   1   2      0.12        41    4.7   0.0   159   186   113   140   107   151 0.88 -
JF3J_TRINITY_DN63475_c3_g1_i5.p1JF3J_TRINITY_DN63475_c3_g1  -            271 76883at3193          -            395      0.46   11.1   0.0   2   2      0.17        55    4.2   0.0   159   181   220   242   214   248 0.89 -
JF3A_TRINITY_DN49629_c2_g1_i5.p1JF3A_TRINITY_DN49629_c2_g1  -            113 76883at3193          -            395      0.47   11.1   0.0   1   1     0.002      0.67   10.5   0.0   159   179    58    78    51    85 0.87 -
JF1A_TRINITY_DN25408_c0_g1_i1.p1JF1A_TRINITY_DN25408_c0_g1  -            108 76883at3193          -            395      0.52   10.9   0.1   1   1    0.0033       1.1    9.8   0.1   258   279     5    26     1    32 0.87 -
JF1A_TRINITY_DN66407_c2_g2_i10.p1JF1A_TRINITY_DN66407_c2_g2 -            256 76883at3193          -            395      0.58   10.7   0.2   1   1    0.0037       1.2    9.7   0.1   155   179     3    27     1    39 0.87 -
JF3J_TRINITY_DN63475_c3_g1_i6.p1JF3J_TRINITY_DN63475_c3_g1  -            248 76883at3193          -            395      0.58   10.7   0.0   1   2     0.024         8    7.0   0.0   159   192    38    71    32    78 0.88 -
JF3J_TRINITY_DN63475_c3_g1_i6.p1JF3J_TRINITY_DN63475_c3_g1  -            248 76883at3193          -            395      0.58   10.7   0.0   2   2       1.2   3.9e+02    1.4   0.0   159   179   226   246   221   247 0.89 -
JF2A_TRINITY_DN47299_c0_g1_i1.p1JF2A_TRINITY_DN47299_c0_g1  -            115 76883at3193          -            395      0.59   10.7   0.0   1   1    0.0018      0.59   10.7   0.0   178   225    12    59     4    96 0.89 -
JF3J_TRINITY_DN73063_c3_g1_i11.p1JF3J_TRINITY_DN73063_c3_g1 -            141 76883at3193          -            395      0.61   10.7   0.2   1   1    0.0024       0.8   10.3   0.2   149   179    16    46    10    57 0.88 -
JF1A_TRINITY_DN67040_c1_g1_i4.p1JF1A_TRINITY_DN67040_c1_g1  -            504 76883at3193          -            395      0.64   10.6   0.1   1   1    0.0035       1.1    9.8   0.1   151   179    26    54    18    64 0.89 -
JF3A_TRINITY_DN54735_c0_g2_i8.p1JF3A_TRINITY_DN54735_c0_g2  -            106 76883at3193          -            395      0.67   10.5   0.0   1   1    0.0022      0.74   10.4   0.0   148   177    34    63    29    81 0.85 -
JF3J_TRINITY_DN63475_c3_g1_i1.p1JF3J_TRINITY_DN63475_c3_g1  -            294 76883at3193          -            395      0.88   10.1   0.0   1   2     0.031        10    6.6   0.0   159   192   113   146   107   153 0.87 -
JF3J_TRINITY_DN63475_c3_g1_i1.p1JF3J_TRINITY_DN63475_c3_g1  -            294 76883at3193          -            395      0.88   10.1   0.0   2   2       1.5   4.9e+02    1.1   0.0   159   178   271   290   266   292 0.89 -
JF1A_TRINITY_DN63805_c4_g1_i5.p1JF1A_TRINITY_DN63805_c4_g1  -            311 76883at3193          -            395         1   10.0   1.9   1   2      0.92     3e+02    1.8   0.1   274   330    62   121    56   155 0.78 -
JF1A_TRINITY_DN63805_c4_g1_i5.p1JF1A_TRINITY_DN63805_c4_g1  -            311 76883at3193          -            395         1   10.0   1.9   2   2     0.019       6.1    7.4   0.5   152   178   159   185   141   194 0.83 -
#
# Program:         hmmsearch
# Version:         3.2.1 (June 2018)
# Pipeline mode:   SEARCH
# Query file:      /isg/shared/databases/BUSCO/odb10/embryophyta_odb10/hmms/76883at3193.hmm
# Target file:     Juniper_final_annotations_no_contam_lvl0.faa
# Option settings: /usr/local/bin/hmmsearch --domtblout /labs/Wegrzyn/Juniper_Pine/BUSCO/NEW/busco_juniper/run_embryophyta_odb10/hmmer_output/76883at3193.out --cpu 1 /isg/shared/databases/BUSCO/odb10/embryophyta_odb10/hmms/76883at3193.hmm Juniper_final_annotations_no_contam_lvl0.faa 
# Current dir:     /labs/Wegrzyn/Juniper_Pine/BUSCO/NEW
# Date:            Thu Aug  6 16:36:36 2020
# [ok]
