#                                                                                                                   --- full sequence --- -------------- this domain -------------   hmm coord   ali coord   env coord
# target name                                               accession   tlen query name           accession   qlen   E-value  score  bias   #  of  c-Evalue  i-Evalue  score  bias  from    to  from    to  from    to  acc description of target
#                                       ------------------- ---------- ----- -------------------- ---------- ----- --------- ------ ----- --- --- --------- --------- ------ ----- ----- ----- ----- ----- ----- ----- ---- ---------------------
JF1A_TRINITY_DN67618_c2_g5_i3.p1JF1A_TRINITY_DN67618_c2_g5  -            443 78718at3193          -            352  3.5e-156  521.4   2.9   1   2   8.5e-14   1.3e-10   42.6   0.0     4    49     1    46     1    55 0.94 -
JF1A_TRINITY_DN67618_c2_g5_i3.p1JF1A_TRINITY_DN67618_c2_g5  -            443 78718at3193          -            352  3.5e-156  521.4   2.9   2   2  4.9e-146  7.3e-143  477.6   2.2    43   340   111   443    85   443 0.93 -
JF1A_TRINITY_DN67618_c2_g5_i2.p1JF1A_TRINITY_DN67618_c2_g5  -            131 78718at3193          -            352   3.9e-28  100.2   0.1   1   1     3e-31   4.6e-28  100.0   0.1    56   127    40   117    18   125 0.89 -
JF2A_TRINITY_DN32941_c0_g1_i1.p1JF2A_TRINITY_DN32941_c0_g1  -            323 78718at3193          -            352   5.3e-10   40.6   5.1   1   2   0.00078       1.2    9.8   0.1   173   210    71   108    46   135 0.78 -
JF2A_TRINITY_DN32941_c0_g1_i1.p1JF2A_TRINITY_DN32941_c0_g1  -            323 78718at3193          -            352   5.3e-10   40.6   5.1   2   2   3.2e-09   4.8e-06   27.6   1.9    58   237   128   314   122   321 0.73 -
JF1A_TRINITY_DN61479_c2_g1_i2.p1JF1A_TRINITY_DN61479_c2_g1  -            523 78718at3193          -            352   1.7e-08   35.7   2.0   1   3   0.00079       1.2    9.8   0.0   165   209   259   303   218   320 0.81 -
JF1A_TRINITY_DN61479_c2_g1_i2.p1JF1A_TRINITY_DN61479_c2_g1  -            523 78718at3193          -            352   1.7e-08   35.7   2.0   2   3   0.00038      0.57   10.9   0.1   135   209   312   387   309   419 0.76 -
JF1A_TRINITY_DN61479_c2_g1_i2.p1JF1A_TRINITY_DN61479_c2_g1  -            523 78718at3193          -            352   1.7e-08   35.7   2.0   3   3   0.00028      0.42   11.3   0.1   154   208   415   470   409   484 0.87 -
JF1A_TRINITY_DN59352_c0_g1_i1.p1JF1A_TRINITY_DN59352_c0_g1  -            300 78718at3193          -            352   2.1e-08   35.3   1.1   1   4    0.0067        10    6.8   0.2   178   235    11    72     6    78 0.75 -
JF1A_TRINITY_DN59352_c0_g1_i1.p1JF1A_TRINITY_DN59352_c0_g1  -            300 78718at3193          -            352   2.1e-08   35.3   1.1   2   4     0.029        44    4.7   0.0   176   229    94   151    68   158 0.63 -
JF1A_TRINITY_DN59352_c0_g1_i1.p1JF1A_TRINITY_DN59352_c0_g1  -            300 78718at3193          -            352   2.1e-08   35.3   1.1   3   4     6e-07    0.0009   20.1   0.0   149   207   150   210   139   215 0.84 -
JF1A_TRINITY_DN59352_c0_g1_i1.p1JF1A_TRINITY_DN59352_c0_g1  -            300 78718at3193          -            352   2.1e-08   35.3   1.1   4   4      0.54   8.2e+02    0.5   0.0   187   208   235   256   226   291 0.79 -
JF1J_TRINITY_DN62421_c3_g6_i1.p1JF1J_TRINITY_DN62421_c3_g6  -            133 78718at3193          -            352   3.2e-08   34.7   0.1   1   1   2.5e-11   3.8e-08   34.5   0.1   147   208    36    99     6   119 0.85 -
JF2A_TRINITY_DN51052_c0_g1_i1.p1JF2A_TRINITY_DN51052_c0_g1  -            155 78718at3193          -            352   2.3e-07   31.9   0.2   1   2     4e-10   6.1e-07   30.5   0.1   149   209     4    66     2    98 0.85 -
JF2A_TRINITY_DN51052_c0_g1_i1.p1JF2A_TRINITY_DN51052_c0_g1  -            155 78718at3193          -            352   2.3e-07   31.9   0.2   2   2      0.99   1.5e+03   -0.4   0.0   187   205    89   107    71   135 0.84 -
JF1A_TRINITY_DN64533_c5_g1_i7.p1JF1A_TRINITY_DN64533_c5_g1  -            232 78718at3193          -            352   2.9e-05   25.0   3.0   1   2     5e-07   0.00076   20.3   0.5   151   235    28   117     3   127 0.77 -
JF1A_TRINITY_DN64533_c5_g1_i7.p1JF1A_TRINITY_DN64533_c5_g1  -            232 78718at3193          -            352   2.9e-05   25.0   3.0   2   2     0.021        32    5.1   0.1   178   230   140   198   118   209 0.69 -
JF2A_TRINITY_DN21722_c0_g1_i2.p1JF2A_TRINITY_DN21722_c0_g1  -            362 78718at3193          -            352   6.8e-05   23.8   0.2   1   3     0.011        16    6.1   0.0   179   236    65   127    18   171 0.66 -
JF2A_TRINITY_DN21722_c0_g1_i2.p1JF2A_TRINITY_DN21722_c0_g1  -            362 78718at3193          -            352   6.8e-05   23.8   0.2   2   3   2.3e-05     0.035   14.8   0.0   158   217   212   272   188   300 0.76 -
JF2A_TRINITY_DN21722_c0_g1_i2.p1JF2A_TRINITY_DN21722_c0_g1  -            362 78718at3193          -            352   6.8e-05   23.8   0.2   3   3       1.4   2.2e+03   -0.9   0.0   183   206   288   311   278   315 0.85 -
JF1A_TRINITY_DN63199_c1_g1_i9.p1JF1A_TRINITY_DN63199_c1_g1  -            305 78718at3193          -            352    0.0004   21.3  10.3   1   3   0.00041      0.62   10.7   0.3   182   227    24    75    18    80 0.68 -
JF1A_TRINITY_DN63199_c1_g1_i9.p1JF1A_TRINITY_DN63199_c1_g1  -            305 78718at3193          -            352    0.0004   21.3  10.3   2   3    0.0019       2.8    8.6   5.8   155   212    82   147    63   224 0.69 -
JF1A_TRINITY_DN63199_c1_g1_i9.p1JF1A_TRINITY_DN63199_c1_g1  -            305 78718at3193          -            352    0.0004   21.3  10.3   3   3      0.14   2.1e+02    2.5   0.0    86   205   267   295   233   302 0.70 -
JF3A_TRINITY_DN1862_c0_g1_i1.p1JF3A_TRINITY_DN1862_c0_g1    -            181 78718at3193          -            352   0.00042   21.2   0.1   1   2   9.9e-07    0.0015   19.4   0.0    44   112    23    93     3   108 0.77 -
JF3A_TRINITY_DN1862_c0_g1_i1.p1JF3A_TRINITY_DN1862_c0_g1    -            181 78718at3193          -            352   0.00042   21.2   0.1   2   2         1   1.6e+03   -0.5   0.0   211   232   104   125    99   145 0.81 -
JF3A_TRINITY_DN48736_c1_g2_i1.p1JF3A_TRINITY_DN48736_c1_g2  -            115 78718at3193          -            352   0.00046   21.1   0.1   1   1   5.3e-07    0.0008   20.3   0.1   147   231    18   108     2   115 0.77 -
JF2A_TRINITY_DN42720_c0_g2_i3.p1JF2A_TRINITY_DN42720_c0_g2  -            256 78718at3193          -            352   0.00089   20.1   7.9   1   2    0.0003      0.46   11.2   0.3   182   227   111   162   104   167 0.68 -
JF2A_TRINITY_DN42720_c0_g2_i3.p1JF2A_TRINITY_DN42720_c0_g2  -            256 78718at3193          -            352   0.00089   20.1   7.9   2   2   0.00013      0.19   12.4   1.4   155   214   169   231   149   249 0.69 -
JF1J_TRINITY_DN939_c0_g1_i1.p1JF1J_TRINITY_DN939_c0_g1      -            121 78718at3193          -            352    0.0011   19.8   0.5   1   1   9.2e-07    0.0014   19.5   0.6   183   218    47    82     8   117 0.68 -
JF1A_TRINITY_DN60067_c0_g1_i4.p1JF1A_TRINITY_DN60067_c0_g1  -            213 78718at3193          -            352    0.0011   19.7   0.1   1   2     6e-06    0.0091   16.8   0.1   147   229    46   131    11   140 0.78 -
JF1A_TRINITY_DN60067_c0_g1_i4.p1JF1A_TRINITY_DN60067_c0_g1  -            213 78718at3193          -            352    0.0011   19.7   0.1   2   2      0.56   8.5e+02    0.4   0.0   161   207   142   189   135   200 0.80 -
JF2A_TRINITY_DN45431_c0_g1_i1.p1JF2A_TRINITY_DN45431_c0_g1  -            134 78718at3193          -            352    0.0015   19.4   0.2   1   1   1.2e-06    0.0017   19.1   0.2   181   232    69   124    31   133 0.78 -
JF1A_TRINITY_DN58804_c0_g1_i3.p1JF1A_TRINITY_DN58804_c0_g1  -            159 78718at3193          -            352    0.0016   19.2   1.0   1   2    0.0056       8.5    7.0   0.2   179   207    48    76    17    82 0.74 -
JF1A_TRINITY_DN58804_c0_g1_i3.p1JF1A_TRINITY_DN58804_c0_g1  -            159 78718at3193          -            352    0.0016   19.2   1.0   2   2   0.00031      0.47   11.1   0.1   170   229    81   144    75   150 0.82 -
JF1A_TRINITY_DN39106_c0_g1_i1.p1JF1A_TRINITY_DN39106_c0_g1  -            137 78718at3193          -            352    0.0017   19.2   1.9   1   1   1.5e-06    0.0023   18.8   1.9   156   220     8    78     1   100 0.75 -
JF3A_TRINITY_DN55859_c5_g1_i5.p1JF3A_TRINITY_DN55859_c5_g1  -            145 78718at3193          -            352    0.0022   18.8   0.1   1   1   1.9e-06    0.0028   18.4   0.1   178   231    21    78    10    89 0.89 -
JF1A_TRINITY_DN58804_c0_g1_i1.p1JF1A_TRINITY_DN58804_c0_g1  -            174 78718at3193          -            352    0.0047   17.7   1.8   1   1     1e-05     0.015   16.0   1.8   149   229    74   159     8   169 0.66 -
JF1A_TRINITY_DN63467_c3_g3_i3.p1JF1A_TRINITY_DN63467_c3_g3  -            262 78718at3193          -            352    0.0048   17.7   0.1   1   2   1.3e-05     0.019   15.7   0.0   158   217   111   171    87   200 0.76 -
JF1A_TRINITY_DN63467_c3_g3_i3.p1JF1A_TRINITY_DN63467_c3_g3  -            262 78718at3193          -            352    0.0048   17.7   0.1   2   2      0.94   1.4e+03   -0.3   0.0   183   206   187   210   178   215 0.85 -
JF1J_TRINITY_DN68608_c1_g1_i2.p1JF1J_TRINITY_DN68608_c1_g1  -            133 78718at3193          -            352    0.0061   17.3   0.9   1   1     9e-06     0.014   16.2   0.9   131   231    13   118     6   129 0.72 -
JF1A_TRINITY_DN66612_c1_g5_i1.p1JF1A_TRINITY_DN66612_c1_g5  -            183 78718at3193          -            352     0.014   16.2   0.7   1   2   8.3e-05      0.13   13.0   0.0   152   232    17   101     7   112 0.82 -
JF1A_TRINITY_DN66612_c1_g5_i1.p1JF1A_TRINITY_DN66612_c1_g5  -            183 78718at3193          -            352     0.014   16.2   0.7   2   2      0.25   3.7e+02    1.6   0.2   185   224   138   181   127   183 0.69 -
JF1A_TRINITY_DN62386_c0_g7_i1.p1JF1A_TRINITY_DN62386_c0_g7  -            170 78718at3193          -            352     0.016   16.0   0.0   1   1   1.3e-05      0.02   15.7   0.0   121   209    47   139    16   148 0.87 -
JF1A_TRINITY_DN58106_c0_g1_i1.p1JF1A_TRINITY_DN58106_c0_g1  -            202 78718at3193          -            352     0.016   15.9   0.5   1   1   1.5e-05     0.023   15.4   0.5   178   259    29   117    23   145 0.76 -
JF1J_TRINITY_DN61551_c2_g1_i1.p1JF1J_TRINITY_DN61551_c2_g1  -            124 78718at3193          -            352     0.021   15.6   0.6   1   1   0.00076       1.1    9.9   0.0   178   207    23    53    16    76 0.78 -
JF1A_TRINITY_DN65933_c3_g4_i2.p1JF1A_TRINITY_DN65933_c3_g4  -            242 78718at3193          -            352     0.022   15.5   2.1   1   3     0.072   1.1e+02    3.4   0.0   182   211    27    57     5    68 0.83 -
JF1A_TRINITY_DN65933_c3_g4_i2.p1JF1A_TRINITY_DN65933_c3_g4  -            242 78718at3193          -            352     0.022   15.5   2.1   2   3    0.0018       2.8    8.6   0.0   273   305    83   112    71   118 0.86 -
JF1A_TRINITY_DN65933_c3_g4_i2.p1JF1A_TRINITY_DN65933_c3_g4  -            242 78718at3193          -            352     0.022   15.5   2.1   3   3      0.23   3.5e+02    1.7   0.1   179   222   166   209   127   218 0.67 -
JF1A_TRINITY_DN60870_c1_g4_i3.p1JF1A_TRINITY_DN60870_c1_g4  -            151 78718at3193          -            352     0.027   15.2   0.4   1   3       1.4   2.2e+03   -0.9   0.0   180   204    18    42    11    48 0.85 -
JF1A_TRINITY_DN60870_c1_g4_i3.p1JF1A_TRINITY_DN60870_c1_g4  -            151 78718at3193          -            352     0.027   15.2   0.4   2   3   0.00012      0.19   12.5   0.1   172   212    51    91    27   130 0.74 -
JF1A_TRINITY_DN60870_c1_g4_i3.p1JF1A_TRINITY_DN60870_c1_g4  -            151 78718at3193          -            352     0.027   15.2   0.4   3   3       0.3   4.5e+02    1.3   0.0    60    96   111   150    91   151 0.58 -
JF1J_TRINITY_DN66213_c2_g1_i5.p1JF1J_TRINITY_DN66213_c2_g1  -            147 78718at3193          -            352      0.03   15.1   0.1   1   1   4.4e-05     0.066   14.0   0.1   154   206    27    80     8   134 0.77 -
JF3J_TRINITY_DN71509_c2_g1_i5.p1JF3J_TRINITY_DN71509_c2_g1  -            363 78718at3193          -            352     0.043   14.5   0.1   1   2     0.077   1.2e+02    3.3   0.2   177   238   146   211   114   241 0.60 -
JF3J_TRINITY_DN71509_c2_g1_i5.p1JF3J_TRINITY_DN71509_c2_g1  -            363 78718at3193          -            352     0.043   14.5   0.1   2   2    0.0019       2.8    8.6   0.0   161   217   254   312   243   321 0.78 -
JF1A_TRINITY_DN66429_c0_g7_i1.p1JF1A_TRINITY_DN66429_c0_g7  -            578 78718at3193          -            352     0.045   14.5   0.1   1   4       2.9   4.4e+03   -1.9   0.0   168   204   251   287   247   291 0.83 -
JF1A_TRINITY_DN66429_c0_g7_i1.p1JF1A_TRINITY_DN66429_c0_g7  -            578 78718at3193          -            352     0.045   14.5   0.1   2   4     0.012        19    5.9   0.0   176   206   367   397   351   408 0.86 -
JF1A_TRINITY_DN66429_c0_g7_i1.p1JF1A_TRINITY_DN66429_c0_g7  -            578 78718at3193          -            352     0.045   14.5   0.1   3   4    0.0037       5.6    7.6   0.0   153   228   385   464   383   472 0.83 -
JF1A_TRINITY_DN66429_c0_g7_i1.p1JF1A_TRINITY_DN66429_c0_g7  -            578 78718at3193          -            352     0.045   14.5   0.1   4   4       7.5   1.1e+04   -3.3   0.0   184   203   558   577   548   578 0.77 -
JF1A_TRINITY_DN62743_c0_g7_i1.p1JF1A_TRINITY_DN62743_c0_g7  -            329 78718at3193          -            352     0.063   14.0   0.2   1   3     0.017        25    5.5   0.0   180   232    61   118    57   131 0.77 -
JF1A_TRINITY_DN62743_c0_g7_i1.p1JF1A_TRINITY_DN62743_c0_g7  -            329 78718at3193          -            352     0.063   14.0   0.2   2   3     0.014        21    5.7   0.0   214   237   233   257   182   275 0.55 -
JF1A_TRINITY_DN62743_c0_g7_i1.p1JF1A_TRINITY_DN62743_c0_g7  -            329 78718at3193          -            352     0.063   14.0   0.2   3   3     0.019        28    5.3   0.1    87   120   236   269   232   301 0.67 -
JF2A_TRINITY_DN33261_c0_g1_i2.p1JF2A_TRINITY_DN33261_c0_g1  -            245 78718at3193          -            352     0.066   13.9   0.6   1   2   0.00027      0.41   11.3   0.4    90   241     7   167     5   219 0.71 -
JF2A_TRINITY_DN33261_c0_g1_i2.p1JF2A_TRINITY_DN33261_c0_g1  -            245 78718at3193          -            352     0.066   13.9   0.6   2   2      0.54   8.1e+02    0.5   0.1   177   204   198   226   190   231 0.76 -
JF3A_TRINITY_DN55822_c0_g3_i2.p1JF3A_TRINITY_DN55822_c0_g3  -            104 78718at3193          -            352     0.067   13.9   0.1   1   1   5.2e-05     0.078   13.7   0.1   149   214    30   100    14   102 0.81 -
JF1A_TRINITY_DN30398_c0_g1_i1.p1JF1A_TRINITY_DN30398_c0_g1  -            102 78718at3193          -            352     0.078   13.7   2.2   1   2    0.0014       2.1    9.0   0.1    86   120     4    41     2    63 0.71 -
JF1A_TRINITY_DN30398_c0_g1_i1.p1JF1A_TRINITY_DN30398_c0_g1  -            102 78718at3193          -            352     0.078   13.7   2.2   2   2     0.015        23    5.6   0.4   180   208    60    88    52   100 0.61 -
JF1A_TRINITY_DN13346_c0_g1_i1.p1JF1A_TRINITY_DN13346_c0_g1  -            141 78718at3193          -            352     0.081   13.6   0.2   1   1   6.5e-05     0.097   13.4   0.2   154   207    43    97    19   134 0.79 -
JF3A_TRINITY_DN55822_c0_g3_i3.p1JF3A_TRINITY_DN55822_c0_g3  -            146 78718at3193          -            352      0.13   13.0   0.8   1   2    0.0011       1.6    9.4   0.2   149   207    30    93    23   101 0.78 -
JF3A_TRINITY_DN55822_c0_g3_i3.p1JF3A_TRINITY_DN55822_c0_g3  -            146 78718at3193          -            352      0.13   13.0   0.8   2   2   0.00072       1.1    9.9   0.2   139   211    66   139    52   144 0.71 -
JF1A_TRINITY_DN63651_c1_g1_i1.p1JF1A_TRINITY_DN63651_c1_g1  -            210 78718at3193          -            352      0.13   12.9   0.0   1   1   0.00012      0.18   12.5   0.0   262   304    52    98    35   106 0.79 -
JF3J_TRINITY_DN63955_c0_g2_i2.p1JF3J_TRINITY_DN63955_c0_g2  -            107 78718at3193          -            352      0.16   12.7   0.1   1   1   0.00013      0.19   12.4   0.1   155   224    21    95     5   100 0.71 -
JF1J_TRINITY_DN65309_c1_g1_i2.p1JF1J_TRINITY_DN65309_c1_g1  -            138 78718at3193          -            352      0.25   12.0   0.0   1   1   0.00022      0.33   11.6   0.0   160   219    45   106    31   118 0.80 -
JF1A_TRINITY_DN62765_c1_g2_i1.p1JF1A_TRINITY_DN62765_c1_g2  -            266 78718at3193          -            352      0.39   11.4   0.1   1   1   0.00042      0.63   10.7   0.1   180   231   196   254   187   266 0.67 -
JF1J_TRINITY_DN71722_c0_g1_i4.p1JF1J_TRINITY_DN71722_c0_g1  -            119 78718at3193          -            352       0.4   11.4   0.1   1   2       3.2   4.8e+03   -2.0   0.0   190   207     4    21     3    27 0.79 -
JF1J_TRINITY_DN71722_c0_g1_i4.p1JF1J_TRINITY_DN71722_c0_g1  -            119 78718at3193          -            352       0.4   11.4   0.1   2   2    0.0006      0.91   10.2   0.0   158   207    47   100    39   107 0.75 -
JF1A_TRINITY_DN61586_c1_g3_i2.p1JF1A_TRINITY_DN61586_c1_g3  -            263 78718at3193          -            352      0.42   11.3   0.2   1   3     0.025        38    4.9   0.0   178   212     8    42     4    59 0.82 -
JF1A_TRINITY_DN61586_c1_g3_i2.p1JF1A_TRINITY_DN61586_c1_g3  -            263 78718at3193          -            352      0.42   11.3   0.2   2   3      0.13   1.9e+02    2.6   0.1   179   210    54    85    45   112 0.73 -
JF1A_TRINITY_DN61586_c1_g3_i2.p1JF1A_TRINITY_DN61586_c1_g3  -            263 78718at3193          -            352      0.42   11.3   0.2   3   3      0.61   9.2e+02    0.3   0.0   160   205   120   165   108   198 0.76 -
JF3A_TRINITY_DN56415_c2_g2_i11.p1JF3A_TRINITY_DN56415_c2_g2 -            111 78718at3193          -            352      0.47   11.1   0.0   1   1   0.00047       0.7   10.6   0.0   146   199    10    66     3   111 0.85 -
JF1A_TRINITY_DN60992_c0_g2_i8.p1JF1A_TRINITY_DN60992_c0_g2  -            183 78718at3193          -            352      0.54   11.0   0.0   1   2   0.00083       1.3    9.7   0.0   165   210    42    88    26   115 0.80 -
JF1A_TRINITY_DN60992_c0_g2_i8.p1JF1A_TRINITY_DN60992_c0_g2  -            183 78718at3193          -            352      0.54   11.0   0.0   2   2         3   4.6e+03   -2.0   0.0   176   200   139   163   111   171 0.71 -
JF2A_TRINITY_DN41654_c1_g1_i19.p1JF2A_TRINITY_DN41654_c1_g1 -            179 78718at3193          -            352      0.56   10.9   0.0   1   1   0.00058      0.88   10.3   0.0    35    97    22    84     7    89 0.88 -
#
# Program:         hmmsearch
# Version:         3.2.1 (June 2018)
# Pipeline mode:   SEARCH
# Query file:      /isg/shared/databases/BUSCO/odb10/embryophyta_odb10/hmms/78718at3193.hmm
# Target file:     Juniper_final_annotations_no_contam_lvl0.faa
# Option settings: /usr/local/bin/hmmsearch --domtblout /labs/Wegrzyn/Juniper_Pine/BUSCO/NEW/busco_juniper/run_embryophyta_odb10/hmmer_output/78718at3193.out --cpu 1 /isg/shared/databases/BUSCO/odb10/embryophyta_odb10/hmms/78718at3193.hmm Juniper_final_annotations_no_contam_lvl0.faa 
# Current dir:     /labs/Wegrzyn/Juniper_Pine/BUSCO/NEW
# Date:            Thu Aug  6 16:37:14 2020
# [ok]
