#                                                                                                                  --- full sequence --- -------------- this domain -------------   hmm coord   ali coord   env coord
# target name                                              accession   tlen query name           accession   qlen   E-value  score  bias   #  of  c-Evalue  i-Evalue  score  bias  from    to  from    to  from    to  acc description of target
#                                      ------------------- ---------- ----- -------------------- ---------- ----- --------- ------ ----- --- --- --------- --------- ------ ----- ----- ----- ----- ----- ----- ----- ---- ---------------------
JF2A_TRINITY_DN38740_c1_g1_i2.p1JF2A_TRINITY_DN38740_c1_g1 -            316 79010at3193          -            434  2.8e-100  338.3  13.7   1   1  1.6e-104  2.8e-100  338.3  13.7    58   274    56   286    36   315 0.88 -
JF2A_TRINITY_DN38740_c1_g1_i4.p1JF2A_TRINITY_DN38740_c1_g1 -            196 79010at3193          -            434   4.1e-40  140.0   6.2   1   2      0.17     3e+03   -1.3   0.3   312   353     7    48     2    55 0.56 -
JF2A_TRINITY_DN38740_c1_g1_i4.p1JF2A_TRINITY_DN38740_c1_g1 -            196 79010at3193          -            434   4.1e-40  140.0   6.2   2   2   2.7e-44   4.7e-40  139.8   4.8    58   163    56   173    22   183 0.82 -
JF2A_TRINITY_DN1074_c0_g1_i1.p1JF2A_TRINITY_DN1074_c0_g1   -            128 79010at3193          -            434   1.1e-05   26.5   8.4   1   2      0.15   2.7e+03   -1.1   0.1   336   349    16    29     5    38 0.70 -
JF2A_TRINITY_DN1074_c0_g1_i1.p1JF2A_TRINITY_DN1074_c0_g1   -            128 79010at3193          -            434   1.1e-05   26.5   8.4   2   2   6.4e-10   1.1e-05   26.5   8.4   326   392    41   124    26   127 0.70 -
JF1A_TRINITY_DN63886_c0_g1_i7.p1JF1A_TRINITY_DN63886_c0_g1 -            123 79010at3193          -            434       0.3   11.9   0.0   1   1     2e-05      0.35   11.7   0.0   349   415    16    82     8    99 0.87 -
#
# Program:         hmmsearch
# Version:         3.2.1 (June 2018)
# Pipeline mode:   SEARCH
# Query file:      /isg/shared/databases/BUSCO/odb10/embryophyta_odb10/hmms/79010at3193.hmm
# Target file:     Juniper_final_annotations_no_contam_lvl0.faa
# Option settings: /usr/local/bin/hmmsearch --domtblout /labs/Wegrzyn/Juniper_Pine/BUSCO/NEW/busco_juniper/run_embryophyta_odb10/hmmer_output/79010at3193.out --cpu 1 /isg/shared/databases/BUSCO/odb10/embryophyta_odb10/hmms/79010at3193.hmm Juniper_final_annotations_no_contam_lvl0.faa 
# Current dir:     /labs/Wegrzyn/Juniper_Pine/BUSCO/NEW
# Date:            Thu Aug  6 16:37:24 2020
# [ok]
