#                                                                                                                    --- full sequence --- -------------- this domain -------------   hmm coord   ali coord   env coord
# target name                                                accession   tlen query name           accession   qlen   E-value  score  bias   #  of  c-Evalue  i-Evalue  score  bias  from    to  from    to  from    to  acc description of target
#                                        ------------------- ---------- ----- -------------------- ---------- ----- --------- ------ ----- --- --- --------- --------- ------ ----- ----- ----- ----- ----- ----- ----- ---- ---------------------
JF1A_TRINITY_DN64358_c0_g2_i10.p1JF1A_TRINITY_DN64358_c0_g2  -            329 81165at3193          -            383  5.3e-129  432.2   7.5   1   1  1.8e-130  3.8e-127  426.1   7.5     1   254    30   321    30   324 0.91 -
JF1A_TRINITY_DN64358_c0_g2_i1.p1JF1A_TRINITY_DN64358_c0_g2   -            175 81165at3193          -            383   3.6e-36  126.6   0.6   1   3       1.2   2.5e+03   -1.3   0.0   269   279     1    11     1    16 0.90 -
JF1A_TRINITY_DN64358_c0_g2_i1.p1JF1A_TRINITY_DN64358_c0_g2   -            175 81165at3193          -            383   3.6e-36  126.6   0.6   2   3      0.99   2.1e+03   -1.0   0.0   279   291    32    44    26    59 0.83 -
JF1A_TRINITY_DN64358_c0_g2_i1.p1JF1A_TRINITY_DN64358_c0_g2   -            175 81165at3193          -            383   3.6e-36  126.6   0.6   3   3   7.6e-39   1.6e-35  124.4   0.1   286   377    61   158    53   161 0.92 -
JF2A_TRINITY_DN44166_c0_g1_i1.p1JF2A_TRINITY_DN44166_c0_g1   -            142 81165at3193          -            383   1.7e-20   75.0   0.1   1   1   8.4e-24   1.8e-20   74.9   0.1   181   272    22   115     9   135 0.87 -
JF2A_TRINITY_DN38833_c0_g2_i1.p1JF2A_TRINITY_DN38833_c0_g2   -            248 81165at3193          -            383   7.4e-16   59.7   1.3   1   2       3.2     7e+03   -2.7   0.1   258   282     9    33     4    54 0.73 -
JF2A_TRINITY_DN38833_c0_g2_i1.p1JF2A_TRINITY_DN38833_c0_g2   -            248 81165at3193          -            383   7.4e-16   59.7   1.3   2   2   3.4e-19   7.4e-16   59.7   1.3   188   279   115   215    90   242 0.83 -
JF1A_TRINITY_DN66147_c1_g1_i9.p1JF1A_TRINITY_DN66147_c1_g1   -            190 81165at3193          -            383   3.7e-06   27.8   0.2   1   1   2.3e-09   4.9e-06   27.4   0.2   184   244    31    89    21   107 0.87 -
JF1A_TRINITY_DN61575_c0_g1_i9.p1JF1A_TRINITY_DN61575_c0_g1   -            352 81165at3193          -            383   5.8e-06   27.2   0.0   1   1   3.8e-09   8.3e-06   26.7   0.0   183   274   120   213    87   225 0.75 -
JF1A_TRINITY_DN68705_c3_g10_i1.p1JF1A_TRINITY_DN68705_c3_g10 -            239 81165at3193          -            383   7.2e-06   26.9   0.0   1   1     4e-09   8.8e-06   26.6   0.0   188   243   147   203   130   235 0.84 -
JF2A_TRINITY_DN39878_c0_g2_i4.p1JF2A_TRINITY_DN39878_c0_g2   -            528 81165at3193          -            383     1e-05   26.4   0.1   1   1   9.7e-09   2.1e-05   25.3   0.1   183   243   198   256   184   274 0.86 -
JF3J_TRINITY_DN72280_c0_g1_i1.p1JF3J_TRINITY_DN72280_c0_g1   -            179 81165at3193          -            383   1.2e-05   26.1   0.6   1   1   1.6e-08   3.5e-05   24.6   0.6     1    45    83   144    83   153 0.70 -
JF1J_TRINITY_DN67394_c4_g3_i1.p1JF1J_TRINITY_DN67394_c4_g3   -            123 81165at3193          -            383   0.00018   22.2   0.0   1   1   1.5e-07   0.00032   21.4   0.0   188   213    98   123    81   123 0.85 -
JF1J_TRINITY_DN70801_c1_g3_i1.p1JF1J_TRINITY_DN70801_c1_g3   -            133 81165at3193          -            383    0.0085   16.7   0.0   1   1   5.2e-06     0.011   16.3   0.0   184   208    61    85    40    89 0.86 -
JF1A_TRINITY_DN65348_c0_g4_i2.p1JF1A_TRINITY_DN65348_c0_g4   -            152 81165at3193          -            383     0.012   16.2   0.0   1   1   7.6e-06     0.016   15.8   0.0   189   222    42    75    36    85 0.89 -
JF1A_TRINITY_DN67335_c3_g1_i12.p1JF1A_TRINITY_DN67335_c3_g1  -            369 81165at3193          -            383     0.015   16.0   0.2   1   3       2.9   6.2e+03   -2.6   0.0   161   186     9    34     3    39 0.83 -
JF1A_TRINITY_DN67335_c3_g1_i12.p1JF1A_TRINITY_DN67335_c3_g1  -            369 81165at3193          -            383     0.015   16.0   0.2   2   3   0.00016      0.36   11.4   0.0   187   279    65   157    55   163 0.80 -
JF1A_TRINITY_DN67335_c3_g1_i12.p1JF1A_TRINITY_DN67335_c3_g1  -            369 81165at3193          -            383     0.015   16.0   0.2   3   3      0.15   3.2e+02    1.7   0.0   263   298   226   260   219   266 0.74 -
JF1A_TRINITY_DN61956_c2_g2_i2.p1JF1A_TRINITY_DN61956_c2_g2   -            216 81165at3193          -            383     0.018   15.6   0.0   1   2   9.7e-05      0.21   12.2   0.0   189   243    18    72    14   100 0.79 -
JF1A_TRINITY_DN61956_c2_g2_i2.p1JF1A_TRINITY_DN61956_c2_g2   -            216 81165at3193          -            383     0.018   15.6   0.0   2   2      0.17   3.8e+02    1.4   0.0   259   310   133   186   119   198 0.78 -
JF1A_TRINITY_DN62607_c2_g2_i5.p1JF1A_TRINITY_DN62607_c2_g2   -            303 81165at3193          -            383     0.023   15.3   0.0   1   1   1.6e-05     0.035   14.7   0.0   185   222   123   160   110   204 0.78 -
JF1A_TRINITY_DN60584_c0_g1_i4.p1JF1A_TRINITY_DN60584_c0_g1   -            309 81165at3193          -            383     0.029   15.0   0.0   1   1     2e-05     0.043   14.4   0.0   189   215   128   154   113   170 0.78 -
JF2A_TRINITY_DN42417_c1_g3_i8.p1JF2A_TRINITY_DN42417_c1_g3   -            413 81165at3193          -            383      0.04   14.5   0.0   1   1   2.9e-05     0.063   13.9   0.0   184   208    55    79    35    83 0.88 -
JF1J_TRINITY_DN63050_c6_g1_i1.p1JF1J_TRINITY_DN63050_c6_g1   -            133 81165at3193          -            383     0.067   13.8   0.0   1   1     4e-05     0.086   13.4   0.0   183   214    24    55     9    62 0.82 -
JF2A_TRINITY_DN41712_c2_g2_i1.p1JF2A_TRINITY_DN41712_c2_g2   -            529 81165at3193          -            383     0.076   13.6   0.0   1   1   6.1e-05      0.13   12.8   0.0   187   223   194   230   183   245 0.89 -
JF1J_TRINITY_DN71198_c0_g3_i2.p1JF1J_TRINITY_DN71198_c0_g3   -            137 81165at3193          -            383     0.098   13.2   0.0   1   1   5.2e-05      0.11   13.0   0.0   183   245    42   105    22   134 0.80 -
JF1A_TRINITY_DN62787_c2_g3_i1.p1JF1A_TRINITY_DN62787_c2_g3   -            320 81165at3193          -            383      0.13   12.8   0.0   1   1   8.4e-05      0.18   12.4   0.0   190   223     2    35     1    52 0.90 -
JF1A_TRINITY_DN67736_c0_g4_i1.p1JF1A_TRINITY_DN67736_c0_g4   -            459 81165at3193          -            383      0.13   12.8   0.1   1   1   9.9e-05      0.21   12.1   0.1   186   218    90   122    80   247 0.90 -
JF1A_TRINITY_DN61190_c5_g2_i3.p1JF1A_TRINITY_DN61190_c5_g2   -            201 81165at3193          -            383      0.13   12.8   0.0   1   1   8.1e-05      0.18   12.4   0.0   186   245    21    81     7   109 0.89 -
JF2J_TRINITY_DN2357_c0_g1_i1.p1JF2J_TRINITY_DN2357_c0_g1     -            140 81165at3193          -            383      0.15   12.6   0.0   1   1   9.6e-05      0.21   12.2   0.0   188   213   112   137   100   139 0.88 -
JF3J_TRINITY_DN61607_c0_g1_i2.p1JF3J_TRINITY_DN61607_c0_g1   -            163 81165at3193          -            383      0.16   12.6   0.0   1   1   7.3e-05      0.16   12.6   0.0   188   243    55   110    16   159 0.81 -
JF1A_TRINITY_DN61190_c5_g2_i6.p1JF1A_TRINITY_DN61190_c5_g2   -            349 81165at3193          -            383      0.17   12.5   0.3   1   2   0.00022      0.47   11.0   0.1   186   245    37    97    19   121 0.88 -
JF1A_TRINITY_DN61190_c5_g2_i6.p1JF1A_TRINITY_DN61190_c5_g2   -            349 81165at3193          -            383      0.17   12.5   0.3   2   2       1.1   2.3e+03   -1.1   0.0   229   253   242   266   173   287 0.70 -
JF1J_TRINITY_DN73360_c4_g1_i4.p1JF1J_TRINITY_DN73360_c4_g1   -            177 81165at3193          -            383       0.2   12.3   0.0   1   1   0.00012      0.27   11.8   0.0   186   208    52    74    41   105 0.85 -
JF1A_TRINITY_DN30480_c0_g1_i1.p1JF1A_TRINITY_DN30480_c0_g1   -            191 81165at3193          -            383      0.29   11.7   0.0   1   1    0.0002      0.43   11.1   0.0   167   206   138   175   125   179 0.83 -
JF1A_TRINITY_DN65362_c2_g1_i5.p1JF1A_TRINITY_DN65362_c2_g1   -            265 81165at3193          -            383      0.31   11.6   0.0   1   1   0.00024      0.53   10.8   0.0   182   210    15    43     7    53 0.82 -
JF1A_TRINITY_DN63917_c1_g1_i1.p1JF1A_TRINITY_DN63917_c1_g1   -            194 81165at3193          -            383      0.32   11.6   0.1   1   1   0.00018       0.4   11.3   0.1   183   245    43   106    24   123 0.80 -
JF3J_TRINITY_DN63023_c2_g6_i6.p1JF3J_TRINITY_DN63023_c2_g6   -            167 81165at3193          -            383      0.71   10.4   0.1   1   2       3.1   6.8e+03   -2.7   0.0   211   243     6    39     5    65 0.71 -
JF3J_TRINITY_DN63023_c2_g6_i6.p1JF3J_TRINITY_DN63023_c2_g6   -            167 81165at3193          -            383      0.71   10.4   0.1   2   2   0.00061       1.3    9.5   0.0   188   203   123   138   105   146 0.88 -
JF1A_TRINITY_DN62666_c0_g4_i1.p1JF1A_TRINITY_DN62666_c0_g4   -            248 81165at3193          -            383       0.9   10.1   0.0   1   1   0.00061       1.3    9.5   0.0   183   211   203   231   198   243 0.83 -
#
# Program:         hmmsearch
# Version:         3.2.1 (June 2018)
# Pipeline mode:   SEARCH
# Query file:      /isg/shared/databases/BUSCO/odb10/embryophyta_odb10/hmms/81165at3193.hmm
# Target file:     Juniper_final_annotations_no_contam_lvl0.faa
# Option settings: /usr/local/bin/hmmsearch --domtblout /labs/Wegrzyn/Juniper_Pine/BUSCO/NEW/busco_juniper/run_embryophyta_odb10/hmmer_output/81165at3193.out --cpu 1 /isg/shared/databases/BUSCO/odb10/embryophyta_odb10/hmms/81165at3193.hmm Juniper_final_annotations_no_contam_lvl0.faa 
# Current dir:     /labs/Wegrzyn/Juniper_Pine/BUSCO/NEW
# Date:            Thu Aug  6 16:38:15 2020
# [ok]
