#                                                                                                                   --- full sequence --- -------------- this domain -------------   hmm coord   ali coord   env coord
# target name                                               accession   tlen query name           accession   qlen   E-value  score  bias   #  of  c-Evalue  i-Evalue  score  bias  from    to  from    to  from    to  acc description of target
#                                       ------------------- ---------- ----- -------------------- ---------- ----- --------- ------ ----- --- --- --------- --------- ------ ----- ----- ----- ----- ----- ----- ----- ---- ---------------------
JF1A_TRINITY_DN65187_c1_g7_i1.p1JF1A_TRINITY_DN65187_c1_g7  -            658 81710at3193          -            508  5.1e-155  519.0  30.9   1   3   1.6e-94   5.9e-91  307.6  11.0    19   224    14   235    12   239 0.93 -
JF1A_TRINITY_DN65187_c1_g7_i1.p1JF1A_TRINITY_DN65187_c1_g7  -            658 81710at3193          -            508  5.1e-155  519.0  30.9   2   3     2e-22   7.5e-19   69.7   2.3   203   322   236   377   234   383 0.84 -
JF1A_TRINITY_DN65187_c1_g7_i1.p1JF1A_TRINITY_DN65187_c1_g7  -            658 81710at3193          -            508  5.1e-155  519.0  30.9   3   3   6.1e-47   2.2e-43  150.7   1.8   312   508   392   644   380   644 0.80 -
JF1A_TRINITY_DN61587_c0_g3_i4.p1JF1A_TRINITY_DN61587_c0_g3  -            222 81710at3193          -            508   5.7e-13   50.3   3.4   1   3   5.7e-10   2.1e-06   28.7   0.0   126   185    22    80    15    82 0.88 -
JF1A_TRINITY_DN61587_c0_g3_i4.p1JF1A_TRINITY_DN61587_c0_g3  -            222 81710at3193          -            508   5.7e-13   50.3   3.4   2   3   2.3e-06    0.0085   16.8   0.0   116   180    76   136    75   142 0.89 -
JF1A_TRINITY_DN61587_c0_g3_i4.p1JF1A_TRINITY_DN61587_c0_g3  -            222 81710at3193          -            508   5.7e-13   50.3   3.4   3   3     0.001       3.8    8.0   0.6   157   235   143   215   137   222 0.63 -
JF1A_TRINITY_DN67337_c3_g5_i1.p1JF1A_TRINITY_DN67337_c3_g5  -            233 81710at3193          -            508     3e-07   31.4   2.3   1   2   2.3e-10   8.4e-07   30.0   0.6    93   198    54   159    32   171 0.85 -
JF1A_TRINITY_DN67337_c3_g5_i1.p1JF1A_TRINITY_DN67337_c3_g5  -            233 81710at3193          -            508     3e-07   31.4   2.3   2   2      0.11   4.1e+02    1.3   0.1   141   186   170   214   150   232 0.63 -
JF3A_TRINITY_DN54549_c6_g1_i2.p1JF3A_TRINITY_DN54549_c6_g1  -            171 81710at3193          -            508   3.2e-06   28.1   0.8   1   3      0.11   4.1e+02    1.3   0.0   132   180     8    57     2    66 0.70 -
JF3A_TRINITY_DN54549_c6_g1_i2.p1JF3A_TRINITY_DN54549_c6_g1  -            171 81710at3193          -            508   3.2e-06   28.1   0.8   2   3   4.1e-05      0.15   12.7   0.1   132   197    44   108    21   119 0.76 -
JF3A_TRINITY_DN54549_c6_g1_i2.p1JF3A_TRINITY_DN54549_c6_g1  -            171 81710at3193          -            508   3.2e-06   28.1   0.8   3   3   1.7e-05      0.06   14.0   0.1   129   185   109   164   102   165 0.79 -
JF1A_TRINITY_DN66597_c4_g6_i1.p1JF1A_TRINITY_DN66597_c4_g6  -            344 81710at3193          -            508    0.0028   18.4   1.9   1   2     0.037   1.4e+02    2.9   0.0    90   123    79   111    60   124 0.82 -
JF1A_TRINITY_DN66597_c4_g6_i1.p1JF1A_TRINITY_DN66597_c4_g6  -            344 81710at3193          -            508    0.0028   18.4   1.9   2   2     2e-05     0.073   13.7   0.3   111   183   257   330   217   337 0.68 -
JF1J_TRINITY_DN73480_c0_g1_i1.p1JF1J_TRINITY_DN73480_c0_g1  -            121 81710at3193          -            508    0.0048   17.6   0.1   1   1   1.6e-06     0.006   17.3   0.1   109   183    32   107    12   115 0.66 -
JF1A_TRINITY_DN64716_c2_g2_i3.p1JF1A_TRINITY_DN64716_c2_g2  -            237 81710at3193          -            508     0.007   17.1   0.3   1   2     0.076   2.8e+02    1.9   0.0   465   489    58    89    18    99 0.78 -
JF1A_TRINITY_DN64716_c2_g2_i3.p1JF1A_TRINITY_DN64716_c2_g2  -            237 81710at3193          -            508     0.007   17.1   0.3   2   2   2.8e-05       0.1   13.2   0.1   127   186   168   226   161   229 0.85 -
JF1A_TRINITY_DN67890_c2_g6_i1.p1JF1A_TRINITY_DN67890_c2_g6  -            149 81710at3193          -            508      0.01   16.5   3.0   1   2   0.00022      0.79   10.3   0.0   172   245     4    78     2    91 0.82 -
JF1A_TRINITY_DN67890_c2_g6_i1.p1JF1A_TRINITY_DN67890_c2_g6  -            149 81710at3193          -            508      0.01   16.5   3.0   2   2    0.0034        13    6.3   1.3    26    74    96   146    80   149 0.75 -
JF1A_TRINITY_DN11939_c0_g1_i1.p1JF1A_TRINITY_DN11939_c0_g1  -            161 81710at3193          -            508     0.011   16.4   9.4   1   1   7.8e-06     0.029   15.0   9.0    67   196    22   150    15   155 0.58 -
JF1A_TRINITY_DN73676_c0_g1_i1.p1JF1A_TRINITY_DN73676_c0_g1  -            170 81710at3193          -            508     0.021   15.4   0.1   1   1   6.8e-06     0.025   15.2   0.1   282   368    40   132    23   165 0.75 -
JF1A_TRINITY_DN64627_c1_g3_i3.p1JF1A_TRINITY_DN64627_c1_g3  -            483 81710at3193          -            508     0.029   15.0   1.3   1   1   1.3e-05     0.048   14.3   1.3   129   198    57   126    43   132 0.89 -
JF2A_TRINITY_DN45902_c0_g1_i1.p1JF2A_TRINITY_DN45902_c0_g1  -            213 81710at3193          -            508      0.03   15.0   0.5   1   3       2.9   1.1e+04   -3.3   0.0   478   491    12    25    10    43 0.55 -
JF2A_TRINITY_DN45902_c0_g1_i1.p1JF2A_TRINITY_DN45902_c0_g1  -            213 81710at3193          -            508      0.03   15.0   0.5   2   3   1.5e-05     0.053   14.1   0.1    97   187    68   159    50   175 0.85 -
JF2A_TRINITY_DN45902_c0_g1_i1.p1JF2A_TRINITY_DN45902_c0_g1  -            213 81710at3193          -            508      0.03   15.0   0.5   3   3       3.1   1.1e+04   -3.5   0.0   478   491   187   200   180   211 0.49 -
JF1A_TRINITY_DN58635_c0_g1_i2.p1JF1A_TRINITY_DN58635_c0_g1  -            172 81710at3193          -            508      0.03   15.0   2.6   1   3      0.19   6.9e+02    0.6   0.0    87   123    29    65    14    74 0.73 -
JF1A_TRINITY_DN58635_c0_g1_i2.p1JF1A_TRINITY_DN58635_c0_g1  -            172 81710at3193          -            508      0.03   15.0   2.6   2   3   0.00014      0.52   10.9   0.4    89   134    65   114    58   115 0.76 -
JF1A_TRINITY_DN58635_c0_g1_i2.p1JF1A_TRINITY_DN58635_c0_g1  -            172 81710at3193          -            508      0.03   15.0   2.6   3   3    0.0084        31    5.0   0.2   435   495   103   168    98   172 0.64 -
JF1J_TRINITY_DN70641_c0_g3_i1.p1JF1J_TRINITY_DN70641_c0_g3  -            122 81710at3193          -            508     0.048   14.3   0.1   1   1   1.6e-05     0.057   14.0   0.1   103   188    30   117    22   121 0.79 -
JF1A_TRINITY_DN57091_c0_g1_i1.p1JF1A_TRINITY_DN57091_c0_g1  -            196 81710at3193          -            508      0.15   12.6   0.1   1   2    0.0031        11    6.5   0.0   345   385     8    48     4    66 0.82 -
JF1A_TRINITY_DN57091_c0_g1_i1.p1JF1A_TRINITY_DN57091_c0_g1  -            196 81710at3193          -            508      0.15   12.6   0.1   2   2     0.012        44    4.5   0.0   343   381   107   145    74   168 0.83 -
JF1A_TRINITY_DN74647_c0_g1_i1.p1JF1A_TRINITY_DN74647_c0_g1  -            194 81710at3193          -            508      0.18   12.4   0.0   1   2   0.00011       0.4   11.2   0.0   283   366     6    95     2   114 0.78 -
JF1A_TRINITY_DN74647_c0_g1_i1.p1JF1A_TRINITY_DN74647_c0_g1  -            194 81710at3193          -            508      0.18   12.4   0.0   2   2      0.97   3.6e+03   -1.8   0.0   326   368   124   168   119   179 0.69 -
JF1A_TRINITY_DN68023_c1_g1_i19.p1JF1A_TRINITY_DN68023_c1_g1 -            753 81710at3193          -            508      0.21   12.2   1.3   1   2   0.00095       3.5    8.2   0.1    85   117   233   265   194   292 0.71 -
JF1A_TRINITY_DN68023_c1_g1_i19.p1JF1A_TRINITY_DN68023_c1_g1 -            753 81710at3193          -            508      0.21   12.2   1.3   2   2     0.064   2.3e+02    2.1   0.1    90   150   450   512   386   530 0.72 -
JF1A_TRINITY_DN60371_c6_g1_i1.p1JF1A_TRINITY_DN60371_c6_g1  -            143 81710at3193          -            508      0.26   11.9   0.1   1   1   6.7e-05      0.24   12.0   0.1   318   377    32    92     2   125 0.81 -
JF1A_TRINITY_DN63970_c0_g2_i6.p1JF1A_TRINITY_DN63970_c0_g2  -            328 81710at3193          -            508      0.56   10.8   0.0   1   3      0.55     2e+03   -1.0   0.0   335   368    33    66    11    84 0.83 -
JF1A_TRINITY_DN63970_c0_g2_i6.p1JF1A_TRINITY_DN63970_c0_g2  -            328 81710at3193          -            508      0.56   10.8   0.0   2   3     0.083     3e+02    1.8   0.0   341   376   109   144    45   148 0.73 -
JF1A_TRINITY_DN63970_c0_g2_i6.p1JF1A_TRINITY_DN63970_c0_g2  -            328 81710at3193          -            508      0.56   10.8   0.0   3   3    0.0049        18    5.8   0.0   105   134   238   267   232   276 0.82 -
#
# Program:         hmmsearch
# Version:         3.2.1 (June 2018)
# Pipeline mode:   SEARCH
# Query file:      /isg/shared/databases/BUSCO/odb10/embryophyta_odb10/hmms/81710at3193.hmm
# Target file:     Juniper_final_annotations_no_contam_lvl0.faa
# Option settings: /usr/local/bin/hmmsearch --domtblout /labs/Wegrzyn/Juniper_Pine/BUSCO/NEW/busco_juniper/run_embryophyta_odb10/hmmer_output/81710at3193.out --cpu 1 /isg/shared/databases/BUSCO/odb10/embryophyta_odb10/hmms/81710at3193.hmm Juniper_final_annotations_no_contam_lvl0.faa 
# Current dir:     /labs/Wegrzyn/Juniper_Pine/BUSCO/NEW
# Date:            Thu Aug  6 16:38:23 2020
# [ok]
