#                                                                                                                   --- full sequence --- -------------- this domain -------------   hmm coord   ali coord   env coord
# target name                                               accession   tlen query name           accession   qlen   E-value  score  bias   #  of  c-Evalue  i-Evalue  score  bias  from    to  from    to  from    to  acc description of target
#                                       ------------------- ---------- ----- -------------------- ---------- ----- --------- ------ ----- --- --- --------- --------- ------ ----- ----- ----- ----- ----- ----- ----- ---- ---------------------
JF1A_TRINITY_DN68361_c1_g2_i15.p1JF1A_TRINITY_DN68361_c1_g2 -            535 8229at3193           -            817   1.5e-95  322.7   0.1   1   2   4.6e-17   1.8e-14   54.5   0.2   699   776    84   161    73   179 0.87 -
JF1A_TRINITY_DN68361_c1_g2_i15.p1JF1A_TRINITY_DN68361_c1_g2 -            535 8229at3193           -            817   1.5e-95  322.7   0.1   2   2     3e-81   1.2e-78  266.8   0.0   507   776   166   437   160   498 0.94 -
JF1A_TRINITY_DN58899_c0_g1_i1.p1JF1A_TRINITY_DN58899_c0_g1  -            125 8229at3193           -            817   6.7e-71  241.2   1.7   1   1     2e-73   8.1e-71  240.9   1.7   654   771     1   118     1   120 0.99 -
JF1A_TRINITY_DN67234_c3_g2_i19.p1JF1A_TRINITY_DN67234_c3_g2 -            433 8229at3193           -            817   2.5e-63  216.1   0.0   1   2   5.7e-16   2.3e-13   50.9   0.0   536   622   122   212    71   214 0.81 -
JF1A_TRINITY_DN67234_c3_g2_i19.p1JF1A_TRINITY_DN67234_c3_g2 -            433 8229at3193           -            817   2.5e-63  216.1   0.0   2   2   1.6e-50   6.3e-48  165.2   0.0   572   772   207   411   205   418 0.94 -
JF2J_TRINITY_DN25089_c1_g2_i2.p1JF2J_TRINITY_DN25089_c1_g2  -            299 8229at3193           -            817   2.4e-59  203.0   0.4   1   1   7.4e-62     3e-59  202.6   0.4   542   769    47   276    26   285 0.94 -
JF1A_TRINITY_DN58899_c0_g2_i2.p1JF1A_TRINITY_DN58899_c0_g2  -            207 8229at3193           -            817   3.3e-59  202.5   0.1   1   1   3.5e-61   1.4e-58  200.4   0.1   406   572    19   207     7   207 0.89 -
JF1A_TRINITY_DN68569_c3_g1_i15.p1JF1A_TRINITY_DN68569_c3_g1 -            695 8229at3193           -            817   8.3e-59  201.2   0.2   1   1   2.8e-61   1.1e-58  200.7   0.2   549   769   232   454   221   496 0.93 -
JF2A_TRINITY_DN40851_c0_g1_i4.p1JF2A_TRINITY_DN40851_c0_g1  -            340 8229at3193           -            817   4.4e-58  198.8   0.0   1   1   1.3e-60   5.1e-58  198.5   0.0   536   772    66   306    15   335 0.88 -
JF1A_TRINITY_DN64717_c3_g1_i5.p1JF1A_TRINITY_DN64717_c3_g1  -            635 8229at3193           -            817   1.1e-54  187.5   0.1   1   2      0.66   2.6e+02    1.0   0.0   547   575    26    54    12    64 0.82 -
JF1A_TRINITY_DN64717_c3_g1_i5.p1JF1A_TRINITY_DN64717_c3_g1  -            635 8229at3193           -            817   1.1e-54  187.5   0.1   2   2   3.3e-56   1.3e-53  183.9   0.1   546   796   162   411   141   428 0.89 -
JF1J_TRINITY_DN72926_c1_g1_i14.p1JF1J_TRINITY_DN72926_c1_g1 -            241 8229at3193           -            817   2.8e-54  186.2   0.1   1   2   1.1e-08   4.5e-06   26.7   0.2   736   776     2    42     1    60 0.82 -
JF1J_TRINITY_DN72926_c1_g1_i14.p1JF1J_TRINITY_DN72926_c1_g1 -            241 8229at3193           -            817   2.8e-54  186.2   0.1   2   2   9.2e-49   3.7e-46  159.3   0.0   505   678    45   220    39   232 0.91 -
JF1A_TRINITY_DN64470_c5_g2_i3.p1JF1A_TRINITY_DN64470_c5_g2  -            399 8229at3193           -            817   7.4e-54  184.8   0.0   1   1   2.4e-56   9.5e-54  184.4   0.0   544   789   131   377    99   393 0.92 -
JF3A_TRINITY_DN57993_c0_g1_i10.p1JF3A_TRINITY_DN57993_c0_g1 -            188 8229at3193           -            817   3.1e-52  179.4   0.0   1   1   9.3e-55   3.7e-52  179.2   0.0   542   699    15   175     4   178 0.95 -
JF1A_TRINITY_DN65956_c1_g1_i9.p1JF1A_TRINITY_DN65956_c1_g1  -            418 8229at3193           -            817     2e-51  176.8   0.0   1   1   6.4e-54   2.5e-51  176.4   0.0   544   771   157   387   142   413 0.92 -
JF1A_TRINITY_DN64600_c1_g5_i14.p1JF1A_TRINITY_DN64600_c1_g5 -            549 8229at3193           -            817     3e-50  172.8   1.3   1   1     1e-52     4e-50  172.4   1.3   542   771   232   467   227   506 0.84 -
JF1A_TRINITY_DN64558_c1_g1_i1.p1JF1A_TRINITY_DN64558_c1_g1  -            452 8229at3193           -            817   3.2e-50  172.7   0.0   1   1   1.1e-52   4.3e-50  172.3   0.0   536   776   181   424   176   448 0.91 -
JF1A_TRINITY_DN62793_c2_g3_i1.p1JF1A_TRINITY_DN62793_c2_g3  -            169 8229at3193           -            817   7.9e-50  171.5   0.0   1   1   2.4e-52   9.6e-50  171.2   0.0     1   142     1   157     1   161 0.94 -
JF1A_TRINITY_DN64558_c1_g3_i5.p1JF1A_TRINITY_DN64558_c1_g3  -            384 8229at3193           -            817   9.1e-50  171.3   0.0   1   1     3e-52   1.2e-49  170.9   0.0   536   776   113   356   108   380 0.91 -
JF1A_TRINITY_DN62386_c0_g2_i1.p1JF1A_TRINITY_DN62386_c0_g2  -            350 8229at3193           -            817   1.5e-49  170.5   0.1   1   2   7.9e-05     0.032   14.0   0.0   740   777     6    43     3    58 0.89 -
JF1A_TRINITY_DN62386_c0_g2_i1.p1JF1A_TRINITY_DN62386_c0_g2  -            350 8229at3193           -            817   1.5e-49  170.5   0.1   2   2   2.6e-47     1e-44  154.6   0.0   519   686   138   305   103   318 0.94 -
JF1A_TRINITY_DN62321_c4_g2_i1.p1JF1A_TRINITY_DN62321_c4_g2  -            371 8229at3193           -            817   9.5e-49  167.9   0.8   1   1   3.2e-51   1.3e-48  167.5   0.8   540   797    72   327    59   332 0.91 -
JF1J_TRINITY_DN70381_c0_g1_i11.p1JF1J_TRINITY_DN70381_c0_g1 -            427 8229at3193           -            817   1.7e-48  167.1   0.0   1   1   5.9e-51   2.4e-48  166.6   0.0   544   772   161   392   153   419 0.92 -
JF3J_TRINITY_DN70828_c1_g1_i4.p1JF3J_TRINITY_DN70828_c1_g1  -            445 8229at3193           -            817   1.9e-48  166.9   0.0   1   1   6.6e-51   2.6e-48  166.4   0.0   544   772   179   410   171   437 0.92 -
JF3J_TRINITY_DN67020_c3_g1_i5.p1JF3J_TRINITY_DN67020_c3_g1  -            329 8229at3193           -            817   4.9e-47  162.2   0.0   1   1   1.6e-49   6.4e-47  161.8   0.0   550   772    44   276    32   290 0.91 -
JF1A_TRINITY_DN67138_c0_g2_i2.p1JF1A_TRINITY_DN67138_c0_g2  -            653 8229at3193           -            817   6.6e-47  161.8   0.0   1   1   2.2e-49   8.9e-47  161.4   0.0   546   772   167   397   153   435 0.90 -
JF1A_TRINITY_DN63916_c0_g1_i7.p1JF1A_TRINITY_DN63916_c0_g1  -            393 8229at3193           -            817   3.9e-46  159.2   0.0   1   1   1.3e-48     5e-46  158.9   0.0   541   773    96   332    83   369 0.87 -
JF2A_TRINITY_DN42630_c0_g2_i1.p2JF2A_TRINITY_DN42630_c0_g2  -            228 8229at3193           -            817     4e-46  159.2   0.3   1   1   1.2e-48   4.6e-46  159.0   0.3   565   764    20   221    13   227 0.88 -
JF2A_TRINITY_DN41603_c1_g3_i1.p1JF2A_TRINITY_DN41603_c1_g3  -            375 8229at3193           -            817   4.5e-45  155.7   0.0   1   1   1.4e-47   5.6e-45  155.4   0.0   544   785    78   314    69   345 0.89 -
JF2A_TRINITY_DN42367_c1_g7_i9.p1JF2A_TRINITY_DN42367_c1_g7  -            387 8229at3193           -            817   5.8e-45  155.4   0.2   1   1   2.2e-47   8.9e-45  154.8   0.2   632   806    13   192     8   197 0.91 -
JF1A_TRINITY_DN60479_c3_g4_i2.p1JF1A_TRINITY_DN60479_c3_g4  -            289 8229at3193           -            817   8.3e-45  154.8   0.0   1   1   2.7e-47   1.1e-44  154.5   0.0   541   764    52   281    47   286 0.93 -
JF1A_TRINITY_DN68323_c1_g2_i20.p1JF1A_TRINITY_DN68323_c1_g2 -            664 8229at3193           -            817   1.8e-44  153.7   0.0   1   1   6.3e-47   2.5e-44  153.3   0.0   544   785   309   545   301   576 0.90 -
JF2A_TRINITY_DN42326_c1_g6_i1.p1JF2A_TRINITY_DN42326_c1_g6  -            355 8229at3193           -            817     5e-43  149.0   0.1   1   1   1.7e-45   6.7e-43  148.5   0.1   549   715   184   352   173   353 0.94 -
JF1A_TRINITY_DN62386_c0_g2_i5.p2JF1A_TRINITY_DN62386_c0_g2  -            133 8229at3193           -            817   6.7e-43  148.5   0.2   1   1   1.9e-45   7.7e-43  148.3   0.2   590   709     1   122     1   128 0.95 -
JF1A_TRINITY_DN64737_c0_g2_i6.p1JF1A_TRINITY_DN64737_c0_g2  -            591 8229at3193           -            817   1.9e-42  147.1   0.1   1   3       2.1   8.4e+02   -0.6   0.0   177   248    30   101    21   148 0.80 -
JF1A_TRINITY_DN64737_c0_g2_i6.p1JF1A_TRINITY_DN64737_c0_g2  -            591 8229at3193           -            817   1.9e-42  147.1   0.1   2   3   1.1e-43   4.2e-41  142.6   0.0   554   771   227   460   222   481 0.83 -
JF1A_TRINITY_DN64737_c0_g2_i6.p1JF1A_TRINITY_DN64737_c0_g2  -            591 8229at3193           -            817   1.9e-42  147.1   0.1   3   3       0.9   3.6e+02    0.6   0.0   561   611   518   565   475   574 0.58 -
JF1A_TRINITY_DN67311_c0_g1_i8.p2JF1A_TRINITY_DN67311_c0_g1  -            265 8229at3193           -            817   2.1e-42  146.9   0.0   1   1   6.5e-45   2.6e-42  146.6   0.0   573   772    27   230    13   259 0.88 -
JF2A_TRINITY_DN42163_c1_g1_i3.p1JF2A_TRINITY_DN42163_c1_g1  -            667 8229at3193           -            817   2.1e-42  146.9   0.0   1   1   7.7e-45   3.1e-42  146.4   0.0   549   778   362   593   349   619 0.90 -
JF1A_TRINITY_DN60603_c1_g9_i1.p1JF1A_TRINITY_DN60603_c1_g9  -            204 8229at3193           -            817   2.6e-42  146.6   0.0   1   1   7.7e-45   3.1e-42  146.4   0.0   519   689    36   204    27   204 0.95 -
JF1A_TRINITY_DN68460_c0_g1_i17.p1JF1A_TRINITY_DN68460_c0_g1 -           1265 8229at3193           -            817   1.7e-41  143.9   0.0   1   1   6.7e-44   2.7e-41  143.2   0.0   549   777   960  1190   947  1197 0.94 -
JF3J_TRINITY_DN67020_c3_g1_i4.p1JF3J_TRINITY_DN67020_c3_g1  -            223 8229at3193           -            817   3.4e-40  139.6   0.3   1   2    0.0002     0.079   12.7   0.0   629   664     4    40     1    44 0.85 -
JF3J_TRINITY_DN67020_c3_g1_i4.p1JF3J_TRINITY_DN67020_c3_g1  -            223 8229at3193           -            817   3.4e-40  139.6   0.3   2   2   1.6e-38   6.3e-36  125.5   0.1   592   752    45   216    42   219 0.91 -
JF1J_TRINITY_DN63773_c0_g1_i3.p1JF1J_TRINITY_DN63773_c0_g1  -            215 8229at3193           -            817     3e-39  136.5   0.1   1   1   8.8e-42   3.5e-39  136.2   0.1   591   772     1   185     1   192 0.94 -
JF2A_TRINITY_DN39346_c0_g1_i1.p1JF2A_TRINITY_DN39346_c0_g1  -            362 8229at3193           -            817   3.1e-39  136.4   0.0   1   1   9.9e-42     4e-39  136.1   0.0   546   778    53   286    45   321 0.92 -
JF1A_TRINITY_DN67271_c1_g2_i1.p1JF1A_TRINITY_DN67271_c1_g2  -            439 8229at3193           -            817   4.7e-39  135.8   0.0   1   1   1.7e-41   6.7e-39  135.3   0.0   546   775   127   356   120   363 0.91 -
JF3A_TRINITY_DN58096_c1_g1_i2.p1JF3A_TRINITY_DN58096_c1_g1  -            150 8229at3193           -            817   7.4e-39  135.2   0.0   1   1     2e-41     8e-39  135.1   0.0   626   754     2   133     1   148 0.94 -
JF2A_TRINITY_DN39826_c0_g1_i5.p1JF2A_TRINITY_DN39826_c0_g1  -            402 8229at3193           -            817   5.5e-38  132.3   0.0   1   1   1.8e-40   7.1e-38  131.9   0.0   547   777    78   309    65   339 0.91 -
JF1A_TRINITY_DN64102_c1_g1_i14.p1JF1A_TRINITY_DN64102_c1_g1 -            274 8229at3193           -            817     9e-36  125.0   0.0   1   1   2.8e-38   1.1e-35  124.7   0.0   582   777    13   209     1   217 0.92 -
JF1A_TRINITY_DN63416_c2_g3_i5.p1JF1A_TRINITY_DN63416_c2_g3  -            349 8229at3193           -            817   6.6e-34  118.8   0.0   1   1   1.9e-36   7.7e-34  118.6   0.0   546   767   126   346   101   349 0.88 -
JF3A_TRINITY_DN57993_c0_g1_i19.p1JF3A_TRINITY_DN57993_c0_g1 -            153 8229at3193           -            817   3.2e-33  116.5   0.0   1   1     1e-35     4e-33  116.2   0.0   658   774    23   142    19   148 0.93 -
JF1A_TRINITY_DN67458_c0_g1_i9.p1JF1A_TRINITY_DN67458_c0_g1  -            164 8229at3193           -            817   2.2e-32  113.8   0.1   1   1   6.3e-35   2.5e-32  113.6   0.1   663   815    14   161     5   163 0.90 -
JF1J_TRINITY_DN69397_c0_g2_i13.p1JF1J_TRINITY_DN69397_c0_g2 -            190 8229at3193           -            817   1.1e-31  111.5   0.0   1   1   3.3e-34   1.3e-31  111.2   0.0   625   759     2   135     1   143 0.96 -
JF2J_TRINITY_DN23379_c0_g2_i2.p1JF2J_TRINITY_DN23379_c0_g2  -            204 8229at3193           -            817   3.3e-31  109.9   0.0   1   1     1e-33   4.1e-31  109.5   0.0   547   715    19   185     7   197 0.94 -
JF1J_TRINITY_DN72926_c1_g1_i9.p1JF1J_TRINITY_DN72926_c1_g1  -            162 8229at3193           -            817   3.4e-30  106.5   0.0   1   1     1e-32     4e-30  106.3   0.0   614   743     5   134     1   137 0.97 -
JF2A_TRINITY_DN22750_c0_g1_i2.p1JF2A_TRINITY_DN22750_c0_g1  -            169 8229at3193           -            817   3.4e-30  106.5   0.0   1   2   1.4e-19   5.7e-17   62.8   0.0   407   478    10    86     3    93 0.87 -
JF2A_TRINITY_DN22750_c0_g1_i2.p1JF2A_TRINITY_DN22750_c0_g1  -            169 8229at3193           -            817   3.4e-30  106.5   0.0   2   2   1.3e-13   5.4e-11   43.0   0.0   406   463    95   157    81   165 0.78 -
JF3A_TRINITY_DN52965_c1_g1_i2.p1JF3A_TRINITY_DN52965_c1_g1  -            154 8229at3193           -            817   1.6e-29  104.3   0.0   1   1     5e-32     2e-29  104.0   0.0   547   679    14   146     4   150 0.95 -
JF1A_TRINITY_DN60128_c3_g3_i2.p1JF1A_TRINITY_DN60128_c3_g3  -            263 8229at3193           -            817   1.6e-29  104.3   0.2   1   2       8.5   3.4e+03   -2.6   0.0   261   288     3    38     2    39 0.58 -
JF1A_TRINITY_DN60128_c3_g3_i2.p1JF1A_TRINITY_DN60128_c3_g3  -            263 8229at3193           -            817   1.6e-29  104.3   0.2   2   2   6.8e-32   2.7e-29  103.5   0.0   292   403   137   263    89   263 0.85 -
JF1A_TRINITY_DN65254_c0_g1_i1.p1JF1A_TRINITY_DN65254_c0_g1  -            207 8229at3193           -            817   2.3e-29  103.8   0.1   1   1     7e-32   2.8e-29  103.5   0.1   587   765    10   189     4   203 0.92 -
JF2A_TRINITY_DN40319_c0_g3_i2.p1JF2A_TRINITY_DN40319_c0_g3  -            239 8229at3193           -            817   6.7e-28   98.9   0.0   1   1     2e-30   8.2e-28   98.6   0.0   591   775     1   186     1   192 0.93 -
JF3A_TRINITY_DN57993_c0_g1_i11.p1JF3A_TRINITY_DN57993_c0_g1 -            135 8229at3193           -            817   4.7e-27   96.1   0.1   1   1   1.3e-29   5.3e-27   96.0   0.1   669   776    13   120     5   132 0.95 -
JF3J_TRINITY_DN68773_c0_g4_i5.p1JF3J_TRINITY_DN68773_c0_g4  -            211 8229at3193           -            817   1.5e-26   94.5   0.0   1   1   4.5e-29   1.8e-26   94.2   0.0   623   777     9   164     3   188 0.92 -
JF1A_TRINITY_DN64470_c5_g2_i2.p1JF1A_TRINITY_DN64470_c5_g2  -            304 8229at3193           -            817   1.7e-26   94.3   0.1   1   2   1.4e-24   5.4e-22   79.4   0.0   545   660   132   247   118   255 0.95 -
JF1A_TRINITY_DN64470_c5_g2_i2.p1JF1A_TRINITY_DN64470_c5_g2  -            304 8229at3193           -            817   1.7e-26   94.3   0.1   2   2   0.00017     0.068   12.9   0.0   575   616   258   299   250   302 0.73 -
JF1A_TRINITY_DN63416_c2_g3_i3.p1JF1A_TRINITY_DN63416_c2_g3  -            291 8229at3193           -            817   5.7e-26   92.6   0.0   1   1   1.7e-28     7e-26   92.3   0.0   587   767   108   288   102   291 0.91 -
JF1J_TRINITY_DN68513_c0_g3_i3.p1JF1J_TRINITY_DN68513_c0_g3  -            165 8229at3193           -            817   2.7e-25   90.3   0.7   1   2   1.8e-22   7.3e-20   72.3   0.1   675   772     4   101     1   113 0.96 -
JF1J_TRINITY_DN68513_c0_g3_i3.p1JF1J_TRINITY_DN68513_c0_g3  -            165 8229at3193           -            817   2.7e-25   90.3   0.7   2   2   1.1e-05    0.0043   16.9   0.0   711   760   116   165   112   165 0.90 -
JF2A_TRINITY_DN40943_c0_g5_i1.p1JF2A_TRINITY_DN40943_c0_g5  -            495 8229at3193           -            817   4.5e-25   89.6   0.1   1   1   1.7e-27   6.6e-25   89.0   0.1   623   759    30   174     5   191 0.84 -
JF3A_TRINITY_DN57993_c0_g1_i14.p1JF3A_TRINITY_DN57993_c0_g1 -            208 8229at3193           -            817   5.9e-25   89.2   0.0   1   1   1.9e-27   7.5e-25   88.9   0.0   658   763    23   131    19   139 0.86 -
JF3J_TRINITY_DN71386_c0_g1_i3.p1JF3J_TRINITY_DN71386_c0_g1  -            207 8229at3193           -            817   2.6e-24   87.0   0.0   1   1   7.9e-27   3.2e-24   86.8   0.0   668   785    44   158    35   189 0.82 -
JF1A_TRINITY_DN66740_c1_g5_i2.p1JF1A_TRINITY_DN66740_c1_g5  -            155 8229at3193           -            817   3.7e-24   86.6   0.0   1   1   1.1e-26   4.3e-24   86.3   0.0   629   777     3   152     1   153 0.92 -
JF1A_TRINITY_DN65729_c0_g3_i1.p1JF1A_TRINITY_DN65729_c0_g3  -            324 8229at3193           -            817   1.3e-23   84.7   0.0   1   1   4.7e-26   1.9e-23   84.2   0.0   549   700   168   323   158   323 0.91 -
JF1A_TRINITY_DN64615_c3_g3_i4.p1JF1A_TRINITY_DN64615_c3_g3  -            170 8229at3193           -            817   1.3e-23   84.7   0.0   1   1   4.2e-26   1.7e-23   84.4   0.0   674   805     8   142     6   147 0.81 -
JF1J_TRINITY_DN72926_c1_g1_i24.p1JF1J_TRINITY_DN72926_c1_g1 -            135 8229at3193           -            817   2.9e-23   83.6   0.0   1   1   8.6e-26   3.4e-23   83.4   0.0   686   776    10   100     3   108 0.95 -
JF1J_TRINITY_DN63430_c0_g2_i4.p1JF1J_TRINITY_DN63430_c0_g2  -            129 8229at3193           -            817   5.4e-23   82.7   0.0   1   1   1.4e-25   5.7e-23   82.6   0.0   662   753    31   124     4   128 0.85 -
JF1A_TRINITY_DN67234_c3_g2_i13.p1JF1A_TRINITY_DN67234_c3_g2 -            118 8229at3193           -            817   3.3e-22   80.1   0.0   1   1   9.1e-25   3.6e-22   80.0   0.0   669   762    24   117     9   118 0.93 -
JF3J_TRINITY_DN70054_c0_g2_i2.p1JF3J_TRINITY_DN70054_c0_g2  -            101 8229at3193           -            817   9.6e-22   78.6   0.0   1   1   2.5e-24     1e-21   78.5   0.0   669   736    21    88     3    98 0.89 -
JF2A_TRINITY_DN50775_c0_g1_i1.p1JF2A_TRINITY_DN50775_c0_g1  -            137 8229at3193           -            817   2.9e-21   77.0   0.0   1   1   8.6e-24   3.4e-21   76.7   0.0   693   809     3   132     1   135 0.84 -
JF1A_TRINITY_DN64615_c3_g3_i1.p1JF1A_TRINITY_DN64615_c3_g3  -            356 8229at3193           -            817   5.1e-20   72.9   0.0   1   1   1.9e-22   7.4e-20   72.3   0.0   545   680   222   356   212   356 0.95 -
JF1J_TRINITY_DN58130_c0_g1_i2.p1JF1J_TRINITY_DN58130_c0_g1  -            138 8229at3193           -            817   5.7e-20   72.7   0.1   1   1   5.5e-22   2.2e-19   70.8   0.1   639   750     9   137     2   138 0.84 -
JF3J_TRINITY_DN67557_c0_g5_i3.p1JF3J_TRINITY_DN67557_c0_g5  -            287 8229at3193           -            817   8.4e-20   72.1   0.0   1   1   4.2e-22   1.7e-19   71.1   0.0   546   640   188   282   178   285 0.95 -
JF3A_TRINITY_DN52965_c1_g2_i1.p1JF3A_TRINITY_DN52965_c1_g2  -            120 8229at3193           -            817   2.1e-19   70.9   0.0   1   1   5.6e-22   2.2e-19   70.7   0.0   554   645    29   120    11   120 0.93 -
JF1J_TRINITY_DN63573_c0_g1_i4.p1JF1J_TRINITY_DN63573_c0_g1  -            145 8229at3193           -            817   3.2e-19   70.2   0.0   1   1     1e-21     4e-19   69.9   0.0   588   699    12   125     8   131 0.92 -
JF1A_TRINITY_DN67311_c0_g1_i13.p1JF1A_TRINITY_DN67311_c0_g1 -            286 8229at3193           -            817   2.4e-18   67.3   0.0   1   1   8.8e-21   3.5e-18   66.8   0.0   544   649   163   268   155   273 0.95 -
JF1A_TRINITY_DN65741_c0_g8_i4.p1JF1A_TRINITY_DN65741_c0_g8  -            250 8229at3193           -            817     1e-17   65.2   0.0   1   1   3.5e-20   1.4e-17   64.8   0.0   587   755    65   236    62   240 0.88 -
JF1A_TRINITY_DN67458_c0_g2_i1.p1JF1A_TRINITY_DN67458_c0_g2  -            125 8229at3193           -            817   7.9e-17   62.3   0.0   1   2     6e-09   2.4e-06   27.6   0.0   736   796     1    65     1    69 0.88 -
JF1A_TRINITY_DN67458_c0_g2_i1.p1JF1A_TRINITY_DN67458_c0_g2  -            125 8229at3193           -            817   7.9e-17   62.3   0.0   2   2   6.5e-12   2.6e-09   37.5   0.0   519   597    49   125    39   125 0.94 -
JF1A_TRINITY_DN65357_c1_g3_i8.p1JF1A_TRINITY_DN65357_c1_g3  -            309 8229at3193           -            817   1.1e-16   61.9   0.0   1   1   3.7e-19   1.5e-16   61.4   0.0   550   677   100   229    87   232 0.91 -
JF3J_TRINITY_DN72963_c1_g4_i2.p1JF3J_TRINITY_DN72963_c1_g4  -            142 8229at3193           -            817   1.4e-16   61.5   0.0   1   1   4.1e-19   1.6e-16   61.3   0.0   498   610    27   135     9   139 0.88 -
JF1J_TRINITY_DN69397_c0_g2_i12.p1JF1J_TRINITY_DN69397_c0_g2 -            150 8229at3193           -            817   2.6e-16   60.6   0.0   1   1   7.2e-19   2.9e-16   60.4   0.0   695   786     9    97     2   129 0.78 -
JF1J_TRINITY_DN58130_c0_g1_i1.p1JF1J_TRINITY_DN58130_c0_g1  -            150 8229at3193           -            817   2.9e-16   60.4   0.1   1   1     3e-18   1.2e-15   58.4   0.1   639   731     9   118     2   123 0.82 -
JF1J_TRINITY_DN63146_c0_g1_i12.p1JF1J_TRINITY_DN63146_c0_g1 -            390 8229at3193           -            817   5.3e-16   59.6   0.1   1   2    0.0017      0.67    9.6   0.0   559   623    11    74     1    92 0.65 -
JF1J_TRINITY_DN63146_c0_g1_i12.p1JF1J_TRINITY_DN63146_c0_g1 -            390 8229at3193           -            817   5.3e-16   59.6   0.1   2   2   2.9e-15   1.2e-12   48.5   0.0   686   772   121   205    80   240 0.84 -
JF3J_TRINITY_DN64032_c2_g3_i4.p1JF3J_TRINITY_DN64032_c2_g3  -            132 8229at3193           -            817   2.5e-15   57.3   0.0   1   1   7.1e-18   2.8e-15   57.2   0.0   582   675    25   129    11   131 0.81 -
JF1A_TRINITY_DN65933_c3_g1_i1.p1JF1A_TRINITY_DN65933_c3_g1  -            278 8229at3193           -            817   3.1e-15   57.0   0.0   1   1   9.6e-18   3.8e-15   56.7   0.0   646   777    54   185    50   216 0.88 -
JF2J_TRINITY_DN26364_c0_g2_i5.p1JF2J_TRINITY_DN26364_c0_g2  -            154 8229at3193           -            817   3.9e-15   56.7   0.0   1   1   1.1e-17   4.5e-15   56.5   0.0   675   759    20   104    16   127 0.92 -
JF1A_TRINITY_DN67245_c0_g3_i2.p1JF1A_TRINITY_DN67245_c0_g3  -            249 8229at3193           -            817   4.9e-15   56.4   0.0   1   1   1.6e-17   6.3e-15   56.0   0.0   546   659   136   248   126   249 0.93 -
JF1A_TRINITY_DN65741_c0_g1_i2.p1JF1A_TRINITY_DN65741_c0_g1  -            109 8229at3193           -            817   1.2e-14   55.1   0.0   1   1   3.3e-17   1.3e-14   55.0   0.0   562   663     6   106     3   109 0.89 -
JF2A_TRINITY_DN51102_c0_g1_i1.p1JF2A_TRINITY_DN51102_c0_g1  -            102 8229at3193           -            817   3.1e-14   53.8   0.0   1   1   7.7e-17   3.1e-14   53.8   0.0   587   661    19    93     3   102 0.92 -
JF1J_TRINITY_DN71808_c2_g1_i21.p1JF1J_TRINITY_DN71808_c2_g1 -            189 8229at3193           -            817   6.6e-14   52.6   0.4   1   2       1.2   4.8e+02    0.2   0.1   338   351     4    17     1    23 0.86 -
JF1J_TRINITY_DN71808_c2_g1_i21.p1JF1J_TRINITY_DN71808_c2_g1 -            189 8229at3193           -            817   6.6e-14   52.6   0.4   2   2   8.4e-16   3.3e-13   50.3   0.0   564   662    29   125    19   142 0.89 -
JF3A_TRINITY_DN52461_c2_g1_i5.p1JF3A_TRINITY_DN52461_c2_g1  -            123 8229at3193           -            817   3.3e-13   50.3   0.2   1   1   9.6e-16   3.8e-13   50.1   0.2   698   777     6    83     2    91 0.94 -
JF1A_TRINITY_DN66554_c0_g5_i3.p1JF1A_TRINITY_DN66554_c0_g5  -            192 8229at3193           -            817   4.8e-13   49.8   0.0   1   1   1.8e-15   7.3e-13   49.2   0.0   546   632    77   164    68   191 0.85 -
JF3J_TRINITY_DN43300_c0_g1_i1.p1JF3J_TRINITY_DN43300_c0_g1  -            105 8229at3193           -            817     1e-12   48.7   0.0   1   1   2.9e-15   1.2e-12   48.5   0.0   406   464    19    82     4    91 0.80 -
JF1A_TRINITY_DN66554_c0_g4_i4.p1JF1A_TRINITY_DN66554_c0_g4  -            130 8229at3193           -            817   1.7e-12   48.0   0.0   1   1   4.7e-15   1.9e-12   47.8   0.0   547   627    48   129    30   130 0.91 -
JF1J_TRINITY_DN63249_c2_g1_i10.p1JF1J_TRINITY_DN63249_c2_g1 -            122 8229at3193           -            817   2.2e-12   47.6   0.0   1   1   6.5e-15   2.6e-12   47.4   0.0   587   661    12    86     8    97 0.92 -
JF1A_TRINITY_DN67805_c3_g1_i12.p1JF1A_TRINITY_DN67805_c3_g1 -            728 8229at3193           -            817   2.8e-12   47.2   0.0   1   2   4.1e-12   1.6e-09   38.1   0.0   588   796   246   446   240   459 0.77 -
JF1A_TRINITY_DN67805_c3_g1_i12.p1JF1A_TRINITY_DN67805_c3_g1 -            728 8229at3193           -            817   2.8e-12   47.2   0.0   2   2     0.012       4.8    6.8   0.0   585   772   499   692   486   723 0.55 -
JF3J_TRINITY_DN65068_c1_g1_i14.p1JF3J_TRINITY_DN65068_c1_g1 -            174 8229at3193           -            817   3.7e-12   46.9   0.1   1   1   1.2e-14   4.6e-12   46.5   0.1   640   707    91   161    80   171 0.85 -
JF1A_TRINITY_DN64615_c3_g3_i3.p1JF1A_TRINITY_DN64615_c3_g3  -            105 8229at3193           -            817   3.8e-12   46.8   0.0   1   1   1.3e-14   5.2e-12   46.4   0.0   674   734     8    68     6    73 0.93 -
JF3J_TRINITY_DN69981_c4_g3_i1.p1JF3J_TRINITY_DN69981_c4_g3  -            100 8229at3193           -            817   3.8e-12   46.8   0.0   1   1   1.1e-14   4.3e-12   46.6   0.0   671   754     3    88     1    94 0.91 -
JF1A_TRINITY_DN68010_c0_g3_i5.p1JF1A_TRINITY_DN68010_c0_g3  -            735 8229at3193           -            817   1.7e-11   44.7   0.0   1   2   1.9e-13   7.4e-11   42.6   0.0   588   769   253   427   249   459 0.80 -
JF1A_TRINITY_DN68010_c0_g3_i5.p1JF1A_TRINITY_DN68010_c0_g3  -            735 8229at3193           -            817   1.7e-11   44.7   0.0   2   2       2.2   8.8e+02   -0.7   0.0   698   771   626   698   562   728 0.71 -
JF3A_TRINITY_DN58987_c2_g1_i15.p1JF3A_TRINITY_DN58987_c2_g1 -            118 8229at3193           -            817   1.9e-11   44.5   0.0   1   1   5.6e-14   2.2e-11   44.3   0.0   550   640    26   115    23   117 0.95 -
JF2A_TRINITY_DN40943_c0_g5_i3.p1JF2A_TRINITY_DN40943_c0_g5  -            201 8229at3193           -            817   4.4e-11   43.3   0.2   1   1   1.4e-13   5.7e-11   42.9   0.2   611   698    16   113     4   119 0.78 -
JF1J_TRINITY_DN68115_c2_g1_i3.p1JF1J_TRINITY_DN68115_c2_g1  -            102 8229at3193           -            817   9.4e-11   42.2   0.4   1   1   2.8e-13   1.1e-10   41.9   0.4   594   660    10    76     7    84 0.96 -
JF1A_TRINITY_DN67265_c0_g1_i11.p1JF1A_TRINITY_DN67265_c0_g1 -            375 8229at3193           -            817   1.2e-10   41.9   0.0   1   1     4e-13   1.6e-10   41.5   0.0   549   634   288   374   267   375 0.92 -
JF1J_TRINITY_DN63249_c2_g1_i8.p1JF1J_TRINITY_DN63249_c2_g1  -            178 8229at3193           -            817   1.9e-10   41.2   0.1   1   1   6.1e-13   2.4e-10   40.8   0.1   620   731    63   174    59   177 0.89 -
JF3J_TRINITY_DN69498_c2_g2_i8.p1JF3J_TRINITY_DN69498_c2_g2  -            109 8229at3193           -            817   4.9e-10   39.8   0.1   1   1   1.3e-12     5e-10   39.8   0.1   717   771     9    65     4   105 0.74 -
JF1A_TRINITY_DN65741_c0_g8_i1.p1JF1A_TRINITY_DN65741_c0_g8  -            113 8229at3193           -            817   7.4e-10   39.3   0.0   1   1   2.2e-12   8.7e-10   39.0   0.0   709   772    24    87    21   105 0.90 -
JF1A_TRINITY_DN67805_c3_g1_i8.p1JF1A_TRINITY_DN67805_c3_g1  -            507 8229at3193           -            817   8.5e-10   39.1   0.0   1   1   3.5e-12   1.4e-09   38.4   0.0   588   786   246   436   239   450 0.77 -
JF1A_TRINITY_DN65254_c0_g1_i10.p1JF1A_TRINITY_DN65254_c0_g1 -            142 8229at3193           -            817   1.2e-09   38.5   0.0   1   1   3.3e-12   1.3e-09   38.4   0.0   688   808     8   135     4   141 0.77 -
JF1A_TRINITY_DN62164_c1_g1_i1.p1JF1A_TRINITY_DN62164_c1_g1  -            124 8229at3193           -            817   8.8e-09   35.7   0.0   1   1   2.6e-11     1e-08   35.5   0.0   633   736     2   112     1   116 0.85 -
JF3J_TRINITY_DN63448_c0_g1_i6.p1JF3J_TRINITY_DN63448_c0_g1  -            155 8229at3193           -            817   9.4e-09   35.6   0.0   1   1   2.7e-11   1.1e-08   35.4   0.0   549   648    52   149    29   153 0.88 -
JF3A_TRINITY_DN58096_c1_g2_i6.p1JF3A_TRINITY_DN58096_c1_g2  -            154 8229at3193           -            817     3e-08   33.9   0.0   1   1   9.1e-11   3.6e-08   33.7   0.0   549   643    24   117    10   121 0.89 -
JF3J_TRINITY_DN63448_c0_g4_i1.p1JF3J_TRINITY_DN63448_c0_g4  -            146 8229at3193           -            817   3.4e-08   33.8   0.1   1   1   9.9e-11     4e-08   33.5   0.1   649   753     1   109     1   113 0.81 -
JF1J_TRINITY_DN44218_c0_g1_i1.p1JF1J_TRINITY_DN44218_c0_g1  -            195 8229at3193           -            817   4.7e-08   33.3   0.0   1   1   1.5e-10   6.1e-08   32.9   0.0   548   611   129   191   113   192 0.85 -
JF3A_TRINITY_DN58096_c1_g2_i7.p1JF3A_TRINITY_DN58096_c1_g2  -            131 8229at3193           -            817   4.1e-07   30.2   0.1   1   1   1.2e-09   4.8e-07   29.9   0.1   565   648    23   105    17   113 0.84 -
JF1A_TRINITY_DN69164_c0_g1_i1.p1JF1A_TRINITY_DN69164_c0_g1  -            122 8229at3193           -            817   5.3e-07   29.8   0.0   1   1   1.3e-09   5.3e-07   29.8   0.0   566   671    10   120     1   122 0.82 -
JF1J_TRINITY_DN63430_c0_g3_i1.p1JF1J_TRINITY_DN63430_c0_g3  -            182 8229at3193           -            817   7.5e-07   29.3   0.0   1   1   2.4e-09   9.6e-07   29.0   0.0   550   629    57   135    44   149 0.88 -
JF3A_TRINITY_DN52965_c1_g2_i4.p1JF3A_TRINITY_DN52965_c1_g2  -            122 8229at3193           -            817   1.6e-06   28.2   0.0   1   1   4.6e-09   1.8e-06   28.0   0.0   554   599    73   118    55   121 0.88 -
JF3A_TRINITY_DN58096_c1_g1_i5.p1JF3A_TRINITY_DN58096_c1_g1  -            106 8229at3193           -            817   4.4e-06   26.8   0.0   1   1   1.3e-08   5.2e-06   26.5   0.0   731   784    37    92    31   102 0.79 -
JF3J_TRINITY_DN66467_c3_g1_i2.p1JF3J_TRINITY_DN66467_c3_g1  -            130 8229at3193           -            817   1.1e-05   25.4   0.0   1   1   3.3e-08   1.3e-05   25.2   0.0   736   777    14    55     4    70 0.92 -
JF3A_TRINITY_DN57104_c0_g1_i3.p1JF3A_TRINITY_DN57104_c0_g1  -            172 8229at3193           -            817   1.5e-05   25.0   0.1   1   2    0.0053       2.1    8.0   0.0   693   713    16    36     7    43 0.87 -
JF3A_TRINITY_DN57104_c0_g1_i3.p1JF3A_TRINITY_DN57104_c0_g1  -            172 8229at3193           -            817   1.5e-05   25.0   0.1   2   2   3.2e-05     0.013   15.3   0.1   692   733   107   151    87   166 0.75 -
JF1A_TRINITY_DN63803_c1_g2_i1.p1JF1A_TRINITY_DN63803_c1_g2  -            277 8229at3193           -            817   2.9e-05   24.1   0.0   1   1   1.3e-07     5e-05   23.3   0.0   587   744    22   193    12   244 0.72 -
JF1J_TRINITY_DN66535_c1_g2_i2.p1JF1J_TRINITY_DN66535_c1_g2  -            136 8229at3193           -            817   3.7e-05   23.7   0.0   1   1   1.2e-07   4.7e-05   23.4   0.0   587   641    75   129    66   133 0.94 -
JF2A_TRINITY_DN40408_c0_g1_i4.p1JF2A_TRINITY_DN40408_c0_g1  -            349 8229at3193           -            817   4.4e-05   23.5   0.0   1   2    0.0089       3.6    7.2   0.0   582   606    82   106    58   150 0.82 -
JF2A_TRINITY_DN40408_c0_g1_i4.p1JF2A_TRINITY_DN40408_c0_g1  -            349 8229at3193           -            817   4.4e-05   23.5   0.0   2   2   6.7e-05     0.027   14.3   0.0   692   721   204   236   179   248 0.83 -
JF3A_TRINITY_DN50087_c1_g2_i4.p1JF3A_TRINITY_DN50087_c1_g2  -            138 8229at3193           -            817     6e-05   23.0   0.0   1   1   1.9e-07   7.5e-05   22.7   0.0   544   626    44   125    35   127 0.90 -
JF1A_TRINITY_DN64600_c1_g5_i5.p1JF1A_TRINITY_DN64600_c1_g5  -            314 8229at3193           -            817    0.0001   22.2   0.2   1   1   3.4e-07   0.00014   21.8   0.2   736   771     6    41     2    81 0.71 -
JF1J_TRINITY_DN63573_c0_g1_i12.p1JF1J_TRINITY_DN63573_c0_g1 -            145 8229at3193           -            817   0.00011   22.1   0.0   1   1   3.9e-07   0.00016   21.6   0.0   624   671    83   130    79   141 0.83 -
JF3A_TRINITY_DN58987_c2_g1_i12.p1JF3A_TRINITY_DN58987_c2_g1 -            100 8229at3193           -            817   0.00016   21.6   0.0   1   1   4.7e-07   0.00019   21.4   0.0   550   601    26    76    23    85 0.91 -
JF1A_TRINITY_DN63803_c1_g2_i3.p1JF1A_TRINITY_DN63803_c1_g2  -            424 8229at3193           -            817    0.0002   21.3   0.0   1   1   8.2e-07   0.00033   20.6   0.0   571   720   172   334   157   351 0.74 -
JF1J_TRINITY_DN63773_c0_g4_i5.p1JF1J_TRINITY_DN63773_c0_g4  -            120 8229at3193           -            817   0.00022   21.2   0.1   1   2   0.00096      0.38   10.4   0.1   591   620     1    30     1    45 0.87 -
JF1J_TRINITY_DN63773_c0_g4_i5.p1JF1J_TRINITY_DN63773_c0_g4  -            120 8229at3193           -            817   0.00022   21.2   0.1   2   2    0.0015      0.61    9.8   0.0   524   579    49   107    30   111 0.72 -
JF3A_TRINITY_DN57104_c0_g1_i6.p1JF3A_TRINITY_DN57104_c0_g1  -            520 8229at3193           -            817   0.00025   20.9   0.0   1   2     0.032        13    5.4   0.0   578   605   236   263   215   294 0.80 -
JF3A_TRINITY_DN57104_c0_g1_i6.p1JF3A_TRINITY_DN57104_c0_g1  -            520 8229at3193           -            817   0.00025   20.9   0.0   2   2   0.00012     0.049   13.4   0.0   692   721   364   396   345   407 0.83 -
JF1A_TRINITY_DN66331_c1_g1_i13.p1JF1A_TRINITY_DN66331_c1_g1 -            474 8229at3193           -            817   0.00026   20.9   0.1   1   2     0.027        11    5.6   0.0   583   606   123   146    98   180 0.75 -
JF1A_TRINITY_DN66331_c1_g1_i13.p1JF1A_TRINITY_DN66331_c1_g1 -            474 8229at3193           -            817   0.00026   20.9   0.1   2   2   0.00079      0.31   10.7   0.1   589   715   323   461   291   469 0.55 -
JF1J_TRINITY_DN6065_c0_g1_i1.p1JF1J_TRINITY_DN6065_c0_g1    -            154 8229at3193           -            817   0.00041   20.3   0.0   1   2    0.0011      0.42   10.3   0.0   406   471    15    86     4    95 0.74 -
JF1J_TRINITY_DN6065_c0_g1_i1.p1JF1J_TRINITY_DN6065_c0_g1    -            154 8229at3193           -            817   0.00041   20.3   0.0   2   2    0.0037       1.5    8.5   0.0   292   325   116   149    92   153 0.84 -
JF3J_TRINITY_DN63448_c0_g1_i1.p1JF3J_TRINITY_DN63448_c0_g1  -            150 8229at3193           -            817   0.00044   20.1   0.0   1   1   1.3e-06   0.00053   19.9   0.0   549   629    48   127    34   136 0.86 -
JF3J_TRINITY_DN68106_c1_g6_i1.p1JF3J_TRINITY_DN68106_c1_g6  -            168 8229at3193           -            817   0.00055   19.8   0.0   1   1   1.8e-06    0.0007   19.5   0.0   678   722    76   125    53   147 0.75 -
JF1A_TRINITY_DN68323_c1_g2_i9.p1JF1A_TRINITY_DN68323_c1_g2  -            448 8229at3193           -            817   0.00058   19.7   0.0   1   1   2.2e-06   0.00089   19.1   0.0   544   626   348   429   340   431 0.90 -
JF1J_TRINITY_DN66535_c1_g2_i6.p1JF1J_TRINITY_DN66535_c1_g2  -            123 8229at3193           -            817   0.00058   19.7   0.0   1   1   1.8e-06   0.00072   19.4   0.0   589   641    68   120    60   122 0.94 -
JF1J_TRINITY_DN72372_c1_g1_i6.p1JF1J_TRINITY_DN72372_c1_g1  -            342 8229at3193           -            817   0.00065   19.6   0.0   1   1   2.3e-06    0.0009   19.1   0.0   549   601   232   283   221   289 0.88 -
JF1A_TRINITY_DN66593_c0_g7_i1.p1JF1A_TRINITY_DN66593_c0_g7  -            152 8229at3193           -            817    0.0025   17.7   0.0   1   1   6.3e-06    0.0025   17.7   0.0   692   722    55    88    33   136 0.82 -
JF3J_TRINITY_DN62121_c0_g1_i4.p1JF3J_TRINITY_DN62121_c0_g1  -            161 8229at3193           -            817    0.0032   17.3   0.0   1   1     8e-06    0.0032   17.3   0.0   692   722    55    88    34   155 0.77 -
JF3A_TRINITY_DN48267_c0_g1_i1.p1JF3A_TRINITY_DN48267_c0_g1  -            163 8229at3193           -            817    0.0043   16.9   0.0   1   1   1.3e-05    0.0052   16.6   0.0   545   596    95   145    69   154 0.88 -
JF3J_TRINITY_DN62121_c0_g1_i5.p1JF3J_TRINITY_DN62121_c0_g1  -            154 8229at3193           -            817    0.0057   16.5   0.0   1   1   1.5e-05    0.0061   16.4   0.0   692   721    31    63    12    96 0.85 -
JF2A_TRINITY_DN41399_c2_g1_i2.p1JF2A_TRINITY_DN41399_c2_g1  -            352 8229at3193           -            817    0.0071   16.2   0.0   1   1   2.5e-05    0.0099   15.7   0.0   585   664    87   172    82   196 0.74 -
JF2A_TRINITY_DN22632_c0_g1_i2.p1JF2A_TRINITY_DN22632_c0_g1  -            111 8229at3193           -            817    0.0076   16.1   0.1   1   1   1.9e-05    0.0077   16.0   0.1   734   775     4    43     1    83 0.69 -
JF1A_TRINITY_DN60644_c0_g1_i6.p1JF1A_TRINITY_DN60644_c0_g1  -            280 8229at3193           -            817    0.0099   15.7   0.0   1   1   3.8e-05     0.015   15.1   0.0   737   769     5    37     1    62 0.90 -
JF3A_TRINITY_DN58096_c1_g2_i9.p1JF3A_TRINITY_DN58096_c1_g2  -            119 8229at3193           -            817     0.012   15.4   0.0   1   1   3.4e-05     0.014   15.2   0.0   549   615    29    94    14   102 0.84 -
JF1A_TRINITY_DN66008_c0_g1_i2.p1JF1A_TRINITY_DN66008_c0_g1  -            148 8229at3193           -            817     0.018   14.8   0.0   1   1   4.6e-05     0.018   14.8   0.0   689   721    27    58     9   134 0.80 -
JF1A_TRINITY_DN73298_c0_g1_i1.p1JF1A_TRINITY_DN73298_c0_g1  -            183 8229at3193           -            817     0.027   14.2   0.0   1   1   0.00013     0.051   13.3   0.0   688   721   110   145    85   155 0.80 -
JF1A_TRINITY_DN64345_c0_g2_i15.p1JF1A_TRINITY_DN64345_c0_g2 -            204 8229at3193           -            817      0.03   14.1   0.0   1   1   9.5e-05     0.038   13.7   0.0   508   592   119   204   103   204 0.77 -
JF1J_TRINITY_DN66290_c1_g2_i2.p1JF1J_TRINITY_DN66290_c1_g2  -            103 8229at3193           -            817     0.031   14.0   0.0   1   1   8.1e-05     0.032   14.0   0.0   740   809    20    97    11   102 0.71 -
JF1A_TRINITY_DN64737_c0_g2_i3.p1JF1A_TRINITY_DN64737_c0_g2  -            317 8229at3193           -            817     0.032   14.0   0.2   1   3       1.2   4.6e+02    0.2   0.0   177   246    30    99    19   121 0.84 -
JF1A_TRINITY_DN64737_c0_g2_i3.p1JF1A_TRINITY_DN64737_c0_g2  -            317 8229at3193           -            817     0.032   14.0   0.2   2   3    0.0067       2.7    7.6   0.0   729   770   144   185   126   197 0.85 -
JF1A_TRINITY_DN64737_c0_g2_i3.p1JF1A_TRINITY_DN64737_c0_g2  -            317 8229at3193           -            817     0.032   14.0   0.2   3   3      0.34   1.4e+02    2.0   0.0   560   613   243   293   201   301 0.58 -
JF1A_TRINITY_DN66947_c0_g3_i1.p1JF1A_TRINITY_DN66947_c0_g3  -            190 8229at3193           -            817     0.033   14.0   0.1   1   2    0.0012      0.49   10.1   0.0   645   734    14   100     1   110 0.79 -
JF1A_TRINITY_DN66947_c0_g3_i1.p1JF1A_TRINITY_DN66947_c0_g3  -            190 8229at3193           -            817     0.033   14.0   0.1   2   2      0.29   1.1e+02    2.2   0.0   740   767   130   157   115   188 0.67 -
JF2J_TRINITY_DN23991_c0_g2_i1.p1JF2J_TRINITY_DN23991_c0_g2  -            204 8229at3193           -            817     0.033   13.9   0.0   1   1   0.00011     0.042   13.6   0.0   508   592   119   204   103   204 0.77 -
JF3J_TRINITY_DN65068_c1_g1_i8.p1JF3J_TRINITY_DN65068_c1_g1  -            280 8229at3193           -            817     0.034   13.9   0.0   1   1   0.00015     0.062   13.1   0.0   632   678     5    54     1    62 0.80 -
JF1A_TRINITY_DN46956_c0_g2_i1.p1JF1A_TRINITY_DN46956_c0_g2  -            141 8229at3193           -            817     0.037   13.8   0.0   1   1   9.8e-05     0.039   13.7   0.0   579   655    67   140    42   141 0.79 -
JF1A_TRINITY_DN63803_c1_g2_i5.p1JF1A_TRINITY_DN63803_c1_g2  -            215 8229at3193           -            817     0.046   13.5   0.0   1   1   0.00013     0.053   13.3   0.0   690   783    74   172    37   195 0.72 -
JF1A_TRINITY_DN24561_c0_g1_i1.p1JF1A_TRINITY_DN24561_c0_g1  -            147 8229at3193           -            817     0.059   13.1   0.1   1   1   0.00019     0.077   12.7   0.1   587   617   104   134    99   139 0.92 -
JF3A_TRINITY_DN49629_c2_g1_i5.p1JF3A_TRINITY_DN49629_c2_g1  -            113 8229at3193           -            817     0.093   12.5   0.0   1   1   0.00033      0.13   12.0   0.0   331   355    57    82    51    85 0.80 -
JF1A_TRINITY_DN66331_c1_g1_i2.p1JF1A_TRINITY_DN66331_c1_g1  -            579 8229at3193           -            817       0.1   12.3   0.0   1   2     0.036        14    5.2   0.0   583   606   236   259   211   293 0.75 -
JF1A_TRINITY_DN66331_c1_g1_i2.p1JF1A_TRINITY_DN66331_c1_g1  -            579 8229at3193           -            817       0.1   12.3   0.0   2   2      0.14        54    3.3   0.1   689   710   491   512   362   516 0.53 -
JF1A_TRINITY_DN21242_c0_g1_i1.p1JF1A_TRINITY_DN21242_c0_g1  -            119 8229at3193           -            817      0.11   12.2   0.0   1   1   0.00031      0.12   12.1   0.0   587   613    46    72    36   110 0.65 -
JF1A_TRINITY_DN65765_c1_g3_i1.p1JF1A_TRINITY_DN65765_c1_g3  -            511 8229at3193           -            817      0.16   11.7   0.0   1   1   0.00056      0.22   11.2   0.0   283   384    15   117     4   172 0.81 -
JF2A_TRINITY_DN3376_c0_g1_i1.p1JF2A_TRINITY_DN3376_c0_g1    -            141 8229at3193           -            817      0.16   11.6   0.0   1   1   0.00047      0.19   11.5   0.0   544   578   103   137    80   140 0.86 -
JF1A_TRINITY_DN66962_c0_g2_i23.p1JF1A_TRINITY_DN66962_c0_g2 -            605 8229at3193           -            817      0.18   11.5   0.0   1   2      0.94   3.7e+02    0.5   0.0   315   353    38    74    32   135 0.80 -
JF1A_TRINITY_DN66962_c0_g2_i23.p1JF1A_TRINITY_DN66962_c0_g2 -            605 8229at3193           -            817      0.18   11.5   0.0   2   2    0.0046       1.8    8.2   0.0   291   362   415   486   391   503 0.84 -
JF1J_TRINITY_DN69422_c1_g2_i5.p1JF1J_TRINITY_DN69422_c1_g2  -            156 8229at3193           -            817      0.19   11.4   0.0   1   1   0.00055      0.22   11.2   0.0   585   610    18    43    13    72 0.63 -
JF1A_TRINITY_DN68361_c1_g2_i14.p1JF1A_TRINITY_DN68361_c1_g2 -            216 8229at3193           -            817       0.2   11.4   0.0   1   1   0.00061      0.24   11.1   0.0   180   246    74   142    45   154 0.81 -
JF3A_TRINITY_DN49629_c2_g1_i4.p1JF3A_TRINITY_DN49629_c2_g1  -            138 8229at3193           -            817      0.21   11.3   0.0   1   1   0.00068      0.27   10.9   0.0   331   353    57    80    51    99 0.65 -
JF1J_TRINITY_DN63573_c0_g1_i11.p1JF1J_TRINITY_DN63573_c0_g1 -            100 8229at3193           -            817      0.22   11.2   0.0   1   1   0.00065      0.26   11.0   0.0   719   775    28    85    23    91 0.81 -
JF3A_TRINITY_DN53336_c2_g2_i3.p1JF3A_TRINITY_DN53336_c2_g2  -            108 8229at3193           -            817      0.26   11.0   0.2   1   2     0.001       0.4   10.4   0.0   632   663     5    36     1    56 0.72 -
JF3A_TRINITY_DN53336_c2_g2_i3.p1JF3A_TRINITY_DN53336_c2_g2  -            108 8229at3193           -            817      0.26   11.0   0.2   2   2       4.6   1.8e+03   -1.8   0.0   238   265    73   100    45   105 0.60 -
JF3J_TRINITY_DN64032_c2_g5_i2.p2JF3J_TRINITY_DN64032_c2_g5  -            100 8229at3193           -            817      0.29   10.8   0.1   1   2     0.011       4.6    6.9   0.0   740   768     2    30     1    37 0.85 -
JF3J_TRINITY_DN64032_c2_g5_i2.p2JF3J_TRINITY_DN64032_c2_g5  -            100 8229at3193           -            817      0.29   10.8   0.1   2   2      0.16        65    3.0   0.0   733   756    34    55    27    75 0.83 -
JF1A_TRINITY_DN66962_c0_g2_i25.p1JF1A_TRINITY_DN66962_c0_g2 -            504 8229at3193           -            817      0.32   10.7   0.0   1   2       2.3   9.3e+02   -0.8   0.0   333   351    13    31     5    95 0.74 -
JF1A_TRINITY_DN66962_c0_g2_i25.p1JF1A_TRINITY_DN66962_c0_g2 -            504 8229at3193           -            817      0.32   10.7   0.0   2   2    0.0035       1.4    8.6   0.0   291   362   264   335   240   353 0.84 -
JF1A_TRINITY_DN64737_c0_g2_i2.p2JF1A_TRINITY_DN64737_c0_g2  -            104 8229at3193           -            817      0.34   10.6   0.1   1   1   0.00093      0.37   10.5   0.1   737   772     9    44     3    77 0.85 -
JF1A_TRINITY_DN65765_c1_g1_i1.p1JF1A_TRINITY_DN65765_c1_g1  -            643 8229at3193           -            817      0.35   10.5   0.0   1   1    0.0013       0.5   10.0   0.0   314   387   153   226   140   282 0.75 -
JF1J_TRINITY_DN63773_c0_g3_i3.p1JF1J_TRINITY_DN63773_c0_g3  -            115 8229at3193           -            817      0.38   10.4   0.0   1   1     0.001      0.41   10.3   0.0   507   579    29   102    11   106 0.74 -
JF1A_TRINITY_DN63803_c1_g2_i6.p1JF1A_TRINITY_DN63803_c1_g2  -            196 8229at3193           -            817      0.42   10.3   0.0   1   1    0.0011      0.43   10.3   0.0   690   720    74   106    35   174 0.85 -
JF1J_TRINITY_DN64394_c0_g1_i21.p2JF1J_TRINITY_DN64394_c0_g1 -            107 8229at3193           -            817      0.45   10.2   0.0   1   1    0.0012       0.5   10.1   0.0   516   569    16    69     6    87 0.89 -
#
# Program:         hmmsearch
# Version:         3.2.1 (June 2018)
# Pipeline mode:   SEARCH
# Query file:      /isg/shared/databases/BUSCO/odb10/embryophyta_odb10/hmms/8229at3193.hmm
# Target file:     Juniper_final_annotations_no_contam_lvl0.faa
# Option settings: /usr/local/bin/hmmsearch --domtblout /labs/Wegrzyn/Juniper_Pine/BUSCO/NEW/busco_juniper/run_embryophyta_odb10/hmmer_output/8229at3193.out --cpu 1 /isg/shared/databases/BUSCO/odb10/embryophyta_odb10/hmms/8229at3193.hmm Juniper_final_annotations_no_contam_lvl0.faa 
# Current dir:     /labs/Wegrzyn/Juniper_Pine/BUSCO/NEW
# Date:            Thu Aug  6 16:38:26 2020
# [ok]
