#                                                                                                                    --- full sequence --- -------------- this domain -------------   hmm coord   ali coord   env coord
# target name                                                accession   tlen query name           accession   qlen   E-value  score  bias   #  of  c-Evalue  i-Evalue  score  bias  from    to  from    to  from    to  acc description of target
#                                        ------------------- ---------- ----- -------------------- ---------- ----- --------- ------ ----- --- --- --------- --------- ------ ----- ----- ----- ----- ----- ----- ----- ---- ---------------------
JF2A_TRINITY_DN39115_c0_g2_i2.p1JF2A_TRINITY_DN39115_c0_g2   -            344 8341at3193           -            855  1.4e-158  531.5   2.0   1   1  2.1e-161  1.7e-158  531.2   2.0   121   432    29   344     9   344 0.96 -
JF2A_TRINITY_DN52345_c0_g1_i1.p1JF2A_TRINITY_DN52345_c0_g1   -            131 8341at3193           -            855   1.1e-65  224.2   0.4   1   1   1.4e-68   1.1e-65  224.1   0.5   700   824     2   131     1   131 0.95 -
JF1A_TRINITY_DN64817_c0_g3_i7.p1JF1A_TRINITY_DN64817_c0_g3   -            134 8341at3193           -            855   1.1e-58  201.1   0.1   1   1   1.6e-61   1.2e-58  200.8   0.1   187   313     1   128     1   132 0.98 -
JF1A_TRINITY_DN64817_c0_g3_i4.p1JF1A_TRINITY_DN64817_c0_g3   -            122 8341at3193           -            855     2e-57  196.8   0.2   1   1   2.6e-60   2.1e-57  196.8   0.2   347   464     5   122     1   122 0.96 -
JF1J_TRINITY_DN65052_c4_g1_i4.p1JF1J_TRINITY_DN65052_c4_g1   -            128 8341at3193           -            855   2.6e-49  170.0   0.6   1   1   3.8e-52   3.1e-49  169.8   0.6   121   217    14   110     4   118 0.92 -
JF1J_TRINITY_DN51584_c0_g1_i2.p1JF1J_TRINITY_DN51584_c0_g1   -            124 8341at3193           -            855   6.8e-45  155.4   1.8   1   2   1.1e-35   8.8e-33  115.3   0.2   752   817     6    71     2    81 0.94 -
JF1J_TRINITY_DN51584_c0_g1_i2.p1JF1J_TRINITY_DN51584_c0_g1   -            124 8341at3193           -            855   6.8e-45  155.4   1.8   2   2     5e-13     4e-10   40.4   0.2   658   697    84   124    70   124 0.87 -
JF3J_TRINITY_DN52040_c0_g1_i1.p1JF3J_TRINITY_DN52040_c0_g1   -            117 8341at3193           -            855   8.5e-41  141.8   5.0   1   1   1.2e-43   9.3e-41  141.7   5.0   505   616     1   117     1   117 0.83 -
JF3J_TRINITY_DN65545_c3_g2_i2.p1JF3J_TRINITY_DN65545_c3_g2   -            104 8341at3193           -            855     3e-35  123.5   0.1   1   1   4.4e-38   3.5e-35  123.3   0.1   383   454    16    87     5    94 0.93 -
JF1A_TRINITY_DN62314_c1_g6_i1.p1JF1A_TRINITY_DN62314_c1_g6   -            122 8341at3193           -            855   6.4e-34  119.1   0.0   1   1   9.2e-37   7.4e-34  118.9   0.0   604   702     8   119     5   121 0.85 -
JF1A_TRINITY_DN62468_c0_g6_i1.p1JF1A_TRINITY_DN62468_c0_g6   -            100 8341at3193           -            855   3.6e-31  110.0   1.6   1   1   5.3e-34   4.2e-31  109.7   1.6     1    73    16    90    16    95 0.94 -
JF1A_TRINITY_DN62468_c0_g6_i3.p1JF1A_TRINITY_DN62468_c0_g6   -            104 8341at3193           -            855   3.4e-29  103.5   4.8   1   2   3.8e-05      0.03   14.3   0.0    47    69    11    33     3    35 0.85 -
JF1A_TRINITY_DN62468_c0_g6_i3.p1JF1A_TRINITY_DN62468_c0_g6   -            104 8341at3193           -            855   3.4e-29  103.5   4.8   2   2   2.1e-28   1.7e-25   91.2   2.6     6    66    33    95    32   100 0.94 -
JF1A_TRINITY_DN64488_c1_g1_i10.p1JF1A_TRINITY_DN64488_c1_g1  -            413 8341at3193           -            855   2.4e-22   80.8   3.9   1   3   5.5e-05     0.044   13.7   0.0   293   350    31    91    27   104 0.84 -
JF1A_TRINITY_DN64488_c1_g1_i10.p1JF1A_TRINITY_DN64488_c1_g1  -            413 8341at3193           -            855   2.4e-22   80.8   3.9   2   3   3.4e-09   2.7e-06   27.7   0.6   268   394    74   203    72   204 0.92 -
JF1A_TRINITY_DN64488_c1_g1_i10.p1JF1A_TRINITY_DN64488_c1_g1  -            413 8341at3193           -            855   2.4e-22   80.8   3.9   3   3   4.9e-16   3.9e-13   50.3   0.8    40   233   185   379   179   398 0.79 -
JF2A_TRINITY_DN39115_c0_g3_i1.p1JF2A_TRINITY_DN39115_c0_g3   -            110 8341at3193           -            855   2.3e-21   77.5   0.1   1   1   3.2e-24   2.6e-21   77.4   0.1    51   122     1    72     1    86 0.90 -
JF1A_TRINITY_DN65529_c2_g3_i3.p1JF1A_TRINITY_DN65529_c2_g3   -            577 8341at3193           -            855   3.9e-17   63.5  15.0   1   4   1.5e-09   1.2e-06   28.9   1.0   203   298     6   102     1   115 0.90 -
JF1A_TRINITY_DN65529_c2_g3_i3.p1JF1A_TRINITY_DN65529_c2_g3   -            577 8341at3193           -            855   3.9e-17   63.5  15.0   2   4   4.6e-05     0.037   14.0   5.5   203   357   252   413   234   415 0.69 -
JF1A_TRINITY_DN65529_c2_g3_i3.p1JF1A_TRINITY_DN65529_c2_g3   -            577 8341at3193           -            855   3.9e-17   63.5  15.0   3   4   2.2e-09   1.8e-06   28.3   0.8   163   328   321   486   313   489 0.84 -
JF1A_TRINITY_DN65529_c2_g3_i3.p1JF1A_TRINITY_DN65529_c2_g3   -            577 8341at3193           -            855   3.9e-17   63.5  15.0   4   4   3.2e-07   0.00025   21.2   0.0    34    98   425   489   419   511 0.89 -
JF2A_TRINITY_DN961_c0_g1_i2.p1JF2A_TRINITY_DN961_c0_g1       -            257 8341at3193           -            855   1.7e-12   48.2   4.1   1   1   5.5e-14   4.4e-11   43.5   4.1   188   397    18   244    13   252 0.78 -
JF1J_TRINITY_DN63994_c5_g1_i3.p1JF1J_TRINITY_DN63994_c5_g1   -            503 8341at3193           -            855     1e-11   45.6   0.0   1   2   1.3e-08     1e-05   25.8   0.0   135   296   121   290    91   297 0.83 -
JF1J_TRINITY_DN63994_c5_g1_i3.p1JF1J_TRINITY_DN63994_c5_g1   -            503 8341at3193           -            855     1e-11   45.6   0.0   2   2   3.3e-06    0.0027   17.8   0.0   138   248   304   419   294   442 0.84 -
JF1J_TRINITY_DN52559_c0_g1_i1.p1JF1J_TRINITY_DN52559_c0_g1   -            147 8341at3193           -            855   2.4e-10   41.1   0.6   1   1   3.5e-13   2.8e-10   40.9   0.6    16   127    26   140    16   144 0.89 -
JF2A_TRINITY_DN39842_c0_g1_i4.p1JF2A_TRINITY_DN39842_c0_g1   -            220 8341at3193           -            855   2.5e-10   41.0   0.6   1   1   3.6e-13   2.9e-10   40.8   0.6    11   134    24   153    13   206 0.74 -
JF1A_TRINITY_DN65371_c1_g1_i4.p1JF1A_TRINITY_DN65371_c1_g1   -            263 8341at3193           -            855     7e-10   39.6   0.1   1   1   1.2e-12   9.5e-10   39.1   0.1    25   127   130   234   110   245 0.89 -
JF3J_TRINITY_DN64197_c4_g2_i2.p1JF3J_TRINITY_DN64197_c4_g2   -            161 8341at3193           -            855   3.6e-09   37.2   0.4   1   1   6.2e-12   4.9e-09   36.7   0.4   254   394     8   151     4   160 0.78 -
JF1A_TRINITY_DN63291_c1_g5_i10.p1JF1A_TRINITY_DN63291_c1_g5  -            350 8341at3193           -            855   2.7e-08   34.3   0.0   1   1   5.1e-11   4.1e-08   33.7   0.0   179   293   133   248   121   263 0.90 -
JF3J_TRINITY_DN64026_c5_g2_i2.p1JF3J_TRINITY_DN64026_c5_g2   -            158 8341at3193           -            855   4.9e-08   33.5   0.0   1   1   8.2e-11   6.6e-08   33.0   0.0   146   230    17   111     7   134 0.77 -
JF1A_TRINITY_DN62402_c0_g3_i10.p1JF1A_TRINITY_DN62402_c0_g3  -            284 8341at3193           -            855   4.9e-08   33.5   1.1   1   1   7.9e-11   6.3e-08   33.1   1.1   138   239   140   244   123   274 0.84 -
JF1A_TRINITY_DN65365_c0_g1_i16.p1JF1A_TRINITY_DN65365_c0_g1  -            133 8341at3193           -            855   1.8e-07   31.6   1.3   1   1   2.7e-10   2.1e-07   31.3   1.3   179   276    16   114     4   123 0.83 -
JF1A_TRINITY_DN59765_c0_g1_i4.p1JF1A_TRINITY_DN59765_c0_g1   -            175 8341at3193           -            855   2.3e-07   31.3   2.5   1   3    0.0047       3.7    7.4   0.2   348   395     7    54     3    63 0.79 -
JF1A_TRINITY_DN59765_c0_g1_i4.p1JF1A_TRINITY_DN59765_c0_g1   -            175 8341at3193           -            855   2.3e-07   31.3   2.5   2   3   6.8e-08   5.4e-05   23.4   0.1   338   400    58   127    55   140 0.71 -
JF1A_TRINITY_DN59765_c0_g1_i4.p1JF1A_TRINITY_DN59765_c0_g1   -            175 8341at3193           -            855   2.3e-07   31.3   2.5   3   3   0.00037       0.3   11.0   0.1   216   272   110   166   110   170 0.88 -
JF1A_TRINITY_DN63007_c1_g2_i4.p1JF1A_TRINITY_DN63007_c1_g2   -            932 8341at3193           -            855     3e-07   30.8   1.0   1   3    0.0005       0.4   10.6   0.0   242   318   473   549   457   560 0.79 -
JF1A_TRINITY_DN63007_c1_g2_i4.p1JF1A_TRINITY_DN63007_c1_g2   -            932 8341at3193           -            855     3e-07   30.8   1.0   2   3      0.74   5.9e+02    0.1   0.0    42    91   584   634   567   650 0.83 -
JF1A_TRINITY_DN63007_c1_g2_i4.p1JF1A_TRINITY_DN63007_c1_g2   -            932 8341at3193           -            855     3e-07   30.8   1.0   3   3     9e-06    0.0072   16.4   0.0    33    88   735   790   729   813 0.94 -
JF1A_TRINITY_DN64488_c1_g1_i9.p1JF1A_TRINITY_DN64488_c1_g1   -            194 8341at3193           -            855   4.5e-07   30.2   0.2   1   1   8.1e-10   6.5e-07   29.7   0.2   189   315    12   139     6   189 0.82 -
JF1A_TRINITY_DN57166_c0_g1_i1.p1JF1A_TRINITY_DN57166_c0_g1   -            141 8341at3193           -            855   5.1e-07   30.1   1.7   1   2    0.0017       1.4    8.8   0.7   229   286    21    78     6    79 0.86 -
JF1A_TRINITY_DN57166_c0_g1_i1.p1JF1A_TRINITY_DN57166_c0_g1   -            141 8341at3193           -            855   5.1e-07   30.1   1.7   2   2   2.5e-09     2e-06   28.1   1.0   142   231    35   125    29   134 0.89 -
JF1J_TRINITY_DN58718_c0_g1_i2.p1JF1J_TRINITY_DN58718_c0_g1   -            174 8341at3193           -            855   5.1e-07   30.1   0.1   1   2   1.2e-06   0.00098   19.2   0.0   145   198    61   114    52   116 0.94 -
JF1J_TRINITY_DN58718_c0_g1_i2.p1JF1J_TRINITY_DN58718_c0_g1   -            174 8341at3193           -            855   5.1e-07   30.1   0.1   2   2   5.2e-05     0.042   13.8   0.0   260   318   109   167   108   173 0.92 -
JF1J_TRINITY_DN66159_c3_g1_i5.p1JF1J_TRINITY_DN66159_c3_g1   -            107 8341at3193           -            855   8.5e-07   29.3   0.1   1   1   1.1e-09   8.8e-07   29.3   0.1   161   230    14    84     2   103 0.82 -
JF1J_TRINITY_DN66159_c3_g1_i6.p1JF1J_TRINITY_DN66159_c3_g1   -            138 8341at3193           -            855   1.9e-06   28.2   0.8   1   1   2.5e-09     2e-06   28.1   0.8   160   230    29   100     7   126 0.83 -
JF1A_TRINITY_DN59765_c0_g1_i3.p1JF1A_TRINITY_DN59765_c0_g1   -            222 8341at3193           -            855   3.4e-06   27.3   1.1   1   2   9.8e-08   7.8e-05   22.9   0.1   338   401   105   175   101   193 0.71 -
JF1A_TRINITY_DN59765_c0_g1_i3.p1JF1A_TRINITY_DN59765_c0_g1   -            222 8341at3193           -            855   3.4e-06   27.3   1.1   2   2    0.0006      0.48   10.3   0.1   216   272   157   213   157   216 0.88 -
JF1A_TRINITY_DN65964_c2_g2_i6.p1JF1A_TRINITY_DN65964_c2_g2   -            182 8341at3193           -            855   4.1e-06   27.1   0.2   1   2   1.6e-08   1.3e-05   25.4   0.1   329   393     5    69     2    74 0.93 -
JF1A_TRINITY_DN65964_c2_g2_i6.p1JF1A_TRINITY_DN65964_c2_g2   -            182 8341at3193           -            855   4.1e-06   27.1   0.2   2   2       2.6   2.1e+03   -1.7   0.0   275   309    84   120    73   135 0.69 -
JF3J_TRINITY_DN63264_c2_g1_i5.p1JF3J_TRINITY_DN63264_c2_g1   -            114 8341at3193           -            855   9.7e-06   25.9   0.0   1   1   1.5e-08   1.2e-05   25.5   0.0   339   398    41   100    24   110 0.89 -
JF1A_TRINITY_DN67491_c0_g12_i1.p1JF1A_TRINITY_DN67491_c0_g12 -            223 8341at3193           -            855   1.2e-05   25.5   1.5   1   1   1.8e-08   1.5e-05   25.3   1.5   267   401    79   211    60   219 0.83 -
JF1A_TRINITY_DN25443_c0_g1_i1.p1JF1A_TRINITY_DN25443_c0_g1   -            186 8341at3193           -            855   1.3e-05   25.4   0.1   1   1   1.7e-08   1.4e-05   25.4   0.1   165   372    64   139    26   186 0.50 -
JF1A_TRINITY_DN60808_c0_g2_i1.p1JF1A_TRINITY_DN60808_c0_g2   -            189 8341at3193           -            855   1.6e-05   25.2   0.0   1   1   2.5e-08     2e-05   24.8   0.0   339   399    51   111     5   135 0.86 -
JF1A_TRINITY_DN60662_c0_g1_i1.p1JF1A_TRINITY_DN60662_c0_g1   -            269 8341at3193           -            855   1.7e-05   25.1   2.0   1   1   2.8e-08   2.2e-05   24.6   2.0   137   237    23   124    11   244 0.84 -
JF1A_TRINITY_DN68432_c1_g3_i1.p1JF1A_TRINITY_DN68432_c1_g3   -            239 8341at3193           -            855   1.9e-05   24.9   0.0   1   1   3.1e-08   2.5e-05   24.5   0.0   143   236    25   119     4   135 0.72 -
JF1A_TRINITY_DN65139_c1_g1_i12.p1JF1A_TRINITY_DN65139_c1_g1  -            362 8341at3193           -            855     2e-05   24.8   1.1   1   2      0.45   3.6e+02    0.8   0.1   273   301   189   220   172   227 0.79 -
JF1A_TRINITY_DN65139_c1_g1_i12.p1JF1A_TRINITY_DN65139_c1_g1  -            362 8341at3193           -            855     2e-05   24.8   1.1   2   2   2.1e-07   0.00017   21.8   0.2   180   249   246   316   237   320 0.89 -
JF3A_TRINITY_DN33787_c0_g1_i1.p1JF3A_TRINITY_DN33787_c0_g1   -            144 8341at3193           -            855   2.1e-05   24.7   0.6   1   1   4.8e-08   3.8e-05   23.9   0.6   197   306    25   139     2   142 0.80 -
JF1A_TRINITY_DN60280_c0_g6_i1.p1JF1A_TRINITY_DN60280_c0_g6   -            323 8341at3193           -            855   4.3e-05   23.7   2.2   1   2      0.58   4.6e+02    0.5   0.1   250   297    59   106    47   133 0.61 -
JF1A_TRINITY_DN60280_c0_g6_i1.p1JF1A_TRINITY_DN60280_c0_g6   -            323 8341at3193           -            855   4.3e-05   23.7   2.2   2   2   9.8e-08   7.8e-05   22.8   0.2   214   346   185   322   172   323 0.88 -
JF3J_TRINITY_DN66366_c0_g1_i9.p1JF3J_TRINITY_DN66366_c0_g1   -            185 8341at3193           -            855   6.3e-05   23.2   0.1   1   1   8.8e-08   7.1e-05   23.0   0.1   221   298    45   122    11   135 0.89 -
JF1A_TRINITY_DN65371_c1_g1_i5.p1JF1A_TRINITY_DN65371_c1_g1   -            203 8341at3193           -            855   6.5e-05   23.1   0.6   1   1     1e-07   8.3e-05   22.8   0.6    46   127    93   174    80   185 0.90 -
JF1A_TRINITY_DN67705_c0_g4_i2.p1JF1A_TRINITY_DN67705_c0_g4   -            310 8341at3193           -            855    0.0002   21.5   0.2   1   1     4e-07   0.00032   20.8   0.1    32    88   111   167    83   200 0.90 -
JF2A_TRINITY_DN35492_c0_g1_i1.p1JF2A_TRINITY_DN35492_c0_g1   -            221 8341at3193           -            855   0.00025   21.2   1.7   1   1   3.2e-07   0.00025   21.2   1.7   285   397   108   218    22   221 0.80 -
JF3A_TRINITY_DN47733_c2_g3_i1.p1JF3A_TRINITY_DN47733_c2_g3   -            131 8341at3193           -            855   0.00029   21.0   0.2   1   1   4.1e-07   0.00033   20.8   0.2   181   264     7    95     1   104 0.83 -
JF1A_TRINITY_DN65018_c0_g2_i10.p1JF1A_TRINITY_DN65018_c0_g2  -            162 8341at3193           -            855   0.00038   20.6   0.1   1   1   7.4e-07   0.00059   20.0   0.1   177   230    97   151    28   161 0.64 -
JF2A_TRINITY_DN41542_c2_g2_i1.p1JF2A_TRINITY_DN41542_c2_g2   -            128 8341at3193           -            855    0.0004   20.5   0.4   1   1   7.1e-07   0.00057   20.0   0.4   217   281    16    80     3   108 0.56 -
JF1J_TRINITY_DN58775_c0_g1_i2.p1JF1J_TRINITY_DN58775_c0_g1   -            188 8341at3193           -            855   0.00047   20.3   0.0   1   1   7.5e-07    0.0006   19.9   0.0    33    88    23    78    17   104 0.93 -
JF1A_TRINITY_DN67998_c0_g2_i1.p1JF1A_TRINITY_DN67998_c0_g2   -            162 8341at3193           -            855   0.00074   19.6   0.1   1   1   1.1e-06   0.00088   19.4   0.1   236   316     9    89     2   137 0.75 -
JF2A_TRINITY_DN41542_c2_g2_i3.p1JF2A_TRINITY_DN41542_c2_g2   -            168 8341at3193           -            855    0.0012   18.9   1.9   1   1   2.7e-06    0.0021   18.1   1.9   217   281    16    80     4   147 0.59 -
JF1A_TRINITY_DN64811_c1_g1_i3.p1JF1A_TRINITY_DN64811_c1_g1   -            160 8341at3193           -            855    0.0014   18.7   0.1   1   1   2.1e-06    0.0017   18.5   0.1   221   306    67   155    39   158 0.81 -
JF3A_TRINITY_DN55565_c1_g3_i3.p1JF3A_TRINITY_DN55565_c1_g3   -            159 8341at3193           -            855    0.0016   18.5   0.0   1   1   2.3e-06    0.0019   18.3   0.0   284   359    18    96    11   118 0.79 -
JF2A_TRINITY_DN52941_c0_g1_i1.p1JF2A_TRINITY_DN52941_c0_g1   -            264 8341at3193           -            855    0.0016   18.5   0.7   1   1   2.6e-06    0.0021   18.1   0.7   180   270    58   153    47   191 0.77 -
JF1A_TRINITY_DN65794_c0_g2_i3.p1JF1A_TRINITY_DN65794_c0_g2   -            187 8341at3193           -            855    0.0017   18.4   0.1   1   1   4.1e-06    0.0032   17.5   0.1   234   354    42   171    29   176 0.71 -
JF1J_TRINITY_DN71198_c0_g4_i1.p1JF1J_TRINITY_DN71198_c0_g4   -            110 8341at3193           -            855    0.0024   17.9   0.2   1   1   3.1e-06    0.0025   17.9   0.2   199   265    10    77     4   106 0.83 -
JF1A_TRINITY_DN65529_c2_g3_i9.p1JF1A_TRINITY_DN65529_c2_g3   -            246 8341at3193           -            855    0.0029   17.7   3.2   1   1   6.6e-06    0.0053   16.8   3.1   206   281    62   138    40   193 0.71 -
JF1A_TRINITY_DN62225_c0_g2_i2.p1JF1A_TRINITY_DN62225_c0_g2   -            247 8341at3193           -            855    0.0034   17.4   0.3   1   1   6.3e-06    0.0051   16.9   0.3   118   200    97   179    48   185 0.79 -
JF1A_TRINITY_DN46229_c0_g1_i1.p1JF1A_TRINITY_DN46229_c0_g1   -            160 8341at3193           -            855    0.0041   17.2   0.1   1   1   6.2e-06    0.0049   16.9   0.1   263   336     6    82     4   103 0.83 -
JF1A_TRINITY_DN60579_c6_g2_i5.p1JF1A_TRINITY_DN60579_c6_g2   -            238 8341at3193           -            855    0.0041   17.2   0.2   1   1     6e-06    0.0048   16.9   0.2   228   328   102   209    84   231 0.59 -
JF1A_TRINITY_DN48307_c0_g1_i1.p1JF1A_TRINITY_DN48307_c0_g1   -            144 8341at3193           -            855    0.0047   17.0   0.0   1   2   2.7e-05     0.022   14.8   0.0   300   380     7    90     3    97 0.92 -
JF1A_TRINITY_DN48307_c0_g1_i1.p1JF1A_TRINITY_DN48307_c0_g1   -            144 8341at3193           -            855    0.0047   17.0   0.0   2   2      0.84   6.7e+02   -0.1   0.0   255   296   100   141    91   143 0.78 -
JF1J_TRINITY_DN66982_c2_g3_i5.p1JF1J_TRINITY_DN66982_c2_g3   -            159 8341at3193           -            855    0.0048   16.9   0.1   1   1     7e-06    0.0056   16.7   0.1   331   404    20    91     1   113 0.72 -
JF1A_TRINITY_DN68633_c8_g4_i2.p1JF1A_TRINITY_DN68633_c8_g4   -            188 8341at3193           -            855    0.0055   16.7   0.0   1   1   8.5e-06    0.0067   16.4   0.0   250   347    57   158    47   171 0.85 -
JF1A_TRINITY_DN67283_c0_g8_i1.p1JF1A_TRINITY_DN67283_c0_g8   -            265 8341at3193           -            855    0.0068   16.4   2.6   1   1      0.36   2.9e+02    1.1   0.4   311   360   145   194   124   228 0.76 -
JF1A_TRINITY_DN12845_c0_g1_i1.p1JF1A_TRINITY_DN12845_c0_g1   -            195 8341at3193           -            855    0.0069   16.4   0.0   1   1   2.2e-05     0.018   15.1   0.0    67   206    11   156     7   174 0.55 -
JF1A_TRINITY_DN60870_c1_g2_i2.p1JF1A_TRINITY_DN60870_c1_g2   -            342 8341at3193           -            855    0.0071   16.4   0.1   1   2      0.11        86    2.9   0.0   182   252   169   240   161   252 0.70 -
JF1A_TRINITY_DN60870_c1_g2_i2.p1JF1A_TRINITY_DN60870_c1_g2   -            342 8341at3193           -            855    0.0071   16.4   0.1   2   2   0.00028      0.22   11.4   0.0   146   215   266   335   259   340 0.87 -
JF1J_TRINITY_DN58288_c0_g1_i1.p1JF1J_TRINITY_DN58288_c0_g1   -            134 8341at3193           -            855     0.015   15.3   0.1   1   2    0.0007      0.56   10.1   0.0   234   310     6    87     1    88 0.79 -
JF1J_TRINITY_DN58288_c0_g1_i1.p1JF1J_TRINITY_DN58288_c0_g1   -            134 8341at3193           -            855     0.015   15.3   0.1   2   2    0.0026       2.1    8.2   0.0   244   295    55   106    35   128 0.57 -
JF1A_TRINITY_DN67794_c1_g4_i2.p1JF1A_TRINITY_DN67794_c1_g4   -            101 8341at3193           -            855      0.02   14.9   0.0   1   1   2.7e-05     0.022   14.8   0.0   143   209     4    77     1    93 0.73 -
JF2A_TRINITY_DN50599_c0_g1_i1.p1JF2A_TRINITY_DN50599_c0_g1   -            193 8341at3193           -            855     0.025   14.5   0.0   1   1   0.00018      0.15   12.0   0.0   254   320    61   132     1   144 0.67 -
JF1A_TRINITY_DN62755_c1_g7_i2.p1JF1A_TRINITY_DN62755_c1_g7   -            195 8341at3193           -            855     0.026   14.5   0.8   1   2     4e-05     0.032   14.2   0.2   334   394    23    89    14   135 0.85 -
JF1A_TRINITY_DN62755_c1_g7_i2.p1JF1A_TRINITY_DN62755_c1_g7   -            195 8341at3193           -            855     0.026   14.5   0.8   2   2       4.4   3.5e+03   -2.5   0.0   340   360   154   174   138   178 0.76 -
JF2A_TRINITY_DN40042_c0_g1_i2.p1JF2A_TRINITY_DN40042_c0_g1   -            588 8341at3193           -            855     0.029   14.4   1.6   1   2   0.00028      0.22   11.4   0.1   314   368    15    69     2    84 0.64 -
JF2A_TRINITY_DN40042_c0_g1_i2.p1JF2A_TRINITY_DN40042_c0_g1   -            588 8341at3193           -            855     0.029   14.4   1.6   2   2       0.2   1.6e+02    2.0   0.2    46   128   351   437   340   481 0.72 -
JF1A_TRINITY_DN66644_c0_g6_i2.p1JF1A_TRINITY_DN66644_c0_g6   -            239 8341at3193           -            855     0.041   13.9   0.2   1   1   6.8e-05     0.054   13.5   0.2    35    92   163   220   150   237 0.81 -
JF1A_TRINITY_DN62296_c0_g4_i2.p1JF1A_TRINITY_DN62296_c0_g4   -            169 8341at3193           -            855     0.056   13.4   0.0   1   1     7e-05     0.056   13.4   0.0   269   326    58   114    13   151 0.78 -
JF1J_TRINITY_DN66855_c1_g3_i4.p1JF1J_TRINITY_DN66855_c1_g3   -            132 8341at3193           -            855     0.073   13.0   0.1   1   1   0.00011     0.084   12.8   0.1   305   401    20   123     9   128 0.74 -
JF1A_TRINITY_DN66900_c0_g5_i1.p1JF1A_TRINITY_DN66900_c0_g5   -            139 8341at3193           -            855     0.073   13.0   0.0   1   1   9.3e-05     0.074   13.0   0.0   340   399    22    81     7   128 0.81 -
JF1A_TRINITY_DN62296_c0_g4_i3.p1JF1A_TRINITY_DN62296_c0_g4   -            132 8341at3193           -            855     0.081   12.9   0.0   1   1    0.0001     0.084   12.8   0.0   267   318    56   107    12   119 0.75 -
JF2A_TRINITY_DN41418_c0_g4_i1.p1JF2A_TRINITY_DN41418_c0_g4   -            172 8341at3193           -            855     0.096   12.6   0.2   1   1   0.00019      0.15   12.0   0.1    35    94    94   153    81   169 0.78 -
JF1A_TRINITY_DN10379_c0_g1_i1.p1JF1A_TRINITY_DN10379_c0_g1   -            175 8341at3193           -            855      0.12   12.4   0.2   1   1   0.00016      0.13   12.2   0.2   183   234    43    95     3   119 0.77 -
JF1J_TRINITY_DN41337_c0_g1_i3.p1JF1J_TRINITY_DN41337_c0_g1   -            123 8341at3193           -            855      0.13   12.2   0.1   1   1   0.00017      0.14   12.1   0.1    35   112     6    84     1   101 0.77 -
JF1A_TRINITY_DN65134_c1_g2_i16.p1JF1A_TRINITY_DN65134_c1_g2  -            200 8341at3193           -            855      0.16   11.9   0.1   1   1    0.0003      0.24   11.3   0.1   320   397    32   108    12   112 0.80 -
JF3A_TRINITY_DN51458_c1_g3_i1.p1JF3A_TRINITY_DN51458_c1_g3   -            118 8341at3193           -            855      0.17   11.8   0.0   1   1   0.00023      0.18   11.7   0.0    35   395    11    72     2    96 0.56 -
JF1A_TRINITY_DN58840_c0_g1_i2.p1JF1A_TRINITY_DN58840_c0_g1   -            105 8341at3193           -            855      0.23   11.4   0.0   1   1   0.00029      0.23   11.4   0.0   591   640    25    77     3    92 0.82 -
JF2A_TRINITY_DN42840_c1_g1_i14.p2JF2A_TRINITY_DN42840_c1_g1  -            183 8341at3193           -            855      0.26   11.2   0.6   1   2    0.0023       1.8    8.4   0.1   246   298    26    80    19   135 0.59 -
JF2A_TRINITY_DN42840_c1_g1_i14.p2JF2A_TRINITY_DN42840_c1_g1  -            183 8341at3193           -            855      0.26   11.2   0.6   2   2       0.1        82    2.9   0.1   138   203    92   157    87   172 0.71 -
JF1A_TRINITY_DN62396_c0_g1_i4.p1JF1A_TRINITY_DN62396_c0_g1   -            175 8341at3193           -            855      0.28   11.1   0.2   1   1   0.00042      0.33   10.8   0.2   330   388   108   166    81   170 0.90 -
JF1A_TRINITY_DN59896_c0_g1_i1.p1JF1A_TRINITY_DN59896_c0_g1   -            181 8341at3193           -            855      0.29   11.0   0.2   1   1   0.00039      0.31   10.9   0.2   236   310    93   167    49   179 0.79 -
JF1A_TRINITY_DN66814_c1_g5_i1.p1JF1A_TRINITY_DN66814_c1_g5   -            186 8341at3193           -            855      0.61   10.0   0.0   1   2       4.9   3.9e+03   -2.6   0.0    62    90    14    42     6    55 0.71 -
JF1A_TRINITY_DN66814_c1_g5_i1.p1JF1A_TRINITY_DN66814_c1_g5   -            186 8341at3193           -            855      0.61   10.0   0.0   2   2    0.0014       1.1    9.1   0.0    51    92   105   146    71   155 0.76 -
#
# Program:         hmmsearch
# Version:         3.2.1 (June 2018)
# Pipeline mode:   SEARCH
# Query file:      /isg/shared/databases/BUSCO/odb10/embryophyta_odb10/hmms/8341at3193.hmm
# Target file:     Juniper_final_annotations_no_contam_lvl0.faa
# Option settings: /usr/local/bin/hmmsearch --domtblout /labs/Wegrzyn/Juniper_Pine/BUSCO/NEW/busco_juniper/run_embryophyta_odb10/hmmer_output/8341at3193.out --cpu 1 /isg/shared/databases/BUSCO/odb10/embryophyta_odb10/hmms/8341at3193.hmm Juniper_final_annotations_no_contam_lvl0.faa 
# Current dir:     /labs/Wegrzyn/Juniper_Pine/BUSCO/NEW
# Date:            Thu Aug  6 16:38:45 2020
# [ok]
