#                                                                                                                    --- full sequence --- -------------- this domain -------------   hmm coord   ali coord   env coord
# target name                                                accession   tlen query name           accession   qlen   E-value  score  bias   #  of  c-Evalue  i-Evalue  score  bias  from    to  from    to  from    to  acc description of target
#                                        ------------------- ---------- ----- -------------------- ---------- ----- --------- ------ ----- --- --- --------- --------- ------ ----- ----- ----- ----- ----- ----- ----- ---- ---------------------
JF1A_TRINITY_DN62578_c0_g10_i1.p1JF1A_TRINITY_DN62578_c0_g10 -            112 88949at3193          -            362     1e-46  161.3   0.1   1   1   1.6e-50   1.1e-46  161.2   0.1     1    99     3   109     3   112 0.91 -
JF3J_TRINITY_DN31266_c0_g1_i1.p1JF3J_TRINITY_DN31266_c0_g1   -            103 88949at3193          -            362     1e-21   79.0   2.5   1   1   2.5e-24   1.7e-20   75.0   2.5   114   179    11   103     8   103 0.78 -
JF2A_TRINITY_DN34264_c0_g1_i1.p1JF2A_TRINITY_DN34264_c0_g1   -            198 88949at3193          -            362     0.001   19.9   0.0   1   1   1.8e-07    0.0012   19.6   0.0   195   269    52   123    24   143 0.83 -
JF1A_TRINITY_DN63403_c0_g3_i2.p1JF1A_TRINITY_DN63403_c0_g3   -            480 88949at3193          -            362    0.0037   18.0   0.0   1   2   1.5e-06     0.011   16.5   0.1   192   253   213   275   205   285 0.86 -
JF1A_TRINITY_DN63403_c0_g3_i2.p1JF1A_TRINITY_DN63403_c0_g3   -            480 88949at3193          -            362    0.0037   18.0   0.0   2   2      0.76   5.3e+03   -2.2   0.0   237   272   343   379   337   401 0.72 -
JF1J_TRINITY_DN49256_c0_g1_i1.p1JF1J_TRINITY_DN49256_c0_g1   -            119 88949at3193          -            362     0.021   15.5   0.2   1   1   3.4e-06     0.023   15.4   0.2   188   239    11    62     5    86 0.83 -
JF3J_TRINITY_DN14995_c0_g1_i1.p1JF3J_TRINITY_DN14995_c0_g1   -            127 88949at3193          -            362     0.027   15.2   0.0   1   1   4.4e-06     0.031   15.0   0.0   210   268    40    99    19   122 0.84 -
JF1A_TRINITY_DN56077_c0_g1_i1.p1JF1A_TRINITY_DN56077_c0_g1   -            234 88949at3193          -            362     0.042   14.5   0.0   1   1   8.3e-06     0.057   14.1   0.0   195   272    83   161    72   174 0.90 -
JF1A_TRINITY_DN64485_c0_g2_i1.p1JF1A_TRINITY_DN64485_c0_g2   -            398 88949at3193          -            362      0.13   12.9   0.1   1   1   3.2e-05      0.22   12.1   0.1   187   237    81   136    58   151 0.75 -
JF1A_TRINITY_DN42161_c0_g1_i1.p1JF1A_TRINITY_DN42161_c0_g1   -            184 88949at3193          -            362      0.21   12.2   0.0   1   1   3.8e-05      0.27   11.9   0.0   194   265    76   145    55   159 0.85 -
JF1A_TRINITY_DN67421_c1_g1_i2.p1JF1A_TRINITY_DN67421_c1_g1   -            336 88949at3193          -            362      0.26   11.9   0.1   1   2    0.0068        47    4.5   0.0    67   106    97   136    94   148 0.85 -
JF1A_TRINITY_DN67421_c1_g1_i2.p1JF1A_TRINITY_DN67421_c1_g1   -            336 88949at3193          -            362      0.26   11.9   0.1   2   2    0.0039        27    5.3   0.0    67   106   164   203   154   214 0.85 -
#
# Program:         hmmsearch
# Version:         3.2.1 (June 2018)
# Pipeline mode:   SEARCH
# Query file:      /isg/shared/databases/BUSCO/odb10/embryophyta_odb10/hmms/88949at3193.hmm
# Target file:     Juniper_final_annotations_no_contam_lvl0.faa
# Option settings: /usr/local/bin/hmmsearch --domtblout /labs/Wegrzyn/Juniper_Pine/BUSCO/NEW/busco_juniper/run_embryophyta_odb10/hmmer_output/88949at3193.out --cpu 1 /isg/shared/databases/BUSCO/odb10/embryophyta_odb10/hmms/88949at3193.hmm Juniper_final_annotations_no_contam_lvl0.faa 
# Current dir:     /labs/Wegrzyn/Juniper_Pine/BUSCO/NEW
# Date:            Thu Aug  6 16:40:28 2020
# [ok]
