#                                                                                                                   --- full sequence --- -------------- this domain -------------   hmm coord   ali coord   env coord
# target name                                               accession   tlen query name           accession   qlen   E-value  score  bias   #  of  c-Evalue  i-Evalue  score  bias  from    to  from    to  from    to  acc description of target
#                                       ------------------- ---------- ----- -------------------- ---------- ----- --------- ------ ----- --- --- --------- --------- ------ ----- ----- ----- ----- ----- ----- ----- ---- ---------------------
JF1A_TRINITY_DN57285_c0_g1_i1.p1JF1A_TRINITY_DN57285_c0_g1  -            232 90102at3193          -            355   5.1e-39  136.1   2.9   1   2   4.3e-07   0.00022   22.2   0.1   124   167     8    53     4    73 0.77 -
JF1A_TRINITY_DN57285_c0_g1_i1.p1JF1A_TRINITY_DN57285_c0_g1  -            232 90102at3193          -            355   5.1e-39  136.1   2.9   2   2   4.9e-35   2.5e-32  114.1   0.5   166   291    95   232    82   232 0.88 -
JF1A_TRINITY_DN64906_c3_g1_i1.p1JF1A_TRINITY_DN64906_c3_g1  -            108 90102at3193          -            355   1.3e-23   85.5  11.7   1   1   3.6e-26   1.8e-23   85.0  11.7    62   123    47   108    34   108 0.93 -
JF1J_TRINITY_DN61005_c0_g1_i2.p1JF1J_TRINITY_DN61005_c0_g1  -            109 90102at3193          -            355   1.5e-17   65.5   0.2   1   1     5e-20   2.6e-17   64.8   0.2   199   283     9   102     5   104 0.87 -
JF3A_TRINITY_DN54822_c3_g1_i16.p1JF3A_TRINITY_DN54822_c3_g1 -            152 90102at3193          -            355   2.2e-10   42.0   1.0   1   1   4.3e-13   2.2e-10   42.0   1.0    59   125    34   106    13   149 0.79 -
JF2J_TRINITY_DN25867_c0_g2_i1.p1JF2J_TRINITY_DN25867_c0_g2  -            105 90102at3193          -            355   6.8e-10   40.3   2.2   1   1   1.4e-12   7.3e-10   40.2   2.2    56   115    33    93     9   102 0.80 -
JF1A_TRINITY_DN67835_c0_g1_i10.p1JF1A_TRINITY_DN67835_c0_g1 -            559 90102at3193          -            355   3.7e-09   37.9   1.5   1   3   7.2e-12   3.7e-09   37.9   1.5    55   125   121   197    77   209 0.75 -
JF1A_TRINITY_DN67835_c0_g1_i10.p1JF1A_TRINITY_DN67835_c0_g1 -            559 90102at3193          -            355   3.7e-09   37.9   1.5   2   3       4.1   2.1e+03   -0.7   3.9    92   104   255   267   252   278 0.80 -
JF1A_TRINITY_DN67835_c0_g1_i10.p1JF1A_TRINITY_DN67835_c0_g1 -            559 90102at3193          -            355   3.7e-09   37.9   1.5   3   3       7.8     4e+03   -1.7   4.8    90   110   320   340   297   354 0.82 -
JF2A_TRINITY_DN39217_c0_g1_i1.p1JF2A_TRINITY_DN39217_c0_g1  -            164 90102at3193          -            355   5.3e-09   37.4   6.4   1   1   1.2e-11     6e-09   37.2   6.4    75   136    47   106    22   150 0.79 -
JF1J_TRINITY_DN72356_c2_g1_i24.p1JF1J_TRINITY_DN72356_c2_g1 -            196 90102at3193          -            355   1.7e-08   35.7   0.8   1   1   4.1e-11   2.1e-08   35.5   0.8    41   103   106   166    69   176 0.77 -
JF1J_TRINITY_DN64841_c2_g1_i2.p1JF1J_TRINITY_DN64841_c2_g1  -            323 90102at3193          -            355   1.1e-07   33.1   0.9   1   1   3.2e-10   1.6e-07   32.5   0.9    72   143   148   212   141   230 0.80 -
JF1A_TRINITY_DN68442_c1_g3_i1.p1JF1A_TRINITY_DN68442_c1_g3  -            108 90102at3193          -            355   1.4e-07   32.8   1.7   1   1     3e-10   1.5e-07   32.6   1.7    76   126    45    88    23    95 0.87 -
JF1A_TRINITY_DN60200_c0_g2_i1.p1JF1A_TRINITY_DN60200_c0_g2  -            114 90102at3193          -            355   2.1e-07   32.2   4.0   1   1   5.3e-10   2.7e-07   31.8   4.0    73   125    59   105    42   108 0.89 -
JF1A_TRINITY_DN65357_c1_g1_i7.p1JF1A_TRINITY_DN65357_c1_g1  -            198 90102at3193          -            355     3e-07   31.6   5.6   1   1   7.7e-10   3.9e-07   31.3   5.6    72   145    37   103    27   121 0.86 -
JF2A_TRINITY_DN40964_c0_g2_i1.p1JF2A_TRINITY_DN40964_c0_g2  -            307 90102at3193          -            355   4.1e-07   31.2   4.9   1   1   1.2e-09     6e-07   30.6   4.9    72   145    11    77     2    94 0.86 -
JF3J_TRINITY_DN56061_c0_g1_i1.p1JF3J_TRINITY_DN56061_c0_g1  -            141 90102at3193          -            355   4.8e-07   31.0  13.6   1   2    0.0041       2.1    9.1   0.7    76   104    31    58    12    69 0.87 -
JF3J_TRINITY_DN56061_c0_g1_i1.p1JF3J_TRINITY_DN56061_c0_g1  -            141 90102at3193          -            355   4.8e-07   31.0  13.6   2   2     1e-08   5.3e-06   27.5   5.8    76   126    78   121    59   128 0.88 -
JF2A_TRINITY_DN42298_c1_g6_i1.p1JF2A_TRINITY_DN42298_c1_g6  -            158 90102at3193          -            355   4.9e-07   31.0   3.1   1   1   1.2e-09   6.3e-07   30.6   3.1    76   126    95   138    74   145 0.88 -
JF3J_TRINITY_DN67821_c2_g1_i1.p1JF3J_TRINITY_DN67821_c2_g1  -            217 90102at3193          -            355   1.5e-06   29.3   0.6   1   2       8.1   4.2e+03   -1.7   6.5    93   121    54    88    42    95 0.66 -
JF3J_TRINITY_DN67821_c2_g1_i1.p1JF3J_TRINITY_DN67821_c2_g1  -            217 90102at3193          -            355   1.5e-06   29.3   0.6   2   2     3e-09   1.5e-06   29.3   0.6    73   111   173   210   158   215 0.88 -
JF1A_TRINITY_DN64693_c1_g8_i1.p1JF1A_TRINITY_DN64693_c1_g8  -            101 90102at3193          -            355   1.7e-06   29.1   3.5   1   1   3.8e-09   1.9e-06   29.0   3.5    66   129    36    96    24   100 0.86 -
JF2A_TRINITY_DN50975_c0_g1_i1.p1JF2A_TRINITY_DN50975_c0_g1  -            106 90102at3193          -            355     2e-06   28.9   4.3   1   1   4.9e-09   2.5e-06   28.6   4.3    72   126    16    65     3    71 0.82 -
JF3J_TRINITY_DN63178_c5_g2_i1.p1JF3J_TRINITY_DN63178_c5_g2  -            116 90102at3193          -            355     3e-06   28.3   2.0   1   1   6.4e-09   3.2e-06   28.2   2.0    67   129     4    60     1    87 0.77 -
JF1A_TRINITY_DN64771_c0_g2_i1.p1JF1A_TRINITY_DN64771_c0_g2  -            213 90102at3193          -            355   3.1e-06   28.3   1.9   1   1   8.3e-09   4.2e-06   27.9   1.9    75   126    24    71    18    74 0.86 -
JF1A_TRINITY_DN62765_c1_g1_i4.p1JF1A_TRINITY_DN62765_c1_g1  -            215 90102at3193          -            355   5.7e-06   27.4   6.4   1   1   1.5e-08   7.9e-06   27.0   6.4    72   125   101   150    90   155 0.87 -
JF2A_TRINITY_DN52239_c0_g1_i1.p1JF2A_TRINITY_DN52239_c0_g1  -            124 90102at3193          -            355   6.2e-06   27.3   3.1   1   1   1.7e-08   8.8e-06   26.8   3.1    75   124    43    96    34   108 0.81 -
JF1A_TRINITY_DN57030_c0_g1_i1.p1JF1A_TRINITY_DN57030_c0_g1  -            114 90102at3193          -            355   7.1e-06   27.1   3.8   1   1   1.7e-08   8.8e-06   26.8   3.8    70   125    50   102    36   109 0.84 -
JF1A_TRINITY_DN57951_c0_g1_i1.p1JF1A_TRINITY_DN57951_c0_g1  -            241 90102at3193          -            355   1.1e-05   26.5   3.9   1   1   2.1e-08   1.1e-05   26.5   3.9    73   133     2    66     1    86 0.84 -
JF1A_TRINITY_DN64781_c1_g3_i1.p1JF1A_TRINITY_DN64781_c1_g3  -            163 90102at3193          -            355   1.6e-05   25.9   3.8   1   1   3.5e-08   1.8e-05   25.8   3.8    72   127    16    67     9   116 0.80 -
JF1J_TRINITY_DN61802_c0_g1_i3.p1JF1J_TRINITY_DN61802_c0_g1  -            133 90102at3193          -            355   1.9e-05   25.7   1.9   1   1   4.4e-08   2.2e-05   25.5   1.9    71   129    25    77    16   104 0.76 -
JF1A_TRINITY_DN65499_c0_g1_i2.p1JF1A_TRINITY_DN65499_c0_g1  -            192 90102at3193          -            355   1.9e-05   25.7   1.2   1   1   5.4e-08   2.8e-05   25.2   1.2    71   125   101   152    92   172 0.86 -
JF1J_TRINITY_DN63276_c0_g1_i4.p1JF1J_TRINITY_DN63276_c0_g1  -            182 90102at3193          -            355   2.1e-05   25.6   4.9   1   1   5.7e-08   2.9e-05   25.1   4.9    71   125    27    77    14    81 0.85 -
JF1A_TRINITY_DN57424_c0_g1_i1.p1JF1A_TRINITY_DN57424_c0_g1  -            214 90102at3193          -            355   2.7e-05   25.2   1.8   1   1   6.2e-08   3.2e-05   25.0   1.8    60   126   104   173    82   209 0.84 -
JF1A_TRINITY_DN61294_c0_g1_i6.p1JF1A_TRINITY_DN61294_c0_g1  -            231 90102at3193          -            355   3.4e-05   24.9   4.9   1   1   8.8e-08   4.5e-05   24.5   4.9    71   125    27    77    14    81 0.85 -
JF3J_TRINITY_DN63178_c5_g4_i2.p1JF3J_TRINITY_DN63178_c5_g4  -            107 90102at3193          -            355   3.8e-05   24.7   0.8   1   1     9e-08   4.6e-05   24.5   0.8    71   134    15    72     7    84 0.80 -
JF1A_TRINITY_DN64189_c1_g2_i5.p1JF1A_TRINITY_DN64189_c1_g2  -            238 90102at3193          -            355   4.6e-05   24.5   1.0   1   1   1.2e-07   6.4e-05   24.0   1.0    57   125    93   157    89   164 0.86 -
JF1A_TRINITY_DN64189_c1_g2_i2.p1JF1A_TRINITY_DN64189_c1_g2  -            109 90102at3193          -            355   4.8e-05   24.4   4.6   1   1   1.1e-07   5.6e-05   24.2   4.6    57   127    19    85    14   107 0.86 -
JF2A_TRINITY_DN42807_c1_g3_i1.p1JF2A_TRINITY_DN42807_c1_g3  -            251 90102at3193          -            355   4.9e-05   24.4   4.3   1   1   1.5e-07   7.8e-05   23.7   4.3    57   126   160   225   157   232 0.86 -
JF1A_TRINITY_DN65132_c1_g2_i1.p1JF1A_TRINITY_DN65132_c1_g2  -            252 90102at3193          -            355   5.7e-05   24.2   3.3   1   1   1.6e-07   8.1e-05   23.6   3.3    72   125    48    97    37   110 0.86 -
JF1A_TRINITY_DN64675_c0_g3_i7.p1JF1A_TRINITY_DN64675_c0_g3  -            253 90102at3193          -            355     6e-05   24.1   1.1   1   1   2.3e-07   0.00012   23.1   1.1    72   125   186   235   182   241 0.85 -
JF1J_TRINITY_DN64039_c3_g2_i1.p1JF1J_TRINITY_DN64039_c3_g2  -            139 90102at3193          -            355   6.3e-05   24.0   6.0   1   1   1.5e-07   7.8e-05   23.7   6.0    72   126    84   134    74   138 0.85 -
JF1A_TRINITY_DN73772_c0_g1_i1.p1JF1A_TRINITY_DN73772_c0_g1  -            106 90102at3193          -            355   6.8e-05   23.9   4.1   1   1   1.5e-07   7.9e-05   23.7   4.1    71   123    32    82    19    89 0.84 -
JF1J_TRINITY_DN69772_c2_g1_i20.p1JF1J_TRINITY_DN69772_c2_g1 -            200 90102at3193          -            355   7.1e-05   23.8   0.7   1   1   1.8e-07   9.3e-05   23.5   0.7    29   122    54   142    46   160 0.78 -
JF3A_TRINITY_DN50622_c1_g2_i4.p1JF3A_TRINITY_DN50622_c1_g2  -            129 90102at3193          -            355   7.4e-05   23.8   6.4   1   1   1.9e-07   9.5e-05   23.4   6.4    74   126    44    92    27    96 0.85 -
JF1A_TRINITY_DN43388_c0_g1_i1.p1JF1A_TRINITY_DN43388_c0_g1  -            115 90102at3193          -            355   7.9e-05   23.7   5.0   1   2   3.5e-05     0.018   15.9   1.2    91   131     6    46     2    50 0.87 -
JF1A_TRINITY_DN43388_c0_g1_i1.p1JF1A_TRINITY_DN43388_c0_g1  -            115 90102at3193          -            355   7.9e-05   23.7   5.0   2   2    0.0026       1.3    9.8   0.1   111   133    64    86    55   100 0.82 -
JF1A_TRINITY_DN64189_c1_g2_i3.p1JF1A_TRINITY_DN64189_c1_g2  -            136 90102at3193          -            355   8.7e-05   23.5   4.6   1   1   2.1e-07   0.00011   23.2   4.6    57   127    46   112    42   134 0.86 -
JF1J_TRINITY_DN68966_c0_g2_i3.p1JF1J_TRINITY_DN68966_c0_g2  -            248 90102at3193          -            355   8.8e-05   23.5   6.3   1   1   2.4e-07   0.00012   23.0   6.3    71   131   186   242   177   245 0.85 -
JF1A_TRINITY_DN67505_c3_g7_i2.p1JF1A_TRINITY_DN67505_c3_g7  -            101 90102at3193          -            355    0.0001   23.3   0.7   1   1   2.1e-07   0.00011   23.2   0.7    74   126    51   100    28   101 0.87 -
JF2A_TRINITY_DN42250_c3_g3_i1.p1JF2A_TRINITY_DN42250_c3_g3  -            164 90102at3193          -            355   0.00012   23.1   1.6   1   1   2.9e-07   0.00015   22.8   1.6    71   130    56   109    28   136 0.77 -
JF1A_TRINITY_DN64189_c0_g1_i1.p1JF1A_TRINITY_DN64189_c0_g1  -            103 90102at3193          -            355   0.00012   23.0   0.5   1   1   2.9e-07   0.00015   22.8   0.5    60   107    53   102    47   103 0.84 -
JF2A_TRINITY_DN26284_c0_g1_i1.p1JF2A_TRINITY_DN26284_c0_g1  -            274 90102at3193          -            355   0.00013   23.0   0.2   1   1   3.6e-07   0.00019   22.5   0.2    74   124    22    67    15   128 0.80 -
JF3J_TRINITY_DN68982_c3_g3_i2.p1JF3J_TRINITY_DN68982_c3_g3  -            308 90102at3193          -            355   0.00013   23.0   7.1   1   2       1.4   7.3e+02    0.8   0.3    97   123    45    72    41   118 0.77 -
JF3J_TRINITY_DN68982_c3_g3_i2.p1JF3J_TRINITY_DN68982_c3_g3  -            308 90102at3193          -            355   0.00013   23.0   7.1   2   2   2.6e-07   0.00013   23.0   7.1    72   122   261   307   250   308 0.86 -
JF2A_TRINITY_DN39476_c0_g1_i10.p1JF2A_TRINITY_DN39476_c0_g1 -            234 90102at3193          -            355   0.00015   22.8   3.7   1   1   4.7e-07   0.00024   22.1   3.7    73   126   171   221   155   229 0.86 -
JF1A_TRINITY_DN64672_c0_g1_i10.p1JF1A_TRINITY_DN64672_c0_g1 -            199 90102at3193          -            355   0.00016   22.7   0.9   1   1     4e-07   0.00021   22.3   0.9    74   123    48    92    18   106 0.82 -
JF3J_TRINITY_DN35597_c0_g1_i1.p1JF3J_TRINITY_DN35597_c0_g1  -            203 90102at3193          -            355   0.00016   22.7   4.5   1   1   4.2e-07   0.00022   22.2   4.5    70   125   142   193   129   198 0.83 -
JF3A_TRINITY_DN50622_c1_g2_i1.p2JF3A_TRINITY_DN50622_c1_g2  -            120 90102at3193          -            355   0.00019   22.5   8.0   1   1   4.2e-07   0.00022   22.2   8.0    73   126    34    83    13    87 0.84 -
JF1A_TRINITY_DN65297_c0_g4_i1.p1JF1A_TRINITY_DN65297_c0_g4  -            330 90102at3193          -            355   0.00021   22.3   3.2   1   1   7.6e-07   0.00039   21.4   3.2    71   123    52    98    38   151 0.81 -
JF1A_TRINITY_DN63871_c1_g2_i11.p1JF1A_TRINITY_DN63871_c1_g2 -            119 90102at3193          -            355   0.00021   22.3   0.2   1   1   4.2e-07   0.00021   22.3   0.2    73   113    55    94    36   118 0.79 -
JF1A_TRINITY_DN65346_c1_g5_i2.p1JF1A_TRINITY_DN65346_c1_g5  -            188 90102at3193          -            355   0.00034   21.6   4.9   1   1   7.6e-07   0.00039   21.4   4.9    74   124    97   151    45   163 0.79 -
JF1A_TRINITY_DN62448_c3_g2_i2.p1JF1A_TRINITY_DN62448_c3_g2  -            258 90102at3193          -            355   0.00036   21.5   1.5   1   1   9.3e-07   0.00048   21.1   1.5    70   126   101   154    69   159 0.85 -
JF3J_TRINITY_DN59790_c0_g1_i4.p1JF3J_TRINITY_DN59790_c0_g1  -            185 90102at3193          -            355   0.00046   21.2   2.6   1   1   1.1e-06   0.00057   20.9   2.6    66   124   128   180   104   184 0.86 -
JF1A_TRINITY_DN64672_c0_g1_i5.p1JF1A_TRINITY_DN64672_c0_g1  -            111 90102at3193          -            355   0.00056   20.9   0.3   1   1   1.1e-06   0.00056   20.9   0.3    78   124    14    55     3    92 0.76 -
JF1A_TRINITY_DN59371_c1_g1_i1.p1JF1A_TRINITY_DN59371_c1_g1  -            277 90102at3193          -            355   0.00067   20.6   7.4   1   1   1.8e-06   0.00094   20.1   7.4    74   125   208   255   197   260 0.85 -
JF1A_TRINITY_DN62690_c2_g3_i1.p1JF1A_TRINITY_DN62690_c2_g3  -            364 90102at3193          -            355   0.00071   20.5   2.5   1   1   2.4e-06    0.0012   19.8   2.5    75   126   303   351   298   359 0.86 -
JF1A_TRINITY_DN43388_c0_g1_i2.p1JF1A_TRINITY_DN43388_c0_g1  -            265 90102at3193          -            355   0.00082   20.3   5.1   1   2   0.00022      0.11   13.3   1.7    91   131     6    46     2    48 0.86 -
JF1A_TRINITY_DN43388_c0_g1_i2.p1JF1A_TRINITY_DN43388_c0_g1  -            265 90102at3193          -            355   0.00082   20.3   5.1   2   2    0.0073       3.7    8.3   0.1   111   135    64    88    56   130 0.85 -
JF1A_TRINITY_DN62007_c5_g3_i2.p1JF1A_TRINITY_DN62007_c5_g3  -            116 90102at3193          -            355   0.00092   20.2   2.0   1   1   1.8e-06   0.00094   20.2   2.0    77   124     1    53     1    94 0.87 -
JF1A_TRINITY_DN59781_c0_g1_i2.p1JF1A_TRINITY_DN59781_c0_g1  -            145 90102at3193          -            355     0.001   20.0   2.1   1   1   2.5e-06    0.0013   19.7   2.1    73   132    18    75     6    89 0.79 -
JF1A_TRINITY_DN65462_c0_g2_i10.p1JF1A_TRINITY_DN65462_c0_g2 -            393 90102at3193          -            355    0.0012   19.9   8.8   1   1   3.7e-06    0.0019   19.1   8.8    71   127   326   378   317   384 0.88 -
JF1A_TRINITY_DN63173_c4_g1_i3.p1JF1A_TRINITY_DN63173_c4_g1  -            167 90102at3193          -            355    0.0014   19.6   6.0   1   1   3.6e-06    0.0018   19.2   6.0    73   126   111   157   101   164 0.81 -
JF1A_TRINITY_DN62629_c1_g4_i1.p1JF1A_TRINITY_DN62629_c1_g4  -            166 90102at3193          -            355    0.0017   19.3  11.1   1   1   4.2e-06    0.0021   19.0  11.1    75   127   109   154    94   162 0.87 -
JF1J_TRINITY_DN68342_c1_g1_i1.p1JF1J_TRINITY_DN68342_c1_g1  -            101 90102at3193          -            355    0.0018   19.2   2.4   1   1   3.5e-06    0.0018   19.2   2.4    74   123    34    79     2    97 0.84 -
JF1J_TRINITY_DN70263_c1_g1_i2.p1JF1J_TRINITY_DN70263_c1_g1  -            124 90102at3193          -            355    0.0019   19.2   1.2   1   1   3.7e-06    0.0019   19.2   1.2    76   120     3    41     1    94 0.76 -
JF1A_TRINITY_DN68672_c4_g7_i1.p1JF1A_TRINITY_DN68672_c4_g7  -            235 90102at3193          -            355     0.002   19.1   3.5   1   1   6.5e-06    0.0033   18.3   3.5    66   122   122   174   117   182 0.78 -
JF1A_TRINITY_DN64561_c1_g3_i4.p1JF1A_TRINITY_DN64561_c1_g3  -            450 90102at3193          -            355    0.0027   18.6   4.8   1   1     1e-05    0.0052   17.7   4.8    74   140   179   242   169   261 0.74 -
JF3J_TRINITY_DN57779_c0_g1_i1.p1JF3J_TRINITY_DN57779_c0_g1  -            102 90102at3193          -            355    0.0028   18.6   3.2   1   1   5.4e-06    0.0028   18.6   3.2    74   123    34    79     1    94 0.79 -
JF3A_TRINITY_DN56616_c1_g1_i2.p1JF3A_TRINITY_DN56616_c1_g1  -            116 90102at3193          -            355    0.0029   18.5   1.3   1   1   6.3e-06    0.0032   18.4   1.3    75   130    27    89    15   113 0.75 -
JF1A_TRINITY_DN66465_c2_g1_i4.p1JF1A_TRINITY_DN66465_c2_g1  -            223 90102at3193          -            355    0.0042   18.0   5.0   1   1   1.2e-05    0.0062   17.5   5.0    67   123   139   191   125   201 0.80 -
JF1A_TRINITY_DN60577_c4_g5_i1.p1JF1A_TRINITY_DN60577_c4_g5  -            402 90102at3193          -            355    0.0043   18.0   5.8   1   2       3.8     2e+03   -0.6   0.1   179   235    37    88    31   116 0.56 -
JF1A_TRINITY_DN60577_c4_g5_i1.p1JF1A_TRINITY_DN60577_c4_g5  -            402 90102at3193          -            355    0.0043   18.0   5.8   2   2   8.4e-06    0.0043   18.0   5.8    36   108   248   319   236   339 0.83 -
JF3A_TRINITY_DN55910_c0_g1_i18.p1JF3A_TRINITY_DN55910_c0_g1 -            176 90102at3193          -            355    0.0044   18.0   7.2   1   1     1e-05    0.0054   17.7   7.2    77   128     6    57     2   106 0.68 -
JF3J_TRINITY_DN69427_c3_g1_i2.p1JF3J_TRINITY_DN69427_c3_g1  -            191 90102at3193          -            355    0.0061   17.5   1.8   1   1   1.9e-05    0.0096   16.8   1.8    73   125    56   105    49   109 0.82 -
JF1A_TRINITY_DN62939_c2_g6_i1.p1JF1A_TRINITY_DN62939_c2_g6  -            681 90102at3193          -            355    0.0065   17.4   3.3   1   1   2.3e-05     0.012   16.5   3.3    67   126   574   627   569   654 0.85 -
JF1J_TRINITY_DN61152_c0_g1_i3.p1JF1J_TRINITY_DN61152_c0_g1  -            132 90102at3193          -            355    0.0066   17.4   2.0   1   2    0.0034       1.7    9.4   0.6    64    95    36    67    23    89 0.84 -
JF1J_TRINITY_DN61152_c0_g1_i3.p1JF1J_TRINITY_DN61152_c0_g1  -            132 90102at3193          -            355    0.0066   17.4   2.0   2   2     0.012       5.9    7.7   0.0    64    89   104   129    96   131 0.88 -
JF3J_TRINITY_DN64459_c1_g2_i1.p1JF3J_TRINITY_DN64459_c1_g2  -            232 90102at3193          -            355    0.0066   17.4   5.0   1   1   1.9e-05    0.0099   16.8   5.0    66   120   145   201   136   217 0.83 -
JF1J_TRINITY_DN69625_c1_g2_i10.p1JF1J_TRINITY_DN69625_c1_g2 -            219 90102at3193          -            355    0.0068   17.3   7.1   1   1   1.6e-05    0.0084   17.0   7.1    77   128     6    57     2   106 0.69 -
JF1J_TRINITY_DN72155_c1_g1_i1.p1JF1J_TRINITY_DN72155_c1_g1  -            195 90102at3193          -            355    0.0097   16.8   1.5   1   1   2.6e-05     0.014   16.3   1.5    72   125   104   154    94   175 0.82 -
JF2A_TRINITY_DN40964_c0_g1_i4.p1JF2A_TRINITY_DN40964_c0_g1  -            321 90102at3193          -            355     0.015   16.2   4.8   1   1   5.6e-05     0.028   15.3   4.8    73   142    32    94    25   112 0.81 -
JF1A_TRINITY_DN68346_c0_g2_i1.p1JF1A_TRINITY_DN68346_c0_g2  -            289 90102at3193          -            355     0.016   16.1   2.4   1   1   5.5e-05     0.028   15.3   2.4    71   125   227   277   216   282 0.82 -
JF1A_TRINITY_DN63871_c1_g2_i3.p1JF1A_TRINITY_DN63871_c1_g2  -            622 90102at3193          -            355     0.016   16.1   4.1   1   1     7e-05     0.036   14.9   4.1    74   111   331   367   322   428 0.61 -
JF2A_TRINITY_DN30418_c0_g1_i1.p1JF2A_TRINITY_DN30418_c0_g1  -            244 90102at3193          -            355     0.017   16.0   5.5   1   1   4.8e-05     0.024   15.5   5.5    53   107    94   150    66   168 0.72 -
JF1A_TRINITY_DN63341_c0_g1_i2.p1JF1A_TRINITY_DN63341_c0_g1  -            203 90102at3193          -            355     0.023   15.6   2.5   1   1   6.5e-05     0.033   15.1   2.5    71   125   142   189   135   194 0.83 -
JF1A_TRINITY_DN60825_c0_g1_i3.p1JF1A_TRINITY_DN60825_c0_g1  -            205 90102at3193          -            355     0.023   15.6   2.7   1   1     8e-05     0.041   14.8   2.7    69   102   167   199   157   204 0.82 -
JF2A_TRINITY_DN38322_c0_g1_i5.p1JF2A_TRINITY_DN38322_c0_g1  -            205 90102at3193          -            355     0.024   15.5   4.4   1   1   6.6e-05     0.034   15.0   4.4    73   127   139   190   133   198 0.80 -
JF2A_TRINITY_DN41149_c0_g1_i8.p1JF2A_TRINITY_DN41149_c0_g1  -            138 90102at3193          -            355     0.026   15.4   8.7   1   1   6.3e-05     0.032   15.1   8.6    74   124    27    70     8   104 0.79 -
JF1A_TRINITY_DN61836_c0_g5_i1.p1JF1A_TRINITY_DN61836_c0_g5  -            113 90102at3193          -            355     0.027   15.3   0.6   1   1   6.2e-05     0.032   15.1   0.6    74   127    29    78    10    90 0.84 -
JF1A_TRINITY_DN61546_c0_g5_i2.p1JF1A_TRINITY_DN61546_c0_g5  -            215 90102at3193          -            355     0.028   15.3  13.5   1   1   0.00019     0.097   13.5  13.5    75   134    88   151    79   213 0.85 -
JF1A_TRINITY_DN65404_c1_g3_i2.p1JF1A_TRINITY_DN65404_c1_g3  -            217 90102at3193          -            355     0.031   15.1   2.1   1   1    0.0001     0.052   14.4   2.1    73   124   138   186   122   191 0.86 -
JF1A_TRINITY_DN40793_c0_g1_i1.p1JF1A_TRINITY_DN40793_c0_g1  -            104 90102at3193          -            355     0.037   14.9   5.4   1   1    0.0001     0.051   14.4   5.4    75   123    51    98    41   101 0.80 -
JF1A_TRINITY_DN62396_c0_g3_i1.p1JF1A_TRINITY_DN62396_c0_g3  -            140 90102at3193          -            355     0.041   14.7   2.1   1   1   9.7e-05     0.049   14.5   2.1    72   124    78   128    56   136 0.84 -
JF1J_TRINITY_DN74786_c0_g1_i1.p1JF1J_TRINITY_DN74786_c0_g1  -            112 90102at3193          -            355      0.05   14.5   2.2   1   1   0.00011     0.058   14.3   2.2    72   130    10    65     4    85 0.82 -
JF1A_TRINITY_DN68000_c0_g1_i15.p1JF1A_TRINITY_DN68000_c0_g1 -            450 90102at3193          -            355     0.052   14.4   3.6   1   1   0.00015     0.075   13.9   3.6    73   127   250   301   237   337 0.82 -
JF1A_TRINITY_DN67243_c0_g3_i1.p1JF1A_TRINITY_DN67243_c0_g3  -            876 90102at3193          -            355     0.058   14.3   2.6   1   1   0.00022      0.11   13.3   2.6    76   141   556   621   544   655 0.67 -
JF1A_TRINITY_DN64900_c0_g3_i18.p1JF1A_TRINITY_DN64900_c0_g3 -            539 90102at3193          -            355     0.063   14.1   0.1   1   1   0.00018     0.094   13.6   0.1    75   125   336   383   320   410 0.82 -
JF1A_TRINITY_DN63713_c1_g1_i1.p1JF1A_TRINITY_DN63713_c1_g1  -            406 90102at3193          -            355     0.066   14.1   2.9   1   1   0.00018     0.094   13.6   2.9    73   121   243   287   202   294 0.81 -
JF1A_TRINITY_DN62007_c5_g3_i1.p1JF1A_TRINITY_DN62007_c5_g3  -            188 90102at3193          -            355     0.072   13.9   6.7   1   1    0.0002       0.1   13.4   6.7    77   124     1    53     1    62 0.83 -
JF1A_TRINITY_DN60918_c0_g7_i2.p1JF1A_TRINITY_DN60918_c0_g7  -            163 90102at3193          -            355      0.09   13.6   2.7   1   1   0.00027      0.14   13.0   2.7    76   130     9    76     3   100 0.68 -
JF2A_TRINITY_DN9852_c0_g1_i1.p1JF2A_TRINITY_DN9852_c0_g1    -            215 90102at3193          -            355       0.1   13.5   6.2   1   1   0.00027      0.14   13.0   6.2    77   127    20    68    11    89 0.81 -
JF1A_TRINITY_DN67521_c1_g1_i1.p1JF1A_TRINITY_DN67521_c1_g1  -            374 90102at3193          -            355       0.1   13.4   2.0   1   1   0.00034      0.18   12.7   2.0    75   105    67    97    59   151 0.85 -
JF2A_TRINITY_DN44142_c0_g1_i1.p1JF2A_TRINITY_DN44142_c0_g1  -            149 90102at3193          -            355      0.11   13.4   4.0   1   1   0.00027      0.14   13.0   4.0    76   125   103   149   100   149 0.81 -
JF1A_TRINITY_DN68352_c1_g1_i18.p1JF1A_TRINITY_DN68352_c1_g1 -            148 90102at3193          -            355      0.11   13.3   3.4   1   1   0.00028      0.14   13.0   3.4    74   125    54   104    45   111 0.81 -
JF1A_TRINITY_DN60954_c2_g9_i1.p1JF1A_TRINITY_DN60954_c2_g9  -            378 90102at3193          -            355      0.14   13.0   5.9   1   1   0.00041      0.21   12.4   5.9    70   127   223   277   203   282 0.83 -
JF1A_TRINITY_DN62025_c2_g7_i1.p1JF1A_TRINITY_DN62025_c2_g7  -            117 90102at3193          -            355      0.15   12.9   9.4   1   1   0.00037      0.19   12.6   9.4    71   126    24    73    16    81 0.87 -
JF1A_TRINITY_DN64898_c3_g1_i3.p1JF1A_TRINITY_DN64898_c3_g1  -            187 90102at3193          -            355      0.18   12.6   3.6   1   1   0.00047      0.24   12.2   3.6    74   124   103   150    83   159 0.79 -
JF1A_TRINITY_DN62617_c2_g6_i1.p1JF1A_TRINITY_DN62617_c2_g6  -            251 90102at3193          -            355      0.18   12.6   7.5   1   1   0.00054      0.28   12.0   7.5    72   129   194   245   182   249 0.83 -
JF1J_TRINITY_DN67327_c1_g1_i1.p1JF1J_TRINITY_DN67327_c1_g1  -            186 90102at3193          -            355       0.2   12.5   4.1   1   1   0.00055      0.28   12.0   4.1    72   125   110   160    88   168 0.81 -
JF1A_TRINITY_DN63132_c2_g2_i2.p1JF1A_TRINITY_DN63132_c2_g2  -            146 90102at3193          -            355      0.21   12.4   5.1   1   1    0.0005      0.25   12.1   5.1    72   124    87   137    65   143 0.81 -
JF1A_TRINITY_DN63318_c1_g1_i2.p1JF1A_TRINITY_DN63318_c1_g1  -            103 90102at3193          -            355      0.22   12.3   7.5   1   1    0.0005      0.26   12.1   7.5    73   125    53   102    40   102 0.80 -
JF1A_TRINITY_DN67815_c4_g4_i1.p1JF1A_TRINITY_DN67815_c4_g4  -            239 90102at3193          -            355      0.24   12.2   8.8   1   1    0.0016      0.81   10.5   8.8    72   125   180   230   138   235 0.81 -
JF1A_TRINITY_DN63564_c1_g1_i7.p1JF1A_TRINITY_DN63564_c1_g1  -            269 90102at3193          -            355      0.31   11.9   5.2   1   1   0.00084      0.43   11.4   5.2    75   129   215   263   197   267 0.86 -
JF1A_TRINITY_DN63564_c1_g1_i15.p1JF1A_TRINITY_DN63564_c1_g1 -            277 90102at3193          -            355      0.32   11.8   5.2   1   1   0.00088      0.45   11.3   5.2    75   129   223   271   205   275 0.86 -
JF1A_TRINITY_DN65297_c0_g3_i6.p1JF1A_TRINITY_DN65297_c0_g3  -            228 90102at3193          -            355      0.32   11.8  12.3   1   2   0.00013     0.068   14.0   7.7    74   122    58    99    38   116 0.79 -
JF1A_TRINITY_DN65297_c0_g3_i6.p1JF1A_TRINITY_DN65297_c0_g3  -            228 90102at3193          -            355      0.32   11.8  12.3   2   2       2.7   1.4e+03   -0.1   0.1   268   352   117   200   101   203 0.63 -
JF3J_TRINITY_DN12843_c0_g1_i1.p1JF3J_TRINITY_DN12843_c0_g1  -            236 90102at3193          -            355      0.36   11.7   8.4   1   2   0.00068      0.35   11.7   6.7    75   121    31    74    26   105 0.70 -
JF3J_TRINITY_DN12843_c0_g1_i1.p1JF3J_TRINITY_DN12843_c0_g1  -            236 90102at3193          -            355      0.36   11.7   8.4   2   2       5.6   2.9e+03   -1.2   0.0   180   243   109   170    84   174 0.59 -
JF2A_TRINITY_DN41517_c0_g3_i2.p1JF2A_TRINITY_DN41517_c0_g3  -            293 90102at3193          -            355      0.36   11.7   3.1   1   1    0.0011      0.58   11.0   3.1    71   124   117   167   110   174 0.80 -
JF1A_TRINITY_DN65387_c0_g5_i2.p1JF1A_TRINITY_DN65387_c0_g5  -            225 90102at3193          -            355      0.43   11.4   2.7   1   1    0.0012       0.6   10.9   2.7    72   124    65   116    55   122 0.80 -
JF1A_TRINITY_DN66603_c2_g3_i9.p1JF1A_TRINITY_DN66603_c2_g3  -            400 90102at3193          -            355      0.52   11.1   0.0   1   1    0.0015      0.77   10.6   0.0    71   125    15    63     9    93 0.74 -
JF1J_TRINITY_DN36180_c0_g1_i2.p1JF1J_TRINITY_DN36180_c0_g1  -            103 90102at3193          -            355      0.52   11.1   7.2   1   1    0.0013      0.67   10.8   7.2    93   126     1    33     1    37 0.84 -
JF1A_TRINITY_DN63333_c2_g2_i10.p1JF1A_TRINITY_DN63333_c2_g2 -            273 90102at3193          -            355      0.57   11.0   4.7   1   1    0.0017      0.88   10.4   4.7    72   125    89   139    70   147 0.81 -
JF1A_TRINITY_DN66603_c2_g3_i2.p1JF1A_TRINITY_DN66603_c2_g3  -            402 90102at3193          -            355      0.57   11.0   0.0   1   1    0.0016      0.83   10.4   0.0    72   125   262   309   218   339 0.78 -
JF3J_TRINITY_DN64051_c2_g5_i2.p1JF3J_TRINITY_DN64051_c2_g5  -            100 90102at3193          -            355      0.58   11.0   2.3   1   1    0.0013      0.66   10.8   2.3    73   102    36    68    22    76 0.88 -
JF1A_TRINITY_DN62030_c1_g4_i4.p1JF1A_TRINITY_DN62030_c1_g4  -            367 90102at3193          -            355      0.65   10.8   4.1   1   1     0.002         1   10.2   4.1    60   125   161   224   156   228 0.75 -
JF1A_TRINITY_DN64418_c0_g4_i8.p1JF1A_TRINITY_DN64418_c0_g4  -            684 90102at3193          -            355      0.98   10.2   4.6   1   1    0.0032       1.6    9.5   4.6    75   127   187   242   179   272 0.88 -
JF3A_TRINITY_DN57349_c2_g1_i7.p1JF3A_TRINITY_DN57349_c2_g1  -            192 90102at3193          -            355       1.4    9.7   7.3   1   1    0.0042       2.1    9.1   7.0    75   105    19    49    13   103 0.84 -
JF1A_TRINITY_DN62769_c2_g3_i9.p1JF1A_TRINITY_DN62769_c2_g3  -            270 90102at3193          -            355       1.7    9.5   2.7   1   1    0.0015      0.79   10.5   0.9    73   102    44    76    35   148 0.82 -
JF1A_TRINITY_DN63686_c2_g3_i6.p1JF1A_TRINITY_DN63686_c2_g3  -            182 90102at3193          -            355       1.7    9.4  17.1   1   1     0.028        14    6.4  17.1    75   125    36    91    15   175 0.79 -
JF1A_TRINITY_DN65293_c1_g6_i1.p1JF1A_TRINITY_DN65293_c1_g6  -            404 90102at3193          -            355       2.2    9.0   4.2   1   1    0.0069       3.5    8.4   4.2    73   125    26    75    19    91 0.83 -
JF2A_TRINITY_DN37923_c1_g1_i1.p1JF2A_TRINITY_DN37923_c1_g1  -            210 90102at3193          -            355       2.6    8.8   9.6   1   1    0.0097       4.9    7.9   9.5    71   132    33    90    29   178 0.76 -
JF3J_TRINITY_DN72807_c2_g1_i16.p1JF3J_TRINITY_DN72807_c2_g1 -            352 90102at3193          -            355       3.1    8.6  10.5   1   1    0.0015      0.76   10.6   7.5    73   127    79   130    66   165 0.81 -
JF1J_TRINITY_DN67823_c1_g1_i4.p1JF1J_TRINITY_DN67823_c1_g1  -            352 90102at3193          -            355       5.1    7.9   6.4   1   1     0.015       7.6    7.3   6.4    69   123   281   331   269   335 0.82 -
JF1A_TRINITY_DN67609_c2_g6_i2.p1JF1A_TRINITY_DN67609_c2_g6  -            188 90102at3193          -            355       5.3    7.8   5.1   1   1     0.017       8.5    7.1   5.1    92   127    12    41     9    51 0.85 -
JF1J_TRINITY_DN64049_c6_g3_i4.p1JF1J_TRINITY_DN64049_c6_g3  -            168 90102at3193          -            355       6.2    7.6  18.7   1   3   0.00072      0.37   11.6   8.2    75   120     6    53     1    60 0.78 -
JF1J_TRINITY_DN64049_c6_g3_i4.p1JF1J_TRINITY_DN64049_c6_g3  -            168 90102at3193          -            355       6.2    7.6  18.7   2   3       2.8   1.4e+03   -0.2   0.1     9    40    69   100    64   109 0.75 -
JF1J_TRINITY_DN64049_c6_g3_i4.p1JF1J_TRINITY_DN64049_c6_g3  -            168 90102at3193          -            355       6.2    7.6  18.7   3   3      0.83   4.3e+02    1.5   1.6   197   224   107   134    91   154 0.68 -
JF1J_TRINITY_DN63790_c0_g1_i10.p1JF1J_TRINITY_DN63790_c0_g1 -            118 90102at3193          -            355       6.3    7.6  10.5   1   1     0.025        13    6.6  10.5    72   122    48    89     2   117 0.55 -
#
# Program:         hmmsearch
# Version:         3.2.1 (June 2018)
# Pipeline mode:   SEARCH
# Query file:      /isg/shared/databases/BUSCO/odb10/embryophyta_odb10/hmms/90102at3193.hmm
# Target file:     Juniper_final_annotations_no_contam_lvl0.faa
# Option settings: /usr/local/bin/hmmsearch --domtblout /labs/Wegrzyn/Juniper_Pine/BUSCO/NEW/busco_juniper/run_embryophyta_odb10/hmmer_output/90102at3193.out --cpu 1 /isg/shared/databases/BUSCO/odb10/embryophyta_odb10/hmms/90102at3193.hmm Juniper_final_annotations_no_contam_lvl0.faa 
# Current dir:     /labs/Wegrzyn/Juniper_Pine/BUSCO/NEW
# Date:            Thu Aug  6 16:41:00 2020
# [ok]
