#                                                                                                                   --- full sequence --- -------------- this domain -------------   hmm coord   ali coord   env coord
# target name                                               accession   tlen query name           accession   qlen   E-value  score  bias   #  of  c-Evalue  i-Evalue  score  bias  from    to  from    to  from    to  acc description of target
#                                       ------------------- ---------- ----- -------------------- ---------- ----- --------- ------ ----- --- --- --------- --------- ------ ----- ----- ----- ----- ----- ----- ----- ---- ---------------------
JF3J_TRINITY_DN15795_c0_g1_i1.p1JF3J_TRINITY_DN15795_c0_g1  -            146 90343at3193          -            391     2e-55  190.1   0.2   1   1   3.9e-59   2.3e-55  190.0   0.2     1   122    21   145    21   146 0.98 -
JF1A_TRINITY_DN10559_c0_g1_i1.p1JF1A_TRINITY_DN10559_c0_g1  -            161 90343at3193          -            391   3.1e-51  176.4   0.0   1   2   5.1e-53   2.9e-49  169.8   0.0   139   276     1   140     1   142 0.97 -
JF1A_TRINITY_DN10559_c0_g1_i1.p1JF1A_TRINITY_DN10559_c0_g1  -            161 90343at3193          -            391   3.1e-51  176.4   0.0   2   2    0.0055        32    5.1   0.2   261   277   142   158   138   160 0.86 -
JF1A_TRINITY_DN65320_c1_g1_i8.p1JF1A_TRINITY_DN65320_c1_g1  -            297 90343at3193          -            391   8.3e-10   40.0   0.0   1   2      0.44   2.5e+03   -1.1   0.0   188   220    95   129    82   142 0.66 -
JF1A_TRINITY_DN65320_c1_g1_i8.p1JF1A_TRINITY_DN65320_c1_g1  -            297 90343at3193          -            391   8.3e-10   40.0   0.0   2   2   4.9e-13   2.8e-09   38.2   0.0   328   387   226   286   200   289 0.88 -
JF1A_TRINITY_DN65320_c1_g1_i2.p1JF1A_TRINITY_DN65320_c1_g1  -            301 90343at3193          -            391   4.2e-09   37.7   0.0   1   2     0.051     3e+02    1.9   0.0   188   232    95   141    78   156 0.77 -
JF1A_TRINITY_DN65320_c1_g1_i2.p1JF1A_TRINITY_DN65320_c1_g1  -            301 90343at3193          -            391   4.2e-09   37.7   0.0   2   2   1.2e-11   6.8e-08   33.7   0.0   329   388   227   287   206   290 0.88 -
JF3J_TRINITY_DN69455_c2_g3_i3.p1JF3J_TRINITY_DN69455_c2_g3  -            127 90343at3193          -            391    0.0013   19.5   1.7   1   2    0.0011       6.6    7.4   0.1     1    20    14    33    14    38 0.87 -
JF3J_TRINITY_DN69455_c2_g3_i3.p1JF3J_TRINITY_DN69455_c2_g3  -            127 90343at3193          -            391    0.0013   19.5   1.7   2   2   4.9e-05      0.29   11.9   0.2     1    48    72   124    72   126 0.67 -
JF1A_TRINITY_DN67820_c2_g1_i15.p1JF1A_TRINITY_DN67820_c2_g1 -            339 90343at3193          -            391    0.0015   19.4   0.1   1   1   3.8e-07    0.0022   18.8   0.1     1    54    88   142    88   147 0.89 -
JF2J_TRINITY_DN25056_c1_g2_i3.p1JF2J_TRINITY_DN25056_c1_g2  -            147 90343at3193          -            391     0.018   15.8   0.0   1   1     4e-06     0.023   15.4   0.0     1    33    94   126    94   133 0.94 -
JF3A_TRINITY_DN50581_c0_g1_i10.p1JF3A_TRINITY_DN50581_c0_g1 -            111 90343at3193          -            391      0.14   12.9   0.1   1   1   3.2e-05      0.18   12.5   0.1     1    48    55   107    55   110 0.68 -
JF1A_TRINITY_DN62261_c1_g1_i5.p1JF1A_TRINITY_DN62261_c1_g1  -            324 90343at3193          -            391      0.69   10.6   0.0   1   1   0.00016      0.92   10.2   0.0     1    48    67   119    67   130 0.70 -
JF2J_TRINITY_DN25056_c1_g2_i8.p1JF2J_TRINITY_DN25056_c1_g2  -            168 90343at3193          -            391      0.75   10.5   0.0   1   1   0.00017      0.99   10.1   0.0     1    28    94   121    94   125 0.95 -
JF1J_TRINITY_DN71175_c1_g1_i1.p1JF1J_TRINITY_DN71175_c1_g1  -            131 90343at3193          -            391      0.76   10.5   0.1   1   2      0.02   1.1e+02    3.3   0.0   323   348     5    30     1    34 0.82 -
JF1J_TRINITY_DN71175_c1_g1_i1.p1JF1J_TRINITY_DN71175_c1_g1  -            131 90343at3193          -            391      0.76   10.5   0.1   2   2    0.0047        27    5.4   0.0   321   345    63    87    54    92 0.81 -
JF1A_TRINITY_DN58261_c0_g1_i1.p1JF1A_TRINITY_DN58261_c0_g1  -            186 90343at3193          -            391       1.1   10.0   0.3   1   1   0.00028       1.6    9.4   0.3     1    33    78   115    78   125 0.76 -
#
# Program:         hmmsearch
# Version:         3.2.1 (June 2018)
# Pipeline mode:   SEARCH
# Query file:      /isg/shared/databases/BUSCO/odb10/embryophyta_odb10/hmms/90343at3193.hmm
# Target file:     Juniper_final_annotations_no_contam_lvl0.faa
# Option settings: /usr/local/bin/hmmsearch --domtblout /labs/Wegrzyn/Juniper_Pine/BUSCO/NEW/busco_juniper/run_embryophyta_odb10/hmmer_output/90343at3193.out --cpu 1 /isg/shared/databases/BUSCO/odb10/embryophyta_odb10/hmms/90343at3193.hmm Juniper_final_annotations_no_contam_lvl0.faa 
# Current dir:     /labs/Wegrzyn/Juniper_Pine/BUSCO/NEW
# Date:            Thu Aug  6 16:41:01 2020
# [ok]
