#                                                                                                                  --- full sequence --- -------------- this domain -------------   hmm coord   ali coord   env coord
# target name                                              accession   tlen query name           accession   qlen   E-value  score  bias   #  of  c-Evalue  i-Evalue  score  bias  from    to  from    to  from    to  acc description of target
#                                      ------------------- ---------- ----- -------------------- ---------- ----- --------- ------ ----- --- --- --------- --------- ------ ----- ----- ----- ----- ----- ----- ----- ---- ---------------------
JF2A_TRINITY_DN42774_c1_g5_i2.p1JF2A_TRINITY_DN42774_c1_g5 -            414 91048at3193          -            764  1.2e-193  647.2   5.2   1   1  5.3e-197  1.4e-193  647.1   5.2     1   373    15   412    15   414 0.95 -
JF1A_TRINITY_DN63941_c1_g6_i2.p1JF1A_TRINITY_DN63941_c1_g6 -            358 91048at3193          -            764   1.4e-94  319.7  15.0   1   3   2.2e-19   5.9e-16   59.7   0.0   500   556     1    59     1    71 0.85 -
JF1A_TRINITY_DN63941_c1_g6_i2.p1JF1A_TRINITY_DN63941_c1_g6 -            358 91048at3193          -            764   1.4e-94  319.7  15.0   2   3   1.2e-31   3.2e-28  100.3   0.0   558   638   100   182    77   203 0.89 -
JF1A_TRINITY_DN63941_c1_g6_i2.p1JF1A_TRINITY_DN63941_c1_g6 -            358 91048at3193          -            764   1.4e-94  319.7  15.0   3   3   1.6e-49   4.4e-46  159.3  12.2   637   764   208   346   191   346 0.92 -
JF1A_TRINITY_DN66648_c3_g2_i1.p1JF1A_TRINITY_DN66648_c3_g2 -            140 91048at3193          -            764   1.5e-69  236.9   2.3   1   1     7e-73   1.9e-69  236.6   2.3    99   217     6   124     2   130 0.98 -
JF1A_TRINITY_DN63941_c1_g6_i1.p1JF1A_TRINITY_DN63941_c1_g6 -            303 91048at3193          -            764   1.1e-68  234.0   8.8   1   3   1.7e-19   4.5e-16   60.1   0.0   500   556     1    59     1    72 0.85 -
JF1A_TRINITY_DN63941_c1_g6_i1.p1JF1A_TRINITY_DN63941_c1_g6 -            303 91048at3193          -            764   1.1e-68  234.0   8.8   2   3   8.8e-32   2.4e-28  100.7   0.0   558   638   100   182    77   201 0.89 -
JF1A_TRINITY_DN63941_c1_g6_i1.p1JF1A_TRINITY_DN63941_c1_g6 -            303 91048at3193          -            764   1.1e-68  234.0   8.8   3   3   2.5e-23   6.8e-20   72.8   6.2   637   727   208   301   189   302 0.90 -
JF3J_TRINITY_DN68354_c4_g3_i1.p1JF3J_TRINITY_DN68354_c4_g3 -            240 91048at3193          -            764   4.9e-46  159.2  10.2   1   2   2.6e-26   6.9e-23   82.6   0.1   555   638    33   117    17   136 0.83 -
JF3J_TRINITY_DN68354_c4_g3_i1.p1JF3J_TRINITY_DN68354_c4_g3 -            240 91048at3193          -            764   4.9e-46  159.2  10.2   2   2     5e-25   1.3e-21   78.4   6.9   637   723   143   240   123   240 0.88 -
JF2A_TRINITY_DN32480_c0_g1_i2.p1JF2A_TRINITY_DN32480_c0_g1 -            411 91048at3193          -            764     1e-09   39.1   4.8   1   2   1.8e-05     0.048   13.7   0.1   617   638     1    22     1    36 0.91 -
JF2A_TRINITY_DN32480_c0_g1_i2.p1JF2A_TRINITY_DN32480_c0_g1 -            411 91048at3193          -            764     1e-09   39.1   4.8   2   2   2.2e-09   5.8e-06   26.7   1.6   637   684    48    98    29   111 0.87 -
JF1J_TRINITY_DN65014_c2_g2_i1.p1JF1J_TRINITY_DN65014_c2_g2 -            104 91048at3193          -            764     0.013   15.6   0.9   1   1   5.2e-06     0.014   15.5   0.9   607   694     7    89     1   103 0.79 -
JF1A_TRINITY_DN59868_c0_g1_i1.p1JF1A_TRINITY_DN59868_c0_g1 -            145 91048at3193          -            764     0.018   15.1   0.0   1   1   7.8e-06     0.021   14.9   0.0   539   623    13    95     7   114 0.93 -
JF1A_TRINITY_DN61708_c1_g3_i4.p1JF1A_TRINITY_DN61708_c1_g3 -            160 91048at3193          -            764     0.019   15.1   6.5   1   1     8e-06     0.021   14.9   6.5   612   697     9    96     1   103 0.80 -
JF1J_TRINITY_DN57564_c0_g1_i1.p1JF1J_TRINITY_DN57564_c0_g1 -            100 91048at3193          -            764      0.13   12.3  10.7   1   1   4.7e-05      0.13   12.3  10.7   627   708     6    90     1    99 0.65 -
JF1A_TRINITY_DN36832_c0_g1_i1.p1JF1A_TRINITY_DN36832_c0_g1 -            102 91048at3193          -            764      0.16   12.0   1.3   1   1     6e-05      0.16   12.0   1.3   609   669    31    94     9   102 0.83 -
JF1J_TRINITY_DN60744_c0_g2_i3.p1JF1J_TRINITY_DN60744_c0_g2 -            138 91048at3193          -            764      0.27   11.2  10.6   1   1   0.00011      0.29   11.1  10.6   624   735    24   134     4   137 0.83 -
JF1A_TRINITY_DN65721_c1_g4_i1.p1JF1A_TRINITY_DN65721_c1_g4 -            220 91048at3193          -            764      0.37   10.8   9.5   1   1   0.00019      0.51   10.3   9.5   609   708   111   210   103   219 0.77 -
JF3J_TRINITY_DN71177_c0_g4_i2.p1JF3J_TRINITY_DN71177_c0_g4 -            126 91048at3193          -            764      0.41   10.7   0.8   1   1   0.00017      0.46   10.5   0.8   648   710    21    83     9    97 0.84 -
JF2J_TRINITY_DN14197_c0_g1_i1.p1JF2J_TRINITY_DN14197_c0_g1 -            138 91048at3193          -            764      0.57   10.2   5.3   1   1   0.00023       0.6   10.1   5.3   614   676    48   110    23   131 0.86 -
JF1J_TRINITY_DN67784_c1_g1_i2.p1JF1J_TRINITY_DN67784_c1_g1 -            218 91048at3193          -            764      0.88    9.5  13.1   1   1   0.00018      0.49   10.4  11.6   598   704    60   165    35   174 0.83 -
JF1A_TRINITY_DN64484_c2_g3_i2.p1JF1A_TRINITY_DN64484_c2_g3 -            249 91048at3193          -            764       1.1    9.3  22.8   1   2   0.00012      0.32   11.0   6.5   616   683    35   105    30   115 0.87 -
JF1A_TRINITY_DN64484_c2_g3_i2.p1JF1A_TRINITY_DN64484_c2_g3 -            249 91048at3193          -            764       1.1    9.3  22.8   2   2      0.02        53    3.7   9.2   606   714   121   206   105   218 0.44 -
JF1A_TRINITY_DN64724_c2_g1_i1.p1JF1A_TRINITY_DN64724_c2_g1 -            115 91048at3193          -            764       1.6    8.7   7.0   1   1   0.00066       1.8    8.5   7.0   590   662    39   112    28   115 0.75 -
JF1J_TRINITY_DN69178_c0_g3_i8.p1JF1J_TRINITY_DN69178_c0_g3 -            282 91048at3193          -            764       1.7    8.6  24.0   1   2    0.0002      0.54   10.2   8.5   612   684    34   109    15   126 0.83 -
JF1J_TRINITY_DN69178_c0_g3_i8.p1JF1J_TRINITY_DN69178_c0_g3 -            282 91048at3193          -            764       1.7    8.6  24.0   2   2     0.023        63    3.4   8.9   608   713   126   208   109   219 0.44 -
JF3A_TRINITY_DN46872_c2_g2_i1.p1JF3A_TRINITY_DN46872_c2_g2 -            112 91048at3193          -            764       1.8    8.6   9.9   1   1   0.00089       2.4    8.1   9.9   616   683    35   101     5   106 0.69 -
JF2A_TRINITY_DN51135_c0_g1_i1.p1JF2A_TRINITY_DN51135_c0_g1 -            144 91048at3193          -            764       2.6    8.0  14.8   1   1     0.001       2.8    7.9  14.8   632   741    12   121     1   139 0.86 -
JF3J_TRINITY_DN69335_c2_g1_i2.p1JF3J_TRINITY_DN69335_c2_g1 -            102 91048at3193          -            764       2.8    7.9  10.7   1   1    0.0012       3.1    7.8  10.7   625   706    20    99     5   102 0.65 -
JF1A_TRINITY_DN65973_c4_g2_i2.p1JF1A_TRINITY_DN65973_c4_g2 -            289 91048at3193          -            764         3    7.8   3.5   1   1    0.0013       3.5    7.6   3.5   600   706   131   230    76   237 0.82 -
JF2A_TRINITY_DN54164_c0_g1_i1.p1JF2A_TRINITY_DN54164_c0_g1 -            116 91048at3193          -            764       4.5    7.2   8.9   1   1    0.0018       4.8    7.1   8.9   622   699    10    90     1   102 0.50 -
JF2A_TRINITY_DN49921_c0_g1_i1.p1JF2A_TRINITY_DN49921_c0_g1 -            106 91048at3193          -            764       4.6    7.2   7.9   1   1    0.0019       5.1    7.0   7.9   641   723    17    98     3   103 0.58 -
JF1A_TRINITY_DN64252_c0_g8_i2.p1JF1A_TRINITY_DN64252_c0_g8 -            177 91048at3193          -            764       6.6    6.7   5.0   1   1    0.0031       8.3    6.3   5.0   629   677    50    98    40   103 0.82 -
#
# Program:         hmmsearch
# Version:         3.2.1 (June 2018)
# Pipeline mode:   SEARCH
# Query file:      /isg/shared/databases/BUSCO/odb10/embryophyta_odb10/hmms/91048at3193.hmm
# Target file:     Juniper_final_annotations_no_contam_lvl0.faa
# Option settings: /usr/local/bin/hmmsearch --domtblout /labs/Wegrzyn/Juniper_Pine/BUSCO/NEW/busco_juniper/run_embryophyta_odb10/hmmer_output/91048at3193.out --cpu 1 /isg/shared/databases/BUSCO/odb10/embryophyta_odb10/hmms/91048at3193.hmm Juniper_final_annotations_no_contam_lvl0.faa 
# Current dir:     /labs/Wegrzyn/Juniper_Pine/BUSCO/NEW
# Date:            Thu Aug  6 16:41:08 2020
# [ok]
