#                                                                                                                   --- full sequence --- -------------- this domain -------------   hmm coord   ali coord   env coord
# target name                                               accession   tlen query name           accession   qlen   E-value  score  bias   #  of  c-Evalue  i-Evalue  score  bias  from    to  from    to  from    to  acc description of target
#                                       ------------------- ---------- ----- -------------------- ---------- ----- --------- ------ ----- --- --- --------- --------- ------ ----- ----- ----- ----- ----- ----- ----- ---- ---------------------
JF1A_TRINITY_DN64573_c1_g1_i13.p1JF1A_TRINITY_DN64573_c1_g1 -            258 91256at3193          -            313   4.2e-69  234.6   0.3   1   1   1.5e-72   8.5e-69  233.7   0.3    65   237    57   258    43   258 0.91 -
JF1A_TRINITY_DN64573_c1_g1_i15.p1JF1A_TRINITY_DN64573_c1_g1 -            196 91256at3193          -            313   6.6e-53  181.4   0.2   1   1   2.6e-56   1.5e-52  180.3   0.2    54   200     1   169     1   174 0.92 -
JF1A_TRINITY_DN68289_c0_g2_i8.p1JF1A_TRINITY_DN68289_c0_g2  -            448 91256at3193          -            313   9.2e-34  118.6   0.1   1   2   2.7e-25   1.6e-21   78.4   0.1    17   194   131   316   125   323 0.89 -
JF1A_TRINITY_DN68289_c0_g2_i8.p1JF1A_TRINITY_DN68289_c0_g2  -            448 91256at3193          -            313   9.2e-34  118.6   0.1   2   2     5e-13   2.9e-09   38.1   0.0   200   306   345   448   340   448 0.80 -
JF1J_TRINITY_DN61076_c0_g1_i4.p1JF1J_TRINITY_DN61076_c0_g1  -            179 91256at3193          -            313   3.4e-25   90.4   0.1   1   2   2.7e-10   1.6e-06   29.1   0.0   165   194     1    30     1    39 0.94 -
JF1J_TRINITY_DN61076_c0_g1_i4.p1JF1J_TRINITY_DN61076_c0_g1  -            179 91256at3193          -            313   3.4e-25   90.4   0.1   2   2   1.4e-19   8.4e-16   59.5   0.0   200   313    59   172    55   172 0.84 -
JF1J_TRINITY_DN68065_c0_g2_i7.p1JF1J_TRINITY_DN68065_c0_g2  -            290 91256at3193          -            313   3.9e-13   50.8   0.1   1   1   8.6e-17     5e-13   50.4   0.1    19   157   143   287   129   290 0.88 -
JF2J_TRINITY_DN22113_c0_g2_i1.p1JF2J_TRINITY_DN22113_c0_g2  -            117 91256at3193          -            313     1e-07   33.0   0.1   1   1     2e-11   1.1e-07   32.8   0.1    19    89    32   105    18   115 0.84 -
JF1J_TRINITY_DN61076_c0_g1_i1.p1JF1J_TRINITY_DN61076_c0_g1  -            115 91256at3193          -            313   1.3e-06   29.4   0.0   1   2   1.5e-08   8.7e-05   23.4   0.0   229   296    11    76     6    81 0.77 -
JF1J_TRINITY_DN61076_c0_g1_i1.p1JF1J_TRINITY_DN61076_c0_g1  -            115 91256at3193          -            313   1.3e-06   29.4   0.0   2   2    0.0058        34    5.0   0.0   200   220    80   100    77   103 0.91 -
JF1A_TRINITY_DN63114_c1_g1_i12.p1JF1A_TRINITY_DN63114_c1_g1 -            106 91256at3193          -            313   0.00012   22.9   0.0   1   1   2.4e-08   0.00014   22.7   0.0   249   308    29    87    24    92 0.74 -
JF3A_TRINITY_DN50625_c1_g1_i3.p1JF3A_TRINITY_DN50625_c1_g1  -            146 91256at3193          -            313   0.00086   20.1   0.2   1   1   1.8e-07     0.001   19.8   0.2    57   167    21   135     5   138 0.83 -
JF3A_TRINITY_DN50625_c1_g1_i1.p1JF3A_TRINITY_DN50625_c1_g1  -            130 91256at3193          -            313    0.0019   18.9   0.0   1   1   4.1e-07    0.0024   18.6   0.0    69   167    18   119     8   122 0.88 -
JF1A_TRINITY_DN63114_c1_g1_i5.p1JF1A_TRINITY_DN63114_c1_g1  -            105 91256at3193          -            313      0.17   12.6   0.0   1   1   3.6e-05      0.21   12.3   0.0    19    55    33    71    19    75 0.81 -
JF1A_TRINITY_DN67042_c2_g2_i1.p1JF1A_TRINITY_DN67042_c2_g2  -            132 91256at3193          -            313      0.24   12.1   0.0   1   1   4.9e-05      0.28   11.8   0.0   165   260    12   114     6   132 0.72 -
#
# Program:         hmmsearch
# Version:         3.2.1 (June 2018)
# Pipeline mode:   SEARCH
# Query file:      /isg/shared/databases/BUSCO/odb10/embryophyta_odb10/hmms/91256at3193.hmm
# Target file:     Juniper_final_annotations_no_contam_lvl0.faa
# Option settings: /usr/local/bin/hmmsearch --domtblout /labs/Wegrzyn/Juniper_Pine/BUSCO/NEW/busco_juniper/run_embryophyta_odb10/hmmer_output/91256at3193.out --cpu 1 /isg/shared/databases/BUSCO/odb10/embryophyta_odb10/hmms/91256at3193.hmm Juniper_final_annotations_no_contam_lvl0.faa 
# Current dir:     /labs/Wegrzyn/Juniper_Pine/BUSCO/NEW
# Date:            Thu Aug  6 16:41:11 2020
# [ok]
