#                                                                                                                  --- full sequence --- -------------- this domain -------------   hmm coord   ali coord   env coord
# target name                                              accession   tlen query name           accession   qlen   E-value  score  bias   #  of  c-Evalue  i-Evalue  score  bias  from    to  from    to  from    to  acc description of target
#                                      ------------------- ---------- ----- -------------------- ---------- ----- --------- ------ ----- --- --- --------- --------- ------ ----- ----- ----- ----- ----- ----- ----- ---- ---------------------
JF1A_TRINITY_DN61264_c3_g3_i1.p1JF1A_TRINITY_DN61264_c3_g3 -            450 91585at3193          -            359  2.8e-181  604.3   6.9   1   1  3.7e-185  3.6e-181  604.0   6.9     3   359    54   436    52   436 0.95 -
JF1J_TRINITY_DN68985_c1_g2_i6.p1JF1J_TRINITY_DN68985_c1_g2 -            566 91585at3193          -            359   2.8e-38  133.9  15.0   1   2   2.1e-31   2.1e-27   98.2   0.0     4   125   120   249   117   258 0.87 -
JF1J_TRINITY_DN68985_c1_g2_i6.p1JF1J_TRINITY_DN68985_c1_g2 -            566 91585at3193          -            359   2.8e-38  133.9  15.0   2   2   1.5e-10   1.5e-06   29.6  11.9   137   352   290   545   281   551 0.70 -
JF1A_TRINITY_DN62950_c5_g1_i5.p1JF1A_TRINITY_DN62950_c5_g1 -            507 91585at3193          -            359   1.8e-34  121.4   6.6   1   2   6.8e-29   6.7e-25   89.9   0.1     7   124   119   245   113   252 0.86 -
JF1A_TRINITY_DN62950_c5_g1_i5.p1JF1A_TRINITY_DN62950_c5_g1 -            507 91585at3193          -            359   1.8e-34  121.4   6.6   2   2   9.5e-12   9.4e-08   33.5   2.2   139   279   290   442   282   499 0.80 -
JF2A_TRINITY_DN40021_c0_g1_i2.p1JF2A_TRINITY_DN40021_c0_g1 -            131 91585at3193          -            359     2e-32  114.7   0.7   1   1   2.2e-36   2.2e-32  114.5   0.7   205   307    13   119     5   130 0.80 -
JF3A_TRINITY_DN47875_c1_g1_i8.p1JF3A_TRINITY_DN47875_c1_g1 -            124 91585at3193          -            359   1.5e-19   72.3   0.1   1   1   1.9e-23   1.9e-19   72.0   0.1    31   115    33   118    21   121 0.91 -
JF2A_TRINITY_DN36883_c0_g2_i1.p1JF2A_TRINITY_DN36883_c0_g2 -            153 91585at3193          -            359    0.0071   17.5   0.0   1   1   7.8e-07    0.0078   17.3   0.0    38   105    84   150    58   153 0.83 -
JF1A_TRINITY_DN67001_c0_g1_i2.p1JF1A_TRINITY_DN67001_c0_g1 -            128 91585at3193          -            359     0.022   15.9   6.9   1   1   2.7e-06     0.027   15.6   6.9   102   206    17   123    11   126 0.82 -
#
# Program:         hmmsearch
# Version:         3.2.1 (June 2018)
# Pipeline mode:   SEARCH
# Query file:      /isg/shared/databases/BUSCO/odb10/embryophyta_odb10/hmms/91585at3193.hmm
# Target file:     Juniper_final_annotations_no_contam_lvl0.faa
# Option settings: /usr/local/bin/hmmsearch --domtblout /labs/Wegrzyn/Juniper_Pine/BUSCO/NEW/busco_juniper/run_embryophyta_odb10/hmmer_output/91585at3193.out --cpu 1 /isg/shared/databases/BUSCO/odb10/embryophyta_odb10/hmms/91585at3193.hmm Juniper_final_annotations_no_contam_lvl0.faa 
# Current dir:     /labs/Wegrzyn/Juniper_Pine/BUSCO/NEW
# Date:            Thu Aug  6 16:41:14 2020
# [ok]
