#                                                                                                                    --- full sequence --- -------------- this domain -------------   hmm coord   ali coord   env coord
# target name                                                accession   tlen query name           accession   qlen   E-value  score  bias   #  of  c-Evalue  i-Evalue  score  bias  from    to  from    to  from    to  acc description of target
#                                        ------------------- ---------- ----- -------------------- ---------- ----- --------- ------ ----- --- --- --------- --------- ------ ----- ----- ----- ----- ----- ----- ----- ---- ---------------------
JF1A_TRINITY_DN67508_c1_g10_i2.p1JF1A_TRINITY_DN67508_c1_g10 -            161 92093at3193          -            354    0.0011   20.2   0.0   1   1   7.8e-08    0.0014   19.9   0.0    88   164    34   112    21   118 0.85 -
JF1A_TRINITY_DN67508_c1_g10_i3.p1JF1A_TRINITY_DN67508_c1_g10 -            218 92093at3193          -            354    0.0021   19.3   0.0   1   1   1.6e-07    0.0028   18.9   0.0    88   164    34   112    22   118 0.85 -
JF1A_TRINITY_DN67072_c3_g2_i1.p1JF1A_TRINITY_DN67072_c3_g2   -            129 92093at3193          -            354      0.16   13.1   0.3   1   1   9.7e-06      0.17   13.0   0.3   250   305     7    62     1    90 0.91 -
JF1A_TRINITY_DN40041_c0_g1_i1.p1JF1A_TRINITY_DN40041_c0_g1   -            116 92093at3193          -            354      0.16   13.1   0.0   1   1   1.1e-05      0.18   12.9   0.0   132   184    58   111    11   114 0.70 -
#
# Program:         hmmsearch
# Version:         3.2.1 (June 2018)
# Pipeline mode:   SEARCH
# Query file:      /isg/shared/databases/BUSCO/odb10/embryophyta_odb10/hmms/92093at3193.hmm
# Target file:     Juniper_final_annotations_no_contam_lvl0.faa
# Option settings: /usr/local/bin/hmmsearch --domtblout /labs/Wegrzyn/Juniper_Pine/BUSCO/NEW/busco_juniper/run_embryophyta_odb10/hmmer_output/92093at3193.out --cpu 1 /isg/shared/databases/BUSCO/odb10/embryophyta_odb10/hmms/92093at3193.hmm Juniper_final_annotations_no_contam_lvl0.faa 
# Current dir:     /labs/Wegrzyn/Juniper_Pine/BUSCO/NEW
# Date:            Thu Aug  6 16:41:16 2020
# [ok]
