#                                                                                                                   --- full sequence --- -------------- this domain -------------   hmm coord   ali coord   env coord
# target name                                               accession   tlen query name           accession   qlen   E-value  score  bias   #  of  c-Evalue  i-Evalue  score  bias  from    to  from    to  from    to  acc description of target
#                                       ------------------- ---------- ----- -------------------- ---------- ----- --------- ------ ----- --- --- --------- --------- ------ ----- ----- ----- ----- ----- ----- ----- ---- ---------------------
JF1A_TRINITY_DN64967_c0_g7_i1.p1JF1A_TRINITY_DN64967_c0_g7  -            207 9250at3193           -            773   8.7e-92  310.7   1.4   1   1   2.3e-95   1.2e-91  310.2   1.4   400   584     1   198     1   203 0.91 -
JF1A_TRINITY_DN64967_c0_g4_i2.p1JF1A_TRINITY_DN64967_c0_g4  -            112 9250at3193           -            773   1.2e-60  207.8   0.4   1   1   2.5e-64   1.4e-60  207.6   0.4   613   717     1   105     1   107 0.99 -
JF3J_TRINITY_DN43868_c0_g1_i2.p1JF3J_TRINITY_DN43868_c0_g1  -            101 9250at3193           -            773   3.4e-37  130.2   1.5   1   1   7.4e-41   3.9e-37  130.0   1.5   603   671     1    69     1    75 0.94 -
JF1A_TRINITY_DN1595_c0_g1_i1.p1JF1A_TRINITY_DN1595_c0_g1    -            172 9250at3193           -            773   2.9e-13   51.0   2.2   1   1   9.8e-17   5.2e-13   50.2   2.2   537   658    22   158     9   164 0.79 -
JF2A_TRINITY_DN39633_c0_g2_i1.p1JF2A_TRINITY_DN39633_c0_g2  -            198 9250at3193           -            773   1.1e-08   35.9   0.4   1   2    0.0017         9    6.4   0.1   453   508     2    57     1    96 0.84 -
JF2A_TRINITY_DN39633_c0_g2_i1.p1JF2A_TRINITY_DN39633_c0_g2  -            198 9250at3193           -            773   1.1e-08   35.9   0.4   2   2     4e-10   2.1e-06   28.3   0.0   528   611   111   197    93   198 0.78 -
JF1A_TRINITY_DN55705_c0_g1_i1.p1JF1A_TRINITY_DN55705_c0_g1  -            180 9250at3193           -            773   1.1e-07   32.6   0.0   1   1   2.2e-11   1.2e-07   32.5   0.0   513   595    50   134     8   150 0.74 -
JF1A_TRINITY_DN56117_c0_g1_i1.p1JF1A_TRINITY_DN56117_c0_g1  -            261 9250at3193           -            773   4.9e-07   30.5   0.4   1   1     3e-10   1.6e-06   28.8   0.4   424   583    71   249    56   255 0.67 -
JF1A_TRINITY_DN63298_c0_g8_i1.p1JF1A_TRINITY_DN63298_c0_g8  -            323 9250at3193           -            773     8e-06   26.5   0.1   1   1   1.9e-09     1e-05   26.1   0.1    65   233   152   316   121   318 0.68 -
JF1A_TRINITY_DN64967_c0_g9_i1.p1JF1A_TRINITY_DN64967_c0_g9  -            121 9250at3193           -            773   8.1e-06   26.4   0.1   1   2   4.2e-09   2.2e-05   25.0   0.1   325   369    22    66     4    87 0.77 -
JF1A_TRINITY_DN64967_c0_g9_i1.p1JF1A_TRINITY_DN64967_c0_g9  -            121 9250at3193           -            773   8.1e-06   26.4   0.1   2   2      0.23   1.3e+03   -0.7   0.0   354   370   101   117    90   121 0.83 -
JF3J_TRINITY_DN70349_c2_g3_i1.p1JF3J_TRINITY_DN70349_c2_g3  -            148 9250at3193           -            773     0.016   15.5   0.0   1   1   3.5e-06     0.019   15.3   0.0   284   402    26   144    17   147 0.83 -
JF3J_TRINITY_DN70349_c2_g3_i4.p1JF3J_TRINITY_DN70349_c2_g3  -            156 9250at3193           -            773     0.037   14.3   0.0   1   1   8.2e-06     0.044   14.1   0.0   298   402    46   152    32   155 0.86 -
JF1A_TRINITY_DN67945_c0_g1_i11.p1JF1A_TRINITY_DN67945_c0_g1 -            366 9250at3193           -            773      0.19   11.9   0.0   1   1   4.8e-05      0.26   11.5   0.0   303   404   152   254   133   283 0.81 -
JF1A_TRINITY_DN61064_c3_g1_i1.p1JF1A_TRINITY_DN61064_c3_g1  -            146 9250at3193           -            773       0.7   10.1   0.1   1   1   0.00016      0.84    9.8   0.1   433   474     6    49     1    57 0.85 -
#
# Program:         hmmsearch
# Version:         3.2.1 (June 2018)
# Pipeline mode:   SEARCH
# Query file:      /isg/shared/databases/BUSCO/odb10/embryophyta_odb10/hmms/9250at3193.hmm
# Target file:     Juniper_final_annotations_no_contam_lvl0.faa
# Option settings: /usr/local/bin/hmmsearch --domtblout /labs/Wegrzyn/Juniper_Pine/BUSCO/NEW/busco_juniper/run_embryophyta_odb10/hmmer_output/9250at3193.out --cpu 1 /isg/shared/databases/BUSCO/odb10/embryophyta_odb10/hmms/9250at3193.hmm Juniper_final_annotations_no_contam_lvl0.faa 
# Current dir:     /labs/Wegrzyn/Juniper_Pine/BUSCO/NEW
# Date:            Thu Aug  6 16:41:25 2020
# [ok]
