#                                                                                                                   --- full sequence --- -------------- this domain -------------   hmm coord   ali coord   env coord
# target name                                               accession   tlen query name           accession   qlen   E-value  score  bias   #  of  c-Evalue  i-Evalue  score  bias  from    to  from    to  from    to  acc description of target
#                                       ------------------- ---------- ----- -------------------- ---------- ----- --------- ------ ----- --- --- --------- --------- ------ ----- ----- ----- ----- ----- ----- ----- ---- ---------------------
JF1A_TRINITY_DN62473_c0_g4_i1.p1JF1A_TRINITY_DN62473_c0_g4  -            256 96092at3193          -            312  1.9e-112  377.3   3.9   1   1    3e-116  2.3e-112  377.0   3.9    67   301    19   253     6   256 0.97 -
JF1A_TRINITY_DN62473_c0_g4_i2.p1JF1A_TRINITY_DN62473_c0_g4  -            120 96092at3193          -            312   7.1e-31  109.3   2.3   1   1   1.1e-34   8.6e-31  109.1   2.3    62   147    14    99     5   103 0.94 -
JF1A_TRINITY_DN68713_c1_g1_i1.p1JF1A_TRINITY_DN68713_c1_g1  -            262 96092at3193          -            312   1.2e-28  102.0   3.2   1   1   1.9e-32   1.5e-28  101.8   3.2    76   305    29   254    15   261 0.93 -
JF1J_TRINITY_DN73341_c4_g1_i12.p1JF1J_TRINITY_DN73341_c4_g1 -            183 96092at3193          -            312     7e-24   86.4   1.3   1   1   1.2e-27   8.9e-24   86.0   1.3   162   307    25   170    15   173 0.95 -
JF3A_TRINITY_DN59532_c0_g2_i1.p1JF3A_TRINITY_DN59532_c0_g2  -            127 96092at3193          -            312   2.7e-14   54.9   0.1   1   1   4.1e-18   3.2e-14   54.6   0.1   237   305    51   119    47   126 0.92 -
JF3J_TRINITY_DN74296_c0_g2_i1.p1JF3J_TRINITY_DN74296_c0_g2  -            128 96092at3193          -            312   4.1e-09   37.9   0.1   1   1     6e-13   4.6e-09   37.7   0.1   158   254     9   105     3   117 0.93 -
JF3A_TRINITY_DN59532_c0_g2_i2.p1JF3A_TRINITY_DN59532_c0_g2  -            116 96092at3193          -            312    0.0001   23.4   0.0   1   1   1.6e-08   0.00012   23.2   0.0   237   278    51    95    46   106 0.79 -
JF3J_TRINITY_DN61903_c0_g1_i5.p1JF3J_TRINITY_DN61903_c0_g1  -            251 96092at3193          -            312      0.65   10.9   0.4   1   1   0.00013      0.98   10.3   0.4   207   260   186   241   166   249 0.73 -
JF1A_TRINITY_DN61978_c0_g4_i1.p1JF1A_TRINITY_DN61978_c0_g4  -            115 96092at3193          -            312       3.7    8.4   2.6   1   2    0.0041        32    5.4   0.0    91   117    47    73    28    81 0.82 -
JF1A_TRINITY_DN61978_c0_g4_i1.p1JF1A_TRINITY_DN61978_c0_g4  -            115 96092at3193          -            312       3.7    8.4   2.6   2   2      0.02   1.5e+02    3.1   0.9    92   115    88   111    83   115 0.85 -
#
# Program:         hmmsearch
# Version:         3.2.1 (June 2018)
# Pipeline mode:   SEARCH
# Query file:      /isg/shared/databases/BUSCO/odb10/embryophyta_odb10/hmms/96092at3193.hmm
# Target file:     Juniper_final_annotations_no_contam_lvl0.faa
# Option settings: /usr/local/bin/hmmsearch --domtblout /labs/Wegrzyn/Juniper_Pine/BUSCO/NEW/busco_juniper/run_embryophyta_odb10/hmmer_output/96092at3193.out --cpu 1 /isg/shared/databases/BUSCO/odb10/embryophyta_odb10/hmms/96092at3193.hmm Juniper_final_annotations_no_contam_lvl0.faa 
# Current dir:     /labs/Wegrzyn/Juniper_Pine/BUSCO/NEW
# Date:            Thu Aug  6 16:42:00 2020
# [ok]
