#                                                                                                                  --- full sequence --- -------------- this domain -------------   hmm coord   ali coord   env coord
# target name                                              accession   tlen query name           accession   qlen   E-value  score  bias   #  of  c-Evalue  i-Evalue  score  bias  from    to  from    to  from    to  acc description of target
#                                      ------------------- ---------- ----- -------------------- ---------- ----- --------- ------ ----- --- --- --------- --------- ------ ----- ----- ----- ----- ----- ----- ----- ---- ---------------------
JF1A_TRINITY_DN61271_c4_g3_i1.p1JF1A_TRINITY_DN61271_c4_g3 -            381 98952at3193          -            311  7.4e-163  543.0   0.1   1   1  9.9e-165  1.4e-160  535.5   0.1     1   301    46   381    46   381 0.93 -
JF1J_TRINITY_DN63838_c2_g2_i1.p1JF1J_TRINITY_DN63838_c2_g2 -            176 98952at3193          -            311   2.9e-87  294.7   0.4   1   1   2.6e-91   3.6e-87  294.3   0.4    42   185    23   170    10   174 0.96 -
JF1A_TRINITY_DN64486_c3_g9_i1.p1JF1A_TRINITY_DN64486_c3_g9 -            148 98952at3193          -            311   3.3e-16   61.3   2.4   1   1   1.2e-19   1.6e-15   59.0   2.4    26   116    40   143    21   148 0.76 -
JF1A_TRINITY_DN19939_c0_g1_i1.p1JF1A_TRINITY_DN19939_c0_g1 -            101 98952at3193          -            311   9.4e-10   40.0   0.0   1   1   7.7e-14   1.1e-09   39.9   0.0   242   303     2    68     1    73 0.89 -
JF1A_TRINITY_DN60575_c1_g2_i1.p1JF1A_TRINITY_DN60575_c1_g2 -            238 98952at3193          -            311     0.076   14.1   0.1   1   1   8.5e-06      0.12   13.5   0.1    51   129   149   224   139   231 0.78 -
#
# Program:         hmmsearch
# Version:         3.2.1 (June 2018)
# Pipeline mode:   SEARCH
# Query file:      /isg/shared/databases/BUSCO/odb10/embryophyta_odb10/hmms/98952at3193.hmm
# Target file:     Juniper_final_annotations_no_contam_lvl0.faa
# Option settings: /usr/local/bin/hmmsearch --domtblout /labs/Wegrzyn/Juniper_Pine/BUSCO/NEW/busco_juniper/run_embryophyta_odb10/hmmer_output/98952at3193.out --cpu 1 /isg/shared/databases/BUSCO/odb10/embryophyta_odb10/hmms/98952at3193.hmm Juniper_final_annotations_no_contam_lvl0.faa 
# Current dir:     /labs/Wegrzyn/Juniper_Pine/BUSCO/NEW
# Date:            Thu Aug  6 16:42:34 2020
# [ok]
