#                                                                                                                   --- full sequence --- -------------- this domain -------------   hmm coord   ali coord   env coord
# target name                                               accession   tlen query name           accession   qlen   E-value  score  bias   #  of  c-Evalue  i-Evalue  score  bias  from    to  from    to  from    to  acc description of target
#                                       ------------------- ---------- ----- -------------------- ---------- ----- --------- ------ ----- --- --- --------- --------- ------ ----- ----- ----- ----- ----- ----- ----- ---- ---------------------
JF1A_TRINITY_DN62984_c0_g1_i2.p1JF1A_TRINITY_DN62984_c0_g1  -            364 99652at3193          -            363  9.4e-157  523.6   0.0   1   2   2.3e-85   2.9e-82  278.5   0.0    60   230     1   190     1   202 0.90 -
JF1A_TRINITY_DN62984_c0_g1_i2.p1JF1A_TRINITY_DN62984_c0_g1  -            364 99652at3193          -            363  9.4e-157  523.6   0.0   2   2   1.2e-74   1.5e-71  243.3   0.0   215   363   213   362   210   362 0.96 -
JF1A_TRINITY_DN66084_c0_g4_i6.p1JF1A_TRINITY_DN66084_c0_g4  -            378 99652at3193          -            363   1.8e-58  200.2   0.0   1   2   1.6e-31     2e-28  101.4   0.0     2   216    10   248     9   253 0.82 -
JF1A_TRINITY_DN66084_c0_g4_i6.p1JF1A_TRINITY_DN66084_c0_g4  -            378 99652at3193          -            363   1.8e-58  200.2   0.0   2   2   8.9e-30   1.1e-26   95.6   0.0   237   361   250   375   248   377 0.95 -
JF1A_TRINITY_DN67718_c2_g2_i2.p1JF1A_TRINITY_DN67718_c2_g2  -            378 99652at3193          -            363   4.7e-58  198.9   0.0   1   2     5e-31   6.4e-28   99.7   0.0     2   216    10   248     9   253 0.82 -
JF1A_TRINITY_DN67718_c2_g2_i2.p1JF1A_TRINITY_DN67718_c2_g2  -            378 99652at3193          -            363   4.7e-58  198.9   0.0   2   2   8.1e-30     1e-26   95.8   0.0   237   361   250   375   248   377 0.94 -
JF1A_TRINITY_DN65741_c0_g2_i3.p1JF1A_TRINITY_DN65741_c0_g2  -            378 99652at3193          -            363   9.5e-58  197.9   0.0   1   2   1.6e-31     2e-28  101.4   0.0     2   216    10   248     9   253 0.81 -
JF1A_TRINITY_DN65741_c0_g2_i3.p1JF1A_TRINITY_DN65741_c0_g2  -            378 99652at3193          -            363   9.5e-58  197.9   0.0   2   2   5.2e-29   6.5e-26   93.1   0.0   237   361   250   375   248   377 0.94 -
JF2A_TRINITY_DN36132_c0_g1_i2.p1JF2A_TRINITY_DN36132_c0_g1  -            113 99652at3193          -            363   4.4e-48  166.0   0.1   1   1   4.3e-51   5.4e-48  165.7   0.1   120   205    10    95     6   101 0.97 -
JF1A_TRINITY_DN62984_c0_g1_i4.p2JF1A_TRINITY_DN62984_c0_g1  -            116 99652at3193          -            363   2.4e-45  157.1   0.0   1   1   2.1e-48   2.6e-45  156.9   0.0   240   328    25   114    12   116 0.93 -
JF2A_TRINITY_DN41737_c1_g2_i5.p1JF2A_TRINITY_DN41737_c1_g2  -            342 99652at3193          -            363   1.6e-44  154.4   0.0   1   2   2.5e-30   3.2e-27   97.4   0.0     2   216    10   248     9   253 0.82 -
JF2A_TRINITY_DN41737_c1_g2_i5.p1JF2A_TRINITY_DN41737_c1_g2  -            342 99652at3193          -            363   1.6e-44  154.4   0.0   2   2   5.3e-17   6.7e-14   53.6   0.0   237   312   250   326   247   339 0.90 -
JF1A_TRINITY_DN64889_c0_g1_i1.p1JF1A_TRINITY_DN64889_c0_g1  -            289 99652at3193          -            363   1.6e-44  154.3   0.0   1   2   3.6e-19   4.5e-16   60.7   0.0    75   216    14   159     5   164 0.84 -
JF1A_TRINITY_DN64889_c0_g1_i1.p1JF1A_TRINITY_DN64889_c0_g1  -            289 99652at3193          -            363   1.6e-44  154.3   0.0   2   2   7.2e-29   9.1e-26   92.6   0.0   237   361   161   286   159   288 0.95 -
JF1A_TRINITY_DN66260_c0_g3_i2.p1JF1A_TRINITY_DN66260_c0_g3  -            335 99652at3193          -            363     2e-36  127.7   0.0   1   2   1.1e-25   1.4e-22   82.1   0.0    43   216    12   192     7   198 0.84 -
JF1A_TRINITY_DN66260_c0_g3_i2.p1JF1A_TRINITY_DN66260_c0_g3  -            335 99652at3193          -            363     2e-36  127.7   0.0   2   2   3.2e-14   4.1e-11   44.4   0.0   237   356   194   326   192   332 0.76 -
JF3J_TRINITY_DN63298_c5_g3_i1.p1JF3J_TRINITY_DN63298_c5_g3  -            203 99652at3193          -            363     1e-32  115.5   0.0   1   2   1.9e-19   2.4e-16   61.7   0.0    93   216     1   124     1   129 0.87 -
JF3J_TRINITY_DN63298_c5_g3_i1.p1JF3J_TRINITY_DN63298_c5_g3  -            203 99652at3193          -            363     1e-32  115.5   0.0   2   2   6.6e-17   8.3e-14   53.3   0.0   237   311   126   201   123   203 0.94 -
JF3A_TRINITY_DN48446_c1_g2_i6.p1JF3A_TRINITY_DN48446_c1_g2  -            237 99652at3193          -            363   2.2e-32  114.4   0.0   1   2   1.2e-05     0.015   16.3   0.0   175   216    64   107    18   112 0.85 -
JF3A_TRINITY_DN48446_c1_g2_i6.p1JF3A_TRINITY_DN48446_c1_g2  -            237 99652at3193          -            363   2.2e-32  114.4   0.0   2   2   2.8e-30   3.5e-27   97.3   0.0   237   361   109   234   107   236 0.94 -
JF3J_TRINITY_DN58737_c0_g1_i2.p1JF3J_TRINITY_DN58737_c0_g1  -            147 99652at3193          -            363   1.1e-29  105.5   0.0   1   1     1e-32   1.3e-29  105.3   0.0   234   361    17   145     7   147 0.93 -
JF2A_TRINITY_DN41737_c1_g1_i8.p1JF2A_TRINITY_DN41737_c1_g1  -            198 99652at3193          -            363   6.2e-27   96.5   0.0   1   2   1.8e-16   2.3e-13   51.8   0.0   123   217    22   120    10   125 0.88 -
JF2A_TRINITY_DN41737_c1_g1_i8.p1JF2A_TRINITY_DN41737_c1_g1  -            198 99652at3193          -            363   6.2e-27   96.5   0.0   2   2   5.2e-14   6.6e-11   43.7   0.0   237   301   121   187   119   194 0.88 -
JF2A_TRINITY_DN41737_c1_g2_i8.p1JF2A_TRINITY_DN41737_c1_g2  -            252 99652at3193          -            363   9.3e-27   95.9   0.0   1   2   4.7e-23     6e-20   73.5   0.0    51   217    18   191     8   196 0.85 -
JF2A_TRINITY_DN41737_c1_g2_i8.p1JF2A_TRINITY_DN41737_c1_g2  -            252 99652at3193          -            363   9.3e-27   95.9   0.0   2   2   3.1e-07    0.0004   21.4   0.0   237   275   192   230   190   234 0.92 -
JF1A_TRINITY_DN67404_c2_g2_i1.p1JF1A_TRINITY_DN67404_c2_g2  -            363 99652at3193          -            363   1.2e-25   92.2   0.0   1   2   3.1e-13   3.9e-10   41.2   0.0     2   215     4   226     3   228 0.75 -
JF1A_TRINITY_DN67404_c2_g2_i1.p1JF1A_TRINITY_DN67404_c2_g2  -            363 99652at3193          -            363   1.2e-25   92.2   0.0   2   2   7.7e-16   9.7e-13   49.8   0.0   235   361   227   360   217   362 0.82 -
JF1A_TRINITY_DN52710_c0_g1_i3.p1JF1A_TRINITY_DN52710_c0_g1  -            237 99652at3193          -            363   3.1e-24   87.6   0.0   1   1   2.4e-25     3e-22   81.0   0.0   144   360     3   228     1   231 0.76 -
JF2J_TRINITY_DN24881_c0_g1_i2.p1JF2J_TRINITY_DN24881_c0_g1  -            162 99652at3193          -            363   4.4e-24   87.1   0.0   1   2   9.8e-06     0.012   16.5   0.0   166   216     4    56     2    61 0.83 -
JF2J_TRINITY_DN24881_c0_g1_i2.p1JF2J_TRINITY_DN24881_c0_g1  -            162 99652at3193          -            363   4.4e-24   87.1   0.0   2   2   6.4e-22   8.1e-19   69.8   0.0   237   334    58   156    55   160 0.95 -
JF3J_TRINITY_DN63298_c5_g1_i3.p1JF3J_TRINITY_DN63298_c5_g1  -            180 99652at3193          -            363   4.7e-24   87.0   0.0   1   2   7.7e-22   9.8e-19   69.5   0.0    91   216     4   129     2   134 0.87 -
JF3J_TRINITY_DN63298_c5_g1_i3.p1JF3J_TRINITY_DN63298_c5_g1  -            180 99652at3193          -            363   4.7e-24   87.0   0.0   2   2   9.1e-06     0.011   16.6   0.0   237   264   131   158   129   174 0.87 -
JF3A_TRINITY_DN46572_c2_g4_i2.p2JF3A_TRINITY_DN46572_c2_g4  -            194 99652at3193          -            363   2.3e-22   81.5   0.0   1   1   2.3e-25   2.9e-22   81.1   0.0    42   196    27   186    21   191 0.88 -
JF2J_TRINITY_DN24710_c2_g1_i1.p1JF2J_TRINITY_DN24710_c2_g1  -            199 99652at3193          -            363   6.6e-20   73.4   0.0   1   2   7.7e-16   9.7e-13   49.8   0.0   123   216    38   135    26   140 0.88 -
JF2J_TRINITY_DN24710_c2_g1_i1.p1JF2J_TRINITY_DN24710_c2_g1  -            199 99652at3193          -            363   6.6e-20   73.4   0.0   2   2   1.5e-07   0.00019   22.5   0.0   237   275   137   175   135   185 0.89 -
JF1A_TRINITY_DN62160_c0_g1_i4.p1JF1A_TRINITY_DN62160_c0_g1  -            363 99652at3193          -            363     1e-19   72.7   0.0   1   1   1.1e-22   1.4e-19   72.3   0.0   231   354   238   363   203   363 0.88 -
JF1A_TRINITY_DN72926_c0_g1_i1.p1JF1A_TRINITY_DN72926_c0_g1  -            173 99652at3193          -            363   1.1e-19   72.6   0.0   1   2     5e-18   6.3e-15   57.0   0.0    95   216     1   122     1   127 0.83 -
JF1A_TRINITY_DN72926_c0_g1_i1.p1JF1A_TRINITY_DN72926_c0_g1  -            173 99652at3193          -            363   1.1e-19   72.6   0.0   2   2   3.3e-05     0.041   14.8   0.0   237   284   124   172   122   173 0.84 -
JF1A_TRINITY_DN64439_c2_g3_i3.p1JF1A_TRINITY_DN64439_c2_g3  -            196 99652at3193          -            363   9.5e-19   69.5   0.0   1   1   1.3e-21   1.7e-18   68.7   0.0   211   360    26   192    11   194 0.81 -
JF1A_TRINITY_DN63801_c1_g3_i1.p1JF1A_TRINITY_DN63801_c1_g3  -            129 99652at3193          -            363   1.3e-18   69.1   0.0   1   1   1.2e-21   1.5e-18   68.9   0.0    92   215     2   125     1   127 0.88 -
JF1J_TRINITY_DN72854_c0_g2_i5.p1JF1J_TRINITY_DN72854_c0_g2  -            192 99652at3193          -            363   3.8e-17   64.3   0.0   1   1   3.6e-20   4.5e-17   64.0   0.0    59   201    12   159     4   179 0.86 -
JF3J_TRINITY_DN63298_c5_g2_i1.p1JF3J_TRINITY_DN63298_c5_g2  -            116 99652at3193          -            363   1.3e-16   62.5   0.0   1   1   1.2e-19   1.5e-16   62.3   0.0   122   217    11   110     2   115 0.87 -
JF3J_TRINITY_DN66506_c1_g1_i2.p1JF3J_TRINITY_DN66506_c1_g1  -            166 99652at3193          -            363   5.9e-16   60.3   0.0   1   1   6.1e-19   7.7e-16   60.0   0.0    42   166    36   163    30   165 0.87 -
JF2A_TRINITY_DN1373_c0_g1_i1.p1JF2A_TRINITY_DN1373_c0_g1    -            110 99652at3193          -            363   6.1e-16   60.3   0.0   1   1   5.6e-19   7.1e-16   60.1   0.0    91   196     6   109     3   110 0.89 -
JF3A_TRINITY_DN33692_c0_g1_i2.p1JF3A_TRINITY_DN33692_c0_g1  -            117 99652at3193          -            363   7.1e-16   60.1   0.0   1   1   5.9e-19   7.4e-16   60.0   0.0    94   203     1   108     1   117 0.87 -
JF1A_TRINITY_DN65709_c6_g1_i2.p1JF1A_TRINITY_DN65709_c6_g1  -            105 99652at3193          -            363   7.6e-16   60.0   0.0   1   2   1.1e-18   1.4e-15   59.1   0.0   278   355     7    84     2    93 0.93 -
JF1A_TRINITY_DN65709_c6_g1_i2.p1JF1A_TRINITY_DN65709_c6_g1  -            105 99652at3193          -            363   7.6e-16   60.0   0.0   2   2         1   1.3e+03    0.0   0.0   295   317    82   104    81   105 0.90 -
JF3A_TRINITY_DN29231_c0_g1_i2.p1JF3A_TRINITY_DN29231_c0_g1  -            118 99652at3193          -            363   8.6e-15   56.5   0.1   1   2   6.7e-10   8.5e-07   30.2   0.0   151   216     1    70     1    75 0.85 -
JF3A_TRINITY_DN29231_c0_g1_i2.p1JF3A_TRINITY_DN29231_c0_g1  -            118 99652at3193          -            363   8.6e-15   56.5   0.1   2   2   1.5e-08   1.9e-05   25.8   0.0   237   275    72   110    69   113 0.94 -
JF1A_TRINITY_DN60008_c0_g1_i2.p1JF1A_TRINITY_DN60008_c0_g1  -            211 99652at3193          -            363     1e-12   49.7   0.1   1   2   3.5e-07   0.00044   21.3   0.0   113   199    16    99     2   114 0.79 -
JF1A_TRINITY_DN60008_c0_g1_i2.p1JF1A_TRINITY_DN60008_c0_g1  -            211 99652at3193          -            363     1e-12   49.7   0.1   2   2     3e-09   3.8e-06   28.1   0.0   224   299   101   183    95   192 0.81 -
JF1J_TRINITY_DN68863_c3_g1_i1.p1JF1J_TRINITY_DN68863_c3_g1  -            134 99652at3193          -            363   4.1e-12   47.7   0.0   1   1     4e-15     5e-12   47.4   0.0    54   163     6   118     3   124 0.85 -
JF3J_TRINITY_DN72459_c0_g1_i2.p1JF3J_TRINITY_DN72459_c0_g1  -            101 99652at3193          -            363   1.9e-11   45.5   0.0   1   1   1.6e-14     2e-11   45.5   0.0   289   361    26    98     4   100 0.87 -
JF2A_TRINITY_DN49441_c0_g1_i1.p1JF2A_TRINITY_DN49441_c0_g1  -            108 99652at3193          -            363   8.9e-11   43.3   0.0   1   1   8.1e-14     1e-10   43.1   0.0   229   311    10    98     2   107 0.81 -
JF1A_TRINITY_DN66260_c0_g3_i7.p1JF1A_TRINITY_DN66260_c0_g3  -            139 99652at3193          -            363     7e-09   37.1   0.0   1   1     7e-11   8.8e-08   33.5   0.0     1    97     6   124     6   133 0.70 -
JF2A_TRINITY_DN7605_c0_g1_i1.p1JF2A_TRINITY_DN7605_c0_g1    -            124 99652at3193          -            363   1.3e-08   36.2   0.0   1   1   1.2e-11   1.5e-08   36.0   0.0   235   305    17    88     7   105 0.87 -
JF2J_TRINITY_DN24883_c0_g1_i5.p1JF2J_TRINITY_DN24883_c0_g1  -            148 99652at3193          -            363     8e-08   33.6   0.0   1   1   7.2e-10   9.1e-07   30.1   0.0     2    87    10   115     9   131 0.75 -
JF1A_TRINITY_DN52710_c0_g2_i2.p1JF1A_TRINITY_DN52710_c0_g2  -            125 99652at3193          -            363   3.8e-07   31.4   0.0   1   1   3.5e-10   4.5e-07   31.1   0.0    41   145    10   122     6   125 0.77 -
JF1J_TRINITY_DN71356_c0_g7_i2.p1JF1J_TRINITY_DN71356_c0_g7  -            123 99652at3193          -            363     4e-07   31.3   0.0   1   1   3.7e-10   4.7e-07   31.1   0.0   124   206    13    97     2   107 0.82 -
JF1A_TRINITY_DN59092_c0_g1_i2.p1JF1A_TRINITY_DN59092_c0_g1  -            239 99652at3193          -            363     6e-07   30.7   0.0   1   1   6.8e-10   8.6e-07   30.2   0.0   113   204    21   117    11   122 0.79 -
JF1J_TRINITY_DN64153_c0_g2_i1.p1JF1J_TRINITY_DN64153_c0_g2  -            102 99652at3193          -            363   1.2e-06   29.7   0.0   1   2       1.1   1.4e+03   -0.1   0.0   198   216    25    43    16    49 0.75 -
JF1J_TRINITY_DN64153_c0_g2_i1.p1JF1J_TRINITY_DN64153_c0_g2  -            102 99652at3193          -            363   1.2e-06   29.7   0.0   2   2   1.7e-09   2.2e-06   28.9   0.0   233   293    41   102    31   102 0.87 -
JF1A_TRINITY_DN4421_c0_g1_i2.p1JF1A_TRINITY_DN4421_c0_g1    -            135 99652at3193          -            363   1.8e-06   29.2   0.0   1   1   1.7e-09   2.1e-06   28.9   0.0   258   336     7    91     4   108 0.85 -
JF2A_TRINITY_DN30917_c0_g1_i1.p1JF2A_TRINITY_DN30917_c0_g1  -            183 99652at3193          -            363     4e-06   28.0   0.0   1   2       4.2   5.3e+03   -2.0   0.0     1    16    39    54    39    62 0.85 -
JF2A_TRINITY_DN30917_c0_g1_i1.p1JF2A_TRINITY_DN30917_c0_g1  -            183 99652at3193          -            363     4e-06   28.0   0.0   2   2   7.3e-09   9.3e-06   26.8   0.0    43   143    63   166    56   177 0.80 -
JF1J_TRINITY_DN71546_c0_g4_i1.p1JF1J_TRINITY_DN71546_c0_g4  -            183 99652at3193          -            363   5.4e-05   24.3   0.0   1   1   1.6e-07    0.0002   22.4   0.0   122   254     5   149     1   153 0.76 -
JF1A_TRINITY_DN63801_c1_g2_i7.p1JF1A_TRINITY_DN63801_c1_g2  -            207 99652at3193          -            363   6.8e-05   23.9   0.0   1   1   8.3e-08    0.0001   23.3   0.0   157   215   142   204   129   206 0.85 -
JF1J_TRINITY_DN72377_c2_g2_i6.p1JF1J_TRINITY_DN72377_c2_g2  -            325 99652at3193          -            363   7.8e-05   23.8   0.0   1   1   9.3e-08   0.00012   23.2   0.0   281   319   273   311   261   316 0.92 -
JF1A_TRINITY_DN17237_c0_g1_i1.p1JF1A_TRINITY_DN17237_c0_g1  -            101 99652at3193          -            363   8.3e-05   23.7   0.7   1   1   1.5e-07   0.00019   22.5   0.7     2    37    10    45     9    99 0.87 -
JF1A_TRINITY_DN67718_c2_g2_i23.p1JF1A_TRINITY_DN67718_c2_g2 -            109 99652at3193          -            363   9.8e-05   23.4   0.1   1   1   2.1e-07   0.00027   22.0   0.1     2    34    10    42     9   103 0.87 -
JF3J_TRINITY_DN72459_c0_g1_i3.p1JF3J_TRINITY_DN72459_c0_g1  -            135 99652at3193          -            363    0.0001   23.4   0.0   1   1     1e-07   0.00013   23.1   0.0    42   110    51   126    44   134 0.85 -
JF3A_TRINITY_DN46572_c2_g2_i5.p1JF3A_TRINITY_DN46572_c2_g2  -            103 99652at3193          -            363   0.00011   23.2   0.2   1   1     2e-07   0.00026   22.1   0.2     2    34    10    42     9   101 0.89 -
JF2J_TRINITY_DN24883_c0_g1_i7.p1JF2J_TRINITY_DN24883_c0_g1  -            104 99652at3193          -            363   0.00032   21.8   0.1   1   1   3.4e-07   0.00043   21.3   0.1     2    34    10    42     9    55 0.92 -
JF1A_TRINITY_DN64517_c3_g4_i2.p1JF1A_TRINITY_DN64517_c3_g4  -            145 99652at3193          -            363    0.0017   19.3   0.0   1   2   0.00032       0.4   11.5   0.0     2    29    10    37     9    42 0.93 -
JF1A_TRINITY_DN64517_c3_g4_i2.p1JF1A_TRINITY_DN64517_c3_g4  -            145 99652at3193          -            363    0.0017   19.3   0.0   2   2     0.012        15    6.3   0.0    48    83    98   136    57   144 0.82 -
JF2J_TRINITY_DN24883_c0_g1_i6.p1JF2J_TRINITY_DN24883_c0_g1  -            137 99652at3193          -            363      0.02   15.8   0.0   1   2      0.27   3.4e+02    1.9   0.0    60    89     4    36     1    59 0.73 -
JF2J_TRINITY_DN24883_c0_g1_i6.p1JF2J_TRINITY_DN24883_c0_g1  -            137 99652at3193          -            363      0.02   15.8   0.0   2   2   0.00019      0.24   12.3   0.0    42    89    60   110    55   130 0.80 -
JF3J_TRINITY_DN26467_c0_g1_i1.p2JF3J_TRINITY_DN26467_c0_g1  -            107 99652at3193          -            363      0.03   15.2   0.0   1   1   2.7e-05     0.035   15.0   0.0    43   120    11    97     5   104 0.74 -
#
# Program:         hmmsearch
# Version:         3.2.1 (June 2018)
# Pipeline mode:   SEARCH
# Query file:      /isg/shared/databases/BUSCO/odb10/embryophyta_odb10/hmms/99652at3193.hmm
# Target file:     Juniper_final_annotations_no_contam_lvl0.faa
# Option settings: /usr/local/bin/hmmsearch --domtblout /labs/Wegrzyn/Juniper_Pine/BUSCO/NEW/busco_juniper/run_embryophyta_odb10/hmmer_output/99652at3193.out --cpu 1 /isg/shared/databases/BUSCO/odb10/embryophyta_odb10/hmms/99652at3193.hmm Juniper_final_annotations_no_contam_lvl0.faa 
# Current dir:     /labs/Wegrzyn/Juniper_Pine/BUSCO/NEW
# Date:            Thu Aug  6 16:42:43 2020
# [ok]
