trinity_PC2A_index4.Trinity:
avg=492.163 
301	572
302	528
303	543
304	523
305	516
306	483
307	424
308	470
309	463
310	439
311	479
312	398
313	425
314	461
315	427
316	495
317	435
318	405
319	438
320	458
321	411
322	418
323	435
324	408
325	424
326	393
327	384
328	359
329	347
330	400
331	372
332	367
333	348
334	341
335	325
336	355
337	341
338	320
339	339
340	296
341	316
342	364
343	321
344	308
345	301
346	291
347	306
348	310
349	273
350	305
351	290
352	274
353	284
354	282
355	284
356	287
357	271
358	274
359	280
360	275
361	246
362	234
363	283
364	259
365	240
366	203
367	244
368	244
369	230
370	247
371	232
372	208
373	267
374	224
375	239
376	219
377	243
378	221
379	194
380	221
381	230
382	231
383	205
384	212
385	216
386	222
387	218
388	191
389	191
390	213
391	212
392	198
393	176
394	204
395	216
396	190
397	202
398	210
399	169
400	178
401	165
402	175
403	180
404	157
405	165
406	182
407	179
408	154
409	181
410	165
411	174
412	144
413	154
414	172
415	164
416	149
417	138
418	169
419	154
420	159
421	147
422	159
423	147
424	151
425	154
426	146
427	159
428	152
429	170
430	147
431	142
432	140
433	148
434	155
435	100
436	149
437	146
438	150
439	145
440	138
441	134
442	134
443	140
444	125
445	121
446	143
447	128
448	144
449	140
450	132
451	132
452	130
453	117
454	127
455	124
456	114
457	127
458	119
459	111
460	107
461	114
462	121
463	127
464	105
465	96
466	116
467	103
468	120
469	111
470	124
471	123
472	102
473	106
474	108
475	91
476	104
477	102
478	99
479	90
480	100
481	102
482	95
483	103
484	107
485	78
486	104
487	91
488	108
489	98
490	93
491	104
492	87
493	106
494	85
495	114
496	94
497	101
498	92
499	78
500	88
501	102
502	90
503	91
504	90
505	83
506	104
507	77
508	95
509	67
510	77
511	91
512	80
513	89
514	90
515	84
516	71
517	81
518	79
519	82
520	78
521	75
522	86
523	70
524	90
525	89
526	92
527	72
528	86
529	70
530	83
531	76
532	73
533	63
534	60
535	67
536	76
537	62
538	67
539	76
540	73
541	82
542	73
543	66
544	57
545	63
546	79
547	67
548	72
549	76
550	70
551	65
552	52
553	70
554	86
555	78
556	60
557	66
558	69
559	65
560	68
561	55
562	62
563	64
564	58
565	70
566	59
567	67
568	59
569	74
570	64
571	58
572	59
573	47
574	48
575	54
576	59
577	58
578	58
579	53
580	65
581	55
582	50
583	63
584	60
585	37
586	59
587	64
588	56
589	69
590	54
591	51
592	65
593	49
594	52
595	60
596	54
597	62
598	41
599	48
600	55
601	67
602	54
603	52
604	47
605	50
606	58
607	52
608	75
609	57
610	48
611	41
612	48
613	48
614	55
615	46
616	39
617	41
618	51
619	35
620	56
621	56
622	51
623	56
624	61
625	49
626	43
627	59
628	43
629	35
630	38
631	55
632	68
633	41
634	47
635	53
636	48
637	59
638	53
639	37
640	53
641	47
642	47
643	39
644	46
645	53
646	44
647	32
648	45
649	33
650	40
651	45
652	32
653	42
654	48
655	50
656	48
657	42
658	40
659	39
660	34
661	33
662	46
663	44
664	42
665	34
666	40
667	30
668	44
669	43
670	31
671	44
672	49
673	32
674	40
675	50
676	35
677	35
678	37
679	41
680	27
681	33
682	28
683	36
684	49
685	27
686	33
687	28
688	38
689	32
690	38
691	33
692	35
693	32
694	46
695	45
696	37
697	29
698	30
699	25
700	43
701	37
702	35
703	37
704	38
705	35
706	30
707	29
708	31
709	27
710	26
711	31
712	33
713	26
714	39
715	37
716	43
717	29
718	20
719	37
720	26
721	27
722	28
723	36
724	24
725	36
726	29
727	29
728	18
729	37
730	22
731	30
732	37
733	24
734	34
735	28
736	32
737	35
738	29
739	33
740	25
741	34
742	30
743	32
744	30
745	25
746	29
747	27
748	28
749	27
750	24
751	30
752	26
753	23
754	30
755	22
756	17
757	21
758	22
759	32
760	24
761	20
762	27
763	26
764	27
765	23
766	17
767	23
768	26
769	33
770	30
771	21
772	19
773	24
774	27
775	31
776	15
777	24
778	27
779	13
780	23
781	16
782	18
783	18
784	27
785	23
786	25
787	21
788	22
789	31
790	18
791	25
792	34
793	28
794	12
795	26
796	29
797	12
798	17
799	22
800	19
801	22
802	19
803	28
804	19
805	20
806	13
807	22
808	22
809	17
810	14
811	34
812	21
813	13
814	24
815	16
816	17
817	15
818	22
819	13
820	14
821	18
822	16
823	10
824	17
825	19
826	19
827	15
828	16
829	24
830	16
831	20
832	20
833	13
834	24
835	23
836	16
837	14
838	17
839	19
840	21
841	17
842	16
843	17
844	16
845	22
846	15
847	11
848	20
849	17
850	17
851	18
852	17
853	16
854	18
855	13
856	20
857	14
858	12
859	16
860	16
861	14
862	16
863	11
864	14
865	16
866	17
867	14
868	14
869	19
870	17
871	9
872	10
873	18
874	22
875	15
876	16
877	8
878	20
879	14
880	12
881	14
882	13
883	11
884	20
885	13
886	17
887	11
888	12
889	13
890	17
891	12
892	18
893	13
894	11
895	20
896	12
897	14
898	8
899	9
900	11
901	13
902	11
903	16
904	6
905	11
906	15
907	13
908	8
909	11
910	16
911	12
912	11
913	19
914	10
915	12
916	17
917	15
918	7
919	12
920	5
921	18
922	16
923	10
924	16
925	13
926	19
927	20
928	12
929	14
930	14
931	10
932	12
933	11
934	8
935	6
936	12
937	11
938	9
939	16
940	4
941	7
942	9
943	12
944	10
945	20
946	17
947	9
948	11
949	10
950	8
951	13
952	10
953	17
954	5
955	16
956	13
957	13
958	8
959	11
960	5
961	10
962	5
963	8
964	12
965	8
966	14
967	14
968	10
969	10
970	14
971	9
972	11
973	11
974	8
975	8
976	10
977	6
978	11
979	9
980	12
981	5
982	11
983	11
984	10
985	14
986	10
987	7
988	11
989	9
990	16
991	10
992	11
993	7
994	15
995	13
996	13
997	8
998	9
999	7
1000	7
1001	4
1002	6
1003	9
1004	6
1005	11
1006	10
1007	8
1008	6
1009	14
1010	4
1011	8
1012	5
1013	11
1014	7
1015	12
1016	16
1017	3
1018	5
1019	6
1020	3
1021	11
1022	8
1023	8
1024	9
1025	7
1026	8
1027	6
1028	5
1029	7
1030	7
1031	9
1032	6
1033	11
1034	8
1035	14
1036	7
1037	9
1038	10
1039	15
1040	11
1041	7
1042	7
1043	7
1044	11
1045	9
1046	7
1047	12
1048	7
1049	7
1050	12
1051	5
1052	12
1053	10
1054	10
1055	5
1056	5
1057	7
1058	6
1059	15
1060	14
1061	4
1062	8
1063	10
1064	9
1065	10
1066	8
1067	11
1068	11
1069	7
1070	10
1071	6
1072	8
1073	4
1074	8
1075	5
1076	6
1077	6
1078	6
1079	6
1080	7
1081	7
1082	14
1083	8
1084	7
1085	3
1086	5
1087	7
1088	3
1089	10
1090	9
1091	6
1092	9
1093	9
1094	8
1095	6
1096	5
1097	5
1098	5
1099	9
1100	2
1101	5
1102	13
1103	6
1104	3
1105	4
1106	10
1107	6
1108	6
1109	5
1110	9
1111	9
1112	11
1113	4
1114	8
1115	5
1116	7
1117	11
1118	8
1119	8
1120	5
1121	3
1122	3
1123	4
1124	2
1125	9
1126	6
1127	7
1128	9
1129	6
1130	7
1131	3
1132	8
1133	6
1134	7
1135	6
1136	6
1137	5
1138	7
1139	8
1140	6
1141	6
1142	3
1143	8
1144	5
1145	8
1146	1
1147	4
1148	4
1149	6
1150	4
1151	9
1152	5
1153	6
1154	5
1155	5
1156	10
1157	4
1158	4
1159	4
1160	4
1161	5
1162	5
1164	7
1165	7
1166	3
1167	5
1168	4
1169	9
1170	13
1171	4
1172	9
1173	8
1174	6
1175	2
1176	5
1177	2
1178	8
1179	8
1180	4
1181	5
1182	9
1183	4
1184	3
1185	5
1186	3
1187	3
1188	7
1189	7
1190	7
1191	4
1192	5
1193	4
1194	5
1195	9
1196	8
1197	4
1198	5
1199	6
1200	7
1201	4
1202	4
1203	6
1204	6
1205	6
1206	4
1207	4
1208	4
1209	8
1210	4
1211	2
1212	9
1213	3
1214	6
1215	8
1216	3
1217	3
1218	4
1219	5
1220	6
1221	7
1223	1
1224	4
1225	5
1226	7
1227	1
1228	6
1229	5
1230	3
1231	7
1232	3
1233	3
1235	4
1236	5
1237	3
1238	6
1239	2
1240	5
1241	3
1242	4
1243	1
1244	4
1245	8
1246	6
1247	7
1248	5
1249	3
1250	2
1251	3
1252	4
1253	5
1254	4
1255	5
1256	4
1257	4
1258	5
1259	3
1260	3
1261	2
1262	3
1263	2
1264	7
1265	1
1266	1
1267	3
1268	3
1269	3
1270	3
1271	2
1272	2
1273	3
1274	6
1275	4
1276	1
1277	4
1278	4
1279	2
1280	6
1281	6
1282	5
1283	4
1284	3
1285	5
1286	6
1288	3
1289	4
1290	2
1291	1
1292	6
1293	5
1294	5
1295	2
1296	7
1297	3
1298	6
1299	3
1300	3
1301	7
1302	2
1303	2
1304	3
1305	2
1306	1
1307	2
1308	4
1309	3
1310	4
1311	2
1312	3
1313	4
1314	2
1315	1
1316	2
1317	1
1318	2
1319	5
1320	6
1321	5
1322	2
1323	3
1324	1
1325	2
1326	4
1327	3
1329	3
1330	2
1331	3
1332	3
1333	4
1334	3
1335	5
1336	5
1337	3
1338	2
1339	3
1340	2
1341	2
1342	2
1343	2
1344	1
1345	4
1346	4
1347	1
1349	5
1350	8
1351	2
1352	3
1353	7
1354	4
1355	5
1356	1
1358	5
1359	7
1360	3
1362	4
1363	3
1364	3
1365	1
1366	1
1367	2
1368	2
1369	2
1370	3
1372	5
1373	2
1374	2
1375	4
1376	1
1377	4
1378	1
1379	2
1380	4
1381	2
1383	1
1384	3
1385	1
1386	3
1387	4
1388	4
1389	3
1390	2
1391	1
1392	2
1393	5
1394	4
1395	5
1396	2
1397	2
1398	3
1399	1
1400	2
1401	3
1402	2
1403	3
1404	4
1405	2
1406	3
1407	1
1408	5
1409	3
1412	3
1413	4
1414	2
1415	1
1417	1
1419	1
1420	2
1421	6
1424	2
1425	5
1426	1
1427	2
1428	2
1429	3
1430	1
1431	1
1432	2
1433	1
1434	4
1435	2
1436	2
1437	4
1438	2
1439	4
1440	3
1441	2
1442	2
1443	5
1445	3
1446	2
1447	1
1448	3
1449	4
1450	2
1452	3
1453	2
1454	4
1455	1
1456	1
1457	6
1458	1
1459	2
1460	2
1461	1
1462	1
1463	3
1465	2
1466	2
1467	3
1468	1
1469	1
1470	4
1471	2
1472	2
1473	3
1474	1
1475	1
1477	2
1479	1
1480	5
1481	1
1482	1
1484	2
1485	1
1486	3
1487	1
1489	2
1490	2
1493	2
1495	4
1496	4
1497	1
1498	5
1499	1
1500	1
1501	2
1502	3
1504	2
1506	2
1507	4
1508	6
1509	3
1510	2
1511	2
1514	2
1515	2
1516	1
1517	3
1519	2
1520	3
1521	1
1522	2
1523	5
1524	2
1525	3
1526	1
1527	2
1528	1
1529	2
1531	2
1532	1
1533	3
1536	1
1537	3
1538	2
1539	2
1541	3
1542	2
1544	1
1546	1
1547	3
1548	1
1549	2
1550	1
1551	2
1552	1
1553	1
1555	2
1556	2
1557	2
1558	2
1559	1
1560	3
1561	1
1562	2
1563	3
1564	3
1565	3
1566	2
1567	2
1568	2
1570	1
1572	2
1573	2
1574	2
1575	1
1576	2
1577	3
1578	1
1579	1
1581	4
1582	1
1583	2
1587	1
1589	2
1591	4
1592	4
1593	1
1594	1
1595	2
1596	2
1598	1
1599	1
1600	2
1601	5
1602	1
1603	2
1605	2
1606	3
1607	1
1608	2
1609	2
1611	1
1612	3
1613	2
1615	5
1616	1
1617	2
1618	2
1619	3
1620	2
1622	1
1623	1
1624	2
1625	2
1626	2
1627	2
1628	4
1630	1
1634	2
1635	1
1636	1
1637	1
1638	1
1640	2
1641	1
1642	2
1643	2
1647	3
1648	1
1650	2
1652	2
1653	2
1654	1
1656	2
1659	1
1660	1
1663	1
1664	1
1665	1
1666	1
1667	3
1669	1
1671	2
1672	2
1673	1
1676	3
1678	1
1680	1
1681	2
1682	1
1683	1
1684	1
1685	2
1686	2
1688	3
1689	3
1690	2
1691	1
1693	2
1694	1
1696	2
1698	1
1699	1
1700	2
1701	1
1702	1
1704	3
1705	2
1706	2
1708	2
1709	1
1711	2
1712	1
1713	2
1715	2
1716	2
1721	2
1722	1
1723	1
1724	2
1726	1
1727	1
1728	2
1729	1
1732	1
1733	1
1734	1
1735	1
1736	1
1738	1
1739	1
1740	1
1741	2
1742	1
1745	3
1746	1
1747	1
1748	2
1750	2
1752	1
1754	1
1757	1
1758	1
1759	1
1761	1
1763	1
1764	1
1767	1
1769	1
1770	4
1771	1
1775	1
1778	1
1783	1
1785	1
1788	1
1792	2
1793	3
1796	1
1797	3
1798	1
1799	1
1802	1
1803	3
1805	1
1806	1
1808	2
1809	2
1810	1
1811	1
1813	1
1814	1
1815	2
1816	1
1817	1
1818	1
1822	1
1823	1
1826	2
1834	1
1835	1
1836	1
1837	1
1838	1
1841	2
1843	2
1846	1
1848	2
1850	2
1853	2
1855	1
1856	1
1857	1
1858	1
1862	1
1863	1
1864	2
1866	1
1868	1
1869	1
1871	2
1875	1
1881	1
1883	1
1893	1
1896	1
1900	1
1902	2
1905	1
1906	3
1912	1
1914	4
1915	2
1917	1
1923	1
1925	1
1932	1
1936	1
1942	1
1943	1
1945	1
1947	1
1948	1
1949	1
1950	1
1951	1
1953	1
1959	1
1965	1
1967	1
1968	1
1969	1
1970	1
1976	1
1982	1
1983	1
1987	1
1989	2
1991	1
1994	1
1996	1
1997	1
1998	1
1999	1
2002	1
2008	1
2016	1
2021	2
2027	1
2046	1
2058	1
2059	2
2062	1
2072	1
2075	1
2078	1
2079	1
2082	2
2085	2
2086	1
2090	1
2091	1
2094	1
2103	1
2106	1
2112	1
2117	1
2119	1
2121	1
2126	1
2135	2
2137	1
2140	2
2144	1
2153	1
2154	1
2155	1
2160	1
2170	1
2171	2
2173	1
2183	1
2189	1
2191	1
2193	1
2199	1
2203	1
2204	2
2210	1
2213	1
2216	1
2219	1
2220	1
2222	1
2233	1
2241	1
2247	1
2248	1
2262	1
2265	1
2269	1
2275	1
2276	1
2281	1
2292	1
2295	1
2296	1
2300	2
2302	1
2308	1
2321	1
2329	1
2335	1
2339	1
2340	1
2345	1
2352	1
2354	1
2357	1
2376	1
2377	1
2378	1
2387	1
2392	1
2405	1
2409	1
2420	1
2421	1
2424	2
2425	1
2427	1
2430	1
2432	1
2433	1
2437	1
2439	1
2443	1
2448	1
2451	1
2457	1
2458	1
2473	1
2475	1
2477	1
2478	1
2481	1
2486	1
2500	1
2505	1
2507	1
2508	1
2510	1
2519	1
2522	1
2528	1
2545	1
2548	1
2557	1
2560	1
2567	1
2568	1
2573	1
2579	1
2580	2
2583	2
2586	1
2591	1
2604	1
2612	1
2649	1
2657	1
2666	1
2670	1
2672	1
2676	1
2679	1
2685	1
2697	1
2698	1
2720	1
2723	1
2730	1
2771	1
2785	1
2798	1
2807	1
2825	1
2826	1
2828	1
2832	1
2850	1
2868	1
2877	1
2888	1
2895	1
2937	1
2951	1
2990	1
2992	1
2996	1
3020	1
3025	1
3038	1
3119	1
3137	2
3161	1
3168	1
3189	1
3267	1
3279	1
3316	1
3327	1
3415	1
3435	1
3478	1
3492	1
3541	2
3589	1
3689	1
3841	1
4336	1
4773	1
4786	1
4899	1
4912	1


