Query Sequence	Frame	Subject Sequence	Percent Identical	Alignment Length	Mismatches	Gap Openings	Query Start	Query End	Subject Start	Subject End	E Value	Coverage	Description	Species	Taxonomic Lineage	Origin Database	Contaminant	Informative	UniProt GO Biological	UniProt GO Cellular	UniProt GO Molecular	UniProt KEGG Terms	UniProt Database Cross Reference	UniProt Additional Information	Seed Ortholog	Seed E-Value	Seed Score	Predicted Gene	Tax Scope	Tax Scope Max	Member OGs	KEGG Terms	GO Biological	GO Cellular	GO Molecular	
JF2A_TRINITY_DN38934_c0_g1_i3.p1JF2A_TRINITY_DN38934_c0_g1~~JF2A_TRINITY_DN38934_c0_g1_i3.p1ORFtype:3prime_partiallen:103(-),score=8.81JF2A_TRINITY_DN38934_c0_g1_i3:3-308(-)																									198804.BUsg334	1.70e-30	137.1	FLGK	Bacteria	bactNOG[38]	05E1Q@bactNOG,0QIKF@gproNOG,16SD6@proNOG,COG1256@NOG	2040	GO:0001539-cilium or flagellum-dependent cell motility(L=4),	GO:0005618-cell wall(L=4),GO:0009288-bacterial-type flagellum(L=4),GO:0030313-cell envelope(L=4),GO:0044461-bacterial-type flagellum part(L=4),	GO:0016818-hydrolase activity, acting on acid anhydrides, in phosphorus-containing anhydrides(L=4),	
JF2A_TRINITY_DN27560_c1_g1_i1.p1JF2A_TRINITY_DN27560_c1_g1~~JF2A_TRINITY_DN27560_c1_g1_i1.p1ORFtype:3prime_partiallen:109(-),score=20.75JF2A_TRINITY_DN27560_c1_g1_i1:1-324(-)																																				
JF1A_TRINITY_DN66581_c2_g5_i1.p1JF1A_TRINITY_DN66581_c2_g5~~JF1A_TRINITY_DN66581_c2_g5_i1.p1ORFtype:3prime_partiallen:173(-),score=27.69JF1A_TRINITY_DN66581_c2_g5_i1:2-517(-)																									29760.VIT_05s0062g00900.t01	3.00e-27	127.1		Viridiplantae	virNOG[6]	0JC2G@euNOG,0YHK8@NOG,1BTNS@strNOG,1E5IQ@virNOG				GO:2001070-starch binding(L=4),	
JF1A_TRINITY_DN60322_c0_g1_i2.p1JF1A_TRINITY_DN60322_c0_g1~~JF1A_TRINITY_DN60322_c0_g1_i2.p1ORFtype:5prime_partiallen:218(+),score=15.84,Neprosin_AP|PF14365.6|0.00024JF1A_TRINITY_DN60322_c0_g1_i2:2-655(+)																									3694.POPTR_0015s09190.1	5.80e-04	50.1	OSI_02355	Viridiplantae	virNOG[6]	0IHEC@euNOG,11S54@NOG,1BC6T@strNOG,1DR2V@virNOG					
JF3A_TRINITY_DN46080_c1_g3_i2.p1JF3A_TRINITY_DN46080_c1_g3~~JF3A_TRINITY_DN46080_c1_g3_i2.p1ORFtype:5prime_partiallen:246(-),score=59.54,GST_N|PF02798.20|3.6e-17,GST_N_3|PF13417.6|4.1e-15,GST_N_3|PF13417.6|8.2e+03,GST_N_2|PF13409.6|5.7e-12,GST_N_2|PF13409.6|4.7e+03,GST_C|PF00043.25|5.9e-11,GST_C_2|PF13410.6|5.6e-08,GST_C_3|PF14497.6|7.4e-05JF3A_TRINITY_DN46080_c1_g3_i2:108-845(-)		XP_021746029.1	55.0	220	96	2	24	243	1	217	2.20e-65	89.40	XP_021746029.1 probable glutathione S-transferase [Chenopodium quinoa]	chenopodium quinoa	chenopodium quinoa;chenopodium;atripliceae;chenopodioideae;chenopodiaceae;caryophyllales;pentapetalae;gunneridae;eudicotyledons;mesangiospermae;magnoliophyta;spermatophyta;euphyllophyta;tracheophyta;embryophyta;streptophytina;streptophyta;viridiplantae;eukaryota;cellular organisms;root	Juniper_DOWN/similarity_search/DIAMOND/blastp_Juniper_Down_final_complete.out	No	Yes							3847.GLYMA15G40200.1	6.90e-62	242.7	GST5	Viridiplantae	virNOG[6]	0XSIX@NOG,1BPEQ@strNOG,1E22A@virNOG,KOG0406@euNOG	480,980,982,5204	GO:0006518-peptide metabolic process(L=4),GO:0006749-glutathione metabolic process(L=4),GO:0009407-toxin catabolic process(L=4),GO:0010038-response to metal ion(L=4),GO:0042631-cellular response to water deprivation(L=4),GO:0043436-oxoacid metabolic process(L=4),GO:0043603-cellular amide metabolic process(L=4),GO:0071462-cellular response to water stimulus(L=4),GO:1901701-cellular response to oxygen-containing compound(L=4),	GO:0005737-cytoplasm(L=4),GO:0005829-cytosol(L=4),GO:0043231-intracellular membrane-bounded organelle(L=4),GO:0044444-cytoplasmic part(L=4),	GO:0004364-glutathione transferase activity(L=4),GO:0031406-carboxylic acid binding(L=4),GO:1900750-oligopeptide binding(L=4),	
JF2A_TRINITY_DN41027_c0_g2_i2.p1JF2A_TRINITY_DN41027_c0_g2~~JF2A_TRINITY_DN41027_c0_g2_i2.p1ORFtype:5prime_partiallen:190(-),score=38.32,MbeB_N|PF04837.12|0.07,MbeB_N|PF04837.12|1.1e+04,FAM47|PF14642.6|0.84,FAM47|PF14642.6|1.6e+02JF2A_TRINITY_DN41027_c0_g2_i2:38-607(-)		XP_010026870.1	29.8	168	107	5	27	189	59	220	2.90e-09	85.80	XP_010026870.1 PREDICTED: uncharacterized protein LOC104417260 [Eucalyptus grandis]	eucalyptus grandis	eucalyptus grandis;eucalyptus;eucalypteae;myrtoideae;myrtaceae;myrtales;malvids;rosids;pentapetalae;gunneridae;eudicotyledons;mesangiospermae;magnoliophyta;spermatophyta;euphyllophyta;tracheophyta;embryophyta;streptophytina;streptophyta;viridiplantae;eukaryota;cellular organisms;root	Juniper_DOWN/similarity_search/DIAMOND/blastp_Juniper_Down_final_complete.out	No	No							7955.ENSDARP00000109971	2.30e-12	77.8		Fishes	fiNOG[1]	0B4AT@biNOG,0E86Z@chorNOG,0IPYC@euNOG,0NCAT@fiNOG,0WGTE@meNOG,11K5V@NOG,13CVC@opiNOG,1DF5V@veNOG		GO:0006259-DNA metabolic process(L=4),GO:0009059-macromolecule biosynthetic process(L=4),GO:0034645-cellular macromolecule biosynthetic process(L=4),GO:0090304-nucleic acid metabolic process(L=4),		GO:0003723-RNA binding(L=4),GO:0016779-nucleotidyltransferase activity(L=4),	
JF1A_TRINITY_DN2857_c0_g1_i1.p1JF1A_TRINITY_DN2857_c0_g1~~JF1A_TRINITY_DN2857_c0_g1_i1.p1ORFtype:internallen:151(+),score=16.16,DUF5632|PF18646.1|0.23JF1A_TRINITY_DN2857_c0_g1_i1:1-450(+)																									3218.PP1S1_321V6.1	6.80e-20	102.4		Viridiplantae	virNOG[6]	1BGIW@strNOG,1DUG6@virNOG,COG4886@NOG,KOG4658@euNOG		GO:0006259-DNA metabolic process(L=4),GO:0009059-macromolecule biosynthetic process(L=4),GO:0034645-cellular macromolecule biosynthetic process(L=4),GO:0090304-nucleic acid metabolic process(L=4),		GO:0001883-purine nucleoside binding(L=4),GO:0003723-RNA binding(L=4),GO:0016779-nucleotidyltransferase activity(L=4),GO:0017076-purine nucleotide binding(L=4),GO:0032549-ribonucleoside binding(L=4),GO:0032555-purine ribonucleotide binding(L=4),GO:0043531-ADP binding(L=4),	
JF1A_TRINITY_DN68638_c3_g2_i1.p1JF1A_TRINITY_DN68638_c3_g2~~JF1A_TRINITY_DN68638_c3_g2_i1.p1ORFtype:5prime_partiallen:237(+),score=34.81JF1A_TRINITY_DN68638_c3_g2_i1:2-712(+)																									3847.GLYMA04G14790.1	1.80e-99	367.5	DUR3	Viridiplantae	virNOG[6]	1BM5J@strNOG,1DZ0I@virNOG,COG0591@NOG,KOG2348@euNOG		GO:0009267-cellular response to starvation(L=4),GO:0019755-one-carbon compound transport(L=4),GO:0031667-response to nutrient levels(L=4),GO:0031669-cellular response to nutrient levels(L=4),GO:0055085-transmembrane transport(L=4),GO:0071702-organic substance transport(L=4),GO:0071705-nitrogen compound transport(L=4),	GO:0016021-integral component of membrane(L=4),	GO:0015291-secondary active transmembrane transporter activity(L=4),GO:0042887-amide transmembrane transporter activity(L=4),	
JF2A_TRINITY_DN48879_c0_g1_i1.p1JF2A_TRINITY_DN48879_c0_g1~~JF2A_TRINITY_DN48879_c0_g1_i1.p1ORFtype:internallen:135(+),score=19.10,TPP_enzyme_N|PF02776.18|8.2e-47,POR_N|PF01855.19|0.04JF2A_TRINITY_DN48879_c0_g1_i1:1-402(+)																									198804.BUsg220	1.30e-65	254.2	ILVB	Bacteria	bactNOG[38]	05C7K@bactNOG,0QI57@gproNOG,16PKP@proNOG,COG0028@NOG	290,650,660,770,1100,1110,1210,1230	GO:0006259-DNA metabolic process(L=4),GO:0008652-cellular amino acid biosynthetic process(L=4),GO:0009081-branched-chain amino acid metabolic process(L=4),GO:0016053-organic acid biosynthetic process(L=4),GO:0043436-oxoacid metabolic process(L=4),GO:0044283-small molecule biosynthetic process(L=4),GO:0051188-cofactor biosynthetic process(L=4),GO:0090304-nucleic acid metabolic process(L=4),GO:1901566-organonitrogen compound biosynthetic process(L=4),GO:1901605-alpha-amino acid metabolic process(L=4),	GO:0005618-cell wall(L=4),GO:0005737-cytoplasm(L=4),GO:0044444-cytoplasmic part(L=4),	GO:0003984-acetolactate synthase activity(L=4),GO:0004802-transketolase activity(L=4),GO:0008168-methyltransferase activity(L=4),GO:0016623-oxidoreductase activity, acting on the aldehyde or oxo group of donors, oxygen as acceptor(L=4),GO:0046872-metal ion binding(L=4),GO:0050660-flavin adenine dinucleotide binding(L=4),	
JF3A_TRINITY_DN59501_c1_g1_i5.p1JF3A_TRINITY_DN59501_c1_g1~~JF3A_TRINITY_DN59501_c1_g1_i5.p1ORFtype:internallen:180(-),score=7.76,PsaA_PsaB|PF00223.19|1.6e-64,TubC_N|PF18563.1|1.4e+03,TubC_N|PF18563.1|0.85JF3A_TRINITY_DN59501_c1_g1_i5:3-539(-)																									3702.ATCG00340.1	2.80e-76	290.0	PSAB	Viridiplantae	virNOG[6]	0IE88@euNOG,0Y2QV@NOG,1BCFA@strNOG,1DQDB@virNOG	195,1100	GO:0036211-protein modification process(L=4),GO:0043412-macromolecule modification(L=4),GO:0044267-cellular protein metabolic process(L=4),	GO:0005737-cytoplasm(L=4),GO:0009521-photosystem(L=4),GO:0009579-thylakoid(L=4),GO:0016021-integral component of membrane(L=4),GO:0034357-photosynthetic membrane(L=4),GO:0043231-intracellular membrane-bounded organelle(L=4),GO:0044436-thylakoid part(L=4),GO:0044444-cytoplasmic part(L=4),	GO:0001883-purine nucleoside binding(L=4),GO:0016168-chlorophyll binding(L=4),GO:0017076-purine nucleotide binding(L=4),GO:0032549-ribonucleoside binding(L=4),GO:0032555-purine ribonucleotide binding(L=4),GO:0035639-purine ribonucleoside triphosphate binding(L=4),GO:0046872-metal ion binding(L=4),GO:0051539-4 iron, 4 sulfur cluster binding(L=4),	
JF1A_TRINITY_DN65332_c1_g3_i1.p1JF1A_TRINITY_DN65332_c1_g3~~JF1A_TRINITY_DN65332_c1_g3_i1.p1ORFtype:internallen:102(-),score=20.32,K_trans|PF02705.16|2.8e-14JF1A_TRINITY_DN65332_c1_g3_i1:1-303(-)																									3847.GLYMA08G39840.1	3.70e-30	136.0		Viridiplantae	virNOG[6]	0IEMH@euNOG,1BHPD@strNOG,1DVJV@virNOG,COG3158@NOG		GO:0006811-ion transport(L=4),GO:0055085-transmembrane transport(L=4),GO:0071805-potassium ion transmembrane transport(L=4),	GO:0005737-cytoplasm(L=4),GO:0016021-integral component of membrane(L=4),GO:0043231-intracellular membrane-bounded organelle(L=4),GO:0044444-cytoplasmic part(L=4),	GO:0015075-ion transmembrane transporter activity(L=4),	
JF3A_TRINITY_DN57907_c1_g1_i11.p1JF3A_TRINITY_DN57907_c1_g1~~JF3A_TRINITY_DN57907_c1_g1_i11.p1ORFtype:internallen:108(-),score=4.75JF3A_TRINITY_DN57907_c1_g1_i11:3-323(-)																																				
JF3J_TRINITY_DN74404_c0_g3_i6.p1JF3J_TRINITY_DN74404_c0_g3~~JF3J_TRINITY_DN74404_c0_g3_i6.p1ORFtype:3prime_partiallen:199(+),score=38.41JF3J_TRINITY_DN74404_c0_g3_i6:107-700(+)																									3702.AT4G28080.1	5.20e-36	156.4	OSI_06619	Viridiplantae	virNOG[6]	0C1FA@braNOG,0XQUQ@NOG,1BG7R@strNOG,1DU51@virNOG,KOG1839@euNOG		GO:0006259-DNA metabolic process(L=4),GO:0009059-macromolecule biosynthetic process(L=4),GO:0009737-response to abscisic acid(L=4),GO:0033993-response to lipid(L=4),GO:0034645-cellular macromolecule biosynthetic process(L=4),GO:0090304-nucleic acid metabolic process(L=4),GO:0097305-response to alcohol(L=4),	GO:0005737-cytoplasm(L=4),GO:0005829-cytosol(L=4),GO:0044444-cytoplasmic part(L=4),	GO:0003723-RNA binding(L=4),GO:0016779-nucleotidyltransferase activity(L=4),GO:0016818-hydrolase activity, acting on acid anhydrides, in phosphorus-containing anhydrides(L=4),	
JF3J_TRINITY_DN74347_c7_g2_i5.p1JF3J_TRINITY_DN74347_c7_g2~~JF3J_TRINITY_DN74347_c7_g2_i5.p1ORFtype:internallen:200(-),score=23.09JF3J_TRINITY_DN74347_c7_g2_i5:2-598(-)		sp|P30828|RBL_MAGLA	92.3	168	13	0	23	190	1	168	7.70e-90	84.40	sp|P30828|RBL_MAGLA Ribulose bisphosphate carboxylase large chain (Fragment) OS=Magnolia latahensis OX=3409 GN=rbcL PE=3 SV=1	magnolia latahensis	magnolia latahensis;magnolia;magnoliaceae;magnoliales;magnoliidae;mesangiospermae;magnoliophyta;spermatophyta;euphyllophyta;tracheophyta;embryophyta;streptophytina;streptophyta;viridiplantae;eukaryota;cellular organisms;root	Juniper_DOWN/similarity_search/DIAMOND/blastp_Juniper_Down_final_uniprot_sprot.out	No	Yes					|EMBL; X54344; CAA38232.1; -; Genomic_DNA.|ProteinModelPortal; P30828; -.|SMR; P30828; -.|Gene3D; 3.20.20.110; -; 1.|Gene3D; 3.30.70.150; -; 1.|InterPro; IPR033966; RuBisCO.|InterPro; IPR020878; RuBisCo_large_chain_AS.|InterPro; IPR000685; RuBisCO_lsu_C.|InterPro; IPR036376; RuBisCO_lsu_C_sf.|InterPro; IPR017443; RuBisCO_lsu_fd_N.|InterPro; IPR036422; RuBisCO_lsu_N_sf.|PANTHER; PTHR42704; PTHR42704; 1.|Pfam; PF00016; RuBisCO_large; 1.|Pfam; PF02788; RuBisCO_large_N; 1.|SUPFAM; SSF51649; SSF51649; 1.|SUPFAM; SSF54966; SSF54966; 1.|PROSITE; PS00157; RUBISCO_LARGE; 1.	|-!- FUNCTION: RuBisCO catalyzes two reactions: the carboxylation of D-|    ribulose 1,5-bisphosphate, the primary event in carbon dioxide|    fixation, as well as the oxidative fragmentation of the pentose|    substrate in the photorespiration process. Both reactions occur|    simultaneously and in competition at the same active site (By|    similarity). {ECO:0000250}.|-!- CATALYTIC ACTIVITY:|    Reaction=2 3-phospho-D-glycerate + 2 H(+) = CO2 + D-ribulose 1,5-|      bisphosphate + H2O; Xref=Rhea:RHEA:23124, ChEBI:CHEBI:15377,|      ChEBI:CHEBI:15378, ChEBI:CHEBI:16526, ChEBI:CHEBI:57870,|      ChEBI:CHEBI:58272; EC=4.1.1.39;|-!- CATALYTIC ACTIVITY:|    Reaction=D-ribulose 1,5-bisphosphate + O2 = 2-phosphoglycolate +|      3-phospho-D-glycerate + 2 H(+); Xref=Rhea:RHEA:36631,|      ChEBI:CHEBI:15378, ChEBI:CHEBI:15379, ChEBI:CHEBI:57870,|      ChEBI:CHEBI:58033, ChEBI:CHEBI:58272;|-!- COFACTOR:|    Name=Mg(2+); Xref=ChEBI:CHEBI:18420; Evidence={ECO:0000250};|    Note=Binds 1 Mg(2+) ion per subunit. {ECO:0000250};|-!- SUBUNIT: Heterohexadecamer of 8 large chains and 8 small chains;|    disulfide-linked. The disulfide link is formed within the large|    subunit homodimers (By similarity). {ECO:0000250}.|-!- SUBCELLULAR LOCATION: Plastid, chloroplast.|-!- PTM: The disulfide bond which can form in the large chain dimeric|    partners within the hexadecamer appears to be associated with|    oxidative stress and protein turnover. {ECO:0000250}.|-!- MISCELLANEOUS: The basic functional RuBisCO is composed of a large|    chain homodimer in a "head-to-tail" conformation. In form I|    RuBisCO this homodimer is arranged in a barrel-like tetramer with|    the small subunits forming a tetrameric "cap" on each end of the|    "barrel" (By similarity). {ECO:0000250}.|-!- SIMILARITY: Belongs to the RuBisCO large chain family. Type I|    subfamily. {ECO:0000305}.|-!- CAUTION: This sequence originates from a miocene fossil leaf|    sample. {ECO:0000305}.	3711.Bra028087.1-P	1.00e-92	344.7	RBCL	Viridiplantae	virNOG[6]	0BUBK@braNOG,0IIVP@euNOG,1BDTY@strNOG,1DRR5@virNOG,COG1850@NOG	630,710,1100,1120	GO:0016051-carbohydrate biosynthetic process(L=4),GO:0019684-photosynthesis, light reaction(L=4),GO:0036211-protein modification process(L=4),GO:0043094-cellular metabolic compound salvage(L=4),GO:0043412-macromolecule modification(L=4),GO:0044267-cellular protein metabolic process(L=4),	GO:0005737-cytoplasm(L=4),GO:0009521-photosystem(L=4),GO:0009579-thylakoid(L=4),GO:0016021-integral component of membrane(L=4),GO:0034357-photosynthetic membrane(L=4),GO:0043231-intracellular membrane-bounded organelle(L=4),GO:0044436-thylakoid part(L=4),GO:0044444-cytoplasmic part(L=4),	GO:0003954-NADH dehydrogenase activity(L=4),GO:0016168-chlorophyll binding(L=4),GO:0016655-oxidoreductase activity, acting on NAD(P)H, quinone or similar compound as acceptor(L=4),GO:0016831-carboxy-lyase activity(L=4),GO:0046872-metal ion binding(L=4),GO:0051539-4 iron, 4 sulfur cluster binding(L=4),	
JF3A_TRINITY_DN55184_c0_g1_i12.p1JF3A_TRINITY_DN55184_c0_g1~~JF3A_TRINITY_DN55184_c0_g1_i12.p1ORFtype:5prime_partiallen:286(-),score=36.35,peroxidase|PF00141.23|1.8e-44JF3A_TRINITY_DN55184_c0_g1_i12:147-1004(-)		XP_010659743.2	47.4	287	142	3	7	285	47	332	3.00e-58	97.60	XP_010659743.2 PREDICTED: peroxidase 5-like [Vitis vinifera]	vitis vinifera	vitis vinifera;vitis;viteae;vitaceae;vitales;rosids incertae sedis;rosids;pentapetalae;gunneridae;eudicotyledons;mesangiospermae;magnoliophyta;spermatophyta;euphyllophyta;tracheophyta;embryophyta;streptophytina;streptophyta;viridiplantae;eukaryota;cellular organisms;root	Juniper_DOWN/similarity_search/DIAMOND/blastp_Juniper_Down_final_complete.out	No	No							29760.VIT_14s0060g00510.t01	8.30e-59	232.6		Viridiplantae	virNOG[6]	0IIH7@euNOG,0YDTD@NOG,1BIUH@strNOG,1DWPT@virNOG	360,940,1100,1110			GO:0020037-heme binding(L=4),GO:0046872-metal ion binding(L=4),	
JF2A_TRINITY_DN42522_c2_g1_i1.p1JF2A_TRINITY_DN42522_c2_g1~~JF2A_TRINITY_DN42522_c2_g1_i1.p1ORFtype:5prime_partiallen:138(-),score=3.61,OmpA|PF00691.20|1.2e-21JF2A_TRINITY_DN42522_c2_g1_i1:149-562(-)																									198804.BUsg320	1.20e-50	204.5	OMPA	Bacteria	bactNOG[38]	05UYK@bactNOG,0QIEF@gproNOG,16SUH@proNOG,COG2885@NOG		GO:0006811-ion transport(L=4),GO:0006974-cellular response to DNA damage stimulus(L=4),GO:0051701-interaction with host(L=4),GO:0051707-response to other organism(L=4),GO:0052192-movement in environment of other organism involved in symbiotic interaction(L=4),GO:0055085-transmembrane transport(L=4),	GO:0009279-cell outer membrane(L=4),GO:0016021-integral component of membrane(L=4),GO:0030313-cell envelope(L=4),GO:0046930-pore complex(L=4),	GO:0015267-channel activity(L=4),	
JF2A_TRINITY_DN41399_c2_g6_i1.p1JF2A_TRINITY_DN41399_c2_g6~~JF2A_TRINITY_DN41399_c2_g6_i1.p1ORFtype:5prime_partiallen:100(-),score=10.01JF2A_TRINITY_DN41399_c2_g6_i1:33-332(-)																																				
JF2A_TRINITY_DN42785_c2_g4_i1.p2JF2A_TRINITY_DN42785_c2_g4~~JF2A_TRINITY_DN42785_c2_g4_i1.p2ORFtype:3prime_partiallen:107(+),score=9.89JF2A_TRINITY_DN42785_c2_g4_i1:293-610(+)																																				
JF3A_TRINITY_DN48188_c0_g3_i6.p1JF3A_TRINITY_DN48188_c0_g3~~JF3A_TRINITY_DN48188_c0_g3_i6.p1ORFtype:5prime_partiallen:156(-),score=26.40,CLP_protease|PF00574.23|1.1e-31JF3A_TRINITY_DN48188_c0_g3_i6:90-557(-)		XP_016206269.1	70.7	99	29	0	35	133	78	176	9.10e-33	63.50	XP_016206269.1 ATP-dependent Clp protease proteolytic subunit 5, chloroplastic-like [Arachis ipaensis]	arachis ipaensis	arachis ipaensis;arachis;pterocarpus clade;dalbergieae;dalbergioids sensu lato;50 kb inversion clade;papilionoideae;fabaceae;fabales;fabids;rosids;pentapetalae;gunneridae;eudicotyledons;mesangiospermae;magnoliophyta;spermatophyta;euphyllophyta;tracheophyta;embryophyta;streptophytina;streptophyta;viridiplantae;eukaryota;cellular organisms;root	Juniper_DOWN/similarity_search/DIAMOND/blastp_Juniper_Down_final_complete.out	No	Yes							4558.Sb01g037430.1	3.50e-35	153.3	CLPP5	Viridiplantae	virNOG[6]	0TU3G@lilNOG,15FTS@poaNOG,1BKU0@strNOG,1DW4I@virNOG,COG0740@NOG,KOG0840@euNOG	4112	GO:0006508-proteolysis(L=4),	GO:0005737-cytoplasm(L=4),GO:0009368-endopeptidase Clp complex(L=4),GO:0009579-thylakoid(L=4),GO:0043231-intracellular membrane-bounded organelle(L=4),GO:0044444-cytoplasmic part(L=4),	GO:0001883-purine nucleoside binding(L=4),GO:0008236-serine-type peptidase activity(L=4),GO:0016298-lipase activity(L=4),GO:0017076-purine nucleotide binding(L=4),GO:0032549-ribonucleoside binding(L=4),GO:0032555-purine ribonucleotide binding(L=4),GO:0035639-purine ribonucleoside triphosphate binding(L=4),GO:0070011-peptidase activity, acting on L-amino acid peptides(L=4),	
JF2A_TRINITY_DN41944_c0_g2_i1.p1JF2A_TRINITY_DN41944_c0_g2~~JF2A_TRINITY_DN41944_c0_g2_i1.p1ORFtype:3prime_partiallen:181(+),score=36.87JF2A_TRINITY_DN41944_c0_g2_i1:262-801(+)																																				
JF3A_TRINITY_DN56636_c5_g4_i1.p1JF3A_TRINITY_DN56636_c5_g4~~JF3A_TRINITY_DN56636_c5_g4_i1.p1ORFtype:internallen:144(-),score=39.34,RRM_1|PF00076.22|2.9e-06JF3A_TRINITY_DN56636_c5_g4_i1:1-429(-)																									4641.GSMUA_Achr10P25210_001	7.90e-34	148.7		Viridiplantae	virNOG[6]	0TM2N@lilNOG,0XQZ5@NOG,1BGZU@strNOG,1DRDT@virNOG,KOG0110@euNOG		GO:0009889-regulation of biosynthetic process(L=4),GO:0031323-regulation of cellular metabolic process(L=4),GO:0051171-regulation of nitrogen compound metabolic process(L=4),GO:0051338-regulation of transferase activity(L=4),GO:0051726-regulation of cell cycle(L=4),GO:0060255-regulation of macromolecule metabolic process(L=4),GO:0080090-regulation of primary metabolic process(L=4),	GO:0043231-intracellular membrane-bounded organelle(L=4),		
JF3A_TRINITY_DN52317_c1_g1_i2.p1JF3A_TRINITY_DN52317_c1_g1~~JF3A_TRINITY_DN52317_c1_g1_i2.p1ORFtype:5prime_partiallen:176(+),score=38.38JF3A_TRINITY_DN52317_c1_g1_i2:2-529(+)																																				
JF3A_TRINITY_DN56030_c5_g1_i11.p1JF3A_TRINITY_DN56030_c5_g1~~JF3A_TRINITY_DN56030_c5_g1_i11.p1ORFtype:5prime_partiallen:107(+),score=-9.48,Gp_dh_C|PF02800.20|0.092JF3A_TRINITY_DN56030_c5_g1_i11:2-322(+)																																				
